0.43651583	1.e-12	0.41	2446.2341	23888.689	-0.0094644136	-0.00255776	-0.0025576956	-2.6140937	8.4844329	0	929.6876348371122
0.43651583	1.0964782e-12	0.41	2231.0065	21787.492	-0.0094259779	-0.002612177	-0.0026121063	-2.3850061	7.7373181	0	929.7027875015956
0.43651583	1.2022644e-12	0.41	2034.7166	19871.175	-0.0093870943	-0.0026676129	-0.0026675354	-2.1760743	7.0559418	0	929.7179686875248
0.43651583	1.3182567e-12	0.41	1855.6982	18123.472	-0.0093477983	-0.0027239838	-0.0027238988	-1.9855248	6.43452	0	929.7331774374827
0.43651583	1.4454398e-12	0.41	1692.4314	16529.546	-0.0093081249	-0.0027812083	-0.0027811151	-1.8117402	5.8677772	0	929.7484122237358
0.43651583	1.5848932e-12	0.41	1543.5303	15075.866	-0.0092681076	-0.0028392085	-0.0028391063	-1.6532453	5.3509021	0	929.7636716181453
0.43651583	1.7378008e-12	0.41	1407.731	13750.093	-0.0092277787	-0.0028979101	-0.002897798	-1.5086949	4.879507	0	929.7789539332513
0.43651583	1.9054607e-12	0.41	1283.8805	12540.971	-0.0091871687	-0.0029572438	-0.0029571209	-1.3768618	4.44959	0	929.7942572081811
0.43651583	2.0892961e-12	0.41	1170.9276	11438.236	-0.0091463059	-0.0030171447	-0.00301701	-1.2566272	4.0575016	0	929.809579892652
0.43651583	2.2908677e-12	0.41	1067.9133	10432.529	-0.0091052166	-0.0030775531	-0.0030774054	-1.1469705	3.6999131	0	929.8249203508806
0.43651583	2.5118864e-12	0.41	973.96321	9515.3098	-0.0090639252	-0.0031384141	-0.0031382521	-1.046961	3.3737888	0	929.840276844671
0.43651583	2.7542287e-12	0.41	888.27969	8678.7939	-0.0090224539	-0.0031996777	-0.0031995001	-0.9557498	3.0763603	0	929.8556477767621
0.43651583	3.0199517e-12	0.41	810.1354	7915.8799	-0.0089808228	-0.0032612984	-0.0032611037	-0.87256275	2.8051026	0	929.8710318665266
0.43651583	3.3113112e-12	0.41	738.86698	7220.0916	-0.0089390502	-0.0033232355	-0.0033230219	-0.79669381	2.5577129	0	929.8864277140116
0.43651583	3.6307805e-12	0.41	673.86941	6585.5225	-0.0088971524	-0.0033854519	-0.0033852178	-0.72749908	2.332091	0	929.9018342189866
0.43651583	3.9810717e-12	0.41	614.59094	6006.786	-0.0088551443	-0.0034479149	-0.0034476581	-0.66439129	2.1263217	0	929.9172502098132
0.43651583	4.3651583e-12	0.41	560.52832	5478.9692	-0.0088130388	-0.0035105951	-0.0035103136	-0.60683485	1.9386579	0	929.9326748145751
0.43651583	4.7863009e-12	0.41	511.22265	4997.5919	-0.0087708477	-0.0035734664	-0.0035731577	-0.55434132	1.7675068	0	929.9481071933005
0.43651583	5.2480746e-12	0.41	466.25535	4558.5678	-0.0087285815	-0.0036365055	-0.0036361671	-0.50646521	1.6114152	0	929.9635464562214
0.43651583	5.7543994e-12	0.41	425.24469	4158.1702	-0.0086862492	-0.003699692	-0.0036993209	-0.46280022	1.4690581	0	929.9789921983847
0.43651583	6.3095734e-12	0.41	387.84253	3793.0004	-0.0086438593	-0.0037630077	-0.0037626008	-0.42297583	1.339227	0	929.9944434830443
0.43651583	6.9183097e-12	0.41	353.73135	3459.9587	-0.0086014193	-0.0038264358	-0.0038259897	-0.38665411	1.2208198	0	930.0098998507522
0.43651583	7.5857758e-12	0.41	322.6216	3156.2181	-0.0085589385	-0.0038899591	-0.0038894699	-0.35352687	1.1128311	0	930.0253593819768
0.43651583	8.3176377e-12	0.41	294.24916	2879.2	-0.0085164344	-0.0039535505	-0.0039530141	-0.32331301	1.0143442	0	930.0408161508792
0.43651583	9.1201084e-12	0.41	268.37316	2626.5522	-0.0084739677	-0.004017132	-0.0040165438	-0.29575619	0.92452253	0	930.0562433657535
0.43651583	1.e-11	0.41	244.77383	2396.125	-0.0084317918	-0.0040803927	-0.0040797478	-0.27062264	0.84260117	0	930.0715228217623
0.43651583	1.0964782e-11	0.41	223.25039	2185.9433	-0.0083909016	-0.0041421249	-0.0041414178	-0.24769916	0.7678756	0	930.0861852088317
0.43651583	1.2022644e-11	0.41	203.61898	1994.1724	-0.0083539201	-0.0041991565	-0.0041983811	-0.2267914	0.69968787	0	930.098988240233
0.43651583	1.3182567e-11	0.41	185.71199	1819.1413	-0.0083233689	-0.0042484944	-0.0042476443	-0.20772224	0.63743877	0	930.1087158308965
0.43651583	1.4454398e-11	0.41	169.37801	1659.3931	-0.0082984065	-0.0042913024	-0.0042903702	-0.19033019	0.58061282	0	930.1157106891624
0.43651583	1.5848932e-11	0.41	154.4796	1513.6257	-0.0082768109	-0.0043304176	-0.0043293956	-0.17446788	0.52875259	0	930.1209677320547
0.43651583	1.7378008e-11	0.41	140.89109	1380.6393	-0.0082570201	-0.0043678319	-0.0043667113	-0.16000085	0.48143502	0	930.1251876611038
0.43651583	1.9054607e-11	0.41	128.49762	1259.3262	-0.0082381505	-0.0044046767	-0.0044034479	-0.14680639	0.43826819	0	930.128765144493
0.43651583	2.0892961e-11	0.41	117.19423	1148.6688	-0.0082197021	-0.0044415942	-0.0044402469	-0.1347726	0.3988913	0	930.131922845117
0.43651583	2.2908677e-11	0.41	106.88515	1047.7353	-0.0082013792	-0.0044789628	-0.0044774855	-0.12379736	0.36297349	0	930.134793286789
0.43651583	2.5118864e-11	0.41	97.482963	955.67355	-0.0081830009	-0.0045170097	-0.0045153898	-0.11378757	0.33021203	0	930.1374593382336
0.43651583	2.7542287e-11	0.41	88.90792	871.7054	-0.0081644549	-0.0045558687	-0.0045540925	-0.10465828	0.30033027	0	930.1399753937076
0.43651583	3.0199517e-11	0.41	81.087283	795.12027	-0.0081456728	-0.0045956122	-0.0045936647	-0.096332049	0.27307556	0	930.1423783302109
0.43651583	3.3113112e-11	0.41	73.954691	725.26958	-0.0081266159	-0.0046362702	-0.0046341348	-0.088738211	0.24821723	0	930.1446935686242
0.43651583	3.6307805e-11	0.41	67.449626	661.5616	-0.0081072665	-0.0046778401	-0.0046754987	-0.081812337	0.2255448	0	930.1469393186633
0.43651583	3.9810717e-11	0.41	61.516881	603.45634	-0.0080876214	-0.0047202975	-0.0047177302	-0.075495656	0.20486616	0	930.1491286797484
0.43651583	4.3651583e-11	0.41	56.106109	550.46124	-0.0080676885	-0.0047636006	-0.0047607856	-0.069734572	0.18600607	0	930.1512710635056
0.43651583	4.7863009e-11	0.41	51.171387	502.12693	-0.0080474833	-0.0048076962	-0.0048046096	-0.064480203	0.16880464	0	930.153373209437
0.43651583	5.2480746e-11	0.41	46.670835	458.04352	-0.0080270257	-0.0048525241	-0.0048491398	-0.059687966	0.15311602	0	930.1554404580323
0.43651583	5.7543994e-11	0.41	42.566252	417.8371	-0.0080063385	-0.0048980215	-0.0048943106	-0.055317201	0.13880715	0	930.157476657751
0.43651583	6.3095734e-11	0.41	38.822801	381.16665	-0.0079854452	-0.0049441254	-0.0049400565	-0.051330827	0.12575667	0	930.1594849608348
0.43651583	6.9183097e-11	0.41	35.40871	347.72112	-0.0079643686	-0.0049907765	-0.004986315	-0.047695024	0.11385391	0	930.1614680215561
0.43651583	7.5857758e-11	0.41	32.295	317.21682	-0.0079431297	-0.0050379207	-0.0050330288	-0.044378948	0.10299788	0	930.163428182251
0.43651583	8.3176377e-11	0.41	29.455243	289.39498	-0.0079217464	-0.0050855118	-0.005080148	-0.041354468	0.093096524	0	930.1653678472674
0.43651583	9.1201084e-11	0.41	26.865336	264.01965	-0.0079002337	-0.0051335115	-0.0051276302	-0.038595929	0.084065849	0	930.1672892565289
0.43651583	1.e-10	0.41	24.503298	240.87558	-0.0078786025	-0.0051818913	-0.0051754427	-0.036079932	0.075829266	0	930.1691947655261
0.43651583	1.0964782e-10	0.41	22.349081	219.7665	-0.0078568598	-0.0052306319	-0.0052235611	-0.033785137	0.068316923	0	930.1710871967134
0.43651583	1.2022644e-10	0.41	20.384403	200.51341	-0.0078350089	-0.0052797227	-0.0052719698	-0.031692083	0.061465119	0	930.1729694589847
0.43651583	1.3182567e-10	0.41	18.592587	182.95305	-0.0078130496	-0.0053291627	-0.0053206619	-0.029783019	0.055215757	0	930.1748443982835
0.43651583	1.4454398e-10	0.41	16.958429	166.93654	-0.0077909779	-0.0053789584	-0.0053696375	-0.028041757	0.049515853	0	930.1767157343495
0.43651583	1.5848932e-10	0.41	15.468059	152.32809	-0.0077687874	-0.0054291233	-0.0054189032	-0.026453532	0.044317091	0	930.1785869379366
0.43651583	1.7378008e-10	0.41	14.108828	139.00388	-0.0077464688	-0.0054796773	-0.0054684713	-0.025004877	0.039575405	0	930.1804620087747
0.43651583	1.9054607e-10	0.41	12.869204	126.85097	-0.0077240109	-0.0055306448	-0.0055183579	-0.023683513	0.035250607	0	930.1823452679248
0.43651583	2.0892961e-10	0.41	11.738664	115.76637	-0.0077014013	-0.005582054	-0.0055685819	-0.022478238	0.031306049	0	930.1842410853055
0.43651583	2.2908677e-10	0.41	10.707617	105.65614	-0.0076786262	-0.0056339355	-0.0056191639	-0.021378835	0.027708306	0	930.1861544913493
0.43651583	2.5118864e-10	0.41	9.7673127	96.434617	-0.0076556719	-0.0056863206	-0.0056701243	-0.020375988	0.024426896	0	930.1880904995774
0.43651583	2.7542287e-10	0.41	8.9097718	88.023678	-0.0076325248	-0.0057392402	-0.0057214817	-0.019461198	0.02143402	0	930.1900547229529
0.43651583	3.0199517e-10	0.41	8.1277176	80.352064	-0.0076091723	-0.0057927229	-0.0057732519	-0.018626714	0.018704323	0	930.192052913495
0.43651583	3.3113112e-10	0.41	7.4145143	73.354791	-0.0075856038	-0.0058467933	-0.0058254446	-0.017865466	0.016214683	0	930.1940912939449
0.43651583	3.6307805e-10	0.41	6.7641098	66.972584	-0.0075618105	-0.0059014711	-0.0058780639	-0.017171007	0.013944012	0	930.1961765530682
0.43651583	3.9810717e-10	0.41	6.1709854	61.15139	-0.0075377878	-0.005956767	-0.0059311031	-0.016537455	0.011873075	0	930.1983155938519
0.43651583	4.3651583e-10	0.41	5.6301081	55.841903	-0.0075135348	-0.0060126827	-0.0059845448	-0.015959446	0.0099843324	0	930.2005159647638
0.43651583	4.7863009e-10	0.41	5.1368885	50.999156	-0.0074890558	-0.0060692075	-0.0060383576	-0.015432085	0.0082617845	0	930.2027857216372
0.43651583	5.2480746e-10	0.41	4.6871414	46.582135	-0.0074643615	-0.0061263159	-0.0060924933	-0.014950911	0.0066908398	0	930.2051333788133
0.43651583	5.7543994e-10	0.41	4.2770504	42.553428	-0.0074394697	-0.0061839656	-0.0061468846	-0.014511851	0.0052581898	0	930.2075681374557
0.43651583	6.3095734e-10	0.41	3.9031356	38.878917	-0.0074144067	-0.0062420946	-0.0062014422	-0.014111191	0.0039516962	0	930.2100996873016
0.43651583	6.9183097e-10	0.41	3.5622239	35.527477	-0.0073892077	-0.0063006189	-0.0062560526	-0.013745542	0.0027602879	0	930.2127386783245
0.43651583	7.5857758e-10	0.41	3.2514223	32.470722	-0.0073639182	-0.0063594305	-0.0063105753	-0.013411814	0.0016738682	0	930.2154964839629
0.43651583	8.3176377e-10	0.41	2.9680931	29.682762	-0.0073385956	-0.0064183935	-0.006364839	-0.013107186	0.00068322832	0	930.2183851616587
0.43651583	9.1201084e-10	0.41	2.7098316	27.13998	-0.0073133074	-0.0064773471	-0.0064186443	-0.012829085	-0.00022002999	0	930.2214181039768
0.43651583	1.e-9	0.41	2.4744459	24.820839	-0.0072881337	-0.0065361007	-0.0064717589	-0.012575162	-0.0010435645	0	930.2246095387551
0.43651583	1.0964782e-9	0.41	2.259938	22.705699	-0.0072631655	-0.0065944375	-0.0065239203	-0.012343274	-0.0017943571	0	930.2279750862676
0.43651583	1.2022644e-9	0.41	2.0644871	20.776651	-0.0072385047	-0.0066521143	-0.0065748361	-0.012131466	-0.0024787722	0	930.2315316436575
0.43651583	1.3182567e-9	0.41	1.886434	19.017368	-0.0072142612	-0.0067088687	-0.0066241904	-0.011937952	-0.0031026091	0	930.2352976442571
0.43651583	1.4454398e-9	0.41	1.7242671	17.412972	-0.0071905515	-0.0067644218	-0.0066716468	-0.011761102	-0.0036711507	0	930.239293217315
0.43651583	1.5848932e-9	0.41	1.5766095	15.949905	-0.0071674944	-0.0068184889	-0.0067168588	-0.011599427	-0.0041892066	0	930.2435402218186
0.43651583	1.7378008e-9	0.41	1.4422074	14.615821	-0.0071452074	-0.0068707874	-0.0067594777	-0.011451566	-0.0046611529	0	930.2480625856792
0.43651583	1.9054607e-9	0.41	1.3199193	13.399479	-0.0071238022	-0.0069210481	-0.0067991636	-0.011316278	-0.0050909692	0	930.2528862963343
0.43651583	2.0892961e-9	0.41	1.2087061	12.290651	-0.0071033802	-0.0069690261	-0.0068355968	-0.011192427	-0.0054822722	0	930.2580392372649
0.43651583	2.2908677e-9	0.41	1.1076219	11.28003	-0.0070840279	-0.0070145103	-0.0068684878	-0.011078974	-0.0058383471	0	930.263551657778
0.43651583	2.5118864e-9	0.41	1.0158059	10.359148	-0.0070658158	-0.007057329	-0.0068975828	-0.010974969	-0.0061621776	0	930.2694550878067
0.43651583	2.7542287e-9	0.41	0.9324745	9.5203029	-0.0070487934	-0.0070973591	-0.0069226743	-0.010879543	-0.0064564733	0	930.275782952389
0.43651583	3.0199517e-9	0.41	0.85691394	8.7564792	-0.0070329917	-0.0071345218	-0.0069435972	-0.010791899	-0.0067236966	0	930.2825697251167
0.43651583	3.3113112e-9	0.41	0.78847385	8.0612863	-0.0070184227	-0.0071687842	-0.0069602318	-0.010711308	-0.0069660875	0	930.2898502422548
0.43651583	3.6307805e-9	0.41	0.72656081	7.4288923	-0.0070050811	-0.0072001543	-0.006972501	-0.010637101	-0.007185687	0	930.2976591840995
0.43651583	3.9810717e-9	0.41	0.67063261	6.8539671	-0.0069929469	-0.007228676	-0.0069803664	-0.010568666	-0.0073843585	0	930.306030134475
0.43651583	4.3651583e-9	0.41	0.62019278	6.3316281	-0.0069819874	-0.0072544238	-0.0069838256	-0.010505441	-0.0075638082	0	930.3149947417003
0.43651583	4.7863009e-9	0.41	0.57478576	5.8573924	-0.0069721624	-0.0072774909	-0.0069829026	-0.01044691	-0.0077256039	0	930.3245815309795
0.43651583	5.2480746e-9	0.41	0.53399221	5.4271325	-0.0069634234	-0.0072979907	-0.0069776515	-0.0103926	-0.0078711904	0	930.3348152307328
0.43651583	5.7543994e-9	0.41	0.49742506	5.0370381	-0.0069557185	-0.0073160452	-0.0069681476	-0.010342079	-0.008001905	0	930.3457155972014
0.43651583	6.3095734e-9	0.41	0.46472587	4.6835822	-0.0069489926	-0.007331785	-0.0069544888	-0.010294951	-0.0081189897	0	930.357296687222
0.43651583	6.9183097e-9	0.41	0.43556184	4.3634933	-0.0069431897	-0.0073453431	-0.0069367909	-0.010250852	-0.008223602	0	930.3695665077707
0.43651583	7.5857758e-9	0.41	0.40962332	4.0737319	-0.0069382537	-0.0073568532	-0.0069151869	-0.010209451	-0.0083168225	0	930.382526533965
0.43651583	8.3176377e-9	0.41	0.38662189	3.8114727	-0.0069341301	-0.0073664458	-0.0068898219	-0.010170447	-0.0083996623	0	930.3961720764344
0.43651583	9.1201084e-9	0.41	0.36628896	3.5740907	-0.0069307644	-0.0073742519	-0.0068608565	-0.010133565	-0.0084730661	0	930.4104924748704
0.43651583	1.e-8	0.41	0.34837482	3.3591513	-0.0069281054	-0.0073803947	-0.0068284558	-0.010098555	-0.0085379158	0	930.4254722349007
0.43651583	1.0964782e-8	0.41	0.332648	3.1644035	-0.0069261042	-0.0073849927	-0.00679279	-0.010065193	-0.0085950318	0	930.4410917365217
0.43651583	1.2022644e-8	0.41	0.31889488	2.9877737	-0.0069247126	-0.0073881626	-0.006754034	-0.010033273	-0.0086451735	0	930.4573288914914
0.43651583	1.3182567e-8	0.41	0.30691936	2.8273617	-0.0069238868	-0.007390011	-0.0067123555	-0.010002614	-0.0086890401	0	930.474160251078
0.43651583	1.4454398e-8	0.41	0.29654253	2.6814352	-0.0069235841	-0.0073906419	-0.0066679198	-0.009973048	-0.008727271	0	930.4915622575589
0.43651583	1.5848932e-8	0.41	0.28760221	2.5484238	-0.0069237652	-0.0073901517	-0.0066208814	-0.0099444279	-0.0087604471	0	930.5095123190854
0.43651583	1.7378008e-8	0.41	0.2799524	2.4269122	-0.0069243925	-0.0073886325	-0.0065713851	-0.0099166199	-0.0087890925	0	930.527989983199
0.43651583	1.9054607e-8	0.41	0.27346248	2.3156317	-0.0069254317	-0.0073861689	-0.0065195612	-0.0098895039	-0.0088136767	0	930.5469772825915
0.43651583	2.0892961e-8	0.41	0.26801632	2.2134504	-0.0069268503	-0.007382841	-0.0064655271	-0.009862972	-0.0088346176	0	930.5664595280981
0.43651583	2.2908677e-8	0.41	0.26351128	2.1193633	-0.0069286176	-0.0073787249	-0.006409387	-0.0098369271	-0.0088522849	0	930.5864254242642
0.43651583	2.5118864e-8	0.41	0.25985713	2.0324813	-0.0069307061	-0.0073738893	-0.0063512285	-0.0098112814	-0.008867004	0	930.606867063708
0.43651583	2.7542287e-8	0.41	0.25697489	1.9520203	-0.00693309	-0.0073683985	-0.0062911257	-0.0097859555	-0.0088790598	0	930.6277801422806
0.43651583	3.0199517e-8	0.41	0.25479573	1.8772902	-0.0069357448	-0.0073623136	-0.0062291406	-0.0097608772	-0.0088887006	0	930.6491637955816
0.43651583	3.3113112e-8	0.41	0.25325988	1.8076853	-0.006938649	-0.0073556894	-0.0061653204	-0.0097359805	-0.0088961419	0	930.6710200417978
0.43651583	3.6307805e-8	0.41	0.25231564	1.7426738	-0.0069417818	-0.0073485783	-0.0060997026	-0.0097112049	-0.0089015702	0	930.6933539780707
0.43651583	3.9810717e-8	0.41	0.25191839	1.6817898	-0.006945125	-0.0073410264	-0.0060323109	-0.0096864947	-0.0089051463	0	930.7161735747336
0.43651583	4.3651583e-8	0.41	0.25202975	1.6246246	-0.0069486617	-0.0073330774	-0.0059631605	-0.0096617983	-0.0089070085	0	930.7394888550696
0.43651583	4.7863009e-8	0.41	0.25261679	1.5708198	-0.0069523763	-0.0073247716	-0.0058922574	-0.0096370674	-0.008907275	0	930.7633121649671
0.43651583	5.2480746e-8	0.41	0.25365138	1.5200604	-0.0069562545	-0.0073161461	-0.0058195991	-0.0096122568	-0.0089060469	0	930.7876579032654
0.43651583	5.7543994e-8	0.41	0.2551095	1.4720697	-0.0069602837	-0.0073072338	-0.0057451745	-0.0095873239	-0.00890341	0	930.8125421844497
0.43651583	6.3095734e-8	0.41	0.25697081	1.426604	-0.0069644526	-0.007298065	-0.0056689655	-0.0095622281	-0.0088994373	0	930.8379825981231
0.43651583	6.9183097e-8	0.41	0.25921807	1.3834482	-0.0069687501	-0.0072886691	-0.0055909491	-0.0095369307	-0.0088941899	0	930.8639984335617
0.43651583	7.5857758e-8	0.41	0.26183688	1.342412	-0.0069731679	-0.0072790694	-0.0055110932	-0.0095113948	-0.0088877191	0	930.8906098547781
0.43651583	8.3176377e-8	0.41	0.26481519	1.3033269	-0.0069776973	-0.0072692896	-0.0054293624	-0.0094855845	-0.0088800675	0	930.917838672842
0.43651583	9.1201084e-8	0.41	0.26814308	1.2660427	-0.0069823302	-0.0072593524	-0.0053457175	-0.009459465	-0.0088712699	0	930.945707598927
0.43651583	1.e-7	0.41	0.27181255	1.2304261	-0.0069870612	-0.007249274	-0.0052601102	-0.0094330025	-0.0088613547	0	930.9742403128989
0.43651583	1.0964782e-7	0.41	0.27581717	1.1963575	-0.0069918838	-0.0072390733	-0.005172492	-0.0094061637	-0.008850344	0	931.0034616051892
0.43651583	1.2022644e-7	0.41	0.28015203	1.16373	-0.0069967936	-0.007228764	-0.0050828065	-0.0093789163	-0.008838255	0	931.0333973363948
0.43651583	1.3182567e-7	0.41	0.2848135	1.1324472	-0.0070017855	-0.007218362	-0.0049909977	-0.0093512278	-0.0088251003	0	931.0640738707192
0.43651583	1.4454398e-7	0.41	0.28979913	1.1024225	-0.0070068565	-0.0072078778	-0.0048970009	-0.0093230665	-0.0088108883	0	931.0955189507085
0.43651583	1.5848932e-7	0.41	0.29510753	1.0735771	-0.007012003	-0.0071973236	-0.0048007515	-0.0092944006	-0.0087956238	0	931.1277608441262
0.43651583	1.7378008e-7	0.41	0.30073827	1.04584	-0.0070172227	-0.007186709	-0.0047021793	-0.0092651985	-0.0087793082	0	931.1608287545419
0.43651583	1.9054607e-7	0.41	0.30669179	1.0191464	-0.0070225133	-0.0071760427	-0.0046012111	-0.0092354287	-0.00876194	0	931.1947530411917
0.43651583	2.0892961e-7	0.41	0.31296934	0.99343696	-0.007027873	-0.0071653335	-0.0044977712	-0.0092050593	-0.0087435151	0	931.2295645565828
0.43651583	2.2908677e-7	0.41	0.31957293	0.96865772	-0.0070333011	-0.0071545866	-0.0043917783	-0.0091740587	-0.0087240267	0	931.2652952769427
0.43651583	2.5118864e-7	0.41	0.32650526	0.94475892	-0.0070387962	-0.0071438098	-0.0042831505	-0.0091423946	-0.0087034659	0	931.3019780673278
0.43651583	2.7542287e-7	0.41	0.33376968	0.92169482	-0.0070443577	-0.0071330086	-0.0041718017	-0.0091100347	-0.0086818214	0	931.3396466590739
0.43651583	3.0199517e-7	0.41	0.34137016	0.89942325	-0.0070499854	-0.007122188	-0.004057642	-0.0090769463	-0.0086590802	0	931.3783358715332
0.43651583	3.3113112e-7	0.41	0.34931128	0.87790521	-0.0070556796	-0.0071113514	-0.0039405779	-0.0090430962	-0.0086352272	0	931.4180814410738
0.43651583	3.6307805e-7	0.41	0.35759814	0.85710441	-0.0070614396	-0.0071005056	-0.0038205159	-0.0090084507	-0.0086102456	0	931.4589200436287
0.43651583	3.9810717e-7	0.41	0.36623645	0.83698727	-0.0070672666	-0.0070896522	-0.0036973551	-0.0089729757	-0.0085841169	0	931.5008894205994
0.43651583	4.3651583e-7	0.41	0.37523236	0.81752239	-0.0070731606	-0.0070787963	-0.0035709945	-0.0089366364	-0.0085568209	0	931.5440284793863
0.43651583	4.7863009e-7	0.41	0.3845926	0.79868048	-0.0070791224	-0.0070679411	-0.0034413285	-0.0088993975	-0.0085283358	0	931.5883771477586
0.43651583	5.2480746e-7	0.41	0.39432437	0.78043411	-0.0070851524	-0.0070570908	-0.0033082496	-0.0088612228	-0.0084986383	0	931.633976461233
0.43651583	5.7543994e-7	0.41	0.40443534	0.76275756	-0.0070912514	-0.0070462491	-0.0031716459	-0.0088220757	-0.0084677035	0	931.680868774476
0.43651583	6.3095734e-7	0.41	0.41493371	0.74562669	-0.0070974203	-0.0070354196	-0.0030314027	-0.0087819184	-0.0084355052	0	931.7290974268185
0.43651583	6.9183097e-7	0.41	0.4258281	0.72901869	-0.0071036594	-0.0070246073	-0.0028874028	-0.0087407127	-0.0084020155	0	931.7787072843852
0.43651583	7.5857758e-7	0.41	0.43712765	0.71291209	-0.0071099692	-0.0070138173	-0.0027395259	-0.0086984193	-0.0083672051	0	931.8297442195752
0.43651583	8.3176377e-7	0.41	0.44884194	0.69728656	-0.0071163499	-0.007003055	-0.0025876481	-0.008654998	-0.0083310433	0	931.8822557734552
0.43651583	9.1201084e-7	0.41	0.46098104	0.68212291	-0.0071228022	-0.0069923257	-0.0024316418	-0.0086104076	-0.0082934978	0	931.9362904426307
0.43651583	1.e-6	0.41	0.47355548	0.66740281	-0.0071293251	-0.0069816386	-0.002271379	-0.008564606	-0.0082545351	0	931.9918984750566
0.43651583	1.0964782e-6	0.41	0.48657626	0.65310892	-0.0071359182	-0.0069710015	-0.0021067266	-0.0085175499	-0.0082141199	0	932.0491315195795
0.43651583	1.2022644e-6	0.41	0.50005485	0.6392247	-0.0071425804	-0.0069604248	-0.0019375497	-0.0084691951	-0.0081722156	0	932.1080425761415
0.43651583	1.3182567e-6	0.41	0.51400323	0.62573438	-0.0071493102	-0.0069499195	-0.0017637099	-0.0084194961	-0.0081287841	0	932.1686863687867
0.43651583	1.4454398e-6	0.41	0.52843385	0.61262288	-0.0071561053	-0.0069394989	-0.0015850665	-0.0083684063	-0.0080837858	0	932.2311192592219
0.43651583	1.5848932e-6	0.41	0.54335963	0.59987576	-0.0071629625	-0.0069291791	-0.001401477	-0.0083158777	-0.0080371794	0	932.2953991481617
0.43651583	1.7378008e-6	0.41	0.55879401	0.58747914	-0.0071698778	-0.0069189786	-0.0012127965	-0.0082618611	-0.0079889222	0	932.3615856125052
0.43651583	1.9054607e-6	0.41	0.57475093	0.57541973	-0.0071768465	-0.0069089175	-0.0010188769	-0.0082063061	-0.0079389699	0	932.4297401195574
0.43651583	2.0892961e-6	0.41	0.59124485	0.56368469	-0.0071838619	-0.0068990213	-0.00081957028	-0.0081491606	-0.0078872764	0	932.4999259464139
0.43651583	2.2908677e-6	0.41	0.60829075	0.55226172	-0.0071909171	-0.0068893164	-0.00061472454	-0.0080903713	-0.0078337942	0	932.5722081683102
0.43651583	2.5118864e-6	0.41	0.62590415	0.54113884	-0.0071980023	-0.0068798364	-0.00040418925	-0.0080298834	-0.0077784739	0	932.6466539419014
0.43651583	2.7542287e-6	0.41	0.64410109	0.53030451	-0.0072051066	-0.0068706183	-0.00018781198	-0.0079676404	-0.0077212644	0	932.7233322278073
0.43651583	3.0199517e-6	0.41	0.66289824	0.51974762	-0.0072122178	-0.0068617024	0.000034562412	-0.0079035843	-0.007662113	0	932.8023142528051
0.43651583	3.3113112e-6	0.41	0.68231276	0.50945731	-0.00721932	-0.0068531383	0.00026308534	-0.0078376555	-0.007600965	0	932.8836732839563
0.43651583	3.6307805e-6	0.41	0.70236248	0.49942315	-0.0072263963	-0.0068449792	0.00049791118	-0.0077697925	-0.0075377638	0	932.9674846689152
0.43651583	3.9810717e-6	0.41	0.72306579	0.48963501	-0.0072334261	-0.0068372867	0.00073919188	-0.0076999322	-0.007472451	0	933.0538262964086
0.43651583	4.3651583e-6	0.41	0.74444174	0.48008308	-0.0072403862	-0.0068301296	0.00098707885	-0.0076280096	-0.0074049662	0	933.1427782907847
0.43651583	4.7863009e-6	0.41	0.76651002	0.47075795	-0.0072472502	-0.0068235855	0.0012417215	-0.0075539578	-0.0073352468	0	933.2344230125568
0.43651583	5.2480746e-6	0.41	0.78929104	0.46165059	-0.0072539887	-0.0068177385	0.0015032695	-0.0074777079	-0.0072632281	0	933.3288457410922
0.43651583	5.7543994e-6	0.41	0.81280585	0.45275236	-0.0072605676	-0.0068126853	0.0017718672	-0.0073991891	-0.0071888433	0	933.4261341223352
0.43651583	6.3095734e-6	0.41	0.8370763	0.44405512	-0.00726695	-0.0068085297	0.0020476594	-0.0073183283	-0.0071120232	0	933.5263786063626
0.43651583	6.9183097e-6	0.41	0.86212501	0.4355513	-0.0072730953	-0.0068053848	0.0023307889	-0.0072350504	-0.0070326961	0	933.6296723492001
0.43651583	7.5857758e-6	0.41	0.88797542	0.42723392	-0.0072789588	-0.0068033736	0.0026213966	-0.0071492779	-0.0069507878	0	933.7361116271693
0.43651583	8.3176377e-6	0.41	0.91465178	0.41909671	-0.0072844922	-0.0068026285	0.0029196222	-0.0070609311	-0.0068662215	0	933.8457956367611
0.43651583	9.1201084e-6	0.41	0.94217929	0.41113424	-0.0072896448	-0.0068032879	0.0032256079	-0.0069699277	-0.0067789175	0	933.958826792478
0.43651583	0.00001	0.41	0.97058406	0.40334192	-0.007294363	-0.0068054973	0.003539497	-0.0068761831	-0.0066887931	0	934.0753106573059
0.43651583	0.000010964782	0.41	0.99989319	0.39571617	-0.0072985915	-0.0068094057	0.0038614386	-0.00677961	-0.0065957629	0	934.1953566257778
0.43651583	0.000012022644	0.41	1.0301348	0.38825435	-0.0073022744	-0.0068151648	0.0041915881	-0.0066801183	-0.0064997379	0	934.3190770830631
0.43651583	0.000013182567	0.41	1.0613379	0.38095493	-0.0073053571	-0.0068229216	0.0045301153	-0.0065776151	-0.006400626	0	934.4465887400913
0.43651583	0.000014454398	0.41	1.0935329	0.3738173	-0.0073077874	-0.0068328184	0.004877204	-0.0064720049	-0.0062983318	0	934.5780114459387
0.43651583	0.000015848932	0.41	1.1267511	0.36684172	-0.0073095162	-0.0068449894	0.0052330568	-0.0063631887	-0.0061927565	0	934.7134693791998
0.43651583	0.000017378008	0.41	1.1610246	0.36002918	-0.0073105003	-0.0068595541	0.0055979011	-0.0062510648	-0.0060837976	0	934.8530907285331
0.43651583	0.000019054607	0.41	1.1963872	0.35338119	-0.0073107048	-0.0068766122	0.0059719948	-0.006135528	-0.0059713495	0	934.99700763347
0.43651583	0.000020892961	0.41	1.2328731	0.34689946	-0.0073101022	-0.0068962457	0.0063556245	-0.00601647	-0.0058553028	0	935.1453563366238
0.43651583	0.000022908677	0.41	1.2705181	0.3405857	-0.0073086752	-0.0069185113	0.0067491137	-0.0058937788	-0.005735545	0	935.2982777117251
0.43651583	0.000025118864	0.41	1.3093587	0.33444127	-0.0073064175	-0.0069434398	0.0071528236	-0.0057673391	-0.0056119599	0	935.4559168201474
0.43651583	0.000027542287	0.41	1.3494326	0.32846692	-0.0073033307	-0.0069710438	0.0075671456	-0.0056370317	-0.0054844282	0	935.6184229343964
0.43651583	0.000030199517	0.41	1.3907785	0.32266266	-0.0072994274	-0.0070013087	0.0079925108	-0.005502734	-0.0053528271	0	935.7859502850636
0.43651583	0.000033113112	0.41	1.4334361	0.31702758	-0.0072947285	-0.0070342014	0.0084293819	-0.0053643193	-0.0052170304	0	935.958657477357
0.43651583	0.000036307805	0.41	1.4774461	0.31155977	-0.0072892604	-0.0070696757	0.0088782479	-0.005221657	-0.0050769084	0	936.1367080802085
0.43651583	0.000039810717	0.41	1.5228506	0.30625641	-0.0072830551	-0.007107673	0.0093396238	-0.0050746126	-0.0049323279	0	936.3202704167504
0.43651583	0.000043651583	0.41	1.5696925	0.30111381	-0.0072761478	-0.0071481278	0.0098140461	-0.0049230471	-0.0047831516	0	936.509518085775
0.43651583	0.000047863009	0.41	1.6180162	0.29612753	-0.0072685744	-0.0071909743	0.010302066	-0.0047668175	-0.0046292386	0	936.7046296911383
0.43651583	0.000052480746	0.41	1.6678674	0.29129258	-0.0072603708	-0.0072361464	0.010804249	-0.0046057764	-0.0044704438	0	936.9057893453688
0.43651583	0.000057543994	0.41	1.7192928	0.28660354	-0.0072515705	-0.0072835868	0.01132117	-0.0044397718	-0.0043066177	0	937.1131870370361
0.43651583	0.000063095734	0.41	1.7723411	0.28205479	-0.0072422064	-0.0073332381	0.011853417	-0.0042686468	-0.0041376061	0	937.3270183648552
0.43651583	0.000069183097	0.41	1.8270621	0.27764058	-0.0072323058	-0.0073850597	0.01240158	-0.0040922402	-0.0039632502	0	937.5474849595498
0.43651583	0.000075857758	0.41	1.8835072	0.27335521	-0.0072218934	-0.0074390174	0.012966259	-0.0039103853	-0.0037833863	0	937.7747947469318
0.43651583	0.000083176377	0.41	1.9417296	0.26919312	-0.0072109906	-0.0074950846	0.013548062	-0.0037229105	-0.0035978451	0	938.0091618351535
0.43651583	0.000091201084	0.41	2.0017842	0.26514899	-0.0071996137	-0.00755325	0.014147604	-0.0035296389	-0.0034064525	0	938.2508078207024
0.43651583	0.0001	0.41	2.0637275	0.26121777	-0.0071877761	-0.0076135085	0.014765508	-0.0033303882	-0.0032090282	0	938.4999601065805
0.43651583	0.00010964782	0.41	2.1276179	0.25739473	-0.0071754865	-0.0076758684	0.015402406	-0.0031249705	-0.0030053866	0	938.7568539787425
0.43651583	0.00012022644	0.41	2.1935159	0.25367551	-0.0071627524	-0.0077403413	0.016058945	-0.0029131918	-0.0027953358	0	939.0217316289486
0.43651583	0.00013182567	0.41	2.2614836	0.2500561	-0.007149576	-0.0078069519	0.016735781	-0.0026948524	-0.002578678	0	939.2948436956517
0.43651583	0.00014454398	0.41	2.3315855	0.24653284	-0.007135959	-0.0078757276	0.017433587	-0.0024697461	-0.0023552086	0	939.5764478358576
0.43651583	0.00015848932	0.41	2.4038878	0.24310246	-0.0071218993	-0.007946706	0.018153047	-0.0022376607	-0.0021247169	0	939.8668095143605
0.43651583	0.00017378008	0.41	2.4784591	0.23976201	-0.0071073936	-0.0080199276	0.018894866	-0.0019983769	-0.0018869851	0	940.1662034130904
0.43651583	0.00019054607	0.41	2.55537	0.23650889	-0.007092437	-0.0080954389	0.019659766	-0.001751669	-0.0016417886	0	940.4749122660523
0.43651583	0.00020892961	0.41	2.6346936	0.2333408	-0.0070770223	-0.0081732917	0.020448488	-0.0014973042	-0.0013888956	0	940.7932282874659
0.43651583	0.00022908677	0.41	2.7165051	0.23025578	-0.0070611422	-0.0082535393	0.021261795	-0.0012350421	-0.0011280668	0	941.1214522603866
0.43651583	0.00025118864	0.41	2.8008822	0.22725211	-0.0070447886	-0.0083362383	0.022100473	-0.00096463499	-0.00085905517	0	941.4598945796233
0.43651583	0.00027542287	0.41	2.8879051	0.22432839	-0.0070279517	-0.0084214503	0.022965329	-0.00068582764	-0.00058160616	0	941.808875326904
0.43651583	0.00030199517	0.41	2.9776563	0.22148346	-0.007010622	-0.0085092368	0.023857196	-0.00039835658	-0.00029545683	0	942.1687243178533
0.43651583	0.00033113112	0.41	3.0702211	0.21871642	-0.0069927892	-0.008599663	0.024776933	-0.00010195034	-3.3614516e-7	0	942.5397821355152
0.43651583	0.00036307805	0.41	3.1656874	0.21602661	-0.0069744447	-0.0086927904	0.025725431	0.0002036715	0.00030403603	0	942.9224000927693
0.43651583	0.00039810717	0.41	3.2641455	0.21341366	-0.0069555794	-0.0087886843	0.026703606	0.00051879743	0.000617948	0	943.3169396028235
0.43651583	0.00043651583	0.41	3.3656885	0.21087765	-0.006936192	-0.0088873924	0.027712423	0.00084372546	0.00094169782	0	943.7237736261436
0.43651583	0.00047863009	0.41	3.4704107	0.20841962	-0.00691631	-0.0089888979	0.028752943	0.0011787626	0.0012755929	0	944.1432850450049
0.43651583	0.00052480746	0.41	3.5784026	0.20604349	-0.0068961087	-0.0090928435	0.0298266	0.0015242248	0.0016199512	0	944.5758615616537
0.43651583	0.00057543994	0.41	3.6897224	0.20375997	-0.0068765337	-0.0091970921	0.03093664	0.0018804363	0.0019751019	0	945.0218651530366
0.43651583	0.00063095734	0.41	3.8042694	0.2015742	-0.0068619917	-0.0092915122	0.032094341	0.0022477205	0.0023413706	0	945.481499967913
0.43651583	0.00069183097	0.41	3.9215774	0.19935573	-0.0068644575	-0.0093485651	0.03332842	0.0026263739	0.0027189933	0	945.9545773133736
0.43651583	0.00075857758	0.41	4.0413124	0.19673307	-0.0068923384	-0.0093492217	0.034659124	0.003016645	0.0031080459	0	946.4409975673044
0.43651583	0.00083176377	0.41	4.1638659	0.19346899	-0.0069399712	-0.0093069178	0.036074273	0.0034187866	0.003508671	0	946.9413896747507
0.43651583	0.00091201084	0.41	4.2898333	0.18966202	-0.0070001371	-0.0092382624	0.03755855	0.003833105	0.0039212207	0	947.4566357278499
0.43651583	0.001	0.41	4.4196606	0.18562181	-0.0070688371	-0.0091523119	0.039104236	0.0042599578	0.0043461964	0	947.9875195214129
0.43651583	0.0010964782	0.41	4.5535645	0.18167662	-0.0071439915	-0.0090539985	0.040707772	0.0046997366	0.0047841424	0	948.5346240651345
0.43651583	0.0012022644	0.41	4.6915463	0.17799896	-0.0072243281	-0.0089468621	0.042367038	0.0051528421	0.0052355392	0	949.0983280038513
0.43651583	0.0013182567	0.41	4.8334954	0.1745267	-0.0073088492	-0.0088341248	0.044080276	0.0056196688	0.0057007528	0	949.6788915219997
0.43651583	0.0014454398	0.41	4.9793489	0.17100987	-0.0073966031	-0.0087188406	0.045845939	0.0061006017	0.0061800518	0	950.2766128658089
0.43651583	0.0015848932	0.41	5.1292331	0.16717393	-0.0074866616	-0.0086035572	0.047663037	0.0065960283	0.0066736962	0	950.8919827702614
0.43651583	0.0017378008	0.41	5.2834632	0.16290964	-0.0075782253	-0.0084900108	0.049531436	0.0071063574	0.0071820442	0	951.5257007041771
0.43651583	0.0019054607	0.41	5.4423823	0.15831807	-0.0076706313	-0.0083795019	0.05145149	0.0076320329	0.0077055864	0	952.1785258739418
0.43651583	0.0020892961	0.41	5.6062211	0.15356833	-0.0077629833	-0.008274171	0.053422765	0.0081735264	0.0082448732	0	952.8511332257203
0.43651583	0.0022908677	0.41	5.7751696	0.14876287	-0.0078532301	-0.0081790894	0.055441948	0.0087313293	0.0088004436	0	953.5441737561566
0.43651583	0.0025118864	0.41	5.9495785	0.14395712	-0.0079367156	-0.0081052578	0.057499853	0.0093059572	0.0093728387	0	954.2584835280818
0.43651583	0.0027542287	0.41	6.1300567	0.13923375	-0.0080054597	-0.0080710565	0.059579969	0.0098979742	0.0099626613	0	954.9951999699131
0.43651583	0.0030199517	0.41	6.3172556	0.13466944	-0.0080513608	-0.0080949495	0.061665761	0.010508008	0.010570574	0	955.7555654219341
0.43651583	0.0033113112	0.41	6.5115525	0.13024662	-0.0080711225	-0.0081843289	0.063751826	0.011136738	0.011197249	0	956.5405957140147
0.43651583	0.0036307805	0.41	6.7132097	0.12601588	-0.0080658274	-0.0083361967	0.065843211	0.011784873	0.011843419	0	957.3512178870983
0.43651583	0.0039810717	0.41	6.9224547	0.12218876	-0.0080399578	-0.0085393538	0.067953231	0.012453147	0.012509915	0	958.1883497555975
0.43651583	0.0043651583	0.41	7.1393229	0.11888016	-0.0080002273	-0.0087776921	0.070100174	0.013142306	0.013197537	0	959.0527283897379
0.43651583	0.0047863009	0.41	7.3637779	0.1160303	-0.0079522218	-0.0090381134	0.072299388	0.013853097	0.013907004	0	959.9450178555178
0.43651583	0.0052480746	0.41	7.5958626	0.11352813	-0.0078991557	-0.0093131675	0.07456064	0.014586264	0.014639008	0	960.8659604753327
0.43651583	0.0057543994	0.41	7.8357145	0.11128496	-0.0078426084	-0.009599197	0.076889978	0.01534256	0.015394262	0	961.8164021210766
0.43651583	0.0063095734	0.41	8.0835347	0.10924311	-0.0077833334	-0.0098944273	0.079291644	0.016122757	0.016173511	0	962.7972689411058
0.43651583	0.0069183097	0.41	8.3395622	0.1073679	-0.0077217005	-0.010197944	0.081769093	0.016927648	0.016977531	0	963.8095444254506
0.43651583	0.0075857758	0.41	8.6035781	0.10568875	-0.0076601573	-0.010504993	0.084329701	0.017758043	0.017807145	0	964.8537702899092
0.43651583	0.0083176377	0.41	8.8399518	0.10258453	-0.0077749019	-0.010481868	0.087309877	0.018613593	0.018661253	0	965.8939889833154
0.43651583	0.0091201084	0.41	8.9761042	0.081237139	-0.0077850922	-0.011026136	0.089814843	0.019485529	0.019523271	0	966.8493820257056
0.43651583	0.01	0.41	9.258358	0.078462587	-0.0076581484	-0.011567964	0.092417304	0.020379073	0.020415526	0	967.9711787155168
0.43651583	0.010964782	0.41	9.5543628	0.076843376	-0.0075318781	-0.01210107	0.095126507	0.021301072	0.021336773	0	969.1334619527465
0.43651583	0.012022644	0.41	9.8608024	0.075191801	-0.0074051497	-0.012637267	0.097933696	0.022252597	0.022287531	0	970.3339219475208
0.43651583	0.013182567	0.41	10.178037	0.073439636	-0.0072765983	-0.013179568	0.10083901	0.023234687	0.023268807	0	971.5738946584155
0.43651583	0.014454398	0.41	10.506527	0.071603841	-0.0071452477	-0.013729768	0.1038439	0.024248423	0.02428169	0	972.8548562459475
0.43651583	0.015848932	0.41	10.846769	0.069760671	-0.0070105405	-0.014288546	0.10695104	0.025294933	0.025327343	0	974.1783605069186
0.43651583	0.017378008	0.41	11.199246	0.067997563	-0.0068723181	-0.014855617	0.11016418	0.02637539	0.026406981	0	975.546001038119
0.43651583	0.019054607	0.41	11.564418	0.066378937	-0.0067307176	-0.015430038	0.11348781	0.027491019	0.027521859	0	976.959378670992
0.43651583	0.020892961	0.41	11.942496	0.065001112	-0.0065862839	-0.016010531	0.11692689	0.028643081	0.02867328	0	978.4198921364745
0.43651583	0.022908677	0.41	12.312552	0.06445674	-0.0064832748	-0.016545375	0.12053693	0.029832347	0.029862293	0	979.9073420009757
0.43651583	0.025118864	0.41	12.701498	0.061916016	-0.0066403182	-0.016437705	0.12491871	0.031057868	0.031086634	0	981.4477466142121
0.43651583	0.027542287	0.41	13.111837	0.061627689	-0.0068407811	-0.016204924	0.12955884	0.032323127	0.032351759	0	983.0468778200848
0.43651583	0.030199517	0.41	13.505424	0.056614857	-0.0070859093	-0.015948383	0.13436013	0.033627627	0.03365393	0	984.6661254019704
0.43651583	0.033113112	0.41	13.949104	0.053225886	-0.0075122255	-0.015161949	0.13983301	0.034972969	0.034997698	0	986.3738461215171
0.43651583	0.036307805	0.41	14.415692	0.051806405	-0.0078787784	-0.01449864	0.14532886	0.036363116	0.036387185	0	988.146566911542
0.43651583	0.039810717	0.41	14.901172	0.050373051	-0.0080760428	-0.014236202	0.1505745	0.037799857	0.03782326	0	989.9819589653688
0.43651583	0.043651583	0.41	15.408467	0.04937644	-0.0082180844	-0.014088437	0.15586082	0.039285282	0.039308222	0	991.8849072711652
0.43651583	0.047863009	0.41	15.936103	0.048520467	-0.0083478074	-0.013954398	0.16129362	0.040821432	0.040843975	0	993.8558569949938
0.43651583	0.052480746	0.41	16.484788	0.047686918	-0.0084672521	-0.013827329	0.16688464	0.042410329	0.042432484	0	995.8974136455272
0.43651583	0.057543994	0.41	17.055589	0.046848887	-0.008574298	-0.01370963	0.17263664	0.044054086	0.044075851	0	998.0126327832396
0.43651583	0.063095734	0.41	17.649679	0.045986914	-0.0086661653	-0.013604918	0.1785513	0.045754929	0.045776294	0	1000.2047733845043
0.43651583	0.069183097	0.41	17.298492	0.050404122	-0.0095294461	-0.014075702	0.18407161	0.047528747	0.047552165	0	1001.52020837638
0.43651583	0.075857758	0.41	16.071201	0.059485037	-0.011067612	-0.015583831	0.18874134	0.049211407	0.049239044	0	1001.8738827599491
0.43651583	0.083176377	0.41	14.951898	0.067766929	-0.012470436	-0.01769545	0.1930002	0.050746012	0.050777496	0	1002.1964436248661
0.43651583	0.091201084	0.41	14.027603	0.074732225	-0.013686145	-0.020281456	0.19698327	0.052147111	0.052181831	0	1002.588570941819
0.43651583	0.1	0.41	15.295434	0.069159893	-0.013362571	-0.021052361	0.20298625	0.053582524	0.053614655	0	1005.2050685823244
0.43651583	0.10964782	0.41	16.804795	0.063924932	-0.012724258	-0.02184388	0.20917979	0.055153745	0.055183444	0	1008.190691946493
0.43651583	0.12022644	0.41	18.59893	0.059013939	-0.011695153	-0.022673125	0.21555339	0.056886486	0.056913903	0	1011.6128529690563
0.43651583	0.13182567	0.41	20.733531	0.054415167	-0.010180017	-0.023560155	0.22209376	0.058811271	0.058836552	0	1015.5559153167476
0.43651583	0.14454398	0.41	23.281801	0.05011855	-0.0080579285	-0.024527123	0.22878575	0.060964897	0.060988182	0	1020.1276565308652
0.43651583	0.15848932	0.41	26.340552	0.046115697	-0.0051742045	-0.025597267	0.23561334	0.06339244	0.063413865	0	1025.4672401453113
0.43651583	0.17378008	0.41	30.03677	0.042399835	-0.0013312839	-0.026793676	0.2425609	0.066149893	0.066169592	0	1031.7542667075213
0.43651583	0.19054607	0.41	34.533409	0.038965653	0.0037200754	-0.028137791	0.24961466	0.069307421	0.069325524	0	1039.2176109543202
0.43651583	0.20892961	0.41	40.032299	0.035808961	0.010286821	-0.029647517	0.25676462	0.072953062	0.072969698	0	1048.1418179969983
0.43651583	0.22908677	0.41	46.771072	0.032926082	0.018733107	-0.031334918	0.26400689	0.077196454	0.077211751	0	1058.8675358971996
0.43651583	0.25118864	0.41	55.010515	0.030312909	0.029468775	-0.033203685	0.27134619	0.082171816	0.082185899	0	1071.781655868138
0.43651583	0.27542287	0.41	65.009742	0.027963662	0.04292316	-0.035246886	0.27879814	0.088039103	0.088052094	0	1087.29358336377
0.43651583	0.30199517	0.41	76.990145	0.025869514	0.059504425	-0.037445909	0.28639029	0.094982147	0.094994165	0	1105.797427056459
0.43651583	0.33113112	0.41	91.094935	0.024017488	0.079551256	-0.039771536	0.2941611	0.10320297	0.10321413	0	1127.6262202065125
0.43651583	0.36307805	0.41	107.35647	0.022390049	0.10329015	-0.042187519	0.30215633	0.11291241	0.11292281	0	1153.0103992962806
0.43651583	0.39810717	0.41	125.68367	0.020965676	0.13081256	-0.044655935	0.31042372	0.1243184	0.12432814	0	1182.0542808841378
0.43651583	0.43651583	0.41	145.87478	0.01972031	0.16207901	-0.047142681	0.31900749	0.13761435	0.13762351	0	1214.7378091960368
0.43651583	0.47863009	0.41	167.65026	0.0186292	0.1969464	-0.049621449	0.32794438	0.15296974	0.1529784	0	1250.9406854790855
0.43651583	0.52480746	0.41	190.6937	0.017668619	0.23520656	-0.052075364	0.33726203	0.17052451	0.17053272	0	1290.4779679447468
0.43651583	0.57543994	0.41	214.68899	0.01681708	0.27662396	-0.054496519	0.34697944	0.19038733	0.19039515	0	1333.1356799802115
0.43651583	0.63095734	0.41	239.34708	0.016055952	0.32096482	-0.056884252	0.35710872	0.21263705	0.21264451	0	1378.6988350338765
0.43651583	0.69183097	0.41	264.4209	0.015369587	0.36801565	-0.059243032	0.3676572	0.23732614	0.23733328	0	1426.9696689749157
0.43651583	0.75857758	0.41	289.71082	0.014745134	0.41759271	-0.061580503	0.37862939	0.26448519	0.26449204	0	1477.7772834162097
0.43651583	0.83176377	0.41	315.06361	0.014172184	0.46954491	-0.063905974	0.39002854	0.2941275	0.29413409	0	1530.980971399855
0.43651583	0.91201084	0.41	340.36801	0.013642381	0.52375295	-0.066229349	0.40185769	0.32625347	0.32625981	0	1586.4698138538495
0.43651583	1.	0.41	365.54869	0.013149037	0.58012654	-0.068560461	0.41412033	0.36085439	0.3608605	0	1644.1603218468008
0.43651583	1.0964782	0.41	390.56009	0.01268681	0.63860081	-0.070908689	0.42682084	0.39791569	0.39792158	0	1703.9932330459098
0.43651583	1.2022644	0.41	415.38064	0.012251417	0.69913274	-0.073282773	0.43996468	0.43741953	0.43742522	0	1765.9302306608126
0.43651583	1.3182567	0.41	440.00774	0.011839416	0.76169788	-0.075690752	0.45355842	0.47934695	0.47935245	0	1829.9508732258844
0.43651583	1.4454398	0.41	464.45349	0.011448024	0.82628747	-0.078139978	0.46760981	0.52367946	0.52368478	0	1896.0499156175588
0.43651583	1.5848932	0.41	488.74123	0.011074977	0.89290602	-0.080637165	0.48212768	0.57040036	0.57040551	0	1964.234996784001
0.43651583	1.7378008	0.41	512.90274	0.010718423	0.96156931	-0.083188463	0.49712191	0.61949566	0.61950064	0	2034.524749057754
0.43651583	1.9054607	0.41	536.976	0.01037683	1.0323027	-0.085799531	0.5126034	0.6709548	0.67095962	0	2106.947198733643
0.43651583	2.0892961	0.41	561.00343	0.010048925	1.10514	-0.088475612	0.52858395	0.72477117	0.72477584	0	2181.538658133314
0.43651583	2.2908677	0.41	585.03052	0.009733639	1.1801221	-0.091221601	0.54507625	0.7809425	0.78094703	0	2258.34243454849
0.43651583	2.5118864	0.41	609.10478	0.0094300663	1.2572962	-0.094042112	0.56209383	0.83947107	0.83947546	0	2337.4080875145537
0.43651583	2.7542287	0.41	633.27492	0.0091374325	1.3367154	-0.096941526	0.579651	0.90036389	0.90036813	0	2418.791020475459
0.43651583	3.0199517	0.41	657.59023	0.0088550694	1.4184377	-0.099924044	0.59776284	0.96363275	0.96363686	0	2502.5515373661488
0.43651583	3.3113112	0.41	682.10015	0.0085823947	1.5025259	-0.10299373	0.61644518	1.0292943	1.0292983	0	2588.7547409515955
0.43651583	3.6307805	0.41	706.85393	0.0083188967	1.5890473	-0.10615455	0.63571456	1.0973701	1.097374	0	2677.4702355483178
0.43651583	3.9810717	0.41	731.90039	0.0080641211	1.6780728	-0.10941038	0.65558823	1.1678864	1.1678901	0	2768.7712814155707
0.43651583	4.3651583	0.41	757.2878	0.0078176613	1.7696777	-0.11276507	0.67608416	1.2408742	1.2408779	0	2862.735550259836
0.43651583	4.7863009	0.41	783.06375	0.0075791504	1.8639407	-0.11622244	0.697221	1.3163694	1.3163729	0	2959.444170260608
0.43651583	5.2480746	0.41	809.27509	0.0073482543	1.9609441	-0.11978631	0.71901812	1.3944123	1.3944157	0	3058.981929392333
0.43651583	5.7543994	0.41	835.968	0.007124667	2.0607737	-0.12346052	0.74149558	1.4750478	1.4750511	0	3161.4371699112176
0.43651583	6.3095734	0.41	863.1879	0.0069081058	2.1635189	-0.12724895	0.76467416	1.5583255	1.5583287	0	3266.901893868421
0.43651583	6.9183097	0.41	890.97959	0.0066983085	2.2692723	-0.13115552	0.78857537	1.6442991	1.6443022	0	3375.4713911361314
0.43651583	7.5857758	0.41	919.38723	0.0064950299	2.3781301	-0.13518419	0.81322143	1.7330269	1.73303	0	3487.2446075292696
0.43651583	8.3176377	0.41	948.45444	0.0062980399	2.4901918	-0.13933903	0.83863533	1.8245715	1.8245744	0	3602.323886049194
0.43651583	9.1201084	0.41	978.22439	0.0061071218	2.6055604	-0.14362416	0.86484081	1.9189995	1.9190023	0	3720.815147092332
0.43651583	10.	0.41	1008.7398	0.00592207	2.7243423	-0.14804381	0.89186239	2.0163819	2.0163847	0	3842.8278060503017