0.22908677	1.e-12	0.19	142.57619	2850.8263	-0.004505206	-0.013510397	-0.013510224	-0.15881911	0.53627526	0	932.9206042629717
0.22908677	1.0964782e-12	0.19	130.04109	2600.8665	-0.0044827493	-0.013569584	-0.013569395	-0.14546652	0.48868213	0	932.9311407461151
0.22908677	1.2022644e-12	0.19	118.60895	2372.8964	-0.0044602927	-0.013628773	-0.013628565	-0.13328783	0.44527668	0	932.9416773138197
0.22908677	1.3182567e-12	0.19	108.18272	2164.9812	-0.0044378359	-0.013687963	-0.013687735	-0.12217974	0.40569044	0	932.9522140694372
0.22908677	1.4454398e-12	0.19	98.673877	1975.3562	-0.0044153792	-0.013747155	-0.013746905	-0.11204806	0.36958736	0	932.9627507310984
0.22908677	1.5848932e-12	0.19	90.001712	1802.4121	-0.0043929225	-0.013806349	-0.013806075	-0.10280687	0.33666097	0	932.9732873927594
0.22908677	1.7378008e-12	0.19	82.092603	1644.6811	-0.0043704657	-0.013865545	-0.013865245	-0.09437782	0.30663174	0	932.9838241483772
0.22908677	1.9054607e-12	0.19	74.879409	1500.8248	-0.0043480089	-0.013924743	-0.013924413	-0.086689445	0.27924475	0	932.9943612610294
0.22908677	2.0892961e-12	0.19	68.3009	1369.6222	-0.0043255521	-0.013983943	-0.013983581	-0.079676578	0.25426753	0	933.0048983736817
0.22908677	2.2908677e-12	0.19	62.301228	1249.9599	-0.0043030953	-0.014043144	-0.014042748	-0.07327978	0.23148803	0	933.0154356648517
0.22908677	2.5118864e-12	0.19	56.829462	1140.8226	-0.0042806385	-0.014102348	-0.014101914	-0.067444845	0.21071288	0	933.0259731345388
0.22908677	2.7542287e-12	0.19	51.839152	1041.2842	-0.0042581817	-0.014161554	-0.014161078	-0.062122333	0.19176573	0	933.0365109612609
0.22908677	3.0199517e-12	0.19	47.287936	950.49999	-0.0042357249	-0.014220762	-0.01422024	-0.057267158	0.17448571	0	933.0470491450178
0.22908677	3.3113112e-12	0.19	43.137178	867.69979	-0.0042132681	-0.014279973	-0.0142794	-0.052838199	0.15872616	0	933.0575876858096
0.22908677	3.6307805e-12	0.19	39.351642	792.18107	-0.0041908113	-0.014339185	-0.014338557	-0.048797953	0.14435327	0	933.0681267621536
0.22908677	3.9810717e-12	0.19	35.899193	723.30316	-0.0041683544	-0.014398401	-0.014397712	-0.045112218	0.13124505	0	933.078666289489
0.22908677	4.3651583e-12	0.19	32.750523	660.48171	-0.0041458976	-0.014457618	-0.014456863	-0.041749801	0.11929021	0	933.0892064369374
0.22908677	4.7863009e-12	0.19	29.878902	603.18383	-0.0041234408	-0.014516838	-0.01451601	-0.038682253	0.10838728	0	933.0997472984556
0.22908677	5.2480746e-12	0.19	27.259953	550.92352	-0.004100984	-0.014576061	-0.014575153	-0.035883629	0.098443682	0	933.1102888740434
0.22908677	5.7543994e-12	0.19	24.871444	503.25751	-0.0040785271	-0.014635287	-0.014634291	-0.033330266	0.08937502	0	933.1208314361747
0.22908677	6.3095734e-12	0.19	22.693099	459.78157	-0.0040560703	-0.014694515	-0.014693424	-0.031000584	0.081104309	0	933.1313747969368
0.22908677	6.9183097e-12	0.19	20.706426	420.127	-0.0040336134	-0.014753746	-0.014752549	-0.028874901	0.073561334	0	933.1419196797947
0.22908677	7.5857758e-12	0.19	18.89456	383.9576	-0.0040111566	-0.01481298	-0.014811668	-0.026935268	0.066682068	0	933.1524655398005
0.22908677	8.3176377e-12	0.19	17.24212	350.96668	-0.0039886998	-0.014872217	-0.014870779	-0.025165314	0.060408108	0	933.1630128279456
0.22908677	9.1201084e-12	0.19	15.735078	320.87458	-0.0039662429	-0.014931457	-0.01492988	-0.023550108	0.054686195	0	933.1735619952215
0.22908677	1.e-11	0.19	14.360641	293.42625	-0.0039437861	-0.014990701	-0.014988971	-0.022076036	0.049467758	0	933.184112853715
0.22908677	1.0964782e-11	0.19	13.107142	268.38905	-0.0039213293	-0.015049948	-0.015048051	-0.020730677	0.044708496	0	933.1946656759
0.22908677	1.2022644e-11	0.19	11.963939	245.55085	-0.0038988724	-0.015109198	-0.015107119	-0.019502708	0.040368008	0	933.2052207342506
0.22908677	1.3182567e-11	0.19	10.921328	224.71815	-0.0038764156	-0.015168452	-0.015166172	-0.018381797	0.036409448	0	933.215778376406
0.22908677	1.4454398e-11	0.19	9.9704584	205.71451	-0.0038539587	-0.01522771	-0.01522521	-0.017358526	0.03279921	0	933.226338790279
0.22908677	1.5848932e-11	0.19	9.1032578	188.37898	-0.0038315019	-0.015286971	-0.01528423	-0.016424303	0.029506649	0	933.2369023235091
0.22908677	1.7378008e-11	0.19	8.3123647	172.56479	-0.003809045	-0.015346236	-0.015343231	-0.015571291	0.026503812	0	933.2474693425265
0.22908677	1.9054607e-11	0.19	7.5910654	158.13809	-0.0037865882	-0.015405505	-0.01540221	-0.014792345	0.02376521	0	933.2580401949706
0.22908677	2.0892961e-11	0.19	6.9332367	144.9768	-0.0037641314	-0.015464779	-0.015461165	-0.014080949	0.021267595	0	933.2686153318328
0.22908677	2.2908677e-11	0.19	6.3332943	132.96959	-0.0037416745	-0.015524056	-0.015520094	-0.013431157	0.018989763	0	933.2791952041043
0.22908677	2.5118864e-11	0.19	5.7861452	122.01491	-0.0037192177	-0.015583338	-0.015578994	-0.012837548	0.016912379	0	933.2897801594243
0.22908677	2.7542287e-11	0.19	5.287145	112.02016	-0.0036967608	-0.015642625	-0.015637862	-0.012295179	0.015017808	0	933.300370921258
0.22908677	3.0199517e-11	0.19	4.8320573	102.90089	-0.003674304	-0.015701916	-0.015696694	-0.01179954	0.013289967	0	933.3109680157626
0.22908677	3.3113112e-11	0.19	4.4170193	94.580071	-0.0036518471	-0.015761212	-0.015755486	-0.01134652	0.011714189	0	933.3215723449201
0.22908677	3.6307805e-11	0.19	4.0385075	86.987461	-0.0036293903	-0.015820513	-0.015814235	-0.010932367	0.010277096	0	933.33218425637
0.22908677	3.9810717e-11	0.19	3.6933088	80.058995	-0.0036069335	-0.01587982	-0.015872935	-0.010553661	0.0089664889	0	933.3428049151734
0.22908677	4.3651583e-11	0.19	3.378493	73.736248	-0.0035844766	-0.015939131	-0.015931583	-0.010207281	0.007771243	0	933.3534349508388
0.22908677	4.7863009e-11	0.19	3.0913875	67.965938	-0.0035620198	-0.015998448	-0.015990172	-0.0098903839	0.0066812116	0	933.3640754250753
0.22908677	5.2480746e-11	0.19	2.8295552	62.699469	-0.0035395629	-0.016057771	-0.016048696	-0.0096003728	0.0056871414	0	933.3747275969006
0.22908677	5.7543994e-11	0.19	2.5907735	57.892527	-0.0035171061	-0.016117099	-0.016107149	-0.0093348815	0.0047805941	0	933.3853923495059
0.22908677	6.3095734e-11	0.19	2.3730153	53.504694	-0.0034946492	-0.016176434	-0.016165524	-0.0090917511	0.003953874	0	933.3960711204261
0.22908677	6.9183097e-11	0.19	2.1744322	49.499113	-0.0034721924	-0.016235774	-0.016223813	-0.0088690127	0.0031999632	0	933.4067651498876
0.22908677	7.5857758e-11	0.19	1.9933385	45.842171	-0.0034497355	-0.016295121	-0.016282007	-0.0086648708	0.0025124621	0	933.4174762324602
0.22908677	8.3176377e-11	0.19	1.8281968	42.503214	-0.0034272787	-0.016354475	-0.016340097	-0.008477687	0.0018855345	0	933.4282057868875
0.22908677	9.1201084e-11	0.19	1.6776055	39.454289	-0.0034048218	-0.016413835	-0.016398071	-0.0083059677	0.0013138585	0	933.4389561432918
0.22908677	1.e-10	0.19	1.540286	36.669902	-0.003382365	-0.016473202	-0.01645592	-0.00814835	0.00079258147	0	933.4497287204166
0.22908677	1.0964782e-10	0.19	1.4150729	34.126809	-0.0033599081	-0.016532577	-0.01651363	-0.0080035909	0.00031727822	0	933.4605262054188
0.22908677	1.2022644e-10	0.19	1.3009032	31.80381	-0.0033374513	-0.016591959	-0.016571187	-0.0078705566	-0.00011608594	0	933.4713509096292
0.22908677	1.3182567e-10	0.19	1.1968076	29.681575	-0.0033149944	-0.016651348	-0.016628577	-0.0077482128	-0.00051118986	0	933.4822055202046
0.22908677	1.4454398e-10	0.19	1.1019027	27.742478	-0.0032925376	-0.016710746	-0.016685784	-0.0076356159	-0.00087138754	0	933.4930927055108
0.22908677	1.5848932e-10	0.19	1.0153828	25.970447	-0.0032700807	-0.016770152	-0.01674279	-0.0075319049	-0.0011997368	0	933.5040158667741
0.22908677	1.7378008e-10	0.19	0.93651325	24.350829	-0.0032476239	-0.016829566	-0.016799575	-0.0074362947	-0.0014990253	0	933.5149783864301
0.22908677	1.9054607e-10	0.19	0.86462464	22.870262	-0.003225167	-0.016888988	-0.016856118	-0.0073480685	-0.0017717939	0	933.5259842012575
0.22908677	2.0892961e-10	0.19	0.79910656	21.516566	-0.0032027102	-0.01694842	-0.016912397	-0.0072665724	-0.0020203588	0	933.5370370507261
0.22908677	2.2908677e-10	0.19	0.73940268	20.278635	-0.0031802533	-0.017007861	-0.016968387	-0.0071912094	-0.0022468308	0	933.5481415856847
0.22908677	2.5118864e-10	0.19	0.68500599	19.146346	-0.0031577965	-0.017067311	-0.017024062	-0.0071214351	-0.0024531335	0	933.5593022596729
0.22908677	2.7542287e-10	0.19	0.63545439	18.11047	-0.0031353396	-0.017126771	-0.017079392	-0.0070567521	-0.0026410198	0	933.5705246161265
0.22908677	3.0199517e-10	0.19	0.59032683	17.162596	-0.0031128828	-0.017186241	-0.017134346	-0.0069967063	-0.0028120867	0	933.5818140011719
0.22908677	3.3113112e-10	0.19	0.54923963	16.295056	-0.0030904259	-0.017245722	-0.017188893	-0.0069408834	-0.0029677892	0	933.5931761367624
0.22908677	3.6307805e-10	0.19	0.51184324	15.50086	-0.0030679691	-0.017305213	-0.017242997	-0.0068889044	-0.0031094527	0	933.6046172616122
0.22908677	3.9810717e-10	0.19	0.47781915	14.773637	-0.0030455123	-0.017364715	-0.017296621	-0.0068404236	-0.0032382847	0	933.6161440748215
0.22908677	4.3651583e-10	0.19	0.44687721	14.107581	-0.0030230554	-0.017424229	-0.017349727	-0.0067951248	-0.0033553853	0	933.6277634540094
0.22908677	4.7863009e-10	0.19	0.41875297	13.497393	-0.0030005986	-0.017483755	-0.017402275	-0.0067527189	-0.0034617565	0	933.639482351959
0.22908677	5.2480746e-10	0.19	0.39320544	12.938245	-0.0029781419	-0.017543292	-0.017454225	-0.0067129418	-0.0035583121	0	933.6513079093672
0.22908677	5.7543994e-10	0.19	0.37001485	12.425729	-0.0029556851	-0.017602842	-0.017505536	-0.0066755519	-0.003645885	0	933.6632476333609
0.22908677	6.3095734e-10	0.19	0.34898069	11.955819	-0.0029332285	-0.017662405	-0.017556167	-0.006640328	-0.0037252355	0	933.675308561285
0.22908677	6.9183097e-10	0.19	0.32991987	11.524838	-0.0029107718	-0.017721981	-0.017606079	-0.0066070679	-0.0037970581	0	933.6874979371879
0.22908677	7.5857758e-10	0.19	0.31266494	11.129419	-0.0028883153	-0.01778157	-0.017655237	-0.0065755864	-0.0038619885	0	933.6998217273099
0.22908677	8.3176377e-10	0.19	0.2970626	10.766477	-0.002865859	-0.017841174	-0.017703605	-0.0065457143	-0.0039206096	0	933.7122863582779
0.22908677	9.1201084e-10	0.19	0.28297217	10.43318	-0.0028434028	-0.017900791	-0.017751158	-0.0065172963	-0.0039734567	0	933.7248963869839
0.22908677	1.e-9	0.19	0.27026428	10.126923	-0.002820947	-0.017960423	-0.017797872	-0.0064901909	-0.0040210237	0	933.7376558159759
0.22908677	1.0964782e-9	0.19	0.2588197	9.8453017	-0.0027984916	-0.018020069	-0.017843733	-0.0064642683	-0.0040637664	0	933.7505671444981
0.22908677	1.2022644e-9	0.19	0.24852828	9.5860971	-0.0027760368	-0.01807973	-0.017888733	-0.0064394102	-0.0041021082	0	933.7636316127769
0.22908677	1.3182567e-9	0.19	0.23928803	9.347253	-0.0027535831	-0.018139406	-0.017932874	-0.0064155087	-0.0041364422	0	933.7768483939944
0.22908677	1.4454398e-9	0.19	0.23100439	9.1268625	-0.0027311307	-0.018199096	-0.017976166	-0.0063924653	-0.0041671348	0	933.7902155150637
0.22908677	1.5848932e-9	0.19	0.22358957	8.9231541	-0.0027086805	-0.018258798	-0.018018626	-0.0063701906	-0.0041945287	0	933.8037290955797
0.22908677	1.7378008e-9	0.19	0.21696207	8.7344802	-0.0026862335	-0.018318512	-0.018060277	-0.0063486036	-0.0042189446	0	933.8173840900765
0.22908677	1.9054607e-9	0.19	0.21104621	8.5593055	-0.0026637913	-0.018378234	-0.018101149	-0.0063276308	-0.0042406832	0	933.831173639727
0.22908677	2.0892961e-9	0.19	0.20577175	8.3961944	-0.0026413566	-0.01843796	-0.018141273	-0.006307206	-0.0042600285	0	933.845089673665
0.22908677	2.2908677e-9	0.19	0.20107346	8.2437965	-0.0026189332	-0.018497681	-0.01818068	-0.0062872693	-0.0042772498	0	933.8591230875023
0.22908677	2.5118864e-9	0.19	0.19689055	8.1008253	-0.0025965273	-0.018557384	-0.018219396	-0.0062677676	-0.0042926076	0	933.8732634144803
0.22908677	2.7542287e-9	0.19	0.19316598	7.966029	-0.0025741483	-0.01861705	-0.018257441	-0.0062486529	-0.0043063593	0	933.8874982523373
0.22908677	3.0199517e-9	0.19	0.18984539	7.8381452	-0.0025518107	-0.018676648	-0.01829482	-0.0062298832	-0.0043187704	0	933.9018130847883
0.22908677	3.3113112e-9	0.19	0.18687474	7.7157924	-0.0025295392	-0.018736123	-0.018331512	-0.0062114213	-0.0043301408	0	933.9161884534345
0.22908677	3.6307805e-9	0.19	0.18418745	7.5968406	-0.0025073954	-0.01879533	-0.018367399	-0.006193236	-0.0043409587	0	933.9305875461059
0.22908677	3.9810717e-9	0.19	0.181591	7.472758	-0.0024857258	-0.018853391	-0.018401629	-0.0061753067	-0.0043532834	0	933.9448369002475
0.22908677	4.3651583e-9	0.19	0.17811073	7.2958289	-0.0024666133	-0.01890493	-0.018428846	-0.0061576611	-0.004378777	0	933.9579356344746
0.22908677	4.7863009e-9	0.19	0.172216	6.9907338	-0.0024535917	-0.018940811	-0.018439924	-0.0061404706	-0.0044359754	0	933.9681926626961
0.22908677	5.2480746e-9	0.19	0.16475888	6.6017343	-0.0024452621	-0.018964736	-0.018438576	-0.006123948	-0.0045142995	0	933.9762595077128
0.22908677	5.7543994e-9	0.19	0.15704845	6.1955461	-0.0024389902	-0.018983669	-0.018431768	-0.0061081761	-0.0045975653	0	933.983367714203
0.22908677	6.3095734e-9	0.19	0.14968184	5.802738	-0.0024334322	-0.019001291	-0.018423181	-0.0060931463	-0.0046783107	0	933.9901227474738
0.22908677	6.9183097e-9	0.19	0.14294606	5.4380673	-0.0024277582	-0.019020111	-0.018415319	-0.0060788095	-0.0047528887	0	933.9968573451982
0.22908677	7.5857758e-9	0.19	0.1370884	5.1141209	-0.0024210212	-0.019043353	-0.018411395	-0.0060650925	-0.0048181569	0	934.0038876993036
0.22908677	8.3176377e-9	0.19	0.13256257	4.8536466	-0.0024113558	-0.01907775	-0.01841813	-0.0060518897	-0.0048684635	0	934.0117666594374
0.22908677	9.1201084e-9	0.19	0.13014586	4.6953413	-0.0023954983	-0.019135255	-0.018447459	-0.0060390325	-0.0048942047	0	934.0214300796665
0.22908677	1.e-8	0.19	0.12941281	4.6173977	-0.0023743691	-0.019212357	-0.018495851	-0.0060263178	-0.0049004944	0	934.0326435290403
0.22908677	1.0964782e-8	0.19	0.12914411	4.558489	-0.0023520504	-0.019293903	-0.018548133	-0.0060136466	-0.0049021864	0	934.044280158648
0.22908677	1.2022644e-8	0.19	0.12902499	4.5029259	-0.002329607	-0.019375945	-0.018600329	-0.0060009937	-0.004903081	0	934.0560493045526
0.22908677	1.3182567e-8	0.19	0.1290175	4.4489415	-0.0023071513	-0.019458066	-0.018651997	-0.0059883469	-0.0049035968	0	934.0679242643067
0.22908677	1.4454398e-8	0.19	0.12911384	4.3962626	-0.0022846941	-0.019540228	-0.018703068	-0.0059756958	-0.0049037899	0	934.0799072083068
0.22908677	1.5848932e-8	0.19	0.12930971	4.3447713	-0.0022622366	-0.019622428	-0.018753508	-0.0059630302	-0.0049036791	0	934.092003078666
0.22908677	1.7378008e-8	0.19	0.12960175	4.2943756	-0.0022397789	-0.019704665	-0.018803283	-0.0059503408	-0.0049032772	0	934.1042178510204
0.22908677	1.9054607e-8	0.19	0.12998718	4.2449958	-0.0022173212	-0.019786941	-0.018852362	-0.0059376181	-0.0049025944	0	934.1165568714969
0.22908677	2.0892961e-8	0.19	0.13046368	4.1965607	-0.0021948632	-0.019869257	-0.018900708	-0.0059248531	-0.004901639	0	934.129027027109
0.22908677	2.2908677e-8	0.19	0.13102935	4.1490071	-0.0021724051	-0.019951614	-0.018948287	-0.005912037	-0.0049004175	0	934.141634199536
0.22908677	2.5118864e-8	0.19	0.13168264	4.1022779	-0.0021499469	-0.020034014	-0.018995061	-0.0058991612	-0.0048989353	0	934.1543851724402
0.22908677	2.7542287e-8	0.19	0.13242232	4.0563222	-0.0021274885	-0.020116458	-0.019040993	-0.0058862171	-0.0048971962	0	934.167286644922
0.22908677	3.0199517e-8	0.19	0.13324742	4.0110937	-0.00210503	-0.020198947	-0.019086043	-0.0058731963	-0.0048952032	0	934.1803456637217
0.22908677	3.3113112e-8	0.19	0.1341572	3.9665505	-0.0020825713	-0.020281483	-0.019130172	-0.0058600905	-0.004892958	0	934.193569284975
0.22908677	3.6307805e-8	0.19	0.13515114	3.9226548	-0.0020601124	-0.020364067	-0.01917334	-0.0058468913	-0.0048904615	0	934.2069646493785
0.22908677	3.9810717e-8	0.19	0.13622887	3.8793713	-0.0020376534	-0.020446701	-0.019215505	-0.0058335906	-0.0048877143	0	934.2205391607075
0.22908677	4.3651583e-8	0.19	0.13739023	3.8366681	-0.0020151941	-0.020529386	-0.019256624	-0.0058201802	-0.0048847158	0	934.2343006831237
0.22908677	4.7863009e-8	0.19	0.13863517	3.7945158	-0.0019927347	-0.020612124	-0.019296656	-0.0058066518	-0.0048814652	0	934.248256347928
0.22908677	5.2480746e-8	0.19	0.1399638	3.7528868	-0.001970275	-0.020694916	-0.019335557	-0.0057929973	-0.0048779607	0	934.2624141978004
0.22908677	5.7543994e-8	0.19	0.14137634	3.7117558	-0.0019478151	-0.020777765	-0.019373281	-0.0057792084	-0.0048742005	0	934.2767823505848
0.22908677	6.3095734e-8	0.19	0.14287313	3.6710988	-0.0019253549	-0.020860672	-0.019409785	-0.005765277	-0.0048701821	0	934.2913685764868
0.22908677	6.9183097e-8	0.19	0.14445464	3.6308937	-0.0019028944	-0.020943639	-0.019445021	-0.0057511946	-0.0048659026	0	934.3061814443428
0.22908677	7.5857758e-8	0.19	0.14612145	3.5911197	-0.0018804336	-0.021026668	-0.019478943	-0.005736953	-0.0048613588	0	934.3212291659535
0.22908677	8.3176377e-8	0.19	0.14787422	3.5517568	-0.0018579725	-0.021109761	-0.019511503	-0.0057225439	-0.0048565472	0	934.3365203101553
0.22908677	9.1201084e-8	0.19	0.14971377	3.5127868	-0.001835511	-0.02119292	-0.019542653	-0.0057079587	-0.0048514638	0	934.3520635397401
0.22908677	1.e-7	0.19	0.151641	3.4741919	-0.0018130491	-0.021276147	-0.019572342	-0.0056931889	-0.0048461042	0	934.3678679590969
0.22908677	1.0964782e-7	0.19	0.15365691	3.4359557	-0.0017905867	-0.021359445	-0.019600519	-0.0056782258	-0.004840464	0	934.38394276657
0.22908677	1.2022644e-7	0.19	0.15576263	3.3980624	-0.0017681239	-0.021442815	-0.019627133	-0.0056630607	-0.0048345381	0	934.4002969725911
0.22908677	1.3182567e-7	0.19	0.15795942	3.3604971	-0.0017456605	-0.02152626	-0.019652129	-0.0056476847	-0.0048283213	0	934.4169405835315
0.22908677	1.4454398e-7	0.19	0.1602486	3.3232455	-0.0017231966	-0.021609783	-0.019675454	-0.0056320889	-0.0048218083	0	934.4338829668577
0.22908677	1.5848932e-7	0.19	0.16263167	3.2862943	-0.001700732	-0.021693385	-0.01969705	-0.0056162641	-0.004814993	0	934.4511346644925
0.22908677	1.7378008e-7	0.19	0.16511021	3.2496308	-0.0016782668	-0.021777071	-0.019716862	-0.0056002009	-0.0048078692	0	934.4687054009376
0.22908677	1.9054607e-7	0.19	0.16768593	3.2132427	-0.0016558008	-0.021860841	-0.019734829	-0.0055838901	-0.0048004306	0	934.4866062536684
0.22908677	2.0892961e-7	0.19	0.17036065	3.1771184	-0.0016333339	-0.0219447	-0.019750892	-0.005567322	-0.0047926704	0	934.5048478491692
0.22908677	2.2908677e-7	0.19	0.17313635	3.1412471	-0.0016108662	-0.02202865	-0.019764988	-0.0055504868	-0.0047845814	0	934.5234413400804
0.22908677	2.5118864e-7	0.19	0.17601509	3.1056184	-0.0015883974	-0.022112695	-0.019777054	-0.0055333743	-0.004776156	0	934.5423982548689
0.22908677	2.7542287e-7	0.19	0.17899909	3.0702221	-0.0015659276	-0.022196837	-0.019787023	-0.0055159746	-0.0047673867	0	934.5617304602454
0.22908677	3.0199517e-7	0.19	0.18209069	3.035049	-0.0015434566	-0.022281079	-0.019794828	-0.0054982771	-0.0047582651	0	934.5814501047894
0.22908677	3.3113112e-7	0.19	0.18529235	3.00009	-0.0015209843	-0.022365426	-0.019800401	-0.0054802711	-0.004748783	0	934.601569421642
0.22908677	3.6307805e-7	0.19	0.18860667	2.9653366	-0.0014985105	-0.02244988	-0.019803669	-0.0054619459	-0.0047389314	0	934.6221016304877
0.22908677	3.9810717e-7	0.19	0.19203639	2.9307808	-0.0014760352	-0.022534446	-0.019804559	-0.00544329	-0.004728701	0	934.643059763098
0.22908677	4.3651583e-7	0.19	0.19558438	2.8964147	-0.0014535582	-0.022619127	-0.019802996	-0.0054242922	-0.0047180824	0	934.6644573961919
0.22908677	4.7863009e-7	0.19	0.19925364	2.8622311	-0.0014310793	-0.022703927	-0.019798902	-0.0054049407	-0.0047070656	0	934.6863086420412
0.22908677	5.2480746e-7	0.19	0.20304733	2.8282228	-0.0014085983	-0.022788851	-0.019792197	-0.0053852234	-0.0046956403	0	934.7086279699521
0.22908677	5.7543994e-7	0.19	0.20696873	2.7943834	-0.0013861151	-0.022873902	-0.019782798	-0.005365128	-0.0046837957	0	934.7314302908269
0.22908677	6.3095734e-7	0.19	0.21102128	2.7607064	-0.0013636294	-0.022959085	-0.01977062	-0.0053446418	-0.0046715206	0	934.7547310605154
0.22908677	6.9183097e-7	0.19	0.21520855	2.7271859	-0.0013411409	-0.023044405	-0.019755577	-0.0053237518	-0.0046588037	0	934.7785459133854
0.22908677	7.5857758e-7	0.19	0.21953428	2.693816	-0.0013186495	-0.023129867	-0.019737578	-0.0053024445	-0.0046456327	0	934.8028911884778
0.22908677	8.3176377e-7	0.19	0.22400234	2.6605915	-0.0012961549	-0.023215476	-0.01971653	-0.0052807062	-0.0046319953	0	934.8277837697825
0.22908677	9.1201084e-7	0.19	0.22861676	2.6275069	-0.0012736566	-0.023301238	-0.019692339	-0.0052585229	-0.0046178787	0	934.853240907719
0.22908677	1.e-6	0.19	0.23338175	2.5945575	-0.0012511544	-0.023387157	-0.019664905	-0.0052358798	-0.0046032694	0	934.8792806419419
0.22908677	1.0964782e-6	0.19	0.23830165	2.5617385	-0.0012286479	-0.023473239	-0.019634129	-0.005212762	-0.0045881536	0	934.905921021502
0.22908677	1.2022644e-6	0.19	0.24338098	2.5290454	-0.0012061367	-0.023559492	-0.019599904	-0.0051891542	-0.0045725171	0	934.9331815235887
0.22908677	1.3182567e-6	0.19	0.24862444	2.4964738	-0.0011836203	-0.023645921	-0.019562125	-0.0051650405	-0.0045563451	0	934.9610813623134
0.22908677	1.4454398e-6	0.19	0.25403686	2.4640198	-0.0011610983	-0.023732533	-0.019520681	-0.0051404046	-0.0045396222	0	934.9896407289355
0.22908677	1.5848932e-6	0.19	0.2596233	2.4316796	-0.0011385699	-0.023819334	-0.019475457	-0.0051152296	-0.0045223324	0	935.0188809046102
0.22908677	1.7378008e-6	0.19	0.26538897	2.3994493	-0.0011160348	-0.023906333	-0.019426337	-0.0050894982	-0.0045044595	0	935.0488228792275
0.22908677	1.9054607e-6	0.19	0.27133927	2.3673255	-0.0010934922	-0.023993537	-0.0193732	-0.0050631926	-0.0044859864	0	935.0794890050469
0.22908677	2.0892961e-6	0.19	0.27747979	2.3353048	-0.0010709414	-0.024080955	-0.019315922	-0.0050362945	-0.0044668956	0	935.1109020759241
0.22908677	2.2908677e-6	0.19	0.28381634	2.3033841	-0.0010483815	-0.024168594	-0.019254375	-0.0050087848	-0.0044471689	0	935.1430857876968
0.22908677	2.5118864e-6	0.19	0.2903549	2.2715604	-0.0010258118	-0.024256464	-0.019188428	-0.0049806442	-0.0044267876	0	935.1760641838425
0.22908677	2.7542287e-6	0.19	0.29710167	2.2398308	-0.0010032312	-0.024344574	-0.019117944	-0.0049518524	-0.0044057322	0	935.2098627547695
0.22908677	3.0199517e-6	0.19	0.30406308	2.2081925	-0.00098063882	-0.024432935	-0.019042784	-0.0049223888	-0.0043839827	0	935.2445071412155
0.22908677	3.3113112e-6	0.19	0.31124575	2.1766432	-0.00095803336	-0.024521557	-0.018962805	-0.0048922319	-0.0043615183	0	935.2800240926067
0.22908677	3.6307805e-6	0.19	0.31865658	2.1451802	-0.00093541363	-0.024610451	-0.018877858	-0.0048613599	-0.0043383176	0	935.3164413261204
0.22908677	3.9810717e-6	0.19	0.32630264	2.1138013	-0.00091277824	-0.024699629	-0.018787793	-0.0048297499	-0.0043143585	0	935.3537869253653
0.22908677	4.3651583e-6	0.19	0.33419131	2.0825045	-0.00089012567	-0.024789104	-0.018692452	-0.0047973786	-0.0042896181	0	935.3920905242322
0.22908677	4.7863009e-6	0.19	0.34233017	2.0512878	-0.00086745429	-0.024878889	-0.018591674	-0.0047642218	-0.0042640726	0	935.431382395517
0.22908677	5.2480746e-6	0.19	0.35072709	2.0201492	-0.00084476225	-0.024968997	-0.018485293	-0.0047302545	-0.0042376976	0	935.4716939113066
0.22908677	5.7543994e-6	0.19	0.35939021	1.9890871	-0.00082204758	-0.025059444	-0.018373141	-0.0046954512	-0.0042104679	0	935.5130569134705
0.22908677	6.3095734e-6	0.19	0.36832792	1.9580999	-0.0007993081	-0.025150247	-0.01825504	-0.0046597852	-0.0041823572	0	935.5555052263617
0.22908677	6.9183097e-6	0.19	0.37754894	1.9271863	-0.0007765414	-0.02524142	-0.018130812	-0.0046232292	-0.0041533387	0	935.5990728904324
0.22908677	7.5857758e-6	0.19	0.38706227	1.8963449	-0.00075374488	-0.025332984	-0.018000271	-0.0045857551	-0.0041233844	0	935.6437955527922
0.22908677	8.3176377e-6	0.19	0.39687723	1.8655745	-0.00073091567	-0.025424955	-0.017863226	-0.0045473338	-0.0040924655	0	935.6897100068203
0.22908677	9.1201084e-6	0.19	0.40700344	1.8348742	-0.00070805059	-0.025517357	-0.017719483	-0.004507935	-0.0040605522	0	935.7368538727134
0.22908677	0.00001	0.19	0.41745089	1.8042433	-0.00068514623	-0.025610208	-0.017568841	-0.0044675281	-0.0040276137	0	935.7852662363896
0.22908677	0.000010964782	0.19	0.42822988	1.773681	-0.00066219878	-0.025703535	-0.017411092	-0.0044260808	-0.0039936182	0	935.834987809216
0.22908677	0.000012022644	0.19	0.43935111	1.7431869	-0.0006392041	-0.02579736	-0.017246026	-0.0043835601	-0.0039585327	0	935.8860599696503
0.22908677	0.000013182567	0.19	0.45082564	1.7127607	-0.00061615765	-0.02589171	-0.017073425	-0.0043399321	-0.0039223232	0	935.938525900116
0.22908677	0.000014454398	0.19	0.46266491	1.6824023	-0.00059305445	-0.025986615	-0.016893066	-0.0042951614	-0.0038849546	0	935.9924300890326
0.22908677	0.000015848932	0.19	0.47488079	1.6521117	-0.00056988907	-0.026082104	-0.01670472	-0.0042492119	-0.0038463906	0	936.0478185187285
0.22908677	0.000017378008	0.19	0.48748556	1.6218893	-0.00054665551	-0.026178211	-0.016508151	-0.0042020458	-0.0038065934	0	936.1047389567055
0.22908677	0.000019054607	0.19	0.50049194	1.5917357	-0.00052334725	-0.026274969	-0.01630312	-0.0041536246	-0.0037655243	0	936.1632401945927
0.22908677	0.000020892961	0.19	0.51391313	1.5616514	-0.0004999571	-0.026372419	-0.016089379	-0.0041039081	-0.003723143	0	936.2233732601842
0.22908677	0.000022908677	0.19	0.5277628	1.5316377	-0.00047647723	-0.026470598	-0.015866676	-0.0040528552	-0.0036794081	0	936.2851904966656
0.22908677	0.000025118864	0.19	0.54205511	1.5016957	-0.00045289904	-0.026569552	-0.015634751	-0.004000423	-0.0036342764	0	936.348746398827
0.22908677	0.000027542287	0.19	0.55680478	1.471827	-0.00042921311	-0.026669328	-0.015393341	-0.0039465674	-0.0035877035	0	936.4140967674547
0.22908677	0.000030199517	0.19	0.57202703	1.4420335	-0.00040540914	-0.026769975	-0.015142173	-0.0038912429	-0.0035396434	0	936.4813000153266
0.22908677	0.000033113112	0.19	0.5877377	1.4123173	-0.00038147585	-0.026871549	-0.014880971	-0.0038344025	-0.0034900484	0	936.5504160115468
0.22908677	0.000036307805	0.19	0.60323163	1.3826641	-0.00036239014	-0.026955934	-0.014591277	-0.0037767655	-0.0034396415	0	936.6200637077985
0.22908677	0.000039810717	0.19	0.61989942	1.3531092	-0.00033864116	-0.027057788	-0.014307398	-0.0037168194	-0.0033869015	0	936.6930547721829
0.22908677	0.000043651583	0.19	0.6371001	1.3236403	-0.00031476858	-0.027160591	-0.014012449	-0.0036552135	-0.0033324808	0	936.7681381546453
0.22908677	0.000047863009	0.19	0.6548514	1.2942612	-0.0002907607	-0.0272644	-0.013706111	-0.0035918945	-0.0032763251	0	936.8453817951561
0.22908677	0.000052480746	0.19	0.67317175	1.2649762	-0.00026660472	-0.027369277	-0.013388061	-0.0035268078	-0.0032183787	0	936.9248553812772
0.22908677	0.000057543994	0.19	0.69208024	1.2357898	-0.00024228665	-0.027475288	-0.013057966	-0.0034598964	-0.0031585836	0	937.0066315038275
0.22908677	0.000063095734	0.19	0.71159669	1.2067074	-0.00021779122	-0.027582506	-0.012715488	-0.0033911018	-0.00309688	0	937.0907848488571
0.22908677	0.000069183097	0.19	0.73174168	1.1777347	-0.00019310177	-0.027691008	-0.012360279	-0.0033203635	-0.0030332058	0	937.1773931935852
0.22908677	0.000075857758	0.19	0.75253658	1.1488781	-0.00016820009	-0.027800877	-0.011991987	-0.0032476188	-0.0029674969	0	937.2665364856275
0.22908677	0.000083176377	0.19	0.77400358	1.1201447	-0.00014306634	-0.027912204	-0.01161025	-0.0031728028	-0.0028996868	0	937.3582979892656
0.22908677	0.000091201084	0.19	0.79616571	1.0915422	-0.00011767887	-0.028025085	-0.0112147	-0.0030958485	-0.0028297064	0	937.4527637404984
0.22908677	0.0001	0.19	0.81904694	1.0630792	-0.000092014103	-0.028139624	-0.010804963	-0.0030166867	-0.0027574846	0	937.5500226569718
0.22908677	0.00010964782	0.19	0.84267215	1.0347647	-0.00006604636	-0.028255935	-0.010380657	-0.0029352457	-0.0026829472	0	937.6501670594378
0.22908677	0.00012022644	0.19	0.86706722	1.0066089	-0.000039747683	-0.028374138	-0.0099413939	-0.0028514512	-0.0026060177	0	937.7532924988736
0.22908677	0.00013182567	0.19	0.89225908	0.9786226	-0.000013087687	-0.028494364	-0.0094867783	-0.0027652265	-0.0025266167	0	937.859498109759
0.22908677	0.00014454398	0.19	0.9182757	0.95081765	0.000013966682	-0.028616754	-0.0090164094	-0.0026764921	-0.0024446618	0	937.9688864982674
0.22908677	0.00015848932	0.19	0.94514617	0.92320679	0.00004145133	-0.02874146	-0.0085298803	-0.0025851657	-0.0023600675	0	938.0815640391692
0.22908677	0.00017378008	0.19	0.97290082	0.89580367	0.000069405154	-0.028868644	-0.0080267773	-0.0024911622	-0.0022727455	0	938.1976411313931
0.22908677	0.00019054607	0.19	1.0015711	0.86862304	0.000097870403	-0.028998483	-0.0075066825	-0.0023943934	-0.0021826039	0	938.3172320730635
0.22908677	0.00020892961	0.19	1.0311899	0.84168058	0.00012689277	-0.029131164	-0.0069691717	-0.0022947679	-0.0020895476	0	938.4404555228286
0.22908677	0.00022908677	0.19	1.0617912	0.81499306	0.00015652173	-0.029266891	-0.0064138162	-0.002192191	-0.0019934777	0	938.5674344961002
0.22908677	0.00025118864	0.19	1.0934106	0.78857825	0.00018681065	-0.029405881	-0.0058401817	-0.0020865648	-0.001894292	0	938.6982966647764
0.22908677	0.00027542287	0.19	1.126085	0.76245499	0.00021781725	-0.029548369	-0.0052478305	-0.0019777875	-0.0017918842	0	938.8331743976424
0.22908677	0.00030199517	0.19	1.1598529	0.73664306	0.0002496036	-0.029694603	-0.0046363198	-0.001865754	-0.0016861442	0	938.9722050610314
0.22908677	0.00033113112	0.19	1.1947543	0.71116326	0.00028223657	-0.029844852	-0.0040052027	-0.0017503551	-0.0015769578	0	939.115531263112
0.22908677	0.00036307805	0.19	1.2308306	0.68603724	0.00031578801	-0.029999403	-0.0033540299	-0.0016314777	-0.0014642066	0	939.2633007195296
0.22908677	0.00039810717	0.19	1.2681253	0.66128745	0.0003503349	-0.030158559	-0.002682346	-0.0015090044	-0.0013477679	0	939.4156670548566
0.22908677	0.00043651583	0.19	1.3066831	0.63693703	0.00038595976	-0.030322647	-0.0019896942	-0.0013828137	-0.0012275144	0	939.5727893487813
0.22908677	0.00047863009	0.19	1.3465509	0.61300964	0.00042275071	-0.030492013	-0.0012756127	-0.0012527794	-0.0011033141	0	939.7348328351453
0.22908677	0.00052480746	0.19	1.387777	0.58952933	0.00046080183	-0.030667026	-0.00053963716	-0.0011187708	-0.00097503051	0	939.9019688010342
0.22908677	0.00057543994	0.19	1.4304119	0.56652022	0.00050021315	-0.030848074	0.00021870179	-0.00098065224	-0.00084252211	0	940.0743750218891
0.22908677	0.00063095734	0.19	1.4745076	0.54400637	0.00054109099	-0.03103557	0.00099987724	-0.00083828316	-0.0007056424	0	940.2522358471032
0.22908677	0.00069183097	0.19	1.5201183	0.52201145	0.00058354813	-0.031229951	0.0018043658	-0.00069151764	-0.00056423973	0	940.4357423240423
0.22908677	0.00075857758	0.19	1.5673001	0.50055844	0.00062770369	-0.031431674	0.0026326511	-0.0005402045	-0.00041815731	0	940.6250927101091
0.22908677	0.00083176377	0.19	1.6161109	0.47966927	0.00067368357	-0.031641224	0.0034852203	-0.00038418685	-0.0002672329	0	940.8204922631257
0.22908677	0.00091201084	0.19	1.6666108	0.45936451	0.00072162025	-0.031859106	0.0043625688	-0.00022330211	-0.00011129891	0	941.0221538942379
0.22908677	0.001	0.19	1.7188619	0.43966298	0.00077165297	-0.03208585	0.0052651986	-0.000057381685	0.000049817853	0	941.230298044268
0.22908677	0.0010964782	0.19	1.7729282	0.42058142	0.00082392793	-0.032322011	0.0061936195	0.00011374925	0.00021629628	0	941.4451530858493
0.22908677	0.0012022644	0.19	1.8288762	0.40213409	0.00087859802	-0.032568168	0.0071483516	0.00029027184	0.00038832101	0	941.6669555160361
0.22908677	0.0013182567	0.19	1.8867742	0.3843325	0.00093582322	-0.032824921	0.0081299252	0.00047237391	0.00056608265	0	941.8959503142797
0.22908677	0.0014454398	0.19	1.9466929	0.36718513	0.00099577055	-0.033092897	0.0091388812	0.00066025003	0.00074977786	0	942.1323909668549
0.22908677	0.0015848932	0.19	2.0087056	0.35069717	0.0010586143	-0.033372745	0.010175774	0.00085410188	0.00093960959	0	942.3765402006625
0.22908677	0.0017378008	0.19	2.0728876	0.33487045	0.001124536	-0.033665141	0.011241169	0.0010541384	0.0011357872	0	942.6286695087475
0.22908677	0.0019054607	0.19	2.1393172	0.31970329	0.0011937251	-0.033970784	0.012335648	0.001260576	0.0013385267	0	942.8890607531987
0.22908677	0.0020892961	0.19	2.2080753	0.30519061	0.0012663793	-0.0342904	0.013459804	0.001473639	0.0015480512	0	943.1580055469137
0.22908677	0.0022908677	0.19	2.2792459	0.29132398	0.0013427049	-0.034624742	0.014614244	0.0016935598	0.001764591	0	943.4358060822959
0.22908677	0.0025118864	0.19	2.3529162	0.27809188	0.0014229175	-0.034974594	0.015799589	0.0019205791	0.001988384	0	943.7227757889505
0.22908677	0.0027542287	0.19	2.4291773	0.26547993	0.0015072434	-0.03534077	0.017016471	0.0021549463	0.0022196761	0	944.0192401135234
0.22908677	0.0030199517	0.19	2.5081239	0.25347128	0.0015959201	-0.035724121	0.018265532	0.00239692	0.0024587219	0	944.3255368109666
0.22908677	0.0033113112	0.19	2.5898554	0.24204696	0.0016891979	-0.036125535	0.019547423	0.0026467683	0.0027057847	0	944.6420172693254
0.22908677	0.0036307805	0.19	2.6744763	0.23118634	0.0017873418	-0.036545945	0.020862796	0.0029047694	0.0029611377	0	944.9690468667732
0.22908677	0.0039810717	0.19	2.7620964	0.22086751	0.0018906332	-0.036986334	0.022212306	0.0031712117	0.0032250641	0	945.307006925907
0.22908677	0.0043651583	0.19	2.852832	0.2110677	0.0019993722	-0.03744774	0.023596602	0.0034463949	0.0034978579	0	945.656295268092
0.22908677	0.0047863009	0.19	2.9468066	0.20176366	0.0021138807	-0.037931267	0.025016319	0.0037306305	0.0037798249	0	946.0173276979737
0.22908677	0.0052480746	0.19	3.0441517	0.19293196	0.0022345054	-0.038438092	0.026472075	0.0040242423	0.0040712833	0	946.3905402866221
0.22908677	0.0057543994	0.19	3.1450082	0.18454928	0.002361622	-0.038969479	0.027964455	0.0043275674	0.0043725646	0	946.7763904614283
0.22908677	0.0063095734	0.19	3.2495273	0.17659263	0.0024956398	-0.039526791	0.029494005	0.0046409576	0.0046840148	0	947.175360256999
0.22908677	0.0069183097	0.19	3.3578729	0.16903954	0.0026370073	-0.040111507	0.031061211	0.0049647796	0.0050059952	0	947.5879578278584
0.22908677	0.0075857758	0.19	3.4702227	0.16186817	0.0027862187	-0.040725243	0.032666488	0.0052994173	0.0053388844	0	948.0147215919303
0.22908677	0.0083176377	0.19	3.5867708	0.15505738	0.0029438221	-0.041369771	0.034310154	0.0056452725	0.0056830789	0	948.4562232935214
0.22908677	0.0091201084	0.19	3.7077303	0.14858684	0.0031104284	-0.04204705	0.035992407	0.0060027671	0.0060389958	0	948.9130722595526
0.22908677	0.01	0.19	3.8333367	0.142437	0.003286723	-0.042759258	0.037713295	0.0063723447	0.006407074	0	949.3859210369504
0.22908677	0.010964782	0.19	3.9638514	0.13658912	0.0034734785	-0.043508825	0.039472679	0.0067544735	0.006787777	0	949.8754707199837
0.22908677	0.012022644	0.19	4.0995665	0.13102527	0.0036715701	-0.04429848	0.041270196	0.0071496488	0.0071815957	0	950.3824788144248
0.22908677	0.013182567	0.19	4.2408102	0.1257283	0.0038819935	-0.045131299	0.043105209	0.0075583961	0.0075890514	0	950.9077671298979
0.22908677	0.014454398	0.19	4.3879531	0.12068181	0.0041058866	-0.046010762	0.044976754	0.007981275	0.0080106999	0	951.4522327070255
0.22908677	0.015848932	0.19	4.5414159	0.11587013	0.0043445515	-0.046940811	0.04688348	0.0084188842	0.0084471359	0	952.0168577768201
0.22908677	0.017378008	0.19	4.7016781	0.11127824	0.0045994827	-0.047925916	0.048823591	0.008871866	0.0088989981	0	952.602725902417
0.22908677	0.019054607	0.19	4.8692882	0.10689179	0.0048723952	-0.048971144	0.05079478	0.0093409132	0.0093669758	0	953.2110365987122
0.22908677	0.020892961	0.19	5.0448749	0.10269696	0.0051652546	-0.05008221	0.052794173	0.0098267765	0.0098518163	0	953.8431236163024
0.22908677	0.022908677	0.19	5.2291598	0.098680477	0.0054803079	-0.051265535	0.054818282	0.010330272	0.010354333	0	954.5004754897799
0.22908677	0.025118864	0.19	5.4229698	0.094829512	0.005820107	-0.052528242	0.056863006	0.010852292	0.010875414	0	955.1847577960363
0.22908677	0.027542287	0.19	5.6272493	0.091131662	0.006187524	-0.053878127	0.058923669	0.011393816	0.011416036	0	955.8978343132745
0.22908677	0.030199517	0.19	5.8430667	0.08757667	0.0065857391	-0.055323483	0.060995192	0.011955921	0.011977275	0	956.6417863572616
0.22908677	0.033113112	0.19	6.0714988	0.084247907	0.0070177131	-0.056870933	0.063074266	0.012539794	0.012560336	0	957.4188050789548
0.22908677	0.036307805	0.19	6.3049849	0.084453553	0.0074518083	-0.058394009	0.065290779	0.013146523	0.013167114	0	958.2223520618747
0.22908677	0.039810717	0.19	6.5058514	0.09138897	0.0077402159	-0.059336924	0.068204042	0.013774664	0.013796946	0	959.0133980338566
0.22908677	0.043651583	0.19	6.6993266	0.092557313	0.0079837619	-0.060105343	0.071412026	0.014421807	0.014444374	0	959.8149064324411
0.22908677	0.047863009	0.19	6.9505518	0.087932658	0.0084497792	-0.061734068	0.073883676	0.015090053	0.015111493	0	960.6939927125138
0.22908677	0.052480746	0.19	6.8117285	0.081038174	0.0083358655	-0.062459415	0.077386542	0.015789436	0.015809195	0	961.2122859357693
0.22908677	0.057543994	0.19	6.2812544	0.071510331	0.0075528555	-0.062179884	0.08202611	0.01645254	0.016469975	0	961.3048405641017
0.22908677	0.063095734	0.19	5.7974562	0.062820835	0.0068387419	-0.062444518	0.086257446	0.017057297	0.017072614	0	961.3892513406414
0.22908677	0.069183097	0.19	5.356227	0.05489592	0.0061874626	-0.063221635	0.090116471	0.017608842	0.017622227	0	961.4662350503982
0.22908677	0.075857758	0.19	4.9538212	0.047668312	0.0055934888	-0.064482847	0.093635943	0.018111857	0.01812348	0	961.5364448979944
0.22908677	0.083176377	0.19	4.5868228	0.041076656	0.0050517783	-0.066202781	0.09684574	0.018570613	0.018580628	0	961.6004771503925
0.22908677	0.091201084	0.19	4.546075	0.035884528	0.0049056485	-0.068498382	0.099633565	0.018997539	0.019006288	0	961.9608539703644
0.22908677	0.1	0.19	5.4540781	0.0331514	0.0059016322	-0.071328082	0.10204578	0.019485435	0.019493518	0	963.3272681338917
0.22908677	0.10964782	0.19	6.6659901	0.030586232	0.0073043795	-0.07421529	0.10456391	0.020076763	0.020084221	0	965.094770953789
0.22908677	0.12022644	0.19	8.2432837	0.028182341	0.0092221024	-0.077217943	0.10713512	0.020804268	0.02081114	0	967.3556027080094
0.22908677	0.13182567	0.19	10.256078	0.02593385	0.011781128	-0.080407229	0.10969348	0.02170712	0.021713443	0	970.2166863092092
0.22908677	0.14454398	0.19	12.786925	0.023835677	0.015130333	-0.083864347	0.1121632	0.022831936	0.022837748	0	973.8043713111344
0.22908677	0.15848932	0.19	15.935872	0.021883512	0.019447185	-0.087676271	0.11446289	0.024234237	0.024239573	0	978.2708705889635
0.22908677	0.17378008	0.19	19.825958	0.020073757	0.024944631	-0.091930763	0.11651057	0.025980436	0.02598533	0	983.8016269074784
0.22908677	0.19054607	0.19	24.607634	0.018403414	0.031877204	-0.096710692	0.11822928	0.028150324	0.028154811	0	990.6220519535365
0.22908677	0.20892961	0.19	30.459945	0.016869895	0.040543837	-0.10208754	0.11955369	0.030839851	0.030843964	0	999.0013502730899
0.22908677	0.22908677	0.19	37.585902	0.015470714	0.051284158	-0.10811402	0.1204374	0.034163763	0.034167535	0	1009.2503413587025
0.22908677	0.25118864	0.19	46.19967	0.014203067	0.064465162	-0.11481622	0.12086081	0.038257394	0.038260857	0	1021.7103420546341
0.22908677	0.27542287	0.19	56.504694	0.01306332	0.080456679	-0.12218657	0.12083825	0.043276761	0.043279946	0	1036.731389968854
0.22908677	0.30199517	0.19	68.664912	0.012046504	0.099597541	-0.13017974	0.12042194	0.049396138	0.049399075	0	1054.6411620875226
0.22908677	0.33113112	0.19	82.775098	0.011145938	0.12215892	-0.13871404	0.11970073	0.056802702	0.05680542	0	1075.710303498186
0.22908677	0.36307805	0.19	98.83897	0.010353147	0.14831459	-0.14767945	0.118792	0.065688585	0.06569111	0	1100.1230406043246
0.22908677	0.39810717	0.19	116.76261	0.0096581232	0.17812718	-0.15695138	0.11782793	0.076241476	0.076243831	0	1127.9618138763558
0.22908677	0.43651583	0.19	136.36565	0.009049879	0.21155391	-0.16640671	0.11693948	0.088635463	0.08863767	0	1159.2098073494722
0.22908677	0.47863009	0.19	157.40611	0.0085171485	0.24846842	-0.17593781	0.11624235	0.10302369	0.10302577	0	1193.7689520111358
0.22908677	0.52480746	0.19	179.61113	0.0080490439	0.2886906	-0.18546167	0.11582789	0.11953383	0.11953579	0	1231.486330312156
0.22908677	0.57543994	0.19	202.7055	0.0076355506	0.332016	-0.19492315	0.1157598	0.13826645	0.13826832	0	1272.1812196761568
0.22908677	0.63095734	0.19	226.43333	0.0072678121	0.37823957	-0.20429353	0.11607568	0.15929599	0.15929776	0	1315.6676744829804
0.22908677	0.69183097	0.19	250.57149	0.0069382305	0.42717165	-0.21356609	0.11679137	0.18267328	0.18267498	0	1361.7703244842232
0.22908677	0.75857758	0.19	274.93555	0.0066404314	0.47864692	-0.2227507	0.11790641	0.2084292	0.20843082	0	1410.333758618212
0.22908677	0.83176377	0.19	299.38058	0.0063691518	0.53252802	-0.23186856	0.11940932	0.23657847	0.23658003	0	1461.2268688085287
0.22908677	0.91201084	0.19	323.79851	0.0061200925	0.58870572	-0.24094777	0.12128201	0.26712345	0.26712494	0	1514.343796951929
0.22908677	1.	0.19	348.11382	0.0058897642	0.6470971	-0.25002001	0.12350312	0.30005752	0.30005895	0	1569.6028211575745
0.22908677	1.0964782	0.19	372.2787	0.005675345	0.70764287	-0.25911811	0.12605045	0.33536808	0.33536946	0	1626.9442715092168
0.22908677	1.2022644	0.19	396.26814	0.0054745543	0.7703044	-0.26827459	0.12890249	0.37303899	0.37304033	0	1686.328012687757
0.22908677	1.3182567	0.19	420.07562	0.0052855469	0.83506083	-0.27752065	0.13203933	0.41305261	0.4130539	0	1747.7308910782315
0.22908677	1.4454398	0.19	443.70917	0.0051068262	0.90190656	-0.28688576	0.13544319	0.45539137	0.45539261	0	1811.1444710750147
0.22908677	1.5848932	0.19	467.18817	0.0049371731	0.97084898	-0.29639743	0.13909859	0.5000391	0.5000403	0	1876.5729326164355
0.22908677	1.7378008	0.19	490.54066	0.0047755901	1.0419066	-0.30608124	0.14299238	0.54698196	0.54698313	0	1944.0313195530962
0.22908677	1.9054607	0.19	513.80119	0.0046212561	1.1151075	-0.3159609	0.14711361	0.59620921	0.59621034	0	2013.5440601143132
0.22908677	2.0892961	0.19	537.00902	0.0044734906	1.190488	-0.32605851	0.15145341	0.64771371	0.6477148	0	2085.1436958641157
0.22908677	2.2908677	0.19	560.20678	0.0043317258	1.2680918	-0.33639468	0.15600476	0.70149237	0.70149342	0	2158.870032616033
0.22908677	2.5118864	0.19	583.43937	0.0041954845	1.3479688	-0.34698877	0.16076236	0.75754638	0.7575474	0	2234.7690085387235
0.22908677	2.7542287	0.19	606.75314	0.0040643618	1.4301748	-0.35785906	0.16572237	0.81588142	0.81588241	0	2312.892365871837
0.22908677	3.0199517	0.19	630.19523	0.0039380119	1.5147707	-0.36902297	0.17088231	0.87650777	0.87650873	0	2393.2968814219967
0.22908677	3.3113112	0.19	653.81309	0.0038161364	1.6018221	-0.38049719	0.17624086	0.93944031	0.93944124	0	2476.043955033173
0.22908677	3.6307805	0.19	677.65412	0.0036984756	1.6913992	-0.39229786	0.18179778	1.0046986	1.0046995	0	2561.199501348756
0.22908677	3.9810717	0.19	701.76546	0.0035848019	1.783576	-0.40444067	0.18755371	1.0723069	1.0723077	0	2648.8331624557904
0.22908677	4.3651583	0.19	726.19372	0.0034749136	1.8784308	-0.41694101	0.19351015	1.1422938	1.1422947	0	2739.018774097308
0.22908677	4.7863009	0.19	750.98498	0.0033686304	1.9760455	-0.42981403	0.19966933	1.2146929	1.2146937	0	2831.833684769311
0.22908677	5.2480746	0.19	776.18464	0.0032657901	2.0765056	-0.4430748	0.20603415	1.2895418	1.2895426	0	2927.3587450097334
0.22908677	5.7543994	0.19	801.83744	0.0031662455	2.1799005	-0.4567383	0.21260809	1.3668828	1.3668836	0	3025.678573201474
0.22908677	6.3095734	0.19	827.98744	0.0030698619	2.2863227	-0.47081958	0.21939521	1.4467626	1.4467633	0	3126.88080392012
0.22908677	6.9183097	0.19	854.67808	0.0029765154	2.3958685	-0.48533376	0.22640005	1.5292319	1.5292326	0	3231.056727777946
0.22908677	7.5857758	0.19	881.9522	0.002886091	2.5086377	-0.50029612	0.23362763	1.6143458	1.6143465	0	3338.301009554313
0.22908677	8.3176377	0.19	909.85211	0.0027984817	2.6247335	-0.51572211	0.24108338	1.7021638	1.7021644	0	3448.711581742913
0.22908677	9.1201084	0.19	938.41964	0.0027135871	2.7442627	-0.53162747	0.24877316	1.792749	1.7927497	0	3562.3898360351864
0.22908677	10.	0.19	967.69625	0.0026313127	2.8673358	-0.54802818	0.25670321	1.8861691	1.8861697	0	3679.4407083509877