0.17378008	1.e-12	0.49	39.778655	1065.2481	-0.012072275	0.0041884541	0.0041896248	-0.052356653	0.14466946	0	930.1515075972032
0.17378008	1.0964782e-12	0.49	36.278861	971.56522	-0.012071779	0.0041880041	0.0041892877	-0.048631415	0.1310673	0	930.1518184251519
0.17378008	1.2022644e-12	0.49	33.087015	886.12535	-0.012071284	0.0041875523	0.0041889597	-0.045233929	0.118662	0	930.1521325030571
0.17378008	1.3182567e-12	0.49	30.176021	808.20323	-0.012070789	0.0041870982	0.0041886414	-0.042135355	0.10734826	0	930.1524510467164
0.17378008	1.4454398e-12	0.49	27.521167	737.13739	-0.012070293	0.0041866417	0.0041883337	-0.039309392	0.09703003	0	930.1527754100435
0.17378008	1.5848932e-12	0.49	25.099918	672.32457	-0.012069798	0.0041861828	0.0041880381	-0.036732052	0.087619723	0	930.1531044044882
0.17378008	1.7378008e-12	0.49	22.891718	613.21457	-0.012069302	0.0041857216	0.0041877559	-0.034381459	0.079037453	0	930.1534405076843
0.17378008	1.9054607e-12	0.49	20.877822	559.30563	-0.012068807	0.0041852574	0.0041874879	-0.032237661	0.071210363	0	930.1537822088108
0.17378008	2.0892961e-12	0.49	19.041134	510.14014	-0.012068311	0.0041847909	0.0041872366	-0.030282462	0.064072014	0	930.1541325379658
0.17378008	2.2908677e-12	0.49	17.366063	465.30073	-0.012067815	0.0041843215	0.0041870032	-0.028499266	0.057561805	0	930.1544911080487
0.17378008	2.5118864e-12	0.49	15.838389	424.40677	-0.012067319	0.0041838489	0.0041867893	-0.026872937	0.05162447	0	930.1548586556784
0.17378008	2.7542287e-12	0.49	14.445143	387.11114	-0.012066823	0.0041833735	0.0041865976	-0.025389673	0.046209611	0	930.1552364239
0.17378008	3.0199517e-12	0.49	13.174499	353.09724	-0.012066327	0.004182895	0.00418643	-0.024036885	0.041271257	0	930.1556252874489
0.17378008	3.3113112e-12	0.49	12.01567	322.07633	-0.012065831	0.0041824129	0.004186289	-0.02280309	0.036767489	0	930.1560263972923
0.17378008	3.6307805e-12	0.49	10.958818	293.7851	-0.012065334	0.0041819272	0.0041861772	-0.021677817	0.032660073	0	930.1564418900023
0.17378008	3.9810717e-12	0.49	9.9949721	267.98339	-0.012064837	0.0041814381	0.004186098	-0.020651517	0.028914143	0	930.156872391329
0.17378008	4.3651583e-12	0.49	9.1159502	244.45219	-0.01206434	0.0041809451	0.0041860545	-0.019715479	0.025497898	0	930.1573193284727
0.17378008	4.7863009e-12	0.49	8.3142904	222.99176	-0.012063842	0.0041804483	0.0041860505	-0.018861759	0.02238234	0	930.1577853904689
0.17378008	5.2480746e-12	0.49	7.5831874	203.41992	-0.012063344	0.0041799474	0.0041860899	-0.018083113	0.019541019	0	930.1582714332618
0.17378008	5.7543994e-12	0.49	6.9164348	185.57055	-0.012062846	0.0041794421	0.004186177	-0.017372932	0.016949817	0	930.1587794365157
0.17378008	6.3095734e-12	0.49	6.3083728	169.29214	-0.012062347	0.0041789325	0.0041863169	-0.016725191	0.014586736	0	930.1593126877697
0.17378008	6.9183097e-12	0.49	5.7538396	154.44651	-0.012061848	0.0041784183	0.0041865147	-0.016134394	0.012431717	0	930.1598725954321
0.17378008	7.5857758e-12	0.49	5.2481278	140.90765	-0.012061349	0.0041778993	0.0041867763	-0.015595526	0.010466466	0	930.1604618757866
0.17378008	8.3176377e-12	0.49	4.7869444	128.56065	-0.012060848	0.0041773751	0.0041871079	-0.015104015	0.008674299	0	930.1610852623634
0.17378008	9.1201084e-12	0.49	4.3663746	117.3007	-0.012060348	0.0041768459	0.0041875168	-0.014655693	0.0070400045	0	930.1617432972914
0.17378008	1.e-11	0.49	3.9828483	107.03223	-0.012059847	0.0041763115	0.0041880107	-0.014246754	0.0055497082	0	930.1624414046817
0.17378008	1.0964782e-11	0.49	3.6331097	97.668089	-0.012059345	0.0041757716	0.0041885979	-0.01387373	0.0041907592	0	930.1631834057463
0.17378008	1.2022644e-11	0.49	3.31419	89.128788	-0.012058843	0.0041752256	0.0041892873	-0.013533457	0.0029516212	0	930.1639724583646
0.17378008	1.3182567e-11	0.49	3.0233819	81.341856	-0.01205834	0.0041746741	0.0041900897	-0.013223048	0.0018217756	0	930.1648144742817
0.17378008	1.4454398e-11	0.49	2.7582168	74.241197	-0.012057836	0.0041741163	0.0041910155	-0.012939869	0.00079163071	0	930.1657142415227
0.17378008	1.5848932e-11	0.49	2.5164436	67.766547	-0.012057332	0.0041735517	0.0041920766	-0.01268152	-0.00014755851	0	930.1666762991276
0.17378008	1.7378008e-11	0.49	2.2960101	61.862951	-0.012056827	0.0041729811	0.004193287	-0.01244581	-0.001003765	0	930.1677080320801
0.17378008	1.9054607e-11	0.49	2.0950447	56.480303	-0.01205632	0.0041724031	0.0041946598	-0.012230739	-0.0017842581	0	930.1688164110158
0.17378008	2.0892961e-11	0.49	1.9118414	51.572915	-0.012055814	0.0041718182	0.0041962113	-0.012034485	-0.002495664	0	930.1700061215467
0.17378008	2.2908677e-11	0.49	1.7448449	47.099134	-0.012055306	0.0041712259	0.0041979581	-0.011855383	-0.0031440236	0	930.1712876247935
0.17378008	2.5118864e-11	0.49	1.592637	43.020984	-0.012054797	0.004170626	0.0041999185	-0.011691916	-0.0037348425	0	930.1726684062737
0.17378008	2.7542287e-11	0.49	1.4539253	39.303842	-0.012054287	0.0041700181	0.004202112	-0.011542697	-0.0042731391	0	930.1741574435339
0.17378008	3.0199517e-11	0.49	1.3275317	35.916148	-0.012053777	0.0041694022	0.0042045601	-0.011406463	-0.0047634863	0	930.1757636953298
0.17378008	3.3113112e-11	0.49	1.2123822	32.829128	-0.012053265	0.0041687775	0.004207285	-0.01128206	-0.0052100518	0	930.1774992613838
0.17378008	3.6307805e-11	0.49	1.1074982	30.016557	-0.012052752	0.0041681439	0.0042103109	-0.011168434	-0.0056166331	0	930.1793743434968
0.17378008	3.9810717e-11	0.49	1.0119878	27.454528	-0.012052238	0.0041675015	0.0042136641	-0.011064623	-0.0059866898	0	930.1814010498472
0.17378008	4.3651583e-11	0.49	0.92503811	25.121245	-0.012051722	0.00416685	0.0042173714	-0.010969749	-0.0063233747	0	930.1835926583725
0.17378008	4.7863009e-11	0.49	0.84590834	22.99684	-0.012051206	0.0041661883	0.0042214603	-0.010883009	-0.0066295604	0	930.1859599505854
0.17378008	5.2480746e-11	0.49	0.77392326	21.063197	-0.012050688	0.0041655169	0.0042259606	-0.010803671	-0.0069078648	0	930.1885185251496
0.17378008	5.7543994e-11	0.49	0.70846728	19.303791	-0.012050168	0.0041648348	0.0042309013	-0.010731064	-0.0071606742	0	930.1912817332886
0.17378008	6.3095734e-11	0.49	0.64897903	17.703547	-0.012049647	0.0041641418	0.0042363124	-0.010664577	-0.007390165	0	930.194262447048
0.17378008	6.9183097e-11	0.49	0.59494633	16.248701	-0.012049125	0.0041634378	0.0042422231	-0.01060365	-0.0075983233	0	930.1974741097288
0.17378008	7.5857758e-11	0.49	0.54590154	14.92668	-0.012048601	0.0041627224	0.0042486616	-0.010547771	-0.0077869634	0	930.20093064381
0.17378008	8.3176377e-11	0.49	0.50141725	13.72598	-0.012048075	0.0041619953	0.0042556541	-0.010496474	-0.0079577447	0	930.2046441114319
0.17378008	9.1201084e-11	0.49	0.46110237	12.636071	-0.012047548	0.0041612558	0.0042632231	-0.01044933	-0.0081121879	0	930.2086239317372
0.17378008	1.e-10	0.49	0.42459853	11.647292	-0.012047018	0.0041605034	0.004271388	-0.010405948	-0.0082516887	0	930.2128809153645
0.17378008	1.0964782e-10	0.49	0.39157678	10.750767	-0.012046488	0.0041597384	0.0042801636	-0.010365971	-0.0083775313	0	930.2174190573459
0.17378008	1.2022644e-10	0.49	0.36173459	9.9383278	-0.012045955	0.0041589593	0.0042895577	-0.010329073	-0.0084909005	0	930.222244767396
0.17378008	1.3182567e-10	0.49	0.33479332	9.2024434	-0.01204542	0.0041581663	0.0042995734	-0.010294956	-0.0085928913	0	930.2273585331495
0.17378008	1.4454398e-10	0.49	0.31049589	8.5361606	-0.012044883	0.0041573594	0.0043102068	-0.010263349	-0.0086845181	0	930.232758559097
0.17378008	1.5848932e-10	0.49	0.28860483	7.9330535	-0.012044343	0.0041565369	0.0043214458	-0.010234003	-0.0087667221	0	930.2384402141206
0.17378008	1.7378008e-10	0.49	0.26890081	7.3871842	-0.012043802	0.0041556995	0.0043332739	-0.010206695	-0.0088403765	0	930.244394022704
0.17378008	1.9054607e-10	0.49	0.25118121	6.8930676	-0.012043258	0.0041548459	0.0043456673	-0.010181219	-0.0089062915	0	930.2506109067667
0.17378008	2.0892961e-10	0.49	0.23525919	6.4456463	-0.012042712	0.0041539761	0.0043585983	-0.010157391	-0.0089652173	0	930.2570771740229
0.17378008	2.2908677e-10	0.49	0.22096277	6.0402681	-0.012042164	0.0041530891	0.0043720351	-0.010135042	-0.0090178466	0	930.263778184165
0.17378008	2.5118864e-10	0.49	0.20813418	5.6726684	-0.012041613	0.0041521848	0.0043859444	-0.010114022	-0.0090648168	0	930.270699545871
0.17378008	2.7542287e-10	0.49	0.19662913	5.3389522	-0.012041059	0.0041512622	0.0044002912	-0.010094193	-0.0091067115	0	930.277825145595
0.17378008	3.0199517e-10	0.49	0.18631625	5.0355775	-0.012040503	0.0041503213	0.0044150418	-0.010075433	-0.0091440627	0	930.2851385287289
0.17378008	3.3113112e-10	0.49	0.17707637	4.759337	-0.012039944	0.004149361	0.0044301633	-0.01005763	-0.0091773526	0	930.2926254881052
0.17378008	3.6307805e-10	0.49	0.16880187	4.507339	-0.012039381	0.0041483809	0.0044456256	-0.010040684	-0.0092070163	0	930.3002731056397
0.17378008	3.9810717e-10	0.49	0.16139593	4.2769865	-0.012038816	0.0041473803	0.0044614012	-0.010024507	-0.0092334443	0	930.3080668415589
0.17378008	4.3651583e-10	0.49	0.15477177	4.0659559	-0.012038248	0.0041463586	0.0044774667	-0.010009016	-0.0092569855	0	930.3159968623715
0.17378008	4.7863009e-10	0.49	0.14885188	3.8721744	-0.012037677	0.0041453152	0.0044938019	-0.0099941401	-0.0092779507	0	930.3240538682601
0.17378008	5.2480746e-10	0.49	0.14356722	3.6937977	-0.012037102	0.0041442492	0.0045103903	-0.0099798125	-0.0092966152	0	930.3322312024037
0.17378008	5.7543994e-10	0.49	0.13885646	3.5291889	-0.012036524	0.0041431599	0.0045272193	-0.0099659743	-0.0093132227	0	930.3405221243609
0.17378008	6.3095734e-10	0.49	0.13466527	3.376897	-0.012035942	0.004142047	0.0045442803	-0.0099525719	-0.009327988	0	930.3489236143683
0.17378008	6.9183097e-10	0.49	0.1309456	3.2356375	-0.012035357	0.0041409094	0.0045615676	-0.009939557	-0.0093411001	0	930.3574321086548
0.17378008	7.5857758e-10	0.49	0.12765505	3.1042741	-0.012034768	0.0041397463	0.0045790786	-0.0099268853	-0.0093527252	0	930.3660473497795
0.17378008	8.3176377e-10	0.49	0.12475628	2.9818026	-0.012034175	0.0041385571	0.0045968143	-0.0099145168	-0.0093630087	0	930.3747697981293
0.17378008	9.1201084e-10	0.49	0.12221649	2.8673349	-0.012033578	0.0041373408	0.0046147781	-0.0099024145	-0.0093720781	0	930.38360101902
0.17378008	1.e-9	0.49	0.12000688	2.7600865	-0.012032977	0.0041360968	0.0046329762	-0.0098905448	-0.0093800448	0	930.3925438668514
0.17378008	1.0964782e-9	0.49	0.11810227	2.6593635	-0.012032372	0.0041348239	0.0046514168	-0.0098788765	-0.0093870061	0	930.4016021167968
0.17378008	1.2022644e-9	0.49	0.11648069	2.5645526	-0.012031762	0.0041335215	0.0046701112	-0.009867381	-0.0093930465	0	930.4107819107951
0.17378008	1.3182567e-9	0.49	0.11512302	2.4751112	-0.012031149	0.0041321888	0.004689072	-0.0098560312	-0.0093982398	0	930.4200871705918
0.17378008	1.4454398e-9	0.49	0.11401269	2.3905589	-0.01203053	0.0041308247	0.0047083142	-0.0098448024	-0.0094026495	0	930.4295276206886
0.17378008	1.5848932e-9	0.49	0.11313541	2.3104707	-0.012029907	0.004129428	0.004727854	-0.0098336708	-0.0094063309	0	930.4391088402243
0.17378008	1.7378008e-9	0.49	0.11247889	2.2344699	-0.012029279	0.0041279982	0.0047477105	-0.0098226144	-0.0094093314	0	930.4488405621566
0.17378008	1.9054607e-9	0.49	0.11203267	2.1622227	-0.012028646	0.0041265339	0.0047679034	-0.0098116119	-0.0094116916	0	930.4587318561096
0.17378008	2.0892961e-9	0.49	0.11178787	2.093433	-0.012028007	0.0041250341	0.0047884542	-0.0098006432	-0.0094134461	0	930.4687935599698
0.17378008	2.2908677e-9	0.49	0.11173704	2.027838	-0.012027364	0.0041234981	0.0048093863	-0.0097896889	-0.0094146242	0	930.4790345676624
0.17378008	2.5118864e-9	0.49	0.11187396	1.9652043	-0.012026715	0.0041219247	0.0048307241	-0.0097787304	-0.0094152502	0	930.489467991762
0.17378008	2.7542287e-9	0.49	0.11219356	1.9053241	-0.012026061	0.0041203124	0.0048524929	-0.0097677495	-0.0094153446	0	930.5001045404945
0.17378008	3.0199517e-9	0.49	0.11269172	1.8480124	-0.012025401	0.0041186605	0.0048747199	-0.0097567284	-0.0094149238	0	930.5109576759523
0.17378008	3.3113112e-9	0.49	0.11336519	1.7931043	-0.012024735	0.0041169673	0.0048974328	-0.00974565	-0.0094140011	0	930.5220401508561
0.17378008	3.6307805e-9	0.49	0.11421145	1.7404522	-0.012024063	0.0041152324	0.0049206613	-0.0097344969	-0.0094125865	0	930.5333656387002
0.17378008	3.9810717e-9	0.49	0.11522864	1.6899237	-0.012023385	0.0041134538	0.0049444347	-0.0097232526	-0.0094106878	0	930.5449476288245
0.17378008	4.3651583e-9	0.49	0.11641545	1.6414001	-0.012022701	0.0041116305	0.0049687843	-0.0097119002	-0.0094083102	0	930.5568005313426
0.17378008	4.7863009e-9	0.49	0.11777105	1.5947739	-0.01202201	0.0041097613	0.0049937418	-0.0097004232	-0.0094054571	0	930.5689398800885
0.17378008	5.2480746e-9	0.49	0.119295	1.549948	-0.012021313	0.0041078445	0.0050193394	-0.0096888051	-0.0094021299	0	930.581379559959
0.17378008	5.7543994e-9	0.49	0.12098723	1.5068338	-0.012020609	0.0041058794	0.0050456108	-0.0096770293	-0.0093983284	0	930.5941360255621
0.17378008	6.3095734e-9	0.49	0.12284794	1.4653503	-0.012019898	0.0041038639	0.0050725893	-0.0096650794	-0.0093940512	0	930.6072246077854
0.17378008	6.9183097e-9	0.49	0.12487758	1.4254231	-0.01201918	0.0041017967	0.0051003092	-0.0096529388	-0.0093892954	0	930.6206610979041
0.17378008	7.5857758e-9	0.49	0.1270768	1.3869831	-0.012018455	0.0040996767	0.0051288062	-0.0096405909	-0.0093840573	0	930.6344619317344
0.17378008	8.3176377e-9	0.49	0.12944641	1.3499664	-0.012017723	0.004097502	0.005158115	-0.0096280191	-0.0093783321	0	930.6486430847065
0.17378008	9.1201084e-9	0.49	0.1319874	1.3143127	-0.012016983	0.0040952712	0.0051882721	-0.0096152066	-0.009372114	0	930.6632223005115
0.17378008	1.e-8	0.49	0.13470087	1.2799657	-0.012016235	0.0040929825	0.0052193135	-0.0096021366	-0.0093653968	0	930.6782161530823
0.17378008	1.0964782e-8	0.49	0.13758805	1.2468719	-0.01201548	0.0040906345	0.0052512766	-0.0095887921	-0.0093581733	0	930.6936409213286
0.17378008	1.2022644e-8	0.49	0.14065027	1.2149807	-0.012014716	0.0040882256	0.0052841988	-0.009575156	-0.0093504357	0	930.7095157028551
0.17378008	1.3182567e-8	0.49	0.14388899	1.1842434	-0.012013945	0.0040857538	0.0053181178	-0.0095612111	-0.0093421759	0	930.7258559751224
0.17378008	1.4454398e-8	0.49	0.14730576	1.154614	-0.012013165	0.0040832176	0.0053530726	-0.00954694	-0.009333385	0	930.7426815723544
0.17378008	1.5848932e-8	0.49	0.15090227	1.1260479	-0.012012376	0.0040806149	0.0053891018	-0.0095323252	-0.0093240537	0	930.7600102654906
0.17378008	1.7378008e-8	0.49	0.15468032	1.0985024	-0.01201158	0.0040779441	0.0054262456	-0.0095173489	-0.0093141721	0	930.7778586829584
0.17378008	1.9054607e-8	0.49	0.15864185	1.0719363	-0.012010774	0.0040752031	0.005464544	-0.0095019933	-0.0093037302	0	930.7962480589348
0.17378008	2.0892961e-8	0.49	0.16278894	1.0463101	-0.012009959	0.0040723905	0.0055040389	-0.0094862403	-0.0092927169	0	930.8151967440704
0.17378008	2.2908677e-8	0.49	0.16712383	1.0215854	-0.012009136	0.0040695038	0.0055447714	-0.0094700715	-0.0092811212	0	930.8347227207067
0.17378008	2.5118864e-8	0.49	0.17164893	0.99772549	-0.012008303	0.0040665414	0.0055867849	-0.0094534685	-0.0092689312	0	930.854847848771
0.17378008	2.7542287e-8	0.49	0.17636682	0.97469469	-0.012007461	0.0040635006	0.0056301225	-0.0094364125	-0.009256135	0	930.8755910313787
0.17378008	3.0199517e-8	0.49	0.1812803	0.9524588	-0.01200661	0.00406038	0.0056748293	-0.0094188845	-0.0092427196	0	930.8969730319844
0.17378008	3.3113112e-8	0.49	0.18639234	0.93098483	-0.01200575	0.0040571772	0.0057209509	-0.009400865	-0.009228672	0	930.9190148442361
0.17378008	3.6307805e-8	0.49	0.19170613	0.91024106	-0.012004879	0.00405389	0.0057685339	-0.0093823346	-0.0092139783	0	930.9417398013001
0.17378008	3.9810717e-8	0.49	0.19722511	0.890197	-0.012003999	0.0040505158	0.005817626	-0.0093632734	-0.0091986243	0	930.9651679845063
0.17378008	4.3651583e-8	0.49	0.20295294	0.87082336	-0.012003109	0.004047053	0.0058682771	-0.0093436608	-0.0091825951	0	930.9893233067326
0.17378008	4.7863009e-8	0.49	0.20889351	0.85209207	-0.01200221	0.004043499	0.0059205372	-0.0093234764	-0.0091658752	0	931.0142278477645
0.17378008	5.2480746e-8	0.49	0.21505098	0.8339762	-0.0120013	0.0040398512	0.0059744581	-0.009302699	-0.0091484485	0	931.0399073347805
0.17378008	5.7543994e-8	0.49	0.22142976	0.81645	-0.01200038	0.0040361074	0.0060300933	-0.0092813073	-0.0091302983	0	931.066385458921
0.17378008	6.3095734e-8	0.49	0.22803453	0.79948883	-0.011999451	0.0040322651	0.0060874975	-0.0092592792	-0.0091114073	0	931.0936864637908
0.17378008	6.9183097e-8	0.49	0.23487024	0.78306912	-0.011998511	0.0040283218	0.0061467271	-0.0092365923	-0.0090917575	0	931.1218381943485
0.17378008	7.5857758e-8	0.49	0.24194211	0.7671684	-0.011997561	0.004024275	0.0062078403	-0.0092132239	-0.00907133	0	931.1508665055533
0.17378008	8.3176377e-8	0.49	0.24925566	0.75176519	-0.011996602	0.0040201221	0.0062708967	-0.0091891504	-0.0090501054	0	931.1807978969066
0.17378008	9.1201084e-8	0.49	0.25681668	0.73683901	-0.011995632	0.0040158604	0.006335958	-0.0091643479	-0.0090280637	0	931.211662653418
0.17378008	1.e-7	0.49	0.26463125	0.72237034	-0.011994652	0.0040114873	0.0064030877	-0.0091387918	-0.0090051837	0	931.243489070098
0.17378008	1.0964782e-7	0.49	0.27270577	0.70834054	-0.011993662	0.0040069996	0.0064723504	-0.009112457	-0.0089814438	0	931.2763068879487
0.17378008	1.2022644e-7	0.49	0.28104691	0.69473189	-0.011992662	0.0040023951	0.0065438143	-0.0090853177	-0.0089568215	0	931.3101475053643
0.17378008	1.3182567e-7	0.49	0.28966167	0.68152747	-0.011991653	0.003997671	0.0066175489	-0.0090573473	-0.0089312934	0	931.345041979678
0.17378008	1.4454398e-7	0.49	0.29855734	0.66871115	-0.011990634	0.0039928238	0.0066936248	-0.0090285188	-0.0089048353	0	931.3810237537787
0.17378008	1.5848932e-7	0.49	0.30774155	0.65626759	-0.011989605	0.0039878512	0.0067721169	-0.0089988041	-0.0088774222	0	931.418127310654
0.17378008	1.7378008e-7	0.49	0.31722222	0.64418214	-0.011988567	0.0039827498	0.0068531006	-0.0089681747	-0.0088490281	0	931.4563864239205
0.17378008	1.9054607e-7	0.49	0.32700763	0.63244083	-0.011987521	0.0039775169	0.0069366549	-0.0089366011	-0.0088196261	0	931.4958365245869
0.17378008	2.0892961e-7	0.49	0.33710635	0.62103037	-0.011986465	0.0039721494	0.0070228605	-0.0089040529	-0.0087891884	0	931.5365166450173
0.17378008	2.2908677e-7	0.49	0.34752733	0.60993803	-0.011985401	0.0039666442	0.0071118011	-0.008870499	-0.0087576861	0	931.578463440474
0.17378008	2.5118864e-7	0.49	0.35827982	0.59915172	-0.011984328	0.0039609981	0.0072035627	-0.0088359074	-0.0087250896	0	931.6217174438066
0.17378008	2.7542287e-7	0.49	0.36937345	0.58865985	-0.011983248	0.0039552075	0.0072982339	-0.0088002452	-0.0086913679	0	931.6663175661746
0.17378008	3.0199517e-7	0.49	0.38081818	0.57845137	-0.01198216	0.0039492698	0.0073959069	-0.0087634784	-0.0086564892	0	931.7123071948263
0.17378008	3.3113112e-7	0.49	0.39262437	0.56851573	-0.011981065	0.0039431815	0.0074966763	-0.008725572	-0.0086204205	0	931.7597289428089
0.17378008	3.6307805e-7	0.49	0.40480273	0.55884285	-0.011979963	0.0039369392	0.0076006393	-0.0086864901	-0.0085831277	0	931.8086275597408
0.17378008	3.9810717e-7	0.49	0.41736433	0.54942306	-0.011978855	0.0039305397	0.0077078968	-0.0086461957	-0.0085445756	0	931.8590485591071
0.17378008	4.3651583e-7	0.49	0.43032066	0.54024714	-0.011977742	0.0039239795	0.0078185528	-0.0086046507	-0.0085047277	0	931.9110388815927
0.17378008	4.7863009e-7	0.49	0.4436836	0.53130626	-0.011976624	0.0039172551	0.0079327142	-0.0085618158	-0.0084635464	0	931.9646477425703
0.17378008	5.2480746e-7	0.49	0.45746543	0.52259195	-0.011975501	0.0039103627	0.0080504916	-0.0085176505	-0.008420993	0	932.0199260608443
0.17378008	5.7543994e-7	0.49	0.47167884	0.51409613	-0.011974375	0.0039032993	0.0081719993	-0.0084721131	-0.008377027	0	932.0769245795208
0.17378008	6.3095734e-7	0.49	0.48633697	0.50581104	-0.011973246	0.003896061	0.0082973548	-0.0084251607	-0.008331607	0	932.1356973940747
0.17378008	6.9183097e-7	0.49	0.50145337	0.49772923	-0.011972114	0.0038886436	0.0084266791	-0.0083767492	-0.0082846902	0	932.1963002113353
0.17378008	7.5857758e-7	0.49	0.51704208	0.48984359	-0.011970982	0.003881044	0.008560098	-0.0083268327	-0.0082362323	0	932.2587881292943
0.17378008	8.3176377e-7	0.49	0.53311755	0.48214728	-0.011969848	0.003873258	0.0086977403	-0.0082753644	-0.0081861874	0	932.3232223249307
0.17378008	9.1201084e-7	0.49	0.54969476	0.47463376	-0.011968716	0.003865282	0.0088397396	-0.0082222958	-0.0081345085	0	932.3896605476889
0.17378008	1.e-6	0.49	0.56678913	0.46729673	-0.011967585	0.0038571113	0.0089862325	-0.0081675769	-0.0080811467	0	932.4581666260018
0.17378008	1.0964782e-6	0.49	0.58441662	0.46013019	-0.011966456	0.0038487428	0.009137362	-0.0081111563	-0.0080260516	0	932.5288054556477
0.17378008	1.2022644e-6	0.49	0.60259369	0.45312835	-0.011965331	0.0038401717	0.0092932735	-0.0080529809	-0.0079691713	0	932.601642097769
0.17378008	1.3182567e-6	0.49	0.62133732	0.44628567	-0.011964211	0.0038313938	0.009454118	-0.0079929961	-0.007910452	0	932.6767451312406
0.17378008	1.4454398e-6	0.49	0.64066504	0.43959684	-0.011963096	0.0038224045	0.0096200507	-0.0079311454	-0.0078498384	0	932.7541860081285
0.17378008	1.5848932e-6	0.49	0.66059497	0.43305676	-0.011961989	0.0038131994	0.0097912323	-0.0078673706	-0.0077872733	0	932.8340358939304
0.17378008	1.7378008e-6	0.49	0.68114577	0.42666056	-0.011960889	0.0038037738	0.0099678281	-0.0078016119	-0.0077226977	0	932.9163718301868
0.17378008	1.9054607e-6	0.49	0.70233673	0.42040355	-0.011959799	0.0037941229	0.010150009	-0.0077338074	-0.0076560505	0	933.0012696783435
0.17378008	2.0892961e-6	0.49	0.72418773	0.41428126	-0.01195872	0.0037842419	0.01033795	-0.0076638934	-0.0075872688	0	933.0888090665638
0.17378008	2.2908677e-6	0.49	0.74671928	0.40828938	-0.011957653	0.003774125	0.010531833	-0.0075918043	-0.0075162879	0	933.1790727996818
0.17378008	2.5118864e-6	0.49	0.76995255	0.40242381	-0.011956599	0.0037637667	0.010731844	-0.0075174723	-0.0074430408	0	933.272145570118
0.17378008	2.7542287e-6	0.49	0.79390941	0.39668062	-0.011955559	0.0037531624	0.010938178	-0.0074408273	-0.0073674581	0	933.3681162137761
0.17378008	3.0199517e-6	0.49	0.81861235	0.39105605	-0.011954536	0.003742305	0.011151031	-0.0073617977	-0.0072894687	0	933.4670721478166
0.17378008	3.3113112e-6	0.49	0.84408463	0.38554649	-0.011953529	0.0037311889	0.011370609	-0.0072803089	-0.007208999	0	933.5691091515309
0.17378008	3.6307805e-6	0.49	0.87035023	0.38014851	-0.011952541	0.0037198073	0.011597122	-0.0071962845	-0.007125973	0	933.6743210874978
0.17378008	3.9810717e-6	0.49	0.89743388	0.37485883	-0.011951573	0.0037081539	0.011830789	-0.0071096454	-0.0070403122	0	933.7828078409093
0.17378008	4.3651583e-6	0.49	0.92536109	0.36967431	-0.011950626	0.0036962208	0.012071832	-0.0070203102	-0.006951936	0	933.8946706781192
0.17378008	4.7863009e-6	0.49	0.95415818	0.36459195	-0.011949701	0.0036840013	0.012320484	-0.006928195	-0.0068607608	0	934.0100159297378
0.17378008	5.2480746e-6	0.49	0.98385229	0.35960889	-0.011948799	0.0036714868	0.012576982	-0.0068332131	-0.0067667006	0	934.1289517679244
0.17378008	5.7543994e-6	0.49	1.0144714	0.35472241	-0.011947921	0.0036586696	0.012841572	-0.0067352752	-0.0066696665	0	934.2515905083205
0.17378008	6.3095734e-6	0.49	1.0460444	0.34992989	-0.011947069	0.0036455403	0.013114506	-0.0066342893	-0.006569567	0	934.3780462893246
0.17378008	6.9183097e-6	0.49	1.0786011	0.34522884	-0.011946243	0.00363209	0.013396044	-0.0065301604	-0.0064663076	0	934.5084388115629
0.17378008	7.5857758e-6	0.49	1.1121722	0.34061687	-0.011945444	0.0036183081	0.013686455	-0.0064227908	-0.006359791	0	934.6428909795784
0.17378008	8.3176377e-6	0.49	1.1467894	0.33609173	-0.011944674	0.003604186	0.013986016	-0.0063120789	-0.0062499161	0	934.7815284414455
0.17378008	9.1201084e-6	0.49	1.1824853	0.3316512	-0.011943931	0.0035897114	0.01429501	-0.0061979212	-0.0061365797	0	934.9244833658217
0.17378008	0.00001	0.49	1.2192937	0.32729321	-0.011943218	0.0035748728	0.014613732	-0.0060802101	-0.0060196746	0	935.0718887481829
0.17378008	0.000010964782	0.49	1.2572492	0.32301574	-0.011942534	0.0035596588	0.014942484	-0.0059588348	-0.0058990904	0	935.2238845649745
0.17378008	0.000012022644	0.49	1.2963879	0.31881685	-0.01194188	0.0035440569	0.015281577	-0.005833681	-0.0057747132	0	935.3806130569949
0.17378008	0.000013182567	0.49	1.3367465	0.31469466	-0.011941256	0.0035280527	0.015631333	-0.0057046312	-0.0056464259	0	935.5422224688651
0.17378008	0.000014454398	0.49	1.3783633	0.31064739	-0.011940662	0.0035116336	0.015992083	-0.0055715636	-0.0055141069	0	935.7088651886891
0.17378008	0.000015848932	0.49	1.4212776	0.30667325	-0.011940098	0.003494784	0.016364166	-0.0054343532	-0.0053776315	0	935.8806972876673
0.17378008	0.000017378008	0.49	1.4655299	0.30277055	-0.011939563	0.0034774886	0.016747935	-0.0052928708	-0.005236871	0	936.0578822219834
0.17378008	0.000019054607	0.49	1.5111621	0.29893761	-0.011939058	0.0034597322	0.017143752	-0.0051469831	-0.0050916922	0	936.2405857121744
0.17378008	0.000020892961	0.49	1.5582173	0.29517279	-0.011938582	0.003441497	0.017551989	-0.0049965529	-0.0049419583	0	936.428979961777
0.17378008	0.000022908677	0.49	1.60674	0.2914745	-0.011938135	0.003422766	0.017973031	-0.0048414383	-0.0047875278	0	936.6232422197949
0.17378008	0.000025118864	0.49	1.656776	0.28784113	-0.011937715	0.0034035208	0.018407274	-0.0046814935	-0.004628255	0	936.8235566786191
0.17378008	0.000027542287	0.49	1.7083727	0.28427115	-0.011937322	0.0033837432	0.018855129	-0.0045165676	-0.0044639893	0	937.0301125573155
0.17378008	0.000030199517	0.49	1.7615789	0.28076297	-0.011936955	0.003363413	0.019317014	-0.0043465053	-0.0042945759	0	937.2431032372244
0.17378008	0.000033113112	0.49	1.816445	0.27731508	-0.011936613	0.0033425101	0.019793365	-0.0041711463	-0.0041198547	0	937.4627303866528
0.17378008	0.000036307805	0.49	1.8730228	0.27392594	-0.011936295	0.0033210132	0.020284629	-0.0039903256	-0.0039396608	0	937.6892007381643
0.17378008	0.000039810717	0.49	1.931366	0.27059403	-0.011935999	0.0032989013	0.020791269	-0.0038038725	-0.0037538239	0	937.9227293300806
0.17378008	0.000043651583	0.49	1.9915296	0.26731783	-0.011935725	0.0032761512	0.02131376	-0.0036116115	-0.0035621689	0	938.1635348462371
0.17378008	0.000047863009	0.49	2.0535707	0.26409582	-0.011935471	0.0032527402	0.021852592	-0.0034133612	-0.0033645145	0	938.4118447554047
0.17378008	0.000052480746	0.49	2.1175481	0.26092649	-0.011935235	0.0032286444	0.022408272	-0.0032089347	-0.0031606743	0	938.6678943529346
0.17378008	0.000057543994	0.49	2.1835224	0.25780835	-0.011935017	0.0032038398	0.022981323	-0.0029981393	-0.0029504556	0	938.9319244212384
0.17378008	0.000063095734	0.49	2.2515561	0.25473989	-0.011934814	0.0031783009	0.023572283	-0.0027807761	-0.00273366	0	939.2041854672302
0.17378008	0.000069183097	0.49	2.3217137	0.25171961	-0.011934626	0.003152002	0.024181706	-0.0025566403	-0.0025100828	0	939.4849325453195
0.17378008	0.000075857758	0.49	2.3940616	0.24874604	-0.01193445	0.0031249169	0.024810167	-0.0023255202	-0.0022795126	0	939.77443319674
0.17378008	0.000083176377	0.49	2.4686686	0.2458177	-0.011934285	0.0030970182	0.025458255	-0.0020871979	-0.002041732	0	940.0729595290127
0.17378008	0.000091201084	0.49	2.5456054	0.24293313	-0.011934129	0.0030682783	0.026126581	-0.0018414486	-0.0017965162	0	940.3807947177381
0.17378008	0.0001	0.49	2.6249451	0.24009091	-0.011933982	0.0030386699	0.026815773	-0.0015880399	-0.0015436332	0	940.6982278859664
0.17378008	0.00010964782	0.49	2.706763	0.2372896	-0.011933841	0.0030081632	0.027526481	-0.0013267329	-0.0012828443	0	941.0255611039569
0.17378008	0.00012022644	0.49	2.7911369	0.2345278	-0.011933705	0.0029767286	0.028259372	-0.0010572809	-0.0010139031	0	941.3631023894186
0.17378008	0.00013182567	0.49	2.8781469	0.23180414	-0.011933572	0.0029443361	0.029015138	-0.00077942948	-0.00073655546	0	941.7111722093013
0.17378008	0.00014454398	0.49	2.9678758	0.22911728	-0.011933441	0.0029109549	0.02979449	-0.00049291615	-0.00045053908	0	942.0700988383421
0.17378008	0.00015848932	0.49	3.0604091	0.22646593	-0.01193331	0.0028765542	0.030598164	-0.00019746998	-0.0001555833	0	942.44022300052
0.17378008	0.00017378008	0.49	3.1558349	0.2238488	-0.011933177	0.0028411016	0.031426917	0.00010718809	0.00014859071	0	942.8218950879407
0.17378008	0.00019054607	0.49	3.254244	0.22126468	-0.011933042	0.0028045646	0.032281532	0.00042134591	0.00046227057	0	943.2154755836423
0.17378008	0.00020892961	0.49	3.3557303	0.21871236	-0.011932901	0.0027669094	0.033162815	0.00074530049	0.00078575308	0	943.6213393178252
0.17378008	0.00022908677	0.49	3.4603906	0.21619073	-0.011932755	0.0027281029	0.034071598	0.0010793583	0.0011193445	0	944.0398683929261
0.17378008	0.00025118864	0.49	3.568325	0.21369871	-0.011932601	0.0026881105	0.035008741	0.0014238354	0.0014633607	0	944.4714615604795
0.17378008	0.00027542287	0.49	3.6796366	0.2112353	-0.011932438	0.0026468975	0.03597513	0.0017790578	0.0018181275	0	944.9165276629519
0.17378008	0.00030199517	0.49	3.7944318	0.20879954	-0.011932264	0.002604428	0.036971679	0.0021453618	0.0021839809	0	945.3754893732116
0.17378008	0.00033113112	0.49	3.9128206	0.20639058	-0.011932078	0.0025606659	0.037999331	0.0025230941	0.0025612677	0	945.8487817757853
0.17378008	0.00036307805	0.49	4.0349163	0.20400767	-0.011931877	0.0025155743	0.039059059	0.0029126123	0.0029503452	0	946.3368556459408
0.17378008	0.00039810717	0.49	4.1608363	0.20165017	-0.011931661	0.0024691167	0.040151869	0.003314286	0.0033515828	0	946.8401741330218
0.17378008	0.00043651583	0.49	4.2907012	0.1993176	-0.011931427	0.0024212552	0.041278795	0.0037284955	0.0037653608	0	947.3592160959045
0.17378008	0.00047863009	0.49	4.4246361	0.19700966	-0.011931174	0.0023719526	0.042440909	0.0041556338	0.0041920723	0	947.8944760090417
0.17378008	0.00052480746	0.49	4.5627698	0.19472633	-0.011930902	0.0023211714	0.043639314	0.0045961062	0.0046321224	0	948.4464616793175
0.17378008	0.00057543994	0.49	4.7052352	0.19246806	-0.011930609	0.0022688755	0.044875153	0.0050503306	0.0050859291	0	949.0157012082286
0.17378008	0.00063095734	0.49	4.8521664	0.19023891	-0.011930319	0.0022150671	0.046149641	0.0055187386	0.0055539248	0	949.6027314164376
0.17378008	0.00069183097	0.49	5.003584	0.18809709	-0.011930817	0.0021610472	0.047465332	0.0060017716	0.0060365617	0	950.2079905735977
0.17378008	0.00075857758	0.49	5.1567141	0.1859559	-0.011950542	0.002137862	0.048854563	0.0064997902	0.0065341842	0	950.8290415693343
0.17378008	0.00083176377	0.49	5.30479	0.17924107	-0.012037058	0.002226104	0.050399258	0.0070125744	0.0070457264	0	951.4589116636897
0.17378008	0.00091201084	0.49	5.4533732	0.16656734	-0.012172643	0.0023997214	0.052074738	0.0075398337	0.0075706416	0	952.1028899424928
0.17378008	0.001	0.49	5.6154488	0.15674391	-0.012363826	0.002700134	0.053923839	0.0080822096	0.0081112006	0	952.7745631220265
0.17378008	0.0010964782	0.49	5.7898862	0.15361488	-0.0125828	0.0030696789	0.055890357	0.0086411717	0.008669584	0	953.4741821038216
0.17378008	0.0012022644	0.49	5.9655765	0.15174489	-0.012807727	0.0034395813	0.057907023	0.0092174203	0.0092454867	0	954.1912953414426
0.17378008	0.0013182567	0.49	6.116216	0.1348871	-0.013017402	0.0037054935	0.059871042	0.0098097858	0.0098347342	0	954.8985008342607
0.17378008	0.0014454398	0.49	6.2873803	0.11682212	-0.013245666	0.004032115	0.061948713	0.010417407	0.010439014	0	955.6405646525552
0.17378008	0.0015848932	0.49	6.4809246	0.1125131	-0.01346694	0.0043754888	0.064097731	0.011043158	0.011063969	0	956.422043265469
0.17378008	0.0017378008	0.49	6.6837506	0.11070964	-0.013427647	0.0041906247	0.065774808	0.011688347	0.011708823	0	957.2310660916229
0.17378008	0.0019054607	0.49	6.8934739	0.10931529	-0.01337166	0.0039699064	0.067474081	0.012353764	0.012373983	0	958.0659927720587
0.17378008	0.0020892961	0.49	7.1098792	0.10794979	-0.013313757	0.0037425542	0.069226582	0.013040068	0.013060034	0	958.9272251400855
0.17378008	0.0022908677	0.49	7.3331778	0.10660392	-0.013254155	0.0035089564	0.071034564	0.01374792	0.013767637	0	959.8155965619817
0.17378008	0.0025118864	0.49	7.5635977	0.10528291	-0.013192813	0.003269005	0.072899845	0.014478009	0.014497482	0	960.731982543532
0.17378008	0.0027542287	0.49	7.8013736	0.103997	-0.013129677	0.0030225647	0.074824273	0.015231044	0.015250279	0	961.677284616481
0.17378008	0.0030199517	0.49	8.046746	0.10276486	-0.013064685	0.0027694772	0.076809737	0.016007758	0.016026765	0	962.6524307049636
0.17378008	0.0033113112	0.49	8.2999578	0.10161952	-0.012997751	0.0025095305	0.078858135	0.016808908	0.016827703	0	963.6583754261669
0.17378008	0.0036307805	0.49	8.5612463	0.10061673	-0.012928734	0.0022423667	0.080971284	0.017635273	0.017653883	0	964.6960877820236
0.17378008	0.0039810717	0.49	8.8308272	0.099842293	-0.012857393	0.0019673583	0.083150801	0.018487657	0.018506123	0	965.7665386535966
0.17378008	0.0043651583	0.49	9.1088645	0.099402232	-0.012783303	0.0016833571	0.085397852	0.01936688	0.019385265	0	966.8706641674268
0.17378008	0.0047863009	0.49	9.3954295	0.099349537	-0.01270579	0.0013884576	0.087712916	0.020273777	0.020292152	0	968.0093181159432
0.17378008	0.0052480746	0.49	9.6905105	0.099487037	-0.012624655	0.0010814709	0.090097265	0.021209183	0.021227584	0	969.1832730849419
0.17378008	0.0057543994	0.49	9.9942289	0.099163909	-0.012544547	0.00077132465	0.092562365	0.022173935	0.022192276	0	970.3934398326994
0.17378008	0.0063095734	0.49	10.30728	0.09757454	-0.012479849	0.00048804965	0.09514086	0.023168909	0.023186956	0	971.6413334647164
0.17378008	0.0069183097	0.49	10.630927	0.094705023	-0.012438794	0.00025048527	0.09785429	0.024195079	0.024212595	0	972.9291352759093
0.17378008	0.0075857758	0.49	10.966148	0.091503589	-0.012415117	0.000047415912	0.10069422	0.025253538	0.025270462	0	974.2588482786698
0.17378008	0.0083176377	0.49	11.313253	0.088747705	-0.012400628	-0.00013771339	0.10364696	0.02634544	0.026361854	0	975.6318648148897
0.17378008	0.0091201084	0.49	11.658299	0.088743385	-0.012678323	0.00024100642	0.10726138	0.027471572	0.027487986	0	977.0349842732714
0.17378008	0.01	0.49	11.977342	0.0838788	-0.013036247	0.00069131527	0.11104828	0.028629661	0.028645175	0	978.4421308966564
0.17378008	0.010964782	0.49	12.354255	0.080092781	-0.013382852	0.0012101126	0.11500768	0.029822008	0.029836821	0	979.9393292214468
0.17378008	0.012022644	0.49	12.749338	0.078857292	-0.013734042	0.0017479456	0.11909339	0.031052321	0.031066907	0	981.4903711237931
0.17378008	0.013182567	0.49	13.157843	0.077747743	-0.014090279	0.0022950011	0.12329894	0.032322022	0.032336402	0	983.0918438204744
0.17378008	0.014454398	0.49	13.580155	0.076641645	-0.014451175	0.0028505848	0.12762708	0.033632438	0.033646614	0	984.7453779271559
0.17378008	0.015848932	0.49	14.016803	0.075534118	-0.014816257	0.0034141444	0.13208081	0.034984951	0.034998922	0	986.4527990193124
0.17378008	0.017378008	0.49	14.468348	0.074423893	-0.015184975	0.003985031	0.13666316	0.036380994	0.036394759	0	988.2160188305616
0.17378008	0.019054607	0.49	14.935378	0.073309671	-0.015556699	0.0045624944	0.14137715	0.037822055	0.037835614	0	990.037019655879
0.17378008	0.020892961	0.49	15.418512	0.072189997	-0.015930706	0.0051456618	0.14622581	0.039309681	0.039323033	0	991.9178757736879
0.17378008	0.022908677	0.49	15.9184	0.071063254	-0.016306173	0.0057335333	0.15121216	0.040845483	0.040858627	0	993.8607508150759
0.17378008	0.025118864	0.49	16.43573	0.069927744	-0.016682163	0.0063249639	0.1563392	0.042431138	0.042444071	0	995.8679063138408
0.17378008	0.027542287	0.49	16.971217	0.068788672	-0.017057614	0.0069186229	0.16160988	0.04406839	0.044081113	0	997.9416982300974
0.17378008	0.030199517	0.49	17.525153	0.067953104	-0.01743098	0.0075112682	0.16702537	0.045759045	0.045771613	0	1000.0841177846924
0.17378008	0.033113112	0.49	18.061207	0.071020134	-0.017772331	0.0079602325	0.17244753	0.047504022	0.047517158	0	1002.2596883054011
0.17378008	0.036307805	0.49	18.622218	0.063021667	-0.018011077	0.0082052048	0.17782076	0.049301059	0.049312716	0	1004.5091361918844
0.17378008	0.039810717	0.49	19.23821	0.061080379	-0.018232842	0.0084943323	0.18339802	0.051156539	0.051167837	0	1006.8684716015727
0.17378008	0.043651583	0.49	19.877934	0.059869809	-0.018447803	0.0087818835	0.18913858	0.053073581	0.053084654	0	1009.3093810145134
0.17378008	0.047863009	0.49	20.541521	0.058697414	-0.018654875	0.0090655096	0.19504523	0.055054495	0.055065351	0	1011.8341683389012
0.17378008	0.052480746	0.49	21.230041	0.057494004	-0.018852433	0.0093437957	0.20112184	0.05710167	0.057112304	0	1014.446142066203
0.17378008	0.057543994	0.49	21.94468	0.056244881	-0.019038645	0.0096152158	0.20737237	0.059217611	0.059228014	0	1017.1488466127452
0.17378008	0.063095734	0.49	22.686703	0.054938205	-0.019211469	0.0098780697	0.21380074	0.061404936	0.061415097	0	1019.9460052880968
0.17378008	0.069183097	0.49	21.156623	0.04706962	-0.019990166	0.006189293	0.2164697	0.063562531	0.063571237	0	1020.4431231136502
0.17378008	0.075857758	0.49	19.761173	0.039893385	-0.020700346	0.0020674595	0.21890383	0.065530281	0.065537659	0	1020.8965044540312
0.17378008	0.083176377	0.49	18.488508	0.033348581	-0.021348038	-0.0024729479	0.22112378	0.06732489	0.067331058	0	1021.309991661738
0.17378008	0.091201084	0.49	19.2859	0.030276656	-0.021639183	-0.0034165105	0.22715134	0.069138569	0.069144169	0	1023.8114523032248
0.17378008	0.1	0.49	20.723735	0.028036318	-0.021633352	-0.003495388	0.23426093	0.07109778	0.071102965	0	1027.0900938729667
0.17378008	0.10964782	0.49	22.401601	0.025931307	-0.021328806	-0.0035755946	0.24159331	0.073209402	0.073214198	0	1030.7519673307543
0.17378008	0.12022644	0.49	24.361452	0.023956221	-0.020657981	-0.0036588361	0.24915376	0.075498934	0.075503365	0	1034.8629843133676
0.17378008	0.13182567	0.49	26.658034	0.022106327	-0.019534966	-0.0037470961	0.2569475	0.077996578	0.078000667	0	1039.5062670398431
0.17378008	0.14454398	0.49	29.364031	0.020377574	-0.017848582	-0.0038425378	0.2649798	0.080738736	0.080742505	0	1044.7887016858317
0.17378008	0.15848932	0.49	32.576246	0.01876659	-0.015453809	-0.003947387	0.27325609	0.083770061	0.083773532	0	1050.849043919918
0.17378008	0.17378008	0.49	36.422266	0.01727066	-0.012162069	-0.0040637964	0.28178212	0.087146153	0.087149347	0	1057.8671223220463
0.17378008	0.19054607	0.49	41.066411	0.015887667	-0.0077316594	-0.0041936866	0.29056412	0.090936876	0.090939815	0	1066.0729004913267
0.17378008	0.20892961	0.49	46.712824	0.014615955	-0.0018607696	-0.0043385562	0.29960899	0.095230151	0.095232854	0	1075.7531258802298
0.17378008	0.22908677	0.49	53.602561	0.013454087	0.0058131372	-0.0044992647	0.30892453	0.10013577	0.10013826	0	1087.2520165229034
0.17378008	0.25118864	0.49	62.000952	0.012400462	0.01570285	-0.0046758132	0.31851967	0.10578852	0.10579081	0	1100.9615259167103
0.17378008	0.27542287	0.49	72.172447	0.011452808	0.02824581	-0.0048671807	0.32840465	0.11234937	0.11235149	0	1117.2973730189333
0.17378008	0.30199517	0.49	84.343789	0.010607623	0.043863083	-0.0050713025	0.33859103	0.12000374	0.12000571	0	1136.6604987392911
0.17378008	0.33113112	0.49	98.662443	0.0098597134	0.062909469	-0.005285262	0.34909152	0.12895571	0.12895754	0	1159.390112383007
0.17378008	0.36307805	0.49	115.16289	0.0092020309	0.085628272	-0.0055057115	0.35991956	0.13941848	0.13942018	0	1185.7210015595658
0.17378008	0.39810717	0.49	133.75359	0.0086259026	0.11212579	-0.0057294085	0.37108883	0.15160244	0.15160403	0	1215.759338280996
0.17378008	0.43651583	0.49	154.23018	0.0081216247	0.14237363	-0.0059537015	0.38261269	0.16570329	0.16570479	0	1249.4845962389234
0.17378008	0.47863009	0.49	176.30927	0.0076792212	0.17623535	-0.0061768195	0.39450401	0.18189249	0.18189391	0	1286.7745044388284
0.17378008	0.52480746	0.49	199.67048	0.0072891423	0.21350546	-0.0063979214	0.40677504	0.20031156	0.20031291	0	1327.4416313379543
0.17378008	0.57543994	0.49	223.99438	0.006942755	0.25394809	-0.0066169619	0.4194376	0.22107038	0.22107166	0	1371.2698034317898
0.17378008	0.63095734	0.49	248.98951	0.0066325891	0.29732712	-0.0068344723	0.4325033	0.24424874	0.24424997	0	1418.042515643213
0.17378008	0.69183097	0.49	274.40737	0.0063523824	0.34342559	-0.0070513375	0.44598379	0.26989987	0.26990104	0	1467.5612833826879
0.17378008	0.75857758	0.49	300.04766	0.0060969993	0.39205574	-0.0072686172	0.4598909	0.29805499	0.29805611	0	1519.6551402385633
0.17378008	0.83176377	0.49	325.75708	0.0058622868	0.44306237	-0.0074874133	0.47423686	0.32872802	0.32872911	0	1574.1838962017919
0.17378008	0.91201084	0.49	351.42466	0.0056449134	0.49632215	-0.0077087966	0.48903433	0.36192	0.36192104	0	1631.0375031774506
0.17378008	1.	0.49	376.9756	0.005442216	0.551741	-0.0079337632	0.50429645	0.39762286	0.39762387	0	1690.1336163428737
0.17378008	1.0964782	0.49	402.36496	0.0052520663	0.60925052	-0.0081632174	0.52003694	0.43582277	0.43582374	0	1751.4142859380559
0.17378008	1.2022644	0.49	427.57186	0.0050727594	0.66880448	-0.0083979699	0.53627002	0.47650268	0.47650362	0	1814.8426225603132
0.17378008	1.3182567	0.49	452.59441	0.0049029242	0.73037548	-0.0086387436	0.55301051	0.51964448	0.51964539	0	1880.399705054714
0.17378008	1.4454398	0.49	477.44539	0.0047414517	0.79395207	-0.0088861836	0.57027376	0.56523062	0.56523149	0	1948.0818423387805
0.17378008	1.5848932	0.49	502.14882	0.0045874392	0.85953628	-0.0091408689	0.5880757	0.61324537	0.61324622	0	2017.8982756954256
0.17378008	1.7378008	0.49	526.73714	0.0044401469	0.92714161	-0.0094033228	0.60643282	0.66367581	0.66367663	0	2089.869281038859
0.17378008	1.9054607	0.49	551.24894	0.004298963	0.99679134	-0.0096740239	0.62536221	0.71651249	0.71651329	0	2164.0245994646266
0.17378008	2.0892961	0.49	575.72726	0.0041633777	1.0685172	-0.0099534145	0.64488152	0.77175001	0.77175078	0	2240.402169212213
0.17378008	2.2908677	0.49	600.21818	0.0040329625	1.1423583	-0.010241909	0.66500899	0.82938731	0.82938806	0	2319.047134141728
0.17378008	2.5118864	0.49	624.76978	0.0039073534	1.21836	-0.0105399	0.68576347	0.88942797	0.8894287	0	2400.010791232805
0.17378008	2.7542287	0.49	649.43135	0.0037862389	1.2965738	-0.010847765	0.70716445	0.95188036	0.95188106	0	2483.3505010440153
0.17378008	3.0199517	0.49	674.25275	0.0036693496	1.377056	-0.011165871	0.729232	1.0167577	1.0167584	0	2569.1284010720874
0.17378008	3.3113112	0.49	699.28397	0.00355645	1.4598678	-0.011494576	0.75198688	1.0840781	1.0840787	0	2657.4115503510075
0.17378008	3.6307805	0.49	724.57485	0.0034473331	1.5450747	-0.011834236	0.77545049	1.1538645	1.1538652	0	2748.2713426934597
0.17378008	3.9810717	0.49	750.17476	0.0033418144	1.6327464	-0.012185205	0.79964491	1.2261449	1.2261456	0	2841.7834311497754
0.17378008	4.3651583	0.49	776.13255	0.0032397287	1.7229563	-0.01254784	0.82459292	1.300952	1.3009526	0	2938.0272674329926
0.17378008	4.7863009	0.49	802.49638	0.0031409263	1.8157818	-0.012922501	0.85031803	1.3783231	1.3783237	0	3037.0863976000774
0.17378008	5.2480746	0.49	829.31372	0.003045271	1.9113035	-0.013309552	0.87684446	1.4583005	1.4583011	0	3139.0477011919
0.17378008	5.7543994	0.49	856.63132	0.0029526375	2.0096057	-0.013709367	0.90419722	1.5409309	1.5409314	0	3244.001897846875
0.17378008	6.3095734	0.49	884.49525	0.0028629102	2.1107762	-0.014122324	0.93240209	1.6262655	1.626266	0	3352.0433501801444
0.17378008	6.9183097	0.49	912.95092	0.0027759813	2.2149059	-0.014548813	0.96148565	1.7143602	1.7143607	0	3463.2697017690566
0.17378008	7.5857758	0.49	942.04315	0.0026917502	2.3220895	-0.014989234	0.99147532	1.8052752	1.8052757	0	3577.7825532643847
0.17378008	8.3176377	0.49	971.81621	0.0026101223	2.4324247	-0.015443997	1.0223994	1.8990751	1.8990756	0	3695.686729153532
0.17378008	9.1201084	0.49	1002.314	0.0025310084	2.5460128	-0.015913526	1.054287	1.9958287	1.9958291	0	3817.0908092726504
0.17378008	10.	0.49	1033.5798	0.0024543236	2.6629585	-0.016398256	1.0871682	2.0956092	2.0956096	0	3942.1070145554913