0.43651583	1.e-12	0.35	2446.2693	23890.365	-0.0092513275	-0.0030178735	-0.0030178185	-2.6139256	8.4853796	0	929.8807200461816
0.43651583	1.0964782e-12	0.35	2231.0421	21789.184	-0.0092102261	-0.0030779287	-0.0030778683	-2.3848346	7.7382761	0	929.8995902484842
0.43651583	1.2022644e-12	0.35	2034.7527	19872.882	-0.0091689262	-0.0031384753	-0.0031384091	-2.1758993	7.0569102	0	929.9184854902031
0.43651583	1.3182567e-12	0.35	1855.7346	18125.191	-0.009127449	-0.0031994596	-0.0031993871	-1.9853462	6.4354975	0	929.937403544569
0.43651583	1.4454398e-12	0.35	1692.4681	16531.275	-0.0090858141	-0.0032608328	-0.0032607532	-1.811558	5.8687629	0	929.956342142531
0.43651583	1.5848932e-12	0.35	1543.5674	15077.604	-0.009044039	-0.0033225506	-0.0033224633	-1.6530595	5.3518952	0	929.9752993438871
0.43651583	1.7378008e-12	0.35	1407.7683	13751.837	-0.00900214	-0.0033845731	-0.0033844775	-1.5085054	4.8805068	0	929.994272954752
0.43651583	1.9054607e-12	0.35	1283.9181	12542.72	-0.0089601312	-0.0034468648	-0.0034467599	-1.3766687	4.4505957	0	930.0132615328927
0.43651583	2.0892961e-12	0.35	1170.9654	11439.988	-0.0089180257	-0.0035093938	-0.0035092788	-1.2564304	4.0585124	0	930.0322631944811
0.43651583	2.2908677e-12	0.35	1067.9513	10434.283	-0.008875835	-0.0035721315	-0.0035720054	-1.14677	3.7009285	0	930.0512766053342
0.43651583	2.5118864e-12	0.35	974.00132	9517.0645	-0.0088335693	-0.0036350528	-0.0036349145	-1.0467567	3.3748083	0	930.0703004688519
0.43651583	2.7542287e-12	0.35	888.31794	8680.5483	-0.0087912377	-0.0036981354	-0.0036979838	-0.95554179	3.0773834	0	930.0893335682968
0.43651583	3.0199517e-12	0.35	810.17378	7917.6331	-0.0087488483	-0.0037613594	-0.0037611932	-0.87235099	2.8061289	0	930.1083749030321
0.43651583	3.3113112e-12	0.35	738.90547	7221.8427	-0.0087064083	-0.0038247075	-0.0038245252	-0.79647829	2.558742	0	930.1274234630248
0.43651583	3.6307805e-12	0.35	673.90801	6587.2707	-0.0086639238	-0.0038881642	-0.0038879644	-0.72727978	2.3331225	0	930.1464785811838
0.43651583	3.9810717e-12	0.35	614.6296	6008.5305	-0.0086214004	-0.0039517162	-0.0039514971	-0.66416819	2.1273553	0	930.1655395011588
0.43651583	4.3651583e-12	0.35	560.56709	5480.7098	-0.008578843	-0.0040153514	-0.0040151111	-0.60660797	1.9396935	0	930.1846056310237
0.43651583	4.7863009e-12	0.35	511.26147	4999.3278	-0.0085362559	-0.0040790595	-0.004078796	-0.55411063	1.7685439	0	930.2036763506655
0.43651583	5.2480746e-12	0.35	466.29423	4560.2986	-0.0084936429	-0.0041428313	-0.0041425424	-0.5062307	1.6124538	0	930.2227511809056
0.43651583	5.7543994e-12	0.35	425.28361	4159.8955	-0.0084510072	-0.0042066589	-0.0042063421	-0.4625619	1.470098	0	930.2418298116872
0.43651583	6.3095734e-12	0.35	387.8815	3794.7199	-0.0084083522	-0.0042705349	-0.0042701876	-0.4227337	1.340268	0	930.2609115148477
0.43651583	6.9183097e-12	0.35	353.77036	3461.6719	-0.0083656819	-0.0043344525	-0.0043340717	-0.38640816	1.2218617	0	930.2799948998304
0.43651583	7.5857758e-12	0.35	322.66063	3157.9246	-0.008323006	-0.0043984022	-0.0043979846	-0.35327709	1.1138737	0	930.2990740755602
0.43651583	8.3176377e-12	0.35	294.28819	2880.8985	-0.0082803608	-0.0044623601	-0.0044619022	-0.3230594	1.0153869	0	930.3181228610486
0.43651583	9.1201084e-12	0.35	268.41208	2628.2375	-0.0082379032	-0.0045262344	-0.0045257323	-0.29549877	0.92556294	0	930.3370241582663
0.43651583	1.e-11	0.35	244.81218	2397.7774	-0.008196261	-0.0045896661	-0.0045891155	-0.27036142	0.84363006	0	930.3553062960118
0.43651583	1.0964782e-11	0.35	223.287	2187.5108	-0.008157108	-0.0046517196	-0.004651116	-0.24743425	0.76886875	0	930.3717043656414
0.43651583	1.2022644e-11	0.35	203.65282	1995.6088	-0.0081220311	-0.0047116398	-0.004710978	-0.22652304	0.70062359	0	930.3849759141232
0.43651583	1.3182567e-11	0.35	185.74362	1820.4726	-0.0080903936	-0.0047701158	-0.0047693901	-0.20745068	0.63832884	0	930.3954927180706
0.43651583	1.4454398e-11	0.35	169.40859	1660.6718	-0.0080606833	-0.0048283136	-0.0048275179	-0.19005559	0.58148154	0	930.4042922831256
0.43651583	1.5848932e-11	0.35	154.50992	1514.8881	-0.0080318583	-0.0048870121	-0.0048861396	-0.1741903	0.52961665	0	930.4120976330121
0.43651583	1.7378008e-11	0.35	140.92161	1381.9053	-0.0080033409	-0.0049466377	-0.004945681	-0.15972029	0.48230375	0	930.4193115312085
0.43651583	1.9054607e-11	0.35	128.52857	1260.6068	-0.0079748115	-0.0050074199	-0.0050063709	-0.14652282	0.43914674	0	930.4261590224075
0.43651583	2.0892961e-11	0.35	117.22577	1149.9701	-0.007946086	-0.0050694851	-0.0050683349	-0.13448596	0.39978255	0	930.4327717772974
0.43651583	2.2908677e-11	0.35	106.91734	1049.0607	-0.0079170526	-0.0051329055	-0.0051316443	-0.1235076	0.36387905	0	930.4392313924309
0.43651583	2.5118864e-11	0.35	97.515849	957.02484	-0.0078876398	-0.0051977254	-0.0051963426	-0.11349462	0.33113278	0	930.445590741848
0.43651583	2.7542287e-11	0.35	88.941526	873.08333	-0.0078577985	-0.0052639763	-0.0052624601	-0.10436208	0.30126665	0	930.4518859941168
0.43651583	3.0199517e-11	0.35	81.121612	796.52499	-0.0078274924	-0.005331685	-0.0053300225	-0.096032511	0.27402772	0	930.4581428040696
0.43651583	3.3113112e-11	0.35	73.989748	726.701	-0.0077966921	-0.0054008778	-0.0053990549	-0.088435273	0.2491852	0	930.4643805408455
0.43651583	3.6307805e-11	0.35	67.485408	663.01943	-0.0077653725	-0.005471582	-0.0054695832	-0.081505926	0.22652851	0	930.4706142703753
0.43651583	3.9810717e-11	0.35	61.553388	604.94029	-0.0077335114	-0.0055438256	-0.005541634	-0.075185703	0.20586555	0	930.4768561036562
0.43651583	4.3651583e-11	0.35	56.143337	551.971	-0.007701089	-0.0056176357	-0.0056152326	-0.069421005	0.18702107	0	930.4831163242311
0.43651583	4.7863009e-11	0.35	51.209338	503.6623	-0.007668089	-0.0056930347	-0.0056903998	-0.06416295	0.16983521	0	930.4894034069794
0.43651583	5.2480746e-11	0.35	46.709511	459.60435	-0.0076344989	-0.0057700384	-0.0057671493	-0.059366958	0.15416218	0	930.4957245912519
0.43651583	5.7543994e-11	0.35	42.605657	419.42334	-0.0076003114	-0.0058486521	-0.0058454843	-0.054992366	0.13986894	0	930.5020856835629
0.43651583	6.3095734e-11	0.35	38.862941	382.77829	-0.0075655256	-0.0059288674	-0.005925394	-0.051002093	0.12683416	0	930.5084910810778
0.43651583	6.9183097e-11	0.35	35.449588	349.35816	-0.0075301472	-0.0060106603	-0.0060068518	-0.04736232	0.11494717	0	930.5149441756278
0.43651583	7.5857758e-11	0.35	32.336621	318.87923	-0.0074941896	-0.0060939903	-0.0060898143	-0.0440422	0.10410698	0	930.5214466490344
0.43651583	8.3176377e-11	0.35	29.497609	291.08269	-0.0074576734	-0.0061787993	-0.0061742205	-0.041013603	0.094221484	0	930.5279992059723
0.43651583	9.1201084e-11	0.35	26.908447	265.73244	-0.0074206267	-0.0062650133	-0.0062599927	-0.038250874	0.085206657	0	930.5346009961347
0.43651583	1.e-10	0.35	24.547148	242.61313	-0.0073830838	-0.0063525432	-0.0063470382	-0.035730615	0.076985838	0	930.5412502766274
0.43651583	1.0964782e-10	0.35	22.39366	221.52829	-0.0073450844	-0.0064412878	-0.0064352518	-0.033431486	0.069489089	0	930.5479443415027
0.43651583	1.2022644e-10	0.35	20.429695	202.29872	-0.0073066732	-0.0065311355	-0.0065245171	-0.031334027	0.062652617	0	930.5546794700815
0.43651583	1.3182567e-10	0.35	18.638573	184.76094	-0.0072678982	-0.0066219674	-0.0066147105	-0.029420489	0.05641822	0	930.5614512088242
0.43651583	1.4454398e-10	0.35	17.00508	168.76585	-0.0072288108	-0.0067136581	-0.0067057011	-0.027674686	0.050732809	0	930.5682543102582
0.43651583	1.5848932e-10	0.35	15.515341	154.17741	-0.0071894643	-0.0068060782	-0.0067973536	-0.026081856	0.045547947	0	930.5750831886677
0.43651583	1.7378008e-10	0.35	14.156702	140.87155	-0.007149915	-0.0068990938	-0.0068895275	-0.024628538	0.040819452	0	930.5819311496496
0.43651583	1.9054607e-10	0.35	12.917619	128.73508	-0.0071102216	-0.0069925659	-0.0069820768	-0.023302453	0.03650701	0	930.5887910525068
0.43651583	2.0892961e-10	0.35	11.787565	117.66472	-0.0070704464	-0.0070863498	-0.0070748489	-0.022092408	0.03257384	0	930.5956545445038
0.43651583	2.2908677e-10	0.35	10.756939	107.56625	-0.0070306558	-0.0071802924	-0.0071676821	-0.020988191	0.028986376	0	930.6025124132021
0.43651583	2.5118864e-10	0.35	9.8169806	98.353684	-0.0069909215	-0.0072742304	-0.0072604037	-0.01998049	0.025713979	0	930.6093540837937
0.43651583	2.7542287e-10	0.35	8.9597015	89.948557	-0.0069513218	-0.0073679877	-0.0073528274	-0.019060818	0.022728685	0	930.6161672526705
0.43651583	3.0199517e-10	0.35	8.1778134	82.279242	-0.0069119406	-0.0074613763	-0.0074447537	-0.01822143	0.02000496	0	930.6229386954503
0.43651583	3.3113112e-10	0.35	7.4646689	75.280375	-0.0068728676	-0.0075541971	-0.0075359714	-0.017455268	0.017519495	0	930.6296535857914
0.43651583	3.6307805e-10	0.35	6.8142046	68.892316	-0.0068341949	-0.0076462472	-0.0076262639	-0.016755895	0.015251019	0	930.6362966181746
0.43651583	3.9810717e-10	0.35	6.2208916	63.060684	-0.0067960119	-0.0077373303	-0.0077154199	-0.01611744	0.013180136	0	930.6428532810132
0.43651583	4.3651583e-10	0.35	5.6796887	57.735942	-0.0067583985	-0.0078272735	-0.0078032506	-0.015534553	0.011289183	0	930.6493105895137
0.43651583	4.7863009e-10	0.35	5.1860023	52.873033	-0.0067214164	-0.0079159457	-0.0078896067	-0.015002355	0.0095621059	0	930.6556596694813
0.43651583	5.2480746e-10	0.35	4.735648	48.431034	-0.0066851011	-0.0080032761	-0.0079743982	-0.014516394	0.0079843431	0	930.6618967626553
0.43651583	5.7543994e-10	0.35	4.3248156	44.372837	-0.006649456	-0.0080892681	-0.0080576071	-0.014072615	0.0065427116	0	930.6680245937745
0.43651583	6.3095734e-10	0.35	3.9500372	40.664824	-0.0066144499	-0.0081740044	-0.0081392926	-0.013667314	0.005225294	0	930.6740530094839
0.43651583	6.9183097e-10	0.35	3.6081559	37.276542	-0.0065800188	-0.0082576436	-0.008219588	-0.013297114	0.0040213202	0	930.6799983065448
0.43651583	7.5857758e-10	0.35	3.2962984	34.180396	-0.0065460709	-0.0083404085	-0.0082986881	-0.012958934	0.002921051	0	930.6858826774906
0.43651583	8.3176377e-10	0.35	3.0118485	31.351348	-0.0065124938	-0.0084225701	-0.0083768333	-0.012649962	0.0019156664	0	930.6917326744381
0.43651583	9.1201084e-10	0.35	2.7524228	28.766637	-0.0064791622	-0.0085044287	-0.008454291	-0.012367628	0.00099716084	0	930.6975780910043
0.43651583	1.e-9	0.35	2.5158498	26.405541	-0.006445946	-0.0085862967	-0.008531337	-0.012109588	0.00015825115	0	930.7034504683983
0.43651583	1.0964782e-9	0.35	2.3001496	24.249154	-0.0064127165	-0.0086684824	-0.0086082405	-0.0118737	-0.00060770427	0	930.7093822028335
0.43651583	1.2022644e-9	0.35	2.1035167	22.280201	-0.0063793523	-0.0087512768	-0.0086852493	-0.011658009	-0.001306775	0	930.7154058690401
0.43651583	1.3182567e-9	0.35	1.924304	20.482872	-0.0063457441	-0.0088349415	-0.0087625785	-0.011460726	-0.0019445191	0	930.7215534263337
0.43651583	1.4454398e-9	0.35	1.7610085	18.84268	-0.0063117984	-0.0089196991	-0.0088404004	-0.011280219	-0.0025260343	0	930.7278560635864
0.43651583	1.5848932e-9	0.35	1.6122585	17.346334	-0.0062774403	-0.0090057264	-0.0089188371	-0.011114995	-0.0030560035	0	930.7343440019173
0.43651583	1.7378008e-9	0.35	1.4768017	15.981629	-0.0062426162	-0.009093147	-0.0089979536	-0.010963692	-0.0035387334	0	930.7410462269174
0.43651583	1.9054607e-9	0.35	1.353495	14.737349	-0.0062072948	-0.0091820294	-0.0090777552	-0.010825064	-0.0039781888	0	930.7479904040889
0.43651583	2.0892961e-9	0.35	1.2412947	13.60318	-0.0061714674	-0.0092723851	-0.009158186	-0.01069797	-0.0043780222	0	930.755203090246
0.43651583	2.2908677e-9	0.35	1.1392476	12.569638	-0.006135147	-0.0093641716	-0.0092391317	-0.010581369	-0.004741599	0	930.7627096583512
0.43651583	2.5118864e-9	0.35	1.0464839	11.627997	-0.006098367	-0.009457295	-0.0093204228	-0.010474311	-0.0050720203	0	930.770534466636
0.43651583	2.7542287e-9	0.35	0.9622092	10.770238	-0.0060611781	-0.0095516185	-0.0094018426	-0.010375923	-0.0053721422	0	930.7787011404713
0.43651583	3.0199517e-9	0.35	0.88569834	9.9889876	-0.0060236455	-0.0096469687	-0.0094831351	-0.010285411	-0.0056445935	0	930.7872326052513
0.43651583	3.3113112e-9	0.35	0.81628929	9.2774748	-0.005985846	-0.0097431444	-0.0095640139	-0.010202045	-0.0058917921	0	930.7961508843885
0.43651583	3.6307805e-9	0.35	0.75337753	8.6294819	-0.0059478649	-0.0098399236	-0.0096441704	-0.010125161	-0.0061159607	0	930.8054773154113
0.43651583	3.9810717e-9	0.35	0.69641072	8.0393033	-0.0059097926	-0.0099370729	-0.009723285	-0.010054148	-0.0063191405	0	930.8152320613923
0.43651583	4.3651583e-9	0.35	0.64488396	7.5017042	-0.0058717222	-0.010034353	-0.0098010333	-0.009988448	-0.006503206	0	930.8254343270476
0.43651583	4.7863009e-9	0.35	0.59833515	7.011884	-0.0058337467	-0.010131526	-0.0098770974	-0.009927552	-0.0066698771	0	930.8361012735379
0.43651583	5.2480746e-9	0.35	0.55634094	6.5654428	-0.0057959554	-0.010228366	-0.0099511748	-0.0098709924	-0.0068207312	0	930.8472484741591
0.43651583	5.7543994e-9	0.35	0.51851286	6.1583517	-0.0057584314	-0.010324662	-0.010022989	-0.0098183423	-0.0069572129	0	930.8588887774671
0.43651583	6.3095734e-9	0.35	0.48449392	5.7869271	-0.0057212473	-0.010420232	-0.010092303	-0.0097692108	-0.0070806428	0	930.8710319079636
0.43651583	6.9183097e-9	0.35	0.45395561	5.4478077	-0.0056844622	-0.010514929	-0.010158925	-0.009723241	-0.0071922256	0	930.8836854103581
0.43651583	7.5857758e-9	0.35	0.42659518	5.1379356	-0.0056481174	-0.010608652	-0.010222727	-0.0096801066	-0.0072930558	0	930.8968525731295
0.43651583	8.3176377e-9	0.35	0.40213333	4.8545361	-0.0056122344	-0.010701352	-0.010283646	-0.00963951	-0.0073841247	0	930.9105339130388
0.43651583	9.1201084e-9	0.35	0.38031232	4.5951001	-0.0055768126	-0.010793035	-0.010341693	-0.0096011799	-0.0074663268	0	930.9247263764985
0.43651583	1.e-8	0.35	0.36089423	4.3573647	-0.0055418292	-0.010883765	-0.01039695	-0.0095648692	-0.0075404665	0	930.939424420073
0.43651583	1.0964782e-8	0.35	0.34365969	4.1392937	-0.0055072397	-0.01097366	-0.010449569	-0.0095303533	-0.0076072649	0	930.9546198695436
0.43651583	1.2022644e-8	0.35	0.32840671	3.9390589	-0.0054729802	-0.01106289	-0.010499764	-0.0094974282	-0.0076673675	0	930.9703023896918
0.43651583	1.3182567e-8	0.35	0.31494986	3.7550202	-0.00543897	-0.011151666	-0.010547802	-0.0094659088	-0.0077213513	0	930.9864600010592
0.43651583	1.4454398e-8	0.35	0.30311946	3.585708	-0.0054051156	-0.011240234	-0.010593986	-0.0094356275	-0.0077697313	0	931.0030809121008
0.43651583	1.5848932e-8	0.35	0.29276092	3.429805	-0.0053713143	-0.011328862	-0.010638647	-0.0094064325	-0.0078129678	0	931.0201527675318
0.43651583	1.7378008e-8	0.35	0.28373402	3.2861306	-0.0053374584	-0.011417831	-0.010682125	-0.0093781866	-0.0078514721	0	931.0376649502643
0.43651583	1.9054607e-8	0.35	0.27591219	3.153625	-0.0053034395	-0.011507424	-0.010724762	-0.0093507655	-0.0078856123	0	931.0556068432097
0.43651583	2.0892961e-8	0.35	0.26918169	3.031334	-0.0052691525	-0.011597915	-0.010766881	-0.0093240569	-0.0079157192	0	931.0739709768234
0.43651583	2.2908677e-8	0.35	0.26344071	2.9183953	-0.0052345	-0.011689557	-0.01080878	-0.0092979587	-0.0079420916	0	931.0927508681043
0.43651583	2.5118864e-8	0.35	0.2585984	2.8140244	-0.0051993962	-0.011782573	-0.010850715	-0.0092723786	-0.0079650015	0	931.1119429467045
0.43651583	2.7542287e-8	0.35	0.25457383	2.7175018	-0.0051637706	-0.011877145	-0.010892895	-0.0092472324	-0.0079846991	0	931.1315447227753
0.43651583	3.0199517e-8	0.35	0.25129506	2.6281626	-0.0051275707	-0.011973406	-0.010935469	-0.0092224437	-0.0080014168	0	931.1515565251649
0.43651583	3.3113112e-8	0.35	0.24869814	2.5453871	-0.0050907638	-0.012071437	-0.010978525	-0.0091979424	-0.0080153724	0	931.1719801390477
0.43651583	3.6307805e-8	0.35	0.24672624	2.4685949	-0.0050533375	-0.012171265	-0.011022088	-0.0091736646	-0.0080267718	0	931.1928189938366
0.43651583	3.9810717e-8	0.35	0.24532894	2.39724	-0.0050152991	-0.012272865	-0.011066125	-0.0091495517	-0.0080358099	0	931.2140770826848
0.43651583	4.3651583e-8	0.35	0.24446155	2.3308109	-0.0049766717	-0.012376169	-0.011110548	-0.0091255493	-0.00804267	0	931.2357616402453
0.43651583	4.7863009e-8	0.35	0.24408458	2.2688299	-0.0049374923	-0.012481072	-0.011155231	-0.0091016076	-0.0080475243	0	931.2578793374322
0.43651583	5.2480746e-8	0.35	0.24416331	2.2108542	-0.0048978069	-0.012587447	-0.011200014	-0.0090776803	-0.0080505322	0	931.2804395698988
0.43651583	5.7543994e-8	0.35	0.24466732	2.156478	-0.0048576666	-0.012695153	-0.011244722	-0.0090537242	-0.0080518388	0	931.3034518742337
0.43651583	6.3095734e-8	0.35	0.24557016	2.1053321	-0.0048171246	-0.012804044	-0.011289168	-0.0090296989	-0.0080515756	0	931.3269277601123
0.43651583	6.9183097e-8	0.35	0.246849	2.057085	-0.0047762325	-0.012913978	-0.011333164	-0.0090055666	-0.0080498585	0	931.3508805693624
0.43651583	7.5857758e-8	0.35	0.24848424	2.0114407	-0.004735039	-0.013024824	-0.011376529	-0.0089812912	-0.0080467892	0	931.3753240666167
0.43651583	8.3176377e-8	0.35	0.25045924	1.9681371	-0.0046935885	-0.01313646	-0.011419089	-0.0089568389	-0.0080424554	0	931.4002737547033
0.43651583	9.1201084e-8	0.35	0.25275996	1.9269438	-0.0046519204	-0.013248781	-0.011460681	-0.0089321767	-0.0080369314	0	931.4257462169508
0.43651583	1.e-7	0.35	0.25537468	1.8876579	-0.0046100692	-0.013361693	-0.011501153	-0.0089072736	-0.0080302803	0	931.4517590232308
0.43651583	1.0964782e-7	0.35	0.25829375	1.8501026	-0.0045680644	-0.013475118	-0.011540363	-0.0088820992	-0.0080225538	0	931.4783311527638
0.43651583	1.2022644e-7	0.35	0.26150933	1.8141225	-0.0045259313	-0.013588988	-0.011578179	-0.0088566241	-0.0080137948	0	931.5054822424653
0.43651583	1.3182567e-7	0.35	0.26501519	1.779582	-0.004483691	-0.013703249	-0.011614477	-0.0088308194	-0.0080040374	0	931.533233244643
0.43651583	1.4454398e-7	0.35	0.26880651	1.7463621	-0.0044413613	-0.013817854	-0.01164914	-0.0088046571	-0.0079933088	0	931.5616059102343
0.43651583	1.5848932e-7	0.35	0.27287975	1.7143583	-0.004398957	-0.013932765	-0.011682058	-0.0087781092	-0.0079816297	0	931.5906225069384
0.43651583	1.7378008e-7	0.35	0.27723245	1.6834782	-0.0043564906	-0.014047951	-0.011713124	-0.0087511484	-0.0079690156	0	931.6203064769105
0.43651583	1.9054607e-7	0.35	0.28186319	1.6536403	-0.0043139723	-0.014163387	-0.011742234	-0.0087237473	-0.007955477	0	931.650682436763
0.43651583	2.0892961e-7	0.35	0.28677142	1.6247723	-0.0042714105	-0.014279052	-0.011769289	-0.0086958786	-0.0079410201	0	931.6817750500862
0.43651583	2.2908677e-7	0.35	0.29195742	1.5968095	-0.0042288123	-0.014394931	-0.011794189	-0.0086675151	-0.007925648	0	931.7136105307532
0.43651583	2.5118864e-7	0.35	0.29742221	1.5696941	-0.0041861838	-0.01451101	-0.011816837	-0.0086386296	-0.0079093601	0	931.7462150456594
0.43651583	2.7542287e-7	0.35	0.30316748	1.543374	-0.0041435298	-0.01462728	-0.011837135	-0.0086091948	-0.0078921535	0	931.7796163119822
0.43651583	3.0199517e-7	0.35	0.30919559	1.5178026	-0.0041008542	-0.014743733	-0.011854986	-0.0085791828	-0.0078740218	0	931.8138425636608
0.43651583	3.3113112e-7	0.35	0.31550943	1.4929372	-0.0040581605	-0.014860364	-0.011870291	-0.0085485659	-0.0078549572	0	931.8489230681555
0.43651583	3.6307805e-7	0.35	0.3221125	1.4687392	-0.0040154515	-0.014977168	-0.011882952	-0.008517316	-0.0078349495	0	931.8848874217747
0.43651583	3.9810717e-7	0.35	0.32900878	1.4451733	-0.0039727296	-0.015094144	-0.011892867	-0.0084854045	-0.0078139866	0	931.9217669120453
0.43651583	4.3651583e-7	0.35	0.33620278	1.422207	-0.0039299968	-0.01521129	-0.011899936	-0.0084528024	-0.0077920544	0	931.959592544623
0.43651583	4.7863009e-7	0.35	0.34369946	1.3998105	-0.0038872549	-0.015328606	-0.011904053	-0.0084194803	-0.0077691376	0	931.998397486165
0.43651583	5.2480746e-7	0.35	0.35150425	1.3779565	-0.0038445049	-0.015446092	-0.011905113	-0.0083854082	-0.0077452188	0	932.0382153261326
0.43651583	5.7543994e-7	0.35	0.35962305	1.3566196	-0.0038017483	-0.01556375	-0.011903008	-0.0083505557	-0.0077202792	0	932.0790801707481
0.43651583	6.3095734e-7	0.35	0.36806215	1.335776	-0.0037589861	-0.015681582	-0.011897626	-0.0083148917	-0.007694299	0	932.1210279114076
0.43651583	6.9183097e-7	0.35	0.3768283	1.3154035	-0.0037162193	-0.015799589	-0.011888853	-0.0082783845	-0.0076672568	0	932.1640950972035
0.43651583	7.5857758e-7	0.35	0.38592867	1.2954819	-0.0036734484	-0.015917776	-0.011876574	-0.0082410016	-0.0076391293	0	932.2083190758583
0.43651583	8.3176377e-7	0.35	0.39537082	1.2759916	-0.0036306743	-0.016036145	-0.011860668	-0.00820271	-0.0076098927	0	932.2537387923558
0.43651583	9.1201084e-7	0.35	0.40516274	1.2569147	-0.0035878975	-0.0161547	-0.011841013	-0.0081634756	-0.0075795213	0	932.3003938963535
0.43651583	1.e-6	0.35	0.41531283	1.2382339	-0.003545119	-0.016273444	-0.011817481	-0.0081232639	-0.0075479886	0	932.3483255408141
0.43651583	1.0964782e-6	0.35	0.42582988	1.2199328	-0.0035023394	-0.016392381	-0.011789942	-0.0080820393	-0.0075152666	0	932.3975759122218
0.43651583	1.2022644e-6	0.35	0.43672311	1.2019963	-0.0034595594	-0.016511515	-0.011758263	-0.0080397654	-0.0074813259	0	932.4481880896477
0.43651583	1.3182567e-6	0.35	0.44800211	1.1844094	-0.0034167799	-0.01663085	-0.011722304	-0.0079964048	-0.007446136	0	932.5002072661853
0.43651583	1.4454398e-6	0.35	0.45967692	1.1671577	-0.0033740024	-0.016750388	-0.011681922	-0.0079519193	-0.0074096655	0	932.5536790577323
0.43651583	1.5848932e-6	0.35	0.47175793	1.1502277	-0.0033312282	-0.016870133	-0.011636968	-0.0079062694	-0.0073718813	0	932.6086512411866
0.43651583	1.7378008e-6	0.35	0.48425598	1.1336053	-0.0032884594	-0.016990084	-0.01158729	-0.007859415	-0.0073327495	0	932.6651718283376
0.43651583	1.9054607e-6	0.35	0.49718226	1.1172771	-0.0032456987	-0.017110242	-0.011532725	-0.0078113144	-0.0072922349	0	932.7232918845623
0.43651583	2.0892961e-6	0.35	0.51054836	1.1012288	-0.00320295	-0.017230605	-0.011473107	-0.0077619253	-0.0072503017	0	932.7830623343026
0.43651583	2.2908677e-6	0.35	0.52436624	1.0854457	-0.0031602186	-0.017351164	-0.01140826	-0.007711204	-0.0072069131	0	932.8445360750875
0.43651583	2.5118864e-6	0.35	0.53864817	1.0699118	-0.003117512	-0.017471908	-0.011337995	-0.0076591054	-0.0071620315	0	932.9077682124253
0.43651583	2.7542287e-6	0.35	0.55340675	1.0546086	-0.0030748406	-0.017592818	-0.011262114	-0.0076055835	-0.0071156194	0	932.9728140867143
0.43651583	3.0199517e-6	0.35	0.56865474	1.0395147	-0.0030322195	-0.017713861	-0.0111804	-0.007550591	-0.0070676394	0	933.0397308705067
0.43651583	3.3113112e-6	0.35	0.58440508	1.0246034	-0.0029896703	-0.017834988	-0.011092611	-0.0074940793	-0.0070180554	0	933.1085778503757
0.43651583	3.6307805e-6	0.35	0.60067061	1.0098403	-0.002947224	-0.017956128	-0.010998479	-0.0074359985	-0.0069668334	0	933.1794140310255
0.43651583	3.9810717e-6	0.35	0.61746395	0.99518041	-0.0029049252	-0.01807717	-0.010897691	-0.0073762974	-0.0069139432	0	933.2523004372258
0.43651583	4.3651583e-6	0.35	0.6347971	0.98056249	-0.002862838	-0.018197954	-0.010789878	-0.0073149237	-0.0068593608	0	933.3272981877021
0.43651583	4.7863009e-6	0.35	0.6526811	0.96590285	-0.0028210545	-0.018318247	-0.010674591	-0.007251824	-0.006803072	0	933.4044684011808
0.43651583	5.2480746e-6	0.35	0.67112545	0.95108853	-0.002779703	-0.01843772	-0.010551278	-0.0071869438	-0.0067450744	0	933.483872055453
0.43651583	5.7543994e-6	0.35	0.69013767	0.93596873	-0.0027389603	-0.018555915	-0.010419253	-0.0071202277	-0.0066853829	0	933.5655686250052
0.43651583	6.3095734e-6	0.35	0.70972294	0.92035042	-0.0026990601	-0.018672225	-0.010277674	-0.0070516199	-0.0066240312	0	933.6496154233239
0.43651583	6.9183097e-6	0.35	0.72988429	0.90400084	-0.0026602952	-0.018785886	-0.010125534	-0.0069810639	-0.0065610711	0	933.7360684954822
0.43651583	7.5857758e-6	0.35	0.75062302	0.88665443	-0.0026230171	-0.018895979	-0.0099616619	-0.0069085033	-0.0064965695	0	933.8249826980032
0.43651583	8.3176377e-6	0.35	0.77193629	0.86797383	-0.002587687	-0.019001292	-0.0097845878	-0.0068338815	-0.0064306266	0	933.9164080768351
0.43651583	9.1201084e-6	0.35	0.79379726	0.84724149	-0.0025552318	-0.019099366	-0.0095915871	-0.0067571431	-0.0063635203	0	934.0103697277685
0.43651583	0.00001	0.35	0.81610827	0.82263313	-0.002527932	-0.019184115	-0.009376299	-0.0066782385	-0.0062960486	0	934.1068167075698
0.43651583	0.000010964782	0.35	0.83878124	0.79247708	-0.0025082545	-0.019248931	-0.0091318327	-0.0065971292	-0.0062289496	0	934.2056972273974
0.43651583	0.000012022644	0.35	0.86193999	0.75840077	-0.0024952354	-0.019296369	-0.0088604518	-0.0065137752	-0.0061614272	0	934.3071725542478
0.43651583	0.000013182567	0.35	0.88578444	0.72318933	-0.0024863249	-0.019333242	-0.0085686686	-0.0064281188	-0.0060921298	0	934.4114968358501
0.43651583	0.000014454398	0.35	0.91044781	0.68855306	-0.0024797983	-0.01936417	-0.0082607934	-0.0063400855	-0.0060201884	0	934.518873107579
0.43651583	0.000015848932	0.35	0.93600739	0.65530207	-0.0024747293	-0.019391643	-0.0079389967	-0.0062495912	-0.0059451422	0	934.6294579245107
0.43651583	0.000017378008	0.35	0.96251211	0.62378464	-0.0024706125	-0.019417026	-0.0076043149	-0.0061565454	-0.0058667392	0	934.7433853250379
0.43651583	0.000019054607	0.35	0.98999747	0.59412314	-0.0024671538	-0.019441122	-0.0072572109	-0.0060608536	-0.0057848279	0	934.8607794116504
0.43651583	0.000020892961	0.35	1.0184926	0.56632622	-0.0024641704	-0.019464435	-0.0068978392	-0.0059624182	-0.0056993067	0	934.9817611298972
0.43651583	0.000022908677	0.35	1.0480238	0.54034383	-0.0024615422	-0.019487304	-0.0065261768	-0.0058611388	-0.0056100986	0	935.1064508850782
0.43651583	0.000025118864	0.35	1.0786162	0.51609574	-0.0024591862	-0.019509965	-0.0061420905	-0.0057569128	-0.0055171381	0	935.2349704636545
0.43651583	0.000027542287	0.35	1.110295	0.49348697	-0.002457043	-0.019532597	-0.0057453728	-0.0056496349	-0.0054203641	0	935.3674439117406
0.43651583	0.000030199517	0.35	1.1430857	0.47241661	-0.0024550686	-0.019555333	-0.005335764	-0.0055391972	-0.0053197156	0	935.503997972005
0.43651583	0.000033113112	0.35	1.1770148	0.45278293	-0.0024532293	-0.019578284	-0.0049129648	-0.0054254896	-0.0052151296	0	935.6447627319678
0.43651583	0.000036307805	0.35	1.2121096	0.43448632	-0.0024514988	-0.019601536	-0.0044766442	-0.0053083991	-0.0051065396	0	935.789871750844
0.43651583	0.000039810717	0.35	1.2483985	0.41743106	-0.0024498563	-0.019625168	-0.0040264451	-0.00518781	-0.0049938743	0	935.9394620031676
0.43651583	0.000043651583	0.35	1.2859112	0.40152625	-0.0024482843	-0.019649246	-0.0035619889	-0.0050636039	-0.0048770575	0	936.0936744331373
0.43651583	0.000047863009	0.35	1.3246776	0.3866862	-0.0024467683	-0.019673834	-0.0030828787	-0.0049356592	-0.0047560074	0	936.2526531841709
0.43651583	0.000052480746	0.35	1.3647277	0.37283017	-0.002445295	-0.019699	-0.0025887062	-0.0048038518	-0.0046306374	0	936.4165450210742
0.43651583	0.000057543994	0.35	1.4060892	0.35988115	-0.0024438514	-0.019724821	-0.0020790607	-0.0046680542	-0.0045008558	0	936.5854972160175
0.43651583	0.000063095734	0.35	1.4487834	0.34776203	-0.0024424215	-0.019751413	-0.0015535531	-0.0045281369	-0.004366569	0	936.7596527567541
0.43651583	0.000069183097	0.35	1.492814	0.33638515	-0.0024409811	-0.01977898	-0.0010118658	-0.0043839688	-0.0042276865	0	936.9391388228496
0.43651583	0.000075857758	0.35	1.5381442	0.32562473	-0.0024394852	-0.019807928	-0.00045386969	-0.0042354202	-0.0040841371	0	937.1240401522934
0.43651583	0.000083176377	0.35	1.5846473	0.3152503	-0.002437841	-0.019839112	0.00012013432	-0.0040823689	-0.0039359057	0	937.3143449831368
0.43651583	0.000091201084	0.35	1.6320326	0.30479825	-0.0024358561	-0.019874244	0.00070900468	-0.0039247126	-0.0037831053	0	937.5098586914644
0.43651583	0.0001	0.35	1.6798289	0.29346191	-0.0024331726	-0.019916184	0.00131047	-0.0037623868	-0.0036260464	0	937.7101706059457
0.43651583	0.00010964782	0.35	1.7276877	0.28040532	-0.002429272	-0.019968022	0.0019220456	-0.003595372	-0.0034650975	0	937.9149508094829
0.43651583	0.00012022644	0.35	1.7760042	0.26576508	-0.0024236788	-0.020030492	0.0025436246	-0.0034236504	-0.0033001777	0	938.1246109181391
0.43651583	0.00013182567	0.35	1.8259161	0.25104225	-0.0024162403	-0.020100934	0.0031785097	-0.0032471245	-0.0031304919	0	938.3403804894119
0.43651583	0.00014454398	0.35	1.8784147	0.23788458	-0.0024071607	-0.020175817	0.0038308977	-0.0030655845	-0.0029550649	0	938.5634477728083
0.43651583	0.00015848932	0.35	1.9338275	0.22699407	-0.0023968038	-0.020253006	0.0045036094	-0.0028787555	-0.0027732956	0	938.7943985685326
0.43651583	0.00017378008	0.35	1.9920285	0.21821782	-0.0023855095	-0.020331816	0.0051980373	-0.002686356	-0.0025849735	0	939.0333714389847
0.43651583	0.00019054607	0.35	2.0527742	0.21106724	-0.0023735212	-0.020412272	0.0059148832	-0.0024881246	-0.0023900642	0	939.2803684793955
0.43651583	0.00020892961	0.35	2.11587	0.20505705	-0.0023609882	-0.020494609	0.0066546658	-0.002283822	-0.0021885539	0	939.5354199860496
0.43651583	0.00022908677	0.35	2.1812052	0.19981983	-0.0023479922	-0.020579064	0.0074179223	-0.0020732239	-0.0019803889	0	939.7986258535351
0.43651583	0.00025118864	0.35	2.2487384	0.1951092	-0.0023345725	-0.020665829	0.0082052595	-0.0018561133	-0.0017654668	0	940.0701487018225
0.43651583	0.00027542287	0.35	2.3184747	0.19076982	-0.0023207444	-0.020755053	0.0090173517	-0.0016322748	-0.0015436444	0	940.3501958976827
0.43651583	0.00030199517	0.35	2.3904485	0.18670661	-0.0023065093	-0.020846857	0.0098549295	-0.0014014908	-0.0013147482	0	940.6390063819797
0.43651583	0.00033113112	0.35	2.4647116	0.18286165	-0.0022918617	-0.020941341	0.010718767	-0.0011635398	-0.0010785835	0	940.9368398834611
0.43651583	0.00036307805	0.35	2.5413263	0.17919906	-0.002276792	-0.021038597	0.011609678	-0.0009181941	-0.0008349394	0	941.2439730383529
0.43651583	0.00039810717	0.35	2.6203617	0.17569565	-0.0022612888	-0.021138709	0.012528506	-0.00066522006	-0.00058359302	0	941.5606939408804
0.43651583	0.00043651583	0.35	2.7018917	0.17233548	-0.0022453393	-0.021241764	0.013476129	-0.00040437669	-0.00032431077	0	941.8873033459122
0.43651583	0.00047863009	0.35	2.7859941	0.1691067	-0.0022289303	-0.021347841	0.014453455	-0.0001354157	-0.000056849842	0	942.2241122495793
0.43651583	0.00052480746	0.35	2.8727494	0.16599993	-0.0022120479	-0.021457027	0.01546142	0.000141919	0.00021904146	0	942.5714415134487
0.43651583	0.00057543994	0.35	2.9622418	0.16300722	-0.0021946778	-0.021569403	0.016500995	0.00042789159	0.00050362367	0	942.9296238845889
0.43651583	0.00063095734	0.35	3.0545579	0.16012165	-0.0021768056	-0.021685056	0.017573181	0.00072277462	0.00079716608	0	943.2990020694615
0.43651583	0.00069183097	0.35	3.1497876	0.15733707	-0.0021584163	-0.02180407	0.01867901	0.0010268492	0.001099947	0	943.679929532551
0.43651583	0.00075857758	0.35	3.2480237	0.15464798	-0.0021394949	-0.021926533	0.019819552	0.0013404056	0.001412254	0	944.0727722345613
0.43651583	0.00083176377	0.35	3.3493621	0.15204956	-0.002120026	-0.022052531	0.02099591	0.001663743	0.0017343842	0	944.4779073640022
0.43651583	0.00091201084	0.35	3.4539015	0.14953781	-0.0020999944	-0.022182153	0.022209223	0.0019971705	0.0020666447	0	944.8957237599941
0.43651583	0.001	0.35	3.5617433	0.14711007	-0.0020793851	-0.022315489	0.023460667	0.0023410067	0.0024093531	0	945.3266222411146
0.43651583	0.0010964782	0.35	3.6729872	0.14476635	-0.0020581871	-0.022452633	0.024751452	0.0026955805	0.002762838	0	945.7710110485089
0.43651583	0.0012022644	0.35	3.7876972	0.14251183	-0.002036418	-0.022593722	0.026082789	0.003061229	0.003127439	0	946.2292718806001
0.43651583	0.0013182567	0.35	3.9055576	0.14030238	-0.0020143779	-0.0227393	0.027455521	0.003438284	0.0035034676	0	946.7013999925832
0.43651583	0.0014454398	0.35	4.0232135	0.13700751	-0.001994997	-0.022892075	0.028868371	0.0038269386	0.0038905914	0	947.1842223313367
0.43651583	0.0015848932	0.35	4.1367289	0.12940957	-0.0019912025	-0.023029485	0.030345378	0.0042268686	0.0042869914	0	947.673498121675
0.43651583	0.0017378008	0.35	4.2610294	0.12394626	-0.0020067817	-0.02309599	0.031943603	0.0046383721	0.0046959567	0	948.1844333362005
0.43651583	0.0019054607	0.35	4.3936773	0.1211282	-0.0020280278	-0.023136651	0.033619553	0.0050625287	0.0051188041	0	948.7156038287342
0.43651583	0.0020892961	0.35	4.5310148	0.11888985	-0.0020506858	-0.023174685	0.035351631	0.0054999267	0.0055551621	0	949.2639053223379
0.43651583	0.0022908677	0.35	4.6726863	0.11683984	-0.0020744957	-0.023212346	0.037139251	0.0059509998	0.0060052828	0	949.8293893991495
0.43651583	0.0025118864	0.35	4.8187473	0.11488163	-0.0020996794	-0.023249331	0.038984437	0.0064161752	0.0064695485	0	950.4125131577114
0.43651583	0.0027542287	0.35	4.9692863	0.11295333	-0.0021265759	-0.023284934	0.040889668	0.0068958873	0.0069483647	0	951.0137732992462
0.43651583	0.0030199517	0.35	5.1243879	0.11100915	-0.0021556234	-0.023318211	0.042857718	0.0073905795	0.0074421537	0	951.6336703302159
0.43651583	0.0033113112	0.35	5.2841159	0.10901802	-0.0021873757	-0.023347983	0.044891652	0.0079007022	0.0079513512	0	952.2726918380583
0.43651583	0.0036307805	0.35	5.4485152	0.10694993	-0.0022225455	-0.023372722	0.046994946	0.0084267113	0.0084763995	0	952.9313112697539
0.43651583	0.0039810717	0.35	5.6176544	0.10478707	-0.002262035	-0.023390329	0.049171701	0.0089690676	0.0090177509	0	953.6100295545689
0.43651583	0.0043651583	0.35	5.7916411	0.10258059	-0.0023068591	-0.023398304	0.051426488	0.0095282411	0.0095758993	0	954.3093962912546
0.43651583	0.0047863009	0.35	5.970496	0.10040114	-0.0023580357	-0.023394445	0.053763641	0.010104709	0.010151355	0	955.0298803229207
0.43651583	0.0052480746	0.35	6.1541406	0.098198331	-0.0024166939	-0.023376611	0.056187502	0.010698945	0.010744567	0	955.7718486437931
0.43651583	0.0057543994	0.35	6.3424355	0.095915831	-0.0024839875	-0.023342869	0.05870227	0.011311414	0.011355976	0	956.5355980155875
0.43651583	0.0063095734	0.35	6.5322789	0.093413555	-0.002562527	-0.023296428	0.061307075	0.011942502	0.011985901	0	957.3183896053084
0.43651583	0.0069183097	0.35	6.6973761	0.088483002	-0.0027062771	-0.02316907	0.064072548	0.012590951	0.012632059	0	958.0927469047956
0.43651583	0.0075857758	0.35	6.8921112	0.085575688	-0.002890394	-0.02286867	0.0670933	0.013256836	0.013296594	0	958.9131249137563
0.43651583	0.0083176377	0.35	7.0969988	0.083172412	-0.0030769922	-0.022558666	0.070208457	0.013942476	0.013981118	0	959.7622164626175
0.43651583	0.0091201084	0.35	7.3018886	0.078917681	-0.0032650686	-0.022274386	0.073385335	0.014648239	0.014684903	0	960.6302159655168
0.43651583	0.01	0.35	7.5078296	0.072785599	-0.0034250132	-0.022100228	0.076542263	0.015374031	0.015407847	0	961.5180866178729
0.43651583	0.010964782	0.35	7.7327905	0.069570533	-0.0035347865	-0.022044393	0.079673853	0.016120883	0.016153205	0	962.4447641378799
0.43651583	0.012022644	0.35	7.9721977	0.067518712	-0.0036112571	-0.022070515	0.082819367	0.016890536	0.016921905	0	963.4073105986452
0.43651583	0.013182567	0.35	8.2257468	0.06650608	-0.0036333904	-0.022238732	0.085921661	0.017684348	0.017715246	0	964.4066976986535
0.43651583	0.014454398	0.35	8.489278	0.066587692	-0.0036248954	-0.022493485	0.089039372	0.01850356	0.018534496	0	965.4399319357217
0.43651583	0.015848932	0.35	8.7582377	0.066397377	-0.0036025244	-0.022801893	0.092208565	0.019348889	0.019379737	0	966.5031333277584
0.43651583	0.017378008	0.35	9.0344684	0.064382071	-0.0035480459	-0.023212139	0.095384331	0.020220887	0.020250799	0	967.5986633313362
0.43651583	0.019054607	0.35	9.3241814	0.061492803	-0.0034668246	-0.023690414	0.098603863	0.021120596	0.021149165	0	968.7337122991438
0.43651583	0.020892961	0.35	9.6276116	0.059055435	-0.003377663	-0.024181839	0.10192552	0.022049391	0.022076828	0	969.9098052866791
0.43651583	0.022908677	0.35	9.9435184	0.057118846	-0.0032862967	-0.02467375	0.10536557	0.023008548	0.023035085	0	971.1269030201104
0.43651583	0.025118864	0.35	10.271617	0.055517093	-0.003192942	-0.02516666	0.1089272	0.023999269	0.024025062	0	972.3858503096224
0.43651583	0.027542287	0.35	10.612123	0.054140976	-0.0030972243	-0.025661371	0.11261342	0.025022758	0.025047912	0	973.6879889484909
0.43651583	0.030199517	0.35	10.965458	0.052927909	-0.002998975	-0.026157493	0.11642858	0.026080252	0.026104842	0	975.0349078356796
0.43651583	0.033113112	0.35	11.332142	0.051839459	-0.0028981887	-0.026653856	0.12037791	0.027173031	0.027197115	0	976.4283319192149
0.43651583	0.036307805	0.35	11.712764	0.05084966	-0.0027949383	-0.027148836	0.12446721	0.028302434	0.028326058	0	977.8701000224428
0.43651583	0.039810717	0.35	12.107966	0.049939603	-0.0026893295	-0.027640505	0.12870274	0.029469858	0.029493059	0	979.3621714209878
0.43651583	0.043651583	0.35	12.518442	0.049094774	-0.0025814867	-0.028126674	0.13309115	0.030676765	0.030699574	0	980.9066160712723
0.43651583	0.047863009	0.35	12.944938	0.04830346	-0.0024715573	-0.028604869	0.1376395	0.031924688	0.03194713	0	982.5056171473442
0.43651583	0.052480746	0.35	13.388253	0.047555553	-0.0023597245	-0.029072272	0.14235536	0.033215238	0.033237332	0	984.1614918992256
0.43651583	0.057543994	0.35	13.849247	0.046841299	-0.0022462339	-0.02952563	0.14724685	0.034550104	0.034571867	0	985.8766798143913
0.43651583	0.063095734	0.35	14.32884	0.046149804	-0.002131431	-0.029961113	0.15232284	0.035931065	0.035952506	0	987.653773153642
0.43651583	0.069183097	0.35	14.040537	0.049706674	-0.0029724619	-0.030038802	0.15792846	0.037358847	0.03738194	0	988.7069658727662
0.43651583	0.075857758	0.35	13.040982	0.05698482	-0.004650479	-0.03030684	0.16352091	0.038702037	0.038728512	0	988.9694244334612
0.43651583	0.083176377	0.35	12.129377	0.063622567	-0.0061808488	-0.031249661	0.16862129	0.039927041	0.039956599	0	989.2087911086364
0.43651583	0.091201084	0.35	11.297983	0.069676265	-0.0075765626	-0.032829666	0.17327289	0.041044257	0.041076629	0	989.4270955473606
0.43651583	0.1	0.35	11.831122	0.067946728	-0.0076252193	-0.03436181	0.17816663	0.042140978	0.042172546	0	990.9906753855632
0.43651583	0.10964782	0.35	13.235814	0.062772648	-0.0067559207	-0.035696154	0.1834585	0.043367388	0.043396552	0	993.5476584199735
0.43651583	0.12022644	0.35	14.936618	0.057919783	-0.0054701298	-0.037092909	0.18889455	0.044745593	0.044772503	0	996.5433764742625
0.43651583	0.13182567	0.35	16.991241	0.053376487	-0.0036651303	-0.038585812	0.19444747	0.046307335	0.046332133	0	1000.0653573893924
0.43651583	0.14454398	0.35	19.474129	0.049132764	-0.0012127334	-0.040212314	0.20008646	0.048090786	0.048113613	0	1004.2239144056285
0.43651583	0.15848932	0.35	22.48241	0.045180255	0.0020483644	-0.042011824	0.20577896	0.050142478	0.050163469	0	1009.1598954156761
0.43651583	0.17378008	0.35	26.14227	0.041512177	0.0063211676	-0.044023621	0.21149274	0.052519836	0.052539122	0	1015.0534376466983
0.43651583	0.19054607	0.35	30.614485	0.038123155	0.011858512	-0.046284318	0.21719848	0.055294313	0.055312025	0	1022.1324550359931
0.43651583	0.20892961	0.35	36.096992	0.035008874	0.018968251	-0.048824715	0.22287289	0.058554943	0.058571208	0	1030.6785371041292
0.43651583	0.22908677	0.35	42.82151	0.032165477	0.028011868	-0.051665997	0.22850253	0.062411881	0.062426824	0	1041.0269014129412
0.43651583	0.25118864	0.35	51.04086	0.02958865	0.03939228	-0.054815533	0.23408801	0.066999176	0.067012923	0	1053.5563154117567
0.43651583	0.27542287	0.35	61.004681	0.027272422	0.053527663	-0.058263132	0.23964775	0.072475757	0.072488427	0	1068.665740158189
0.43651583	0.30199517	0.35	72.924738	0.025207868	0.070811917	-0.061979173	0.24521988	0.079023476	0.079035187	0	1086.737809412981
0.43651583	0.33113112	0.35	86.936438	0.023382072	0.091568635	-0.06591614	0.25086065	0.086841507	0.08685237	0	1108.0950576392643
0.43651583	0.36307805	0.35	103.06805	0.021777763	0.11601119	-0.070014202	0.25663894	0.096137232	0.09614735	0	1132.9606137559215
0.43651583	0.39810717	0.35	121.22905	0.02037386	0.14422206	-0.074209814	0.26262758	0.10711498	0.10712445	0	1161.4359212244444
0.43651583	0.43651583	0.35	141.2223	0.019146839	0.17615774	-0.078444788	0.26889439	0.11996479	0.11997368	0	1193.5024067169943
0.43651583	0.47863009	0.35	162.77526	0.018072492	0.21167532	-0.082673114	0.27549525	0.13485337	0.13486177	0	1229.0441729685176
0.43651583	0.52480746	0.35	185.57905	0.017127559	0.2505696	-0.086864113	0.28247106	0.15191862	0.15192658	0	1267.8818710471796
0.43651583	0.57543994	0.35	209.32415	0.01629091	0.29260934	-0.091002104	0.28984802	0.17126786	0.17127543	0	1309.8068516757066
0.43651583	0.63095734	0.35	233.72649	0.015544157	0.33756532	-0.095083863	0.29764023	0.19297917	0.19298639	0	1354.6083844395725
0.43651583	0.69183097	0.35	258.54226	0.014871804	0.3852283	-0.099115241	0.305853	0.21710465	0.21711156	0	1402.0916208671474
0.43651583	0.75857758	0.35	283.57365	0.014261078	0.43541824	-0.10310793	0.3144862	0.24367476	0.24368138	0	1452.0873588625934
0.43651583	0.83176377	0.35	308.66819	0.013701608	0.48798724	-0.10707687	0.3235368	0.2727028	0.27270916	0	1504.455640301592
0.43651583	0.91201084	0.35	333.7146	0.013185047	0.5428187	-0.11103835	0.33300075	0.30418919	0.30419532	0	1559.0855800304494
0.43651583	1.	0.35	358.63714	0.012704706	0.59982462	-0.11500882	0.34287429	0.33812525	0.33813115	0	1615.893259830365
0.43651583	1.0964782	0.35	383.38955	0.012255227	0.65894213	-0.11900413	0.35315461	0.37449634	0.37450203	0	1674.8186851652627
0.43651583	1.2022644	0.35	407.94946	0.01183232	0.72012997	-0.12303917	0.36384026	0.41328451	0.41329001	0	1735.8226127393864
0.43651583	1.3182567	0.35	432.31343	0.011432529	0.78336529	-0.12712773	0.37493134	0.45447059	0.4544759	0	1798.8836063692756
0.43651583	1.4454398	0.35	456.49275	0.011053063	0.84864074	-0.13128246	0.38642952	0.49803582	0.49804096	0	1863.9953094255552
0.43651583	1.5848932	0.35	480.50999	0.010691653	0.91596217	-0.13551495	0.39833794	0.54396313	0.5439681	0	1931.164250947842
0.43651583	1.7378008	0.35	504.39618	0.01034644	0.98534658	-0.13983583	0.4106612	0.59223808	0.59224289	0	2000.4079162472997
0.43651583	1.9054607	0.35	528.18863	0.010015893	1.0568206	-0.1442549	0.4234052	0.64284963	0.64285428	0	2071.753266151647
0.43651583	2.0892961	0.35	551.92913	0.009698738	1.1304189	-0.14878123	0.43657702	0.69579059	0.69579509	0	2145.235203634505
0.43651583	2.2908677	0.35	575.66259	0.0093939081	1.2061837	-0.15342329	0.4501849	0.75105805	0.75106242	0	2220.89610685142
0.43651583	2.5118864	0.35	599.43597	0.0091005005	1.2841631	-0.15818905	0.46423805	0.80865362	0.80865785	0	2298.784197584633
0.43651583	2.7542287	0.35	623.29745	0.0088177448	1.3644114	-0.16308607	0.47874666	0.86858356	0.86858765	0	2378.953845192471
0.43651583	3.0199517	0.35	647.29585	0.0085449775	1.4469874	-0.1681216	0.49372178	0.93085889	0.93086286	0	2461.4639298865036
0.43651583	3.3113112	0.35	671.48013	0.0082816219	1.5319551	-0.17330263	0.50917528	0.99549544	0.99549929	0	2546.3784872733772
0.43651583	3.6307805	0.35	695.89911	0.0080271719	1.6193826	-0.17863595	0.52511981	1.0625138	1.0625176	0	2633.7656616790136
0.43651583	3.9810717	0.35	720.60116	0.0077811796	1.709342	-0.18412824	0.54156876	1.1319394	1.131943	0	2723.697599038163
0.43651583	4.3651583	0.35	745.63411	0.0075432445	1.8019094	-0.18978606	0.55853624	1.2038023	1.2038059	0	2816.250440317439
0.43651583	4.7863009	0.35	771.04513	0.0073130063	1.8971646	-0.19561595	0.57603705	1.2781373	1.2781407	0	2911.5040297802857
0.43651583	5.2480746	0.35	796.88067	0.0070901375	1.995191	-0.20162443	0.59408665	1.3549837	1.354987	0	3009.5418111650024
0.43651583	5.7543994	0.35	823.18646	0.0068743385	2.0960754	-0.20781804	0.61270118	1.4343854	1.4343886	0	3110.4506463486296
0.43651583	6.3095734	0.35	850.00753	0.0066653332	2.1999082	-0.21420337	0.63189745	1.5163907	1.5163938	0	3214.3209999715446
0.43651583	6.9183097	0.35	877.38824	0.0064628657	2.3067832	-0.22078707	0.65169291	1.6010522	1.6010552	0	3321.246741658954
0.43651583	7.5857758	0.35	905.37233	0.0062666973	2.4167977	-0.2275759	0.67210567	1.6884271	1.68843	0	3431.325246554382
0.43651583	8.3176377	0.35	934.00298	0.0060766042	2.5300522	-0.23457672	0.6931545	1.7785764	1.7785793	0	3544.657113450071
0.43651583	9.1201084	0.35	963.32291	0.0058923757	2.646651	-0.24179655	0.71485884	1.8715659	1.8715686	0	3661.3467318146677
0.43651583	10.	0.35	993.37445	0.0057138124	2.7667016	-0.24924251	0.73723883	1.9674649	1.9674676	0	3781.5017279194494