0.14454398	1.e-12	0.36	16.896489	543.0302	-0.0031227942	-0.017104322	-0.017102492	-0.027262995	0.05627749	0	930.8464735770322
0.14454398	1.0964782e-12	0.36	15.410479	495.35816	-0.0031086249	-0.017141698	-0.017139691	-0.025680624	0.050525931	0	930.8472042394224
0.14454398	1.2022644e-12	0.36	14.055226	451.88048	-0.0030944556	-0.017179076	-0.017176876	-0.024237417	0.045280474	0	930.8479396372218
0.14454398	1.3182567e-12	0.36	12.819227	412.22813	-0.0030802863	-0.017216456	-0.017214044	-0.022921127	0.040496594	0	930.848680785161
0.14454398	1.4454398e-12	0.36	11.691988	376.06452	-0.0030661169	-0.017253838	-0.017251193	-0.021720586	0.036133679	0	930.8494284536839
0.14454398	1.5848932e-12	0.36	10.663941	343.08274	-0.0030519477	-0.017291222	-0.017288322	-0.02062561	0.032154693	0	930.8501826991645
0.14454398	1.7378008e-12	0.36	9.7263572	313.0028	-0.0030377783	-0.017328609	-0.017325429	-0.019626908	0.028525857	0	930.8509445739154
0.14454398	1.9054607e-12	0.36	8.8712791	285.56942	-0.003023609	-0.017365998	-0.017362511	-0.01871601	0.025216368	0	930.8517148107981
0.14454398	2.0892961e-12	0.36	8.0914473	260.54975	-0.0030094397	-0.017403389	-0.017399566	-0.017885188	0.02219813	0	930.8524941802559
0.14454398	2.2908677e-12	0.36	7.3802421	237.73143	-0.0029952704	-0.017440783	-0.017436591	-0.017127397	0.019445522	0	930.8532836970194
0.14454398	2.5118864e-12	0.36	6.7316258	216.92081	-0.0029811011	-0.017478179	-0.017473583	-0.016436208	0.016935177	0	930.8540843758194
0.14454398	2.7542287e-12	0.36	6.1400925	197.94126	-0.0029669318	-0.017515577	-0.017510538	-0.015805761	0.014645784	0	930.8548975696299
0.14454398	3.0199517e-12	0.36	5.6006207	180.6317	-0.0029527625	-0.017552979	-0.017547454	-0.015230709	0.01255791	0	930.8557239549378
0.14454398	3.3113112e-12	0.36	5.1086307	164.84523	-0.0029385932	-0.017590383	-0.017584325	-0.014706178	0.01065383	0	930.8565655612044
0.14454398	3.6307805e-12	0.36	4.6599463	150.44788	-0.0029244239	-0.01762779	-0.017621148	-0.01422772	0.0089173805	0	930.8574234031603
0.14454398	3.9810717e-12	0.36	4.2507584	137.31747	-0.0029102546	-0.017665201	-0.017657918	-0.01379128	0.0073338211	0	930.858299172023
0.14454398	4.3651583e-12	0.36	3.8775936	125.34258	-0.0028960853	-0.017702613	-0.017694629	-0.01339316	0.0058897089	0	930.8591948972538
0.14454398	4.7863009e-12	0.36	3.5372841	114.42159	-0.002881916	-0.01774003	-0.017731276	-0.013029984	0.0045727848	0	930.8601122700701
0.14454398	5.2480746e-12	0.36	3.2269409	104.46183	-0.0028677467	-0.017777449	-0.017767851	-0.012698677	0.0033718697	0	930.8610539964204
0.14454398	5.7543994e-12	0.36	2.9439298	95.378803	-0.0028535774	-0.017814872	-0.01780435	-0.012396432	0.002276769	0	930.8620214292788
0.14454398	6.3095734e-12	0.36	2.6858482	87.095428	-0.0028394082	-0.017852298	-0.017840762	-0.01212069	0.0012781863	0	930.8630181953674
0.14454398	6.9183097e-12	0.36	2.4505053	79.541433	-0.002825239	-0.017889728	-0.017877081	-0.011869115	0.00036764464	0	930.8640464181037
0.14454398	7.5857758e-12	0.36	2.2359032	72.652728	-0.0028110697	-0.017927161	-0.017913297	-0.011639577	-0.00046258563	0	930.8651095738799
0.14454398	8.3176377e-12	0.36	2.0402202	66.370874	-0.0027969005	-0.017964598	-0.017949401	-0.011430136	-0.0012195527	0	930.8662105189743
0.14454398	9.1201084e-12	0.36	1.8617951	60.642581	-0.0027827314	-0.018002039	-0.01798538	-0.011239018	-0.0019096827	0	930.8673536505532
0.14454398	1.e-11	0.36	1.6991133	55.419258	-0.0027685623	-0.018039483	-0.018021225	-0.011064607	-0.0025388347	0	930.8685421067644
0.14454398	1.0964782e-11	0.36	1.5507936	50.656597	-0.0027543932	-0.018076932	-0.018056921	-0.010905428	-0.0031123502	0	930.8697809612609
0.14454398	1.2022644e-11	0.36	1.4155768	46.314203	-0.0027402244	-0.018114384	-0.018092454	-0.010760137	-0.003635099	0	930.8710746675825
0.14454398	1.3182567e-11	0.36	1.2923148	42.355241	-0.0027260557	-0.01815184	-0.01812781	-0.010627506	-0.0041115199	0	930.872428149052
0.14454398	1.4454398e-11	0.36	1.179961	38.746133	-0.0027118873	-0.018189301	-0.018162972	-0.010506416	-0.0045456594	0	930.8738469678956
0.14454398	1.5848932e-11	0.36	1.0775613	35.456262	-0.0026977193	-0.018226764	-0.018197923	-0.010395844	-0.0049412053	0	930.8753367802973
0.14454398	1.7378008e-11	0.36	0.9842457	32.457718	-0.0026835519	-0.018264231	-0.018232642	-0.010294857	-0.0053015191	0	930.8769045014576
0.14454398	1.9054607e-11	0.36	0.89922143	29.725058	-0.0026693854	-0.018301701	-0.01826711	-0.010202606	-0.0056296639	0	930.8785562761343
0.14454398	2.0892961e-11	0.36	0.82176573	27.235085	-0.0026552201	-0.018339172	-0.018301304	-0.010118313	-0.0059284314	0	930.8802996020586
0.14454398	2.2908677e-11	0.36	0.7512198	24.966651	-0.002641057	-0.018376643	-0.0183352	-0.010041269	-0.0062003662	0	930.8821416575098
0.14454398	2.5118864e-11	0.36	0.68698304	22.900474	-0.0026268967	-0.018414112	-0.018368773	-0.0099708261	-0.0064477868	0	930.8840903348369
0.14454398	2.7542287e-11	0.36	0.62850799	21.01897	-0.0026127413	-0.018451574	-0.018401994	-0.0099063938	-0.0066728076	0	930.8861534700152
0.14454398	3.0199517e-11	0.36	0.57529543	19.306096	-0.0025985932	-0.018489022	-0.018434831	-0.009847432	-0.0068773566	0	930.8883396318802
0.14454398	3.3113112e-11	0.36	0.52688998	17.74721	-0.0025844563	-0.018526446	-0.018467251	-0.0097934471	-0.0070631928	0	930.8906563181636
0.14454398	3.6307805e-11	0.36	0.48287613	16.328936	-0.0025703372	-0.01856383	-0.018499211	-0.0097439889	-0.0072319238	0	930.893111872206
0.14454398	3.9810717e-11	0.36	0.44287444	15.039039	-0.0025562456	-0.018601147	-0.018530664	-0.0096986455	-0.0073850198	0	930.8957130776687
0.14454398	4.3651583e-11	0.36	0.40653804	13.866308	-0.0025421974	-0.018638356	-0.018561546	-0.0096570413	-0.00752383	0	930.8984666430488
0.14454398	4.7863009e-11	0.36	0.37354941	12.800442	-0.0025282168	-0.018675393	-0.018591774	-0.0096188323	-0.0076495953	0	930.901377905077
0.14454398	5.2480746e-11	0.36	0.34361737	11.831935	-0.0025143417	-0.018712157	-0.018621233	-0.0095837051	-0.0077634645	0	930.9044501522322
0.14454398	5.7543994e-11	0.36	0.31647397	10.951949	-0.0025006352	-0.018748483	-0.018649744	-0.0095513732	-0.0078665108	0	930.9076846435323
0.14454398	6.3095734e-11	0.36	0.29186979	10.151943	-0.0024872523	-0.018783957	-0.018676889	-0.0095215757	-0.0079597873	0	930.9110771321415
0.14454398	6.9183097e-11	0.36	0.2695551	9.4216088	-0.0024748992	-0.018816702	-0.018700786	-0.0094940756	-0.0080446429	0	930.9146006713258
0.14454398	7.5857758e-11	0.36	0.24924923	8.745342	-0.0024657021	-0.01884105	-0.018715775	-0.0094686624	-0.0081232674	0	930.918172015595
0.14454398	8.3176377e-11	0.36	0.23075079	8.115625	-0.0024603199	-0.018855241	-0.018720103	-0.0094451501	-0.0081966316	0	930.9217650262415
0.14454398	9.1201084e-11	0.36	0.21395718	7.5354898	-0.0024571019	-0.01886367	-0.018718182	-0.0094233667	-0.0082640969	0	930.9254383133509
0.14454398	1.e-10	0.36	0.19875174	7.0050493	-0.0024549538	-0.018869254	-0.018712948	-0.0094031507	-0.0083254846	0	930.9292269602945
0.14454398	1.0964782e-10	0.36	0.1850043	6.5216453	-0.0024533934	-0.018873277	-0.018705709	-0.0093843527	-0.0083810542	0	930.9331416029513
0.14454398	1.2022644e-10	0.36	0.17258584	6.0816968	-0.0024521935	-0.018876345	-0.018697099	-0.0093668363	-0.00843122	0	930.9371812641737
0.14454398	1.3182567e-10	0.36	0.16137417	5.6814466	-0.0024512338	-0.018878779	-0.01868747	-0.009350477	-0.0084764357	0	930.9413399119519
0.14454398	1.4454398e-10	0.36	0.15125578	5.3172409	-0.002450444	-0.018880767	-0.018677037	-0.0093351623	-0.0085171509	0	930.945610875372
0.14454398	1.5848932e-10	0.36	0.14212622	4.9856389	-0.0024497799	-0.018882428	-0.01866595	-0.0093207901	-0.0085537928	0	930.9499849466939
0.14454398	1.7378008e-10	0.36	0.1338901	4.6834553	-0.0024492122	-0.01888384	-0.018654317	-0.0093072685	-0.0085867595	0	930.954453124881
0.14454398	1.9054607e-10	0.36	0.12646064	4.4077714	-0.0024487203	-0.018885058	-0.018642219	-0.0092945139	-0.0086164165	0	930.9590073672542
0.14454398	2.0892961e-10	0.36	0.11975927	4.1559324	-0.0024482894	-0.018886122	-0.018629721	-0.0092824514	-0.0086430973	0	930.9636395935515
0.14454398	2.2908677e-10	0.36	0.11371509	3.9255356	-0.0024479084	-0.018887063	-0.018616875	-0.0092710129	-0.0086671033	0	930.9683426442848
0.14454398	2.5118864e-10	0.36	0.10826426	3.7144154	-0.0024475688	-0.018887903	-0.018603724	-0.0092601376	-0.008688707	0	930.9731099612882
0.14454398	2.7542287e-10	0.36	0.10334944	3.5206255	-0.0024472639	-0.018888661	-0.018590302	-0.0092497697	-0.008708152	0	930.9779363393693
0.14454398	3.0199517e-10	0.36	0.098919236	3.3424205	-0.0024469885	-0.018889351	-0.018576636	-0.0092398595	-0.0087256571	0	930.982817531693
0.14454398	3.3113112e-10	0.36	0.094927659	3.1782376	-0.0024467383	-0.018889986	-0.01856275	-0.0092303618	-0.0087414175	0	930.9877494605455
0.14454398	3.6307805e-10	0.36	0.091333593	3.0266792	-0.0024465098	-0.018890575	-0.018548659	-0.0092212355	-0.0087556072	0	930.9927303407528
0.14454398	3.9810717e-10	0.36	0.088100326	2.8864961	-0.0024463	-0.018891126	-0.018534379	-0.0092124435	-0.0087683811	0	930.9977575791147
0.14454398	4.3651583e-10	0.36	0.085195118	2.7565724	-0.0024461065	-0.018891647	-0.018519918	-0.0092039522	-0.0087798774	0	931.0028307246394
0.14454398	4.7863009e-10	0.36	0.082588788	2.6359109	-0.0024459273	-0.018892143	-0.018505284	-0.0091957308	-0.0087902187	0	931.0079489505094
0.14454398	5.2480746e-10	0.36	0.080255361	2.5236209	-0.0024457606	-0.01889262	-0.018490481	-0.0091877514	-0.0087995142	0	931.0131125949688
0.14454398	5.7543994e-10	0.36	0.07817174	2.4189064	-0.0024456049	-0.018893083	-0.018475509	-0.0091799881	-0.0088078604	0	931.0183230673651
0.14454398	6.3095734e-10	0.36	0.076317415	2.3210557	-0.0024454588	-0.018893534	-0.018460369	-0.0091724178	-0.0088153436	0	931.0235813448463
0.14454398	6.9183097e-10	0.36	0.074674199	2.2294325	-0.0024453212	-0.018893979	-0.018445056	-0.0091650187	-0.0088220399	0	931.0288901521521
0.14454398	7.5857758e-10	0.36	0.073226004	2.1434678	-0.0024451912	-0.01889442	-0.018429567	-0.0091577712	-0.0088280173	0	931.0342513496217
0.14454398	8.3176377e-10	0.36	0.071958623	2.062652	-0.0024450678	-0.018894861	-0.018413893	-0.0091506565	-0.0088333354	0	931.0396689210125
0.14454398	9.1201084e-10	0.36	0.070859556	1.9865295	-0.0024449502	-0.018895303	-0.018398028	-0.0091436579	-0.0088380476	0	931.0451456474376
0.14454398	1.e-9	0.36	0.069917835	1.9146919	-0.0024448379	-0.018895749	-0.018381961	-0.009136759	-0.0088422002	0	931.0506857193586
0.14454398	1.0964782e-9	0.36	0.069123891	1.8467739	-0.0024447301	-0.018896202	-0.018365681	-0.0091299452	-0.0088458351	0	931.0562936091067
0.14454398	1.2022644e-9	0.36	0.068469403	1.7824483	-0.0024446264	-0.018896663	-0.018349173	-0.0091232023	-0.0088489881	0	931.0619747661608
0.14454398	1.3182567e-9	0.36	0.067947197	1.7214219	-0.0024445262	-0.018897135	-0.018332426	-0.0091165171	-0.0088516913	0	931.0677334749387
0.14454398	1.4454398e-9	0.36	0.067551124	1.6634324	-0.0024444292	-0.01889762	-0.018315421	-0.0091098769	-0.0088539722	0	931.0735764439373
0.14454398	1.5848932e-9	0.36	0.06727597	1.6082447	-0.0024443348	-0.018898118	-0.018298143	-0.0091032694	-0.0088558549	0	931.0795093105487
0.14454398	1.7378008e-9	0.36	0.067117367	1.5556486	-0.0024442428	-0.018898633	-0.018280572	-0.0090966832	-0.0088573601	0	931.0855390275563
0.14454398	1.9054607e-9	0.36	0.067071703	1.5054557	-0.0024441528	-0.018899164	-0.01826269	-0.009090107	-0.0088585057	0	931.0916720591695
0.14454398	2.0892961e-9	0.36	0.067136051	1.4574972	-0.0024440646	-0.018899715	-0.018244475	-0.0090835298	-0.0088593065	0	931.0979160346594
0.14454398	2.2908677e-9	0.36	0.067308101	1.4116223	-0.0024439778	-0.018900285	-0.018225905	-0.0090769411	-0.0088597753	0	931.1042787712097
0.14454398	2.5118864e-9	0.36	0.067586086	1.3676957	-0.0024438923	-0.018900878	-0.018206957	-0.0090703303	-0.0088599222	0	931.1107681423778
0.14454398	2.7542287e-9	0.36	0.067968725	1.325596	-0.0024438078	-0.018901494	-0.018187607	-0.009063687	-0.0088597556	0	931.1173925478779
0.14454398	3.0199517e-9	0.36	0.068455168	1.2852147	-0.0024437241	-0.018902134	-0.01816783	-0.0090570012	-0.0088592821	0	931.1241606317114
0.14454398	3.3113112e-9	0.36	0.069044934	1.2464539	-0.002443641	-0.0189028	-0.018147599	-0.0090502628	-0.0088585067	0	931.1310817143665
0.14454398	3.6307805e-9	0.36	0.069737865	1.2092256	-0.0024435584	-0.018903494	-0.018126887	-0.0090434613	-0.0088574324	0	931.138165022375
0.14454398	3.9810717e-9	0.36	0.070534082	1.1734504	-0.002443476	-0.018904216	-0.018105666	-0.0090365868	-0.0088560616	0	931.145420308425
0.14454398	4.3651583e-9	0.36	0.071433937	1.1390564	-0.0024433938	-0.018904968	-0.018083908	-0.0090296293	-0.0088543953	0	931.1528570433355
0.14454398	4.7863009e-9	0.36	0.072437975	1.1059783	-0.0024433115	-0.018905751	-0.018061582	-0.0090225785	-0.0088524333	0	931.1604859945253
0.14454398	5.2480746e-9	0.36	0.073546898	1.0741563	-0.0024432291	-0.018906567	-0.018038659	-0.009015424	-0.0088501744	0	931.1683169710566
0.14454398	5.7543994e-9	0.36	0.074761535	1.0435356	-0.0024431464	-0.018907417	-0.018015108	-0.0090081557	-0.0088476168	0	931.1763606463919
0.14454398	6.3095734e-9	0.36	0.076082817	1.0140656	-0.0024430634	-0.018908302	-0.017990898	-0.0090007631	-0.0088447579	0	931.1846275060805
0.14454398	6.9183097e-9	0.36	0.077511747	0.98569909	-0.0024429799	-0.018909223	-0.017965996	-0.0089932358	-0.0088415945	0	931.1931289000717
0.14454398	7.5857758e-9	0.36	0.079049385	0.95839214	-0.0024428957	-0.018910183	-0.01794037	-0.008985563	-0.0088381227	0	931.2018758400714
0.14454398	8.3176377e-9	0.36	0.08069684	0.9321033	-0.0024428109	-0.018911182	-0.017913988	-0.0089777341	-0.0088343381	0	931.2108790559159
0.14454398	9.1201084e-9	0.36	0.082455245	0.90679329	-0.0024427253	-0.018912222	-0.017886817	-0.0089697383	-0.008830236	0	931.2201498975548
0.14454398	1.e-8	0.36	0.084325763	0.88242468	-0.0024426387	-0.018913305	-0.017858823	-0.0089615646	-0.0088258112	0	931.229700053181
0.14454398	1.0964782e-8	0.36	0.086309579	0.85896166	-0.0024425513	-0.018914431	-0.017829971	-0.008953202	-0.0088210582	0	931.2395411734049
0.14454398	1.2022644e-8	0.36	0.088407899	0.83636977	-0.0024424627	-0.018915603	-0.017800228	-0.0089446394	-0.0088159712	0	931.2496847960886
0.14454398	1.3182567e-8	0.36	0.090621953	0.8146157	-0.002442373	-0.018916821	-0.01776956	-0.0089358655	-0.0088105439	0	931.2601423275557
0.14454398	1.4454398e-8	0.36	0.092953002	0.79366726	-0.0024422821	-0.018918088	-0.01773793	-0.0089268687	-0.0088047699	0	931.2709263767736
0.14454398	1.5848932e-8	0.36	0.095402344	0.77349317	-0.0024421899	-0.018919405	-0.017705303	-0.0089176377	-0.0087986425	0	931.2820488762217
0.14454398	1.7378008e-8	0.36	0.097971322	0.75406308	-0.0024420964	-0.018920774	-0.017671642	-0.0089081606	-0.0087921545	0	931.2935223409105
0.14454398	1.9054607e-8	0.36	0.10066134	0.73534748	-0.0024420013	-0.018922197	-0.017636913	-0.0088984259	-0.0087852991	0	931.3053585529897
0.14454398	2.0892961e-8	0.36	0.10347386	0.71731769	-0.0024419047	-0.018923674	-0.017601076	-0.0088884215	-0.0087780684	0	931.3175709482439
0.14454398	2.2908677e-8	0.36	0.10641043	0.69994583	-0.0024418065	-0.018925209	-0.017564094	-0.0088781352	-0.0087704546	0	931.3301721356397
0.14454398	2.5118864e-8	0.36	0.10947269	0.68320488	-0.0024417067	-0.018926803	-0.017525928	-0.0088675551	-0.0087624499	0	931.343175306675
0.14454398	2.7542287e-8	0.36	0.11266236	0.6670686	-0.002441605	-0.018928457	-0.01748654	-0.0088566684	-0.0087540457	0	931.3565935964732
0.14454398	3.0199517e-8	0.36	0.1159813	0.65151162	-0.0024415015	-0.018930175	-0.017445888	-0.0088454628	-0.0087452334	0	931.3704411173057
0.14454398	3.3113112e-8	0.36	0.11943146	0.63650939	-0.0024413961	-0.018931957	-0.017403932	-0.0088339254	-0.0087360039	0	931.3847314928705
0.14454398	3.6307805e-8	0.36	0.12301496	0.62203823	-0.0024412887	-0.018933805	-0.01736063	-0.0088220432	-0.008726348	0	931.3994790233521
0.14454398	3.9810717e-8	0.36	0.12673402	0.60807535	-0.0024411792	-0.018935723	-0.017315939	-0.0088098032	-0.008716256	0	931.4146983471784
0.14454398	4.3651583e-8	0.36	0.13059103	0.5945988	-0.0024410676	-0.018937712	-0.017269815	-0.0087971918	-0.0087057179	0	931.4304043470646
0.14454398	4.7863009e-8	0.36	0.13458854	0.58158752	-0.0024409538	-0.018939775	-0.017222212	-0.0087841955	-0.0086947233	0	931.4466126761696
0.14454398	5.2480746e-8	0.36	0.13872925	0.56902132	-0.0024408376	-0.018941913	-0.017173084	-0.0087708004	-0.0086832614	0	931.4633390816086
0.14454398	5.7543994e-8	0.36	0.14301604	0.55688087	-0.002440719	-0.018944129	-0.017122383	-0.0087569921	-0.0086713208	0	931.4805997990709
0.14454398	6.3095734e-8	0.36	0.14745196	0.5451477	-0.0024405979	-0.018946426	-0.017070061	-0.0087427564	-0.0086588902	0	931.4984111582022
0.14454398	6.9183097e-8	0.36	0.15204023	0.53380415	-0.0024404743	-0.018948806	-0.017016068	-0.0087280784	-0.0086459573	0	931.5167900711788
0.14454398	7.5857758e-8	0.36	0.15678427	0.52283342	-0.002440348	-0.018951272	-0.01696035	-0.008712943	-0.0086325096	0	931.5357549910641
0.14454398	8.3176377e-8	0.36	0.16168768	0.51221945	-0.0024402189	-0.018953827	-0.016902856	-0.0086973348	-0.0086185342	0	931.5553232622344
0.14454398	9.1201084e-8	0.36	0.16675424	0.50194699	-0.002440087	-0.018956472	-0.01684353	-0.0086812379	-0.0086040178	0	931.5755138263278
0.14454398	1.e-7	0.36	0.17198796	0.49200151	-0.0024399522	-0.018959212	-0.016782315	-0.0086646363	-0.0085889461	0	931.5963460571809
0.14454398	1.0964782e-7	0.36	0.177393	0.48236919	-0.0024398143	-0.018962049	-0.016719155	-0.0086475132	-0.0085733049	0	931.617839084345
0.14454398	1.2022644e-7	0.36	0.18297377	0.4730369	-0.0024396733	-0.018964985	-0.016653987	-0.0086298517	-0.0085570791	0	931.6400142171617
0.14454398	1.3182567e-7	0.36	0.18873485	0.46399215	-0.002439529	-0.018968025	-0.016586752	-0.0086116343	-0.0085402531	0	931.6628915999122
0.14454398	1.4454398e-7	0.36	0.19468105	0.45522308	-0.0024393814	-0.018971172	-0.016517385	-0.0085928432	-0.0085228111	0	931.686493218426
0.14454398	1.5848932e-7	0.36	0.20081737	0.44671841	-0.0024392304	-0.018974428	-0.01644582	-0.0085734599	-0.0085047361	0	931.710841490732
0.14454398	1.7378008e-7	0.36	0.20714904	0.43846742	-0.0024390757	-0.018977797	-0.01637199	-0.0085534655	-0.008486011	0	931.7359593610163
0.14454398	1.9054607e-7	0.36	0.21368151	0.43045992	-0.0024389174	-0.018981283	-0.016295826	-0.0085328406	-0.0084666181	0	931.7618700741255
0.14454398	2.0892961e-7	0.36	0.22042044	0.42268623	-0.0024387554	-0.01898489	-0.016217255	-0.0085115653	-0.0084465387	0	931.7885984157933
0.14454398	2.2908677e-7	0.36	0.22737172	0.41513713	-0.0024385893	-0.01898862	-0.016136203	-0.008489619	-0.0084257538	0	931.8161697918674
0.14454398	2.5118864e-7	0.36	0.23454148	0.40780385	-0.0024384193	-0.018992479	-0.016052594	-0.0084669807	-0.0084042437	0	931.8446097209422
0.14454398	2.7542287e-7	0.36	0.24193607	0.40067805	-0.0024382451	-0.01899647	-0.015966349	-0.0084436286	-0.0083819878	0	931.8739452061261
0.14454398	3.0199517e-7	0.36	0.24956207	0.39375179	-0.0024380665	-0.019000596	-0.015877387	-0.0084195403	-0.008358965	0	931.9042038330576
0.14454398	3.3113112e-7	0.36	0.25742634	0.38701749	-0.0024378836	-0.019004864	-0.015785624	-0.0083946928	-0.0083351535	0	931.9354139202366
0.14454398	3.6307805e-7	0.36	0.26553595	0.38046794	-0.002437696	-0.019009275	-0.015690974	-0.0083690625	-0.0083105308	0	931.9676049324321
0.14454398	3.9810717e-7	0.36	0.27389823	0.37409625	-0.0024375037	-0.019013837	-0.015593348	-0.0083426248	-0.0082850734	0	932.000806973318
0.14454398	4.3651583e-7	0.36	0.2825208	0.36789587	-0.0024373066	-0.019018552	-0.015492653	-0.0083153548	-0.0082587572	0	932.0350515934992
0.14454398	4.7863009e-7	0.36	0.2914115	0.36186052	-0.0024371044	-0.019023425	-0.015388795	-0.0082872263	-0.0082315572	0	932.0703708697363
0.14454398	5.2480746e-7	0.36	0.30057847	0.35598423	-0.0024368971	-0.019028463	-0.015281677	-0.008258213	-0.0082034479	0	932.1067976116515
0.14454398	5.7543994e-7	0.36	0.31003012	0.35026125	-0.0024366844	-0.019033669	-0.015171197	-0.008228287	-0.0081744024	0	932.1443666019538
0.14454398	6.3095734e-7	0.36	0.31977514	0.34468614	-0.0024364662	-0.019039049	-0.015057251	-0.0081974203	-0.0081443933	0	932.1831131119268
0.14454398	6.9183097e-7	0.36	0.32982253	0.33925365	-0.0024362422	-0.019044608	-0.014939733	-0.0081655835	-0.0081133923	0	932.2230732772535
0.14454398	7.5857758e-7	0.36	0.34018157	0.33395877	-0.0024360125	-0.019050353	-0.014818532	-0.0081327467	-0.00808137	0	932.2642845490092
0.14454398	8.3176377e-7	0.36	0.35086185	0.32879671	-0.0024357766	-0.019056288	-0.014693533	-0.0080988787	-0.0080482962	0	932.3067862949817
0.14454398	9.1201084e-7	0.36	0.36187328	0.32376287	-0.0024355346	-0.01906242	-0.01456462	-0.0080639475	-0.0080141393	0	932.3506176574638
0.14454398	1.e-6	0.36	0.37322609	0.31885284	-0.0024352861	-0.019068755	-0.014431671	-0.0080279203	-0.0079788675	0	932.3958202779913
0.14454398	1.0964782e-6	0.36	0.38493086	0.3140624	-0.0024350309	-0.019075299	-0.01429456	-0.007990763	-0.0079424472	0	932.442436963162
0.14454398	1.2022644e-6	0.36	0.39699848	0.30938748	-0.0024347689	-0.019082058	-0.01415316	-0.0079524407	-0.0079048441	0	932.4905107638602
0.14454398	1.3182567e-6	0.36	0.40944022	0.30482421	-0.0024344998	-0.01908904	-0.014007336	-0.0079129171	-0.0078660225	0	932.5400876248314
0.14454398	1.4454398e-6	0.36	0.42226769	0.30036882	-0.0024342235	-0.019096251	-0.013856952	-0.0078721551	-0.007825946	0	932.5912136411514
0.14454398	1.5848932e-6	0.36	0.4354929	0.29601775	-0.0024339396	-0.019103699	-0.013701867	-0.0078301163	-0.0077845765	0	932.643936880984
0.14454398	1.7378008e-6	0.36	0.44912821	0.29176751	-0.002433648	-0.01911139	-0.013541933	-0.007786761	-0.0077418751	0	932.6983074983274
0.14454398	1.9054607e-6	0.36	0.46318641	0.28761481	-0.0024333484	-0.019119333	-0.013377002	-0.0077420484	-0.0076978014	0	932.754375835093
0.14454398	2.0892961e-6	0.36	0.47768067	0.28355644	-0.0024330405	-0.019127534	-0.013206917	-0.0076959366	-0.0076523139	0	932.8121952773838
0.14454398	2.2908677e-6	0.36	0.49262457	0.27958931	-0.0024327241	-0.019136003	-0.013031519	-0.007648382	-0.0076053696	0	932.871819793834
0.14454398	2.5118864e-6	0.36	0.50803215	0.27571048	-0.0024323989	-0.019144748	-0.012850642	-0.0075993397	-0.0075569241	0	932.9333058147381
0.14454398	2.7542287e-6	0.36	0.52391788	0.27191709	-0.0024320647	-0.019153776	-0.012664116	-0.007548764	-0.0075069319	0	932.9967110294087
0.14454398	3.0199517e-6	0.36	0.54029667	0.26820639	-0.0024317211	-0.019163097	-0.012471767	-0.0074966068	-0.0074553456	0	933.0620946680456
0.14454398	3.3113112e-6	0.36	0.55718393	0.26457573	-0.0024313679	-0.01917272	-0.012273412	-0.0074428193	-0.0074021166	0	933.129518817127
0.14454398	3.6307805e-6	0.36	0.57459552	0.26102255	-0.0024310048	-0.019182655	-0.012068865	-0.0073873507	-0.0073471947	0	933.1990466718182
0.14454398	3.9810717e-6	0.36	0.59254784	0.2575444	-0.0024306313	-0.01919291	-0.011857933	-0.007330149	-0.0072905281	0	933.2707439829028
0.14454398	4.3651583e-6	0.36	0.61105778	0.2541389	-0.0024302473	-0.019203496	-0.011640419	-0.0072711604	-0.0072320633	0	933.3446774783115
0.14454398	4.7863009e-6	0.36	0.63014276	0.25080375	-0.0024298524	-0.019214424	-0.011416117	-0.0072103292	-0.0071717452	0	933.420917212037
0.14454398	5.2480746e-6	0.36	0.64982075	0.24753673	-0.0024294462	-0.019225703	-0.011184815	-0.0071475981	-0.0071095168	0	933.4995352675331
0.14454398	5.7543994e-6	0.36	0.67011029	0.24433572	-0.0024290283	-0.019237345	-0.010946297	-0.0070829083	-0.0070453194	0	933.5806050812273
0.14454398	6.3095734e-6	0.36	0.69103048	0.24119865	-0.0024285984	-0.01924936	-0.010700338	-0.0070161988	-0.0069790925	0	933.6642030397827
0.14454398	6.9183097e-6	0.36	0.71260105	0.23812352	-0.0024281562	-0.019261761	-0.010446705	-0.0069474068	-0.0069107736	0	933.7504082358105
0.14454398	7.5857758e-6	0.36	0.73484234	0.23510841	-0.0024277011	-0.01927456	-0.01018516	-0.0068764677	-0.0068402983	0	933.8393017350089
0.14454398	8.3176377e-6	0.36	0.7577753	0.23215144	-0.0024272329	-0.019287768	-0.0099154576	-0.0068033144	-0.0067676	0	933.9309667302524
0.14454398	9.1201084e-6	0.36	0.78142158	0.22925083	-0.002426751	-0.019301398	-0.0096373426	-0.0067278784	-0.0066926102	0	934.025490105028
0.14454398	0.00001	0.36	0.80580348	0.22640482	-0.0024262551	-0.019315464	-0.0093505532	-0.0066500886	-0.0066152582	0	934.1229606933605
0.14454398	0.000010964782	0.36	0.83094397	0.22361174	-0.0024257446	-0.019329979	-0.0090548197	-0.0065698716	-0.0065354709	0	934.2234702832681
0.14454398	0.000012022644	0.36	0.85686681	0.22086995	-0.0024252191	-0.019344956	-0.0087498631	-0.006487152	-0.0064531731	0	934.3271136205205
0.14454398	0.000013182567	0.36	0.88359645	0.21817787	-0.0024246782	-0.01936041	-0.0084353961	-0.0064018519	-0.0063682872	0	934.4339882583089
0.14454398	0.000014454398	0.36	0.91115812	0.21553398	-0.0024241213	-0.019376356	-0.0081111227	-0.006313891	-0.006280733	0	934.5441948804564
0.14454398	0.000015848932	0.36	0.93957786	0.2129368	-0.0024235479	-0.019392808	-0.0077767368	-0.0062231864	-0.006190428	0	934.6578374930887
0.14454398	0.000017378008	0.36	0.96888249	0.2103849	-0.0024229574	-0.019409783	-0.0074319238	-0.0061296528	-0.0060972869	0	934.7750230713586
0.14454398	0.000019054607	0.36	0.9990997	0.20787689	-0.0024223493	-0.019427296	-0.0070763583	-0.006033202	-0.006001222	0	934.8958621494919
0.14454398	0.000020892961	0.36	1.030258	0.20541142	-0.0024217231	-0.019445364	-0.0067097054	-0.0059337432	-0.0059021425	0	935.0204684750281
0.14454398	0.000022908677	0.36	1.0623869	0.2029872	-0.002421078	-0.019464004	-0.0063316194	-0.0058311827	-0.0057999549	0	935.1489597304067
0.14454398	0.000025118864	0.36	1.0955168	0.20060296	-0.0024204136	-0.019483233	-0.0059417439	-0.0057254239	-0.0056945629	0	935.2814568414462
0.14454398	0.000027542287	0.36	1.1296789	0.19825748	-0.002419729	-0.01950307	-0.0055397111	-0.0056163671	-0.0055858669	0	935.4180850597245
0.14454398	0.000030199517	0.36	1.1649055	0.19594957	-0.0024190238	-0.019523533	-0.0051251423	-0.0055039095	-0.0054737644	0	935.5589728538907
0.14454398	0.000033113112	0.36	1.2012301	0.19367809	-0.0024182972	-0.019544641	-0.0046976461	-0.0053879452	-0.0053581495	0	935.7042533641138
0.14454398	0.000036307805	0.36	1.2386868	0.19144194	-0.0024175484	-0.019566414	-0.0042568196	-0.005268365	-0.0052389133	0	935.8540636203622
0.14454398	0.000039810717	0.36	1.2773112	0.18924008	-0.0024167767	-0.019588872	-0.003802247	-0.0051450559	-0.005115943	0	936.0085449219898
0.14454398	0.000043651583	0.36	1.3171397	0.18707176	-0.0024159813	-0.019612037	-0.0033334999	-0.0050179019	-0.0049891226	0	936.1678429241754
0.14454398	0.000047863009	0.36	1.3582087	0.18493739	-0.0024151612	-0.019635934	-0.0028501407	-0.0048867831	-0.0048583321	0	936.3321065818513
0.14454398	0.000052480746	0.36	1.4005465	0.18284106	-0.0024143141	-0.019660622	-0.0023517498	-0.0047515763	-0.0047234478	0	936.5014799830018
0.14454398	0.000057543994	0.36	1.444104	0.18077078	-0.0024134264	-0.019686435	-0.0018381674	-0.0046121582	-0.0045843482	0	936.6760299570304
0.14454398	0.000063095734	0.36	1.4881691	0.17818282	-0.00241239	-0.019716018	-0.0013115307	-0.0044684321	-0.0044410202	0	936.8551351768882
0.14454398	0.000069183097	0.36	1.5288606	0.16976636	-0.002410482	-0.019763668	-0.00078561265	-0.0043205025	-0.0042943854	0	937.0348162431949
0.14454398	0.000075857758	0.36	1.5657547	0.15042294	-0.0024058737	-0.019837568	-0.00026805479	-0.0041688406	-0.0041456993	0	937.2142066376728
0.14454398	0.000083176377	0.36	1.6088044	0.13642125	-0.0023983401	-0.019909079	0.00027033802	-0.0040133042	-0.003992317	0	937.403392829621
0.14454398	0.000091201084	0.36	1.657382	0.13055085	-0.0023893607	-0.019974726	0.00083361807	-0.0038532462	-0.0038331621	0	937.6023553929624
0.14454398	0.0001	0.36	1.708738	0.12787381	-0.0023797841	-0.020039789	0.0014170958	-0.003688277	-0.0036686048	0	937.8087107992308
0.14454398	0.00010964782	0.36	1.7619874	0.12610131	-0.0023698468	-0.020106233	0.0020194188	-0.0035181778	-0.0034987782	0	938.0217793972944
0.14454398	0.00012022644	0.36	1.8169607	0.12456572	-0.0023595947	-0.020174575	0.0026406999	-0.0033427738	-0.0033236105	0	938.2415562251201
0.14454398	0.00013182567	0.36	1.8736641	0.1231003	-0.0023490299	-0.020244973	0.0032814312	-0.0031618964	-0.0031429585	0	938.4682057592604
0.14454398	0.00014454398	0.36	1.9321427	0.12166664	-0.0023381451	-0.020317508	0.0039422029	-0.002975374	-0.0029566566	0	938.7019344898713
0.14454398	0.00015848932	0.36	1.9924506	0.12025614	-0.0023269311	-0.020392246	0.0046236393	-0.0027830298	-0.0027645294	0	938.9429622263867
0.14454398	0.00017378008	0.36	2.0546451	0.11886656	-0.0023153779	-0.020469252	0.0053263887	-0.0025846817	-0.0025663951	0	939.1915176477387
0.14454398	0.00019054607	0.36	2.1187858	0.11749698	-0.0023034752	-0.020548591	0.0060511204	-0.002380142	-0.0023620661	0	939.447836817842
0.14454398	0.00020892961	0.36	2.184934	0.11614675	-0.0022912127	-0.020630331	0.006798525	-0.0021692169	-0.0021513487	0	939.712163005199
0.14454398	0.00022908677	0.36	2.2531534	0.11481526	-0.0022785794	-0.020714541	0.0075693155	-0.0019517063	-0.001934043	0	939.9847477126627
0.14454398	0.00025118864	0.36	2.3235093	0.11350193	-0.0022655642	-0.020801291	0.0083642271	-0.0017274043	-0.001709943	0	940.2658500460482
0.14454398	0.00027542287	0.36	2.3960694	0.11220619	-0.0022521557	-0.020890653	0.0091840193	-0.0014960979	-0.001478836	0	940.5557376123589
0.14454398	0.00030199517	0.36	2.4709036	0.11092749	-0.0022383422	-0.0209827	0.010029476	-0.0012575678	-0.0012405025	0	940.8546865536096
0.14454398	0.00033113112	0.36	2.5480839	0.10966531	-0.0022241115	-0.021077507	0.010901405	-0.0010115874	-0.00099471636	0	941.1629815656174
0.14454398	0.00036307805	0.36	2.627685	0.10841912	-0.0022094514	-0.021175151	0.011800642	-0.00075792321	-0.00074124386	0	941.4809167811948
0.14454398	0.00039810717	0.36	2.7097837	0.10718843	-0.0021943492	-0.02127571	0.012728048	-0.0004963341	-0.00047984409	0	941.808795360497
0.14454398	0.00043651583	0.36	2.7944596	0.10597274	-0.0021787917	-0.021379262	0.013684514	-0.00022657141	-0.00021026843	0	942.1469310807687
0.14454398	0.00047863009	0.36	2.8817947	0.10477158	-0.0021627657	-0.021485889	0.014670957	0.000051621524	0.000067739723	0	942.4956465135858
0.14454398	0.00052480746	0.36	2.9718739	0.10358449	-0.0021462574	-0.021595673	0.015688326	0.00033850948	0.00035444505	0	942.8552756180563
0.14454398	0.00057543994	0.36	3.0647849	0.102411	-0.0021292528	-0.021708696	0.016737601	0.00063436581	0.00065012085	0	943.2261630267507
0.14454398	0.00063095734	0.36	3.1606183	0.10125068	-0.0021117376	-0.021825043	0.017819793	0.00093947243	0.00095504897	0	943.6086641396579
0.14454398	0.00069183097	0.36	3.2594677	0.1001031	-0.002093697	-0.0219448	0.018935946	0.0012541204	0.0012695204	0	944.0031459885867
0.14454398	0.00075857758	0.36	3.3614301	0.098967842	-0.002075116	-0.022068052	0.020087139	0.0015786102	0.0015938356	0	944.4099876317814
0.14454398	0.00083176377	0.36	3.4666054	0.09784449	-0.0020559791	-0.022194886	0.021274486	0.0019132518	0.0019283043	0	944.8295804357933
0.14454398	0.00091201084	0.36	3.5750974	0.09673264	-0.0020362706	-0.022325391	0.02249914	0.0022583652	0.0022732466	0	945.2623291465839
0.14454398	0.001	0.36	3.6870128	0.095631903	-0.0020159744	-0.022459653	0.023762287	0.0026142806	0.0026289927	0	945.7086500479768
0.14454398	0.0010964782	0.36	3.8024627	0.094541922	-0.0019950741	-0.022597761	0.025065161	0.0029813392	0.0029958837	0	946.1689759413553
0.14454398	0.0012022644	0.36	3.9215224	0.093468253	-0.0019735744	-0.022739862	0.02640897	0.0033598924	0.0033742717	0	946.6437110089412
0.14454398	0.0013182567	0.36	4.0358328	0.089147579	-0.0019610589	-0.022885118	0.027795952	0.0037500586	0.0037637731	0	947.1246078212578
0.14454398	0.0014454398	0.36	4.1603373	0.086866533	-0.0019789151	-0.022931807	0.029329276	0.0041516861	0.0041650498	0	947.6264676707153
0.14454398	0.0015848932	0.36	4.2908061	0.08590427	-0.0019985556	-0.022970276	0.030920084	0.0045658758	0.0045790914	0	948.1460946445677
0.14454398	0.0017378008	0.36	4.4254117	0.084975849	-0.0020187167	-0.023009779	0.032560656	0.0049930567	0.0050061295	0	948.6820648315268
0.14454398	0.0019054607	0.36	4.5642671	0.084106136	-0.0020394579	-0.023050259	0.034252633	0.0054336403	0.0054465793	0	949.23487738508
0.14454398	0.0020892961	0.36	4.7074339	0.083340172	-0.0020609911	-0.023091412	0.035997953	0.0058880468	0.0059008679	0	949.8049887272839
0.14454398	0.0022908677	0.36	4.8548405	0.082621918	-0.0020840387	-0.023131959	0.037799579	0.0063566964	0.0063694071	0	950.3927223316966
0.14454398	0.0025118864	0.36	5.0065426	0.081529512	-0.0021102301	-0.023167795	0.039663351	0.0068400033	0.0068525459	0	950.9985226127287
0.14454398	0.0027542287	0.36	5.1633222	0.080115228	-0.0021404171	-0.023194768	0.041595213	0.0073384227	0.0073507477	0	951.6235997681335
0.14454398	0.0030199517	0.36	5.3254701	0.079030858	-0.0021732399	-0.023216194	0.043593696	0.0078524763	0.0078646345	0	952.2687345391346
0.14454398	0.0033113112	0.36	5.4924441	0.078359259	-0.0022083261	-0.023235212	0.045657564	0.008382668	0.0083947229	0	952.9338587508701
0.14454398	0.0036307805	0.36	5.6636956	0.077348261	-0.0022487163	-0.023245753	0.04779485	0.0089294342	0.0089413336	0	953.6188326711808
0.14454398	0.0039810717	0.36	5.8411161	0.075921005	-0.0022966634	-0.023236605	0.050018789	0.0094932728	0.0095049526	0	954.3260162063567
0.14454398	0.0043651583	0.36	6.024413	0.07524904	-0.0023490778	-0.023217563	0.052321676	0.010074811	0.010086387	0	955.0557060711352
0.14454398	0.0047863009	0.36	6.2112246	0.074186896	-0.0024101921	-0.023184772	0.054709517	0.010674492	0.010685905	0	955.8059569518332
0.14454398	0.0052480746	0.36	6.405704	0.072764483	-0.0024848087	-0.023113414	0.057209353	0.011292827	0.011304021	0	956.5814031230001
0.14454398	0.0057543994	0.36	6.6037041	0.072440527	-0.0025687941	-0.023027665	0.059799293	0.011930485	0.011941629	0	957.3785237889826
0.14454398	0.0063095734	0.36	6.8042061	0.071283907	-0.0026795566	-0.022884008	0.062525216	0.012587656	0.012598622	0	958.1964809890278
0.14454398	0.0069183097	0.36	6.9934469	0.069760185	-0.0028558047	-0.022620007	0.065451994	0.013263634	0.013274366	0	959.0208480918036
0.14454398	0.0075857758	0.36	7.2005667	0.066009248	-0.0030388477	-0.022312808	0.068504989	0.013959227	0.013969382	0	959.8815230251041
0.14454398	0.0083176377	0.36	7.411111	0.065383356	-0.0032371515	-0.021981141	0.07166806	0.014675542	0.014685601	0	960.7650919338789
0.14454398	0.0091201084	0.36	7.5952564	0.055228893	-0.003410718	-0.021832149	0.074736733	0.015410708	0.015419204	0	961.6399736402191
0.14454398	0.01	0.36	7.8179618	0.052928059	-0.0035280256	-0.021760815	0.077818777	0.016165906	0.016174048	0	962.5722369138147
0.14454398	0.010964782	0.36	8.0508145	0.052461456	-0.0036483655	-0.021682047	0.081002122	0.01694374	0.016951811	0	963.5359155508266
0.14454398	0.012022644	0.36	8.2979948	0.050047392	-0.0037599925	-0.021617164	0.084268376	0.017744885	0.017752584	0	964.5358239592739
0.14454398	0.013182567	0.36	8.5547015	0.048928031	-0.00386936	-0.021561235	0.087625487	0.018570859	0.018578386	0	965.5685871076711
0.14454398	0.014454398	0.36	8.8240749	0.047257781	-0.0039618326	-0.021546271	0.091044555	0.019422551	0.019429821	0	966.6381806728405
0.14454398	0.015848932	0.36	9.0887441	0.047728674	-0.0040571777	-0.021569423	0.094531641	0.020300864	0.020308206	0	967.7280819846934
0.14454398	0.017378008	0.36	9.3605817	0.042150661	-0.0041205688	-0.021699209	0.098021532	0.02120451	0.021210995	0	968.8489549408307
0.14454398	0.019054607	0.36	9.6672865	0.041360296	-0.0041043923	-0.021979543	0.10147373	0.022137045	0.022143408	0	970.0318374436852
0.14454398	0.020892961	0.36	9.9852329	0.040806303	-0.0040868971	-0.022261625	0.10504055	0.023100198	0.023106476	0	971.2547291008038
0.14454398	0.022908677	0.36	10.314705	0.040282703	-0.004067823	-0.022545882	0.10872519	0.02409508	0.024101277	0	972.5189560898868
0.14454398	0.025118864	0.36	10.656205	0.039763461	-0.0040469268	-0.02283204	0.11253168	0.025122844	0.025128961	0	973.8261100346373
0.14454398	0.027542287	0.36	11.010275	0.039242331	-0.0040240173	-0.023119537	0.11646442	0.026184697	0.026190734	0	975.1778588514643
0.14454398	0.030199517	0.36	11.377492	0.038717162	-0.0039988969	-0.023407694	0.12052808	0.027281897	0.027287853	0	976.5759677957476
0.14454398	0.033113112	0.36	11.75847	0.038186491	-0.0039713529	-0.023695726	0.12472754	0.028415764	0.028421639	0	978.0222873414441
0.14454398	0.036307805	0.36	12.153861	0.037648801	-0.0039411502	-0.023982755	0.12906792	0.029587679	0.029593471	0	979.5187701872203
0.14454398	0.039810717	0.36	12.564359	0.037102333	-0.0039080324	-0.024267784	0.13355456	0.030799087	0.030804795	0	981.0674634580612
0.14454398	0.043651583	0.36	12.990704	0.03654498	-0.003871718	-0.024549692	0.1381931	0.032051506	0.032057128	0	982.6705393350994
0.14454398	0.047863009	0.36	13.433684	0.035974177	-0.0038318981	-0.024827221	0.14298942	0.033346528	0.033352062	0	984.330276922004
0.14454398	0.052480746	0.36	13.894142	0.035386747	-0.0037882333	-0.025098969	0.14794971	0.034685823	0.034691267	0	986.0490888346812
0.14454398	0.057543994	0.36	14.372976	0.034778683	-0.003740352	-0.025363357	0.15308048	0.036071149	0.036076499	0	987.8295261809692
0.14454398	0.063095734	0.36	14.871149	0.034144823	-0.0036878456	-0.025618631	0.15838858	0.037504353	0.037509606	0	989.674289835423
0.14454398	0.069183097	0.36	14.573572	0.032295537	-0.0044668249	-0.02595507	0.16378896	0.038986228	0.038991197	0	990.7690314497156
0.14454398	0.075857758	0.36	13.538815	0.029456505	-0.0059736934	-0.026871663	0.16878805	0.040380346	0.040384877	0	991.0441398485005
0.14454398	0.083176377	0.36	12.595105	0.026867277	-0.0073479738	-0.028412557	0.17334727	0.041651796	0.041655929	0	991.2950402520862
0.14454398	0.091201084	0.36	11.734431	0.024505873	-0.0086013324	-0.030544798	0.17750533	0.042811372	0.042815142	0	991.5238648161212
0.14454398	0.1	0.36	12.359248	0.022574638	-0.0085545687	-0.032128897	0.18240764	0.043957963	0.043961436	0	993.2259769882241
0.14454398	0.10964782	0.36	13.780825	0.020856874	-0.0077229097	-0.033372036	0.18785315	0.04523699	0.045240198	0	995.8492834709081
0.14454398	0.12022644	0.36	15.496042	0.019245789	-0.0064794325	-0.034673585	0.19344878	0.04666935	0.04667231	0	998.9102971829344
0.14454398	0.13182567	0.36	17.562194	0.017737494	-0.0047227014	-0.036064993	0.19916958	0.04828652	0.048289249	0	1002.4958844173027
0.14454398	0.14454398	0.36	20.053467	0.01632865	-0.0023257414	-0.037581132	0.2049874	0.050126378	0.05012889	0	1006.7158249290717
0.14454398	0.15848932	0.36	23.066918	0.015016471	0.00087168084	-0.039258679	0.21087246	0.05223514	0.05223745	0	1011.7105955202168
0.14454398	0.17378008	0.36	26.728889	0.013798697	0.0050717364	-0.041134169	0.21679536	0.054669923	0.054672046	0	1017.6602047726129
0.14454398	0.19054607	0.36	31.20059	0.012673539	0.010526781	-0.043241636	0.22272942	0.057501899	0.057503849	0	1024.7927330393732
0.14454398	0.20892961	0.36	36.680733	0.011639569	0.017544687	-0.045609677	0.22865361	0.060819879	0.060821669	0	1033.3903332608243
0.14454398	0.22908677	0.36	43.402218	0.010695512	0.026487602	-0.048257888	0.23455617	0.06473389	0.064735535	0	1043.7892890296462
0.14454398	0.25118864	0.36	51.619454	0.0098399489	0.037759861	-0.051192942	0.24043847	0.069377992	0.069379506	0	1056.3699628952616
0.14454398	0.27542287	0.36	61.583975	0.0090709095	0.051781778	-0.054405084	0.24631859	0.074911294	0.07491269	0	1071.5333827711406
0.14454398	0.30199517	0.36	73.509467	0.0083854419	0.068949878	-0.057866398	0.252233	0.081516021	0.081517311	0	1089.6644455490853
0.14454398	0.33113112	0.36	87.532909	0.0077792626	0.08959043	-0.061532285	0.25823515	0.089391891	0.089393087	0	1111.0877813927393
0.14454398	0.36307805	0.36	103.68341	0.0072466327	0.11391902	-0.06534674	0.26439016	0.098746953	0.098748067	0	1136.0279738560612
0.14454398	0.39810717	0.36	121.87035	0.0067805415	0.1420195	-0.069250444	0.27076674	0.10978624	0.10978728	0	1164.5870480854503
0.14454398	0.43651583	0.36	141.8957	0.0063731632	0.1738488	-0.073189262	0.27742872	0.12270044	0.12270142	0	1196.7461270855467
0.14454398	0.47863009	0.36	163.48552	0.0060164443	0.2092637	-0.077120583	0.2844287	0.13765681	0.13765773	0	1232.388437916391
0.14454398	0.52480746	0.36	186.32941	0.0057026513	0.24805823	-0.081016189	0.29180521	0.15479363	0.15479451	0	1271.3334908259012
0.14454398	0.57543994	0.36	210.11654	0.0054247627	0.29000021	-0.084861872	0.29958307	0.17421848	0.17421931	0	1313.3715327354282
0.14454398	0.63095734	0.36	234.56178	0.005176673	0.33485949	-0.088654993	0.30777588	0.19600956	0.19601035	0	1358.2909227916243
0.14454398	0.69183097	0.36	259.42067	0.0049532404	0.38242603	-0.092401302	0.31638919	0.22021903	0.22021979	0	1405.8961919399444
0.14454398	0.75857758	0.36	284.495	0.0047502299	0.43251915	-0.096111907	0.32542355	0.24687736	0.24687809	0	1456.0177655468897
0.14454398	0.83176377	0.36	309.63213	0.0045642048	0.48499038	-0.09980086	0.33487692	0.2759978	0.27599851	0	1508.5154563281526
0.14454398	0.91201084	0.36	334.72076	0.0043924	0.5397227	-0.10348342	0.34474641	0.30758077	0.30758144	0	1563.2783388226867
0.14454398	1.	0.36	359.68522	0.0042326007	0.59662776	-0.10717493	0.35502948	0.34161751	0.34161816	0	1620.2225432932623
0.14454398	1.0964782	0.36	384.47938	0.0040830345	0.65564239	-0.11089016	0.36572451	0.37809338	0.37809401	0	1679.288169442209
0.14454398	1.2022644	0.36	409.08102	0.0039422805	0.71672509	-0.11464297	0.37683125	0.41699043	0.41699104	0	1740.436140746619
0.14454398	1.3182567	0.36	433.48687	0.0038091959	0.77985275	-0.11844614	0.38835089	0.45828949	0.45829008	0	1803.6451463610506
0.14454398	1.4454398	0.36	457.70836	0.0036828571	0.84501784	-0.12231143	0.40028614	0.50197182	0.50197238	0	1868.9090279983739
0.14454398	1.5848932	0.36	481.76819	0.0035625129	0.91222601	-0.12624959	0.41264115	0.54802037	0.54802092	0	1936.2344979134482
0.14454398	1.7378008	0.36	505.69757	0.0034475486	0.98149408	-0.13027047	0.4254214	0.59642077	0.5964213	0	2005.6392131699843
0.14454398	1.9054607	0.36	529.53391	0.0033374572	1.0528485	-0.13438316	0.43863365	0.64716204	0.64716255	0	2077.150311797725
0.14454398	2.0892961	0.36	553.31912	0.003231817	1.1263238	-0.13859608	0.45228583	0.70023705	0.70023755	0	2150.8029192593663
0.14454398	2.2908677	0.36	577.09822	0.0031302747	1.201962	-0.14291707	0.46638692	0.755643	0.75564349	0	2226.63955351778
0.14454398	2.5118864	0.36	600.91826	0.0030325311	1.2798112	-0.14735353	0.48094689	0.81338158	0.81338205	0	2304.708779954254
0.14454398	2.7542287	0.36	624.82752	0.0029383311	1.3599252	-0.15191248	0.49597663	0.87345916	0.87345961	0	2385.0648306566172
0.14454398	3.0199517	0.36	648.87491	0.0028474547	1.442363	-0.15660063	0.51148789	0.93588687	0.93588731	0	2467.76711434195
0.14454398	3.3113112	0.36	673.10946	0.0027597107	1.5271883	-0.16142447	0.52749323	1.0006807	1.0006811	0	2552.879729661734
0.14454398	3.6307805	0.36	697.58007	0.0026749312	1.6144689	-0.16639031	0.54400595	1.0678613	1.0678617	0	2640.470877785595
0.14454398	3.9810717	0.36	722.33519	0.0025929674	1.704277	-0.17150435	0.56104013	1.1374543	1.1374547	0	2730.6131578006484
0.14454398	4.3651583	0.36	747.42272	0.0025136866	1.7966884	-0.1767727	0.57861052	1.2094898	1.2094902	0	2823.3827778524337
0.14454398	4.7863009	0.36	772.88989	0.002436969	1.8917828	-0.18220141	0.59673258	1.2840029	1.2840033	0	2918.859850544257
0.14454398	5.2480746	0.36	798.78323	0.0023627057	1.9896434	-0.18779656	0.61542247	1.3610329	1.3610333	0	3017.1280137286194
0.14454398	5.7543994	0.36	825.14854	0.0022907973	2.0903568	-0.19356423	0.63469698	1.440624	1.4406244	0	3118.274312873631
0.14454398	6.3095734	0.36	852.03091	0.0022211519	2.1940133	-0.19951053	0.6545736	1.5228246	1.522825	0	3222.3895066096684
0.14454398	6.9183097	0.36	879.47476	0.0021536844	2.3007065	-0.20564167	0.67507047	1.6076876	1.6076879	0	3329.5676739910523
0.14454398	7.5857758	0.36	907.52391	0.0020883154	2.4105334	-0.21196392	0.69620642	1.6952701	1.6952705	0	3439.9063219823265
0.14454398	8.3176377	0.36	936.22161	0.0020249705	2.5235945	-0.21848367	0.71800094	1.7856337	1.785634	0	3553.5064692674896
0.14454398	9.1201084	0.36	965.61065	0.0019635795	2.6399938	-0.22520744	0.7404742	1.878844	1.8788443	0	3670.472653014859
0.14454398	10.	0.36	995.73341	0.0019040761	2.7598388	-0.23214188	0.76364708	1.9749708	1.9749711	0	3790.9129390243834