0.10964782	1.e-12	0.04	4.8728136	211.62639	-0.0019632396	-0.020627486	-0.020626699	-0.0079745499	0.016722372	0	936.9455528314809
0.10964782	1.0964782e-12	0.04	4.4523162	194.38337	-0.0019524911	-0.020666287	-0.020665424	-0.0075178058	0.015166846	0	936.9541963629183
0.10964782	1.2022644e-12	0.04	4.0688183	178.65064	-0.0019417426	-0.020705088	-0.020704142	-0.0071004409	0.013748192	0	936.9628401574339
0.10964782	1.3182567e-12	0.04	3.7190644	164.29529	-0.0019309941	-0.020743891	-0.020742853	-0.00671899	0.012454365	0	936.9714842150278
0.10964782	1.4454398e-12	0.04	3.4000853	151.19614	-0.0019202456	-0.020782694	-0.020781556	-0.0063702931	0.011274384	0	936.9801285732825
0.10964782	1.5848932e-12	0.04	3.1091732	139.24265	-0.001909497	-0.020821498	-0.020820251	-0.0060514683	0.01019823	0	936.9887733261548
0.10964782	1.7378008e-12	0.04	2.8438585	128.33403	-0.0018987485	-0.020860304	-0.020858936	-0.005759887	0.0092167684	0	936.9974183608966
0.10964782	1.9054607e-12	0.04	2.601889	118.37833	-0.001888	-0.02089911	-0.02089761	-0.005493152	0.0083216676	0	937.0060638090474
0.10964782	2.0892961e-12	0.04	2.3812107	109.29171	-0.0018772515	-0.020937918	-0.020936273	-0.0052490772	0.0075053291	0	937.0147096706069
0.10964782	2.2908677e-12	0.04	2.1799501	100.99771	-0.001866503	-0.020976727	-0.020974923	-0.0050256686	0.0067608228	0	937.0233560207402
0.10964782	2.5118864e-12	0.04	1.9963987	93.426583	-0.0018557544	-0.021015536	-0.021013559	-0.0048211078	0.0060818286	0	937.0320029909867
0.10964782	2.7542287e-12	0.04	1.8289985	86.514729	-0.0018450059	-0.021054348	-0.02105218	-0.0046337363	0.0054625826	0	937.0406504310158
0.10964782	3.0199517e-12	0.04	1.6763283	80.20414	-0.0018342574	-0.02109316	-0.021090783	-0.0044620417	0.0048978279	0	937.0492985475321
0.10964782	3.3113112e-12	0.04	1.5370921	74.441917	-0.0018235089	-0.021131973	-0.021129367	-0.0043046444	0.0043827704	0	937.0579473781179
0.10964782	3.6307805e-12	0.04	1.4101079	69.17981	-0.0018127604	-0.021170788	-0.021167931	-0.0041602863	0.0039130376	0	937.0665969603562
0.10964782	3.9810717e-12	0.04	1.2942978	64.373822	-0.0018020118	-0.021209605	-0.021206471	-0.0040278202	0.0034846421	0	937.0752475385336
0.10964782	4.3651583e-12	0.04	1.1886786	59.98382	-0.0017912633	-0.021248422	-0.021244987	-0.0039061994	0.0030939471	0	937.0838989247372
0.10964782	4.7863009e-12	0.04	1.0923537	55.973209	-0.0017805148	-0.021287241	-0.021283474	-0.0037944698	0.0027376361	0	937.0925514008368
0.10964782	5.2480746e-12	0.04	1.0045055	52.30861	-0.0017697663	-0.021326062	-0.021321932	-0.0036917607	0.0024126843	0	937.101204966832
0.10964782	5.7543994e-12	0.04	0.92438816	48.959584	-0.0017590178	-0.021364884	-0.021360356	-0.0035972786	0.0021163332	0	937.1098598106362
0.10964782	6.3095734e-12	0.04	0.8513216	45.89837	-0.0017482692	-0.021403708	-0.021398743	-0.0035102992	0.0018460671	0	937.1185161389535
0.10964782	6.9183097e-12	0.04	0.78468558	43.09965	-0.0017375207	-0.021442533	-0.021437089	-0.0034301624	0.0015995918	0	937.1271739142015
0.10964782	7.5857758e-12	0.04	0.72391439	40.540335	-0.0017267722	-0.02148136	-0.021475391	-0.0033562658	0.0013748147	0	937.1358333430846
0.10964782	8.3176377e-12	0.04	0.66849216	38.199367	-0.0017160237	-0.021520189	-0.021513645	-0.0032880603	0.0011698279	0	937.144494575933
0.10964782	9.1201084e-12	0.04	0.61794841	36.057543	-0.0017052751	-0.021559019	-0.021551845	-0.003225045	0.00098289114	0	937.1531579321994
0.10964782	1.e-11	0.04	0.57185408	34.09735	-0.0016945266	-0.021597852	-0.021589986	-0.0031667629	0.0008124176	0	937.1618234118832
0.10964782	1.0964782e-11	0.04	0.52981786	32.302817	-0.0016837781	-0.021636686	-0.021628063	-0.0031127974	0.00065696004	0	937.1704912968544
0.10964782	1.2022644e-11	0.04	0.49148291	30.659378	-0.0016730296	-0.021675522	-0.021666069	-0.0030627684	0.00051519881	0	937.1791618501911
0.10964782	1.3182567e-11	0.04	0.45652381	29.153752	-0.001662281	-0.02171436	-0.021703997	-0.0030163292	0.00038593045	0	937.1878354289283
0.10964782	1.4454398e-11	0.04	0.42464378	27.773825	-0.0016515325	-0.021753201	-0.021741841	-0.0029731638	0.00026805759	0	937.1965120706486
0.10964782	1.5848932e-11	0.04	0.3955722	26.508552	-0.001640784	-0.021792043	-0.021779591	-0.0029329838	0.00016057954	0	937.2051922451346
0.10964782	1.7378008e-11	0.04	0.36906227	25.347861	-0.0016300355	-0.021830888	-0.021817239	-0.0028955261	0.000062583893	0	937.2138762530474
0.10964782	1.9054607e-11	0.04	0.34488892	24.282566	-0.001619287	-0.021869735	-0.021854776	-0.0028605509	-0.000026761362	0	937.2225644326301
0.10964782	2.0892961e-11	0.04	0.32284695	23.304292	-0.0016085384	-0.021908584	-0.021892191	-0.0028278392	-0.00010821476	0	937.2312572912483
0.10964782	2.2908677e-11	0.04	0.30274922	22.405404	-0.0015977899	-0.021947436	-0.021929473	-0.0027971915	-0.00018246792	0	937.2399550543976
0.10964782	2.5118864e-11	0.04	0.28442509	21.578936	-0.0015870414	-0.02198629	-0.02196661	-0.0027684256	-0.00025015136	0	937.248658267026
0.10964782	2.7542287e-11	0.04	0.26771898	20.81854	-0.0015762929	-0.022025147	-0.022003588	-0.0027413756	-0.00031183993	0	937.2573674552898
0.10964782	3.0199517e-11	0.04	0.25248901	20.118427	-0.0015655443	-0.022064006	-0.022040394	-0.0027158897	-0.00036805763	0	937.2660832017201
0.10964782	3.3113112e-11	0.04	0.23860585	19.473319	-0.0015547958	-0.022102869	-0.022077012	-0.0026918298	-0.00041928217	0	937.274805919725
0.10964782	3.6307805e-11	0.04	0.22595155	18.878404	-0.0015440473	-0.022141734	-0.022113428	-0.0026690696	-0.00046594897	0	937.283536229418
0.10964782	3.9810717e-11	0.04	0.21441858	18.329293	-0.0015332987	-0.022180602	-0.022149624	-0.0026474941	-0.00050845495	0	937.2922749012429
0.10964782	4.3651583e-11	0.04	0.20390889	17.821988	-0.0015225502	-0.022219473	-0.022185583	-0.0026269982	-0.00054716196	0	937.3010223861903
0.10964782	4.7863009e-11	0.04	0.1943331	17.352839	-0.0015118017	-0.022258347	-0.022221287	-0.0026074862	-0.00058239985	0	937.3097794547045
0.10964782	5.2480746e-11	0.04	0.18560968	16.918519	-0.0015010532	-0.022297224	-0.022256719	-0.0025888704	-0.00061446937	0	937.3185467456898
0.10964782	5.7543994e-11	0.04	0.17766428	16.515995	-0.0014903046	-0.022336105	-0.022291859	-0.002571071	-0.00064364482	0	937.3273251047548
0.10964782	6.3095734e-11	0.04	0.17042909	16.142497	-0.0014795561	-0.022374989	-0.02232669	-0.0025540151	-0.00067017642	0	937.3361149828911
0.10964782	6.9183097e-11	0.04	0.16384222	15.795497	-0.0014688076	-0.022413876	-0.022361196	-0.0025376363	-0.00069429265	0	937.344917075377
0.10964782	7.5857758e-11	0.04	0.1578472	15.472687	-0.001458059	-0.022452767	-0.022395359	-0.0025218737	-0.00071620212	0	937.3537321526559
0.10964782	8.3176377e-11	0.04	0.15239245	15.171957	-0.0014473105	-0.022491662	-0.022429168	-0.0025066718	-0.00073609563	0	937.3625604402237
0.10964782	9.1201084e-11	0.04	0.14743083	14.891378	-0.001436562	-0.022530561	-0.022462609	-0.0024919802	-0.00075414776	0	937.3714025581934
0.10964782	1.e-10	0.04	0.14291925	14.629181	-0.0014258134	-0.022569464	-0.022495675	-0.0024777525	-0.00077051859	0	937.3802588635998
0.10964782	1.0964782e-10	0.04	0.13881827	14.383748	-0.0014150649	-0.02260837	-0.022528362	-0.0024639467	-0.00078535493	0	937.3891293188605
0.10964782	1.2022644e-10	0.04	0.13509178	14.153593	-0.0014043163	-0.022647282	-0.022560669	-0.0024505242	-0.00079879172	0	937.3980141494709
0.10964782	1.3182567e-10	0.04	0.13170669	13.937351	-0.0013935678	-0.022686197	-0.022592599	-0.0024374501	-0.00081095313	0	937.4069130547705
0.10964782	1.4454398e-10	0.04	0.12863267	13.733769	-0.0013828192	-0.022725117	-0.022624161	-0.0024246923	-0.00082195346	0	937.4158258844283
0.10964782	1.5848932e-10	0.04	0.1258419	13.541695	-0.0013720707	-0.022764041	-0.022655368	-0.0024122217	-0.00083189806	0	937.4247519619577
0.10964782	1.7378008e-10	0.04	0.12330887	13.360071	-0.0013613221	-0.022802971	-0.022686235	-0.0024000119	-0.00084088391	0	937.4336909115324
0.10964782	1.9054607e-10	0.04	0.12101019	13.187924	-0.0013505736	-0.022841905	-0.022716782	-0.0023880387	-0.0008490003	0	937.442641793587
0.10964782	2.0892961e-10	0.04	0.11892448	13.024365	-0.001339825	-0.022880844	-0.022747031	-0.0023762802	-0.00085632924	0	937.4516039692171
0.10964782	2.2908677e-10	0.04	0.11703212	12.868579	-0.0013290765	-0.022919789	-0.022777006	-0.0023647166	-0.00086294596	0	937.4605763485268
0.10964782	2.5118864e-10	0.04	0.11531525	12.71982	-0.0013183279	-0.022958739	-0.022806731	-0.0023533297	-0.00086891932	0	937.4695582174469
0.10964782	2.7542287e-10	0.04	0.11375754	12.577411	-0.0013075793	-0.022997694	-0.022836231	-0.0023421032	-0.00087431205	0	937.4785485424547
0.10964782	3.0199517e-10	0.04	0.11234414	12.440735	-0.0012968308	-0.023036655	-0.022865528	-0.0023310222	-0.00087918129	0	937.487546402777
0.10964782	3.3113112e-10	0.04	0.11106154	12.309232	-0.0012860822	-0.023075623	-0.022894647	-0.0023200733	-0.00088357877	0	937.4965510467609
0.10964782	3.6307805e-10	0.04	0.10989748	12.182397	-0.0012753336	-0.023114596	-0.022923606	-0.0023092441	-0.00088755138	0	937.5055617039632
0.10964782	3.9810717e-10	0.04	0.10884085	12.059772	-0.001264585	-0.023153576	-0.022952427	-0.0022985238	-0.00089114138	0	937.5145775475661
0.10964782	4.3651583e-10	0.04	0.10788159	11.940946	-0.0012538364	-0.023192562	-0.022981125	-0.0022879021	-0.00089438684	0	937.5235980138305
0.10964782	4.7863009e-10	0.04	0.1070106	11.825547	-0.0012430878	-0.023231555	-0.023009715	-0.0022773701	-0.00089732199	0	937.5326225390172
0.10964782	5.2480746e-10	0.04	0.10621964	11.71324	-0.0012323392	-0.023270554	-0.023038211	-0.0022669195	-0.00089997759	0	937.5416505969697
0.10964782	5.7543994e-10	0.04	0.10550128	11.603727	-0.0012215906	-0.023309561	-0.023066624	-0.0022565428	-0.00090238121	0	937.550681774279
0.10964782	6.3095734e-10	0.04	0.10484879	11.496735	-0.0012108419	-0.023348576	-0.023094962	-0.0022462333	-0.00090455763	0	937.5597158642412
0.10964782	6.9183097e-10	0.04	0.10425611	11.392023	-0.0012000933	-0.023387598	-0.023123234	-0.0022359847	-0.00090652899	0	937.5687523406991
0.10964782	7.5857758e-10	0.04	0.10371777	11.289373	-0.0011893446	-0.023426627	-0.023151445	-0.0022257915	-0.0009083152	0	937.5777912036532
0.10964782	8.3176377e-10	0.04	0.10322881	11.188587	-0.001178596	-0.023465665	-0.023179601	-0.0022156487	-0.00090993408	0	937.5868320396943
0.10964782	9.1201084e-10	0.04	0.10278477	11.08949	-0.0011678473	-0.023504711	-0.023207704	-0.0022055515	-0.00091140163	0	937.5958749615706
0.10964782	1.e-9	0.04	0.1023816	10.991922	-0.0011570986	-0.023543766	-0.023235757	-0.0021954958	-0.00091273219	0	937.6049197625777
0.10964782	1.0964782e-9	0.04	0.10201567	10.89574	-0.0011463499	-0.02358283	-0.023263761	-0.0021854778	-0.00091393862	0	937.6139664051327
0.10964782	1.2022644e-9	0.04	0.1016837	10.800816	-0.0011356011	-0.023621903	-0.023291718	-0.002175494	-0.00091503248	0	937.6230149080272
0.10964782	1.3182567e-9	0.04	0.1013827	10.707034	-0.0011248524	-0.023660985	-0.023319625	-0.0021655412	-0.00091602418	0	937.6320651960958
0.10964782	1.4454398e-9	0.04	0.10111	10.614287	-0.0011141036	-0.023700077	-0.023347482	-0.0021556165	-0.00091692301	0	937.6411174572518
0.10964782	1.5848932e-9	0.04	0.10086319	10.522483	-0.0011033548	-0.023739179	-0.023375288	-0.0021457172	-0.00091773735	0	937.6501716351208
0.10964782	1.7378008e-9	0.04	0.10064008	10.431535	-0.0010926059	-0.023778291	-0.023403038	-0.0021358409	-0.00091847476	0	937.659228011573
0.10964782	1.9054607e-9	0.04	0.10043871	10.341367	-0.0010818571	-0.023817414	-0.023430731	-0.0021259855	-0.00091914197	0	937.6682864362776
0.10964782	2.0892961e-9	0.04	0.10025732	10.251908	-0.0010711082	-0.023856548	-0.023458362	-0.0021161487	-0.00091974509	0	937.6773472850608
0.10964782	2.2908677e-9	0.04	0.10009432	10.163097	-0.0010603593	-0.023895694	-0.023485926	-0.0021063289	-0.00092028955	0	937.6864106518791
0.10964782	2.5118864e-9	0.04	0.099948291	10.074876	-0.0010496103	-0.023934851	-0.023513418	-0.0020965241	-0.00092078027	0	937.6954768186022
0.10964782	2.7542287e-9	0.04	0.099817956	9.9871942	-0.0010388613	-0.023974021	-0.023540831	-0.002086733	-0.00092122162	0	937.7045459543517
0.10964782	3.0199517e-9	0.04	0.09970218	9.9000049	-0.0010281122	-0.024013203	-0.02356816	-0.0020769538	-0.00092161752	0	937.7136183409974
0.10964782	3.3113112e-9	0.04	0.099599953	9.8132663	-0.0010173631	-0.024052398	-0.023595397	-0.0020671854	-0.00092197151	0	937.7226941852437
0.10964782	3.6307805e-9	0.04	0.099510377	9.7269407	-0.0010066139	-0.024091606	-0.023622533	-0.0020574263	-0.0009222867	0	937.7317739192903
0.10964782	3.9810717e-9	0.04	0.099432664	9.6409938	-0.00099586469	-0.024130828	-0.02364956	-0.0020476754	-0.00092256588	0	937.7408577592377
0.10964782	4.3651583e-9	0.04	0.099366121	9.5553951	-0.00098511538	-0.024170064	-0.023676468	-0.0020379316	-0.00092281151	0	937.7499461654725
0.10964782	4.7863009e-9	0.04	0.099310146	9.4701166	-0.000974366	-0.024209315	-0.023703247	-0.0020281938	-0.00092302574	0	937.7590394856343
0.10964782	5.2480746e-9	0.04	0.099264219	9.3851335	-0.00096361654	-0.024248581	-0.023729885	-0.002018461	-0.00092321052	0	937.7681381801096
0.10964782	5.7543994e-9	0.04	0.099227898	9.3004233	-0.00095286699	-0.024287863	-0.023756371	-0.0020087323	-0.00092336748	0	937.7772426717034
0.10964782	6.3095734e-9	0.04	0.099200811	9.2159657	-0.00094211734	-0.024327161	-0.023782691	-0.0019990066	-0.00092349804	0	937.7863534959675
0.10964782	6.9183097e-9	0.04	0.099182652	9.1317428	-0.00093136758	-0.024366475	-0.023808831	-0.0019892831	-0.00092360345	0	937.7954711884544
0.10964782	7.5857758e-9	0.04	0.099173175	9.0477381	-0.0009206177	-0.024405807	-0.023834778	-0.001979561	-0.00092368473	0	937.8045962471335
0.10964782	8.3176377e-9	0.04	0.099172193	8.9639373	-0.00090986768	-0.024445157	-0.023860514	-0.0019698394	-0.00092374272	0	937.8137293672835
0.10964782	9.1201084e-9	0.04	0.099179565	8.8803274	-0.00089911752	-0.024484525	-0.023886024	-0.0019601175	-0.00092377814	0	937.8228711126433
0.10964782	1.e-8	0.04	0.099195203	8.7968968	-0.00088836721	-0.024523912	-0.02391129	-0.0019503944	-0.0009237915	0	937.8320221690957
0.10964782	1.0964782e-8	0.04	0.09921906	8.7136352	-0.00087761672	-0.024563318	-0.023936293	-0.0019406695	-0.00092378319	0	937.8411832788975
0.10964782	1.2022644e-8	0.04	0.099251127	8.6305336	-0.00086686604	-0.024602745	-0.023961014	-0.0019309417	-0.00092375349	0	937.8503551655136
0.10964782	1.3182567e-8	0.04	0.099291433	8.5475837	-0.00085611516	-0.024642193	-0.023985432	-0.0019212105	-0.00092370252	0	937.8595386275749
0.10964782	1.4454398e-8	0.04	0.099340037	8.4647784	-0.00084536405	-0.024681662	-0.024009526	-0.0019114749	-0.00092363033	0	937.8687344825032
0.10964782	1.5848932e-8	0.04	0.099397028	8.3821114	-0.00083461268	-0.024721154	-0.024033274	-0.0019017341	-0.00092353681	0	937.8779435853031
0.10964782	1.7378008e-8	0.04	0.09946252	8.2995769	-0.00082386104	-0.024760669	-0.024056652	-0.0018919873	-0.00092342182	0	937.8871668473527
0.10964782	1.9054607e-8	0.04	0.099536646	8.21717	-0.0008131091	-0.024800208	-0.024079637	-0.0018822336	-0.00092328512	0	937.8964051612393
0.10964782	2.0892961e-8	0.04	0.099619559	8.1348862	-0.00080235683	-0.024839772	-0.024102204	-0.0018724723	-0.00092312635	0	937.9056594947149
0.10964782	2.2908677e-8	0.04	0.099711427	8.0527214	-0.0007916042	-0.024879361	-0.024124328	-0.0018627024	-0.00092294514	0	937.9149308155321
0.10964782	2.5118864e-8	0.04	0.099812429	7.9706721	-0.00078085118	-0.024918976	-0.024145982	-0.001852923	-0.00092274097	0	937.9242201666084
0.10964782	2.7542287e-8	0.04	0.099922753	7.888735	-0.00077009771	-0.024958619	-0.024167141	-0.0018431333	-0.00092251338	0	937.933528543883
0.10964782	3.0199517e-8	0.04	0.1000426	7.806907	-0.00075934378	-0.024998291	-0.024187776	-0.0018333323	-0.00092226175	0	937.9428570466475
0.10964782	3.3113112e-8	0.04	0.10017216	7.7251854	-0.00074858931	-0.025037992	-0.024207859	-0.0018235191	-0.0009219855	0	937.95220680238
0.10964782	3.6307805e-8	0.04	0.10031164	7.6435675	-0.00073783428	-0.025077723	-0.024227364	-0.0018136927	-0.00092168396	0	937.9615788070203
0.10964782	3.9810717e-8	0.04	0.10046124	7.5620508	-0.00072707862	-0.025117485	-0.024246261	-0.0018038522	-0.00092135645	0	937.9709742538159
0.10964782	4.3651583e-8	0.04	0.10062117	7.4806329	-0.00071632227	-0.025157281	-0.024264521	-0.0017939964	-0.00092100223	0	937.9803942890368
0.10964782	4.7863009e-8	0.04	0.10079163	7.3993115	-0.00070556516	-0.02519711	-0.024282115	-0.0017841245	-0.00092062055	0	937.9898400683481
0.10964782	5.2480746e-8	0.04	0.10097281	7.3180841	-0.00069480722	-0.025236974	-0.024299013	-0.0017742353	-0.00092021067	0	937.9993127849982
0.10964782	5.7543994e-8	0.04	0.10116492	7.2369485	-0.00068404838	-0.025276874	-0.024315186	-0.0017643279	-0.0009197718	0	938.0088135946521
0.10964782	6.3095734e-8	0.04	0.10136815	7.1559024	-0.00067328854	-0.025316812	-0.024330604	-0.001754401	-0.00091930308	0	938.018343718745
0.10964782	6.9183097e-8	0.04	0.10158271	7.0749434	-0.00066252761	-0.025356789	-0.024345236	-0.0017444537	-0.00091880374	0	938.0279044068988
0.10964782	7.5857758e-8	0.04	0.10180877	6.9940692	-0.00065176548	-0.025396806	-0.024359051	-0.0017344848	-0.00091827291	0	938.0374969275265
0.10964782	8.3176377e-8	0.04	0.10204655	6.9132775	-0.00064100204	-0.025436866	-0.024372019	-0.0017244932	-0.0009177097	0	938.0471225114591
0.10964782	9.1201084e-8	0.04	0.10229624	6.8325659	-0.00063023716	-0.025476969	-0.02438411	-0.0017144777	-0.00091711327	0	938.056782408318
0.10964782	1.e-7	0.04	0.10255805	6.7519322	-0.0006194707	-0.025517118	-0.02439529	-0.0017044371	-0.00091648268	0	938.0664780274516
0.10964782	1.0964782e-7	0.04	0.10283219	6.671374	-0.00060870251	-0.025557314	-0.024405529	-0.0016943702	-0.00091581701	0	938.0762106372732
0.10964782	1.2022644e-7	0.04	0.10311888	6.590889	-0.00059793242	-0.025597559	-0.024414794	-0.0016842759	-0.0009151153	0	938.0859816377349
0.10964782	1.3182567e-7	0.04	0.10341835	6.5104749	-0.00058716025	-0.025637855	-0.024423053	-0.0016741528	-0.00091437659	0	938.095792400602
0.10964782	1.4454398e-7	0.04	0.10373084	6.4301296	-0.0005763858	-0.025678204	-0.024430273	-0.0016639997	-0.00091359987	0	938.1056443540144
0.10964782	1.5848932e-7	0.04	0.10405661	6.349851	-0.00056560886	-0.025718609	-0.024436419	-0.0016538154	-0.00091278409	0	938.1155390106717
0.10964782	1.7378008e-7	0.04	0.10439594	6.269637	-0.00055482916	-0.025759071	-0.024441459	-0.0016435984	-0.00091192816	0	938.1254778269005
0.10964782	1.9054607e-7	0.04	0.10474911	6.1894856	-0.00054404647	-0.025799593	-0.024445357	-0.0016333475	-0.00091103098	0	938.135462371775
0.10964782	2.0892961e-7	0.04	0.10511644	6.109395	-0.00053326047	-0.025840179	-0.024448078	-0.0016230613	-0.00091009139	0	938.1454942613474
0.10964782	2.2908677e-7	0.04	0.10549828	6.0293634	-0.00052247086	-0.025880829	-0.024449586	-0.0016127384	-0.00090910823	0	938.1555751304614
0.10964782	2.5118864e-7	0.04	0.10589497	5.9493892	-0.00051167729	-0.025921548	-0.024449843	-0.0016023773	-0.00090808018	0	938.1657067361044
0.10964782	2.7542287e-7	0.04	0.10630691	5.869471	-0.00050087937	-0.025962338	-0.024448812	-0.0015919766	-0.00090700599	0	938.1758908352635
0.10964782	3.0199517e-7	0.04	0.10673453	5.7896073	-0.00049007669	-0.026003203	-0.024446455	-0.0015815348	-0.00090588428	0	938.1861292412998
0.10964782	3.3113112e-7	0.04	0.10717826	5.7097971	-0.00047926879	-0.026044146	-0.024442732	-0.0015710502	-0.00090471363	0	938.196423889718
0.10964782	3.6307805e-7	0.04	0.10763861	5.6300392	-0.00046845516	-0.026085171	-0.024437602	-0.0015605214	-0.00090349256	0	938.2067768005835
0.10964782	3.9810717e-7	0.04	0.10811609	5.5503329	-0.00045763525	-0.026126282	-0.024431025	-0.0015499466	-0.0009022195	0	938.2171899939619
0.10964782	4.3651583e-7	0.04	0.10861125	5.4706775	-0.00044680846	-0.026167482	-0.024422957	-0.0015393241	-0.00090089284	0	938.2276656872275
0.10964782	4.7863009e-7	0.04	0.10912472	5.3910724	-0.00043597412	-0.026208777	-0.024413355	-0.0015286521	-0.00089951087	0	938.2382061259412
0.10964782	5.2480746e-7	0.04	0.10965712	5.3115175	-0.00042513151	-0.026250171	-0.024402174	-0.001517929	-0.00089807181	0	938.248813677808
0.10964782	5.7543994e-7	0.04	0.11020916	5.2320126	-0.00041427983	-0.026291669	-0.02438937	-0.0015071526	-0.00089657375	0	938.2594907481149
0.10964782	6.3095734e-7	0.04	0.11078158	5.1525578	-0.0004034182	-0.026333277	-0.024374893	-0.0014963212	-0.00089501473	0	938.2702400428103
0.10964782	6.9183097e-7	0.04	0.11137517	5.0731536	-0.00039254567	-0.026374999	-0.024358698	-0.0014854326	-0.00089339266	0	938.2810641456988
0.10964782	7.5857758e-7	0.04	0.11199079	4.9938005	-0.00038166119	-0.026416843	-0.024340734	-0.0014744848	-0.00089170537	0	938.2919659600374
0.10964782	8.3176377e-7	0.04	0.11262935	4.9144994	-0.00037076361	-0.026458816	-0.02432095	-0.0014634755	-0.00088995057	0	938.3029484830397
0.10964782	9.1201084e-7	0.04	0.11329184	4.8352513	-0.00035985166	-0.026500923	-0.024299294	-0.0014524024	-0.0008881258	0	938.3140148622496
0.10964782	1.e-6	0.04	0.11397929	4.7560576	-0.00034892396	-0.026543173	-0.024275714	-0.0014412632	-0.00088622852	0	938.3251683485628
0.10964782	1.0964782e-6	0.04	0.11469284	4.6769201	-0.00033797901	-0.026585574	-0.024250155	-0.0014300553	-0.00088425605	0	938.3364124183715
0.10964782	1.2022644e-6	0.04	0.11543368	4.5978407	-0.00032701513	-0.026628135	-0.024222561	-0.0014187762	-0.00088220549	0	938.3477507547717
0.10964782	1.3182567e-6	0.04	0.11620311	4.5188218	-0.00031603051	-0.026670865	-0.024192874	-0.001407423	-0.00088007388	0	938.3591872381686
0.10964782	1.4454398e-6	0.04	0.1170025	4.4398659	-0.00030502316	-0.026713775	-0.024161037	-0.0013959929	-0.00087785801	0	938.3707258805057
0.10964782	1.5848932e-6	0.04	0.11783333	4.3609764	-0.00029399088	-0.026756874	-0.024126988	-0.001384483	-0.00087555453	0	938.3823710789492
0.10964782	1.7378008e-6	0.04	0.11869719	4.2821565	-0.0002829313	-0.026800176	-0.024090667	-0.00137289	-0.00087315986	0	938.3941273152259
0.10964782	1.9054607e-6	0.04	0.11959579	4.2034103	-0.00027184177	-0.026843693	-0.024052011	-0.0013612106	-0.00087067023	0	938.4059994468885
0.10964782	2.0892961e-6	0.04	0.12053094	4.1247422	-0.00026071944	-0.026887438	-0.024010957	-0.0013494414	-0.00086808163	0	938.417992519403
0.10964782	2.2908677e-6	0.04	0.1215046	4.0461571	-0.00024956115	-0.026931427	-0.023967437	-0.0013375787	-0.00086538978	0	938.4301120574135
0.10964782	2.5118864e-6	0.04	0.12251888	3.9676605	-0.00023836347	-0.026975676	-0.023921387	-0.0013256185	-0.00086259019	0	938.4423636889167
0.10964782	2.7542287e-6	0.04	0.12357604	3.8892586	-0.0002271226	-0.027020201	-0.023872737	-0.0013135568	-0.00085967805	0	938.4547536150435
0.10964782	3.0199517e-6	0.04	0.12467851	3.8109581	-0.00021583442	-0.027065023	-0.023821419	-0.0013013892	-0.00085664823	0	938.4672882624213
0.10964782	3.3113112e-6	0.04	0.1258289	3.7327665	-0.0002044944	-0.02711016	-0.023767362	-0.0012891113	-0.00085349531	0	938.4799745556467
0.10964782	3.6307805e-6	0.04	0.12703002	3.654692	-0.00019309758	-0.027155635	-0.023710494	-0.0012767182	-0.00085021348	0	938.4928198609118
0.10964782	3.9810717e-6	0.04	0.12828489	3.5767438	-0.00018163855	-0.027201472	-0.023650742	-0.0012642047	-0.00084679659	0	938.5058320047962
0.10964782	4.3651583e-6	0.04	0.12959677	3.4989317	-0.00017011136	-0.027247697	-0.023588033	-0.0012515654	-0.00084323802	0	938.5190193212443
0.10964782	4.7863009e-6	0.04	0.13096917	3.4212668	-0.00015850951	-0.027294338	-0.023522292	-0.0012387945	-0.00083953072	0	938.5323907361272
0.10964782	5.2480746e-6	0.04	0.13240587	3.343761	-0.0001468259	-0.027341424	-0.023453442	-0.001225886	-0.0008356672	0	938.54595581422
0.10964782	5.7543994e-6	0.04	0.13391094	3.2664275	-0.00013505275	-0.02738899	-0.023381408	-0.0012128334	-0.00083163944	0	938.5597246840372
0.10964782	6.3095734e-6	0.04	0.13548877	3.1892807	-0.00012318155	-0.027437071	-0.023306113	-0.0011996297	-0.00082743882	0	938.5737082351412
0.10964782	6.9183097e-6	0.04	0.1371441	3.1123361	-0.00011120302	-0.027485704	-0.023227478	-0.0011862676	-0.00082305617	0	938.5879181557251
0.10964782	7.5857758e-6	0.04	0.13888203	3.035611	-0.000099106982	-0.027534934	-0.023145425	-0.0011727392	-0.00081848163	0	938.6023669401286
0.10964782	8.3176377e-6	0.04	0.14070809	2.9591238	-0.00008688234	-0.027584804	-0.023059877	-0.0011590362	-0.00081370469	0	938.6170679076306
0.10964782	9.1201084e-6	0.04	0.14262822	2.8828949	-0.00007451696	-0.027635366	-0.022970756	-0.0011451495	-0.00080871404	0	938.6320353903603
0.10964782	0.00001	0.04	0.14464885	2.8069462	-0.000061997595	-0.027686671	-0.022877983	-0.0011310698	-0.00080349758	0	938.6472848037671
0.10964782	0.000010964782	0.04	0.14677689	2.7313016	-0.000049309791	-0.02773878	-0.02278148	-0.0011167869	-0.00079804238	0	938.6628326597718
0.10964782	0.000012022644	0.04	0.14901983	2.6559869	-0.000036437764	-0.027791755	-0.022681171	-0.0011022897	-0.00079233448	0	938.678696644753
0.10964782	0.000013182567	0.04	0.14936353	2.580984	-0.000028404092	-0.027827306	-0.022558622	-0.0010897199	-0.00078851753	0	938.6908505163607
0.10964782	0.000014454398	0.04	0.15166618	2.5064109	-0.000015596359	-0.027880455	-0.022448705	-0.0010749662	-0.0007824666	0	938.7070151866825
0.10964782	0.000015848932	0.04	0.15409111	2.4322578	-2.5948202e-6	-0.027934523	-0.022334588	-0.0010599809	-0.000776135	0	938.7235197971975
0.10964782	0.000017378008	0.04	0.15664665	2.3585598	0.000010618276	-0.027989583	-0.022216184	-0.0010447515	-0.00076950625	0	938.7403842963813
0.10964782	0.000019054607	0.04	0.15934173	2.2853542	0.000024062209	-0.028045711	-0.022093406	-0.0010292649	-0.00076256277	0	938.7576300681775
0.10964782	0.000020892961	0.04	0.16218592	2.2126812	0.000037757907	-0.02810299	-0.021966169	-0.0010135069	-0.00075528571	0	938.7752799705198
0.10964782	0.000022908677	0.04	0.16518953	2.1405836	0.000051728065	-0.02816151	-0.021834388	-0.00099746231	-0.00074765496	0	938.7933585213664
0.10964782	0.000025118864	0.04	0.16836355	2.0691072	0.00006599727	-0.028221368	-0.021697982	-0.00098111502	-0.00073964902	0	938.8118918660015
0.10964782	0.000027542287	0.04	0.17171978	1.9983003	0.000080592123	-0.028282669	-0.021556869	-0.00096444778	-0.00073124498	0	938.8309080795782
0.10964782	0.000030199517	0.04	0.17527082	1.9282142	0.000095541385	-0.028345524	-0.021410972	-0.00094744208	-0.00072241837	0	938.8504370787961
0.10964782	0.000033113112	0.04	0.17903013	1.8589032	0.0001108761	-0.028410057	-0.021260215	-0.00093007819	-0.00071314312	0	938.870510887801
0.10964782	0.000036307805	0.04	0.18301205	1.7904239	0.00012662974	-0.028476395	-0.021104525	-0.000912335	-0.00070339149	0	938.8911636992551
0.10964782	0.000039810717	0.04	0.18723187	1.7228357	0.00014283835	-0.02854468	-0.020943832	-0.00089418993	-0.000693134	0	938.9124320105742
0.10964782	0.000043651583	0.04	0.19170579	1.6562005	0.00015954066	-0.028615062	-0.020778072	-0.00087561888	-0.00068233933	0	938.9343546164117
0.10964782	0.000047863009	0.04	0.19645105	1.5905821	0.00017677826	-0.0286877	-0.02060718	-0.00085659612	-0.00067097427	0	938.9569730361607
0.10964782	0.000052480746	0.04	0.20148585	1.5260461	0.00019459568	-0.028762767	-0.0204311	-0.00083709415	-0.00065900368	0	938.9803312132922
0.10964782	0.000057543994	0.04	0.20682944	1.4626597	0.00021304059	-0.028840444	-0.020249778	-0.00081708365	-0.00064639042	0	939.0044759663479
0.10964782	0.000063095734	0.04	0.21250207	1.4004907	0.00023216382	-0.028920928	-0.020063165	-0.00079653338	-0.00063309531	0	939.0294568949822
0.10964782	0.000069183097	0.04	0.21852506	1.3396071	0.00025201959	-0.029004426	-0.019871215	-0.00077541003	-0.00061907711	0	939.0553266712291
0.10964782	0.000075857758	0.04	0.22492072	1.2800767	0.00027266548	-0.029091158	-0.01967389	-0.00075367819	-0.00060429249	0	939.0821408234007
0.10964782	0.000083176377	0.04	0.2317124	1.221966	0.00029416263	-0.029181356	-0.019471156	-0.00073130018	-0.00058869604	0	939.1099580743308
0.10964782	0.000091201084	0.04	0.23892441	1.1653392	0.00031657572	-0.029275268	-0.019262981	-0.000708236	-0.00057224024	0	939.1388403977511
0.10964782	0.0001	0.04	0.24658204	1.1102577	0.00033997312	-0.029373152	-0.019049342	-0.00068444321	-0.00055487549	0	939.1688528961433
0.10964782	0.00010964782	0.04	0.25471147	1.0567789	0.00036442684	-0.029475284	-0.018830218	-0.00065987685	-0.00053655014	0	939.2000640168442
0.10964782	0.00012022644	0.04	0.26333979	1.0049551	0.00039001266	-0.02958195	-0.018605593	-0.00063448937	-0.00051721053	0	939.2325455614373
0.10964782	0.00013182567	0.04	0.27249487	0.95483267	0.00041681008	-0.02969345	-0.018375457	-0.00060823049	-0.00049680097	0	939.266372601194
0.10964782	0.00014454398	0.04	0.28220539	0.90645113	0.00044490237	-0.029810102	-0.018139803	-0.00058104715	-0.00047526377	0	939.3016236367997
0.10964782	0.00015848932	0.04	0.29250074	0.8598422	0.00047437658	-0.029932232	-0.017898628	-0.0005528835	-0.00045253941	0	939.3383805701658
0.10964782	0.00017378008	0.04	0.303411	0.8150291	0.00050532351	-0.030060185	-0.017651931	-0.00052368072	-0.00042856636	0	939.3767287514088
0.10964782	0.00019054607	0.04	0.31496688	0.77202599	0.00053783782	-0.030194317	-0.017399718	-0.00049337704	-0.00040328116	0	939.4167568942887
0.10964782	0.00020892961	0.04	0.32719974	0.73083766	0.00057201792	-0.030334999	-0.017141993	-0.00046190766	-0.00037661849	0	939.4585573111012
0.10964782	0.00022908677	0.04	0.34014152	0.69145929	0.00060796615	-0.030482615	-0.016878768	-0.00042920463	-0.00034851094	0	939.5022257059734
0.10964782	0.00025118864	0.04	0.3538248	0.65387666	0.00064578874	-0.030637566	-0.016610053	-0.00039519687	-0.00031888908	0	939.5478615131055
0.10964782	0.00027542287	0.04	0.3682828	0.61806647	0.00068559592	-0.030800265	-0.016335863	-0.00035981008	-0.00028768136	0	939.5955677370474
0.10964782	0.00030199517	0.04	0.38354943	0.58399695	0.00072750204	-0.03097114	-0.016056215	-0.00032296664	-0.00025481386	0	939.6454511781922
0.10964782	0.00033113112	0.04	0.39965931	0.55162862	0.00077162571	-0.031150636	-0.015771129	-0.00028458561	-0.00022021023	0	939.6976225267337
0.10964782	0.00036307805	0.04	0.41664794	0.52091529	0.00081808994	-0.031339212	-0.015480625	-0.00024458258	-0.00018379146	0	939.7521966069539
0.10964782	0.00039810717	0.04	0.43455169	0.49180517	0.00086702234	-0.031537343	-0.015184727	-0.00020286966	-0.00014547571	0	939.8092924148035
0.10964782	0.00043651583	0.04	0.45340799	0.46424192	0.00091855538	-0.031745524	-0.014883465	-0.00015935528	-0.00010517798	0	939.8690332870266
0.10964782	0.00047863009	0.04	0.47325537	0.43816589	0.00097282655	-0.031964263	-0.014576867	-0.0001139442	-0.000062809991	0	939.9315473521496
0.10964782	0.00052480746	0.04	0.49413366	0.41351518	0.0010299787	-0.032194092	-0.014264968	-0.000066537347	-0.000018279887	0	939.9969675116918
0.10964782	0.00057543994	0.04	0.51608408	0.39022661	0.0010901602	-0.032435558	-0.013947806	-0.00001703164	0.000028508032	0	940.0654317408241
0.10964782	0.00063095734	0.04	0.5391494	0.36823668	0.0011535256	-0.032689231	-0.013625423	0.000034680117	0.00007765355	0	940.1370836709021
0.10964782	0.00069183097	0.04	0.56337408	0.34748224	0.0012202354	-0.0329557	-0.013297866	0.000088709366	0.00012926075	0	940.2120723357816
0.10964782	0.00075857758	0.04	0.58880446	0.32790119	0.0012904571	-0.033235578	-0.012965189	0.00014517202	0.00018343828	0	940.2905530831974
0.10964782	0.00083176377	0.04	0.61548896	0.30943287	0.001364365	-0.033529502	-0.012627449	0.0002041886	0.0002402996	0	940.3726875371809
0.10964782	0.00091201084	0.04	0.64347827	0.29201848	0.0014421411	-0.033838132	-0.012284714	0.00026588455	0.00029996328	0	940.4586441430085
0.10964782	0.001	0.04	0.67282565	0.27560128	0.0015239756	-0.034162156	-0.011937055	0.00033039034	0.00036255317	0	940.5485989376436
0.10964782	0.0010964782	0.04	0.7035872	0.26012678	0.0016100673	-0.034502291	-0.011584556	0.00039784182	0.00042819877	0	940.6427355497385
0.10964782	0.0012022644	0.04	0.73582225	0.24554283	0.0017006247	-0.034859281	-0.01122731	0.00046838051	0.0004970355	0	940.7412463834858
0.10964782	0.0013182567	0.04	0.7695938	0.23179963	0.0017958664	-0.035233907	-0.010865423	0.00054215392	0.00056920507	0	940.8443328441135
0.10964782	0.0014454398	0.04	0.80496904	0.21884976	0.0018960227	-0.035626981	-0.010499014	0.00061931589	0.00064485579	0	940.9522068411908
0.10964782	0.0015848932	0.04	0.84201998	0.20664815	0.0020013364	-0.036039359	-0.010128222	0.00070002715	0.00072414311	0	941.0650912772013
0.10964782	0.0017378008	0.04	0.88082427	0.19515202	0.0021120645	-0.036471936	-0.0097532052	0.00078445569	0.00080723004	0	941.1832216748704
0.10964782	0.0019054607	0.04	0.92146602	0.18432078	0.0022284799	-0.036925659	-0.0093741476	0.00087277747	0.00089428781	0	941.3068475263816
0.10964782	0.0020892961	0.04	0.96403698	0.17411604	0.0023508733	-0.037401526	-0.0089912632	0.00096517704	0.00098549649	0	941.4362339207021
0.10964782	0.0022908677	0.04	1.0086378	0.16450143	0.0024795558	-0.037900597	-0.0086048027	0.0010618484	0.0010810458	0	941.5716637346511
0.10964782	0.0025118864	0.04	1.0553794	0.15544261	0.0026148616	-0.038424002	-0.0082150608	0.0011629958	0.0011811361	0	941.7134398953724
0.10964782	0.0027542287	0.04	1.1043849	0.14690709	0.0027571516	-0.038972948	-0.0078223842	0.0012688351	0.0012859793	0	941.8618884621086
0.10964782	0.0030199517	0.04	1.1557917	0.13886421	0.0029068166	-0.039548733	-0.0074271827	0.0013795948	0.0013958004	0	942.0173612156432
0.10964782	0.0033113112	0.04	1.2097535	0.13128504	0.0030642825	-0.040152754	-0.0070299386	0.0014955177	0.0015108388	0	942.1802401907638
0.10964782	0.0036307805	0.04	1.2664431	0.12414227	0.0032300146	-0.040786526	-0.0066312221	0.0016168626	0.0016313501	0	942.3509411376214
0.10964782	0.0039810717	0.04	1.3260551	0.11741013	0.0034045238	-0.041451691	-0.0062317037	0.0017439061	0.001757608	0	942.5299188810109
0.10964782	0.0043651583	0.04	1.3888091	0.11106436	0.0035883723	-0.042150042	-0.0058321705	0.0018769454	0.0018899067	0	942.717672063296
0.10964782	0.0047863009	0.04	1.4549531	0.10508209	0.0037821804	-0.042883529	-0.0054335402	0.0020163003	0.0020285635	0	942.914749007299
0.10964782	0.0052480746	0.04	1.524765	0.099444563	0.0039866318	-0.04365427	-0.0050368612	0.0021623166	0.0021739218	0	943.1217526922368
0.10964782	0.0057543994	0.04	1.5983437	0.09438659	0.0042021338	-0.04446165	-0.0046404194	0.0023153649	0.0023263798	0	943.3391302234355
0.10964782	0.0063095734	0.04	1.6644284	0.094987934	0.0044106591	-0.045155037	-0.0040924483	0.0024754736	0.0024865587	0	943.5556475562482
0.10964782	0.0069183097	0.04	1.7421756	0.090753874	0.0046438049	-0.046025268	-0.0036826138	0.0026422646	0.0026528556	0	943.7901059232436
0.10964782	0.0075857758	0.04	1.8290865	0.086200786	0.0048977083	-0.047005354	-0.0033427211	0.0028172625	0.0028273222	0	944.0414388162762
0.10964782	0.0083176377	0.04	1.9215367	0.081897984	0.0051667842	-0.048038841	-0.003015071	0.0030010477	0.0030106053	0	944.3065671556719
0.10964782	0.0091201084	0.04	2.0200186	0.077830059	0.0054522121	-0.049129219	-0.0027018708	0.0031941871	0.0032032699	0	944.5865162026564
0.10964782	0.01	0.04	2.1250476	0.073982804	0.0057552476	-0.050280085	-0.0024053953	0.0033972971	0.0034059309	0	944.8823801825533
0.10964782	0.010964782	0.04	2.2371446	0.07034283	0.0060772021	-0.051495035	-0.0021278751	0.0036110451	0.0036192541	0	945.1953074095836
0.10964782	0.012022644	0.04	2.3568117	0.06689751	0.0064194084	-0.0527775	-0.0018713347	0.0038361487	0.0038439557	0	945.526474050444
0.10964782	0.013182567	0.04	2.4844954	0.063634934	0.0067831704	-0.054130527	-0.0016373702	0.0040733726	0.0040807989	0	945.8770452187839
0.10964782	0.014454398	0.04	2.6205369	0.060543868	0.0071696893	-0.055556475	-0.0014268455	0.0043235206	0.0043305861	0	946.2481170528815
0.10964782	0.015848932	0.04	2.7651048	0.057613703	0.0075799635	-0.057056628	-0.0012395009	0.0045874218	0.0045941453	0	946.6406373749873
0.10964782	0.017378008	0.04	2.9181094	0.054834419	0.0080146563	-0.058630696	-0.0010734566	0.0048659102	0.0048723094	0	947.0553000465958
0.10964782	0.019054607	0.04	3.0790963	0.052196539	0.0084739287	-0.060276229	-0.0009246217	0.0051597941	0.0051658855	0	947.4924100844433
0.10964782	0.020892961	0.04	3.2471213	0.049691095	0.0089572371	-0.061987935	-0.00078601347	0.0054698142	0.0054756131	0	947.9517191700526
0.10964782	0.022908677	0.04	3.4206115	0.04730958	0.0094631023	-0.063756964	-0.00064703617	0.005796589	0.0058021101	0	948.4322357139641
0.10964782	0.025118864	0.04	3.5972238	0.045043916	0.0099888616	-0.0655702	-0.00049277718	0.0061405464	0.006145803	0	948.9320183907614
0.10964782	0.027542287	0.04	3.7737206	0.04288641	0.010530433	-0.067409709	-0.00030344748	0.0065018412	0.0065068461	0	949.4479756177864
0.10964782	0.030199517	0.04	3.9458939	0.040829706	0.01108213	-0.069252478	-0.000054120245	0.0068802642	0.0068850291	0	949.975701371918
0.10964782	0.033113112	0.04	4.1085815	0.03886675	0.011636598	-0.071070655	0.00028502727	0.0072751457	0.0072796815	0	950.5094063425471
0.10964782	0.036307805	0.04	4.2558328	0.036990727	0.012184938	-0.072832572	0.00074769732	0.0076852696	0.0076895864	0	951.0419959564647
0.10964782	0.039810717	0.04	4.3812985	0.035195005	0.012717147	-0.074504771	0.0013694445	0.0081088124	0.0081129196	0	951.5654079760943
0.10964782	0.043651583	0.04	4.0434029	0.031646359	0.012789852	-0.077194071	0.0010456123	0.0085281945	0.0085318877	0	951.6215486142927
0.10964782	0.047863009	0.04	3.7352384	0.028409955	0.012856161	-0.079928629	0.00075027358	0.0089106755	0.008913991	0	951.6727506519728
0.10964782	0.052480746	0.04	3.4541891	0.02545832	0.012916635	-0.082713251	0.00048092143	0.0092595024	0.0092624734	0	951.7194469690652
0.10964782	0.057543994	0.04	3.197869	0.022766397	0.012971788	-0.085552595	0.00023526935	0.0095776363	0.0095802931	0	951.7620345695129
0.10964782	0.063095734	0.04	2.9641024	0.020311334	0.013022088	-0.08845119	0.00001123198	0.0098677778	0.0098701481	0	951.8008747966196
0.10964782	0.069183097	0.04	2.8463544	0.018408794	0.013209335	-0.092177046	-0.00095667793	0.01014163	0.010143779	0	951.9404290051767
0.10964782	0.075857758	0.04	2.9290968	0.017048555	0.013653833	-0.096879543	-0.0028152424	0.010423722	0.010425711	0	952.2882142130508
0.10964782	0.083176377	0.04	3.1633099	0.015769364	0.014270461	-0.10156814	-0.0045712337	0.010720832	0.010722672	0	952.8015817724753
0.10964782	0.091201084	0.04	3.6179776	0.014567417	0.015150808	-0.10624638	-0.0062254454	0.011051097	0.011052797	0	953.5665557098564
0.10964782	0.1	0.04	4.372569	0.013439256	0.016405757	-0.11093897	-0.0077997191	0.011439947	0.011441515	0	954.6864969854762
0.10964782	0.10964782	0.04	5.5147242	0.01238176	0.018164135	-0.1156966	-0.00934181	0.011921021	0.011922466	0	956.2806522194307
0.10964782	0.12022644	0.04	7.1378106	0.011392144	0.0205709	-0.12059867	-0.010928086	0.012536849	0.012538178	0	958.4823488204182
0.10964782	0.13182567	0.04	9.3394214	0.010467943	0.023785991	-0.12575262	-0.012662865	0.013339326	0.013340547	0	961.4379393915827
0.10964782	0.14454398	0.04	12.221808	0.0096070007	0.027985025	-0.13128946	-0.014673925	0.014390129	0.01439125	0	965.3076253497437
0.10964782	0.15848932	0.04	15.894554	0.0088074471	0.033362399	-0.13735593	-0.017104694	0.01576129	0.015762318	0	970.2686649810845
0.10964782	0.17378008	0.04	20.478661	0.0080676568	0.040136168	-0.14410468	-0.020104391	0.017536104	0.017537046	0	976.5203271679208
0.10964782	0.19054607	0.04	26.1101	0.0073861857	0.048552692	-0.15168359	-0.023817367	0.019810446	0.019811308	0	984.2886581419647
0.10964782	0.20892961	0.04	32.94021	0.0067616761	0.058888169	-0.16022513	-0.028372429	0.022694285	0.022695074	0	993.8283230699947
0.10964782	0.22908677	0.04	41.130472	0.0061927263	0.071443957	-0.1698359	-0.033872448	0.026312995	0.026313718	0	1005.4186013256709
0.10964782	0.25118864	0.04	50.84021	0.0056777308	0.086533538	-0.18058692	-0.040384543	0.030807806	0.030808469	0	1019.3515072265728
0.10964782	0.27542287	0.04	62.207776	0.005214713	0.10446108	-0.19250528	-0.047931819	0.036334709	0.036335317	0	1035.911958139783
0.10964782	0.30199517	0.04	75.328436	0.0048011831	0.12549457	-0.2055692	-0.056488371	0.043061327	0.043061887	0	1055.3527189423678
0.10964782	0.33113112	0.04	90.234493	0.0044340666	0.1498394	-0.21970824	-0.065979523	0.051161673	0.051162191	0	1077.869575359977
0.10964782	0.36307805	0.04	106.88369	0.0041097325	0.17761951	-0.23480986	-0.076288347	0.060809322	0.060809802	0	1103.5833715819795
0.10964782	0.39810717	0.04	125.15982	0.0038241235	0.20887107	-0.25073146	-0.087267712	0.072170021	0.072170467	0	1132.5336212546651
0.10964782	0.43651583	0.04	144.88542	0.0035729583	0.24354993	-0.26731545	-0.098755387	0.08539498	0.085395397	0	1164.684939632884
0.10964782	0.47863009	0.04	165.84254	0.0033519553	0.28154926	-0.28440425	-0.11058898	0.10061584	0.10061623	0	1199.9430560661472
0.10964782	0.52480746	0.04	187.79587	0.0031570284	0.32272184	-0.30185242	-0.12261811	0.11794185	0.11794221	0	1238.1752994547044
0.10964782	0.57543994	0.04	210.51332	0.0029844281	0.36690162	-0.3195349	-0.13471258	0.13745917	0.13745952	0	1279.2305481157825
0.10964782	0.63095734	0.04	233.78125	0.0028308184	0.41392124	-0.33735114	-0.1467666	0.15923206	0.15923239	0	1322.9555322571416
0.10964782	0.69183097	0.04	257.41372	0.0026933011	0.46362417	-0.35522625	-0.15869983	0.18330511	0.18330543	0	1369.2062011017538
0.10964782	0.75857758	0.04	281.25661	0.0025694015	0.51587207	-0.37310984	-0.1704563	0.20970624	0.20970654	0	1417.8546786780062
0.10964782	0.83176377	0.04	305.18798	0.0024570318	0.57054818	-0.39097368	-0.18200198	0.23844983	0.23845012	0	1468.792540271987
0.10964782	0.91201084	0.04	329.11607	0.0023544456	0.62755817	-0.40880866	-0.19332183	0.26953984	0.26954011	0	1521.9317219267457
0.10964782	1.	0.04	352.97603	0.0022601888	0.68682934	-0.42662159	-0.2044165	0.30297255	0.30297281	0	1577.203892812638
0.10964782	1.0964782	0.04	376.7262	0.0021730552	0.74830899	-0.44443196	-0.21529915	0.33873907	0.33873932	0	1634.559043248518
0.10964782	1.2022644	0.04	400.3444	0.0020920448	0.81196242	-0.46226899	-0.22599246	0.3768274	0.37682765	0	1693.9637179430563
0.10964782	1.3182567	0.04	423.82443	0.0020163296	0.87777087	-0.48016894	-0.23652598	0.4172242	0.41722443	0	1755.3991800840427
0.10964782	1.4454398	0.04	447.17306	0.0019452234	0.94572958	-0.49817282	-0.24693377	0.45991614	0.45991637	0	1818.8596772765782
0.10964782	1.5848932	0.04	470.40733	0.0018781569	1.0158461	-0.51632451	-0.25725253	0.50489112	0.50489134	0	1884.3509239571213
0.10964782	1.7378008	0.04	493.55237	0.0018146569	1.0881385	-0.53466919	-0.26752008	0.55213909	0.5521393	0	1951.8884766970857
0.10964782	1.9054607	0.04	516.6395	0.0017543293	1.1626345	-0.55325229	-0.27777422	0.6016528	0.60165301	0	2021.496959625164
0.10964782	2.0892961	0.04	539.70475	0.0016968449	1.23937	-0.57211861	-0.2880519	0.65342831	0.65342851	0	2093.208714459833
0.10964782	2.2908677	0.04	562.78759	0.0016419279	1.3183881	-0.59131178	-0.29838868	0.70746537	0.70746557	0	2167.0629000299255
0.10964782	2.5118864	0.04	585.92997	0.0015893458	1.3997386	-0.61087399	-0.30881836	0.76376777	0.76376795	0	2243.105036397517
0.10964782	2.7542287	0.04	609.17549	0.0015389023	1.4834772	-0.63084578	-0.3193729	0.82234345	0.82234363	0	2321.3862562122595
0.10964782	3.0199517	0.04	632.56882	0.0014904303	1.5696649	-0.65126605	-0.33008231	0.88320471	0.88320488	0	2401.962745106257
0.10964782	3.3113112	0.04	656.15521	0.0014437869	1.6583676	-0.67217209	-0.34097474	0.94636825	0.94636842	0	2484.89536248549
0.10964782	3.6307805	0.04	679.98011	0.0013988491	1.749656	-0.69359974	-0.35207658	1.0118552	1.0118554	0	2570.2495438150195
0.10964782	3.9810717	0.04	704.08892	0.0013555102	1.843605	-0.71558351	-0.36341261	1.0796913	1.0796914	0	2658.0947312423873
0.10964782	4.3651583	0.04	728.52678	0.001313677	1.9402937	-0.73815676	-0.37500615	1.1499064	1.1499065	0	2748.5043679602186
0.10964782	4.7863009	0.04	753.33843	0.0012732677	2.0398048	-0.76135192	-0.38687928	1.222535	1.2225352	0	2841.555326198842
0.10964782	5.2480746	0.04	778.56815	0.0012342094	2.1422253	-0.78520061	-0.39905295	1.2976161	1.2976162	0	2937.3285607879434
0.10964782	5.7543994	0.04	804.25972	0.0011964372	2.2476457	-0.80973386	-0.41154719	1.3751926	1.3751927	0	3035.90834961194
0.10964782	6.3095734	0.04	830.45637	0.0011598925	2.3561602	-0.83498227	-0.42438124	1.455312	1.4553121	0	3137.3824766373086
0.10964782	6.9183097	0.04	857.20081	0.0011245224	2.4678665	-0.86097614	-0.4375737	1.5380259	1.538026	0	3241.842038362123
0.10964782	7.5857758	0.04	884.53528	0.0010902782	2.5828661	-0.88774563	-0.45114267	1.6233901	1.6233902	0	3349.381720424095
0.10964782	8.3176377	0.04	912.50158	0.0010571154	2.7012641	-0.91532091	-0.46510587	1.7114644	1.7114645	0	3460.0996051775905
0.10964782	9.1201084	0.04	941.14111	0.0010249926	2.8231692	-0.94373223	-0.47948073	1.8023129	1.802313	0	3574.0971683111916
0.10964782	10.	0.04	970.49497	0.00099387147	2.948694	-0.97301009	-0.49428451	1.8960035	1.8960036	0	3691.4795562073905