0.15848932	1.e-12	0.33	25.930357	763.65983	-0.003262067	-0.016747676	-0.016746541	-0.036386673	0.09243026	0	931.3080498909565
0.15848932	1.0964782e-12	0.33	23.650608	696.71453	-0.0032465307	-0.01678865	-0.016787405	-0.033958235	0.08356612	0	931.3099771086111
0.15848932	1.2022644e-12	0.33	21.571454	635.65871	-0.0032309943	-0.016829626	-0.016828261	-0.031743292	0.075481944	0	931.3119069006748
0.15848932	1.3182567e-12	0.33	19.675246	579.97417	-0.003215458	-0.016870604	-0.016869107	-0.02972306	0.068109104	0	931.3138396993477
0.15848932	1.4454398e-12	0.33	17.945888	529.1883	-0.0031999217	-0.016911584	-0.016909943	-0.027880405	0.061385013	0	931.315775598586
0.15848932	1.5848932e-12	0.33	16.368697	482.87008	-0.0031843853	-0.016952566	-0.016950767	-0.026199702	0.05525259	0	931.3177153124598
0.15848932	1.7378008e-12	0.33	14.930286	440.62642	-0.003168849	-0.01699355	-0.016991577	-0.024666701	0.049659775	0	931.319659273169
0.15848932	1.9054607e-12	0.33	13.618444	402.09881	-0.0031533127	-0.017034537	-0.017032373	-0.023268405	0.044559093	0	931.32160757467
0.15848932	2.0892961e-12	0.33	12.422035	366.96029	-0.0031377763	-0.017075525	-0.017073153	-0.021992961	0.039907243	0	931.3235609310327
0.15848932	2.2908677e-12	0.33	11.330902	334.91267	-0.00312224	-0.017116517	-0.017113916	-0.020829559	0.035664735	0	931.3255194644004
0.15848932	2.5118864e-12	0.33	10.335782	305.684	-0.0031067036	-0.01715751	-0.017154659	-0.019768341	0.031795554	0	931.327484292856
0.15848932	2.7542287e-12	0.33	9.4282289	279.02626	-0.0030911673	-0.017198506	-0.01719538	-0.018800313	0.028266856	0	931.3294558485995
0.15848932	3.0199517e-12	0.33	8.6005376	254.71325	-0.003075631	-0.017239505	-0.017236077	-0.017917277	0.025048686	0	931.3314348457006
0.15848932	3.3113112e-12	0.33	7.845682	232.53869	-0.0030600946	-0.017280507	-0.017276748	-0.017111753	0.022113724	0	931.3334219982289
0.15848932	3.6307805e-12	0.33	7.1572541	212.31443	-0.0030445583	-0.017321511	-0.017317389	-0.016376919	0.019437055	0	931.3354183584975
0.15848932	3.9810717e-12	0.33	6.52941	193.86889	-0.0030290219	-0.017362518	-0.017357999	-0.015706556	0.016995958	0	931.3374244244762
0.15848932	4.3651583e-12	0.33	5.9568197	177.04559	-0.0030134856	-0.017403528	-0.017398573	-0.015094989	0.01476971	0	931.3394415585349
0.15848932	4.7863009e-12	0.33	5.4346228	161.70182	-0.0029979493	-0.017444541	-0.017439108	-0.014537043	0.012739412	0	931.3414707847996
0.15848932	5.2480746e-12	0.33	4.9583863	147.70743	-0.0029824129	-0.017485558	-0.017479601	-0.014028	0.010887829	0	931.3435131273965
0.15848932	5.7543994e-12	0.33	4.5240674	134.94371	-0.0029668766	-0.017526577	-0.017520046	-0.013563556	0.0091992435	0	931.3455702587522
0.15848932	6.3095734e-12	0.33	4.1279793	123.30243	-0.0029513403	-0.0175676	-0.017560439	-0.013139784	0.007659321	0	931.347643513049
0.15848932	6.9183097e-12	0.33	3.7667596	112.68486	-0.0029358039	-0.017608626	-0.017600774	-0.012753104	0.0062549893	0	931.3497348445833
0.15848932	7.5857758e-12	0.33	3.437342	103.00096	-0.0029202676	-0.017649656	-0.017641047	-0.012400252	0.0049743269	0	931.3518453056681
0.15848932	8.3176377e-12	0.33	3.1369301	94.168637	-0.0029047313	-0.01769069	-0.017681251	-0.012078248	0.0038064625	0	931.3539771606559
0.15848932	9.1201084e-12	0.33	2.8629737	86.113012	-0.002889195	-0.017731727	-0.017721379	-0.011784376	0.0027414822	0	931.3561325799429
0.15848932	1.e-11	0.33	2.6131472	78.765802	-0.0028736587	-0.017772768	-0.017761423	-0.011516158	0.0017703455	0	931.3583140439812
0.15848932	1.0964782e-11	0.33	2.38533	72.064737	-0.0028581224	-0.017813813	-0.017801375	-0.011271335	0.00088480835	0	931.3605240332234
0.15848932	1.2022644e-11	0.33	2.177588	65.953033	-0.0028425861	-0.017854862	-0.017841227	-0.011047845	0.00007735339	0	931.3627650281223
0.15848932	1.3182567e-11	0.33	1.9881579	60.378909	-0.0028270498	-0.017895916	-0.017880968	-0.010843809	-0.00065887388	0	931.3650404393001
0.15848932	1.4454398e-11	0.33	1.8154315	55.295146	-0.0028115136	-0.017936974	-0.017920587	-0.010657511	-0.0013301235	0	931.3673535834222
0.15848932	1.5848932e-11	0.33	1.6579426	50.658686	-0.0027959774	-0.017978036	-0.017960074	-0.010487386	-0.0019420938	0	931.3697076550109
0.15848932	1.7378008e-11	0.33	1.5143541	46.43027	-0.0027804412	-0.018019103	-0.017999415	-0.010332008	-0.0024999805	0	931.3721069948583
0.15848932	1.9054607e-11	0.33	1.3834471	42.5741	-0.0027649052	-0.018060174	-0.018038596	-0.010190075	-0.00300852	0	931.3745557558431
0.15848932	2.0892961e-11	0.33	1.2641102	39.057537	-0.0027493692	-0.01810125	-0.018077602	-0.010060398	-0.0034720301	0	931.3770587767267
0.15848932	2.2908677e-11	0.33	1.1553302	35.850821	-0.0027338335	-0.018142331	-0.018116417	-0.0099418945	-0.0038944469	0	931.3796207365449
0.15848932	2.5118864e-11	0.33	1.0561834	32.926823	-0.0027182979	-0.018183416	-0.018155024	-0.0098335748	-0.004279358	0	931.382247094172
0.15848932	2.7542287e-11	0.33	0.96582765	30.260806	-0.0027027628	-0.018224506	-0.018193402	-0.009734537	-0.0046300334	0	931.38494398497
0.15848932	3.0199517e-11	0.33	0.88349552	27.830223	-0.0026872281	-0.0182656	-0.018231531	-0.009643957	-0.0049494531	0	931.3877177040268
0.15848932	3.3113112e-11	0.33	0.80848738	25.614517	-0.0026716943	-0.018306698	-0.018269389	-0.0095610836	-0.0052403332	0	931.3905746028039
0.15848932	3.6307805e-11	0.33	0.74016555	23.594945	-0.0026561617	-0.018347799	-0.018306952	-0.0094852304	-0.0055051488	0	931.3935218407894
0.15848932	3.9810717e-11	0.33	0.67794877	21.754421	-0.0026406309	-0.018388901	-0.018344194	-0.0094157708	-0.0057461556	0	931.3965669157149
0.15848932	4.3651583e-11	0.33	0.62130725	20.077362	-0.0026251029	-0.018430002	-0.018381088	-0.0093521328	-0.00596541	0	931.3997172595421
0.15848932	4.7863009e-11	0.33	0.56975798	18.549554	-0.0026095793	-0.018471099	-0.018417602	-0.0092937937	-0.0061647871	0	931.4029812907767
0.15848932	5.2480746e-11	0.33	0.52286054	17.158026	-0.0025940624	-0.018512185	-0.018453704	-0.0092402767	-0.0063459982	0	931.4063667702285
0.15848932	5.7543994e-11	0.33	0.4802131	15.890924	-0.0025785559	-0.018553251	-0.018489358	-0.0091911454	-0.0065106062	0	931.4098813835419
0.15848932	6.3095734e-11	0.33	0.44144884	14.737406	-0.0025630658	-0.018594281	-0.018524521	-0.0091460015	-0.0066600419	0	931.4135328257572
0.15848932	6.9183097e-11	0.33	0.40623252	13.687529	-0.0025476014	-0.018635252	-0.018559144	-0.009104481	-0.0067956185	0	931.4173275516885
0.15848932	7.5857758e-11	0.33	0.37425722	12.732138	-0.0025321771	-0.018676127	-0.018593165	-0.0090662516	-0.006918548	0	931.4212712551016
0.15848932	8.3176377e-11	0.33	0.34524117	11.862753	-0.0025168161	-0.018716844	-0.018626501	-0.0090310093	-0.0070299567	0	931.4253678727755
0.15848932	9.1201084e-11	0.33	0.31892421	11.071385	-0.0025015598	-0.018757297	-0.018659028	-0.008998477	-0.0071309152	0	931.4296169537187
0.15848932	1.e-10	0.33	0.29505781	10.349713	-0.0024865365	-0.018797148	-0.018690392	-0.0089684024	-0.0072225749	0	931.434007711721
0.15848932	1.0964782e-10	0.33	0.27334353	9.6830579	-0.0024724992	-0.0188344	-0.018718588	-0.0089405587	-0.0073071851	0	931.4384543174876
0.15848932	1.2022644e-10	0.33	0.25330689	9.0378492	-0.0024620306	-0.018862188	-0.018736748	-0.0089147575	-0.00739022	0	931.4426596240812
0.15848932	1.3182567e-10	0.33	0.23471316	8.4035863	-0.0024559787	-0.018878248	-0.018742609	-0.0088908499	-0.0074733022	0	931.4465285380925
0.15848932	1.4454398e-10	0.33	0.21765483	7.8016435	-0.0024523538	-0.018887859	-0.01874146	-0.0088686903	-0.0075526806	0	931.4502906235235
0.15848932	1.5848932e-10	0.33	0.20213019	7.2428989	-0.0024499042	-0.018894347	-0.018736641	-0.0088481273	-0.0076263686	0	931.454086345394
0.15848932	1.7378008e-10	0.33	0.18805671	6.7291908	-0.0024480974	-0.018899127	-0.018729588	-0.0088290141	-0.0076939096	0	931.4579707810249
0.15848932	1.9054607e-10	0.33	0.17532638	6.2589744	-0.0024466859	-0.018902858	-0.018720983	-0.0088112138	-0.0077554271	0	931.4619650142624
0.15848932	2.0892961e-10	0.33	0.16382674	5.8295003	-0.0024455394	-0.018905885	-0.018711201	-0.0087946002	-0.0078112588	0	931.4660751992599
0.15848932	2.2908677e-10	0.33	0.15344854	5.4376306	-0.0024445821	-0.018908412	-0.018700477	-0.0087790582	-0.0078618187	0	931.470299691778
0.15848932	2.5118864e-10	0.33	0.14408865	5.0801799	-0.0024437664	-0.018910565	-0.018688968	-0.0087644826	-0.0079075393	0	931.4746345362463
0.15848932	2.7542287e-10	0.33	0.13565133	4.7540683	-0.0024430605	-0.018912429	-0.018676792	-0.0087507786	-0.007948845	0	931.4790730241684
0.15848932	3.0199517e-10	0.33	0.12804846	4.4563923	-0.002442442	-0.018914065	-0.01866404	-0.0087378602	-0.0079861397	0	931.4836079866607
0.15848932	3.3113112e-10	0.33	0.12119962	4.1844566	-0.0024418949	-0.018915516	-0.018650785	-0.0087256494	-0.0080197999	0	931.4882318226391
0.15848932	3.6307805e-10	0.33	0.11503174	3.9357843	-0.002441407	-0.018916816	-0.018637086	-0.0087140761	-0.0080501737	0	931.4929377014644
0.15848932	3.9810717e-10	0.33	0.10947876	3.7081151	-0.0024409688	-0.018917989	-0.018622992	-0.0087030767	-0.0080775783	0	931.4977193562349
0.15848932	4.3651583e-10	0.33	0.10448117	3.4993979	-0.0024405731	-0.018919057	-0.018608543	-0.0086925941	-0.0081023029	0	931.5025711495587
0.15848932	4.7863009e-10	0.33	0.099985539	3.3077777	-0.0024402138	-0.018920036	-0.018593775	-0.0086825763	-0.0081246082	0	931.5074876507483
0.15848932	5.2480746e-10	0.33	0.09594399	3.1315826	-0.0024398862	-0.018920939	-0.018578712	-0.0086729765	-0.0081447297	0	931.5124658344031
0.15848932	5.7543994e-10	0.33	0.092313732	2.9693084	-0.0024395862	-0.018921779	-0.018563378	-0.0086637524	-0.0081628786	0	931.5175021113835
0.15848932	6.3095734e-10	0.33	0.089056581	2.8196038	-0.0024393103	-0.018922564	-0.01854779	-0.0086548657	-0.0081792446	0	931.5225944992067
0.15848932	6.9183097e-10	0.33	0.086138521	2.6812566	-0.0024390558	-0.018923305	-0.018531959	-0.0086462814	-0.0081939973	0	931.5277421240764
0.15848932	7.5857758e-10	0.33	0.083529285	2.5531792	-0.0024388202	-0.018924007	-0.018515896	-0.0086379677	-0.0082072881	0	931.5329439242847
0.15848932	8.3176377e-10	0.33	0.081201995	2.4343971	-0.0024386012	-0.018924677	-0.018499605	-0.0086298958	-0.0082192528	0	931.538200820605
0.15848932	9.1201084e-10	0.33	0.079132798	2.3240365	-0.0024383972	-0.018925321	-0.018483089	-0.0086220392	-0.0082300122	0	931.543513386172
0.15848932	1.e-9	0.33	0.07730057	2.2213144	-0.0024382064	-0.018925945	-0.018466347	-0.0086143737	-0.0082396743	0	931.5488836222603
0.15848932	1.0964782e-9	0.33	0.075686631	2.1255286	-0.0024380275	-0.018926553	-0.018449377	-0.0086068769	-0.0082483349	0	931.5543133704181
0.15848932	1.2022644e-9	0.33	0.0742745	2.0360496	-0.0024378591	-0.018927148	-0.018432173	-0.0085995283	-0.00825608	0	931.5598058063758
0.15848932	1.3182567e-9	0.33	0.073049665	1.9523128	-0.0024377002	-0.018927735	-0.018414728	-0.0085923088	-0.0082629856	0	931.5653640400951
0.15848932	1.4454398e-9	0.33	0.071999389	1.8738114	-0.0024375496	-0.018928318	-0.018397032	-0.0085852008	-0.0082691195	0	931.57099229962
0.15848932	1.5848932e-9	0.33	0.071112528	1.8000911	-0.0024374067	-0.0189289	-0.018379074	-0.0085781876	-0.0082745417	0	931.5766945593118
0.15848932	1.7378008e-9	0.33	0.070379373	1.7307436	-0.0024372704	-0.018929482	-0.01836084	-0.0085712538	-0.0082793056	0	931.5824761934844
0.15848932	1.9054607e-9	0.33	0.069791503	1.6654026	-0.0024371401	-0.01893007	-0.018342315	-0.0085643847	-0.0082834585	0	931.5883424167253
0.15848932	2.0892961e-9	0.33	0.069341656	1.6037392	-0.0024370152	-0.018930664	-0.018323483	-0.0085575663	-0.0082870417	0	931.5942987536789
0.15848932	2.2908677e-9	0.33	0.069023613	1.5454578	-0.002436895	-0.018931267	-0.018304325	-0.0085507856	-0.0082900921	0	931.600351753116
0.15848932	2.5118864e-9	0.33	0.068832088	1.4902927	-0.002436779	-0.018931883	-0.018284822	-0.0085440298	-0.0082926417	0	931.6065077758935
0.15848932	2.7542287e-9	0.33	0.068762635	1.4380055	-0.0024366667	-0.018932512	-0.018264953	-0.0085372867	-0.0082947186	0	931.6127738029822
0.15848932	3.0199517e-9	0.33	0.068811555	1.3883814	-0.0024365577	-0.018933157	-0.018244694	-0.0085305446	-0.0082963474	0	931.6191576515658
0.15848932	3.3113112e-9	0.33	0.068975813	1.3412273	-0.0024364516	-0.018933821	-0.018224024	-0.008523792	-0.0082975489	0	931.6256662086582
0.15848932	3.6307805e-9	0.33	0.069252968	1.2963695	-0.002436348	-0.018934504	-0.018202916	-0.0085170178	-0.0082983414	0	931.6323082216131
0.15848932	3.9810717e-9	0.33	0.069641098	1.2536512	-0.0024362464	-0.018935209	-0.018181345	-0.008510211	-0.0082987405	0	931.639091911627
0.15848932	4.3651583e-9	0.33	0.070138736	1.2129311	-0.0024361468	-0.018935937	-0.018159284	-0.0085033608	-0.0082987591	0	931.6460256502276
0.15848932	4.7863009e-9	0.33	0.070744814	1.1740814	-0.0024360487	-0.018936691	-0.018136704	-0.0084964563	-0.008298408	0	931.6531188988373
0.15848932	5.2480746e-9	0.33	0.07145861	1.1369866	-0.0024359518	-0.018937472	-0.018113577	-0.0084894873	-0.0082976963	0	931.66038062091
0.15848932	5.7543994e-9	0.33	0.072279693	1.1015417	-0.002435856	-0.018938282	-0.018089873	-0.008482443	-0.0082966309	0	931.6678202120992
0.15848932	6.3095734e-9	0.33	0.073207885	1.0676512	-0.002435761	-0.018939123	-0.018065561	-0.008475313	-0.0082952177	0	931.675447566028
0.15848932	6.9183097e-9	0.33	0.074243219	1.0352281	-0.0024356666	-0.018939995	-0.01804061	-0.0084680867	-0.0082934606	0	931.6832724823626
0.15848932	7.5857758e-9	0.33	0.075385904	1.0041927	-0.0024355726	-0.018940901	-0.018014989	-0.0084607537	-0.0082913628	0	931.6913047607702
0.15848932	8.3176377e-9	0.33	0.076636294	0.97447167	-0.0024354788	-0.018941843	-0.017988663	-0.0084533034	-0.008288926	0	931.6995554411435
0.15848932	9.1201084e-9	0.33	0.077994869	0.94599745	-0.0024353851	-0.018942822	-0.017961601	-0.0084457252	-0.0082861509	0	931.7080342291924
0.15848932	1.e-8	0.33	0.079462205	0.91870748	-0.0024352913	-0.018943839	-0.017933769	-0.0084380086	-0.0082830376	0	931.716751854753
0.15848932	1.0964782e-8	0.33	0.081038964	0.89254353	-0.0024351972	-0.018944897	-0.017905133	-0.0084301427	-0.0082795851	0	931.7257190476622
0.15848932	1.2022644e-8	0.33	0.082725881	0.86745124	-0.0024351027	-0.018945996	-0.017875658	-0.0084221168	-0.0082757919	0	931.7349467538559
0.15848932	1.3182567e-8	0.33	0.084523755	0.84337964	-0.0024350076	-0.018947139	-0.017845309	-0.0084139201	-0.0082716558	0	931.744446013227
0.15848932	1.4454398e-8	0.33	0.086433443	0.82028078	-0.0024349119	-0.018948328	-0.017814051	-0.0084055418	-0.0082671739	0	931.7542276777554
0.15848932	1.5848932e-8	0.33	0.088455857	0.79810934	-0.0024348154	-0.018949564	-0.017781848	-0.0083969707	-0.0082623427	0	931.7643030973904
0.15848932	1.7378008e-8	0.33	0.09059197	0.77682245	-0.002434718	-0.018950848	-0.017748663	-0.0083881959	-0.0082571586	0	931.7746838381818
0.15848932	1.9054607e-8	0.33	0.092842816	0.75637938	-0.0024346196	-0.018952183	-0.01771446	-0.008379206	-0.0082516171	0	931.785381156122
0.15848932	2.0892961e-8	0.33	0.09520949	0.73674136	-0.0024345201	-0.01895357	-0.0176792	-0.0083699897	-0.0082457135	0	931.7964072373737
0.15848932	2.2908677e-8	0.33	0.097693167	0.71787148	-0.0024344193	-0.018955012	-0.017642847	-0.0083605358	-0.0082394426	0	931.8077734318866
0.15848932	2.5118864e-8	0.33	0.1002951	0.69973449	-0.0024343172	-0.01895651	-0.017605361	-0.0083508327	-0.0082327989	0	931.8194921419233
0.15848932	2.7542287e-8	0.33	0.10301662	0.68229672	-0.0024342137	-0.018958065	-0.017566703	-0.0083408684	-0.0082257761	0	931.8315755536462
0.15848932	3.0199517e-8	0.33	0.10585917	0.66552604	-0.0024341086	-0.018959681	-0.017526833	-0.0083306317	-0.0082183683	0	931.8440362572308
0.15848932	3.3113112e-8	0.33	0.10882429	0.64939171	-0.0024340019	-0.018961359	-0.01748571	-0.0083201103	-0.0082105685	0	931.8568869649966
0.15848932	3.6307805e-8	0.33	0.11191364	0.63386436	-0.0024338935	-0.018963101	-0.017443292	-0.0083092921	-0.0082023695	0	931.870140793276
0.15848932	3.9810717e-8	0.33	0.115129	0.61891597	-0.0024337832	-0.018964909	-0.017399537	-0.0082981649	-0.0081937638	0	931.8838109523576
0.15848932	4.3651583e-8	0.33	0.11847227	0.60451975	-0.0024336711	-0.018966785	-0.017354402	-0.0082867162	-0.0081847436	0	931.8979106807171
0.15848932	4.7863009e-8	0.33	0.12194552	0.59065018	-0.0024335569	-0.018968732	-0.01730784	-0.0082749335	-0.0081753005	0	931.912454832883
0.15848932	5.2480746e-8	0.33	0.12555093	0.57728289	-0.0024334406	-0.018970752	-0.017259808	-0.0082628038	-0.0081654256	0	931.9274567412874
0.15848932	5.7543994e-8	0.33	0.12929086	0.56439471	-0.0024333222	-0.018972847	-0.017210257	-0.0082503141	-0.00815511	0	931.9429315987018
0.15848932	6.3095734e-8	0.33	0.13316781	0.55196355	-0.0024332015	-0.01897502	-0.01715914	-0.0082374512	-0.008144344	0	931.9588941656982
0.15848932	6.9183097e-8	0.33	0.13718445	0.5399684	-0.0024330783	-0.018977273	-0.017106408	-0.0082242013	-0.0081331174	0	931.9753598229613
0.15848932	7.5857758e-8	0.33	0.14134363	0.52838933	-0.0024329527	-0.018979609	-0.017052009	-0.0082105508	-0.0081214202	0	931.9923445994759
0.15848932	8.3176377e-8	0.33	0.14564834	0.51720736	-0.0024328246	-0.01898203	-0.016995891	-0.0081964854	-0.0081092409	0	932.0098647121399
0.15848932	9.1201084e-8	0.33	0.15010179	0.50640451	-0.0024326937	-0.018984539	-0.016938001	-0.0081819908	-0.0080965686	0	932.0279368758212
0.15848932	1.e-7	0.33	0.15470734	0.49596369	-0.0024325601	-0.018987139	-0.016878284	-0.0081670522	-0.0080833912	0	932.0465780496738
0.15848932	1.0964782e-7	0.33	0.15946855	0.48586874	-0.0024324237	-0.018989833	-0.016816682	-0.0081516545	-0.0080696964	0	932.0658063109355
0.15848932	1.2022644e-7	0.33	0.16438916	0.47610428	-0.0024322842	-0.018992624	-0.016753137	-0.0081357823	-0.0080554713	0	932.0856399247566
0.15848932	1.3182567e-7	0.33	0.16947309	0.4666558	-0.0024321416	-0.018995514	-0.016687589	-0.0081194198	-0.0080407026	0	932.1060974945308
0.15848932	1.4454398e-7	0.33	0.17472448	0.45750949	-0.0024319959	-0.018998508	-0.016619975	-0.0081025508	-0.0080253764	0	932.127198553822
0.15848932	1.5848932e-7	0.33	0.18014764	0.4486523	-0.0024318469	-0.019001607	-0.016550232	-0.0080851585	-0.0080094782	0	932.1489628241068
0.15848932	1.7378008e-7	0.33	0.1857471	0.44007186	-0.0024316944	-0.019004816	-0.016478294	-0.0080672261	-0.0079929932	0	932.1714109570316
0.15848932	1.9054607e-7	0.33	0.19152757	0.43175643	-0.0024315385	-0.019008138	-0.016404092	-0.0080487359	-0.0079759056	0	932.1945642525429
0.15848932	2.0892961e-7	0.33	0.19749397	0.4236949	-0.0024313788	-0.019011577	-0.016327558	-0.00802967	-0.0079581996	0	932.2184441703132
0.15848932	2.2908677e-7	0.33	0.20365145	0.41587673	-0.0024312154	-0.019015136	-0.016248617	-0.0080100099	-0.0079398583	0	932.2430738706287
0.15848932	2.5118864e-7	0.33	0.21000534	0.40829192	-0.0024310482	-0.019018818	-0.016167198	-0.0079897366	-0.0079208645	0	932.2684754614615
0.15848932	2.7542287e-7	0.33	0.2165612	0.40093099	-0.0024308769	-0.019022629	-0.016083221	-0.0079688307	-0.0079012002	0	932.294674029207
0.15848932	3.0199517e-7	0.33	0.22332482	0.39378492	-0.0024307014	-0.019026571	-0.015996609	-0.0079472719	-0.0078808468	0	932.321693542177
0.15848932	3.3113112e-7	0.33	0.23030218	0.38684516	-0.0024305216	-0.019030649	-0.01590728	-0.0079250396	-0.0078597851	0	932.3495595189665
0.15848932	3.6307805e-7	0.33	0.23749953	0.38010361	-0.0024303375	-0.019034867	-0.015815149	-0.0079021127	-0.0078379955	0	932.3782983143835
0.15848932	3.9810717e-7	0.33	0.24492331	0.37355252	-0.0024301487	-0.01903923	-0.015720131	-0.0078784692	-0.007815457	0	932.4079366590622
0.15848932	4.3651583e-7	0.33	0.25258022	0.36718455	-0.0024299552	-0.019043742	-0.015622135	-0.0078540866	-0.0077921485	0	932.4385027681503
0.15848932	4.7863009e-7	0.33	0.26047719	0.36099272	-0.0024297569	-0.019048407	-0.01552107	-0.0078289417	-0.0077680481	0	932.4700249507514
0.15848932	5.2480746e-7	0.33	0.26862141	0.35497035	-0.0024295535	-0.019053231	-0.01541684	-0.0078030106	-0.0077431329	0	932.5025332541657
0.15848932	5.7543994e-7	0.33	0.2770203	0.3491111	-0.002429345	-0.019058219	-0.015309348	-0.0077762687	-0.0077173794	0	932.53605775388
0.15848932	6.3095734e-7	0.33	0.28568154	0.34340892	-0.002429131	-0.019063375	-0.015198492	-0.0077486906	-0.0076907632	0	932.5706304514899
0.15848932	6.9183097e-7	0.33	0.2946131	0.33785805	-0.0024289116	-0.019068705	-0.015084169	-0.0077202504	-0.0076632592	0	932.6062831888653
0.15848932	7.5857758e-7	0.33	0.30382321	0.33245297	-0.0024286865	-0.019074214	-0.014966269	-0.0076909211	-0.0076348417	0	932.643050354098
0.15848932	8.3176377e-7	0.33	0.31332035	0.32718842	-0.0024284554	-0.019079908	-0.014844684	-0.0076606749	-0.0076054835	0	932.6809657151666
0.15848932	9.1201084e-7	0.33	0.32311332	0.32205938	-0.0024282183	-0.019085793	-0.014719298	-0.0076294833	-0.0075751571	0	932.720065238633
0.15848932	1.e-6	0.33	0.33321117	0.31706102	-0.002427975	-0.019091874	-0.014589994	-0.0075973168	-0.0075438338	0	932.760385389028
0.15848932	1.0964782e-6	0.33	0.3436233	0.31218876	-0.0024277252	-0.019098158	-0.014456649	-0.0075641452	-0.0075114841	0	932.8019645851791
0.15848932	1.2022644e-6	0.33	0.35435938	0.30743818	-0.0024274687	-0.019104651	-0.014319139	-0.0075299371	-0.0074780773	0	932.8448414620133
0.15848932	1.3182567e-6	0.33	0.3654294	0.30280506	-0.0024272053	-0.019111359	-0.014177334	-0.0074946602	-0.0074435819	0	932.8890565147973
0.15848932	1.4454398e-6	0.33	0.3768437	0.29828538	-0.0024269348	-0.01911829	-0.014031102	-0.0074582814	-0.0074079655	0	932.9346508589106
0.15848932	1.5848932e-6	0.33	0.38861293	0.29387524	-0.002426657	-0.019125449	-0.013880303	-0.0074207664	-0.0073711945	0	932.9816680901856
0.15848932	1.7378008e-6	0.33	0.40074807	0.28957093	-0.0024263717	-0.019132845	-0.013724797	-0.0073820798	-0.0073332339	0	933.0301518044546
0.15848932	1.9054607e-6	0.33	0.41326049	0.28536888	-0.0024260786	-0.019140484	-0.013564438	-0.0073421853	-0.0072940482	0	933.0801475518457
0.15848932	2.0892961e-6	0.33	0.4261619	0.28126566	-0.0024257774	-0.019148375	-0.013399074	-0.0073010452	-0.0072536003	0	933.1317027428264
0.15848932	2.2908677e-6	0.33	0.43946438	0.27725798	-0.0024254679	-0.019156524	-0.01322855	-0.0072586208	-0.0072118519	0	933.1848656240777
0.15848932	2.5118864e-6	0.33	0.45318041	0.27334268	-0.0024251499	-0.01916494	-0.013052705	-0.0072148723	-0.0071687639	0	933.2396863026192
0.15848932	2.7542287e-6	0.33	0.46732286	0.26951672	-0.002424823	-0.019173632	-0.012871374	-0.0071697584	-0.0071242954	0	933.2962163136108
0.15848932	3.0199517e-6	0.33	0.48190501	0.26577716	-0.0024244871	-0.019182608	-0.012684387	-0.0071232368	-0.0070784045	0	933.3545084606252
0.15848932	3.3113112e-6	0.33	0.49694056	0.2621212	-0.0024241417	-0.019191876	-0.012491567	-0.0070752636	-0.0070310481	0	933.4146180934567
0.15848932	3.6307805e-6	0.33	0.51244362	0.25854612	-0.0024237866	-0.019201446	-0.012292734	-0.0070257937	-0.0069821812	0	933.4766012102006
0.15848932	3.9810717e-6	0.33	0.52842877	0.25504931	-0.0024234215	-0.019211327	-0.012087699	-0.0069747805	-0.0069317579	0	933.5405166934172
0.15848932	4.3651583e-6	0.33	0.54491107	0.25162826	-0.0024230461	-0.019221529	-0.01187627	-0.0069221762	-0.0068797306	0	933.6064243558367
0.15848932	4.7863009e-6	0.33	0.56190601	0.24828054	-0.0024226601	-0.019232061	-0.011658249	-0.0068679311	-0.0068260502	0	933.6743858705286
0.15848932	5.2480746e-6	0.33	0.57942958	0.24500382	-0.002422263	-0.019242935	-0.011433429	-0.0068119942	-0.0067706661	0	933.7444658889848
0.15848932	5.7543994e-6	0.33	0.5974983	0.24179585	-0.0024218547	-0.01925416	-0.011201599	-0.006754313	-0.006713526	0	933.8167299270971
0.15848932	6.3095734e-6	0.33	0.61612918	0.23865445	-0.0024214346	-0.019265747	-0.010962542	-0.0066948331	-0.006654576	0	933.8912458308791
0.15848932	6.9183097e-6	0.33	0.63533976	0.23557753	-0.0024210024	-0.019277708	-0.010716031	-0.0066334986	-0.0065937606	0	933.9680842650415
0.15848932	7.5857758e-6	0.33	0.65514816	0.23256306	-0.0024205577	-0.019290054	-0.010461835	-0.0065702518	-0.0065310222	0	934.0473172284766
0.15848932	8.3176377e-6	0.33	0.67557304	0.22960909	-0.0024201002	-0.019302798	-0.010199714	-0.0065050332	-0.0064663019	0	934.1290194166295
0.15848932	9.1201084e-6	0.33	0.69663367	0.22671373	-0.0024196294	-0.01931595	-0.0099294224	-0.0064377813	-0.0063995384	0	934.2132674491759
0.15848932	0.00001	0.33	0.71834991	0.22387516	-0.002419145	-0.019329525	-0.0096507045	-0.006368433	-0.0063306689	0	934.3001408894488
0.15848932	0.000010964782	0.33	0.74074223	0.22109162	-0.0024186463	-0.019343535	-0.0093632982	-0.0062969229	-0.0062596284	0	934.3897216609698
0.15848932	0.000012022644	0.33	0.76383177	0.2183614	-0.0024181331	-0.019357993	-0.0090669327	-0.0062231837	-0.0061863497	0	934.4820939149702
0.15848932	0.000013182567	0.33	0.78764032	0.21568286	-0.0024176048	-0.019372913	-0.0087613288	-0.0061471461	-0.0061107639	0	934.5773447829821
0.15848932	0.000014454398	0.33	0.81219034	0.2130544	-0.0024170609	-0.01938831	-0.0084461986	-0.0060687384	-0.0060327996	0	934.6755640000731
0.15848932	0.000015848932	0.33	0.83750503	0.21047449	-0.0024165009	-0.019404198	-0.0081212455	-0.0059878869	-0.0059523833	0	934.7768439988038
0.15848932	0.000017378008	0.33	0.86360826	0.20794163	-0.0024159244	-0.019420593	-0.0077861629	-0.0059045153	-0.005869439	0	934.8812802183429
0.15848932	0.000019054607	0.33	0.89052471	0.20545438	-0.0024153307	-0.019437509	-0.0074406351	-0.0058185453	-0.0057838885	0	934.9889712012439
0.15848932	0.000020892961	0.33	0.91827979	0.20301135	-0.0024147193	-0.019454963	-0.0070843368	-0.0057298958	-0.0056956511	0	935.1000182786903
0.15848932	0.000022908677	0.33	0.94689975	0.20061118	-0.0024140897	-0.019472972	-0.0067169318	-0.0056384833	-0.0056046435	0	935.2145261614822
0.15848932	0.000025118864	0.33	0.97641162	0.19825256	-0.0024134412	-0.019491552	-0.006338074	-0.0055442219	-0.00551078	0	935.3326028178926
0.15848932	0.000027542287	0.33	1.0068433	0.19593423	-0.0024127732	-0.019510721	-0.0059474062	-0.0054470226	-0.0054139717	0	935.4543595638659
0.15848932	0.000030199517	0.33	1.0382235	0.19365495	-0.002412085	-0.019530496	-0.0055445601	-0.0053467939	-0.0053141275	0	935.5799112509309
0.15848932	0.000033113112	0.33	1.070582	0.19141352	-0.002411376	-0.019550897	-0.0051291558	-0.0052434413	-0.005211153	0	935.7093762333159
0.15848932	0.000036307805	0.33	1.1039494	0.18920881	-0.0024106455	-0.019571943	-0.0047008013	-0.0051368676	-0.0051049512	0	935.8428767108906
0.15848932	0.000039810717	0.33	1.1383572	0.1870397	-0.0024098928	-0.019593652	-0.0042590933	-0.0050269722	-0.0049954216	0	935.9805383871633
0.15848932	0.000043651583	0.33	1.173838	0.18490516	-0.0024091171	-0.019616047	-0.0038036147	-0.0049136515	-0.004882461	0	936.1224913383801
0.15848932	0.000047863009	0.33	1.2104252	0.18280437	-0.0024083176	-0.019639147	-0.0033339368	-0.0047967988	-0.0047659627	0	936.2688692374427
0.15848932	0.000052480746	0.33	1.2481524	0.18073727	-0.002407493	-0.019662979	-0.0028496209	-0.0046763039	-0.0046458165	0	936.4198093276013
0.15848932	0.000057543994	0.33	1.2870482	0.17870544	-0.0024066401	-0.019687596	-0.0023502422	-0.0045520536	-0.004521909	0	936.5754463274943
0.15848932	0.000063095734	0.33	1.3270978	0.17669798	-0.00240574	-0.019713251	-0.0018355578	-0.0044239333	-0.0043941273	0	936.7358733076461
0.15848932	0.000069183097	0.33	1.3679699	0.17444359	-0.0024046645	-0.0197416	-0.0013067145	-0.0042918406	-0.0042624149	0	936.9008551474658
0.15848932	0.000075857758	0.33	1.4078163	0.16949251	-0.002402666	-0.019781365	-0.00077191084	-0.0041557664	-0.0041271758	0	937.068552254854
0.15848932	0.000083176377	0.33	1.4452162	0.15763735	-0.0023979339	-0.01984381	-0.00024186796	-0.0040159257	-0.0039893348	0	937.2373416469875
0.15848932	0.000091201084	0.33	1.4856187	0.14659687	-0.0023903392	-0.0199123	0.00030060739	-0.0038723153	-0.0038475868	0	937.4126754078405
0.15848932	0.0001	0.33	1.5303291	0.14094527	-0.0023813483	-0.019977496	0.0008654292	-0.0037245194	-0.0037007442	0	937.5962496564739
0.15848932	0.00010964782	0.33	1.5776349	0.13809058	-0.0023717514	-0.020042106	0.0014504851	-0.0035722027	-0.0035489091	0	937.7866669941609
0.15848932	0.00012022644	0.33	1.6267465	0.1361797	-0.0023617823	-0.02010795	0.002054567	-0.0034151572	-0.0033921859	0	937.9833331742863
0.15848932	0.00013182567	0.33	1.6774721	0.13455172	-0.0023514934	-0.020175618	0.0026777149	-0.0032532178	-0.0032305211	0	938.1862113658885
0.15848932	0.00014454398	0.33	1.7298013	0.13301337	-0.0023408898	-0.020245305	0.0033203873	-0.0030862275	-0.0030637903	0	938.3954389381192
0.15848932	0.00015848932	0.33	1.7837705	0.13151312	-0.0023299654	-0.020317101	0.0039831636	-0.0029140274	-0.0028918433	0	938.6112012691017
0.15848932	0.00017378008	0.33	1.8394282	0.13003782	-0.002318711	-0.020391076	0.0046666675	-0.0027364546	-0.0027145193	0	938.8337003851165
0.15848932	0.00019054607	0.33	1.8968273	0.12858394	-0.0023071169	-0.020467295	0.0053715483	-0.0025533408	-0.0025316508	0	939.063146719676
0.15848932	0.00020892961	0.33	1.9560222	0.12715023	-0.0022951728	-0.020545822	0.0060984768	-0.0023645128	-0.0023430646	0	939.2997579362468
0.15848932	0.00022908677	0.33	2.0170698	0.12573595	-0.0022828682	-0.020626724	0.0068481461	-0.0021697916	-0.002148582	0	939.5437588004712
0.15848932	0.00025118864	0.33	2.0800286	0.12434046	-0.0022701922	-0.02071007	0.0076212707	-0.001968993	-0.0019480188	0	939.7953810890274
0.15848932	0.00027542287	0.33	2.144959	0.12296319	-0.0022571337	-0.020795929	0.0084185883	-0.0017619265	-0.0017411846	0	940.0548639598192
0.15848932	0.00030199517	0.33	2.2119233	0.12160356	-0.0022436812	-0.020884372	0.0092408601	-0.0015483959	-0.0015278833	0	940.3224542329056
0.15848932	0.00033113112	0.33	2.280986	0.12026102	-0.002229823	-0.020975471	0.010088872	-0.0013281986	-0.0013079125	0	940.5984065746559
0.15848932	0.00036307805	0.33	2.3522136	0.11893504	-0.0022155471	-0.021069302	0.010963436	-0.0011011256	-0.0010810632	0	940.8829840257858
0.15848932	0.00039810717	0.33	2.4256747	0.11762509	-0.0022008409	-0.021165939	0.011865388	-0.00086696152	-0.00084712009	0	941.176457601102
0.15848932	0.00043651583	0.33	2.5014403	0.11633066	-0.0021856919	-0.02126546	0.012795593	-0.00062548383	-0.00060586075	0	941.4791072441001
0.15848932	0.00047863009	0.33	2.5795838	0.11505126	-0.0021700869	-0.021367943	0.013754944	-0.00037646305	-0.00035705578	0	941.7912222375558
0.15848932	0.00052480746	0.33	2.6601806	0.11378642	-0.0021540126	-0.021473468	0.014744359	-0.00011966249	-0.00010046858	0	942.1130997096154
0.15848932	0.00057543994	0.33	2.7433092	0.11253566	-0.0021374552	-0.021582116	0.015764793	0.00014516228	0.00016414521	0	942.4450487303011
0.15848932	0.00063095734	0.33	2.8290502	0.11129852	-0.0021204007	-0.021693969	0.016817225	0.00041826329	0.00043703753	0	942.787385998905
0.15848932	0.00069183097	0.33	2.9174872	0.11007455	-0.0021028348	-0.021809111	0.01790267	0.00069990074	0.00071846852	0	943.1404396586257
0.15848932	0.00075857758	0.33	3.0087065	0.10886332	-0.0020847426	-0.021927626	0.019022176	0.00099034323	0.0010087067	0	943.5045486482675
0.15848932	0.00083176377	0.33	3.1027973	0.10766441	-0.0020661091	-0.0220496	0.020176824	0.0012898676	0.0013080288	0	943.8800622324582
0.15848932	0.00091201084	0.33	3.1998519	0.10647739	-0.0020469188	-0.022175119	0.021367732	0.00159876	0.001616721	0	944.2673416177008
0.15848932	0.001	0.33	3.2999655	0.10530186	-0.0020271561	-0.022304269	0.022596052	0.0019173156	0.0019350783	0	944.6667586463782
0.15848932	0.0010964782	0.33	3.4032369	0.10413742	-0.0020068046	-0.022437137	0.02386298	0.0022458391	0.0022634054	0	945.0786995550144
0.15848932	0.0012022644	0.33	3.5097676	0.10298394	-0.0019858482	-0.022573811	0.025169745	0.0025846449	0.0026020166	0	945.5035605301308
0.15848932	0.0013182567	0.33	3.619452	0.10186373	-0.0019642915	-0.022715006	0.026516994	0.0029340545	0.0029512372	0	945.9415378563245
0.15848932	0.0014454398	0.33	3.7013101	0.088549563	-0.0019481537	-0.022945476	0.027821376	0.0032935148	0.0033084517	0	946.3611325770498
0.15848932	0.0015848932	0.33	3.8038034	0.078976203	-0.0019629405	-0.023039392	0.029310167	0.0036609432	0.0036742651	0	946.8088488363397
0.15848932	0.0017378008	0.33	3.9231387	0.07820228	-0.0019826014	-0.023079422	0.03090219	0.0040396387	0.0040528301	0	947.283993319527
0.15848932	0.0019054607	0.33	4.0462731	0.077558361	-0.0020027822	-0.023120494	0.032544056	0.004430219	0.0044433018	0	947.7741034720827
0.15848932	0.0020892961	0.33	4.1732216	0.077086438	-0.0020235049	-0.023162949	0.03423701	0.004833057	0.0048460602	0	948.2795446439939
0.15848932	0.0022908677	0.33	4.3038584	0.076891257	-0.0020448684	-0.023207409	0.035982066	0.0052485224	0.0052614927	0	948.8005383096045
0.15848932	0.0025118864	0.33	4.4376482	0.076756691	-0.0020672009	-0.023255264	0.037779521	0.0056769547	0.0056899023	0	949.3368681903663
0.15848932	0.0027542287	0.33	4.5741168	0.075369549	-0.0020914648	-0.023306025	0.039631603	0.0061186315	0.0061313451	0	949.8883208546148
0.15848932	0.0030199517	0.33	4.7149285	0.072286583	-0.0021192428	-0.023350341	0.041549458	0.0065738766	0.0065860702	0	950.4568651427495
0.15848932	0.0033113112	0.33	4.8616965	0.069990609	-0.0021506403	-0.02338294	0.043540207	0.0070432176	0.0070550239	0	951.0446099373853
0.15848932	0.0036307805	0.33	5.012746	0.069297236	-0.0021839759	-0.023414634	0.045594944	0.00752718	0.0075388693	0	951.6503736599298
0.15848932	0.0039810717	0.33	5.1652213	0.067808589	-0.0022178969	-0.023459889	0.047701172	0.0080260316	0.0080374698	0	952.2715524835323
0.15848932	0.0043651583	0.33	5.3224205	0.063702403	-0.0022519795	-0.023510678	0.049868944	0.008540003	0.0085507486	0	952.9116615946415
0.15848932	0.0047863009	0.33	5.4880541	0.061182624	-0.002277284	-0.02358207	0.052085283	0.009069803	0.0090801235	0	953.5750768215662
0.15848932	0.0052480746	0.33	5.6615402	0.060352747	-0.0022441365	-0.023826198	0.054200212	0.0096162322	0.0096264127	0	954.2619686860215
0.15848932	0.0057543994	0.33	5.8409897	0.059660887	-0.0022023869	-0.024098266	0.056360753	0.010179968	0.010190032	0	954.9710850856397
0.15848932	0.0063095734	0.33	6.0263044	0.058978304	-0.0021594196	-0.024376776	0.058590694	0.010761581	0.01077153	0	955.7028635196306
0.15848932	0.0069183097	0.33	6.1338005	0.051462353	-0.0018539473	-0.025735156	0.059818973	0.011357975	0.011366656	0	956.3707106763111
0.15848932	0.0075857758	0.33	6.3049269	0.048703594	-0.0015608757	-0.026891244	0.061330191	0.011967615	0.011975831	0	957.114633659542
0.15848932	0.0083176377	0.33	6.4952279	0.045546587	-0.0014433066	-0.027484165	0.063487736	0.012594633	0.012602316	0	957.8940585047444
0.15848932	0.0091201084	0.33	6.7037504	0.045019722	-0.0013817623	-0.027874122	0.065933998	0.013241508	0.013249103	0	958.7103629905475
0.15848932	0.01	0.33	6.9193579	0.044498844	-0.0013185221	-0.028271806	0.06846096	0.013909171	0.013916677	0	959.5532824500635
0.15848932	0.010964782	0.33	7.1423254	0.043982643	-0.0012535445	-0.028677068	0.071071528	0.014598326	0.014605745	0	960.4237568996339
0.15848932	0.012022644	0.33	7.372944	0.043471148	-0.0011867983	-0.029089677	0.073768775	0.015309711	0.015317044	0	961.3227684575232
0.15848932	0.013182567	0.33	7.6115198	0.042964579	-0.001118253	-0.029509351	0.076555915	0.016044091	0.016051339	0	962.2513423022763
0.15848932	0.014454398	0.33	7.8583747	0.042463491	-0.0010478795	-0.029935754	0.079436307	0.016802261	0.016809424	0	963.2105472552482
0.15848932	0.015848932	0.33	8.1138479	0.041969034	-0.00097565041	-0.030368481	0.082413472	0.017585049	0.017592129	0	964.201500760301
0.15848932	0.017378008	0.33	8.3782964	0.041483369	-0.00090153944	-0.030807062	0.085491095	0.018393318	0.018400315	0	965.2253700770517
0.15848932	0.019054607	0.33	8.6520968	0.041010497	-0.00082552142	-0.031250951	0.088673037	0.019227965	0.019234882	0	966.2833759827595
0.15848932	0.020892961	0.33	8.9356454	0.040557604	-0.00074756985	-0.031699532	0.091963331	0.020089926	0.020096767	0	967.3767938340349
0.15848932	0.022908677	0.33	9.2293593	0.040137418	-0.00066765368	-0.032152123	0.095366184	0.020980178	0.020986948	0	968.506957212353
0.15848932	0.025118864	0.33	9.5336741	0.039772192	-0.00058572871	-0.032608001	0.098885953	0.021899738	0.021906446	0	969.6752585629582
0.15848932	0.027542287	0.33	9.8490379	0.039500803	-0.00050173332	-0.033066441	0.10252711	0.022849666	0.022856329	0	970.8831423548281
0.15848932	0.030199517	0.33	10.175888	0.039395361	-0.00041567909	-0.033526511	0.10629445	0.023831069	0.023837715	0	972.1320844290278
0.15848932	0.033113112	0.33	10.514072	0.039742598	-0.00033566649	-0.03396471	0.11021547	0.02484508	0.024851784	0	973.4229994900081
0.15848932	0.036307805	0.33	10.860816	0.039413788	-0.00031070449	-0.03424261	0.11443269	0.025892678	0.025899327	0	974.7540296694327
0.15848932	0.039810717	0.33	11.222953	0.037298417	-0.00031767237	-0.03440922	0.11890135	0.026974937	0.026981229	0	976.1330202628089
0.15848932	0.043651583	0.33	11.601425	0.036041108	-0.00032490222	-0.034556779	0.12353357	0.028093526	0.028099605	0	977.5624775701037
0.15848932	0.047863009	0.33	11.994845	0.035010477	-0.00033124881	-0.034693185	0.12832597	0.029249945	0.029255851	0	979.0424296185513
0.15848932	0.052480746	0.33	12.403861	0.034003491	-0.0003359674	-0.034818728	0.1332829	0.030445689	0.030451425	0	980.5749248861102
0.15848932	0.057543994	0.33	12.829203	0.033100219	-0.00033701515	-0.03493729	0.13840527	0.031682322	0.031687905	0	982.162164905935
0.15848932	0.063095734	0.33	13.271617	0.03227845	-0.00033288188	-0.035051025	0.14369586	0.03296148	0.032966925	0	983.806430548078
0.15848932	0.069183097	0.33	13.003119	0.030953925	-0.0011908861	-0.0348914	0.14942831	0.034280952	0.034286173	0	984.7776632717126
0.15848932	0.075857758	0.33	12.076393	0.029219381	-0.0028008507	-0.034994864	0.15507142	0.035519546	0.035524475	0	985.0146796241646
0.15848932	0.083176377	0.33	11.231209	0.027637459	-0.0042691558	-0.035774023	0.16021799	0.036649158	0.03665382	0	985.2308388472818
0.15848932	0.091201084	0.33	10.460392	0.026194728	-0.0056082661	-0.037190773	0.16491172	0.037679376	0.037683795	0	985.427979012758
0.15848932	0.1	0.33	10.788164	0.024504949	-0.0057960554	-0.038842332	0.16956115	0.038677044	0.038681177	0	986.6931249907097
0.15848932	0.10964782	0.33	12.162637	0.022634768	-0.0048535554	-0.040360886	0.17454003	0.039799693	0.039803511	0	989.1223997659215
0.15848932	0.12022644	0.33	13.838746	0.020880937	-0.0034846045	-0.041949643	0.17965128	0.041071437	0.04107496	0	991.9933952178247
0.15848932	0.13182567	0.33	15.875151	0.019239213	-0.0015838719	-0.04364694	0.18486288	0.042524608	0.042527854	0	995.3951485051599
0.15848932	0.14454398	0.33	18.346894	0.017705953	0.00097927617	-0.04549542	0.1901387	0.044198046	0.044201033	0	999.4391962480474
0.15848932	0.15848932	0.33	21.351283	0.016278107	0.004368256	-0.047540018	0.19544052	0.046138989	0.046141734	0	1004.2672283682635
0.15848932	0.17378008	0.33	25.014183	0.014953193	0.0087876631	-0.049825569	0.20073043	0.04840556	0.048408082	0	1010.0597214733715
0.15848932	0.19054607	0.33	29.495431	0.013729237	0.01449116	-0.052393916	0.20597372	0.051069853	0.051072169	0	1017.0442460237646
0.15848932	0.20892961	0.33	34.991266	0.01260464	0.021786369	-0.05528035	0.21114247	0.054221412	0.054223538	0	1025.5011764941007
0.15848932	0.22908677	0.33	41.730822	0.011577965	0.031033181	-0.058509321	0.21621982	0.057970694	0.057972647	0	1035.7634263501066
0.15848932	0.25118864	0.33	49.963424	0.010647605	0.042631359	-0.06208971	0.22120473	0.062451752	0.062453548	0	1048.2062765959654
0.15848932	0.27542287	0.33	59.934544	0.0098113557	0.056994454	-0.066010612	0.22611616	0.067823138	0.067824793	0	1063.2241640942175
0.15848932	0.30199517	0.33	71.851683	0.0090659549	0.074510785	-0.070239184	0.2309953	0.074265911	0.07426744	0	1081.1947111519419
0.15848932	0.33113112	0.33	85.846744	0.0084067189	0.095498355	-0.07472227	0.23590387	0.08197806	0.081979478	0	1102.4358390603575
0.15848932	0.36307805	0.33	101.94609	0.0078274139	0.12016602	-0.079392556	0.24091805	0.091165514	0.091166834	0	1127.1674017893642
0.15848932	0.39810717	0.33	120.0593	0.0073204529	0.14859357	-0.084178125	0.24611888	0.10203106	0.10203229	0	1155.489494242306
0.15848932	0.43651583	0.33	139.99116	0.0068773794	0.18073685	-0.089012645	0.25158211	0.11476329	0.11476445	0	1187.3841166959905
0.15848932	0.47863009	0.33	161.47216	0.0064894898	0.21645387	-0.093843169	0.25737039	0.12952773	0.12952883	0	1222.7372853102
0.15848932	0.52480746	0.33	184.19676	0.0061484151	0.2555413	-0.098633863	0.26352957	0.14646141	0.14646244	0	1261.3721743558467
0.15848932	0.57543994	0.33	207.85844	0.0058465418	0.29777006	-0.10336585	0.27008884	0.16567108	0.16567207	0	1303.0825987537
0.15848932	0.63095734	0.33	232.17541	0.0055772349	0.34291296	-0.1080345	0.27706349	0.18723453	0.18723547	0	1347.6598394167795
0.15848932	0.69183097	0.33	256.90545	0.0053348932	0.39076251	-0.11264566	0.28445862	0.21120376	0.21120466	0	1394.910527219098
0.15848932	0.75857758	0.33	281.85165	0.0051148938	0.44114008	-0.11721206	0.29227285	0.23760923	0.23761009	0	1444.6663997241246
0.15848932	0.83176377	0.33	306.86197	0.0049134776	0.49389885	-0.1217503	0.30050122	0.26646433	0.26646516	0	1496.7879720666072
0.15848932	0.91201084	0.33	331.82522	0.0047276155	0.54892309	-0.12627872	0.30913744	0.29776958	0.29777038	0	1551.1645580927936
0.15848932	1.	0.33	356.66552	0.0045548783	0.60612548	-0.13081594	0.31817531	0.33151639	0.33151716	0	1607.7121926056157
0.15848932	1.0964782	0.33	381.33638	0.0043933196	0.66544371	-0.13537998	0.32760958	0.3676902	0.36769094	0	1666.3707034911458
0.15848932	1.2022644	0.33	405.8151	0.0042413784	0.72683702	-0.13998787	0.33743643	0.40627313	0.40627384	0	1727.100609649638
0.15848932	1.3182567	0.33	430.09793	0.0040977988	0.79028293	-0.14465537	0.34765372	0.44724601	0.4472467	0	1789.880126130974
0.15848932	1.4454398	0.33	454.19581	0.0039615652	0.85577452	-0.14939699	0.35826095	0.49059007	0.49059074	0	1854.7025961146492
0.15848932	1.5848932	0.33	478.131	0.0038318523	0.92331794	-0.15422604	0.36925928	0.5362882	0.53628884	0	1921.5741575931818
0.15848932	1.7378008	0.33	501.93426	0.0037079844	0.99293056	-0.15915473	0.38065143	0.58432589	0.58432651	0	1990.5119741705596
0.15848932	1.9054607	0.33	525.64262	0.0035894048	1.0646393	-0.16419431	0.39244152	0.63469199	0.63469259	0	2061.5426163790544
0.15848932	2.0892961	0.33	549.29763	0.0034756506	1.1384792	-0.16935523	0.40463499	0.68737919	0.68737977	0	2134.7006932962468
0.15848932	2.2908677	0.33	572.94397	0.0033663343	1.2144926	-0.1746472	0.41723847	0.74238444	0.742385	0	2210.0280417940844
0.15848932	2.5118864	0.33	596.62839	0.0032611283	1.2927281	-0.18007939	0.43025965	0.79970916	0.79970971	0	2287.5727090835667
0.15848932	2.7542287	0.33	620.39889	0.0031597531	1.3732402	-0.18566048	0.44370726	0.85935943	0.85935997	0	2367.388608270085
0.15848932	3.0199517	0.33	644.30412	0.0030619684	1.4560881	-0.19139878	0.45759093	0.92134608	0.9213466	0	2449.534347467086
0.15848932	3.3113112	0.33	668.39287	0.0029675653	1.5413359	-0.19730232	0.47192112	0.9856847	0.9856852	0	2534.0733960051784
0.15848932	3.6307805	0.33	692.71378	0.0028763608	1.6290521	-0.20337887	0.48670912	1.0523957	1.0523961	0	2621.073614649462
0.15848932	3.9810717	0.33	717.3151	0.0027881928	1.7193092	-0.20963609	0.50196696	1.1215041	1.1215046	0	2710.606851868296
0.15848932	4.3651583	0.33	742.24451	0.0027029168	1.8121835	-0.21608149	0.5177074	1.1930398	1.1930403	0	2802.748752819659
0.15848932	4.7863009	0.33	767.54904	0.0026204026	1.9077552	-0.22272255	0.53394388	1.2670374	1.2670378	0	2897.5788378048637
0.15848932	5.2480746	0.33	793.275	0.0025405323	2.0061078	-0.22956672	0.55069049	1.3435357	1.3435361	0	2995.179929227642
0.15848932	5.7543994	0.33	819.46799	0.0024631978	2.1073287	-0.23662149	0.56796202	1.4225784	1.4225788	0	3095.638730836187
0.15848932	6.3095734	0.33	846.17292	0.0023882997	2.2115085	-0.24389436	0.58577386	1.5042135	1.5042139	0	3199.0451390217527
0.15848932	6.9183097	0.33	873.43399	0.0023157459	2.3187414	-0.25139296	0.60414205	1.5884933	1.5884937	0	3305.4926341476194
0.15848932	7.5857758	0.33	901.29482	0.0022454506	2.4291249	-0.25912498	0.62308328	1.6754745	1.6754749	0	3415.0779986794896
0.15848932	8.3176377	0.33	929.79848	0.0021773333	2.54276	-0.26709827	0.64261484	1.765218	1.7652184	0	3527.9014895957316
0.15848932	9.1201084	0.33	958.98753	0.0021113182	2.6597513	-0.2753208	0.66275467	1.8577889	1.8577892	0	3644.0669478467403
0.15848932	10.	0.33	988.90417	0.0020473338	2.7802067	-0.28380073	0.68352137	1.9532564	1.9532567	0	3763.6815195858994