0.10964782	1.e-12	0.6	4.8045627	199.63245	-0.016370176	0.012855093	0.01286688	-0.013763649	0.009533573	0	931.4380646233633
0.10964782	1.0964782e-12	0.6	4.3842528	182.44382	-0.016380116	0.012875056	0.012887976	-0.013313587	0.007977713	0	931.4406179861583
0.10964782	1.2022644e-12	0.6	4.0009656	166.76596	-0.016390044	0.012894965	0.012909126	-0.012902884	0.0065588008	0	931.4432130656551
0.10964782	1.3182567e-12	0.6	3.6514499	152.46636	-0.016399967	0.012914834	0.012930354	-0.012528073	0.00526484	0	931.4458568146368
0.10964782	1.4454398e-12	0.6	3.332741	139.42425	-0.016409897	0.012934684	0.012951692	-0.012185991	0.0040849	0	931.4485559979744
0.10964782	1.5848932e-12	0.6	3.042136	127.52956	-0.016419844	0.012954536	0.012973171	-0.011873753	0.0030090207	0	931.4513186959296
0.10964782	1.7378008e-12	0.6	2.7771705	116.68197	-0.016429819	0.012974411	0.012994827	-0.011588727	0.0020281272	0	931.4541548678951
0.10964782	1.9054607e-12	0.6	2.5355976	106.79004	-0.016439835	0.012994332	0.013016695	-0.01132851	0.0011339496	0	931.4570720303936
0.10964782	2.0892961e-12	0.6	2.3153687	97.770401	-0.016449902	0.013014322	0.013038813	-0.011090912	0.00031895053	0	931.4600822098621
0.10964782	2.2908677e-12	0.6	2.114616	89.547049	-0.016460031	0.0130344	0.013061216	-0.010873933	-0.00042374088	0	931.4631948019535
0.10964782	2.5118864e-12	0.6	1.9316362	82.050666	-0.016470229	0.013054585	0.013083937	-0.01067575	-0.0011003893	0	931.4664218331045
0.10964782	2.7542287e-12	0.6	1.7648765	75.218023	-0.016480504	0.013074889	0.013107009	-0.010494696	-0.001716709	0	931.4697743901864
0.10964782	3.0199517e-12	0.6	1.6129204	68.991426	-0.01649086	0.013095325	0.013130457	-0.010329252	-0.0022779131	0	931.473262808418
0.10964782	3.3113112e-12	0.6	1.4744765	63.318225	-0.0165013	0.013115897	0.013154308	-0.010178033	-0.0027887592	0	931.4768994900616
0.10964782	3.6307805e-12	0.6	1.3483665	58.150349	-0.016511823	0.013136608	0.013178582	-0.010039771	-0.0032535912	0	931.4806966494672
0.10964782	3.9810717e-12	0.6	1.2335158	53.443905	-0.016522429	0.013157456	0.013203294	-0.0099133104	-0.0036763758	0	931.4846627427227
0.10964782	4.3651583e-12	0.6	1.1289436	49.158792	-0.016533113	0.013178438	0.013228458	-0.0097975974	-0.0040607379	0	931.4888103600035
0.10964782	4.7863009e-12	0.6	1.0337547	45.258363	-0.016543871	0.013199544	0.013254084	-0.0096916684	-0.0044099913	0	931.4931488969638
0.10964782	5.2480746e-12	0.6	0.94713165	41.70911	-0.016554698	0.013220768	0.013280178	-0.0095946445	-0.0047271673	0	931.497686433865
0.10964782	5.7543994e-12	0.6	0.86832779	38.480377	-0.016565588	0.013242098	0.013306743	-0.0095057228	-0.0050150406	0	931.5024302993172
0.10964782	6.3095734e-12	0.6	0.79666044	35.544093	-0.016576535	0.013263524	0.013333778	-0.0094241711	-0.0052761549	0	931.5073855669732
0.10964782	6.9183097e-12	0.6	0.7315052	32.874538	-0.016587532	0.013285036	0.01336128	-0.0093493206	-0.005512843	0	931.5125571225726
0.10964782	7.5857758e-12	0.6	0.67229045	30.448122	-0.016598574	0.013306624	0.013389243	-0.0092805615	-0.0057272481	0	931.5179462815072
0.10964782	8.3176377e-12	0.6	0.61849266	28.243196	-0.016609655	0.013328277	0.013417654	-0.0092173375	-0.0059213402	0	931.523551352559
0.10964782	9.1201084e-12	0.6	0.56963193	26.239874	-0.01662077	0.013349988	0.013446501	-0.0091591414	-0.0060969329	0	931.5293702686847
0.10964782	1.e-11	0.6	0.52526831	24.419887	-0.016631916	0.013371748	0.013475766	-0.0091055112	-0.0062556963	0	931.5353957012742
0.10964782	1.0964782e-11	0.6	0.48499833	22.766449	-0.016643088	0.013393551	0.013505427	-0.009056026	-0.0063991681	0	931.5416199458919
0.10964782	1.2022644e-11	0.6	0.44845213	21.264147	-0.016654283	0.01341539	0.013535462	-0.0090103031	-0.0065287648	0	931.5480334189709
0.10964782	1.3182567e-11	0.6	0.41529083	19.898843	-0.016665497	0.013437261	0.013565844	-0.008967994	-0.0066457876	0	931.5546246578143
0.10964782	1.4454398e-11	0.6	0.38520424	18.657585	-0.016676729	0.013459158	0.013596547	-0.0089287826	-0.0067514317	0	931.5613799447676
0.10964782	1.5848932e-11	0.6	0.35790879	17.528535	-0.016687977	0.013481079	0.013627543	-0.0088923815	-0.0068467913	0	931.5682853742641
0.10964782	1.7378008e-11	0.6	0.33314563	16.500892	-0.016699238	0.013503019	0.013658804	-0.00885853	-0.0069328663	0	931.5753279803015
0.10964782	1.9054607e-11	0.6	0.31067887	15.564828	-0.016710512	0.013524977	0.013690305	-0.0088269914	-0.007010567	0	931.5824936693999
0.10964782	2.0892961e-11	0.6	0.29029384	14.71142	-0.016721797	0.01354695	0.013722018	-0.0087975517	-0.0070807204	0	931.5897685359919
0.10964782	2.2908677e-11	0.6	0.27179556	13.932586	-0.016733091	0.013568936	0.013753922	-0.0087700162	-0.0071440754	0	931.5971426206847
0.10964782	2.5118864e-11	0.6	0.25500713	13.221017	-0.016744396	0.013590934	0.013785994	-0.0087442088	-0.0072013085	0	931.6046010783461
0.10964782	2.7542287e-11	0.6	0.23976827	12.570118	-0.016755709	0.013612942	0.013818215	-0.0087199701	-0.0072530301	0	931.6121360166269
0.10964782	3.0199517e-11	0.6	0.22593393	11.973949	-0.01676703	0.01363496	0.013850569	-0.0086971551	-0.0072997883	0	931.6197384156999
0.10964782	3.3113112e-11	0.6	0.2133729	11.427158	-0.016778359	0.013656986	0.013883039	-0.0086756329	-0.007342077	0	931.6273986919985
0.10964782	3.6307805e-11	0.6	0.2019666	10.924935	-0.016789696	0.01367902	0.013915615	-0.0086552844	-0.0073803382	0	931.6351112081304
0.10964782	3.9810717e-11	0.6	0.1916079	10.462953	-0.01680104	0.013701061	0.013948284	-0.008636002	-0.0074149694	0	931.6428695750516
0.10964782	4.3651583e-11	0.6	0.18220003	10.037323	-0.016812392	0.013723109	0.013981039	-0.0086176877	-0.0074463263	0	931.650668907022
0.10964782	4.7863009e-11	0.6	0.17365561	9.6445516	-0.01682375	0.013745164	0.014013872	-0.0086002525	-0.0074747278	0	931.6585065732586
0.10964782	5.2480746e-11	0.6	0.16589574	9.2814958	-0.016835116	0.013767226	0.014046778	-0.0085836159	-0.00750046	0	931.6663778759348
0.10964782	5.7543994e-11	0.6	0.15884914	8.9453299	-0.016846489	0.013789293	0.014079753	-0.0085677045	-0.0075237794	0	931.6742814996591
0.10964782	6.3095734e-11	0.6	0.1524515	8.6335123	-0.01685787	0.013811367	0.014112793	-0.0085524515	-0.0075449157	0	931.6822142499088
0.10964782	6.9183097e-11	0.6	0.14664469	8.3437547	-0.016869258	0.013833446	0.014145897	-0.0085377962	-0.0075640752	0	931.690176502511
0.10964782	7.5857758e-11	0.6	0.14137626	8.0739956	-0.016880653	0.013855531	0.014179065	-0.0085236835	-0.0075814436	0	931.6981682574651
0.10964782	8.3176377e-11	0.6	0.13659884	7.8223789	-0.016892055	0.013877622	0.014212296	-0.0085100628	-0.0075971866	0	931.7061889510319
0.10964782	9.1201084e-11	0.6	0.13226968	7.5872303	-0.016903465	0.013899719	0.014245591	-0.0084968879	-0.0076114537	0	931.7142382073854
0.10964782	1.e-10	0.6	0.1283502	7.3670386	-0.016914883	0.013921821	0.014278953	-0.0084841172	-0.0076243795	0	931.722317717743
0.10964782	1.0964782e-10	0.6	0.1248056	7.1604413	-0.016926308	0.013943929	0.014312382	-0.008471712	-0.0076360843	0	931.7304284216705
0.10964782	1.2022644e-10	0.6	0.12160453	6.9662071	-0.016937741	0.013966042	0.014345884	-0.0084596371	-0.0076466767	0	931.7385727620373
0.10964782	1.3182567e-10	0.6	0.11871873	6.7832232	-0.016949182	0.013988159	0.014379461	-0.0084478604	-0.0076562544	0	931.7467518663223
0.10964782	1.4454398e-10	0.6	0.1161228	6.6104844	-0.016960631	0.014010282	0.014413118	-0.0084363522	-0.0076649049	0	931.7549685532208
0.10964782	1.5848932e-10	0.6	0.11379391	6.4470814	-0.016972088	0.014032409	0.01444686	-0.0084250852	-0.0076727071	0	931.7632256414297
0.10964782	1.7378008e-10	0.6	0.11171161	6.2921912	-0.016983552	0.01405454	0.014480692	-0.0084140342	-0.0076797318	0	931.7715268892101
0.10964782	1.9054607e-10	0.6	0.10985756	6.1450686	-0.016995024	0.014076674	0.01451462	-0.0084031761	-0.007686043	0	931.7798747394318
0.10964782	2.0892961e-10	0.6	0.10821543	6.0050392	-0.017006504	0.014098811	0.014548651	-0.0083924891	-0.0076916975	0	931.7882731382692
0.10964782	2.2908677e-10	0.6	0.10677065	5.8714909	-0.01701799	0.014120948	0.014582792	-0.0083819535	-0.0076967471	0	931.7967279110278
0.10964782	2.5118864e-10	0.6	0.10551032	5.7438689	-0.017029483	0.014143086	0.01461705	-0.0083715502	-0.0077012374	0	931.8052420643165
0.10964782	2.7542287e-10	0.6	0.10442304	5.6216687	-0.017040982	0.014165222	0.014651433	-0.0083612619	-0.0077052099	0	931.8138210476142
0.10964782	3.0199517e-10	0.6	0.1034988	5.5044312	-0.017052486	0.014187354	0.01468595	-0.0083510721	-0.0077087018	0	931.8224708741393
0.10964782	3.3113112e-10	0.6	0.10272885	5.3917371	-0.017063994	0.014209479	0.014720609	-0.0083409654	-0.0077117466	0	931.8311969933709
0.10964782	3.6307805e-10	0.6	0.10210559	5.2832031	-0.017075504	0.014231595	0.014755418	-0.0083309269	-0.0077143741	0	931.8400057943534
0.10964782	3.9810717e-10	0.6	0.10162251	5.1784767	-0.017087015	0.014253695	0.014790386	-0.0083209425	-0.0077166113	0	931.8489032903049
0.10964782	4.3651583e-10	0.6	0.10127401	5.0772315	-0.017098524	0.014275776	0.014825522	-0.0083109988	-0.0077184829	0	931.8578973735742
0.10964782	4.7863009e-10	0.6	0.10105541	4.9791635	-0.017110028	0.014297831	0.014860834	-0.0083010828	-0.0077200115	0	931.8669953727713
0.10964782	5.2480746e-10	0.6	0.10096278	4.8839867	-0.017121523	0.014319853	0.01489633	-0.0082911822	-0.0077212182	0	931.8762055560712
0.10964782	5.7543994e-10	0.6	0.10099292	4.7914302	-0.017133006	0.01434183	0.014932017	-0.0082812847	-0.007722122	0	931.8855346883445
0.10964782	6.3095734e-10	0.6	0.10114324	4.7012331	-0.01714447	0.014363753	0.014967902	-0.0082713782	-0.0077227415	0	931.894993292723
0.10964782	6.9183097e-10	0.6	0.10141168	4.6131419	-0.01715591	0.014385608	0.015003989	-0.008261451	-0.0077230946	0	931.9045883219901
0.10964782	7.5857758e-10	0.6	0.10179667	4.5269062	-0.017167317	0.014407379	0.015040283	-0.0082514919	-0.0077231994	0	931.9143310509305
0.10964782	8.3176377e-10	0.6	0.10229706	4.4422782	-0.017178683	0.014429047	0.015076784	-0.0082414894	-0.007723073	0	931.9242289960665
0.10964782	9.1201084e-10	0.6	0.10291202	4.3590099	-0.017189997	0.014450591	0.015113494	-0.0082314323	-0.0077227334	0	931.9342936200958
0.10964782	1.e-9	0.6	0.10364105	4.2768536	-0.017201249	0.014471987	0.015150412	-0.0082213093	-0.0077221981	0	931.9445337549323
0.10964782	1.0964782e-9	0.6	0.10448396	4.1955636	-0.017212425	0.01449321	0.015187534	-0.0082111091	-0.0077214844	0	931.9549602995344
0.10964782	1.2022644e-9	0.6	0.1054408	4.114899	-0.017223512	0.014514232	0.015224856	-0.008200821	-0.0077206099	0	931.9655832132945
0.10964782	1.3182567e-9	0.6	0.10651196	4.0346313	-0.017234496	0.014535023	0.015262376	-0.0081904334	-0.0077195895	0	931.9764145226493
0.10964782	1.4454398e-9	0.6	0.10769818	3.9545515	-0.017245364	0.014555555	0.015300091	-0.008179935	-0.0077184365	0	931.9874647507306
0.10964782	1.5848932e-9	0.6	0.10900058	3.8744797	-0.017256102	0.014575802	0.015337999	-0.0081693146	-0.0077171606	0	931.9987459239749
0.10964782	1.7378008e-9	0.6	0.11042078	3.794276	-0.017266701	0.01459574	0.015376106	-0.008158561	-0.0077157668	0	932.0102698809058
0.10964782	1.9054607e-9	0.6	0.11196094	3.7138508	-0.017277151	0.01461535	0.015414419	-0.0081476622	-0.0077142537	0	932.022049963351
0.10964782	2.0892961e-9	0.6	0.11362381	3.6331721	-0.017287448	0.014634622	0.015452957	-0.0081366063	-0.007712613	0	932.0341006406172
0.10964782	2.2908677e-9	0.6	0.11541275	3.5522692	-0.017297592	0.01465355	0.015491744	-0.0081253815	-0.0077108296	0	932.0464354424449
0.10964782	2.5118864e-9	0.6	0.11733172	3.4712352	-0.017307585	0.01467214	0.015530815	-0.0081139749	-0.0077088797	0	932.0590722205765
0.10964782	2.7542287e-9	0.6	0.11938525	3.3902215	-0.017317437	0.014690407	0.015570213	-0.0081023736	-0.0077067328	0	932.0720258201438
0.10964782	3.0199517e-9	0.6	0.12157828	3.3094303	-0.017327161	0.014708374	0.015609992	-0.0080905643	-0.0077043519	0	932.0853144687151
0.10964782	3.3113112e-9	0.6	0.12391616	3.2291055	-0.017336776	0.014726072	0.015650216	-0.0080785327	-0.0077016943	0	932.0989563938576
0.10964782	3.6307805e-9	0.6	0.12640441	3.1495194	-0.017346303	0.014743543	0.015690955	-0.0080662649	-0.0076987141	0	932.1129713264445
0.10964782	3.9810717e-9	0.6	0.12904874	3.0709633	-0.01735577	0.014760835	0.015732289	-0.0080537454	-0.0076953623	0	932.1273780577822
0.10964782	4.3651583e-9	0.6	0.13185484	2.9937356	-0.017365206	0.014778002	0.015774305	-0.0080409589	-0.0076915882	0	932.142198385787
0.10964782	4.7863009e-9	0.6	0.13482838	2.918134	-0.017374645	0.014795105	0.015817094	-0.0080278891	-0.0076873412	0	932.157451665505
0.10964782	5.2480746e-9	0.6	0.1379749	2.8444479	-0.017384123	0.014812211	0.015860756	-0.0080145195	-0.0076825708	0	932.1731604465047
0.10964782	5.7543994e-9	0.6	0.14129983	2.7729544	-0.017393681	0.014829392	0.015905395	-0.0080008325	-0.0076772271	0	932.1893448354845
0.10964782	6.3095734e-9	0.6	0.1448084	2.7039128	-0.01740336	0.014846723	0.01595112	-0.0079868108	-0.0076712626	0	932.2060277578391
0.10964782	6.9183097e-9	0.6	0.14850567	2.6375624	-0.017413204	0.014864285	0.015998043	-0.007972436	-0.0076646309	0	932.2232310114846
0.10964782	7.5857758e-9	0.6	0.15239652	2.5741181	-0.017423259	0.014882158	0.016046281	-0.0079576891	-0.0076572881	0	932.2409773339023
0.10964782	8.3176377e-9	0.6	0.15648555	2.5137636	-0.017433569	0.014900424	0.016095947	-0.0079425513	-0.0076491936	0	932.2592890867476
0.10964782	9.1201084e-9	0.6	0.16077708	2.4566435	-0.017444177	0.014919159	0.016147155	-0.0079270027	-0.0076403109	0	932.2781901349806
0.10964782	1.e-8	0.6	0.16527503	2.4028522	-0.017455121	0.014938431	0.016200006	-0.0079110233	-0.0076306091	0	932.297701712778
0.10964782	1.0964782e-8	0.6	0.1699828	2.3524197	-0.017466429	0.014958291	0.016254588	-0.0078945929	-0.0076200642	0	932.3178471213603
0.10964782	1.2022644e-8	0.6	0.17490323	2.3053012	-0.017478118	0.01497877	0.016310968	-0.0078776903	-0.0076086603	0	932.338648158644
0.10964782	1.3182567e-8	0.6	0.18003847	2.2613686	-0.017490189	0.014999871	0.016369188	-0.0078602952	-0.0075963921	0	932.3601275621103
0.10964782	1.4454398e-8	0.6	0.18539013	2.2204168	-0.017502629	0.015021573	0.016429263	-0.0078423858	-0.0075832619	0	932.382306002197
0.10964782	1.5848932e-8	0.6	0.19095936	2.1821767	-0.017515411	0.015043827	0.016491187	-0.0078239412	-0.0075692799	0	932.4052054647334
0.10964782	1.7378008e-8	0.6	0.19674714	2.1463417	-0.017528499	0.015066572	0.016554935	-0.0078049401	-0.0075544608	0	932.4288456805917
0.10964782	1.9054607e-8	0.6	0.20275455	2.1125953	-0.017541851	0.015089736	0.016620478	-0.0077853607	-0.0075388196	0	932.4532497630794
0.10964782	2.0892961e-8	0.6	0.20898305	2.0806349	-0.017555429	0.015113247	0.016687787	-0.0077651818	-0.0075223705	0	932.4784370672431
0.10964782	2.2908677e-8	0.6	0.21543458	2.0501901	-0.017569194	0.01513704	0.01675684	-0.0077443812	-0.0075051228	0	932.5044318338685
0.10964782	2.5118864e-8	0.6	0.22211171	2.0210287	-0.017583115	0.015161061	0.016827627	-0.0077229373	-0.0074870821	0	932.5312575520894
0.10964782	2.7542287e-8	0.6	0.22901763	1.9929602	-0.017597167	0.015185262	0.016900146	-0.0077008275	-0.0074682479	0	932.5589365835611
0.10964782	3.0199517e-8	0.6	0.23615615	1.9658303	-0.01761133	0.01520961	0.016974411	-0.0076780294	-0.0074486159	0	932.5874956119399
0.10964782	3.3113112e-8	0.6	0.2435316	1.9395164	-0.01762559	0.015234076	0.017050443	-0.0076545202	-0.0074281776	0	932.6169596296636
0.10964782	3.6307805e-8	0.6	0.25114887	1.9139223	-0.017639936	0.015258641	0.017128272	-0.007630276	-0.0074069202	0	932.6473558841274
0.10964782	3.9810717e-8	0.6	0.25901329	1.8889715	-0.01765436	0.01528329	0.017207934	-0.007605273	-0.007384829	0	932.6787121864661
0.10964782	4.3651583e-8	0.6	0.26713062	1.864603	-0.017668858	0.015308014	0.017289473	-0.0075794866	-0.0073618864	0	932.711057099466
0.10964782	4.7863009e-8	0.6	0.27550701	1.8407675	-0.017683426	0.015332806	0.017372936	-0.0075528922	-0.0073380736	0	932.7444208771313
0.10964782	5.2480746e-8	0.6	0.28414902	1.8174254	-0.017698063	0.01535766	0.017458376	-0.0075254634	-0.0073133688	0	932.7788343372058
0.10964782	5.7543994e-8	0.6	0.29306355	1.7945431	-0.017712768	0.015382574	0.017545846	-0.0074971743	-0.0072877501	0	932.8143282974328
0.10964782	6.3095734e-8	0.6	0.30225786	1.7720929	-0.017727541	0.015407546	0.017635405	-0.0074679976	-0.0072611933	0	932.8509360184257
0.10964782	6.9183097e-8	0.6	0.31173955	1.7500502	-0.017742383	0.015432576	0.017727114	-0.0074379057	-0.0072336738	0	932.8886909487107
0.10964782	7.5857758e-8	0.6	0.32151659	1.7283942	-0.017757295	0.015457664	0.017821038	-0.0074068697	-0.0072051651	0	932.9276287917717
0.10964782	8.3176377e-8	0.6	0.33159726	1.7071058	-0.017772279	0.01548281	0.017917241	-0.0073748607	-0.0071756405	0	932.9677837477869
0.10964782	9.1201084e-8	0.6	0.34199022	1.6861686	-0.017787336	0.015508016	0.018015792	-0.0073418481	-0.0071450713	0	933.0091937751968
0.10964782	1.e-7	0.6	0.35270447	1.665567	-0.017802467	0.015533282	0.018116762	-0.0073078012	-0.0071134286	0	933.0518979599194
0.10964782	1.0964782e-7	0.6	0.36374935	1.6452871	-0.017817677	0.01555861	0.018220225	-0.0072726878	-0.0070806818	0	933.0959333208302
0.10964782	1.2022644e-7	0.6	0.3751346	1.625316	-0.017832965	0.015584002	0.018326257	-0.0072364749	-0.0070467996	0	933.1413436416743
0.10964782	1.3182567e-7	0.6	0.38687026	1.6056413	-0.017848336	0.01560946	0.018434935	-0.0071991292	-0.0070117499	0	933.1881676325437
0.10964782	1.4454398e-7	0.6	0.39896681	1.5862519	-0.01786379	0.015634986	0.01854634	-0.0071606152	-0.0069754987	0	933.2364509563149
0.10964782	1.5848932e-7	0.6	0.41143507	1.5671371	-0.017879332	0.015660581	0.018660557	-0.0071208973	-0.0069380115	0	933.2862368329937
0.10964782	1.7378008e-7	0.6	0.42428625	1.5482868	-0.017894963	0.015686248	0.018777669	-0.0070799388	-0.0068992528	0	933.3375711133692
0.10964782	1.9054607e-7	0.6	0.43753198	1.5296918	-0.017910687	0.01571199	0.018897768	-0.007037701	-0.0068591851	0	933.3905019031879
0.10964782	2.0892961e-7	0.6	0.45118429	1.5113431	-0.017926506	0.015737809	0.019020944	-0.0069941449	-0.0068177703	0	933.4450780598471
0.10964782	2.2908677e-7	0.6	0.46525559	1.4932318	-0.017942423	0.015763706	0.019147291	-0.0069492301	-0.0067749691	0	933.501349756137
0.10964782	2.5118864e-7	0.6	0.47975874	1.4753501	-0.017958442	0.015789685	0.019276908	-0.006902915	-0.0067307407	0	933.559369043978
0.10964782	2.7542287e-7	0.6	0.49470703	1.4576902	-0.017974565	0.015815749	0.019409894	-0.0068551563	-0.0066850431	0	933.6191898544209
0.10964782	3.0199517e-7	0.6	0.51011421	1.4402446	-0.017990796	0.0158419	0.019546353	-0.0068059101	-0.0066378327	0	933.6808670580826
0.10964782	3.3113112e-7	0.6	0.52599447	1.4230066	-0.018007139	0.015868141	0.019686393	-0.0067551302	-0.0065890645	0	933.7444577805359
0.10964782	3.6307805e-7	0.6	0.54236245	1.405969	-0.018023596	0.015894475	0.019830123	-0.0067027702	-0.0065386928	0	933.8100215902243
0.10964782	3.9810717e-7	0.6	0.55923333	1.3891258	-0.018040172	0.015920905	0.019977659	-0.0066487807	-0.0064866689	0	933.8776191830691
0.10964782	4.3651583e-7	0.6	0.57662271	1.3724704	-0.018056869	0.015947434	0.020129115	-0.0065931124	-0.0064329443	0	933.9473129462099
0.10964782	4.7863009e-7	0.6	0.59454675	1.3559971	-0.018073693	0.015974066	0.020284615	-0.0065357134	-0.0063774678	0	934.0191671459166
0.10964782	5.2480746e-7	0.6	0.61302212	1.3397002	-0.018090647	0.016000803	0.020444283	-0.0064765303	-0.0063201865	0	934.093248867155
0.10964782	5.7543994e-7	0.6	0.63206601	1.3235742	-0.018107735	0.016027649	0.020608248	-0.0064155084	-0.0062610465	0	934.1696270740218
0.10964782	6.3095734e-7	0.6	0.65169615	1.3076137	-0.018124962	0.016054608	0.020776642	-0.0063525913	-0.006199992	0	934.248371482266
0.10964782	6.9183097e-7	0.6	0.6719309	1.2918137	-0.018142331	0.016081683	0.020949603	-0.0062877202	-0.0061369648	0	934.3295570692028
0.10964782	7.5857758e-7	0.6	0.69278914	1.2761694	-0.018159848	0.016108879	0.021127272	-0.0062208352	-0.0060719055	0	934.4132576846683
0.10964782	8.3176377e-7	0.6	0.71429037	1.2606759	-0.018177516	0.016136198	0.021309795	-0.0061518741	-0.0060047525	0	934.4995528158913
0.10964782	9.1201084e-7	0.6	0.7364547	1.2453287	-0.018195342	0.016163646	0.021497323	-0.006080773	-0.0059354424	0	934.5885210105351
0.10964782	1.e-6	0.6	0.75930289	1.2301233	-0.018213329	0.016191226	0.02169001	-0.0060074659	-0.0058639098	0	934.680246265742
0.10964782	1.0964782e-6	0.6	0.78285634	1.2150555	-0.018231483	0.016218943	0.021888016	-0.0059318847	-0.0057900871	0	934.7748131423933
0.10964782	1.2022644e-6	0.6	0.80713716	1.2001212	-0.01824981	0.016246802	0.022091508	-0.005853959	-0.0057139042	0	934.872310147545
0.10964782	1.3182567e-6	0.6	0.8321681	1.1853163	-0.018268314	0.016274806	0.022300654	-0.0057736166	-0.0056352895	0	934.9728282311233
0.10964782	1.4454398e-6	0.6	0.85797265	1.1706368	-0.018287003	0.016302961	0.022515631	-0.0056907827	-0.0055541687	0	935.0764596584454
0.10964782	1.5848932e-6	0.6	0.88457503	1.1560789	-0.01830588	0.016331272	0.02273662	-0.0056053805	-0.0054704654	0	935.1833036476122
0.10964782	1.7378008e-6	0.6	0.91200026	1.141639	-0.018324953	0.016359745	0.022963808	-0.0055173303	-0.0053841003	0	935.293458101333
0.10964782	1.9054607e-6	0.6	0.94027407	1.1273133	-0.018344228	0.016388384	0.023197387	-0.0054265503	-0.0052949921	0	935.4070256201444
0.10964782	2.0892961e-6	0.6	0.96942306	1.1130985	-0.018363712	0.016417195	0.023437557	-0.0053329559	-0.0052030566	0	935.5241123749307
0.10964782	2.2908677e-6	0.6	0.99947462	1.0989909	-0.01838341	0.016446184	0.023684522	-0.0052364601	-0.0051082072	0	935.6448286706641
0.10964782	2.5118864e-6	0.6	1.030457	1.0849871	-0.018403331	0.016475357	0.023938494	-0.0051369731	-0.0050103545	0	935.7692855639688
0.10964782	2.7542287e-6	0.6	1.0623994	1.0710839	-0.018423482	0.016504721	0.024199691	-0.0050344022	-0.0049094061	0	935.8975993730354
0.10964782	3.0199517e-6	0.6	1.0953318	1.0572778	-0.018443869	0.016534282	0.024468339	-0.0049286517	-0.0048052668	0	936.029891865533
0.10964782	3.3113112e-6	0.6	1.1292852	1.0435658	-0.018464502	0.016564047	0.024744669	-0.0048196232	-0.0046978384	0	936.1662838695656
0.10964782	3.6307805e-6	0.6	1.1642915	1.0299445	-0.018485387	0.016594022	0.025028922	-0.004707215	-0.0045870199	0	936.3069056088912
0.10964782	3.9810717e-6	0.6	1.2003839	1.0164109	-0.018506533	0.016624217	0.025321344	-0.0045913221	-0.0044727063	0	936.4518873072665
0.10964782	4.3651583e-6	0.6	1.2375961	1.0029617	-0.01852795	0.016654637	0.02562219	-0.0044718368	-0.0043547906	0	936.6013633225374
0.10964782	4.7863009e-6	0.6	1.2759633	0.98959396	-0.018549645	0.016685292	0.025931723	-0.0043486469	-0.0042331607	0	936.755475341158
0.10964782	5.2480746e-6	0.6	1.3155215	0.97630437	-0.018571629	0.016716189	0.026250216	-0.0042216383	-0.004107703	0	936.9143669287141
0.10964782	5.7543994e-6	0.6	1.3563081	0.96309003	-0.018593911	0.016747338	0.026577946	-0.0040906919	-0.0039782987	0	937.0781857848789
0.10964782	6.3095734e-6	0.6	1.3983614	0.94994785	-0.018616501	0.016778749	0.026915205	-0.0039556853	-0.0038448259	0	937.2470871258477
0.10964782	6.9183097e-6	0.6	1.4417211	0.9368746	-0.01863941	0.016810429	0.027262288	-0.003816493	-0.0037071592	0	937.421226919469
0.10964782	7.5857758e-6	0.6	1.4864281	0.92386743	-0.018662649	0.01684239	0.027619504	-0.0036729843	-0.0035651685	0	937.6007690259396
0.10964782	8.3176377e-6	0.6	1.5325245	0.91092315	-0.018686228	0.016874642	0.02798717	-0.0035250255	-0.0034187202	0	937.7858827549359
0.10964782	9.1201084e-6	0.6	1.5800537	0.8980388	-0.01871016	0.016907196	0.028365614	-0.0033724778	-0.0032676761	0	937.9767407985688
0.10964782	0.00001	0.6	1.6290605	0.8852111	-0.018734457	0.016940063	0.028755171	-0.0032151992	-0.0031118946	0	938.17352073469
0.10964782	0.000010964782	0.6	1.6795912	0.87243714	-0.018759132	0.016973257	0.029156193	-0.0030530422	-0.0029512283	0	938.3764087851513
0.10964782	0.000012022644	0.6	1.7316935	0.85971379	-0.018784198	0.01700679	0.029569037	-0.0028858551	-0.002785526	0	938.5855939905014
0.10964782	0.000013182567	0.6	1.7854164	0.84703812	-0.018809668	0.017040675	0.029994075	-0.0027134811	-0.0026146313	0	938.8012738473769
0.10964782	0.000014454398	0.6	1.8408106	0.83440673	-0.018835558	0.017074926	0.030431689	-0.0025357599	-0.0024383841	0	939.0236486711103
0.10964782	0.000015848932	0.6	1.8979285	0.82181681	-0.018861882	0.017109558	0.030882275	-0.0023525242	-0.0022566177	0	939.2529285485139
0.10964782	0.000017378008	0.6	1.956824	0.80926524	-0.018888656	0.017144587	0.03134624	-0.0021636028	-0.0020691611	0	939.4893278884008
0.10964782	0.000019054607	0.6	2.0175526	0.79674909	-0.018915897	0.01718003	0.031824006	-0.0019688186	-0.0018758376	0	939.7330686161064
0.10964782	0.000020892961	0.6	2.0801717	0.78426539	-0.018943621	0.017215903	0.032316007	-0.0017679892	-0.001676465	0	939.984380361402
0.10964782	0.000022908677	0.6	2.1447406	0.77181139	-0.018971846	0.017252227	0.032822691	-0.001560926	-0.0014708552	0	940.243498767278
0.10964782	0.000025118864	0.6	2.2113202	0.75938423	-0.019000592	0.017289019	0.033344521	-0.0013474354	-0.0012588148	0	940.5106660536811
0.10964782	0.000027542287	0.6	2.2799736	0.74698131	-0.019029877	0.0173263	0.033881975	-0.0011273172	-0.0010401441	0	940.7861347757778
0.10964782	0.000030199517	0.6	2.3507655	0.73460027	-0.019059721	0.017364093	0.034435547	-0.00090036468	-0.0008146364	0	941.0701646294306
0.10964782	0.000033113112	0.6	2.4237632	0.72223882	-0.019090148	0.017402421	0.035005745	-0.00066636506	-0.00058207938	0	941.3630194445897
0.10964782	0.000036307805	0.6	2.4990357	0.70989504	-0.019121178	0.017441308	0.035593097	-0.00042509845	-0.00034225329	0	941.6649780842511
0.10964782	0.000039810717	0.6	2.5766543	0.69756712	-0.019152836	0.017480781	0.036198144	-0.00017633897	-0.000094932483	0	941.9763220421937
0.10964782	0.000043651583	0.6	2.6566926	0.68525373	-0.019185146	0.017520867	0.036821449	0.00008014727	0.00016011678	0	942.2973461540241
0.10964782	0.000047863009	0.6	2.7392266	0.67295391	-0.019218134	0.017561597	0.03746359	0.0003446012	0.00042313531	0	942.628351832307
0.10964782	0.000052480746	0.6	2.8243346	0.66066712	-0.019251827	0.017603002	0.038125167	0.00061727152	0.00069437176	0	942.9696519523036
0.10964782	0.000057543994	0.6	2.9120975	0.64839324	-0.019286255	0.017645115	0.038806797	0.00089841401	0.00097408188	0	943.321566154146
0.10964782	0.000063095734	0.6	3.0025987	0.63613277	-0.019321447	0.017687974	0.03950912	0.0011882934	0.0012625305	0	943.6844279835336
0.10964782	0.000069183097	0.6	3.0959242	0.62388666	-0.019357436	0.017731616	0.040232796	0.0014871816	0.0015599896	0	944.0585785026885
0.10964782	0.000075857758	0.6	3.192163	0.61165671	-0.019394255	0.017776083	0.040978508	0.0017953609	0.0018667416	0	944.4443717398344
0.10964782	0.000083176377	0.6	3.2914067	0.59944513	-0.019431939	0.01782142	0.04174696	0.0021131207	0.0021830762	0	944.8421716825881
0.10964782	0.000091201084	0.6	3.3937501	0.5872549	-0.019470527	0.017867674	0.042538882	0.0024407601	0.0025092931	0	945.2523532175238
0.10964782	0.0001	0.6	3.4992907	0.57508977	-0.019510057	0.017914896	0.043355029	0.0027785881	0.0028457014	0	945.6753062642622
0.10964782	0.00010964782	0.6	3.6081293	0.56295404	-0.019550573	0.017963139	0.044196177	0.0031269225	0.0031926195	0	946.1114269435545
0.10964782	0.00012022644	0.6	3.7201193	0.5507289	-0.019585568	0.018000671	0.045051343	0.0034858333	0.0035501037	0	946.5606374593901
0.10964782	0.00013182567	0.6	3.8358449	0.53865489	-0.019627545	0.01804998	0.045943784	0.0038561511	0.0039190125	0	947.0243013090048
0.10964782	0.00014454398	0.6	3.9551885	0.52662729	-0.019670586	0.018100387	0.046863616	0.0042379896	0.0042994473	0	947.5024068417881
0.10964782	0.00015848932	0.6	4.0782642	0.51465326	-0.019714738	0.018151953	0.047811722	0.0046317088	0.0046917691	0	947.9954076798913
0.10964782	0.00017378008	0.6	4.2051901	0.50274059	-0.01976005	0.018204745	0.048789011	0.0050376806	0.0050963507	0	948.5037702235538
0.10964782	0.00019054607	0.6	4.3360876	0.49089755	-0.019806574	0.018258833	0.049796426	0.0054562882	0.0055135762	0	949.0279772214526
0.10964782	0.00020892961	0.6	4.4710825	0.47913295	-0.019854367	0.018314295	0.050834943	0.005887928	0.0059438431	0	949.5685253278316
0.10964782	0.00022908677	0.6	4.610304	0.46745579	-0.019903485	0.018371206	0.051905565	0.0063330061	0.0063875585	0	950.125927357459
0.10964782	0.00025118864	0.6	4.7538862	0.45587557	-0.019953993	0.018429658	0.053009338	0.0067919448	0.0068451457	0	950.7007119098004
0.10964782	0.00027542287	0.6	4.901967	0.44440192	-0.020005954	0.018489741	0.054147338	0.0072651782	0.0073170402	0	951.293426375629
0.10964782	0.00030199517	0.6	5.0546888	0.43304459	-0.020059438	0.018551553	0.055320679	0.0077531533	0.0078036899	0	951.9046329908502
0.10964782	0.00033113112	0.6	5.2121989	0.42181349	-0.020114518	0.0186152	0.056530515	0.0082563333	0.0083055592	0	952.5349137222418
0.10964782	0.00036307805	0.6	5.3746489	0.41071855	-0.020171271	0.018680793	0.057778037	0.0087751944	0.0088231255	0	953.1848676366708
0.10964782	0.00039810717	0.6	5.5421956	0.39976983	-0.020229779	0.018748451	0.059064479	0.0093102287	0.009356882	0	953.8551133439639
0.10964782	0.00043651583	0.6	5.7150005	0.38897778	-0.020290125	0.0188183	0.060391114	0.009861943	0.009907337	0	954.5462905002112
0.10964782	0.00047863009	0.6	5.8932305	0.37835432	-0.020352399	0.01889047	0.06175926	0.010430862	0.010475016	0	955.2590575528098
0.10964782	0.00052480746	0.6	6.0770564	0.36791561	-0.020416689	0.018965091	0.063170265	0.011017525	0.011060461	0	955.9940917404643
0.10964782	0.00057543994	0.6	6.2666516	0.35769051	-0.020483072	0.019042266	0.064625494	0.01162249	0.011664233	0	956.7520902206645
0.10964782	0.00063095734	0.6	6.4621826	0.34774428	-0.02055157	0.019121988	0.066126237	0.01224633	0.012286912	0	957.5337595465533
0.10964782	0.00069183097	0.6	6.6637775	0.33823979	-0.020621994	0.019203809	0.067673388	0.012889634	0.012929107	0	958.3397812788355
0.10964782	0.00075857758	0.6	6.8714146	0.3295548	-0.020693392	0.019285713	0.069266311	0.013552997	0.013591456	0	959.1706913455871
0.10964782	0.00083176377	0.6	7.0846524	0.32225836	-0.020762624	0.01936122	0.07089995	0.014236995	0.014274602	0	960.0265897165611
0.10964782	0.00091201084	0.6	7.3025927	0.3161769	-0.020823712	0.019418147	0.072563592	0.014942133	0.014979031	0	960.9070537752631
0.10964782	0.001	0.6	7.5250519	0.30951093	-0.020872977	0.019449258	0.074251514	0.015668854	0.015704974	0	961.812313903117
0.10964782	0.0010964782	0.6	7.7531431	0.30071702	-0.02091276	0.019459682	0.075970407	0.016417645	0.016452739	0	962.7439425566924
0.10964782	0.0012022644	0.6	7.9881694	0.28968822	-0.020947315	0.019458243	0.077730706	0.017189125	0.017222932	0	963.7038254436469
0.10964782	0.0013182567	0.6	8.2310607	0.2770337	-0.020980269	0.019452188	0.079541319	0.017984025	0.018016355	0	964.6935765493388
0.10964782	0.0014454398	0.6	8.4824571	0.26352851	-0.021014966	0.019447855	0.081410297	0.018803147	0.018833901	0	965.7145926316173
0.10964782	0.0015848932	0.6	8.7428824	0.25002929	-0.021055686	0.019452972	0.083347131	0.019647351	0.01967653	0	966.7682027996265
0.10964782	0.0017378008	0.6	9.0128883	0.23764548	-0.021108869	0.019478949	0.085365054	0.020517549	0.020545282	0	967.8558162134782
0.10964782	0.0019054607	0.6	9.2929574	0.22772459	-0.02118096	0.019537114	0.087477273	0.021414705	0.021441281	0	968.9788226782383
0.10964782	0.0020892961	0.6	9.5813643	0.22164037	-0.02129681	0.019665473	0.089723727	0.02233977	0.022365636	0	970.136388235702
0.10964782	0.0022908677	0.6	9.8762022	0.21831542	-0.021477947	0.019895604	0.092137994	0.02329339	0.023318868	0	971.3272151582082
0.10964782	0.0025118864	0.6	10.180054	0.21394286	-0.021672203	0.020144386	0.094639009	0.024276348	0.024301315	0	972.5546191718768
0.10964782	0.0027542287	0.6	10.493628	0.20839522	-0.021873844	0.020402931	0.097220008	0.025289562	0.025313882	0	973.8201746124082
0.10964782	0.0030199517	0.6	10.817504	0.20201439	-0.022081755	0.020669855	0.099881797	0.026334016	0.026357592	0	975.1253834689711
0.10964782	0.0033113112	0.6	11.152187	0.19511912	-0.022295552	0.020944881	0.10262636	0.027410746	0.027433516	0	976.4717249932523
0.10964782	0.0036307805	0.6	11.498136	0.18796157	-0.022515069	0.021228027	0.10545603	0.02852083	0.028542766	0	977.8606703566772
0.10964782	0.0039810717	0.6	11.855786	0.18073246	-0.022740231	0.021519411	0.10837334	0.029665399	0.02968649	0	979.2937179780655
0.10964782	0.0043651583	0.6	12.225557	0.17357384	-0.022971	0.021819185	0.11138091	0.030845617	0.030865874	0	980.7723805576311
0.10964782	0.0047863009	0.6	12.60786	0.16659123	-0.023207351	0.022127502	0.11448144	0.032062694	0.032082135	0	982.2982036803745
0.10964782	0.0052480746	0.6	13.00311	0.15986297	-0.023449269	0.022444518	0.11767774	0.033317877	0.033336533	0	983.8727855469563
0.10964782	0.0057543994	0.6	13.411723	0.15344687	-0.023696732	0.022770373	0.12097264	0.034612459	0.034630366	0	985.4977422097782
0.10964782	0.0063095734	0.6	13.834125	0.14738478	-0.023949714	0.023105196	0.12436907	0.035947769	0.035964969	0	987.1747498534248
0.10964782	0.0069183097	0.6	14.270749	0.14170574	-0.024208172	0.023449086	0.12787003	0.037325178	0.037341715	0	988.9055400968359
0.10964782	0.0075857758	0.6	14.722044	0.13642812	-0.024472047	0.023802128	0.13147858	0.038746105	0.038762026	0	990.6918934163502
0.10964782	0.0083176377	0.6	15.188471	0.13156093	-0.024741255	0.024164363	0.13519781	0.040212008	0.040227361	0	992.5356306896158
0.10964782	0.0091201084	0.6	15.670508	0.12710476	-0.02501568	0.02453579	0.1390309	0.041724396	0.041739229	0	994.438653596901
0.10964782	0.01	0.6	16.168647	0.12305235	-0.025295161	0.024916345	0.14298105	0.043284821	0.043299181	0	996.4029173736991
0.10964782	0.010964782	0.6	16.683399	0.11938895	-0.025579491	0.025305894	0.14705148	0.044894888	0.04490882	0	998.4304317502939
0.10964782	0.012022644	0.6	17.215291	0.11609259	-0.025868403	0.025704217	0.15124544	0.04655625	0.046569798	0	1000.5232797430663
0.10964782	0.013182567	0.6	17.764869	0.11313436	-0.026161567	0.026110994	0.1555662	0.048270616	0.048283819	0	1002.6836148357985
0.10964782	0.014454398	0.6	18.332694	0.11047888	-0.026458582	0.026525801	0.16001702	0.050039744	0.050052636	0	1004.9136515840205
0.10964782	0.015848932	0.6	18.919346	0.10808488	-0.026758977	0.026948111	0.16460118	0.051865454	0.051878068	0	1007.2156815876208
0.10964782	0.017378008	0.6	19.525422	0.10590601	-0.02706221	0.027377272	0.16932194	0.053749618	0.053761977	0	1009.5920518808439
0.10964782	0.019054607	0.6	20.151537	0.10389191	-0.027367662	0.027812524	0.17418259	0.055694172	0.055706296	0	1012.0451987566421
0.10964782	0.020892961	0.6	20.798323	0.10198984	-0.027674638	0.028252986	0.17918643	0.05770111	0.057713012	0	1014.5776355523269
0.10964782	0.022908677	0.6	21.466425	0.10015971	-0.027982358	0.028697628	0.18433673	0.059772491	0.05978418	0	1017.191938556088
0.10964782	0.025118864	0.6	22.156288	0.098643298	-0.028289843	0.029144699	0.18963616	0.061910429	0.061921941	0	1019.8905327860934
0.10964782	0.027542287	0.6	22.862361	0.10055313	-0.028592866	0.029576074	0.19507118	0.064116931	0.064128666	0	1022.6697567561747
0.10964782	0.030199517	0.6	23.547875	0.093147583	-0.028853162	0.029857707	0.20051246	0.066391796	0.066402666	0	1025.49265454242
0.10964782	0.033113112	0.6	24.282688	0.079906943	-0.029055147	0.030083768	0.20605904	0.068735678	0.068745003	0	1028.429701062602
0.10964782	0.036307805	0.6	25.05494	0.074208391	-0.029247976	0.030318635	0.2117803	0.071153679	0.071162339	0	1031.4738242083313
0.10964782	0.039810717	0.6	25.854574	0.068255585	-0.029436708	0.030552592	0.2176717	0.073648723	0.073656688	0	1034.6177113424892
0.10964782	0.043651583	0.6	26.682367	0.06166784	-0.029620593	0.030784975	0.22373791	0.076223525	0.076230722	0	1037.8646998011986
0.10964782	0.047863009	0.6	27.539428	0.05447098	-0.02979862	0.031015245	0.2299839	0.078880901	0.078887258	0	1041.2185412689018
0.10964782	0.052480746	0.6	27.056315	0.045641282	-0.029926816	0.028689559	0.23386148	0.081593441	0.081598767	0	1043.2840366352052
0.10964782	0.057543994	0.6	25.333106	0.036289338	-0.030004743	0.023572932	0.23514152	0.084117589	0.084121824	0	1043.932427864544
0.10964782	0.063095734	0.6	23.761521	0.027760264	-0.030075813	0.018144243	0.23630894	0.086419639	0.086422879	0	1044.523773383658
0.10964782	0.069183097	0.6	24.054675	0.02419409	-0.030982595	0.017171759	0.2421382	0.088698409	0.088701232	0	1046.9579748637389
0.10964782	0.075857758	0.6	25.178836	0.022495391	-0.032105627	0.018043552	0.25002381	0.091110271	0.091112896	0	1050.3482404613655
0.10964782	0.083176377	0.6	26.469199	0.020894804	-0.033060227	0.018907687	0.25812043	0.093640282	0.09364272	0	1054.0157135407258
0.10964782	0.091201084	0.6	27.951353	0.019387665	-0.033809601	0.019770617	0.26644133	0.096305961	0.096308224	0	1058.002445288624
0.10964782	0.1	0.6	29.654985	0.01796973	-0.034312726	0.020643292	0.2750045	0.099127525	0.099129622	0	1062.3571211628007
0.10964782	0.10964782	0.6	31.615637	0.016637173	-0.034521969	0.021541112	0.28383259	0.10212837	0.10213031	0	1067.1372641726798
0.10964782	0.12022644	0.6	33.877418	0.015386589	-0.034379276	0.022483549	0.29295253	0.10533577	0.10533756	0	1072.4126013420146
0.10964782	0.13182567	0.6	36.496834	0.014214993	-0.033810674	0.023493452	0.3023949	0.10878188	0.10878354	0	1078.2698742834832
0.10964782	0.14454398	0.6	39.547829	0.013119826	-0.032718903	0.024596131	0.31219294	0.11250524	0.11250677	0	1084.8192038143663
0.10964782	0.15848932	0.6	43.127856	0.012098951	-0.030974275	0.025818226	0.3223815	0.1165527	0.11655411	0	1092.2020865972436
0.10964782	0.17378008	0.6	47.364406	0.01115064	-0.028404298	0.027186339	0.33299563	0.1209821	0.1209834	0	1100.600349197778
0.10964782	0.19054607	0.6	52.420743	0.010273533	-0.024783314	0.028725353	0.34406892	0.12586549	0.12586669	0	1110.2449480537832
0.10964782	0.20892961	0.6	58.498728	0.0094665484	-0.019824537	0.03045628	0.35563138	0.13129281	0.13129392	0	1121.422255167417
0.10964782	0.22908677	0.6	65.835654	0.0087287339	-0.01317815	0.032393629	0.36770678	0.13737559	0.13737661	0	1134.4743465517413
0.10964782	0.25118864	0.6	74.691534	0.0080590282	-0.0044401194	0.03454244	0.38030972	0.14424988	0.14425082	0	1149.7890687700183
0.10964782	0.27542287	0.6	85.324321	0.0074559494	0.0068241405	0.036895605	0.39344295	0.15207737	0.15207824	0	1167.776293770401
0.10964782	0.30199517	0.6	97.954048	0.0069172549	0.021040546	0.039432493	0.407096	0.1610435	0.16104431	0	1188.830295400841
0.10964782	0.33113112	0.6	112.72274	0.0064396656	0.038577362	0.042119967	0.4212462	0.1713518	0.17135255	0	1213.2843026331088
0.10964782	0.36307805	0.6	129.66216	0.0060187675	0.059699162	0.044916298	0.43586264	0.18321447	0.18321517	0	1241.3694743813512
0.10964782	0.39810717	0.6	148.68149	0.0056491557	0.084538496	0.047777223	0.45091219	0.19684084	0.1968415	0	1273.1916733526834
0.10964782	0.43651583	0.6	169.58014	0.0053247942	0.11309408	0.050662306	0.4663659	0.21242576	0.21242638	0	1308.7333728950669
0.10964782	0.47863009	0.6	192.08035	0.0050394762	0.14525338	0.05353968	0.48220377	0.23014031	0.23014089	0	1347.8775651772048
0.10964782	0.52480746	0.6	215.86782	0.0047872516	0.18082896	0.056388171	0.49841682	0.2501262	0.25012676	0	1390.4430794500481
0.10964782	0.57543994	0.6	240.62852	0.0045627291	0.21959621	0.059196984	0.51500687	0.27249412	0.27249465	0	1436.219905945696
0.10964782	0.63095734	0.6	266.07529	0.0043612306	0.26132404	0.061963883	0.53198467	0.29732508	0.29732559	0	1484.9969807039245
0.10964782	0.69183097	0.6	291.96268	0.004178824	0.30579569	0.064692822	0.54936756	0.32467394	0.32467443	0	1536.580418777369
0.10964782	0.75857758	0.6	318.09243	0.0040122756	0.35282017	0.067391715	0.56717728	0.35457379	0.35457426	0	1590.803028270258
0.10964782	0.83176377	0.6	344.31248	0.0038589643	0.402237	0.070070662	0.58543816	0.38704057	0.38704102	0	1647.5277435102037
0.10964782	0.91201084	0.6	370.5126	0.0037167824	0.45391654	0.072740676	0.60417592	0.4220774	0.42207784	0	1706.6472586177124
0.10964782	1.	0.6	396.61839	0.0035840419	0.507758	0.075412861	0.62341679	0.45967843	0.45967885	0	1768.0816616806358
0.10964782	1.0964782	0.6	422.58517	0.0034593912	0.56368638	0.078097929	0.64318712	0.49983199	0.49983239	0	1831.7753398259078
0.10964782	1.2022644	0.6	448.39224	0.0033417458	0.62164913	0.080805945	0.66351306	0.54252327	0.54252366	0	1897.693660674728
0.10964782	1.3182567	0.6	474.03787	0.0032302322	0.68161296	0.083546229	0.68442056	0.58773639	0.58773677	0	1965.8199751290936
0.10964782	1.4454398	0.6	499.53505	0.0031241428	0.743561	0.086327346	0.70593529	0.63545607	0.63545643	0	2036.1529039070708
0.10964782	1.5848932	0.6	524.90803	0.0030229009	0.80749031	0.089157146	0.72808276	0.68566884	0.6856692	0	2108.704065673778
0.10964782	1.7378008	0.6	550.18954	0.0029260331	0.87340984	0.09204284	0.75088841	0.73836409	0.73836444	0	2183.4962110646
0.10964782	1.9054607	0.6	575.41854	0.0028331474	0.94133871	0.094991071	0.77437764	0.79353472	0.79353505	0	2260.561623544963
0.10964782	2.0892961	0.6	600.63848	0.0027439166	1.0113048	0.098007999	0.79857598	0.85117767	0.851178	0	2339.940890458856
0.10964782	2.2908677	0.6	625.89592	0.0026580652	1.0833436	0.10109937	0.82350914	0.91129433	0.91129464	0	2421.6818507156395
0.10964782	2.5118864	0.6	651.23947	0.0025753591	1.1574973	0.10427061	0.84920314	0.97389073	0.97389103	0	2505.8388130716744
0.10964782	2.7542287	0.6	676.71898	0.0024955972	1.233814	0.10752683	0.87568432	1.0389777	1.038978	0	2592.4718195110863
0.10964782	3.0199517	0.6	702.38494	0.0024186057	1.3123472	0.11087296	0.90297949	1.1065712	1.1065715	0	2681.646250628323
0.10964782	3.3113112	0.6	728.28803	0.0023442322	1.3931552	0.11431372	0.93111597	1.1766918	1.1766921	0	2773.4322844385033
0.10964782	3.6307805	0.6	754.47879	0.0022723424	1.4763007	0.11785373	0.96012164	1.2493654	1.2493656	0	2867.904548738249
0.10964782	3.9810717	0.6	781.00735	0.0022028168	1.5618507	0.12149749	0.99002501	1.3246225	1.3246227	0	2965.142066610887
0.10964782	4.3651583	0.6	807.92335	0.0021355478	1.6498761	0.12524944	1.0208553	1.4024987	1.4024989	0	3065.227925699448
0.10964782	4.7863009	0.6	835.2758	0.0020704381	1.7404513	0.12911398	1.0526424	1.4830344	1.4830347	0	3168.248879830959
0.10964782	5.2480746	0.6	863.11304	0.0020073988	1.8336547	0.13309551	1.085417	1.5662748	1.566275	0	3274.295892085215
0.10964782	5.7543994	0.6	891.48272	0.0019463482	1.9295679	0.13719843	1.1192107	1.6522697	1.65227	0	3383.4634451538122
0.10964782	6.3095734	0.6	920.43188	0.0018872105	2.028276	0.14142715	1.1540559	1.7410737	1.7410739	0	3495.8497611984394
0.10964782	6.9183097	0.6	950.00689	0.0018299155	2.1298674	0.14578615	1.1899859	1.8327458	1.832746	0	3611.5566703117292
0.10964782	7.5857758	0.6	980.2536	0.001774397	2.234434	0.15027994	1.2270349	1.9273496	1.9273498	0	3730.6897984303287
0.10964782	8.3176377	0.6	1011.2174	0.0017205932	2.3420709	0.15491313	1.2652384	2.0249532	2.0249534	0	3853.3585109609785
0.10964782	9.1201084	0.6	1042.9431	0.0016684453	2.4528767	0.15969038	1.3046326	2.125629	2.1256292	0	3979.6758564065913
0.10964782	10.	0.6	1075.4754	0.0016178979	2.5669532	0.16461648	1.3452548	2.2294541	2.2294543	0	4109.758509992327