0.69183097	1.e-12	0.4	16812.394	100233.43	-0.01468279	-0.0016735592	-0.001673537	-17.909151	55.895814	0	925.1409503238164
0.69183097	1.0964782e-12	0.4	15333.146	91415.867	-0.014614971	-0.0016735592	-0.0016735348	-16.334688	50.977637	0	925.2046715331055
0.69183097	1.2022644e-12	0.4	13984.056	83374.149	-0.014547152	-0.0016735592	-0.0016735325	-14.898754	46.492206	0	925.2683927799771
0.69183097	1.3182567e-12	0.4	12753.672	76040.009	-0.014479334	-0.0016735592	-0.0016735299	-13.589161	42.401445	0	925.3321132000315
0.69183097	1.4454398e-12	0.4	11631.548	69351.184	-0.014411515	-0.0016735593	-0.0016735271	-12.394792	38.670626	0	925.3958346348163
0.69183097	1.5848932e-12	0.4	10608.159	63250.897	-0.014343697	-0.0016735593	-0.001673524	-11.305509	35.268079	0	925.4595552427836
0.69183097	1.7378008e-12	0.4	9674.8165	57687.36	-0.014275878	-0.0016735593	-0.0016735206	-10.312065	32.164919	0	925.5232769030642
0.69183097	1.9054607e-12	0.4	8823.5983	52613.345	-0.01420806	-0.0016735593	-0.0016735169	-9.4060266	29.334804	0	925.5869977365272
0.69183097	2.0892961e-12	0.4	8047.2783	47985.782	-0.014140241	-0.0016735593	-0.0016735128	-8.5797044	26.753708	0	925.6507196598859
0.69183097	2.2908677e-12	0.4	7339.2658	43765.384	-0.014072423	-0.0016735594	-0.0016735084	-7.8260834	24.39972	0	925.7144407564274
0.69183097	2.5118864e-12	0.4	6693.5508	39916.329	-0.014004604	-0.0016735594	-0.0016735035	-7.1387669	22.252858	0	925.778162980447
0.69183097	2.7542287e-12	0.4	6104.6519	36405.94	-0.013936786	-0.0016735595	-0.0016734982	-6.511921	20.294897	0	925.8418844152318
0.69183097	3.0199517e-12	0.4	5567.5695	33204.42	-0.013868967	-0.0016735595	-0.0016734923	-5.9402247	18.509215	0	925.9056070150779
0.69183097	3.3113112e-12	0.4	5077.7446	30284.59	-0.013801149	-0.0016735596	-0.001673486	-5.4188255	16.880653	0	925.9693288256888
0.69183097	3.6307805e-12	0.4	4631.019	27621.666	-0.013733331	-0.0016735597	-0.001673479	-4.9432978	15.395388	0	926.0330508993782
0.69183097	3.9810717e-12	0.4	4223.6004	25193.042	-0.013665512	-0.0016735599	-0.0016734713	-4.5096054	14.040809	0	926.0967741757111
0.69183097	4.3651583e-12	0.4	3852.0302	22978.103	-0.013597694	-0.0016735601	-0.001673463	-4.1140673	12.805419	0	926.1604967379742
0.69183097	4.7863009e-12	0.4	3513.1542	20958.046	-0.013529876	-0.0016735603	-0.0016734538	-3.7533263	11.67873	0	926.2242196384811
0.69183097	5.2480746e-12	0.4	3204.0956	19115.724	-0.013462058	-0.0016735606	-0.0016734439	-3.4243206	10.651177	0	926.2879428020661
0.69183097	5.7543994e-12	0.4	2922.2308	17435.498	-0.01339424	-0.001673561	-0.001673433	-3.1242579	9.7140377	0	926.3516663414773
0.69183097	6.3095734e-12	0.4	2665.167	15903.106	-0.013326423	-0.0016735615	-0.0016734212	-2.8505915	8.8593565	0	926.4153892795669
0.69183097	6.9183097e-12	0.4	2430.7221	14505.54	-0.013258605	-0.0016735622	-0.0016734083	-2.6009988	8.0798779	0	926.4791135706303
0.69183097	7.5857758e-12	0.4	2216.9058	13230.936	-0.013190789	-0.0016735631	-0.0016733943	-2.3733616	7.3689851	0	926.5428363959718
0.69183097	8.3176377e-12	0.4	2021.903	12068.476	-0.013122972	-0.0016735643	-0.0016733792	-2.165748	6.7206431	0	926.6065605742875
0.69183097	9.1201084e-12	0.4	1844.0583	11008.291	-0.013055157	-0.0016735658	-0.0016733629	-1.9763962	6.1293482	0	926.6702833244638
0.69183097	1.e-11	0.4	1681.862	10041.383	-0.012987342	-0.0016735678	-0.0016733453	-1.8036993	5.5900807	0	926.7340065632143
0.69183097	1.0964782e-11	0.4	1533.9373	9159.5439	-0.012919529	-0.0016735704	-0.0016733265	-1.646192	5.098263	0	926.7977283738251
0.69183097	1.2022644e-11	0.4	1399.0283	8355.2892	-0.012851717	-0.0016735738	-0.0016733064	-1.5025375	4.6497198	0	926.8614497334447
0.69183097	1.3182567e-11	0.4	1275.9898	7621.792	-0.012783908	-0.0016735784	-0.0016732851	-1.3715172	4.2406435	0	926.9251687253595
0.69183097	1.4454398e-11	0.4	1163.7775	6952.8266	-0.012716101	-0.0016735843	-0.0016732628	-1.2520193	3.8675616	0	926.9888862139701
0.69183097	1.5848932e-11	0.4	1061.4385	6342.7146	-0.012648298	-0.0016735922	-0.0016732396	-1.1430299	3.5273067	0	927.0526002825626
0.69183097	1.7378008e-11	0.4	968.10429	5786.2776	-0.0125805	-0.0016736025	-0.0016732159	-1.0436244	3.2169904	0	927.1163098412412
0.69183097	1.9054607e-11	0.4	882.98247	5278.7928	-0.012512709	-0.001673616	-0.0016731921	-0.95295959	2.9339785	0	927.1800128605453
0.69183097	2.0892961e-11	0.4	805.35044	4815.9529	-0.012444926	-0.0016736339	-0.0016731691	-0.87026632	2.6758685	0	927.2437080626655
0.69183097	2.2908677e-11	0.4	734.54916	4393.8295	-0.012377154	-0.0016736573	-0.0016731477	-0.7948432	2.4404691	0	927.3073923282452
0.69183097	2.5118864e-11	0.4	669.97763	4008.84	-0.012309397	-0.0016736883	-0.0016731295	-0.72605053	2.2257821	0	927.3710612977009
0.69183097	2.7542287e-11	0.4	611.08765	3657.7168	-0.01224166	-0.001673729	-0.0016731163	-0.6633049	2.0299849	0	927.4347095967189
0.69183097	3.0199517e-11	0.4	557.37935	3337.4799	-0.012173948	-0.0016737826	-0.0016731108	-0.60607425	1.8514153	0	927.4983315127417
0.69183097	3.3113112e-11	0.4	508.39676	3045.4116	-0.012106271	-0.0016738532	-0.0016731166	-0.55387333	1.6885573	0	927.5619162971423
0.69183097	3.6307805e-11	0.4	463.72405	2779.033	-0.012038637	-0.001673946	-0.0016731384	-0.50625956	1.5400282	0	927.6254546670143
0.69183097	3.9810717e-11	0.4	422.982	2536.0834	-0.011971062	-0.0016740681	-0.0016731825	-0.46282935	1.4045671	0	927.6889292216077
0.69183097	4.3651583e-11	0.4	385.82472	2314.5008	-0.011903563	-0.0016742286	-0.0016732575	-0.42321458	1.2810238	0	927.7523207562069
0.69183097	4.7863009e-11	0.4	351.93678	2112.4047	-0.011836164	-0.0016744393	-0.0016733746	-0.38707955	1.1683492	0	927.8156025119905
0.69183097	5.2480746e-11	0.4	321.03048	1928.0798	-0.011768895	-0.0016747157	-0.0016735483	-0.35411809	1.0655866	0	927.8787408525192
0.69183097	5.7543994e-11	0.4	292.84342	1759.9615	-0.011701796	-0.0016750777	-0.0016737977	-0.32405098	0.97186298	0	927.9416910168995
0.69183097	6.3095734e-11	0.4	267.13627	1606.6226	-0.011634916	-0.001675551	-0.0016741474	-0.29662357	0.88638223	0	928.0043977211062
0.69183097	6.9183097e-11	0.4	243.69078	1466.7612	-0.011568318	-0.0016761682	-0.0016746292	-0.27160361	0.80841795	0	928.0667898212514
0.69183097	7.5857758e-11	0.4	222.30784	1339.1897	-0.011502082	-0.0016769705	-0.001675283	-0.24877931	0.73730739	0	928.1287771566437
0.69183097	8.3176377e-11	0.4	202.80589	1222.8244	-0.011436305	-0.0016780092	-0.0016761589	-0.22795752	0.67244582	0	928.1902497605545
0.69183097	9.1201084e-11	0.4	185.01927	1116.6765	-0.011371103	-0.0016793472	-0.0016773184	-0.2089621	0.6132813	0	928.2510755300959
0.69183097	1.e-10	0.4	168.79691	1019.8439	-0.011306614	-0.0016810603	-0.0016788358	-0.1916324	0.55931016	0	928.3110968813673
0.69183097	1.0964782e-10	0.4	154.00101	931.50331	-0.011242994	-0.0016832371	-0.001680798	-0.17582196	0.51007268	0	928.3701345828825
0.69183097	1.2022644e-10	0.4	140.50585	850.90347	-0.011180412	-0.001685979	-0.0016833045	-0.16139719	0.4651493	0	928.4279924533962
0.69183097	1.3182567e-10	0.4	128.1968	777.35916	-0.011119044	-0.0016893974	-0.0016864649	-0.14823629	0.42415726	0	928.4844639388622
0.69183097	1.4454398e-10	0.4	116.96929	710.24553	-0.011059058	-0.0016936109	-0.0016903955	-0.1362282	0.38674751	0	928.5393474837214
0.69183097	1.5848932e-10	0.4	106.72798	648.99306	-0.011000605	-0.0016987406	-0.0016952149	-0.12527162	0.352602	0	928.5924566406258
0.69183097	1.7378008e-10	0.4	97.385958	593.08307	-0.010943802	-0.0017049047	-0.0017010389	-0.11527423	0.32143115	0	928.6436379597624
0.69183097	1.9054607e-10	0.4	88.863985	542.04347	-0.01088872	-0.0017122146	-0.0017079759	-0.1061518	0.29297154	0	928.692783992438
0.69183097	2.0892961e-10	0.4	81.089852	495.44476	-0.010835381	-0.0017207714	-0.0017161237	-0.097827539	0.26698373	0	928.7398373124181
0.69183097	2.2908677e-10	0.4	73.997757	452.89637	-0.010783755	-0.0017306647	-0.0017255686	-0.090231418	0.24325016	0	928.7847936728676
0.69183097	2.5118864e-10	0.4	67.527729	414.04309	-0.010733766	-0.0017419732	-0.0017363855	-0.083299563	0.22157315	0	928.8276963313749
0.69183097	2.7542287e-10	0.4	61.625113	378.56177	-0.010685296	-0.0017547666	-0.0017486397	-0.076973711	0.20177301	0	928.8686316152045
0.69183097	3.0199517e-10	0.4	56.240092	346.15834	-0.010638202	-0.0017691079	-0.0017623899	-0.071200721	0.18368635	0	928.9077118212073
0.69183097	3.3113112e-10	0.4	51.327253	316.56496	-0.010592319	-0.0017850569	-0.0017776908	-0.065932116	0.16716444	0	928.9450714199759
0.69183097	3.6307805e-10	0.4	46.845185	289.53756	-0.010547473	-0.0018026722	-0.0017945955	-0.061123668	0.15207178	0	928.980853939513
0.69183097	3.9810717e-10	0.4	42.756125	264.85358	-0.010503485	-0.0018220135	-0.0018131576	-0.056735029	0.13828484	0	929.0152074177356
0.69183097	4.3651583e-10	0.4	39.025631	242.30999	-0.010460179	-0.0018431431	-0.0018334328	-0.052729387	0.12569094	0	929.048276284629
0.69183097	4.7863009e-10	0.4	35.622289	221.72148	-0.010417384	-0.0018661263	-0.0018554793	-0.049073159	0.11418722	0	929.0801993327866
0.69183097	5.2480746e-10	0.4	32.517435	202.91885	-0.010374935	-0.0018910328	-0.0018793585	-0.045735697	0.10367972	0	929.1111085147666
0.69183097	5.7543994e-10	0.4	29.684924	185.7476	-0.010332675	-0.0019179354	-0.0019051349	-0.042689045	0.094082646	0	929.1411271015423
0.69183097	6.3095734e-10	0.4	27.100902	170.06659	-0.010290458	-0.0019469104	-0.001932875	-0.039907692	0.08531759	0	929.1703672772172
0.69183097	6.9183097e-10	0.4	24.743603	155.74692	-0.010248144	-0.0019780366	-0.0019626472	-0.037368362	0.0773129	0	929.1989348744319
0.69183097	7.5857758e-10	0.4	22.593171	142.6708	-0.010205603	-0.0020113943	-0.0019945203	-0.035049819	0.070003097	0	929.2269261798433
0.69183097	8.3176377e-10	0.4	20.631487	130.73066	-0.010162716	-0.0020470641	-0.0020285624	-0.032932684	0.063328334	0	929.2544274079683
0.69183097	9.1201084e-10	0.4	18.84202	119.82818	-0.010119369	-0.0020851254	-0.002064839	-0.030999279	0.057233911	0	929.2815210526444
0.69183097	1.e-9	0.4	17.209689	109.87358	-0.010075459	-0.0021256549	-0.0021034117	-0.029233473	0.051669835	0	929.3082807382125
0.69183097	1.0964782e-9	0.4	15.720731	100.78479	-0.010030891	-0.0021687247	-0.0021443359	-0.027620545	0.046590409	0	929.3347749026126
0.69183097	1.2022644e-9	0.4	14.362591	92.486864	-0.009985581	-0.0022144002	-0.0021876592	-0.026147066	0.041953868	0	929.3610645800101
0.69183097	1.3182567e-9	0.4	13.123814	84.911309	-0.0099394516	-0.0022627387	-0.0022334186	-0.024800782	0.037722036	0	929.3872085871957
0.69183097	1.4454398e-9	0.4	11.993948	77.995553	-0.0098924368	-0.0023137868	-0.0022816391	-0.023570514	0.033860019	0	929.4132595398291
0.69183097	1.5848932e-9	0.4	10.963455	71.682419	-0.0098444802	-0.0023675792	-0.0023323313	-0.022446059	0.030335919	0	929.4392664456389
0.69183097	1.7378008e-9	0.4	10.023637	65.919669	-0.009795536	-0.0024241361	-0.0023854895	-0.021418108	0.02712058	0	929.4652744789269
0.69183097	1.9054607e-9	0.4	9.166553	60.659567	-0.0097455691	-0.0024834626	-0.0024410901	-0.020478168	0.024187343	0	929.4913254879341
0.69183097	2.0892961e-9	0.4	8.3849618	55.858492	-0.0096945555	-0.002545547	-0.0024990899	-0.01961849	0.021511842	0	929.5174582579182
0.69183097	2.2908677e-9	0.4	7.672255	51.476581	-0.0096424821	-0.0026103606	-0.0025594258	-0.018832002	0.019071795	0	929.5437088118144
0.69183097	2.5118864e-9	0.4	7.0224036	47.477406	-0.0095893466	-0.0026778568	-0.0026220139	-0.01811225	0.01684683	0	929.5701108424363
0.69183097	2.7542287e-9	0.4	6.4299072	43.827673	-0.0095351572	-0.0027479726	-0.0026867497	-0.017453348	0.014818321	0	929.5966959191799
0.69183097	3.0199517e-9	0.4	5.8897477	40.496957	-0.0094799317	-0.0028206282	-0.0027535089	-0.016849923	0.012969237	0	929.6234940329707
0.69183097	3.3113112e-9	0.4	5.3973477	37.457455	-0.0094236971	-0.0028957293	-0.0028221478	-0.016297072	0.011284009	0	929.650533821761
0.69183097	3.6307805e-9	0.4	4.9485311	34.683759	-0.0093664877	-0.0029731689	-0.0028925061	-0.01579032	0.0097484019	0	929.6778433033893
0.69183097	3.9810717e-9	0.4	4.5394896	32.152655	-0.0093083451	-0.0030528289	-0.0029644073	-0.015325586	0.0083494064	0	929.7054497252509
0.69183097	4.3651583e-9	0.4	4.1667494	29.842938	-0.009249316	-0.0031345832	-0.0030376615	-0.014899143	0.007075133	0	929.7333805790277
0.69183097	4.7863009e-9	0.4	3.827143	27.735235	-0.0091894511	-0.0032183001	-0.0031120679	-0.01450759	0.0059147197	0	929.7616636946457
0.69183097	5.2480746e-9	0.4	3.5177825	25.811861	-0.0091288041	-0.0033038441	-0.0031874158	-0.014147823	0.0048582469	0	929.7903278040129
0.69183097	5.7543994e-9	0.4	3.2360352	24.056667	-0.00906743	-0.0033910794	-0.0032634881	-0.013817008	0.0038966579	0	929.8194028228904
0.69183097	6.3095734e-9	0.4	2.9795016	22.454913	-0.0090053842	-0.0034798712	-0.0033400616	-0.013512558	0.0030216879	0	929.8489205837523
0.69183097	6.9183097e-9	0.4	2.7459953	20.993153	-0.0089427219	-0.0035700879	-0.00341691	-0.013232109	0.0022257975	0	929.8789142720464
0.69183097	7.5857758e-9	0.4	2.5335244	19.659118	-0.0088794964	-0.0036616027	-0.0034938041	-0.012973504	0.0015021122	0	929.909419948291
0.69183097	8.3176377e-9	0.4	2.3402743	18.441623	-0.0088157593	-0.0037542945	-0.0035705136	-0.01273477	0.00084436642	0	929.9404756836742
0.69183097	9.1201084e-9	0.4	2.1645928	17.330466	-0.0087515597	-0.0038480493	-0.0036468078	-0.012514106	0.00024685084	0	929.9721220486277
0.69183097	1.e-8	0.4	2.0049748	16.316344	-0.0086869442	-0.0039427597	-0.003722456	-0.012309865	-0.00029563782	0	930.0044019624967
0.69183097	1.0964782e-8	0.4	1.860049	15.390751	-0.0086219591	-0.0040383232	-0.0037972258	-0.01212054	-0.00078785495	0	930.0373592654005
0.69183097	1.2022644e-8	0.4	1.7285607	14.545829	-0.0085566591	-0.0041346322	-0.0038708742	-0.011944754	-0.001234211	0	930.0710338888662
0.69183097	1.3182567e-8	0.4	1.609339	13.773896	-0.0084911516	-0.0042315247	-0.0039430993	-0.011781246	-0.0016391013	0	930.1054383854873
0.69183097	1.4454398e-8	0.4	1.501188	13.065589	-0.0084257994	-0.0043285557	-0.0040133134	-0.011628872	-0.0020082759	0	930.1404527539769
0.69183097	1.5848932e-8	0.4	1.4024914	12.402757	-0.008362022	-0.0044240904	-0.0040797384	-0.01148662	-0.0023540871	0	930.1754115377805
0.69183097	1.7378008e-8	0.4	1.3104911	11.745482	-0.0083038402	-0.0045135516	-0.0041376556	-0.011353687	-0.0027051261	0	930.2083103433456
0.69183097	1.9054607e-8	0.4	1.2225247	11.055044	-0.0082555792	-0.0045920716	-0.004182061	-0.011229563	-0.0030893931	0	930.2369659966248
0.69183097	2.0892961e-8	0.4	1.1387643	10.344038	-0.0082161746	-0.0046610273	-0.0042142035	-0.011113868	-0.0034972336	0	930.2619092017104
0.69183097	2.2908677e-8	0.4	1.0605431	9.64538	-0.0081820824	-0.0047246485	-0.0042381974	-0.011006121	-0.0039039296	0	930.284923516715
0.69183097	2.5118864e-8	0.4	0.98857369	8.9797004	-0.008150804	-0.0047859245	-0.0042569328	-0.010905738	-0.0042937072	0	930.3072703644951
0.69183097	2.7542287e-8	0.4	0.92297875	8.3561002	-0.008120945	-0.0048465387	-0.0042720136	-0.010812097	-0.0046592423	0	930.3296570874286
0.69183097	3.0199517e-8	0.4	0.8635763	7.7775223	-0.0080917229	-0.0049074435	-0.0042843357	-0.01072458	-0.0049977506	0	930.3524821927631
0.69183097	3.3113112e-8	0.4	0.8100433	7.2438504	-0.0080626761	-0.0049692046	-0.0042944336	-0.010642596	-0.0053087257	0	930.3759785047924
0.69183097	3.6307805e-8	0.4	0.76199581	6.7534423	-0.008033518	-0.0050321727	-0.0043026524	-0.010565588	-0.0055928198	0	930.400285605345
0.69183097	3.9810717e-8	0.4	0.71902866	6.3039014	-0.0080040654	-0.0050965694	-0.004309234	-0.010493037	-0.0058512797	0	930.4254847104494
0.69183097	4.3651583e-8	0.4	0.68073606	5.892484	-0.0079741983	-0.0051625352	-0.0043143626	-0.010424466	-0.0060856479	0	930.4516193407727
0.69183097	4.7863009e-8	0.4	0.64672296	5.5163246	-0.0079438384	-0.0052301567	-0.0043181886	-0.010359435	-0.0062975951	0	930.4787065400305
0.69183097	5.2480746e-8	0.4	0.61661174	5.1725673	-0.0079129357	-0.0052994817	-0.0043208392	-0.010297545	-0.0064888238	0	930.5067454814053
0.69183097	5.7543994e-8	0.4	0.59004611	4.8584432	-0.0078814598	-0.0053705322	-0.0043224263	-0.010238429	-0.0066610076	0	930.5357226727385
0.69183097	6.3095734e-8	0.4	0.56669363	4.5713168	-0.007849395	-0.0054433095	-0.0043230465	-0.010181758	-0.0068157564	0	930.5656165604012
0.69183097	6.9183097e-8	0.4	0.54624697	4.3087126	-0.0078167356	-0.005517801	-0.0043227824	-0.010127231	-0.006954593	0	930.5964014566766
0.69183097	7.5857758e-8	0.4	0.52842441	4.0683295	-0.0077834838	-0.0055939828	-0.0043217006	-0.010074578	-0.0070789411	0	930.6280502645
0.69183097	8.3176377e-8	0.4	0.51296972	3.8480453	-0.007749648	-0.0056718221	-0.004319851	-0.010023553	-0.0071901188	0	930.660536337798
0.69183097	9.1201084e-8	0.4	0.49965142	3.6459153	-0.0077152417	-0.0057512786	-0.0043172645	-0.0099739375	-0.0072893375	0	930.6938353794108
0.69183097	1.e-7	0.4	0.48826165	3.460167	-0.0076802828	-0.0058323046	-0.0043139517	-0.009925531	-0.0073777033	0	930.7279265873615
0.69183097	1.0964782e-7	0.4	0.47861476	3.2891902	-0.0076447941	-0.0059148432	-0.0043098999	-0.0098781542	-0.007456222	0	930.7627933125522
0.69183097	1.2022644e-7	0.4	0.47054559	3.1315267	-0.0076088036	-0.005998828	-0.0043050724	-0.0098316445	-0.0075258048	0	930.798423039972
0.69183097	1.3182567e-7	0.4	0.46390777	2.9858576	-0.0075723454	-0.0060841795	-0.0042994048	-0.0097858545	-0.0075872754	0	930.8348079336467
0.69183097	1.4454398e-7	0.4	0.45857187	2.8509909	-0.0075354614	-0.0061708013	-0.0042928023	-0.0097406504	-0.0076413778	0	930.8719442541053
0.69183097	1.5848932e-7	0.4	0.45442364	2.7258485	-0.0074982027	-0.0062585764	-0.0042851361	-0.0096959102	-0.0076887838	0	930.9098323959659
0.69183097	1.7378008e-7	0.4	0.45136232	2.6094541	-0.0074606323	-0.0063473614	-0.0042762389	-0.0096515227	-0.0077301011	0	930.9484760423243
0.69183097	1.9054607e-7	0.4	0.44929907	2.5009222	-0.007422826	-0.0064369824	-0.0042659019	-0.0096073857	-0.0077658795	0	930.9878824466252
0.69183097	2.0892961e-7	0.4	0.44815554	2.3994473	-0.0073848756	-0.0065272292	-0.0042538696	-0.0095634052	-0.0077966181	0	931.0280613803482
0.69183097	2.2908677e-7	0.4	0.44786265	2.3042958	-0.0073468898	-0.0066178514	-0.0042398368	-0.0095194946	-0.0078227705	0	931.0690254148776
0.69183097	2.5118864e-7	0.4	0.44835957	2.2147989	-0.0073089951	-0.0067085569	-0.0042234487	-0.0094755735	-0.0078447487	0	931.110789038311
0.69183097	2.7542287e-7	0.4	0.44959283	2.1303476	-0.0072713357	-0.0067990109	-0.0042042999	-0.0094315672	-0.0078629265	0	931.1533691252425
0.69183097	3.0199517e-7	0.4	0.45151577	2.0503901	-0.0072340707	-0.0068888431	-0.0041819426	-0.0093874059	-0.0078776404	0	931.1967844857702
0.69183097	3.3113112e-7	0.4	0.45408802	1.9744305	-0.0071973703	-0.0069776554	-0.0041558946	-0.0093430239	-0.0078891898	0	931.241056429236
0.69183097	3.6307805e-7	0.4	0.45727534	1.9020294	-0.0071614102	-0.0070650343	-0.0041256526	-0.0092983594	-0.0078978365	0	931.2862090273044
0.69183097	3.9810717e-7	0.4	0.46104933	1.8328052	-0.0071263631	-0.0071505722	-0.0040907138	-0.0092533535	-0.0079038024	0	931.3322689824224
0.69183097	4.3651583e-7	0.4	0.46538735	1.7664349	-0.0070923913	-0.0072338827	-0.0040505915	-0.0092079498	-0.0079072693	0	931.3792667177167
0.69183097	4.7863009e-7	0.4	0.47027225	1.7026535	-0.007059638	-0.0073146228	-0.0040048373	-0.009162094	-0.0079083776	0	931.4272362078698
0.69183097	5.2480746e-7	0.4	0.4756921	1.6412515	-0.0070282214	-0.0073925059	-0.003953055	-0.009115733	-0.0079072288	0	931.4762152985737
0.69183097	5.7543994e-7	0.4	0.48163965	1.5820698	-0.0069982304	-0.0074673137	-0.0038949117	-0.0090688148	-0.0079038879	0	931.5262455749914
0.69183097	6.3095734e-7	0.4	0.48811176	1.5249931	-0.0069697227	-0.0075388998	-0.0038301427	-0.0090212878	-0.0078983882	0	931.5773723053815
0.69183097	6.9183097e-7	0.4	0.49510876	1.4699406	-0.0069427274	-0.0076071847	-0.0037585455	-0.0089731007	-0.007890738	0	931.629644253185
0.69183097	7.5857758e-7	0.4	0.5026337	1.4168579	-0.0069172469	-0.0076721529	-0.0036799773	-0.0089242018	-0.0078809257	0	931.6831128314184
0.69183097	8.3176377e-7	0.4	0.51069172	1.365708	-0.0068932616	-0.0077338404	-0.0035943431	-0.0088745393	-0.0078689263	0	931.7378321590459
0.69183097	9.1201084e-7	0.4	0.51928949	1.3164644	-0.0068707352	-0.0077923246	-0.0035015848	-0.0088240603	-0.0078547069	0	931.793858177788
0.69183097	1.e-6	0.4	0.52843476	1.2691051	-0.0068496196	-0.0078477117	-0.0034016688	-0.0087727119	-0.0078382306	0	931.8512487084968
0.69183097	1.0964782e-6	0.4	0.53813602	1.223608	-0.0068298579	-0.0079001303	-0.0032945798	-0.0087204397	-0.0078194594	0	931.9100629625802
0.69183097	1.2022644e-6	0.4	0.54840222	1.1799487	-0.0068113884	-0.007949721	-0.0031803101	-0.008667189	-0.0077983563	0	931.9703618050821
0.69183097	1.3182567e-6	0.4	0.5592427	1.1380979	-0.0067941477	-0.0079966314	-0.0030588546	-0.0086129038	-0.0077748872	0	932.0322067211587
0.69183097	1.4454398e-6	0.4	0.57066705	1.0980213	-0.0067780718	-0.0080410108	-0.0029302054	-0.0085575274	-0.0077490204	0	932.0956608120188
0.69183097	1.5848932e-6	0.4	0.58268509	1.0596794	-0.0067630974	-0.0080830089	-0.0027943503	-0.0085010021	-0.0077207274	0	932.160788137228
0.69183097	1.7378008e-6	0.4	0.5953069	1.0230274	-0.0067491633	-0.0081227722	-0.0026512692	-0.0084432691	-0.0076899825	0	932.2276537522914
0.69183097	1.9054607e-6	0.4	0.60854284	0.9880161	-0.0067362102	-0.008160443	-0.0025009329	-0.0083842689	-0.0076567621	0	932.2963243475574
0.69183097	2.0892961e-6	0.4	0.62240358	0.95459288	-0.0067241807	-0.0081961615	-0.0023433053	-0.0083239406	-0.0076210444	0	932.3668674214006
0.69183097	2.2908677e-6	0.4	0.63690016	0.922702	-0.00671302	-0.0082300625	-0.0021783394	-0.0082622226	-0.0075828086	0	932.4393521258312
0.69183097	2.5118864e-6	0.4	0.65204405	0.89228567	-0.0067026747	-0.0082622783	-0.0020059807	-0.0081990518	-0.0075420343	0	932.5138491161629
0.69183097	2.7542287e-6	0.4	0.6678472	0.86328469	-0.0066930938	-0.0082929373	-0.0018261652	-0.0081343643	-0.0074987011	0	932.5904303631017
0.69183097	3.0199517e-6	0.4	0.6843221	0.8356392	-0.0066842272	-0.0083221662	-0.0016388216	-0.0080680948	-0.0074527879	0	932.669169735276
0.69183097	3.3113112e-6	0.4	0.70148177	0.80928914	-0.0066760263	-0.0083500894	-0.0014438706	-0.0080001769	-0.0074042724	0	932.7501426985738
0.69183097	3.6307805e-6	0.4	0.71933989	0.78417489	-0.0066684428	-0.0083768315	-0.0012412267	-0.0079305428	-0.0073531306	0	932.833426767137
0.69183097	3.9810717e-6	0.4	0.73791078	0.76023759	-0.0066614301	-0.0084025146	-0.0010307963	-0.0078591232	-0.0072993368	0	932.9191009020376
0.69183097	4.3651583e-6	0.4	0.75720946	0.73741951	-0.0066549414	-0.0084272609	-0.00081247913	-0.0077858476	-0.0072428629	0	933.007246759021
0.69183097	4.7863009e-6	0.4	0.77725167	0.71566442	-0.0066489304	-0.008451193	-0.00058616883	-0.0077106439	-0.0071836781	0	933.0979478128311
0.69183097	5.2480746e-6	0.4	0.79805393	0.69491772	-0.0066433515	-0.0084744327	-0.00035175156	-0.0076334385	-0.0071217491	0	933.1912896916957
0.69183097	5.7543994e-6	0.4	0.81963353	0.67512667	-0.0066381588	-0.0084971033	-0.00010910768	-0.0075541558	-0.0070570392	0	933.2873604855037
0.69183097	6.3095734e-6	0.4	0.84200859	0.65624054	-0.0066333068	-0.0085193273	0.00014189015	-0.0074727189	-0.0069895088	0	933.3862508021791
0.69183097	6.9183097e-6	0.4	0.86519805	0.63821065	-0.0066287501	-0.0085412279	0.00040137622	-0.0073890489	-0.0069191147	0	933.4880537676814
0.69183097	7.5857758e-6	0.4	0.88922176	0.62099049	-0.0066244444	-0.0085629266	0.00066949411	-0.007303065	-0.0068458105	0	933.5928649658725
0.69183097	8.3176377e-6	0.4	0.9141004	0.6045357	-0.0066203439	-0.0085845489	0.00094639167	-0.0072146843	-0.006769546	0	933.7007829947404
0.69183097	9.1201084e-6	0.4	0.93985562	0.58880413	-0.0066164054	-0.0086062142	0.0012322306	-0.0071238221	-0.0066902674	0	933.8119092145951
0.69183097	0.00001	0.4	0.96650996	0.57375578	-0.0066125844	-0.0086280461	0.0015271773	-0.0070303912	-0.0066079171	0	933.9263479735639
0.69183097	0.000010964782	0.4	0.99408699	0.55935278	-0.0066088389	-0.0086501623	0.0018314126	-0.0069343025	-0.0065224337	0	934.0442066940333
0.69183097	0.000012022644	0.4	1.0226111	0.54555939	-0.0066051257	-0.0086726843	0.0021451224	-0.0068354642	-0.006433752	0	934.165595831305
0.69183097	0.000013182567	0.4	1.0521079	0.53234188	-0.006601404	-0.0086957279	0.0024685081	-0.0067337823	-0.0063418025	0	934.2906294110303
0.69183097	0.000014454398	0.4	1.0826039	0.51966848	-0.0065976342	-0.0087194065	0.0028017827	-0.0066291602	-0.0062465122	0	934.4194246909648
0.69183097	0.000015848932	0.4	1.1141266	0.50750934	-0.0065937772	-0.0087438324	0.0031451703	-0.0065214985	-0.0061478037	0	934.5521026307516
0.69183097	0.000017378008	0.4	1.1467047	0.49583641	-0.0065897963	-0.0087691133	0.00349891	-0.0064106952	-0.0060455956	0	934.6887875724692
0.69183097	0.000019054607	0.4	1.1803678	0.48462335	-0.0065856553	-0.0087953554	0.0038632529	-0.0062966454	-0.0059398023	0	934.8296078983269
0.69183097	0.000020892961	0.4	1.2151468	0.4738455	-0.0065813208	-0.0088226583	0.0042384673	-0.0061792413	-0.0058303343	0	934.9746958239609
0.69183097	0.000022908677	0.4	1.2510738	0.4634797	-0.0065767617	-0.0088511174	0.0046248375	-0.0060583719	-0.0057170975	0	935.1241874172251
0.69183097	0.000025118864	0.4	1.2881817	0.4535043	-0.0065719473	-0.0088808264	0.0050226608	-0.005933923	-0.0055999938	0	935.2782232558872
0.69183097	0.000027542287	0.4	1.326505	0.44389899	-0.006566851	-0.0089118702	0.0054322551	-0.0058057773	-0.0054789208	0	935.4369478075155
0.69183097	0.000030199517	0.4	1.3660791	0.43464476	-0.0065614477	-0.0089443299	0.0058539547	-0.0056738138	-0.0053537714	0	935.6005102938786
0.69183097	0.000033113112	0.4	1.4069409	0.42572381	-0.0065557143	-0.0089782827	0.0062881108	-0.0055379081	-0.0052244345	0	935.7690644090767
0.69183097	0.000036307805	0.4	1.4491285	0.41711945	-0.0065496301	-0.0090138	0.0067350929	-0.0053979322	-0.0050907942	0	935.9427684698713
0.69183097	0.000039810717	0.4	1.4926811	0.40881605	-0.0065431775	-0.0090509464	0.0071952914	-0.0052537541	-0.0049527302	0	936.1217857351376
0.69183097	0.000043651583	0.4	1.5376395	0.40079896	-0.0065363405	-0.0090897826	0.0076691143	-0.0051052381	-0.0048101175	0	936.3062845749862
0.69183097	0.000047863009	0.4	1.5840457	0.39305441	-0.0065291052	-0.0091303651	0.0081569886	-0.0049522444	-0.0046628263	0	936.4964385271371
0.69183097	0.000052480746	0.4	1.6319433	0.3855695	-0.0065214598	-0.0091727458	0.0086593601	-0.0047946288	-0.004510722	0	936.6924262217551
0.69183097	0.000057543994	0.4	1.6813772	0.37833213	-0.006513395	-0.0092169707	0.0091766966	-0.004632243	-0.0043536653	0	936.8944322082657
0.69183097	0.000063095734	0.4	1.7323938	0.37133091	-0.006504902	-0.0092630856	0.0097094817	-0.0044649341	-0.0041915117	0	937.102646504366
0.69183097	0.000069183097	0.4	1.7850411	0.36455514	-0.0064959748	-0.00931113	0.010258221	-0.0042925446	-0.0040241114	0	937.3172647651438
0.69183097	0.000075857758	0.4	1.8393686	0.35799478	-0.0064866072	-0.0093611443	0.010823438	-0.0041149123	-0.0038513097	0	937.5384895608887
0.69183097	0.000083176377	0.4	1.8954274	0.35164037	-0.006476795	-0.0094131648	0.011405675	-0.00393187	-0.0036729463	0	937.7665286482913
0.69183097	0.000091201084	0.4	1.9532704	0.34548303	-0.0064665352	-0.009467226	0.012005496	-0.0037432454	-0.0034888555	0	938.0015968119901
0.69183097	0.0001	0.4	2.0129521	0.33951439	-0.006455824	-0.0095233642	0.012623481	-0.0035488608	-0.0032988659	0	938.2439156014949
0.69183097	0.00010964782	0.4	2.0745287	0.33372661	-0.0064446591	-0.0095816139	0.01326023	-0.0033485334	-0.0031028002	0	938.4937126734899
0.69183097	0.00012022644	0.4	2.1380585	0.3281123	-0.0064330386	-0.0096420086	0.013916366	-0.0031420745	-0.0029004753	0	938.7512239528347
0.69183097	0.00013182567	0.4	2.2036013	0.32266453	-0.0064209595	-0.0097045859	0.014592527	-0.0029292899	-0.002691702	0	939.0166920353024
0.69183097	0.00014454398	0.4	2.2712191	0.31737678	-0.0064084198	-0.0097693809	0.015289373	-0.002709979	-0.0024762846	0	939.2903668452763
0.69183097	0.00015848932	0.4	2.3409757	0.31224294	-0.0063954179	-0.0098364302	0.016007586	-0.0024839354	-0.0022540212	0	939.5725061994881
0.69183097	0.00017378008	0.4	2.4129371	0.3072573	-0.006381953	-0.0099057678	0.016747872	-0.0022509461	-0.0020247031	0	939.8633761828455
0.69183097	0.00019054607	0.4	2.487171	0.3024145	-0.0063680265	-0.0099774248	0.017510963	-0.0020107919	-0.0017881148	0	940.163250584691
0.69183097	0.00020892961	0.4	2.5637474	0.29770954	-0.0063536473	-0.010051414	0.018297634	-0.0017632465	-0.0015440337	0	940.4724123081517
0.69183097	0.00022908677	0.4	2.6427377	0.29313764	-0.0063388411	-0.01012771	0.019108721	-0.0015080766	-0.0012922303	0	940.791151397051
0.69183097	0.00025118864	0.4	2.7242139	0.28869398	-0.0063236762	-0.010206186	0.019945186	-0.0012450423	-0.001032468	0	941.1197652238225
0.69183097	0.00027542287	0.4	2.8082468	0.2843727	-0.006308329	-0.010286457	0.020808278	-0.00097389639	-0.000764504	0	941.4585574559867
0.69183097	0.00030199517	0.4	2.8948993	0.28016367	-0.0062932493	-0.010367487	0.021699923	-0.00069438494	-0.00048809178	0	941.8078293181954
0.69183097	0.00033113112	0.4	2.9842125	0.27604336	-0.0062795389	-0.01044668	0.022623632	-0.00040624895	-0.0002029897	0	942.1678651229233
0.69183097	0.00036307805	0.4	3.0761773	0.27195297	-0.0062696757	-0.01051816	0.023586228	-0.00010922739	0.000091019982	0	942.538900982943
0.69183097	0.00039810717	0.4	3.1707084	0.26776925	-0.0062681583	-0.010571239	0.024599372	0.00019693595	0.00039410271	0	942.9210926781892
0.69183097	0.00043651583	0.4	3.2676928	0.26332533	-0.0062802602	-0.010593427	0.025676561	0.00051248697	0.00070638155	0	943.3145579362003
0.69183097	0.00047863009	0.4	3.3671322	0.25853052	-0.0063084002	-0.01057911	0.026824443	0.00083766464	0.0010280286	0	943.7195226284871
0.69183097	0.00052480746	0.4	3.4691929	0.25344706	-0.0063507651	-0.010532826	0.02803955	0.0011727168	0.0013593377	0	944.1363870098877
0.69183097	0.00057543994	0.4	3.5741019	0.24821808	-0.0064036905	-0.010463567	0.029313992	0.0015179115	0.0017006821	0	944.5656287554267
0.69183097	0.00063095734	0.4	3.6820552	0.24297126	-0.0064638431	-0.010379555	0.030640683	0.0018735381	0.0020524453	0	945.007716614257
0.69183097	0.00069183097	0.4	3.7932004	0.23777937	-0.0065288262	-0.010286797	0.032014788	0.0022399024	0.0024149867	0	945.4630853232661
0.69183097	0.00075857758	0.4	3.9076528	0.2326612	-0.0065970639	-0.010189336	0.03343347	0.0026173233	0.0027886389	0	945.93214932473
0.69183097	0.00083176377	0.4	4.0255173	0.22759879	-0.0066675632	-0.010089797	0.034895349	0.0030061301	0.0031737181	0	946.4153229669678
0.69183097	0.00091201084	0.4	4.1469043	0.22255909	-0.0067397144	-0.0099898463	0.036400046	0.0034066626	0.0035705398	0	946.9130366648664
0.69183097	0.001	0.4	4.2719374	0.21751309	-0.0068131373	-0.0098905511	0.037947815	0.0038192722	0.0039794338	0	947.4257431010116
0.69183097	0.0010964782	0.4	4.400753	0.21244716	-0.0068875511	-0.0097927059	0.039539229	0.0042443224	0.0044007538	0	947.9539214537317
0.69183097	0.0012022644	0.4	4.5334945	0.20736345	-0.0069626541	-0.009697147	0.041174858	0.0046821914	0.0048348796	0	948.4980694107926
0.69183097	0.0013182567	0.4	4.6703063	0.20227091	-0.0070379995	-0.0096050788	0.04285495	0.0051332712	0.0052822095	0	949.0586999748757
0.69183097	0.0014454398	0.4	4.8113367	0.19717435	-0.0071128619	-0.0095184007	0.044579103	0.0055979679	0.0057431535	0	949.6363436245772
0.69183097	0.0015848932	0.4	4.956753	0.19207123	-0.00718608	-0.0094400628	0.046345909	0.0060767027	0.0062181306	0	950.2315623139332
0.69183097	0.0017378008	0.4	5.1067681	0.18696335	-0.0072558528	-0.0093744915	0.048152535	0.006569916	0.0067075829	0	950.8449834846843
0.69183097	0.0019054607	0.4	5.2616704	0.18188157	-0.0073194801	-0.0093281506	0.049994157	0.0070780716	0.0072119966	0	951.4773311658894
0.69183097	0.0020892961	0.4	5.4218439	0.17691331	-0.0073731792	-0.0093099253	0.051863583	0.0076016667	0.0077319334	0	952.1294565097988
0.69183097	0.0022908677	0.4	5.5877441	0.17220993	-0.0074124804	-0.0093301751	0.053752198	0.0081412401	0.0082680436	0	952.8023213494616
0.69183097	0.0025118864	0.4	5.759783	0.16793421	-0.0074339986	-0.0093966102	0.055654091	0.0086973746	0.0088210297	0	953.4968846992301
0.69183097	0.0027542287	0.4	5.9381658	0.16414439	-0.0074378597	-0.0095086892	0.057571659	0.0092706837	0.0093915483	0	954.2139291230848
0.69183097	0.0030199517	0.4	6.1228924	0.16074694	-0.0074275564	-0.0096580374	0.059515191	0.0098617911	0.009980154	0	954.954039876282
0.69183097	0.0033113112	0.4	6.313939	0.15759686	-0.0074070743	-0.0098351771	0.061496136	0.010471316	0.01058736	0	955.7177750606395
0.69183097	0.0036307805	0.4	6.5113757	0.15459733	-0.0073791192	-0.010033636	0.063523001	0.011099881	0.011213716	0	956.5057895532065
0.69183097	0.0039810717	0.4	6.7153566	0.15171116	-0.0073452542	-0.010249609	0.065601688	0.01174812	0.01185983	0	957.3188328452622
0.69183097	0.0043651583	0.4	6.926078	0.14893352	-0.007306461	-0.010480657	0.067736801	0.012416683	0.012526347	0	958.1577128690517
0.69183097	0.0047863009	0.4	7.1437554	0.14626924	-0.0072634617	-0.010724952	0.069932398	0.013106242	0.013213945	0	959.0232762669115
0.69183097	0.0052480746	0.4	7.3686137	0.14372254	-0.0072168232	-0.010981047	0.072192223	0.013817489	0.013923316	0	959.916397492313
0.69183097	0.0057543994	0.4	7.6008869	0.14129506	-0.0071669875	-0.011247798	0.074519796	0.01455114	0.01465518	0	960.8379841653843
0.69183097	0.0063095734	0.4	7.8408136	0.13898892	-0.0071142832	-0.011524348	0.076918417	0.015307934	0.015410276	0	961.7889677712133
0.69183097	0.0069183097	0.4	8.0884362	0.13684571	-0.0070593082	-0.011809715	0.07939159	0.016088628	0.016189392	0	962.7701034384717
0.69183097	0.0075857758	0.4	8.3310312	0.13535879	-0.0070300073	-0.012069332	0.081976483	0.016893686	0.016993355	0	963.7691039073385
0.69183097	0.0083176377	0.4	8.512947	0.13047721	-0.0072694948	-0.011855573	0.085123401	0.01771935	0.017815424	0	964.7267837954168
0.69183097	0.0091201084	0.4	8.7341632	0.12531346	-0.0075440274	-0.011492688	0.088510862	0.018564356	0.018656628	0	965.7419388690421
0.69183097	0.01	0.4	8.9933794	0.12154289	-0.0075459054	-0.011745724	0.091376669	0.019432911	0.019522407	0	966.8172195481097
0.69183097	0.010964782	0.4	9.2787615	0.11959201	-0.007445328	-0.012215178	0.094123264	0.020328388	0.020416448	0	967.9439607851361
0.69183097	0.012022644	0.4	9.5755381	0.11792332	-0.0073306335	-0.012718447	0.096936283	0.021252424	0.021339255	0	969.1089298356883
0.69183097	0.013182567	0.4	9.8828965	0.11628164	-0.0072087814	-0.013240796	0.099833586	0.022206069	0.022291691	0	970.3123000495735
0.69183097	0.014454398	0.4	10.201163	0.11466409	-0.00708162	-0.013777328	0.10282329	0.023190376	0.023274806	0	971.5553854089336
0.69183097	0.015848932	0.4	10.530726	0.11308141	-0.0069500187	-0.01432544	0.10591133	0.024206431	0.024289696	0	972.8395995837941
0.69183097	0.017378008	0.4	10.871995	0.11155047	-0.0068144531	-0.014883464	0.1091028	0.025255363	0.025337501	0	974.1664101752319
0.69183097	0.019054607	0.4	11.225321	0.11012829	-0.0066751538	-0.015450506	0.11240212	0.026338338	0.026419429	0	975.5372616710158
0.69183097	0.020892961	0.4	11.589399	0.10940769	-0.0065325552	-0.016029704	0.1158098	0.027456515	0.027537075	0	976.9519375952898
0.69183097	0.022908677	0.4	11.928795	0.11566816	-0.0064097604	-0.016661441	0.11928923	0.028609852	0.028695022	0	978.37497208083
0.69183097	0.025118864	0.4	12.258339	0.11800713	-0.006412215	-0.017055867	0.12313411	0.02979461	0.029881502	0	979.8176722328851
0.69183097	0.027542287	0.4	12.649736	0.11401907	-0.006453047	-0.017232337	0.1273291	0.031015201	0.031099157	0	981.3558947995524
0.69183097	0.030199517	0.4	13.066462	0.11070628	-0.0063958933	-0.017623452	0.13144571	0.032275468	0.032356984	0	982.9567240818822
0.69183097	0.033113112	0.4	13.502975	0.10818332	-0.00627758	-0.018150694	0.13556671	0.033577592	0.03365725	0	984.6166666819463
0.69183097	0.036307805	0.4	13.957196	0.10618452	-0.0061499455	-0.018689872	0.13982068	0.034923375	0.035001562	0	986.3353407603868
0.69183097	0.039810717	0.4	14.429386	0.10452493	-0.0060190717	-0.019225246	0.14422786	0.036314562	0.036391527	0	988.1146386957747
0.69183097	0.043651583	0.4	14.920209	0.1030812	-0.0058855707	-0.0197537	0.14879605	0.037752942	0.037828844	0	989.9569168240517
0.69183097	0.047863009	0.4	15.430488	0.10177201	-0.0057495876	-0.02027282	0.15353244	0.039240383	0.039315321	0	991.864741004232
0.69183097	0.052480746	0.4	15.961162	0.1005453	-0.0056111595	-0.020780086	0.15844453	0.040778838	0.040852872	0	993.8408950744907
0.69183097	0.057543994	0.4	16.513264	0.099366947	-0.0054703213	-0.021272648	0.16354026	0.042370355	0.042443522	0	995.8883303035493
0.69183097	0.063095734	0.4	17.08792	0.098212826	-0.0053270744	-0.021747391	0.16882803	0.044017088	0.044089405	0	998.0102023155921
0.69183097	0.069183097	0.4	16.749578	0.1009313	-0.0064700492	-0.021452439	0.17506513	0.045729059	0.045803378	0	999.2803680153829
0.69183097	0.075857758	0.4	15.564959	0.10707849	-0.0087393408	-0.021011015	0.18163394	0.04734811	0.047426955	0	999.6169507656703
0.69183097	0.083176377	0.4	14.484573	0.11268479	-0.010808959	-0.021338596	0.18762478	0.048824703	0.048907676	0	999.9239234897785
0.69183097	0.091201084	0.4	13.49925	0.11779779	-0.012696474	-0.022390281	0.19308848	0.050171371	0.050258109	0	1000.2038810792912
0.69183097	0.1	0.4	14.699866	0.10929743	-0.012380588	-0.023260758	0.19893651	0.051548627	0.051629106	0	1002.6985191609456
0.69183097	0.10964782	0.4	16.189343	0.10101928	-0.011702214	-0.024141805	0.20498342	0.053060481	0.053134865	0	1005.6084827099139
0.69183097	0.12022644	0.4	17.964975	0.093252913	-0.010629253	-0.025064812	0.21120435	0.054731971	0.054800636	0	1008.9545877965255
0.69183097	0.13182567	0.4	20.082704	0.085979943	-0.0090652543	-0.026052104	0.21758372	0.05659377	0.05665708	0	1012.8216007852222
0.69183097	0.14454398	0.4	22.615879	0.079184605	-0.0068880903	-0.027128362	0.22410377	0.058682842	0.058741148	0	1017.3175938649966
0.69183097	0.15848932	0.4	25.66134	0.072853749	-0.0039419447	-0.028319484	0.23074578	0.06104444	0.061098085	0	1022.5819311669529
0.69183097	0.17378008	0.4	29.345955	0.066976755	-0.000028279474	-0.029651219	0.23749138	0.063734731	0.063784048	0	1028.7942482147866
0.69183097	0.19054607	0.4	33.832376	0.061545288	0.0051028624	-0.031147492	0.24432426	0.066824029	0.066869346	0	1036.1832662410143
0.69183097	0.20892961	0.4	39.321909	0.056552754	0.011758748	-0.032828308	0.25123227	0.070400486	0.070442128	0	1045.0331164577196
0.69183097	0.22908677	0.4	46.051397	0.05199335	0.020303313	-0.034707198	0.25820997	0.074573789	0.074612073	0	1055.6836957196206
0.69183097	0.25118864	0.4	54.280568	0.047860573	0.03114552	-0.03678839	0.26526148	0.079478113	0.079513354	0	1068.520799518819
0.69183097	0.27542287	0.4	64.267288	0.044145259	0.044713147	-0.039064315	0.27240298	0.085273255	0.08530576	0	1083.9524341085535
0.69183097	0.30199517	0.4	76.231686	0.040833434	0.061412259	-0.041514413	0.2796639	0.092142766	0.092172833	0	1102.3711846559715
0.69183097	0.33113112	0.4	90.315966	0.037904566	0.08157922	-0.044106297	0.2870858	0.10028828	0.10031619	0	1124.1087064548392
0.69183097	0.36307805	0.4	106.55198	0.035330939	0.1054384	-0.046799696	0.29471837	0.10992014	0.10994616	0	1149.3944845836318
0.69183097	0.39810717	0.4	124.84875	0.033078555	0.13307965	-0.049552378	0.30261358	0.12124582	0.12127018	0	1178.3324716131087
0.69183097	0.43651583	0.4	145.00517	0.031109403	0.16446261	-0.052326258	0.31081956	0.13445826	0.13448116	0	1210.9028351978618
0.69183097	0.47863009	0.4	166.74262	0.029384374	0.19944392	-0.055091845	0.31937615	0.14972656	0.1497482	0	1246.985852162733
0.69183097	0.52480746	0.4	189.74566	0.027865967	0.23781564	-0.057830104	0.32831305	0.16719039	0.16721091	0	1286.397311325201
0.69183097	0.57543994	0.4	213.69906	0.0265202	0.2793427	-0.060531984	0.33765032	0.18695823	0.18697776	0	1328.9238881308097
0.69183097	0.63095734	0.4	238.31437	0.025317599	0.32379192	-0.063196537	0.34740026	0.20910882	0.20912746	0	1374.3511173927684
0.69183097	0.69183097	0.4	263.34492	0.024233394	0.37095043	-0.065828569	0.35756976	0.23369456	0.2337124	0	1422.481583277127
0.69183097	0.75857758	0.4	288.59129	0.023247234	0.42063503	-0.068436478	0.3681625	0.260746	0.26076311	0	1473.1445404519604
0.69183097	0.83176377	0.4	313.90032	0.02234263	0.47269516	-0.071030556	0.37918062	0.29027642	0.29029287	0	1526.1993322261128
0.69183097	0.91201084	0.4	339.16071	0.021506338	0.527012	-0.073621794	0.39062596	0.3222862	0.32230204	0	1581.5350109647943
0.69183097	1.	0.4	364.29707	0.020727763	0.58349564	-0.07622113	0.40250082	0.35676661	0.35678187	0	1639.0679647475088
0.69183097	1.0964782	0.4	389.26374	0.019998432	0.6420816	-0.078839014	0.41480839	0.39370302	0.39371774	0	1698.7388092858744
0.69183097	1.2022644	0.4	414.03901	0.019311557	0.70272717	-0.081485195	0.42755299	0.43307757	0.43309179	0	1760.509039312718
0.69183097	1.3182567	0.4	438.62016	0.01866168	0.76540821	-0.08416865	0.44074016	0.47487122	0.47488496	0	1824.3580557973057
0.69183097	1.4454398	0.4	463.01917	0.018044391	0.83011623	-0.08689759	0.45437664	0.51906543	0.51907872	0	1890.280414898
0.69183097	1.5848932	0.4	487.25927	0.0174561	0.89685599	-0.089679523	0.46847034	0.5656434	0.56565626	0	1958.283561730634
0.69183097	1.7378008	0.4	511.37212	0.016893869	0.96564349	-0.092521321	0.48303032	0.61459105	0.61460349	0	2028.3859343256363
0.69183097	1.9054607	0.4	535.39562	0.016355273	1.0365044	-0.095429312	0.49806663	0.66589771	0.66590976	0	2100.615428378248
0.69183097	2.0892961	0.4	559.37207	0.015838295	1.1094725	-0.098409359	0.51359034	0.71955668	0.71956834	0	2175.0079428013623
0.69183097	2.2908677	0.4	583.34689	0.015341241	1.1845891	-0.10146694	0.52961341	0.77556554	0.77557684	0	2251.6067859202226
0.69183097	2.5118864	0.4	607.36749	0.014862676	1.2619015	-0.1046072	0.54614867	0.83392645	0.83393739	0	2330.4612210252585
0.69183097	2.7542287	0.4	631.4825	0.014401375	1.341463	-0.10783504	0.56320978	0.89464627	0.89465687	0	2411.6264607346993
0.69183097	3.0199517	0.4	655.74115	0.01395628	1.4233319	-0.11115516	0.58081115	0.95773666	0.95774694	0	2495.1626973631255
0.69183097	3.3113112	0.4	680.19279	0.013526469	1.507571	-0.1145721	0.59896799	1.0232141	1.0232241	0	2581.1346519301087
0.69183097	3.6307805	0.4	704.88659	0.013111133	1.5942478	-0.11809028	0.61769619	1.0911	1.0911097	0	2669.6117169741365
0.69183097	3.9810717	0.4	729.87133	0.012709554	1.6834335	-0.12171403	0.63701239	1.1614204	1.1614298	0	2760.6670432950996
0.69183097	4.3651583	0.4	755.19517	0.012321089	1.7752035	-0.12544765	0.65693392	1.2342063	1.2342153	0	2854.377987187394
0.69183097	4.7863009	0.4	780.90564	0.011945159	1.8696366	-0.1292954	0.67747883	1.3094931	1.3095019	0	2950.8253700624255
0.69183097	5.2480746	0.4	807.04953	0.011581235	1.9668153	-0.13326154	0.69866583	1.3873212	1.3873297	0	3050.0937377686514
0.69183097	5.7543994	0.4	833.67293	0.011228834	2.0668258	-0.13735035	0.72051436	1.4677351	1.4677434	0	3152.2713868994006
0.69183097	6.3095734	0.4	860.82121	0.010887511	2.1697574	-0.14156616	0.74304456	1.5507843	1.5507924	0	3257.4497897788883
0.69183097	6.9183097	0.4	888.53908	0.01055685	2.2757031	-0.14591333	0.76627726	1.6365224	1.6365301	0	3365.7241544431613
0.69183097	7.5857758	0.4	916.87063	0.010236465	2.3847591	-0.15039629	0.79023402	1.7250072	1.7250148	0	3477.192969890468
0.69183097	8.3176377	0.4	945.85941	0.0099259932	2.4970253	-0.15501955	0.81493715	1.8163012	1.8163085	0	3591.9584833804556
0.69183097	9.1201084	0.4	975.5485	0.0096250924	2.6126047	-0.15978772	0.84040969	1.9104709	1.910478	0	3710.1261291784413
0.69183097	10.	0.4	1005.9806	0.0093334385	2.731604	-0.1647055	0.86667545	2.007587	2.0075939	0	3831.8051073276633