0.83176377	1.e-12	0.3	35817.538	176127.62	-0.017760986	-0.0021247783	-0.002124767	-38.139789	117.77973	0	922.2788357375578
0.83176377	1.0964782e-12	0.3	32666.056	160632.22	-0.01767945	-0.0021247783	-0.0021247659	-34.785516	107.41647	0	922.355444447992
0.83176377	1.2022644e-12	0.3	29791.87	146500.23	-0.017597914	-0.0021247783	-0.0021247647	-31.726376	97.965065	0	922.4320531866131
0.83176377	1.3182567e-12	0.3	27170.581	133611.7	-0.017516379	-0.0021247783	-0.0021247635	-28.936399	89.345281	0	922.5086609856688
0.83176377	1.4454398e-12	0.3	24779.938	121857.21	-0.017434843	-0.0021247783	-0.002124762	-26.391904	81.483946	0	922.5852698088509
0.83176377	1.5848932e-12	0.3	22599.645	111136.98	-0.017353307	-0.0021247783	-0.0021247605	-24.071289	74.314322	0	922.6618786320328
0.83176377	1.7378008e-12	0.3	20611.195	101360.	-0.017271771	-0.0021247783	-0.0021247587	-21.954856	67.775549	0	922.7384875397756
0.83176377	1.9054607e-12	0.3	18797.706	92443.288	-0.017190235	-0.0021247783	-0.0021247569	-20.024638	61.812115	0	922.8150964475186
0.83176377	2.0892961e-12	0.3	17143.785	84311.141	-0.017108699	-0.0021247783	-0.0021247548	-18.264253	56.373401	0	922.8917054398224
0.83176377	2.2908677e-12	0.3	15635.391	76894.524	-0.017027163	-0.0021247783	-0.0021247526	-16.658754	51.413232	0	922.9683144603132
0.83176377	2.5118864e-12	0.3	14259.719	70130.483	-0.016945628	-0.0021247784	-0.0021247501	-15.194515	46.889506	0	923.0449226257995
0.83176377	2.7542287e-12	0.3	13005.092	63961.595	-0.016864092	-0.0021247784	-0.0021247474	-13.859106	42.763818	0	923.121531787225
0.83176377	3.0199517e-12	0.3	11860.858	58335.495	-0.016782556	-0.0021247784	-0.0021247444	-12.641191	39.001147	0	923.1981410332114
0.83176377	3.3113112e-12	0.3	10817.304	53204.422	-0.01670102	-0.0021247784	-0.0021247411	-11.530432	35.569549	0	923.2747503637587
0.83176377	3.6307805e-12	0.3	9865.5717	48524.819	-0.016619484	-0.0021247784	-0.0021247376	-10.517401	32.439895	0	923.3513597506799
0.83176377	3.9810717e-12	0.3	8997.5816	44256.964	-0.016537948	-0.0021247784	-0.0021247336	-9.5934987	29.585616	0	923.427969278536
0.83176377	4.3651583e-12	0.3	8205.9651	40364.624	-0.016456412	-0.0021247785	-0.0021247293	-8.7508824	26.982483	0	923.5045788909529
0.83176377	4.7863009e-12	0.3	7484.0023	36814.761	-0.016374877	-0.0021247785	-0.0021247246	-7.9824001	24.608398	0	923.5811876765522
0.83176377	5.2480746e-12	0.3	6825.5643	33577.239	-0.016293341	-0.0021247785	-0.0021247195	-7.2815285	22.443206	0	923.6577975144647
0.83176377	5.7543994e-12	0.3	6225.0619	30624.576	-0.016211805	-0.0021247786	-0.0021247138	-6.6423191	20.468528	0	923.7344075214992
0.83176377	6.3095734e-12	0.3	5677.3971	27931.707	-0.016130269	-0.0021247786	-0.0021247076	-6.0593459	18.6676	0	923.8110176694684
0.83176377	6.9183097e-12	0.3	5177.9209	25475.773	-0.016048733	-0.0021247786	-0.0021247007	-5.5276609	17.025134	0	923.8876280147463
0.83176377	7.5857758e-12	0.3	4722.3932	23235.927	-0.015967197	-0.0021247787	-0.0021246933	-5.0427513	15.527188	0	923.9642385009588
0.83176377	8.3176377e-12	0.3	4306.947	21193.154	-0.015885662	-0.0021247787	-0.0021246851	-4.6005012	14.161044	0	924.0408482731019
0.83176377	9.1201084e-12	0.3	3928.0555	19330.115	-0.015804126	-0.0021247788	-0.0021246761	-4.1971571	12.915106	0	924.1174592103059
0.83176377	1.e-11	0.3	3582.5024	17630.996	-0.01572259	-0.0021247788	-0.0021246662	-3.8292958	11.778798	0	924.1940704011927
0.83176377	1.0964782e-11	0.3	3267.3542	16081.373	-0.015641054	-0.0021247789	-0.0021246554	-3.4937952	10.742472	0	924.2706818457618
0.83176377	1.2022644e-11	0.3	2979.9356	14668.091	-0.015559518	-0.002124779	-0.0021246436	-3.1878077	9.7973313	0	924.3472935722008
0.83176377	1.3182567e-11	0.3	2717.8068	13379.155	-0.015477982	-0.002124779	-0.0021246306	-2.9087367	8.935353	0	924.4239056368833
0.83176377	1.4454398e-11	0.3	2478.7424	12203.623	-0.015396447	-0.0021247791	-0.0021246164	-2.6542137	8.1492194	0	924.500517100244
0.83176377	1.5848932e-11	0.3	2260.7132	11131.517	-0.015314911	-0.0021247792	-0.0021246008	-2.4220789	7.4322571	0	924.5771298977872
0.83176377	1.7378008e-11	0.3	2061.8681	10153.737	-0.015233375	-0.0021247793	-0.0021245837	-2.2103622	6.7783797	0	924.6537431181353
0.83176377	1.9054607e-11	0.3	1880.5192	9261.9824	-0.015151839	-0.0021247794	-0.0021245649	-2.0172671	6.1820364	0	924.7303568176615
0.83176377	2.0892961e-11	0.3	1715.1271	8448.6847	-0.015070303	-0.0021247796	-0.0021245443	-1.8411551	5.6381649	0	924.8069710245528
0.83176377	2.2908677e-11	0.3	1564.2877	7706.9403	-0.014988768	-0.0021247797	-0.0021245218	-1.6805319	5.1421482	0	924.8835848274312
0.83176377	2.5118864e-11	0.3	1426.7205	7030.4531	-0.014907232	-0.0021247799	-0.0021244971	-1.5340345	4.6897755	0	924.960200189988
0.83176377	2.7542287e-11	0.3	1301.2578	6413.4816	-0.014825696	-0.0021247801	-0.00212447	-1.4004203	4.2772068	0	925.036816229032
0.83176377	3.0199517e-11	0.3	1186.8344	5850.7885	-0.014744161	-0.0021247803	-0.0021244403	-1.2785554	3.9009396	0	925.1134320613714
0.83176377	3.3113112e-11	0.3	1082.4791	5337.5984	-0.014662625	-0.0021247805	-0.0021244077	-1.1674061	3.5577799	0	925.1900496506981
0.83176377	3.6307805e-11	0.3	987.30582	4869.5553	-0.014581089	-0.0021247808	-0.002124372	-1.0660296	3.2448145	0	925.2666681138209
0.83176377	3.9810717e-11	0.3	900.5068	4442.6868	-0.014499554	-0.0021247812	-0.0021243329	-0.97356599	2.9593866	0	925.3432865957345
0.83176377	4.3651583e-11	0.3	821.34516	4053.3701	-0.014418018	-0.0021247815	-0.0021242901	-0.88923097	2.6990733	0	925.4199070601312
0.83176377	4.7863009e-11	0.3	749.14889	3698.3008	-0.014336483	-0.002124782	-0.0021242431	-0.81230935	2.4616648	0	925.496527768815
0.83176377	5.2480746e-11	0.3	683.30511	3374.4658	-0.014254947	-0.0021247825	-0.0021241917	-0.74214882	2.2451457	0	925.5731506572903
0.83176377	5.7543994e-11	0.3	623.25486	3079.1165	-0.014173412	-0.0021247832	-0.0021241353	-0.67815447	2.0476778	0	925.6497740155481
0.83176377	6.3095734e-11	0.3	568.48839	2809.7468	-0.014091876	-0.002124784	-0.0021240736	-0.61978376	1.8675851	0	925.7263998072804
0.83176377	6.9183097e-11	0.3	518.54078	2564.0705	-0.014010341	-0.002124785	-0.0021240061	-0.56654187	1.7033385	0	925.8030262942909
0.83176377	7.5857758e-11	0.3	472.98802	2340.003	-0.013928806	-0.0021247862	-0.0021239321	-0.51797751	1.5535439	0	925.879654613454
0.83176377	8.3176377e-11	0.3	431.44341	2135.6429	-0.013847272	-0.0021247878	-0.0021238513	-0.47367911	1.4169296	0	925.9562839097649
0.83176377	9.1201084e-11	0.3	393.55427	1949.2562	-0.013765737	-0.0021247897	-0.0021237628	-0.43327131	1.2923358	0	926.0329163160372
0.83176377	1.e-10	0.3	358.99897	1779.2613	-0.013684203	-0.0021247921	-0.0021236661	-0.39641178	1.178705	0	926.1095500940751
0.83176377	1.0964782e-10	0.3	327.48417	1624.2161	-0.013602669	-0.0021247951	-0.0021235605	-0.36278832	1.0750724	0	926.1861863807521
0.83176377	1.2022644e-10	0.3	298.74233	1482.8051	-0.013521136	-0.0021247989	-0.0021234453	-0.33211618	0.98055839	0	926.2628244338123
0.83176377	1.3182567e-10	0.3	272.52946	1353.8285	-0.013439604	-0.0021248039	-0.0021233197	-0.30413568	0.89436056	0	926.3394644787506
0.83176377	1.4454398e-10	0.3	248.62304	1236.1924	-0.013358073	-0.0021248103	-0.0021231828	-0.27860998	0.81574721	0	926.4161067692505
0.83176377	1.5848932e-10	0.3	226.82012	1128.8989	-0.013276543	-0.0021248185	-0.002123034	-0.25532309	0.74405098	0	926.4927514744331
0.83176377	1.7378008e-10	0.3	206.93564	1031.038	-0.013195016	-0.0021248291	-0.0021228725	-0.23407801	0.67866322	0	926.569396940664
0.83176377	1.9054607e-10	0.3	188.80076	941.77955	-0.01311349	-0.002124843	-0.0021226976	-0.21469509	0.61902884	0	926.646045244382
0.83176377	2.0892961e-10	0.3	172.26157	860.36677	-0.013031968	-0.002124861	-0.0021225086	-0.19701049	0.5646416	0	926.7226937642001
0.83176377	2.2908677e-10	0.3	157.17764	786.10926	-0.012950449	-0.0021248845	-0.0021223052	-0.18087475	0.51503981	0	926.7993435242444
0.83176377	2.5118864e-10	0.3	143.42094	718.37743	-0.012868936	-0.0021249151	-0.002122087	-0.16615161	0.46980237	0	926.8759918185667
0.83176377	2.7542287e-10	0.3	130.87467	656.59704	-0.012787431	-0.0021249552	-0.0021218542	-0.15271677	0.42854523	0	926.9526367116625
0.83176377	3.0199517e-10	0.3	119.43234	600.24439	-0.012705934	-0.0021250078	-0.0021216076	-0.14045687	0.39091813	0	927.0292779780361
0.83176377	3.3113112e-10	0.3	108.9968	548.84184	-0.01262445	-0.0021250767	-0.0021213484	-0.12926853	0.35660162	0	927.105910581617
0.83176377	3.6307805e-10	0.3	99.479459	501.95379	-0.012542982	-0.002125167	-0.0021210791	-0.11905747	0.32530436	0	927.1825309990354
0.83176377	3.9810717e-10	0.3	90.799525	459.1829	-0.012461534	-0.0021252856	-0.0021208033	-0.1097377	0.29676058	0	927.2591344572993
0.83176377	4.3651583e-10	0.3	82.883307	420.16678	-0.012380115	-0.0021254413	-0.0021205265	-0.10123079	0.2707279	0	927.3357109500375
0.83176377	4.7863009e-10	0.3	75.663595	384.57488	-0.012298732	-0.0021256458	-0.0021202569	-0.093465232	0.24698523	0	927.4122515889622
0.83176377	5.2480746e-10	0.3	69.079093	352.10573	-0.012217397	-0.0021259143	-0.0021200054	-0.086375792	0.22533088	0	927.48874202691
0.83176377	5.7543994e-10	0.3	63.073889	322.48424	-0.012136124	-0.0021262667	-0.0021197877	-0.079902984	0.20558084	0	927.5651646846136
0.83176377	6.3095734e-10	0.3	57.59699	295.45952	-0.012054933	-0.0021267291	-0.0021196251	-0.07399256	0.18756724	0	927.6414947669432
0.83176377	6.9183097e-10	0.3	52.60188	270.80259	-0.011973849	-0.0021273353	-0.0021195459	-0.068595047	0.17113685	0	927.7177008078554
0.83176377	7.5857758e-10	0.3	48.046127	248.30452	-0.011892905	-0.0021281291	-0.0021195883	-0.063665328	0.15614983	0	927.7937410342746
0.83176377	8.3176377e-10	0.3	43.891024	227.77456	-0.01181214	-0.002129167	-0.0021198021	-0.05916226	0.14247845	0	927.8695647660459
0.83176377	9.1201084e-10	0.3	40.101251	209.03856	-0.011731608	-0.0021305209	-0.0021202526	-0.055048325	0.13000607	0	927.9451028605549
0.83176377	1.e-9	0.3	36.644582	191.93741	-0.011651374	-0.0021322823	-0.0021210234	-0.051289313	0.11862604	0	928.0202706817552
0.83176377	1.0964782e-9	0.3	33.491608	176.32573	-0.011571518	-0.0021345654	-0.0021222202	-0.047854038	0.10824086	0	928.0949632708016
0.83176377	1.2022644e-9	0.3	30.615482	162.07059	-0.01149214	-0.0021375112	-0.002123975	-0.044714061	0.098761267	0	928.1690494643711
0.83176377	1.3182567e-9	0.3	27.991698	149.0504	-0.011413353	-0.0021412903	-0.0021264482	-0.041843465	0.090105552	0	928.2423778796943
0.83176377	1.4454398e-9	0.3	25.597882	137.15394	-0.01133529	-0.0021461045	-0.0021298306	-0.039218627	0.082198876	0	928.3147697738596
0.83176377	1.5848932e-9	0.3	23.413612	126.27949	-0.011258095	-0.0021521862	-0.0021343424	-0.036818018	0.074972717	0	928.386027781769
0.83176377	1.7378008e-9	0.3	21.420248	116.33411	-0.011181918	-0.002159794	-0.0021402288	-0.034622027	0.068364423	0	928.4559418541929
0.83176377	1.9054607e-9	0.3	19.600792	107.23308	-0.011106905	-0.0021692054	-0.0021477529	-0.032612783	0.062316847	0	928.5243006546976
0.83176377	2.0892961e-9	0.3	17.939755	98.899345	-0.011033182	-0.0021807056	-0.0021571836	-0.030774012	0.056778059	0	928.5909100033117
0.83176377	2.2908677e-9	0.3	16.423042	91.263115	-0.010960845	-0.0021945747	-0.0021687838	-0.029090884	0.051701105	0	928.6556055982428
0.83176377	2.5118864e-9	0.3	15.037841	84.261434	-0.010889948	-0.0022110749	-0.0021827963	-0.027549891	0.047043758	0	928.7182682650216
0.83176377	2.7542287e-9	0.3	13.77252	77.83771	-0.010820494	-0.0022304407	-0.0021994344	-0.026138719	0.042768236	0	928.7788350621656
0.83176377	3.0199517e-9	0.3	12.616531	71.941216	-0.01075243	-0.002252872	-0.0022188753	-0.024846143	0.038840856	0	928.8373058393441
0.83176377	3.3113112e-9	0.3	11.560307	66.526518	-0.010685657	-0.0022785334	-0.0022412578	-0.023661922	0.035231638	0	928.8937344900257
0.83176377	3.6307805e-9	0.3	10.595168	61.552882	-0.010620033	-0.0023075557	-0.0022666855	-0.022576708	0.031913869	0	928.948225230799
0.83176377	3.9810717e-9	0.3	9.7132353	56.983695	-0.010555386	-0.0023400412	-0.00229523	-0.021581965	0.028863673	0	929.0009194850406
0.83176377	4.3651583e-9	0.3	8.9073488	52.785917	-0.010491524	-0.0023760692	-0.0023269374	-0.020669892	0.026059602	0	929.0519846551088
0.83176377	4.7863009e-9	0.3	8.1709914	48.929608	-0.010428245	-0.0024157009	-0.0023618324	-0.01983336	0.023482281	0	929.101603571025
0.83176377	5.2480746e-9	0.3	7.4982252	45.387515	-0.010365346	-0.0024589836	-0.0023999228	-0.019065848	0.021114105	0	929.1499647659723
0.83176377	5.7543994e-9	0.3	6.8836336	42.134732	-0.01030263	-0.0025059537	-0.002441201	-0.018361392	0.018938987	0	929.1972554765338
0.83176377	6.3095734e-9	0.3	6.3222706	39.148421	-0.010239911	-0.0025566373	-0.0024856456	-0.017714536	0.016942168	0	929.243656493874
0.83176377	6.9183097e-9	0.3	5.8096167	36.407583	-0.010177018	-0.0026110507	-0.0025332206	-0.017120286	0.015110052	0	929.2893386309738
0.83176377	7.5857758e-9	0.3	5.3415393	33.892873	-0.010113794	-0.0026691995	-0.0025838747	-0.016574073	0.013430081	0	929.3344638595034
0.83176377	8.3176377e-9	0.3	4.9142583	31.586439	-0.010050102	-0.0027310767	-0.0026375386	-0.016071716	0.011890634	0	929.37918043348
0.83176377	9.1201084e-9	0.3	4.5243144	29.471788	-0.0099858228	-0.0027966619	-0.0026941241	-0.015609387	0.010480938	0	929.423625209992
0.83176377	1.e-8	0.3	4.1685416	27.533672	-0.0099208572	-0.0028659191	-0.002753521	-0.015183584	0.0091909965	0	929.4679224559527
0.83176377	1.0964782e-8	0.3	3.8440418	25.757989	-0.0098551238	-0.0029387956	-0.0028155962	-0.014791101	0.0080115304	0	929.5121861688261
0.83176377	1.2022644e-8	0.3	3.5481619	24.131689	-0.0097885599	-0.0030152212	-0.0028801918	-0.014429004	0.0069339215	0	929.5565197665702
0.83176377	1.3182567e-8	0.3	3.2784732	22.642698	-0.0097211207	-0.0030951075	-0.0029471245	-0.014094609	0.0059501657	0	929.6010170084114
0.83176377	1.4454398e-8	0.3	3.0327527	21.279844	-0.0096527779	-0.0031783488	-0.0030161856	-0.013785459	0.0050528304	0	929.6457633102355
0.83176377	1.5848932e-8	0.3	2.8089658	20.032796	-0.0095835188	-0.0032648224	-0.0030871412	-0.013499305	0.0042350162	0	929.6908365338231
0.83176377	1.7378008e-8	0.3	2.6052506	18.891998	-0.0095133447	-0.0033543908	-0.0031597342	-0.01323409	0.0034903231	0	929.7363079264148
0.83176377	1.9054607e-8	0.3	2.419904	17.848622	-0.0094422692	-0.0034469033	-0.0032336855	-0.012987932	0.0028128187	0	929.7822433797285
0.83176377	2.0892961e-8	0.3	2.2513684	16.894518	-0.0093703162	-0.003542199	-0.0033086969	-0.012759106	0.0021970098	0	929.8287044916688
0.83176377	2.2908677e-8	0.3	2.0982199	16.022164	-0.0092975186	-0.003640109	-0.0033844538	-0.012546036	0.0016378158	0	929.8757490267126
0.83176377	2.5118864e-8	0.3	1.9591571	15.224629	-0.0092239162	-0.0037404598	-0.0034606289	-0.012347279	0.0011305437	0	929.9234318460816
0.83176377	2.7542287e-8	0.3	1.8329909	14.495529	-0.0091495536	-0.0038430762	-0.0035368856	-0.012161512	0.00067086429	0	929.9718059224699
0.83176377	3.0199517e-8	0.3	1.7186355	13.828992	-0.0090744793	-0.0039477832	-0.0036128815	-0.011987525	0.00025478951	0	930.0209221991107
0.83176377	3.3113112e-8	0.3	1.6150989	13.219621	-0.0089987434	-0.0040544095	-0.0036882734	-0.011824211	-0.00012135019	0	930.0708303414287
0.83176377	3.6307805e-8	0.3	1.5214751	12.66246	-0.008922397	-0.004162789	-0.0037627211	-0.011670553	-0.00046092764	0	930.1215782296739
0.83176377	3.9810717e-8	0.3	1.4369359	12.152957	-0.0088454906	-0.0042727623	-0.0038358917	-0.011525621	-0.00076704056	0	930.1732122501876
0.83176377	4.3651583e-8	0.3	1.360724	11.686936	-0.0087680736	-0.0043841787	-0.0039074652	-0.011388562	-0.0010425329	0	930.2257761867149
0.83176377	4.7863009e-8	0.3	1.2921457	11.260565	-0.0086901934	-0.0044968964	-0.0039771383	-0.011258594	-0.0012900162	0	930.2793109949098
0.83176377	5.2480746e-8	0.3	1.2305645	10.870324	-0.008611895	-0.0046107835	-0.0040446307	-0.011135001	-0.0015118896	0	930.3338534023817
0.83176377	5.7543994e-8	0.3	1.1753949	10.512978	-0.0085332204	-0.0047257182	-0.0041096891	-0.011017126	-0.0017103599	0	930.389435344957
0.83176377	6.3095734e-8	0.3	1.1260972	10.185551	-0.008454209	-0.0048415888	-0.0041720923	-0.010904367	-0.0018874606	0	930.4460821533172
0.83176377	6.9183097e-8	0.3	1.0821721	9.8852996	-0.0083748968	-0.0049582933	-0.0042316551	-0.010796173	-0.0020450688	0	930.5038122053608
0.83176377	7.5857758e-8	0.3	1.0431564	9.6096912	-0.0082953172	-0.0050757398	-0.0042882309	-0.010692041	-0.0021849229	0	930.562635441689
0.83176377	8.3176377e-8	0.3	1.0086185	9.3563771	-0.0082155013	-0.0051938449	-0.0043417135	-0.01059151	-0.0023086425	0	930.6225525763718
0.83176377	9.1201084e-8	0.3	0.97815302	9.1231377	-0.0081354817	-0.0053125343	-0.0043920371	-0.010494163	-0.0024177734	0	930.6835515265984
0.83176377	1.e-7	0.3	0.95136375	8.9076857	-0.0080553085	-0.0054317418	-0.0044391736	-0.010399618	-0.0025139607	0	930.745593140681
0.83176377	1.0964782e-7	0.3	0.92779269	8.7067606	-0.0079751286	-0.0055514077	-0.0044831281	-0.010307537	-0.0025997517	0	930.8085379589345
0.83176377	1.2022644e-7	0.3	0.9066079	8.5121273	-0.0078955397	-0.0056714695	-0.004523925	-0.01021764	-0.0026821564	0	930.8718175255308
0.83176377	1.3182567e-7	0.3	0.88571329	8.2991858	-0.0078186187	-0.0057918517	-0.0045615916	-0.01012978	-0.0027828063	0	930.9334727621545
0.83176377	1.4454398e-7	0.3	0.86201148	8.0305861	-0.0077477197	-0.0059126797	-0.0045963654	-0.010044087	-0.0029348949	0	930.9902853286337
0.83176377	1.5848932e-7	0.3	0.83532705	7.7067869	-0.0076830786	-0.0060347354	-0.0046291439	-0.0099608787	-0.0031383344	0	931.0417806035323
0.83176377	1.7378008e-7	0.3	0.80799012	7.3601898	-0.0076220567	-0.0061590409	-0.0046610621	-0.0098803369	-0.0033646228	0	931.090117895937
0.83176377	1.9054607e-7	0.3	0.78176195	7.0153424	-0.0075625068	-0.0062862963	-0.0046929249	-0.0098024306	-0.0035919976	0	931.1370877637228
0.83176377	2.0892961e-7	0.3	0.75748058	6.6845111	-0.007503237	-0.0064168893	-0.0047252134	-0.0097270042	-0.0038094443	0	931.1836744673632
0.83176377	2.2908677e-7	0.3	0.73546955	6.3730701	-0.0074436105	-0.0065510175	-0.004758204	-0.0096538481	-0.0040119958	0	931.2303984133143
0.83176377	2.5118864e-7	0.3	0.71580069	6.0829554	-0.0073832803	-0.0066887629	-0.0047920405	-0.0095827348	-0.0041977108	0	931.2775450979034
0.83176377	2.7542287e-7	0.3	0.69842244	5.8143585	-0.0073220592	-0.0068301277	-0.0048267702	-0.0095134366	-0.0043661919	0	931.3252770753315
0.83176377	3.0199517e-7	0.3	0.68322239	5.5665585	-0.0072598572	-0.0069750526	-0.0048623612	-0.0094457341	-0.004517858	0	931.3736878981205
0.83176377	3.3113112e-7	0.3	0.67005881	5.3383497	-0.0071966488	-0.0071234258	-0.0048987118	-0.0093794206	-0.0046535696	0	931.422830191326
0.83176377	3.6307805e-7	0.3	0.65877731	5.128273	-0.0071324561	-0.0072750875	-0.0049356559	-0.009314304	-0.0047744264	0	931.4727300090949
0.83176377	3.9810717e-7	0.3	0.64921981	4.9347453	-0.0070673382	-0.0074298334	-0.0049729681	-0.0092502075	-0.0048816531	0	931.5233953565239
0.83176377	4.3651583e-7	0.3	0.64122969	4.7561383	-0.0070013843	-0.0075874197	-0.0050103689	-0.0091869698	-0.0049765297	0	931.5748212069386
0.83176377	4.7863009e-7	0.3	0.63465495	4.5908286	-0.0069347081	-0.007747568	-0.0050475315	-0.0091244448	-0.0050603475	0	931.6269928467457
0.83176377	5.2480746e-7	0.3	0.62935072	4.4372372	-0.0068674408	-0.0079099768	-0.005084094	-0.0090625008	-0.0051343726	0	931.6798890135808
0.83176377	5.7543994e-7	0.3	0.6251818	4.2938646	-0.0067997229	-0.0080743355	-0.0051196749	-0.0090010201	-0.0051998145	0	931.733485231767
0.83176377	6.3095734e-7	0.3	0.62202555	4.1593297	-0.0067316937	-0.0082403455	-0.0051538946	-0.0089398975	-0.0052577909	0	931.787757617553
0.83176377	6.9183097e-7	0.3	0.6197751	4.0324076	-0.0066634784	-0.0084077446	-0.0051864014	-0.0088790391	-0.0053092921	0	931.842687670897
0.83176377	7.5857758e-7	0.3	0.61834241	3.9120659	-0.0065951759	-0.0085763329	-0.0052168977	-0.0088183606	-0.0053551478	0	931.8982663531804
0.83176377	8.3176377e-7	0.3	0.61766038	3.7974887	-0.0065268475	-0.0087459933	-0.0052451609	-0.0087577852	-0.0053960036	0	931.9544988132213
0.83176377	9.1201084e-7	0.3	0.6176832	3.6880814	-0.0064585116	-0.0089167018	-0.005271055	-0.0086972419	-0.0054323147	0	932.0114060972835
0.83176377	1.e-6	0.3	0.61838453	3.5834515	-0.0063901448	-0.0090885236	-0.0052945266	-0.008636663	-0.0054643609	0	932.0690252430333
0.83176377	1.0964782e-6	0.3	0.6197537	3.483369	-0.0063216888	-0.0092615953	-0.0053155877	-0.0085759825	-0.0054922799	0	932.127407644695
0.83176377	1.2022644e-6	0.3	0.62179062	3.3877122	-0.0062530638	-0.0094360958	-0.0053342866	-0.0085151352	-0.0055161141	0	932.1866146652817
0.83176377	1.3182567e-6	0.3	0.62450046	3.296412	-0.006184183	-0.0096122132	-0.0053506754	-0.0084540552	-0.0055358589	0	932.2467131736596
0.83176377	1.4454398e-6	0.3	0.62788892	3.2094019	-0.0061149669	-0.0097901131	-0.0053647784	-0.0083926763	-0.005551507	0	932.3077710158425
0.83176377	1.5848932e-6	0.3	0.63195882	3.126583	-0.0060453538	-0.0099699148	-0.0053765683	-0.0083309319	-0.0055630792	0	932.3698538580527
0.83176377	1.7378008e-6	0.3	0.63670817	3.0478032	-0.0059753073	-0.010151676	-0.0053859515	-0.0082687552	-0.0055706435	0	932.4330222834637
0.83176377	1.9054607e-6	0.3	0.64212968	2.9728533	-0.0059048176	-0.010335393	-0.0053927654	-0.0082060799	-0.0055743186	0	932.4973313318142
0.83176377	2.0892961e-6	0.3	0.64821157	2.9014752	-0.005833899	-0.010521001	-0.0053967863	-0.0081428407	-0.0055742679	0	932.5628306215499
0.83176377	2.2908677e-6	0.3	0.65493917	2.8333781	-0.0057625841	-0.0107084	-0.0053977443	-0.0080789735	-0.0055706846	0	932.629565599447
0.83176377	2.5118864e-6	0.3	0.662297	2.7682608	-0.0056909153	-0.010897465	-0.0053953442	-0.0080144158	-0.005563773	0	932.697579635842
0.83176377	2.7542287e-6	0.3	0.67027089	2.7058324	-0.0056189362	-0.011088077	-0.0053892875	-0.0079491065	-0.0055537294	0	932.7669159037628
0.83176377	3.0199517e-6	0.3	0.67884982	2.6458312	-0.0055466834	-0.011280136	-0.0053792924	-0.0078829858	-0.0055407256	0	932.8376194459722
0.83176377	3.3113112e-6	0.3	0.68802731	2.5880391	-0.0054741792	-0.011473583	-0.0053651102	-0.0078159948	-0.0055248958	0	932.9097394111337
0.83176377	3.6307805e-6	0.3	0.69780215	2.5322878	-0.0054014286	-0.011668403	-0.0053465339	-0.0077480749	-0.0055063306	0	932.9833294484288
0.83176377	3.9810717e-6	0.3	0.70817842	2.4784595	-0.0053284174	-0.011864633	-0.0053234001	-0.0076791673	-0.0054850753	0	933.0584489571789
0.83176377	4.3651583e-6	0.3	0.71916497	2.4264814	-0.0052551145	-0.012062354	-0.005295584	-0.0076092128	-0.0054611351	0	933.135162335193
0.83176377	4.7863009e-6	0.3	0.73077443	2.376316	-0.0051814753	-0.01226168	-0.0052629877	-0.0075381508	-0.0054344828	0	933.2135390821202
0.83176377	5.2480746e-6	0.3	0.74302193	2.327948	-0.0051074477	-0.012462742	-0.0052255247	-0.0074659197	-0.0054050702	0	933.293652531036
0.83176377	5.7543994e-6	0.3	0.75592379	2.2813712	-0.0050329787	-0.012665672	-0.0051831035	-0.007392456	-0.0053728393	0	933.3755782699728
0.83176377	6.3095734e-6	0.3	0.76949627	2.2365768	-0.00495802	-0.012870587	-0.0051356104	-0.0073176949	-0.005337733	0	933.459393728511
0.83176377	6.9183097e-6	0.3	0.78375465	2.1935436	-0.0048825336	-0.013077575	-0.0050828964	-0.0072415697	-0.0052997036	0	933.5451766087053
0.83176377	7.5857758e-6	0.3	0.79871261	2.1522318	-0.0048064953	-0.013286687	-0.005024767	-0.0071640127	-0.0052587185	0	933.6330044716751
0.83176377	8.3176377e-6	0.3	0.814382	2.1125811	-0.0047298958	-0.013497933	-0.0049609807	-0.0070849546	-0.0052147617	0	933.7229541268878
0.83176377	9.1201084e-6	0.3	0.83077297	2.0745112	-0.004652741	-0.013711281	-0.0048912476	-0.0070043252	-0.0051678342	0	933.8151017449063
0.83176377	0.00001	0.3	0.84789428	2.0379249	-0.0045750504	-0.013926665	-0.0048152348	-0.0069220533	-0.0051179509	0	933.909522838598
0.83176377	0.000010964782	0.3	0.86575387	2.0027134	-0.0044968535	-0.014143992	-0.004732575	-0.0068380668	-0.0050651359	0	934.006293221491
0.83176377	0.000012022644	0.3	0.88435939	1.9687611	-0.0044181881	-0.01436315	-0.0046428735	-0.0067522932	-0.0050094191	0	934.1054886319475
0.83176377	0.000013182567	0.3	0.90371879	1.9359508	-0.0043390958	-0.014584018	-0.0045457179	-0.0066646589	-0.0049508305	0	934.207186227075
0.83176377	0.000014454398	0.3	0.9238407	1.9041684	-0.0042596201	-0.014806472	-0.0044406848	-0.0065750894	-0.0048893969	0	934.3114644793709
0.83176377	0.000015848932	0.3	0.94473486	1.8733047	-0.0041798044	-0.01503039	-0.0043273443	-0.0064835097	-0.0048251398	0	934.4184037874425
0.83176377	0.000017378008	0.3	0.96641227	1.8432587	-0.00409969	-0.01525566	-0.0042052657	-0.0063898435	-0.0047580721	0	934.5280867484794
0.83176377	0.000019054607	0.3	0.98888535	1.8139381	-0.0040193159	-0.015482177	-0.0040740171	-0.0062940134	-0.0046881986	0	934.6405984589155
0.83176377	0.000020892961	0.3	1.0121679	1.785259	-0.0039387182	-0.015709846	-0.003933167	-0.0061959408	-0.0046155145	0	934.7560266271764
0.83176377	0.000022908677	0.3	1.0362752	1.7571459	-0.0038579302	-0.015938583	-0.003782283	-0.0060955456	-0.0045400068	0	934.874461846153
0.83176377	0.000025118864	0.3	1.0612236	1.7295306	-0.0037769836	-0.01616831	-0.0036209296	-0.005992746	-0.0044616541	0	934.9959970858368
0.83176377	0.000027542287	0.3	1.0870306	1.7023504	-0.0036959091	-0.016398953	-0.0034486644	-0.005887459	-0.0043804287	0	935.1207282006847
0.83176377	0.000030199517	0.3	1.1137143	1.6755466	-0.0036147385	-0.016630439	-0.0032650339	-0.0057795992	-0.0042962975	0	935.2487531403842
0.83176377	0.000033113112	0.3	1.1412933	1.6490616	-0.0035335065	-0.016862686	-0.0030695668	-0.00566908	-0.0042092245	0	935.3801721471632
0.83176377	0.000036307805	0.3	1.1697859	1.6228361	-0.0034522544	-0.017095601	-0.0028617651	-0.0055558127	-0.0041191736	0	935.5150867880352
0.83176377	0.000039810717	0.3	1.1992095	1.5968053	-0.0033710342	-0.017329063	-0.0026410923	-0.0054397068	-0.0040261119	0	935.6535994286455
0.83176377	0.000043651583	0.3	1.2295793	1.5708927	-0.0032899152	-0.017562907	-0.0024069566	-0.0053206704	-0.0039300149	0	935.7958117675475
0.83176377	0.000047863009	0.3	1.260907	1.5450036	-0.0032089926	-0.017796904	-0.0021586877	-0.0051986099	-0.0038308732	0	935.9418232953161
0.83176377	0.000052480746	0.3	1.2931987	1.5190145	-0.0031284005	-0.018030728	-0.0018955035	-0.0050734313	-0.0037287018	0	936.0917284664563
0.83176377	0.000057543994	0.3	1.3260134	1.4929096	-0.0030531771	-0.018250965	-0.0016035236	-0.0049455393	-0.0036239195	0	936.2447060256862
0.83176377	0.000063095734	0.3	1.3601872	1.466245	-0.0029742622	-0.01848184	-0.001306489	-0.004813886	-0.0035158715	0	936.4025767566984
0.83176377	0.000069183097	0.3	1.395284	1.4388458	-0.0028964762	-0.018710549	-0.00099109836	-0.0046788371	-0.0034050781	0	936.5645608221308
0.83176377	0.000075857758	0.3	1.4312586	1.4103553	-0.0028202764	-0.018935948	-0.00065569373	-0.0045403044	-0.003291767	0	936.730695884461
0.83176377	0.000083176377	0.3	1.4680371	1.3802957	-0.0027462891	-0.019156461	-0.00029817246	-0.0043982049	-0.0031762782	0	936.9009861670351
0.83176377	0.000091201084	0.3	1.5054645	1.3478139	-0.0026756104	-0.01936929	0.000084809708	-0.0042524663	-0.0030592947	0	937.0753444569544
0.83176377	0.0001	0.3	1.5430722	1.3105137	-0.0026111553	-0.019566792	0.00050145685	-0.0041030438	-0.0029428926	0	937.253344400885
0.83176377	0.00010964782	0.3	1.5798304	1.2631636	-0.0025593744	-0.019731797	0.00096951758	-0.0039499673	-0.0028317335	0	937.4339280333979
0.83176377	0.00012022644	0.3	1.615386	1.203981	-0.0025237391	-0.019854965	0.0014989295	-0.003793351	-0.0027275094	0	937.6166348552875
0.83176377	0.00013182567	0.3	1.6508101	1.1385071	-0.0024997243	-0.019948431	0.0020781719	-0.0036332661	-0.0026253863	0	937.8024691557421
0.83176377	0.00014454398	0.3	1.6871232	1.0720438	-0.002482246	-0.020026018	0.002694057	-0.0034696712	-0.002520629	0	937.9924904506613
0.83176377	0.00015848932	0.3	1.7248461	1.0073286	-0.0024683572	-0.020095968	0.0033389951	-0.0033024502	-0.002410698	0	938.1873283333907
0.83176377	0.00017378008	0.3	1.7642051	0.94557184	-0.0024564055	-0.020163158	0.0040087847	-0.0031314523	-0.0022943712	0	938.3873510665694
0.83176377	0.00019054607	0.3	1.8053001	0.88724781	-0.0024453406	-0.020230876	0.0047008314	-0.0029565116	-0.0021710627	0	938.5928141931813
0.83176377	0.00020892961	0.3	1.848211	0.83249359	-0.002434408	-0.020301489	0.005413484	-0.0027774543	-0.0020404773	0	938.8039611921909
0.83176377	0.00022908677	0.3	1.893066	0.78132025	-0.0024230517	-0.020376523	0.0061459559	-0.0025940966	-0.0019024215	0	939.0210927433018
0.83176377	0.00025118864	0.3	1.9400615	0.73371749	-0.0024109058	-0.020456595	0.0068983902	-0.0024062387	-0.0017567047	0	939.2445929690157
0.83176377	0.00027542287	0.3	1.9894228	0.6896705	-0.0023977945	-0.020541541	0.0076717367	-0.0022136598	-0.001603119	0	939.4748947646724
0.83176377	0.00030199517	0.3	2.0413397	0.64912251	-0.002383698	-0.020630757	0.0084674084	-0.0020161181	-0.001441473	0	939.7124150154173
0.83176377	0.00033113112	0.3	2.0959242	0.61193869	-0.0023686929	-0.020723568	0.0092869134	-0.001813357	-0.0012716294	0	939.9575068380962
0.83176377	0.00036307805	0.3	2.1532114	0.57790445	-0.0023528933	-0.02081945	0.010131636	-0.0016051126	-0.0010935144	0	940.2104532203965
0.83176377	0.00039810717	0.3	2.2131863	0.54675273	-0.0023364122	-0.020918086	0.011002781	-0.0013911205	-0.0009070998	0	940.4714875879341
0.83176377	0.00043651583	0.3	2.2758139	0.51819876	-0.0023193427	-0.021019329	0.011901408	-0.0011711189	-0.00071237601	0	940.7408211362083
0.83176377	0.00047863009	0.3	2.3410614	0.49196725	-0.0023017523	-0.021123153	0.012828486	-0.00094484944	-0.00050932833	0	941.0186635762051
0.83176377	0.00052480746	0.3	2.4089088	0.46780773	-0.0022836853	-0.021229601	0.013784945	-0.0007120564	-0.00029792286	0	941.3052354239123
0.83176377	0.00057543994	0.3	2.4793536	0.44550025	-0.0022651664	-0.021338753	0.014771706	-0.00047248518	-0.000078099657	0	941.6007730739718
0.83176377	0.00063095734	0.3	2.5524099	0.42485513	-0.0022462057	-0.021450707	0.015789703	-0.00022588058	0.00015022855	0	941.9055303029847
0.83176377	0.00069183097	0.3	2.6281061	0.40570976	-0.0022268022	-0.021565572	0.016839893	0.00002801466	0.00038717507	0	942.2197777997283
0.83176377	0.00075857758	0.3	2.7064828	0.3879246	-0.0022069475	-0.021683463	0.017923259	0.00028946128	0.00063287713	0	942.5438005343735
0.83176377	0.00083176377	0.3	2.7875899	0.37137924	-0.0021866277	-0.021804498	0.019040817	0.00055872432	0.00088749315	0	942.8778979463971
0.83176377	0.00091201084	0.3	2.871485	0.35596922	-0.0021658247	-0.021928798	0.020193611	0.00083607429	0.0011512012	0	943.2223813137994
0.83176377	0.001	0.3	2.9582303	0.34160357	-0.0021445174	-0.022056495	0.021382714	0.0011217874	0.0014241969	0	943.5775729074958
0.83176377	0.0010964782	0.3	3.0478901	0.3282036	-0.002122682	-0.022187742	0.022609215	0.0014161463	0.0017066933	0	943.9438020451414
0.83176377	0.0012022644	0.3	3.1405227	0.31570347	-0.0021002911	-0.022322738	0.023874193	0.0017194398	0.0019989208	0	944.3213986081303
0.83176377	0.0013182567	0.3	3.2361564	0.30405396	-0.0020773129	-0.022461834	0.02517862	0.0020319608	0.0023011289	0	944.7106664518969
0.83176377	0.0014454398	0.3	3.3347101	0.29323047	-0.002053706	-0.022605841	0.026523041	0.0023540012	0.0026135877	0	945.1117980933816
0.83176377	0.0015848932	0.3	3.435729	0.28323145	-0.0020294033	-0.022757105	0.027906517	0.0026858302	0.0029365649	0	945.52459190186
0.83176377	0.0017378008	0.3	3.5376854	0.27396729	-0.0020042297	-0.022922476	0.029323643	0.0030276272	0.0032701607	0	945.9476888900101
0.83176377	0.0019054607	0.3	3.6375679	0.26481486	-0.001977444	-0.023116766	0.030761098	0.0033793423	0.0036137735	0	946.3780306786608
0.83176377	0.0020892961	0.3	3.7353369	0.25474877	-0.0019459198	-0.023352961	0.032207437	0.0037407103	0.0039662303	0	946.8153287272935
0.83176377	0.0022908677	0.3	3.8388746	0.24485515	-0.0019019709	-0.023629846	0.033665457	0.004111868	0.0043286295	0	947.2675931123861
0.83176377	0.0025118864	0.3	3.9530928	0.23734973	-0.0018413074	-0.023942971	0.035141247	0.0044937034	0.0047038207	0	947.7405707793587
0.83176377	0.0027542287	0.3	4.0747178	0.23168839	-0.0017710598	-0.024278817	0.03665001	0.0048871317	0.0050922372	0	948.2318474210881
0.83176377	0.0030199517	0.3	4.2012033	0.22677587	-0.0016966418	-0.024628187	0.038202683	0.0052927303	0.0054934869	0	948.7394193205085
0.83176377	0.0033113112	0.3	4.3320111	0.22223169	-0.0016194028	-0.024988812	0.039803327	0.0057109409	0.0059076747	0	949.2631633006029
0.83176377	0.0036307805	0.3	4.4671422	0.21795063	-0.0015396096	-0.025360242	0.041454241	0.0061421854	0.0063351294	0	949.8034767035574
0.83176377	0.0039810717	0.3	4.6067066	0.21389441	-0.0014573263	-0.02574235	0.04315746	0.0065868928	0.0067762459	0	950.3608729078794
0.83176377	0.0043651583	0.3	4.7508414	0.21004124	-0.0013725771	-0.026135064	0.04491502	0.0070455043	0.0072314463	0	950.9359030626034
0.83176377	0.0047863009	0.3	4.8996951	0.20637361	-0.0012853773	-0.026538314	0.046729017	0.0075184749	0.0077011701	0	951.5291435910715
0.83176377	0.0052480746	0.3	5.0534238	0.20287492	-0.0011957412	-0.026952023	0.048601619	0.0080062749	0.0081858729	0	952.141192150803
0.83176377	0.0057543994	0.3	5.2121907	0.19952865	-0.001103683	-0.027376101	0.050535073	0.0085093903	0.0086860259	0	952.772668760972
0.83176377	0.0063095734	0.3	5.3761663	0.19631824	-0.001009217	-0.027810442	0.052531705	0.009028323	0.0092021166	0	953.4242156144956
0.83176377	0.0069183097	0.3	5.5455243	0.19322889	-0.00091235726	-0.028254944	0.054593909	0.0095635925	0.0097346511	0	954.0964942969189
0.83176377	0.0075857758	0.3	5.7203156	0.19028552	-0.00081311002	-0.028709993	0.056723663	0.010115731	0.010284184	0	954.7900564834333
0.83176377	0.0083176377	0.3	5.8966082	0.18825292	-0.00071133511	-0.029190986	0.058908004	0.010685177	0.01085183	0	955.5013799972239
0.83176377	0.0091201084	0.3	6.0306896	0.19050113	-0.00060277762	-0.029874933	0.060972438	0.011270358	0.011439002	0	956.1852780494394
0.83176377	0.01	0.3	6.1744015	0.18918063	-0.00046038321	-0.030681594	0.062999792	0.011868004	0.012035478	0	956.8905163742843
0.83176377	0.010964782	0.3	6.3606525	0.18724945	-0.00029925988	-0.031432745	0.065170965	0.012482248	0.012648013	0	957.6538899481255
0.83176377	0.012022644	0.3	6.55893	0.18491334	-0.00015393936	-0.032116553	0.067500541	0.01311541	0.013279107	0	958.4470647402991
0.83176377	0.013182567	0.3	6.7667638	0.18148637	-0.000042172074	-0.032682178	0.070042204	0.013768474	0.013929137	0	959.2684949553413
0.83176377	0.014454398	0.3	6.9838029	0.177522	0.000044557954	-0.033159073	0.072769428	0.014442372	0.014599526	0	960.1187050360811
0.83176377	0.015848932	0.3	7.209035	0.17354783	0.00012431682	-0.033611239	0.075621232	0.015137952	0.015291588	0	960.9974805699474
0.83176377	0.017378008	0.3	7.44177	0.16960375	0.00019884267	-0.034047448	0.078591961	0.015855992	0.016006136	0	961.9048606860788
0.83176377	0.019054607	0.3	7.6761272	0.16448036	0.00020388227	-0.034275914	0.081876609	0.016596995	0.016742603	0	962.8354381539407
0.83176377	0.020892961	0.3	7.9129104	0.15823693	0.0001366785	-0.034287707	0.08548742	0.01736102	0.017501102	0	963.7900736905591
0.83176377	0.022908677	0.3	8.1570071	0.15254911	0.000054483903	-0.034257948	0.089252686	0.018148608	0.018283654	0	964.7741605354005
0.83176377	0.025118864	0.3	8.408236	0.14772144	-0.0000237384	-0.034251626	0.093110942	0.018960474	0.019091247	0	965.7881906646134
0.83176377	0.027542287	0.3	8.66938	0.1431148	-0.000086718923	-0.034297435	0.097037122	0.019797406	0.019924101	0	966.8356871532366
0.83176377	0.030199517	0.3	8.9459666	0.13851885	-0.00013079137	-0.034387529	0.10104282	0.020660666	0.020783292	0	967.9233627221549
0.83176377	0.033113112	0.3	9.2384196	0.13431561	-0.00015921337	-0.034508141	0.10514566	0.021551831	0.021670736	0	969.0531242859554
0.83176377	0.036307805	0.3	9.544825	0.13059878	-0.00017517716	-0.034654541	0.10935435	0.022472361	0.022587976	0	970.2244270498843
0.83176377	0.039810717	0.3	9.8644011	0.12730776	-0.00017912813	-0.034827729	0.113672	0.023423575	0.023536276	0	971.4377291554017
0.83176377	0.043651583	0.3	10.197272	0.12442318	-0.00016951896	-0.035032346	0.11809821	0.024406764	0.024516911	0	972.694371662923
0.83176377	0.047863009	0.3	10.54385	0.12193433	-0.00014563543	-0.03526926	0.12263646	0.025423252	0.025531196	0	973.996006535038
0.83176377	0.052480746	0.3	10.904557	0.1197497	-0.00011068914	-0.035526231	0.12730351	0.026474404	0.026580414	0	975.3443403982482
0.83176377	0.057543994	0.3	11.279885	0.11774036	-0.000069069424	-0.035786828	0.13212041	0.027561626	0.027665858	0	976.7411825416032
0.83176377	0.063095734	0.3	11.670494	0.11582523	-0.00002290722	-0.036041506	0.13710151	0.028686384	0.02878892	0	978.1885756384266
0.83176377	0.069183097	0.3	11.430008	0.11740924	-0.00051151803	-0.036782787	0.14175922	0.02985104	0.029954978	0	979.0423607296198
0.83176377	0.075857758	0.3	10.605235	0.12211289	-0.0014697134	-0.038424565	0.14568473	0.030948323	0.031056425	0	979.2485555145608
0.83176377	0.083176377	0.3	9.8530327	0.12640268	-0.0023435979	-0.040585294	0.14926484	0.031949056	0.032060956	0	979.4366081100152
0.83176377	0.091201084	0.3	9.167016	0.13031501	-0.0031405901	-0.043239992	0.15252994	0.032861736	0.032977099	0	979.6081143019605
0.83176377	0.1	0.3	9.4036729	0.12710237	-0.0031300709	-0.045631538	0.15624273	0.033734212	0.033846732	0	980.6645204285383
0.83176377	0.10964782	0.3	10.732807	0.11738403	-0.0020798884	-0.047429239	0.16073966	0.034718847	0.034822763	0	982.9187833995272
0.83176377	0.12022644	0.3	12.373671	0.10826902	-0.00058723123	-0.04930838	0.16535137	0.035848611	0.035944457	0	985.6211332319629
0.83176377	0.13182567	0.3	14.386614	0.09973591	0.001457286	-0.051314237	0.17003872	0.037156912	0.037245205	0	988.8633122717456
0.83176377	0.14454398	0.3	16.84775	0.091766224	0.0041879977	-0.053497354	0.17475746	0.038683805	0.038765042	0	992.7590637458029
0.83176377	0.15848932	0.3	19.854715	0.084344453	0.0077714077	-0.055911126	0.1794607	0.040477809	0.040552476	0	997.4516120176665
0.83176377	0.17378008	0.3	23.532827	0.077457924	0.012414289	-0.058608922	0.18410179	0.042598322	0.042666893	0	1003.122084616379
0.83176377	0.19054607	0.3	28.040305	0.071096465	0.018371198	-0.061640652	0.18863773	0.045118607	0.045181546	0	1009.997533521986
0.83176377	0.20892961	0.3	33.570469	0.065251748	0.025948924	-0.065048584	0.1930334	0.048129156	0.048186921	0	1018.3563080699903
0.83176377	0.22908677	0.3	40.348013	0.059916156	0.035504339	-0.068862349	0.1972665	0.051741014	0.051794056	0	1028.5274271337862
0.83176377	0.25118864	0.3	48.616276	0.055081101	0.047431745	-0.073093456	0.20133313	0.056088314	0.056137075	0	1040.8802639185492
0.83176377	0.27542287	0.3	58.613597	0.050734854	0.062136984	-0.077730379	0.20525262	0.061329034	0.061373948	0	1055.8015820445194
0.83176377	0.30199517	0.3	70.540159	0.046860238	0.079999327	-0.082735983	0.20907018	0.067642944	0.067684428	0	1073.6604747263982
0.83176377	0.33113112	0.3	84.521813	0.043432815	0.10132794	-0.088049227	0.21285517	0.075226076	0.075264525	0	1094.7669741009868
0.83176377	0.36307805	0.3	100.58154	0.040420277	0.1263248	-0.093592042	0.21669423	0.084281927	0.08431771	0	1119.3352719415589
0.83176377	0.39810717	0.3	118.62896	0.03778346	0.15506595	-0.099280185	0.22068045	0.095010688	0.095044136	0	1147.4630548575547
0.83176377	0.43651583	0.3	138.47199	0.03547878	0.18750682	-0.10503502	0.22490158	0.10759852	0.10762993	0	1179.1331804791628
0.83176377	0.47863009	0.3	159.84625	0.03346137	0.22350756	-0.11079275	0.22943083	0.12220893	0.12223856	0	1214.2348862659683
0.83176377	0.52480746	0.3	182.45191	0.031688026	0.26286841	-0.11650916	0.2343221	0.13897747	0.13900552	0	1252.595677415364
0.83176377	0.57543994	0.3	205.98762	0.03011935	0.30536416	-0.12215983	0.23960982	0.15800997	0.15803663	0	1294.013659185377
0.83176377	0.63095734	0.3	230.17566	0.028720914	0.35077118	-0.12773727	0.24531179	0.17938372	0.17940914	0	1338.2837338557558
0.83176377	0.69183097	0.3	254.77661	0.027463572	0.39888491	-0.13324676	0.25143335	0.20315058	0.20317489	0	1385.2152091221951
0.83176377	0.75857758	0.3	279.59526	0.026323206	0.44952897	-0.13870212	0.25797165	0.2293411	0.2293644	0	1434.6415611198877
0.83176377	0.83176377	0.3	304.48038	0.025280156	0.50255824	-0.14412217	0.26491918	0.25796885	0.25799123	0	1486.4243232845076
0.83176377	0.91201084	0.3	329.321	0.024318549	0.55785826	-0.14952814	0.27226637	0.28903461	0.28905614	0	1540.4532554739749
0.83176377	1.	0.3	354.04106	0.023425633	0.61534266	-0.15494186	0.28000342	0.32253002	0.32255076	0	1596.6444451068799
0.83176377	1.0964782	0.3	378.59369	0.022591178	0.6749499	-0.16038465	0.28812138	0.35844076	0.35846076	0	1654.9375485986197
0.83176377	1.2022644	0.3	402.95568	0.021806974	0.73663981	-0.16587675	0.2966128	0.39674909	0.39676839	0	1715.2927236805274
0.83176377	1.3182567	0.3	427.12272	0.021066407	0.80039046	-0.17143703	0.30547201	0.43743598	0.43745463	0	1777.687767483817
0.83176377	1.4454398	0.3	451.10522	0.020364133	0.86619535	-0.17708288	0.3146952	0.48048274	0.48050076	0	1842.1154989105185
0.83176377	1.5848932	0.3	474.92491	0.019695804	0.93406112	-0.18283028	0.3242804	0.52587224	0.52588968	0	1908.5816013914337
0.83176377	1.7378008	0.3	498.61206	0.019057864	1.0040055	-0.18869395	0.33422735	0.57358997	0.57360684	0	1977.1026601341214
0.83176377	1.9054607	0.3	522.20327	0.018447384	1.0760558	-0.19468743	0.34453741	0.62362466	0.62364099	0	2047.7047180109525
0.83176377	2.0892961	0.3	545.73967	0.01786193	1.1502476	-0.2008233	0.35521339	0.67596891	0.67598473	0	2120.421996810671
0.83176377	2.2908677	0.3	569.26558	0.017299466	1.2266235	-0.20711327	0.36625939	0.7306195	0.73063481	0	2195.295677682566
0.83176377	2.5118864	0.3	592.82741	0.016758274	1.3052326	-0.21356837	0.37768075	0.78757764	0.78759248	0	2272.373398469014
0.83176377	2.7542287	0.3	616.47288	0.016236887	1.3861297	-0.22019905	0.38948386	0.84684921	0.84686358	0	2351.70844849797
0.83176377	3.0199517	0.3	640.25032	0.015734048	1.4693744	-0.22701529	0.40167612	0.90844476	0.90845869	0	2433.3589116993726
0.83176377	3.3113112	0.3	664.20828	0.015248664	1.5550313	-0.23402672	0.41426581	0.97237961	0.97239311	0	2517.38781787516
0.83176377	3.6307805	0.3	688.39517	0.01477978	1.6431693	-0.24124268	0.42726207	1.0386738	1.0386869	0	2603.8624793661374
0.83176377	3.9810717	0.3	712.859	0.01432655	1.7338612	-0.24867233	0.4406748	1.1073522	1.1073649	0	2692.8540870388733
0.83176377	4.3651583	0.3	737.64723	0.013888222	1.827184	-0.25632468	0.45451463	1.1784442	1.1784565	0	2784.437983699221
0.83176377	4.7863009	0.3	762.80669	0.01346412	1.923218	-0.26420865	0.46879291	1.251984	1.2519959	0	2878.6928156648005
0.83176377	5.2480746	0.3	788.38349	0.013053629	2.0220476	-0.27233315	0.48352159	1.3280102	1.3280218	0	2975.7012505929315
0.83176377	5.7543994	0.3	814.42303	0.012656191	2.1237602	-0.28070711	0.49871332	1.4065659	1.4065771	0	3075.5489721457084
0.83176377	6.3095734	0.3	840.97002	0.012271289	2.2284472	-0.2893395	0.51438133	1.4876988	1.4877096	0	3178.325585730995
0.83176377	6.9183097	0.3	868.0685	0.011898447	2.3362031	-0.29823939	0.53053946	1.5714606	1.5714712	0	3284.123781349698
0.83176377	7.5857758	0.3	895.76188	0.011537222	2.4471261	-0.30741595	0.54720214	1.6579077	1.6579179	0	3393.0398916975896
0.83176377	8.3176377	0.3	924.09304	0.011187196	2.5613175	-0.31687851	0.56438442	1.7471004	1.7471103	0	3505.1733368821783
0.83176377	9.1201084	0.3	953.10437	0.01084798	2.6788826	-0.32663659	0.58210189	1.8391033	1.8391129	0	3620.627447481963
0.83176377	10.	0.3	982.83787	0.010519205	2.7999298	-0.33669986	0.60037076	1.9339852	1.9339945	0	3739.5086414871794