0.22908677	1.e-12	0.16	142.5943	2852.3881	-0.0044685644	-0.013609413	-0.013609267	-0.15841228	0.53706287	0	933.3209544115807
0.22908677	1.0964782e-12	0.16	130.0592	2602.421	-0.0044461077	-0.013668597	-0.013668437	-0.14505792	0.48946974	0	933.3331588956945
0.22908677	1.2022644e-12	0.16	118.62706	2374.4436	-0.0044236509	-0.013727783	-0.013727608	-0.13287745	0.44606428	0	933.3453633234344
0.22908677	1.3182567e-12	0.16	108.20083	2166.521	-0.0044011941	-0.013786971	-0.013786779	-0.12176759	0.40647805	0	933.3575677511743
0.22908677	1.4454398e-12	0.16	98.691986	1976.8888	-0.0043787374	-0.01384616	-0.013845949	-0.11163413	0.37037497	0	933.369772235288
0.22908677	1.5848932e-12	0.16	90.01982	1803.9374	-0.0043562806	-0.013905351	-0.01390512	-0.10239117	0.33744857	0	933.381976663028
0.22908677	1.7378008e-12	0.16	82.110711	1646.1991	-0.0043338238	-0.013964543	-0.01396429	-0.09396034	0.30741934	0	933.3941812410984
0.22908677	1.9054607e-12	0.16	74.897518	1502.3355	-0.004311367	-0.014023738	-0.01402346	-0.086270192	0.28003236	0	933.4063858191687
0.22908677	2.0892961e-12	0.16	68.319008	1371.1256	-0.0042889102	-0.014082934	-0.01408263	-0.079255549	0.25505513	0	933.4185903972392
0.22908677	2.2908677e-12	0.16	62.319335	1251.4561	-0.0042664533	-0.014142132	-0.014141799	-0.072856976	0.23227563	0	933.4307952195965
0.22908677	2.5118864e-12	0.16	56.847569	1142.3115	-0.0042439965	-0.014201332	-0.014200966	-0.067020265	0.21150048	0	933.4430002486582
0.22908677	2.7542287e-12	0.16	51.857259	1042.7657	-0.0042215397	-0.014260534	-0.014260133	-0.061695979	0.19255332	0	933.4552052777199
0.22908677	3.0199517e-12	0.16	47.306042	951.97426	-0.0041990829	-0.014319739	-0.014319299	-0.056839028	0.1752733	0	933.467410457112
0.22908677	3.3113112e-12	0.16	43.155283	869.16677	-0.004176626	-0.014378945	-0.014378463	-0.052408294	0.15951374	0	933.4796160311216
0.22908677	3.6307805e-12	0.16	39.369747	793.64076	-0.0041541692	-0.014438153	-0.014437625	-0.048366274	0.14514086	0	933.4918218118357
0.22908677	3.9810717e-12	0.16	35.917297	724.75554	-0.0041317124	-0.014497364	-0.014496784	-0.044678764	0.13203263	0	933.5040280435411
0.22908677	4.3651583e-12	0.16	32.768626	661.9268	-0.0041092555	-0.014556577	-0.014555942	-0.041314573	0.12007779	0	933.5162345195334
0.22908677	4.7863009e-12	0.16	29.897003	604.62162	-0.0040867987	-0.014615793	-0.014615096	-0.03824525	0.10917484	0	933.5284415028912
0.22908677	5.2480746e-12	0.16	27.278053	552.354	-0.0040643419	-0.014675011	-0.014674246	-0.035444851	0.099231243	0	933.5406490875706
0.22908677	5.7543994e-12	0.16	24.889543	504.68069	-0.004041885	-0.014734231	-0.014733393	-0.032889714	0.090162574	0	933.552857217198
0.22908677	6.3095734e-12	0.16	22.711196	461.19744	-0.0040194282	-0.014793454	-0.014792535	-0.030558258	0.081891854	0	933.5650660045211
0.22908677	6.9183097e-12	0.16	20.724521	421.53556	-0.0039969713	-0.01485268	-0.014851673	-0.028430802	0.074348871	0	933.5772754871226
0.22908677	7.5857758e-12	0.16	18.912653	385.35883	-0.0039745145	-0.014911909	-0.014910804	-0.026489395	0.067469593	0	933.5894859280808
0.22908677	8.3176377e-12	0.16	17.260211	352.36059	-0.0039520577	-0.01497114	-0.014969929	-0.024717667	0.061195621	0	933.6016972710216
0.22908677	9.1201084e-12	0.16	15.753166	322.26117	-0.0039296008	-0.015030375	-0.015029047	-0.023100688	0.055473697	0	933.6139097602321
0.22908677	1.e-11	0.16	14.378726	294.80551	-0.003907144	-0.015089613	-0.015088156	-0.021624843	0.050255245	0	933.6261235084605
0.22908677	1.0964782e-11	0.16	13.125224	269.76098	-0.0038846871	-0.015148853	-0.015147256	-0.020277712	0.045495967	0	933.6383387036192
0.22908677	1.2022644e-11	0.16	11.982017	246.91543	-0.0038622303	-0.015208097	-0.015206346	-0.019047969	0.041155461	0	933.6505553081261
0.22908677	1.3182567e-11	0.16	10.939402	226.07539	-0.0038397735	-0.015267345	-0.015265425	-0.017925287	0.037196881	0	933.6627735662679
0.22908677	1.4454398e-11	0.16	9.988528	207.06438	-0.0038173166	-0.015326595	-0.01532449	-0.016900244	0.033586622	0	933.6749940229928
0.22908677	1.5848932e-11	0.16	9.1213222	189.72149	-0.0037948598	-0.01538585	-0.015383541	-0.01596425	0.030294035	0	933.6872164903873
0.22908677	1.7378008e-11	0.16	8.3304236	173.89993	-0.0037724029	-0.015445108	-0.015442577	-0.015109468	0.027291172	0	933.6994413066952
0.22908677	1.9054607e-11	0.16	7.6091179	159.46585	-0.0037499461	-0.01550437	-0.015501594	-0.014328752	0.024552541	0	933.7116688853254
0.22908677	2.0892961e-11	0.16	6.9512822	146.29717	-0.0037274892	-0.015563635	-0.015560593	-0.013615586	0.022054892	0	933.7238992638603
0.22908677	2.2908677e-11	0.16	6.3513319	134.28255	-0.0037050324	-0.015622905	-0.015619569	-0.012964025	0.019777024	0	933.7361330060393
0.22908677	2.5118864e-11	0.16	5.8041744	123.32046	-0.0036825756	-0.015682179	-0.015678521	-0.012368649	0.0176996	0	933.7483703561489
0.22908677	2.7542287e-11	0.16	5.3051646	113.31828	-0.0036601187	-0.015741457	-0.015737446	-0.011824513	0.015804985	0	933.7606118591375
0.22908677	3.0199517e-11	0.16	4.8500665	104.19157	-0.0036376619	-0.01580074	-0.015796342	-0.011327109	0.014077096	0	933.7728576277528
0.22908677	3.3113112e-11	0.16	4.4350168	95.863294	-0.003615205	-0.015860027	-0.015855205	-0.010872323	0.012501263	0	933.7851084512297
0.22908677	3.6307805e-11	0.16	4.0564921	88.263208	-0.0035927482	-0.015919319	-0.015914032	-0.010456407	0.011064111	0	933.7973645926464
0.22908677	3.9810717e-11	0.16	3.7112793	81.327247	-0.0035702913	-0.015978616	-0.015972818	-0.010075938	0.0097534393	0	933.8096269915684
0.22908677	4.3651583e-11	0.16	3.3964478	74.996984	-0.0035478345	-0.016037918	-0.016031561	-0.0097277981	0.0085581216	0	933.8218957607437
0.22908677	4.7863009e-11	0.16	3.1093252	69.219135	-0.0035253776	-0.016097225	-0.016090255	-0.0094091413	0.0074680113	0	933.8341719900675
0.22908677	5.2480746e-11	0.16	2.8474739	63.945102	-0.0035029208	-0.016156537	-0.016148895	-0.0091173728	0.0064738542	0	933.8464562432796
0.22908677	5.7543994e-11	0.16	2.6086712	59.130567	-0.0034804639	-0.016215855	-0.016207475	-0.0088501259	0.0055672112	0	933.8587496102756
0.22908677	6.3095734e-11	0.16	2.3908899	54.735112	-0.0034580071	-0.016275178	-0.01626599	-0.0086052422	0.0047403859	0	933.8710526547945
0.22908677	6.9183097e-11	0.16	2.1922814	50.721875	-0.0034355502	-0.016334507	-0.016324434	-0.0083807528	0.0039863595	0	933.8833664667326
0.22908677	7.5857758e-11	0.16	2.0111597	47.05724	-0.0034130934	-0.016393843	-0.016382798	-0.0081748624	0.0032987312	0	933.8956922111504
0.22908677	8.3176377e-11	0.16	1.8459873	43.710552	-0.0033906366	-0.016453184	-0.016441074	-0.0079859332	0.0026716639	0	933.9080311846484
0.22908677	9.1201084e-11	0.16	1.6953621	40.653851	-0.0033681797	-0.016512532	-0.016499255	-0.0078124716	0.0020998344	0	933.9203845334962
0.22908677	1.e-10	0.16	1.5580055	37.861642	-0.0033457229	-0.016571886	-0.016557329	-0.007653115	0.0015783888	0	933.9327538737464
0.22908677	1.0964782e-10	0.16	1.4327515	35.310673	-0.003323266	-0.016631248	-0.016615288	-0.0075066209	0.0011029005	0	933.9451405959556
0.22908677	1.2022644e-10	0.16	1.3185368	32.979742	-0.0033008092	-0.016690616	-0.016673119	-0.0073718558	0.00066933314	0	933.9575464665065
0.22908677	1.3182567e-10	0.16	1.214392	30.849513	-0.0032783523	-0.016749991	-0.016730809	-0.0072477858	0.00027400638	0	933.9699736276084
0.22908677	1.4454398e-10	0.16	1.119433	28.902355	-0.0032558955	-0.016809374	-0.016788345	-0.0071334677	-0.000086435693	0	933.9824238456436
0.22908677	1.5848932e-10	0.16	1.0328536	27.12219	-0.0032334386	-0.016868765	-0.016845711	-0.0070280412	-0.00041505286	0	933.9948997138132
0.22908677	1.7378008e-10	0.16	0.95391905	25.494356	-0.0032109817	-0.016928163	-0.016902892	-0.0069307215	-0.00071463478	0	934.0074033931171
0.22908677	1.9054607e-10	0.16	0.88195912	24.005488	-0.0031885249	-0.01698757	-0.016959869	-0.0068407924	-0.00098772468	0	934.0199376458775
0.22908677	2.0892961e-10	0.16	0.81636297	22.643397	-0.003166068	-0.017046985	-0.017016623	-0.0067576008	-0.001236641	0	934.0325055162862
0.22908677	2.2908677e-10	0.16	0.75657372	21.396969	-0.0031436112	-0.017106409	-0.017073133	-0.0066805504	-0.0014634972	0	934.0451099733693
0.22908677	2.5118864e-10	0.16	0.70208372	20.256074	-0.0031211543	-0.017165842	-0.017129375	-0.0066090973	-0.0016702194	0	934.0577548129714
0.22908677	2.7542287e-10	0.16	0.6524303	19.211476	-0.0030986975	-0.017225284	-0.017185324	-0.0065427451	-0.0018585633	0	934.0704436054406
0.22908677	3.0199517e-10	0.16	0.60719174	18.254755	-0.0030762406	-0.017284736	-0.017240954	-0.0064810407	-0.0020301286	0	934.0831804472816
0.22908677	3.3113112e-10	0.16	0.56598376	17.378235	-0.0030537838	-0.017344197	-0.017296235	-0.0064235703	-0.0021863732	0	934.0959696604955
0.22908677	3.6307805e-10	0.16	0.52845616	16.574919	-0.003031327	-0.017403669	-0.017351137	-0.0063699563	-0.0023286252	0	934.1088158489521
0.22908677	3.9810717e-10	0.16	0.49428988	15.838432	-0.0030088701	-0.017463151	-0.017405626	-0.0063198539	-0.0024580947	0	934.1217242178436
0.22908677	4.3651583e-10	0.16	0.46319418	15.162959	-0.0029864133	-0.017522643	-0.017459668	-0.0062729478	-0.0025758839	0	934.1346996904921
0.22908677	4.7863009e-10	0.16	0.4349042	14.543201	-0.0029639565	-0.017582147	-0.017513224	-0.0062289505	-0.0026829971	0	934.1477482237426
0.22908677	5.2480746e-10	0.16	0.40917859	13.974329	-0.0029414998	-0.017641662	-0.017566258	-0.0061875988	-0.0027803491	0	934.1608751355343
0.22908677	5.7543994e-10	0.16	0.38579745	13.451935	-0.0029190431	-0.017701189	-0.017618728	-0.0061486522	-0.0028687736	0	934.1740868337033
0.22908677	6.3095734e-10	0.16	0.36456031	12.972003	-0.0028965864	-0.017760728	-0.017670595	-0.0061118911	-0.0029490304	0	934.1873891811374
0.22908677	6.9183097e-10	0.16	0.34528436	12.530866	-0.0028741299	-0.01782028	-0.017721816	-0.0060771142	-0.0030218126	0	934.2007884541329
0.22908677	7.5857758e-10	0.16	0.3278028	12.125173	-0.0028516735	-0.017879844	-0.017772353	-0.0060441377	-0.0030877528	0	934.2142904592038
0.22908677	8.3176377e-10	0.16	0.31196327	11.751864	-0.0028292173	-0.017939421	-0.017822165	-0.0060127931	-0.0031474292	0	934.2279012659421
0.22908677	9.1201084e-10	0.16	0.2976264	11.408135	-0.0028067614	-0.017999011	-0.017871218	-0.0059829265	-0.0032013713	0	934.2416258916271
0.22908677	1.e-9	0.16	0.28466454	11.091417	-0.0027843059	-0.018058615	-0.017919477	-0.0059543969	-0.0032500648	0	934.2554695038677
0.22908677	1.0964782e-9	0.16	0.27296047	10.799346	-0.002761851	-0.018118232	-0.017966916	-0.0059270754	-0.0032939566	0	934.2694358233433
0.22908677	1.2022644e-9	0.16	0.26240634	10.529747	-0.002739397	-0.018177863	-0.018013513	-0.0059008439	-0.0033334592	0	934.2835278754541
0.22908677	1.3182567e-9	0.16	0.25290263	10.28061	-0.0027169444	-0.018237507	-0.018059254	-0.0058755949	-0.0033689552	0	934.2977472950435
0.22908677	1.4454398e-9	0.16	0.24435728	10.050072	-0.0026944939	-0.018297162	-0.018104132	-0.0058512298	-0.0034008004	0	934.3120944767294
0.22908677	1.5848932e-9	0.16	0.23668483	9.8363986	-0.0026720465	-0.018356829	-0.018148147	-0.0058276588	-0.0034293278	0	934.3265684809462
0.22908677	1.7378008e-9	0.16	0.22980579	9.6379681	-0.0026496038	-0.018416503	-0.018191309	-0.0058048005	-0.0034548512	0	934.3411663010846
0.22908677	1.9054607e-9	0.16	0.2236459	9.4532545	-0.0026271684	-0.018476181	-0.018233632	-0.0057825807	-0.0034776686	0	934.3558833896489
0.22908677	2.0892961e-9	0.16	0.21813561	9.2808074	-0.0026047441	-0.018535855	-0.018275136	-0.0057609324	-0.0034980667	0	934.370713169681
0.22908677	2.2908677e-9	0.16	0.21320932	9.1192277	-0.002582337	-0.018595513	-0.018315842	-0.0057397949	-0.003516326	0	934.3856467528931
0.22908677	2.5118864e-9	0.16	0.20880458	8.9671333	-0.0025599563	-0.018655139	-0.018355768	-0.0057191145	-0.0035327295	0	934.4006727893355
0.22908677	2.7542287e-9	0.16	0.20486069	8.8230959	-0.0025376172	-0.018714701	-0.018394923	-0.0056988427	-0.0035475772	0	934.4157756446411
0.22908677	3.0199517e-9	0.16	0.20131312	8.6853715	-0.0025153503	-0.018774135	-0.018433282	-0.0056789375	-0.0035612522	0	934.4309303263711
0.22908677	3.3113112e-9	0.16	0.19804727	8.5495995	-0.0024932888	-0.018833117	-0.018470561	-0.0056593646	-0.0035747836	0	934.446054378271
0.22908677	3.6307805e-9	0.16	0.19451717	8.3897616	-0.0024723857	-0.018889236	-0.018504383	-0.0056401159	-0.0035945069	0	934.4606097300558
0.22908677	3.9810717e-9	0.16	0.18889416	8.1157465	-0.0024560985	-0.018933684	-0.018525975	-0.0056212987	-0.0036425006	0	934.4726666836184
0.22908677	4.3651583e-9	0.16	0.18079529	7.710252	-0.0024454972	-0.018963875	-0.018532777	-0.0056031658	-0.0037232362	0	934.4816047500016
0.22908677	4.7863009e-9	0.16	0.17196665	7.2624	-0.002437608	-0.018987743	-0.018532747	-0.0055858754	-0.0038151421	0	934.4890216788746
0.22908677	5.2480746e-9	0.16	0.16353498	6.829628	-0.0024302601	-0.019011407	-0.018532022	-0.0055694375	-0.0039042235	0	934.4960345006904
0.22908677	5.7543994e-9	0.16	0.15623099	6.4490595	-0.0024216703	-0.019040668	-0.018536417	-0.0055537771	-0.003981354	0	934.5034444767797
0.22908677	6.3095734e-9	0.16	0.15106309	6.1713339	-0.002408955	-0.019085858	-0.018556272	-0.0055387382	-0.0040340308	0	934.5124065208706
0.22908677	6.9183097e-9	0.16	0.14871027	6.0301302	-0.0023897939	-0.019155355	-0.018599965	-0.005524064	-0.0040537852	0	934.5238412378844
0.22908677	7.5857758e-9	0.16	0.14764338	5.948442	-0.0023677696	-0.019235618	-0.018653956	-0.0055095427	-0.0040591813	0	934.5364180153728
0.22908677	8.3176377e-9	0.16	0.14687279	5.8767803	-0.0023453542	-0.019317375	-0.018708967	-0.0054951088	-0.00406222	0	934.549208919804
0.22908677	9.1201084e-9	0.16	0.14624883	5.8079345	-0.0023229012	-0.019399301	-0.018763661	-0.0054807428	-0.0040646402	0	934.5620828066471
0.22908677	1.e-8	0.16	0.14574858	5.741035	-0.0023004443	-0.019481271	-0.018817901	-0.0054664319	-0.0040666408	0	934.5750286078221
0.22908677	1.0964782e-8	0.16	0.14536231	5.675836	-0.002277987	-0.019563273	-0.018871657	-0.0054521643	-0.0040682702	0	934.5880475447639
0.22908677	1.2022644e-8	0.16	0.14508262	5.6121721	-0.0022555294	-0.019645307	-0.018924908	-0.0054379293	-0.0040695579	0	934.6011426804556
0.22908677	1.3182567e-8	0.16	0.14490328	5.5499036	-0.0022330717	-0.019727373	-0.018977633	-0.0054237168	-0.0040705278	0	934.6143169839238
0.22908677	1.4454398e-8	0.16	0.14481897	5.4889083	-0.002210614	-0.019809473	-0.019029807	-0.0054095172	-0.0040712002	0	934.6275741194731
0.22908677	1.5848932e-8	0.16	0.14482513	5.4290785	-0.002188156	-0.019891607	-0.019081404	-0.0053953213	-0.0040715922	0	934.6409182775651
0.22908677	1.7378008e-8	0.16	0.14491794	5.3703193	-0.002165698	-0.019973777	-0.019132395	-0.0053811206	-0.0040717182	0	934.6543535359135
0.22908677	1.9054607e-8	0.16	0.14509412	5.3125469	-0.0021432398	-0.020055983	-0.01918275	-0.0053669066	-0.0040715905	0	934.667884592345
0.22908677	2.0892961e-8	0.16	0.14535095	5.2556867	-0.0021207815	-0.020138228	-0.019232436	-0.0053526715	-0.0040712191	0	934.6815163138081
0.22908677	2.2908677e-8	0.16	0.14568614	5.199673	-0.0020983231	-0.020220511	-0.01928142	-0.0053384073	-0.0040706122	0	934.695253661208
0.22908677	2.5118864e-8	0.16	0.1460978	5.1444469	-0.0020758645	-0.020302835	-0.019329668	-0.0053241064	-0.0040697767	0	934.7091018397364
0.22908677	2.7542287e-8	0.16	0.14658437	5.0899558	-0.0020534057	-0.0203852	-0.019377143	-0.0053097616	-0.004068718	0	934.7230664116202
0.22908677	3.0199517e-8	0.16	0.14714459	5.0361526	-0.0020309467	-0.020467608	-0.019423809	-0.0052953654	-0.0040674403	0	934.7371527887561
0.22908677	3.3113112e-8	0.16	0.14777745	4.9829953	-0.0020084876	-0.02055006	-0.019469627	-0.0052809107	-0.0040659464	0	934.7513667400754
0.22908677	3.6307805e-8	0.16	0.14848217	4.930445	-0.0019860282	-0.020632558	-0.019514559	-0.0052663905	-0.0040642392	0	934.765714166048
0.22908677	3.9810717e-8	0.16	0.14925815	4.8784672	-0.0019635686	-0.020715104	-0.019558564	-0.0052517977	-0.0040623197	0	934.7802011362668
0.22908677	4.3651583e-8	0.16	0.15010498	4.8270304	-0.0019411088	-0.020797697	-0.019601603	-0.0052371253	-0.0040601888	0	934.794833513619
0.22908677	4.7863009e-8	0.16	0.15102237	4.7761053	-0.0019186487	-0.020880341	-0.019643633	-0.0052223665	-0.0040578466	0	934.8096178562707
0.22908677	5.2480746e-8	0.16	0.15201021	4.7256654	-0.0018961883	-0.020963037	-0.019684613	-0.0052075142	-0.0040552927	0	934.824560327771
0.22908677	5.7543994e-8	0.16	0.15306847	4.6756861	-0.0018737276	-0.021045786	-0.0197245	-0.0051925617	-0.0040525263	0	934.8396673923293
0.22908677	6.3095734e-8	0.16	0.15419727	4.6261444	-0.0018512665	-0.021128591	-0.01976325	-0.005177502	-0.0040495459	0	934.8549457584421
0.22908677	6.9183097e-8	0.16	0.1553968	4.5770193	-0.0018288051	-0.021211453	-0.019800818	-0.0051623282	-0.0040463499	0	934.8704020970235
0.22908677	7.5857758e-8	0.16	0.15666737	4.5282909	-0.0018063432	-0.021294373	-0.01983716	-0.0051470334	-0.0040429361	0	934.8860432105269
0.22908677	8.3176377e-8	0.16	0.1580094	4.4799405	-0.0017838809	-0.021377354	-0.019872229	-0.0051316105	-0.0040393021	0	934.9018760705267
0.22908677	9.1201084e-8	0.16	0.15942339	4.4319509	-0.0017614181	-0.021460399	-0.019905978	-0.0051160524	-0.004035445	0	934.9179078365112
0.22908677	1.e-7	0.16	0.16090992	4.3843056	-0.0017389548	-0.021543508	-0.019938359	-0.0051003522	-0.0040313618	0	934.934145724342
0.22908677	1.0964782e-7	0.16	0.16246969	4.336989	-0.0017164908	-0.021626684	-0.019969324	-0.0050845027	-0.0040270491	0	934.9505971377945
0.22908677	1.2022644e-7	0.16	0.16410347	4.2899866	-0.0016940263	-0.02170993	-0.019998822	-0.0050684968	-0.0040225034	0	934.9672695558083
0.22908677	1.3182567e-7	0.16	0.16581215	4.2432844	-0.001671561	-0.021793247	-0.020026803	-0.005052327	-0.0040177206	0	934.9841707767764
0.22908677	1.4454398e-7	0.16	0.16759668	4.1968695	-0.0016490949	-0.021876638	-0.020053214	-0.0050359859	-0.0040126965	0	935.0013087682127
0.22908677	1.5848932e-7	0.16	0.16945814	4.1507293	-0.001626628	-0.021960106	-0.020078002	-0.0050194662	-0.0040074268	0	935.0186914976312
0.22908677	1.7378008e-7	0.16	0.17139768	4.104852	-0.0016041601	-0.022043653	-0.020101111	-0.0050027602	-0.0040019067	0	935.0363275714508
0.22908677	1.9054607e-7	0.16	0.17341658	4.0592264	-0.0015816912	-0.022127281	-0.020122487	-0.0049858602	-0.0039961312	0	935.0542251075161
0.22908677	2.0892961e-7	0.16	0.1755162	4.0138418	-0.0015592212	-0.022210994	-0.020142071	-0.0049687583	-0.0039900951	0	935.0723930692802
0.22908677	2.2908677e-7	0.16	0.17769799	3.9686881	-0.00153675	-0.022294795	-0.020159805	-0.0049514466	-0.0039837929	0	935.0908402698664
0.22908677	2.5118864e-7	0.16	0.17996354	3.9237557	-0.0015142774	-0.022378686	-0.020175627	-0.0049339169	-0.0039772187	0	935.1095762176759
0.22908677	2.7542287e-7	0.16	0.18231452	3.8790354	-0.0014918034	-0.022462671	-0.020189477	-0.004916161	-0.0039703666	0	935.1286099325363
0.22908677	3.0199517e-7	0.16	0.18475271	3.8345186	-0.0014693277	-0.022546753	-0.020201289	-0.0048981704	-0.0039632301	0	935.147951618127
0.22908677	3.3113112e-7	0.16	0.18728001	3.790197	-0.0014468503	-0.022630934	-0.020210999	-0.0048799364	-0.0039558027	0	935.1676108955974
0.22908677	3.6307805e-7	0.16	0.18989841	3.7460627	-0.001424371	-0.02271522	-0.020218538	-0.0048614502	-0.0039480774	0	935.1875983256617
0.22908677	3.9810717e-7	0.16	0.19261005	3.7021084	-0.0014018895	-0.022799614	-0.020223838	-0.0048427027	-0.003940047	0	935.2079244126611
0.22908677	4.3651583e-7	0.16	0.19541714	3.6583269	-0.0013794057	-0.022884118	-0.020226827	-0.0048236848	-0.0039317039	0	935.2286000743445
0.22908677	4.7863009e-7	0.16	0.19832203	3.6147113	-0.0013569193	-0.022968738	-0.020227432	-0.004804387	-0.0039230406	0	935.2496365667046
0.22908677	5.2480746e-7	0.16	0.20132718	3.5712556	-0.0013344302	-0.023053478	-0.020225577	-0.0047847994	-0.0039140485	0	935.2710454088133
0.22908677	5.7543994e-7	0.16	0.20443518	3.5279534	-0.001311938	-0.023138342	-0.020221184	-0.0047649123	-0.0039047194	0	935.2928387022719
0.22908677	6.3095734e-7	0.16	0.20764872	3.4847991	-0.0012894424	-0.023223334	-0.020214174	-0.0047447154	-0.0038950445	0	935.3150286050558
0.22908677	6.9183097e-7	0.16	0.21097064	3.4417872	-0.0012669431	-0.023308459	-0.020204465	-0.0047241981	-0.0038850144	0	935.3376277261323
0.22908677	7.5857758e-7	0.16	0.21440387	3.3989125	-0.0012444398	-0.023393723	-0.02019197	-0.0047033498	-0.0038746199	0	935.3606494261206
0.22908677	8.3176377e-7	0.16	0.21795151	3.3561701	-0.0012219321	-0.023479131	-0.020176605	-0.0046821593	-0.003863851	0	935.3841067086054
0.22908677	9.1201084e-7	0.16	0.22161675	3.3135552	-0.0011994195	-0.023564688	-0.020158277	-0.0046606154	-0.0038526975	0	935.4080140241014
0.22908677	1.e-6	0.16	0.22540294	3.2710634	-0.0011769015	-0.0236504	-0.020136896	-0.0046387063	-0.0038411488	0	935.4323853721323
0.22908677	1.0964782e-6	0.16	0.22931356	3.2286906	-0.0011543778	-0.023736273	-0.020112367	-0.0046164199	-0.0038291939	0	935.4572353159614
0.22908677	1.2022644e-6	0.16	0.23335221	3.1864327	-0.0011318476	-0.023822313	-0.02008459	-0.0045937439	-0.0038168213	0	935.4825796402863
0.22908677	1.3182567e-6	0.16	0.23752267	3.144286	-0.0011093104	-0.023908528	-0.020053466	-0.0045706656	-0.0038040193	0	935.5084336976049
0.22908677	1.4454398e-6	0.16	0.24182884	3.1022469	-0.0010867655	-0.023994924	-0.020018891	-0.0045471719	-0.0037907757	0	935.5348137799803
0.22908677	1.5848932e-6	0.16	0.24627476	3.060312	-0.0010642122	-0.024081508	-0.019980759	-0.0045232492	-0.0037770776	0	935.5617364801366
0.22908677	1.7378008e-6	0.16	0.25086466	3.0184781	-0.0010416496	-0.024168289	-0.019938958	-0.0044988838	-0.0037629122	0	935.5892194806936
0.22908677	1.9054607e-6	0.16	0.25560289	2.9767422	-0.0010190769	-0.024255276	-0.019893377	-0.004474061	-0.0037482656	0	935.6172802199847
0.22908677	2.0892961e-6	0.16	0.260494	2.9351015	-0.00099649301	-0.024342476	-0.0198439	-0.0044487664	-0.0037331239	0	935.6459371604683
0.22908677	2.2908677e-6	0.16	0.26554267	2.8935534	-0.00097389693	-0.024429898	-0.019790405	-0.0044229846	-0.0037174724	0	935.6752095820259
0.22908677	2.5118864e-6	0.16	0.27075379	2.8520953	-0.00095128749	-0.024517554	-0.019732771	-0.0043967001	-0.0037012963	0	935.7051167739339
0.22908677	2.7542287e-6	0.16	0.27613241	2.810725	-0.00092866336	-0.024605453	-0.019670871	-0.0043698964	-0.0036845796	0	935.7356790777823
0.22908677	3.0199517e-6	0.16	0.28168378	2.7694402	-0.00090602316	-0.024693606	-0.019604574	-0.0043425572	-0.0036673065	0	935.7669174834607
0.22908677	3.3113112e-6	0.16	0.28741331	2.7282391	-0.0008833653	-0.024782025	-0.019533746	-0.004314665	-0.0036494601	0	935.7988536291593
0.22908677	3.6307805e-6	0.16	0.29332666	2.6871197	-0.00086068812	-0.024870723	-0.019458251	-0.0042862023	-0.0036310232	0	935.8315095194989
0.22908677	3.9810717e-6	0.16	0.29942966	2.6460805	-0.00083798973	-0.024959712	-0.019377945	-0.0042571505	-0.0036119777	0	935.8649085778432
0.22908677	4.3651583e-6	0.16	0.30572837	2.6051199	-0.0008152681	-0.025049007	-0.019292685	-0.0042274911	-0.0035923054	0	935.8990742087653
0.22908677	4.7863009e-6	0.16	0.31222906	2.5642367	-0.00079252098	-0.025138623	-0.019202319	-0.0041972043	-0.0035719868	0	935.9340313765164
0.22908677	5.2480746e-6	0.16	0.31893824	2.5234297	-0.00076974591	-0.025228576	-0.019106695	-0.00416627	-0.0035510022	0	935.9698052426569
0.22908677	5.7543994e-6	0.16	0.32586268	2.4826979	-0.00074694021	-0.025318882	-0.019005654	-0.0041346677	-0.0035293311	0	936.006422227764
0.22908677	6.3095734e-6	0.16	0.33300937	2.4420405	-0.00072410094	-0.02540956	-0.018899035	-0.0041023757	-0.0035069523	0	936.0439092973636
0.22908677	6.9183097e-6	0.16	0.34038559	2.401457	-0.00070122485	-0.02550063	-0.01878667	-0.0040693719	-0.0034838437	0	936.0822947605595
0.22908677	7.5857758e-6	0.16	0.34799886	2.3609471	-0.0006783084	-0.025592112	-0.018668389	-0.0040356335	-0.0034599825	0	936.1216074995906
0.22908677	8.3176377e-6	0.16	0.35585703	2.3205104	-0.00065534771	-0.025684029	-0.018544017	-0.0040011369	-0.0034353453	0	936.1618774678004
0.22908677	9.1201084e-6	0.16	0.36396821	2.280147	-0.00063233852	-0.025776405	-0.018413373	-0.0039658576	-0.0034099074	0	936.2031358775496
0.22908677	0.00001	0.16	0.37234084	2.2398573	-0.00060927617	-0.025869265	-0.018276273	-0.0039297704	-0.0033836438	0	936.2454147680168
0.22908677	0.000010964782	0.16	0.38098369	2.1996416	-0.00058615556	-0.025962637	-0.018132528	-0.0038928493	-0.0033565281	0	936.2887473434414
0.22908677	0.000012022644	0.16	0.38990586	2.1595008	-0.00056297109	-0.02605655	-0.017981943	-0.0038550674	-0.0033285335	0	936.3331681798281
0.22908677	0.000013182567	0.16	0.39911682	2.119436	-0.00053971663	-0.026151037	-0.017824321	-0.0038163968	-0.0032996315	0	936.3787126518129
0.22908677	0.000014454398	0.16	0.4086264	2.0794483	-0.00051638547	-0.026246131	-0.017659457	-0.0037768087	-0.0032697933	0	936.425417881622
0.22908677	0.000015848932	0.16	0.41844484	2.0395395	-0.00049297024	-0.02634187	-0.017487144	-0.0037362733	-0.0032389886	0	936.4733219122572
0.22908677	0.000017378008	0.16	0.4285828	1.9997116	-0.00046946289	-0.026438293	-0.017307168	-0.0036947599	-0.0032071861	0	936.5224644779364
0.22908677	0.000019054607	0.16	0.43905135	1.9599668	-0.00044585459	-0.026535442	-0.017119312	-0.0036522366	-0.0031743534	0	936.5728864967313
0.22908677	0.000020892961	0.16	0.44986204	1.920308	-0.0004221357	-0.026633366	-0.016923354	-0.0036086703	-0.0031404569	0	936.6246303994125
0.22908677	0.000022908677	0.16	0.4610269	1.8807381	-0.00039829563	-0.026732112	-0.016719065	-0.0035640271	-0.0031054617	0	936.6777405616518
0.22908677	0.000025118864	0.16	0.47255847	1.8412607	-0.0003743228	-0.026831735	-0.016506215	-0.0035182716	-0.0030693316	0	936.7322624396209
0.22908677	0.000027542287	0.16	0.48346497	1.8018562	-0.00035533245	-0.026913613	-0.016265888	-0.0034724368	-0.0030331045	0	936.7862335819643
0.22908677	0.000030199517	0.16	0.49567283	1.7625743	-0.00033154941	-0.027013368	-0.016033399	-0.0034244487	-0.0029946942	0	936.843529479651
0.22908677	0.000033113112	0.16	0.508279	1.7233984	-0.00030763959	-0.027114014	-0.015791453	-0.0033752445	-0.0029550419	0	936.9023661705551
0.22908677	0.000036307805	0.16	0.52129744	1.6843341	-0.00028359095	-0.02721561	-0.015539782	-0.0033247844	-0.0029141066	0	936.9627952556058
0.22908677	0.000039810717	0.16	0.5347427	1.6453878	-0.00025939039	-0.027318216	-0.015278116	-0.0032730274	-0.0028718455	0	937.0248696323321
0.22908677	0.000043651583	0.16	0.54862995	1.6065664	-0.00023502359	-0.027421899	-0.015006177	-0.0032199309	-0.0028282145	0	937.0886445471766
0.22908677	0.000047863009	0.16	0.56297495	1.5678775	-0.00021047488	-0.027526728	-0.014723682	-0.0031654506	-0.0027831675	0	937.1541772666475
0.22908677	0.000052480746	0.16	0.5777942	1.5293297	-0.00018572719	-0.027632782	-0.014430343	-0.003109541	-0.0027366567	0	937.2215271242966
0.22908677	0.000057543994	0.16	0.59310489	1.4909321	-0.00016076191	-0.027740143	-0.014125866	-0.0030521549	-0.0026886328	0	937.2907558025892
0.22908677	0.000063095734	0.16	0.60892491	1.4526949	-0.00013555867	-0.027848901	-0.013809952	-0.0029932431	-0.002639044	0	937.3619273892778
0.22908677	0.000069183097	0.16	0.62527301	1.4146294	-0.00011009535	-0.027959152	-0.013482297	-0.0029327547	-0.0025878368	0	937.4351083680065
0.22908677	0.000075857758	0.16	0.64216871	1.3767474	-0.000084347813	-0.028071	-0.013142594	-0.002870637	-0.0025349556	0	937.510367568514
0.22908677	0.000083176377	0.16	0.65963243	1.3390622	-0.000058289787	-0.028184558	-0.012790528	-0.0028068355	-0.0024803426	0	937.5877770291552
0.22908677	0.000091201084	0.16	0.6776855	1.3015881	-0.000031892684	-0.028299946	-0.012425782	-0.0027412933	-0.0024239375	0	937.6674112649786
0.22908677	0.0001	0.16	0.69635018	1.2643404	-5.1254122e-6	-0.028417296	-0.012048034	-0.0026739517	-0.0023656776	0	937.7493478951689
0.22908677	0.00010964782	0.16	0.71564978	1.2273358	0.000022045797	-0.028536749	-0.011656959	-0.0026047494	-0.0023054978	0	937.8336675049309
0.22908677	0.00012022644	0.16	0.73560867	1.1905923	0.000049657571	-0.028658457	-0.011252227	-0.0025336232	-0.0022433305	0	937.9204541171512
0.22908677	0.00013182567	0.16	0.75625229	1.154129	0.000077749694	-0.028782582	-0.010833505	-0.002460507	-0.0021791049	0	938.0097951717272
0.22908677	0.00014454398	0.16	0.77760726	1.1179667	0.00010636524	-0.028909302	-0.010400459	-0.0023853326	-0.0021127476	0	938.101781349869
0.22908677	0.00015848932	0.16	0.79970144	1.0821272	0.0001355508	-0.029038806	-0.0099527489	-0.0023080288	-0.0020441823	0	938.1965075542543
0.22908677	0.00017378008	0.16	0.82256392	1.046634	0.0001653568	-0.029171298	-0.0094900359	-0.0022285218	-0.0019733293	0	938.2940720953634
0.22908677	0.00019054607	0.16	0.84622513	1.0115119	0.00019583764	-0.029306997	-0.0090119772	-0.0021467347	-0.0019001058	0	938.394577618832
0.22908677	0.00020892961	0.16	0.87071686	0.97678694	0.00022705202	-0.029446136	-0.0085182289	-0.0020625877	-0.0018244255	0	938.4981309757902
0.22908677	0.00022908677	0.16	0.89607235	0.94248668	0.00025906309	-0.029588969	-0.0080084462	-0.0019759977	-0.0017461987	0	938.6048433337304
0.22908677	0.00025118864	0.16	0.92232628	0.90863984	0.00029193878	-0.029735763	-0.0074822828	-0.0018868786	-0.0016653321	0	938.7148305767641
0.22908677	0.00027542287	0.16	0.94951487	0.87527635	0.00032575202	-0.029886807	-0.0069393922	-0.0017951402	-0.0015817285	0	938.8282133168957
0.22908677	0.00030199517	0.16	0.97767589	0.84242714	0.00036058092	-0.030042407	-0.0063794269	-0.0017006893	-0.001495287	0	938.9451171834075
0.22908677	0.00033113112	0.16	1.0068487	0.810124	0.00039650903	-0.030202892	-0.0058020403	-0.0016034285	-0.0014059024	0	939.0656727815207
0.22908677	0.00036307805	0.16	1.0370744	0.77839935	0.00043362551	-0.030368607	-0.0052068836	-0.0015032568	-0.0013134659	0	939.1900163181449
0.22908677	0.00039810717	0.16	1.0683955	0.74728601	0.00047202541	-0.030539923	-0.0045936094	-0.0014000688	-0.001217864	0	939.3182893237675
0.22908677	0.00043651583	0.16	1.1008564	0.71681686	0.00051180972	-0.030717231	-0.003961869	-0.001293755	-0.0011189792	0	939.4506391053229
0.22908677	0.00047863009	0.16	1.1345032	0.68702455	0.00055308559	-0.030900945	-0.0033113136	-0.0011842013	-0.0010166895	0	939.5872187725013
0.22908677	0.00052480746	0.16	1.1693837	0.65794103	0.00059596635	-0.0310915	-0.0026415931	-0.0010712892	-0.00091086869	0	939.7281874369364
0.22908677	0.00057543994	0.16	1.2055472	0.62959718	0.0006405718	-0.031289356	-0.0019523556	-0.00095489543	-0.00080138574	0	939.8737105598449
0.22908677	0.00063095734	0.16	1.243045	0.60202234	0.00068702803	-0.031494996	-0.0012432478	-0.00083489164	-0.00068810531	0	940.0239597227717
0.22908677	0.00069183097	0.16	1.28193	0.57524382	0.00073546761	-0.031708924	-0.00051391213	-0.0007111445	-0.00057088737	0	940.1791132375565
0.22908677	0.00075857758	0.16	1.3222567	0.54928642	0.00078602967	-0.03193167	0.00023601135	-0.00058351533	-0.00044958717	0	940.3393559358706
0.22908677	0.00083176377	0.16	1.3640815	0.52417194	0.00083885974	-0.032163785	0.0010068881	-0.00045186005	-0.00032405536	0	940.5048794924279
0.22908677	0.00091201084	0.16	1.4074624	0.49991872	0.00089410989	-0.032405843	0.0017990888	-0.00031602901	-0.00019413779	0	940.6758825114247
0.22908677	0.001	0.16	1.4524591	0.47654124	0.00095193873	-0.032658443	0.0026129915	-0.00017586673	-0.000059675459	0	940.8525708497502
0.22908677	0.0010964782	0.16	1.4991333	0.45404976	0.0010125114	-0.032922202	0.0034489821	-0.000031211818	0.000079495534	0	941.0351576797486
0.22908677	0.0012022644	0.16	1.5475481	0.43245007	0.0010759999	-0.033197765	0.0043074546	0.00011810324	0.00022354411	0	941.2238638368608
0.22908677	0.0013182567	0.16	1.5977689	0.41174332	0.0011425827	-0.033485795	0.0051888131	0.00027225228	0.00037264438	0	941.4189177538511
0.22908677	0.0014454398	0.16	1.6498631	0.39192597	0.0012124457	-0.033786982	0.0060934711	0.00043141558	0.00052697578	0	941.6205562575622
0.22908677	0.0015848932	0.16	1.7039	0.37298988	0.0012857819	-0.034102037	0.0070218531	0.00059578023	0.00068672339	0	941.8290244993852
0.22908677	0.0017378008	0.16	1.7599516	0.3549225	0.0013627923	-0.034431699	0.007974393	0.00076554013	0.00085207806	0	942.0445765603398
0.22908677	0.0019054607	0.16	1.8180925	0.33770718	0.0014436863	-0.034776732	0.008951536	0.0009408964	0.0010232369	0	942.2674761125301
0.22908677	0.0020892961	0.16	1.8784001	0.32132359	0.0015286825	-0.035137928	0.0099537345	0.0011220577	0.0012004034	0	942.4979965544393
0.22908677	0.0022908677	0.16	1.9409553	0.30574818	0.0016180095	-0.035516113	0.01098145	0.0013092402	0.0013837884	0	942.7364220482119
0.22908677	0.0025118864	0.16	2.0058429	0.29095476	0.0017119075	-0.035912145	0.012035148	0.0015026685	0.0015736097	0	942.9830482562727
0.22908677	0.0027542287	0.16	2.0731518	0.27691505	0.0018106291	-0.036326924	0.013115296	0.0017025755	0.0017700935	0	943.2381827923166
0.22908677	0.0030199517	0.16	2.142976	0.26359921	0.0019144416	-0.036761391	0.014222363	0.0019092032	0.0019734745	0	943.5021473071461
0.22908677	0.0033113112	0.16	2.2154151	0.25097643	0.0020236282	-0.037216535	0.015356809	0.0021228029	0.0021839965	0	943.7752770376776
0.22908677	0.0036307805	0.16	2.2905752	0.23901536	0.0021384915	-0.037693407	0.016519088	0.0023436361	0.0024019133	0	944.0579245464137
0.22908677	0.0039810717	0.16	2.3685699	0.22768457	0.002259355	-0.038193115	0.017709631	0.002571975	0.0026274895	0	944.3504585751709
0.22908677	0.0043651583	0.16	2.4495213	0.21695289	0.0023865673	-0.038716847	0.018928846	0.0028081035	0.0028610014	0	944.6532679912568
0.22908677	0.0047863009	0.16	2.5335616	0.20678967	0.0025205057	-0.039265873	0.020177107	0.0030523177	0.0031027376	0	944.9667635162682
0.22908677	0.0052480746	0.16	2.6208341	0.19716506	0.0026615807	-0.039841563	0.021454737	0.0033049273	0.0033530005	0	945.2913793985188
0.22908677	0.0057543994	0.16	2.7114958	0.18805009	0.0028102413	-0.040445399	0.022762	0.0035662569	0.0036121077	0	945.6275771900908
0.22908677	0.0063095734	0.16	2.8057187	0.17941684	0.0029669816	-0.041078997	0.024099083	0.0038366469	0.0038803927	0	945.9758492420193
0.22908677	0.0069183097	0.16	2.9036931	0.17123848	0.003132348	-0.041744125	0.025466075	0.0041164556	0.0041582074	0	946.336722312222
0.22908677	0.0075857758	0.16	3.0056298	0.16348931	0.0033069476	-0.04244273	0.026862944	0.0044060609	0.0044459232	0	946.7107620002481
0.22908677	0.0083176377	0.16	3.1117641	0.15614474	0.0034914586	-0.043176962	0.028289517	0.0047058626	0.0047439341	0	947.0985795121492
0.22908677	0.0091201084	0.16	3.222359	0.14918135	0.0036866413	-0.043949207	0.029745442	0.0050162847	0.0050526584	0	947.5008362831405
0.22908677	0.01	0.16	3.3377106	0.1425768	0.0038933511	-0.044762124	0.031230163	0.0053377787	0.005372542	0	947.9182524336887
0.22908677	0.010964782	0.16	3.4581523	0.13630982	0.004112553	-0.045618676	0.032742883	0.0056708269	0.0057040623	0	948.3516148309831
0.22908677	0.012022644	0.16	3.5840612	0.13036021	0.0043453371	-0.046522169	0.034282527	0.0060159465	0.0060477312	0	948.8017860899718
0.22908677	0.013182567	0.16	3.7158636	0.12470871	0.0045929353	-0.047476292	0.03584771	0.0063736938	0.0064041006	0	949.2697154535276
0.22908677	0.014454398	0.16	3.8540419	0.11933704	0.0048567384	-0.048485148	0.037436704	0.0067446697	0.0067737667	0	949.7564498981114
0.22908677	0.015848932	0.16	3.9991408	0.1142278	0.0051383113	-0.049553275	0.039047421	0.0071295254	0.0071573767	0	950.2631458595474
0.22908677	0.017378008	0.16	4.1517731	0.10936448	0.005439406	-0.050685645	0.040677412	0.0075289687	0.0075556342	0	950.791081297042
0.22908677	0.019054607	0.16	4.3126231	0.10473279	0.0057619647	-0.051887629	0.042323911	0.0079437711	0.0079693073	0	951.3416652203764
0.22908677	0.020892961	0.16	4.482421	0.10035005	0.0061080242	-0.053164525	0.043984305	0.0083747741	0.0083992416	0	951.9164185227745
0.22908677	0.022908677	0.16	4.6608642	0.09696503	0.0064760973	-0.054506256	0.04567144	0.0088228676	0.0088465099	0	952.5158750276851
0.22908677	0.025118864	0.16	4.8297281	0.10045893	0.0068058568	-0.055658398	0.047642594	0.0092882865	0.0093127806	0	953.1220301073846
0.22908677	0.027542287	0.16	4.9752916	0.10513144	0.0070527553	-0.056449939	0.050071725	0.0097689195	0.0097945528	0	953.7191797538653
0.22908677	0.030199517	0.16	5.1498833	0.10160512	0.0073929774	-0.057637974	0.052204773	0.010264607	0.010289381	0	954.3595027288394
0.22908677	0.033113112	0.16	5.3672128	0.097571117	0.0078713897	-0.059385981	0.05388139	0.01077997	0.01080376	0	955.0610489470806
0.22908677	0.036307805	0.16	5.5987166	0.093724952	0.0083885163	-0.061250915	0.05554785	0.011317335	0.011340188	0	955.7974428737098
0.22908677	0.039810717	0.16	5.8448028	0.089982792	0.0089448279	-0.063227577	0.05721268	0.011878105	0.011900045	0	956.5704086299352
0.22908677	0.043651583	0.16	6.1057757	0.086330141	0.0095404913	-0.065309362	0.058885919	0.012463727	0.012484777	0	957.3816121027054
0.22908677	0.047863009	0.16	5.9888198	0.079987216	0.0095523187	-0.06618819	0.061879185	0.013078956	0.013098459	0	957.8427037606353
0.22908677	0.052480746	0.16	5.5165755	0.071500881	0.0089917136	-0.066170433	0.065889756	0.013662662	0.013680096	0	957.9188896008924
0.22908677	0.057543994	0.16	5.0858835	0.063761252	0.0084804356	-0.066630048	0.069547441	0.014195009	0.014210555	0	957.9883719618294
0.22908677	0.063095734	0.16	4.6930878	0.056702626	0.0080141445	-0.067539864	0.072883288	0.014680514	0.01469434	0	958.0517404019122
0.22908677	0.069183097	0.16	4.3348539	0.050265083	0.007588882	-0.068875567	0.075925618	0.015123301	0.015135557	0	958.1095333484604
0.22908677	0.075857758	0.16	4.0081406	0.044393973	0.007201038	-0.070615456	0.078700255	0.015527127	0.015537951	0	958.1622410102995
0.22908677	0.083176377	0.16	3.7101746	0.039039458	0.00684732	-0.072740233	0.081230754	0.015895421	0.015904939	0	958.2103109024058
0.22908677	0.091201084	0.16	3.9201612	0.035166675	0.0071032336	-0.075519894	0.083251508	0.016251161	0.016259736	0	958.7545393238436
0.22908677	0.1	0.16	4.7905609	0.032480194	0.0081663026	-0.078670506	0.085050975	0.01667576	0.016683679	0	960.0238768155695
0.22908677	0.10964782	0.16	5.9794505	0.029959256	0.00965359	-0.081880592	0.086945296	0.017200777	0.017208082	0	961.7060546618414
0.22908677	0.12022644	0.16	7.5530148	0.027597281	0.01167925	-0.085213102	0.088876335	0.017860624	0.017867353	0	963.8995885821462
0.22908677	0.13182567	0.16	9.5852476	0.025388482	0.01437504	-0.088746395	0.090770692	0.018696561	0.018702752	0	966.7172390086595
0.22908677	0.14454398	0.16	12.161338	0.023327841	0.017894267	-0.092570654	0.092543303	0.019757617	0.019763305	0	970.2902601765845
0.22908677	0.15848932	0.16	15.382445	0.021411085	0.022417418	-0.096783035	0.094102287	0.02110191	0.02110713	0	974.7744189046191
0.22908677	0.17378008	0.16	19.370977	0.019634624	0.028158684	-0.10148195	0.09535467	0.022798476	0.022803263	0	980.3569848108289
0.22908677	0.19054607	0.16	24.274788	0.017995431	0.035371712	-0.10676066	0.096212805	0.024929572	0.024933959	0	987.2630998140681
0.22908677	0.20892961	0.16	30.268102	0.016490849	0.04435201	-0.11270009	0.096601554	0.027593254	0.027597274	0	995.759117461982
0.22908677	0.22908677	0.16	37.546651	0.015118288	0.055432901	-0.11936084	0.096466265	0.03090578	0.030909466	0	1006.1500006356472
0.22908677	0.25118864	0.16	46.314869	0.01387482	0.068972112	-0.12677488	0.095781147	0.035003164	0.035006547	0	1018.7679800562321
0.22908677	0.27542287	0.16	56.764582	0.012756698	0.085327752	-0.13493796	0.094556766	0.040041046	0.040044156	0	1033.9511109232585
0.22908677	0.30199517	0.16	69.047531	0.011758882	0.10482583	-0.1438053	0.092844455	0.046192141	0.046195008	0	1052.013416910212
0.22908677	0.33113112	0.16	83.247698	0.010874714	0.12772565	-0.15329266	0.090735205	0.053640927	0.053643579	0	1073.212209789131
0.22908677	0.36307805	0.16	99.361476	0.010095858	0.15419226	-0.16328432	0.088351679	0.06257593	0.062578391	0	1097.7210029266266
0.22908677	0.39810717	0.16	117.29245	0.0094125583	0.18428418	-0.17364703	0.085834305	0.073180745	0.07318304	0	1125.615890292256
0.22908677	0.43651583	0.16	136.86267	0.0088141704	0.21795936	-0.18424654	0.083324727	0.085625369	0.085627518	0	1156.8786565701614
0.22908677	0.47863009	0.16	157.83643	0.0082898057	0.25509595	-0.19496263	0.080950798	0.1000593	0.10006132	0	1191.4140359222363
0.22908677	0.52480746	0.16	179.94917	0.0078289434	0.29552051	-0.20569939	0.078816273	0.11660726	0.11660917	0	1229.074667670639
0.22908677	0.57543994	0.16	202.93434	0.0074218884	0.33903584	-0.21638979	0.076996308	0.13536778	0.13536959	0	1269.6865677641003
0.22908677	0.63095734	0.16	226.54387	0.0070600395	0.38544353	-0.2269951	0.075537981	0.15641399	0.15641571	0	1313.0703942987348
0.22908677	0.69183097	0.16	250.56085	0.0067359869	0.43455934	-0.23750115	0.074464105	0.17979619	0.17979783	0	1359.056471243151
0.22908677	0.75857758	0.16	274.8054	0.0064434858	0.48622203	-0.24791296	0.073778533	0.20554518	0.20554675	0	1407.4938823035613
0.22908677	0.83176377	0.16	299.13559	0.0061773558	0.54029712	-0.25824934	0.073471617	0.23367602	0.23367752	0	1458.2548243434592
0.22908677	0.91201084	0.16	323.44505	0.0059333458	0.59667725	-0.2685381	0.073525021	0.2641916	0.26419305	0	1511.235669167627
0.22908677	1.	0.16	347.65906	0.0057079914	0.65528067	-0.27881217	0.073915562	0.297086	0.29708739	0	1566.3561221977407
0.22908677	1.0964782	0.16	371.72991	0.0054984803	0.71604873	-0.28910679	0.074618039	0.33234731	0.33234865	0	1623.5572894482011
0.22908677	1.2022644	0.16	395.63234	0.0053025326	0.77894313	-0.29945759	0.075607191	0.36996011	0.3699614	0	1682.7993880684546
0.22908677	1.3182567	0.16	419.35923	0.0051182992	0.84394319	-0.30989935	0.076858939	0.4099074	0.40990864	0	1744.059368040013
0.22908677	1.4454398	0.16	442.91795	0.0049442771	0.91104333	-0.32046525	0.078351117	0.45217222	0.45217343	0	1807.3286543633349
0.22908677	1.5848932	0.16	466.32716	0.0047792407	0.98025095	-0.33118656	0.080063825	0.49673893	0.4967401	0	1872.6112082459365
0.22908677	1.7378008	0.16	489.6142	0.0046221863	1.0515846	-0.3420925	0.081979551	0.54359415	0.54359528	0	1939.9218260381151
0.22908677	1.9054607	0.16	512.81292	0.0044722873	1.1250723	-0.35321035	0.084083126	0.59272752	0.59272861	0	2009.2845539982907
0.22908677	2.0892961	0.16	535.96195	0.0043288589	1.2007504	-0.3645655	0.086361597	0.64413224	0.6441333	0	2080.731598096538
0.22908677	2.2908677	0.16	559.10337	0.0041913304	1.2786628	-0.37618173	0.088804054	0.69780548	0.6978065	0	2154.3025651464486
0.22908677	2.5118864	0.16	582.28155	0.0040592221	1.3588594	-0.38808135	0.091401429	0.75374864	0.75374963	0	2230.0429762624117
0.22908677	2.7542287	0.16	605.5424	0.0039321279	1.4413962	-0.40028544	0.09414631	0.81196759	0.81196855	0	2308.004332854687
0.22908677	3.0199517	0.16	628.93265	0.0038097015	1.5263343	-0.41281404	0.097032746	0.8724727	0.87247362	0	2388.2431477496175
0.22908677	3.3113112	0.16	652.49939	0.0036916446	1.6137394	-0.42568635	0.10005608	0.93527896	0.93527986	0	2470.8204503017623
0.22908677	3.6307805	0.16	676.28973	0.0035776984	1.7036819	-0.43892085	0.1032128	1.000406	1.0004069	0	2555.801857951202
0.22908677	3.9810717	0.16	700.3505	0.003467636	1.7962363	-0.45253553	0.10650038	1.067878	1.0678789	0	2643.256988581778
0.22908677	4.3651583	0.16	724.7281	0.0033612573	1.8914811	-0.46654794	0.10991719	1.1377238	1.1377246	0	2733.2593530348236
0.22908677	4.7863009	0.16	749.46836	0.0032583838	1.9894983	-0.48097537	0.11346237	1.2099767	1.2099775	0	2825.885866384846
0.22908677	5.2480746	0.16	774.6165	0.0031588551	2.090374	-0.49583495	0.11713575	1.2846744	1.2846752	0	2921.217399652302
0.22908677	5.7543994	0.16	800.21708	0.0030625259	2.1941977	-0.51114369	0.12093777	1.3618592	1.3618599	0	3019.338110081418
0.22908677	6.3095734	0.16	826.31401	0.002969264	2.3010625	-0.52691865	0.1248694	1.4415775	1.4415782	0	3120.3356170268207
0.22908677	6.9183097	0.16	852.95058	0.0028789473	2.4110649	-0.54317692	0.1289321	1.5238801	1.5238808	0	3224.300808027252
0.22908677	7.5857758	0.16	880.1695	0.0027914634	2.5243053	-0.55993577	0.13312778	1.608822	1.6088227	0	3331.3283025750225
0.22908677	8.3176377	0.16	908.01295	0.0027067074	2.6408871	-0.57721266	0.13745873	1.6964624	1.6964631	0	3441.515595984066
0.22908677	9.1201084	0.16	936.52266	0.0026245813	2.7609178	-0.5950253	0.1419276	1.7868646	1.7868652	0	3554.9640899052156
0.22908677	10.	0.16	965.73998	0.002544993	2.8845081	-0.61339171	0.14653737	1.8800958	1.8800964	0	3671.7782422074756