0.17378008	1.e-12	0.13	39.889758	1078.0838	-0.0032889149	-0.016697117	-0.016696807	-0.047915044	0.15148513	0	934.4357931501924
0.17378008	1.0964782e-12	0.13	36.389945	984.34142	-0.0032718797	-0.016742022	-0.016741682	-0.044178915	0.13788286	0	934.4463176444823
0.17378008	1.2022644e-12	0.13	33.19808	898.84208	-0.0032548444	-0.016786928	-0.016786555	-0.040770541	0.12547745	0	934.4568424770155
0.17378008	1.3182567e-12	0.13	30.287063	820.86041	-0.0032378092	-0.016831836	-0.016831426	-0.03766108	0.11416358	0	934.4673674598791
0.17378008	1.4454398e-12	0.13	27.632185	749.73496	-0.0032207739	-0.016876745	-0.016876296	-0.034824233	0.10384521	0	934.4778926588428
0.17378008	1.5848932e-12	0.13	25.210907	684.86247	-0.0032037387	-0.016921655	-0.016921163	-0.032236011	0.094434748	0	934.4884181302806
0.17378008	1.7378008e-12	0.13	23.002676	625.69273	-0.0031867034	-0.016966568	-0.016966028	-0.02987454	0.085852306	0	934.4989439399619
0.17378008	1.9054607e-12	0.13	20.988746	571.72397	-0.0031696681	-0.017011482	-0.01701089	-0.027719867	0.078025029	0	934.5094701160737
0.17378008	2.0892961e-12	0.13	19.152021	522.49856	-0.0031526329	-0.017056397	-0.017055748	-0.025753796	0.070886469	0	934.5199966868029
0.17378008	2.2908677e-12	0.13	17.476907	477.59914	-0.0031355976	-0.017101314	-0.017100603	-0.023959731	0.064376027	0	934.530523717919
0.17378008	2.5118864e-12	0.13	15.949186	436.64506	-0.0031185624	-0.017146234	-0.017145453	-0.02232254	0.058438436	0	934.5410512657961
0.17378008	2.7542287e-12	0.13	14.555888	399.28918	-0.0031015271	-0.017191154	-0.017190299	-0.020828417	0.053023293	0	934.5515793962037
0.17378008	3.0199517e-12	0.13	13.285187	365.21491	-0.0030844919	-0.017236077	-0.017235139	-0.019464775	0.048084628	0	934.5621081655158
0.17378008	3.3113112e-12	0.13	12.126293	334.1335	-0.0030674566	-0.017281002	-0.017279974	-0.018220133	0.043580515	0	934.5726376395021
0.17378008	3.6307805e-12	0.13	11.069371	305.7816	-0.0030504213	-0.017325929	-0.017324801	-0.01708402	0.039472719	0	934.583168090636
0.17378008	3.9810717e-12	0.13	10.105447	279.91906	-0.0030333861	-0.017370858	-0.017369622	-0.016046886	0.035726371	0	934.5936991806747
0.17378008	4.3651583e-12	0.13	9.226339	256.32684	-0.0030163508	-0.017415789	-0.017414434	-0.015100022	0.032309666	0	934.6042314639611
0.17378008	4.7863009e-12	0.13	8.424584	234.80518	-0.0029993156	-0.017460723	-0.017459236	-0.014235486	0.029193599	0	934.614764874726
0.17378008	5.2480746e-12	0.13	7.693376	215.17189	-0.0029822803	-0.017505658	-0.017504028	-0.013446033	0.02635172	0	934.6252996008825
0.17378008	5.7543994e-12	0.13	7.0265078	197.26083	-0.0029652451	-0.017550596	-0.017548809	-0.012725057	0.023759903	0	934.635835576661
0.17378008	6.3095734e-12	0.13	6.4183181	180.92045	-0.0029482098	-0.017595537	-0.017593577	-0.012066532	0.021396145	0	934.6463732342611
0.17378008	6.9183097e-12	0.13	5.8636443	166.01257	-0.0029311746	-0.01764048	-0.017638331	-0.011464963	0.019240382	0	934.6569125079138
0.17378008	7.5857758e-12	0.13	5.3577775	152.41113	-0.0029141393	-0.017685426	-0.01768307	-0.010915338	0.017274313	0	934.6674537076756
0.17378008	8.3176377e-12	0.13	4.8964235	140.0012	-0.002897104	-0.017730374	-0.017727791	-0.010413088	0.015481247	0	934.6779971060203
0.17378008	9.1201084e-12	0.13	4.475666	128.67793	-0.0028800688	-0.017775325	-0.017772493	-0.0099540423	0.013845964	0	934.6885427311345
0.17378008	1.e-11	0.13	4.091933	118.34571	-0.0028630335	-0.017820279	-0.017817173	-0.0095344001	0.012354581	0	934.6990911373625
0.17378008	1.0964782e-11	0.13	3.741967	108.91736	-0.0028459983	-0.017865236	-0.017861831	-0.0091506938	0.010994438	0	934.7096421367909
0.17378008	1.2022644e-11	0.13	3.4227974	100.31335	-0.0028289631	-0.017910196	-0.017906462	-0.0087997614	0.0097539897	0	934.7201964340935
0.17378008	1.3182567e-11	0.13	3.1317145	92.461142	-0.0028119278	-0.017955159	-0.017951065	-0.0084787187	0.0086227049	0	934.7307542453707
0.17378008	1.4454398e-11	0.13	2.8662474	85.294606	-0.0027948926	-0.018000125	-0.017995636	-0.0081849353	0.0075909804	0	934.741315871283
0.17378008	1.5848932e-11	0.13	2.6241426	78.753414	-0.0027778574	-0.018045095	-0.018040173	-0.0079160124	0.0066500579	0	934.7518816500742
0.17378008	1.7378008e-11	0.13	2.4033448	72.782553	-0.0027608222	-0.018090068	-0.018084671	-0.007669762	0.0057919499	0	934.7624521924618
0.17378008	1.9054607e-11	0.13	2.2019798	67.331849	-0.0027437871	-0.018135044	-0.018129127	-0.007444189	0.0050093719	0	934.7730277709196
0.17378008	2.0892961e-11	0.13	2.018338	62.355543	-0.002726752	-0.018180024	-0.018173536	-0.0072374732	0.0042956804	0	934.7836090901216
0.17378008	2.2908677e-11	0.13	1.8508608	57.811907	-0.002709717	-0.018225008	-0.018217894	-0.007047955	0.003644817	0	934.7941965446855
0.17378008	2.5118864e-11	0.13	1.6981261	53.662879	-0.0026926821	-0.018269995	-0.018262196	-0.0068741204	0.0030512559	0	934.8047907453288
0.17378008	2.7542287e-11	0.13	1.5588376	49.873752	-0.0026756474	-0.018314986	-0.018306435	-0.006714589	0.0025099581	0	934.8153924530988
0.17378008	3.0199517e-11	0.13	1.4318128	46.412869	-0.0026586129	-0.018359981	-0.018350605	-0.0065681014	0.0020163278	0	934.8260024008573
0.17378008	3.3113112e-11	0.13	1.3159733	43.251358	-0.0026415789	-0.018404979	-0.0183947	-0.0064335091	0.0015661736	0	934.8366210395949
0.17378008	3.6307805e-11	0.13	1.2103356	40.362886	-0.0026245454	-0.018449981	-0.018438711	-0.0063097645	0.0011556722	0	934.8472494686038
0.17378008	3.9810717e-11	0.13	1.1140028	37.72343	-0.0026075129	-0.018494986	-0.01848263	-0.0061959124	0.00078133605	0	934.8578881952487
0.17378008	4.3651583e-11	0.13	1.0261568	35.311075	-0.0025904819	-0.018539993	-0.018526447	-0.0060910811	0.00043998307	0	934.8685379711824
0.17378008	4.7863009e-11	0.13	0.94605149	33.105818	-0.0025734531	-0.018585001	-0.01857015	-0.005994476	0.00012870839	0	934.8791996044306
0.17378008	5.2480746e-11	0.13	0.87300612	31.089393	-0.0025564279	-0.018630007	-0.018613727	-0.005905372	-0.00015514153	0	934.889873245324
0.17378008	5.7543994e-11	0.13	0.80639939	29.245101	-0.0025394084	-0.01867501	-0.018657163	-0.0058231081	-0.0004139941	0	934.9005587529277
0.17378008	6.3095734e-11	0.13	0.745664	27.557647	-0.0025223977	-0.018720002	-0.018700439	-0.0057470814	-0.00065007538	0	934.9112555353158
0.17378008	6.9183097e-11	0.13	0.69028074	26.012931	-0.0025054021	-0.018764972	-0.01874353	-0.0056767419	-0.0008654435	0	934.9219607268135
0.17378008	7.5857758e-11	0.13	0.63976702	24.597324	-0.0024884423	-0.018809875	-0.018786374	-0.005611589	-0.0010621183	0	934.9326624513153
0.17378008	8.3176377e-11	0.13	0.59359687	23.291187	-0.0024716782	-0.018854321	-0.018828565	-0.0055511697	-0.0012432794	0	934.9432600625806
0.17378008	9.1201084e-11	0.13	0.55063539	22.021532	-0.0024563366	-0.018895257	-0.018867032	-0.0054951042	-0.0014220466	0	934.9529760045128
0.17378008	1.e-10	0.13	0.50889363	20.641973	-0.0024452221	-0.018925776	-0.018894851	-0.0054431794	-0.0016252823	0	934.960020893694
0.17378008	1.0964782e-10	0.13	0.46875359	19.204524	-0.0024374867	-0.018948414	-0.018914534	-0.0053952808	-0.0018432513	0	934.9648846570806
0.17378008	1.2022644e-10	0.13	0.43159683	17.843161	-0.002430456	-0.018970693	-0.018933582	-0.0053511797	-0.0020509451	0	934.9691638698845
0.17378008	1.3182567e-10	0.13	0.39844228	16.659044	-0.0024216532	-0.019000715	-0.018960074	-0.0053105337	-0.0022293109	0	934.9741988502648
0.17378008	1.4454398e-10	0.13	0.37026836	15.74789	-0.0024083199	-0.019048284	-0.019003787	-0.005272897	-0.0023601996	0	934.9813870983271
0.17378008	1.5848932e-10	0.13	0.34601393	15.032018	-0.0023918672	-0.019107745	-0.019059041	-0.0052378127	-0.0024575214	0	934.9900965684608
0.17378008	1.7378008e-10	0.13	0.32417439	14.395864	-0.0023748835	-0.019169231	-0.019115939	-0.0052049815	-0.002542352	0	934.9991041438884
0.17378008	1.9054607e-10	0.13	0.30432439	13.814185	-0.0023578528	-0.019230904	-0.019172614	-0.0051741917	-0.0026191483	0	935.0081831168874
0.17378008	2.0892961e-10	0.13	0.28627315	13.280636	-0.0023408179	-0.019292599	-0.019228874	-0.0051452583	-0.002688899	0	935.0173167256112
0.17378008	2.2908677e-10	0.13	0.26986425	12.790911	-0.0023237827	-0.019354304	-0.019284673	-0.0051180127	-0.0027522319	0	935.026506924356
0.17378008	2.5118864e-10	0.13	0.25495648	12.341207	-0.0023067475	-0.019416017	-0.019339982	-0.005092301	-0.0028096966	0	935.0357569734138
0.17378008	2.7542287e-10	0.13	0.24142108	11.928062	-0.0022897122	-0.019477738	-0.019394772	-0.0050679823	-0.0028617924	0	935.0450705089022
0.17378008	3.0199517e-10	0.13	0.22914047	11.548311	-0.0022726769	-0.019539467	-0.019449015	-0.0050449281	-0.0029089761	0	935.0544508568827
0.17378008	3.3113112e-10	0.13	0.21800709	11.19906	-0.0022556417	-0.019601205	-0.019502686	-0.0050230206	-0.0029516654	0	935.0639009769859
0.17378008	3.6307805e-10	0.13	0.20792244	10.877654	-0.0022386064	-0.019662953	-0.019555766	-0.0050021523	-0.0029902437	0	935.0734233778518
0.17378008	3.9810717e-10	0.13	0.19879618	10.581657	-0.0022215711	-0.019724709	-0.019608237	-0.004982225	-0.0030250633	0	935.0830201641062
0.17378008	4.3651583e-10	0.13	0.19054529	10.308828	-0.0022045358	-0.019786476	-0.019660087	-0.0049631487	-0.0030564489	0	935.0926928014713
0.17378008	4.7863009e-10	0.13	0.18309335	10.057102	-0.0021875005	-0.019848252	-0.019711313	-0.0049448415	-0.0030847005	0	935.1024416563777
0.17378008	5.2480746e-10	0.13	0.17636988	9.8245736	-0.0021704652	-0.019910038	-0.019761915	-0.0049272285	-0.0031100955	0	935.1122667288253
0.17378008	5.7543994e-10	0.13	0.17030984	9.6094825	-0.0021534299	-0.019971835	-0.019811901	-0.0049102415	-0.0031328913	0	935.1221670416661
0.17378008	6.3095734e-10	0.13	0.16485311	9.4102022	-0.0021363946	-0.020033643	-0.019861286	-0.0048938186	-0.0031533269	0	935.1321407627476
0.17378008	6.9183097e-10	0.13	0.15994419	9.2252295	-0.0021193593	-0.020095462	-0.019910092	-0.0048779033	-0.0031716237	0	935.1421852049131
0.17378008	7.5857758e-10	0.13	0.15553183	9.0531771	-0.002102324	-0.020157293	-0.019958343	-0.0048624445	-0.0031879874	0	935.1522974367186
0.17378008	8.3176377e-10	0.13	0.15156882	8.8927679	-0.0020852886	-0.020219135	-0.02000607	-0.0048473958	-0.0032026076	0	935.1624737656723
0.17378008	9.1201084e-10	0.13	0.1480118	8.7428293	-0.0020682533	-0.02028099	-0.020053307	-0.0048327154	-0.0032156595	0	935.1727098509822
0.17378008	1.e-9	0.13	0.14482105	8.6022885	-0.0020512179	-0.020342858	-0.020100086	-0.0048183653	-0.0032273037	0	935.1830019719696
0.17378008	1.0964782e-9	0.13	0.14196035	8.4701683	-0.0020341826	-0.020404738	-0.020146443	-0.0048043116	-0.0032376866	0	935.1933455435554
0.17378008	1.2022644e-9	0.13	0.13939679	8.3455823	-0.0020171472	-0.020466633	-0.02019241	-0.0047905235	-0.0032469417	0	935.2037368450613
0.17378008	1.3182567e-9	0.13	0.13710059	8.22773	-0.0020001118	-0.020528541	-0.020238018	-0.0047769734	-0.0032551893	0	935.2141719960819
0.17378008	1.4454398e-9	0.13	0.13504493	8.1158912	-0.0019830764	-0.020590463	-0.020283297	-0.0047636364	-0.0032625378	0	935.2246473323127
0.17378008	1.5848932e-9	0.13	0.13320573	8.0094208	-0.001966041	-0.0206524	-0.020328271	-0.00475049	-0.0032690839	0	935.2351599223093
0.17378008	1.7378008e-9	0.13	0.13156144	7.9077425	-0.0019490056	-0.020714353	-0.020372961	-0.0047375143	-0.0032749144	0	935.2457072010588
0.17378008	1.9054607e-9	0.13	0.13009286	7.810343	-0.0019319702	-0.020776321	-0.020417385	-0.004724691	-0.0032801059	0	935.2562869699781
0.17378008	2.0892961e-9	0.13	0.12878292	7.7167664	-0.0019149347	-0.020838305	-0.020461558	-0.0047120037	-0.0032847264	0	935.2668974908712
0.17378008	2.2908677e-9	0.13	0.12761647	7.6266085	-0.0018978993	-0.020900306	-0.020505488	-0.0046994377	-0.0032888358	0	935.2775375986776
0.17378008	2.5118864e-9	0.13	0.12658011	7.539511	-0.0018808638	-0.020962325	-0.020549183	-0.0046869796	-0.0032924871	0	935.2882065041615
0.17378008	2.7542287e-9	0.13	0.12566199	7.455157	-0.0018638283	-0.021024361	-0.020592647	-0.0046746171	-0.0032957266	0	935.2989036247931
0.17378008	3.0199517e-9	0.13	0.12485169	7.3732663	-0.0018467927	-0.021086416	-0.020635879	-0.0046623394	-0.0032985951	0	935.309629176672
0.17378008	3.3113112e-9	0.13	0.12414003	7.2935915	-0.0018297572	-0.021148489	-0.020678876	-0.0046501361	-0.0033011284	0	935.3203833383159
0.17378008	3.6307805e-9	0.13	0.12351896	7.2159134	-0.0018127216	-0.021210583	-0.020721635	-0.0046379981	-0.0033033575	0	935.3311666640682
0.17378008	3.9810717e-9	0.13	0.1229814	7.1400387	-0.001795686	-0.021272696	-0.020764146	-0.0046259168	-0.0033053099	0	935.3419802814076
0.17378008	4.3651583e-9	0.13	0.12252121	7.0657962	-0.0017786503	-0.02133483	-0.0208064	-0.0046138844	-0.0033070092	0	935.3528253835817
0.17378008	4.7863009e-9	0.13	0.12213302	6.9930348	-0.0017616146	-0.021396986	-0.020848385	-0.0046018935	-0.0033084761	0	935.3637033423561
0.17378008	5.2480746e-9	0.13	0.12181216	6.9216204	-0.0017445789	-0.021459163	-0.020890085	-0.0045899374	-0.0033097286	0	935.3746161120267
0.17378008	5.7543994e-9	0.13	0.12155461	6.8514345	-0.0017275431	-0.021521364	-0.020931486	-0.0045780095	-0.0033107822	0	935.3855654965591
0.17378008	6.3095734e-9	0.13	0.1213569	6.7823723	-0.0017105073	-0.021583588	-0.020972568	-0.004566104	-0.0033116503	0	935.3965538448664
0.17378008	6.9183097e-9	0.13	0.12121606	6.7143406	-0.0016934714	-0.021645837	-0.021013313	-0.004554215	-0.0033123443	0	935.4075834494885
0.17378008	7.5857758e-9	0.13	0.12112957	6.6472572	-0.0016764355	-0.02170811	-0.021053699	-0.0045423371	-0.003312874	0	935.4186569036251
0.17378008	8.3176377e-9	0.13	0.12109532	6.5810487	-0.0016593994	-0.02177041	-0.021093703	-0.0045304652	-0.0033132479	0	935.4297772044904
0.17378008	9.1201084e-9	0.13	0.12111151	6.5156502	-0.0016423634	-0.021832736	-0.021133301	-0.0045185941	-0.0033134728	0	935.4409470016581
0.17378008	1.e-8	0.13	0.12117671	6.451004	-0.0016253272	-0.02189509	-0.021172468	-0.0045067191	-0.0033135546	0	935.4521696305856
0.17378008	1.0964782e-8	0.13	0.1212897	6.3870586	-0.001608291	-0.021957472	-0.021211177	-0.0044948352	-0.0033134979	0	935.4634482012339
0.17378008	1.2022644e-8	0.13	0.12144955	6.3237681	-0.0015912546	-0.022019883	-0.0212494	-0.004482938	-0.0033133068	0	935.4747863215341
0.17378008	1.3182567e-8	0.13	0.1216555	6.2610917	-0.0015742182	-0.022082325	-0.021287108	-0.0044710228	-0.0033129841	0	935.4861873457346
0.17378008	1.4454398e-8	0.13	0.121907	6.1989925	-0.0015571816	-0.022144798	-0.021324272	-0.0044590853	-0.0033125324	0	935.4976550039097
0.17378008	1.5848932e-8	0.13	0.12220366	6.137438	-0.001540145	-0.022207303	-0.021360861	-0.0044471209	-0.0033119529	0	935.5091928945945
0.17378008	1.7378008e-8	0.13	0.12254519	6.0763981	-0.0015231081	-0.022269842	-0.021396842	-0.0044351251	-0.003311247	0	935.5208053303944
0.17378008	1.9054607e-8	0.13	0.12293145	6.0158462	-0.0015060712	-0.022332414	-0.021432184	-0.0044230938	-0.0033104152	0	935.5324958158878
0.17378008	2.0892961e-8	0.13	0.1233624	5.955758	-0.0014890341	-0.022395023	-0.021466854	-0.0044110223	-0.0033094575	0	935.5442685697233
0.17378008	2.2908677e-8	0.13	0.12383804	5.8961111	-0.0014719968	-0.022457668	-0.021500817	-0.0043989064	-0.0033083738	0	935.5561278669234
0.17378008	2.5118864e-8	0.13	0.12435849	5.836885	-0.0014549593	-0.02252035	-0.021534039	-0.0043867418	-0.0033071634	0	935.5680778603664
0.17378008	2.7542287e-8	0.13	0.12492389	5.7780612	-0.0014379216	-0.022583072	-0.021566485	-0.0043745238	-0.0033058255	0	935.580122825075
0.17378008	3.0199517e-8	0.13	0.12553446	5.7196219	-0.0014208836	-0.022645834	-0.02159812	-0.0043622483	-0.0033043587	0	935.5922671300282
0.17378008	3.3113112e-8	0.13	0.12619044	5.6615509	-0.0014038454	-0.022708637	-0.021628908	-0.0043499107	-0.0033027618	0	935.6045150784352
0.17378008	3.6307805e-8	0.13	0.12689212	5.6038328	-0.0013868069	-0.022771484	-0.021658811	-0.0043375065	-0.0033010331	0	935.6168714057051
0.17378008	3.9810717e-8	0.13	0.12763982	5.5464532	-0.0013697681	-0.022834374	-0.021687794	-0.0043250313	-0.0032991706	0	935.6293403868608
0.17378008	4.3651583e-8	0.13	0.12843389	5.4893984	-0.001352729	-0.022897311	-0.021715819	-0.0043124805	-0.0032971726	0	935.6419266633545
0.17378008	4.7863009e-8	0.13	0.1292747	5.4326554	-0.0013356895	-0.022960295	-0.021742848	-0.0042998496	-0.0032950368	0	935.6546349705959
0.17378008	5.2480746e-8	0.13	0.13016268	5.3762117	-0.0013186496	-0.023023328	-0.021768841	-0.004287134	-0.0032927609	0	935.6674701943249
0.17378008	5.7543994e-8	0.13	0.13109826	5.3200552	-0.0013016092	-0.023086411	-0.021793761	-0.0042743289	-0.0032903424	0	935.6804369478072
0.17378008	6.3095734e-8	0.13	0.13208191	5.2641746	-0.0012845684	-0.023149546	-0.021817568	-0.0042614299	-0.0032877789	0	935.693540022826
0.17378008	6.9183097e-8	0.13	0.13311416	5.2085588	-0.001267527	-0.023212736	-0.02184022	-0.004248432	-0.0032850676	0	935.7067847373215
0.17378008	7.5857758e-8	0.13	0.13419554	5.1531971	-0.0012504851	-0.023275981	-0.021861678	-0.0042353305	-0.0032822057	0	935.7201757609332
0.17378008	8.3176377e-8	0.13	0.13532666	5.0980794	-0.0012334425	-0.023339283	-0.0218819	-0.0042221206	-0.0032791903	0	935.733718411601
0.17378008	9.1201084e-8	0.13	0.13650814	5.0431958	-0.0012163992	-0.023402646	-0.021900843	-0.0042087974	-0.0032760182	0	935.7474179414955
0.17378008	1.e-7	0.13	0.13774067	4.9885367	-0.0011993551	-0.023466069	-0.021918464	-0.0041953558	-0.0032726863	0	935.7612796967433
0.17378008	1.0964782e-7	0.13	0.13902499	4.934093	-0.0011823101	-0.023529557	-0.021934718	-0.0041817909	-0.0032691911	0	935.7753092677582
0.17378008	1.2022644e-7	0.13	0.14036188	4.8798559	-0.0011652643	-0.02359311	-0.021949561	-0.0041680975	-0.0032655293	0	935.7895119348975
0.17378008	1.3182567e-7	0.13	0.1417522	4.8258169	-0.0011482174	-0.023656731	-0.021962947	-0.0041542704	-0.0032616972	0	935.8038935986317
0.17378008	1.4454398e-7	0.13	0.14319685	4.7719678	-0.0011311694	-0.023720423	-0.021974827	-0.0041403044	-0.003257691	0	935.8184602439919
0.17378008	1.5848932e-7	0.13	0.1446968	4.718301	-0.0011141202	-0.023784188	-0.021985154	-0.0041261941	-0.0032535068	0	935.8332177056791
0.17378008	1.7378008e-7	0.13	0.1462531	4.6648088	-0.0010970696	-0.023848028	-0.021993877	-0.004111934	-0.0032491405	0	935.8481724009246
0.17378008	1.9054607e-7	0.13	0.14786684	4.6114842	-0.0010800176	-0.023911947	-0.022000946	-0.0040975185	-0.0032445879	0	935.8633304369031
0.17378008	2.0892961e-7	0.13	0.14953922	4.5583203	-0.0010629639	-0.023975946	-0.022006309	-0.004082942	-0.0032398444	0	935.8786984469459
0.17378008	2.2908677e-7	0.13	0.15127147	4.5053105	-0.0010459085	-0.02404003	-0.022009912	-0.0040681987	-0.0032349056	0	935.8942830268022
0.17378008	2.5118864e-7	0.13	0.15306493	4.4524488	-0.0010288512	-0.0241042	-0.022011699	-0.0040532824	-0.0032297666	0	935.9100912044203
0.17378008	2.7542287e-7	0.13	0.154921	4.399729	-0.0010117917	-0.024168461	-0.022011615	-0.0040381874	-0.0032244225	0	935.9261299795621
0.17378008	3.0199517e-7	0.13	0.15684117	4.3471456	-0.00099472984	-0.024232814	-0.022009599	-0.0040229073	-0.0032188681	0	935.9424069533115
0.17378008	3.3113112e-7	0.13	0.15882699	4.2946932	-0.00097766546	-0.024297265	-0.022005594	-0.0040074357	-0.0032130981	0	935.9589292381784
0.17378008	3.6307805e-7	0.13	0.16088011	4.2423668	-0.00096059827	-0.024361816	-0.021999536	-0.0039917662	-0.0032071067	0	935.97570492382
0.17378008	3.9810717e-7	0.13	0.16300226	4.1901616	-0.000943528	-0.024426472	-0.021991363	-0.003975892	-0.0032008883	0	935.9927418368159
0.17378008	4.3651583e-7	0.13	0.16519526	4.1380728	-0.00092645437	-0.024491235	-0.021981008	-0.0039598064	-0.0031944369	0	936.0100484238583
0.17378008	4.7863009e-7	0.13	0.16746101	4.0860964	-0.00090937704	-0.024556112	-0.021968406	-0.0039435023	-0.0031877462	0	936.0276329437271
0.17378008	5.2480746e-7	0.13	0.16980151	4.034228	-0.00089229565	-0.024621105	-0.021953486	-0.0039269724	-0.0031808098	0	936.0455044068539
0.17378008	5.7543994e-7	0.13	0.17221883	3.982464	-0.00087520981	-0.024686219	-0.021936178	-0.0039102092	-0.0031736209	0	936.0636717297137
0.17378008	6.3095734e-7	0.13	0.17471516	3.9308007	-0.0008581191	-0.02475146	-0.021916408	-0.0038932053	-0.0031661724	0	936.0821443455426
0.17378008	6.9183097e-7	0.13	0.17729277	3.8792346	-0.00084102305	-0.024816832	-0.021894101	-0.0038759527	-0.0031584574	0	936.1009318566986
0.17378008	7.5857758e-7	0.13	0.17995404	3.8277626	-0.00082392115	-0.02488234	-0.021869179	-0.0038584434	-0.0031504683	0	936.1200442695526
0.17378008	8.3176377e-7	0.13	0.18270143	3.7763816	-0.00080681281	-0.024947991	-0.021841562	-0.003840669	-0.0031421971	0	936.139491909928
0.17378008	9.1201084e-7	0.13	0.18553753	3.7250888	-0.00078969743	-0.025013791	-0.021811168	-0.0038226209	-0.0031336361	0	936.1592853573302
0.17378008	1.e-6	0.13	0.18846501	3.6738816	-0.00077257434	-0.025079745	-0.021777912	-0.0038042904	-0.0031247768	0	936.1794356234655
0.17378008	1.0964782e-6	0.13	0.19148668	3.6227577	-0.00075544277	-0.02514586	-0.021741708	-0.0037856683	-0.0031156104	0	936.1999539361398
0.17378008	1.2022644e-6	0.13	0.19460544	3.5717146	-0.00073830192	-0.025212143	-0.021702465	-0.0037667452	-0.0031061282	0	936.2208521620631
0.17378008	1.3182567e-6	0.13	0.19782432	3.5207504	-0.00072115089	-0.025278603	-0.021660091	-0.0037475116	-0.0030963208	0	936.2421423840461
0.17378008	1.4454398e-6	0.13	0.20114646	3.4698631	-0.00070398871	-0.025345246	-0.021614492	-0.0037279573	-0.0030861785	0	936.263836994956
0.17378008	1.5848932e-6	0.13	0.20457513	3.4190512	-0.00068681429	-0.02541208	-0.02156557	-0.0037080722	-0.0030756915	0	936.2859489889812
0.17378008	1.7378008e-6	0.13	0.20811373	3.3683129	-0.00066962646	-0.025479116	-0.021513225	-0.0036878457	-0.0030648495	0	936.3084916797628
0.17378008	1.9054607e-6	0.13	0.21176581	3.317647	-0.00065242392	-0.025546362	-0.021457352	-0.0036672667	-0.0030536415	0	936.331479113803
0.17378008	2.0892961e-6	0.13	0.21553504	3.2670523	-0.00063520525	-0.025613828	-0.021397847	-0.003646324	-0.0030420567	0	936.3549253282076
0.17378008	2.2908677e-6	0.13	0.21942524	3.2165279	-0.00061796891	-0.025681525	-0.0213346	-0.0036250059	-0.0030300835	0	936.3788452056923
0.17378008	2.5118864e-6	0.13	0.22344038	3.1660728	-0.0006007132	-0.025749465	-0.021267498	-0.0036033004	-0.0030177101	0	936.4032541457331
0.17378008	2.7542287e-6	0.13	0.22758461	3.1156867	-0.00058343625	-0.025817658	-0.021196427	-0.0035811951	-0.003004924	0	936.4281678296754
0.17378008	3.0199517e-6	0.13	0.23186222	3.0653689	-0.00056613601	-0.02588612	-0.021121268	-0.0035586769	-0.0029917126	0	936.4536027187044
0.17378008	3.3113112e-6	0.13	0.23627767	3.0151194	-0.00054881023	-0.025954862	-0.0210419	-0.0035357328	-0.0029780624	0	936.479575706205
0.17378008	3.6307805e-6	0.13	0.24083564	2.9649382	-0.00053145648	-0.026023901	-0.020958197	-0.0035123488	-0.0029639599	0	936.5061044654013
0.17378008	3.9810717e-6	0.13	0.24554095	2.9148256	-0.00051407204	-0.026093252	-0.020870032	-0.0034885108	-0.0029493906	0	936.5332070641354
0.17378008	4.3651583e-6	0.13	0.25039865	2.8647821	-0.00049665398	-0.026162931	-0.020777272	-0.0034642042	-0.0029343399	0	936.5609025004181
0.17378008	4.7863009e-6	0.13	0.25541399	2.8148084	-0.00047919906	-0.026232957	-0.020679784	-0.0034394136	-0.0029187924	0	936.5892100635264
0.17378008	5.2480746e-6	0.13	0.26059245	2.7649056	-0.00046170374	-0.02630335	-0.020577427	-0.0034141236	-0.0029027323	0	936.6181503017546
0.17378008	5.7543994e-6	0.13	0.26593972	2.7150749	-0.00044416414	-0.02637413	-0.020470062	-0.0033883176	-0.0028861429	0	936.6477438385617
0.17378008	6.3095734e-6	0.13	0.27146174	2.6653181	-0.000426576	-0.02644532	-0.02035754	-0.003361979	-0.0028690072	0	936.6780128758774
0.17378008	6.9183097e-6	0.13	0.27716473	2.6156371	-0.00040893468	-0.026516944	-0.020239715	-0.0033350902	-0.0028513073	0	936.7089796062348
0.17378008	7.5857758e-6	0.13	0.28305514	2.5660341	-0.00039123506	-0.026589028	-0.020116433	-0.0033076332	-0.0028330248	0	936.7406676503072
0.17378008	8.3176377e-6	0.13	0.28913973	2.5165119	-0.00037347156	-0.026661601	-0.019987539	-0.0032795893	-0.0028141404	0	936.7731011831108
0.17378008	9.1201084e-6	0.13	0.29542556	2.4670736	-0.00035563806	-0.026734691	-0.019852871	-0.0032509393	-0.0027946344	0	936.8063057420321
0.17378008	0.00001	0.13	0.30192	2.4177227	-0.00033772785	-0.026808333	-0.019712268	-0.0032216628	-0.0027744858	0	936.8403072966572
0.17378008	0.000010964782	0.13	0.30863077	2.3684632	-0.0003197336	-0.02688256	-0.019565562	-0.0031917391	-0.002753673	0	936.8751332541073
0.17378008	0.000012022644	0.13	0.31556592	2.3192995	-0.00030164728	-0.026957411	-0.019412582	-0.0031611467	-0.0027321738	0	936.9108120456299
0.17378008	0.000013182567	0.13	0.32273391	2.2702368	-0.00028346009	-0.027032927	-0.019253156	-0.0031298631	-0.0027099648	0	936.9473729480811
0.17378008	0.000014454398	0.13	0.33014358	2.2212806	-0.0002651624	-0.027109152	-0.019087105	-0.0030978651	-0.0026870216	0	936.9848468731617
0.17378008	0.000015848932	0.13	0.3378042	2.1724372	-0.00024674368	-0.027186133	-0.018914249	-0.0030651285	-0.002663319	0	937.0232657003231
0.17378008	0.000017378008	0.13	0.3457255	2.1237135	-0.00022819242	-0.027263923	-0.018734405	-0.0030316283	-0.0026388306	0	937.0626625962226
0.17378008	0.000019054607	0.13	0.35391769	2.0751171	-0.000209496	-0.027342577	-0.018547385	-0.0029973384	-0.0026135289	0	937.1030723811521
0.17378008	0.000020892961	0.13	0.36117602	2.0266282	-0.0001955559	-0.027404252	-0.018335094	-0.0029635256	-0.0025886846	0	937.1420999808909
0.17378008	0.000022908677	0.13	0.36982545	1.9783101	-0.0001770005	-0.027483095	-0.018131423	-0.0029276988	-0.0025617946	0	937.1844110796582
0.17378008	0.000025118864	0.13	0.37876827	1.9301471	-0.00015830032	-0.027562832	-0.017919831	-0.0028910098	-0.0025340137	0	937.2278257073248
0.17378008	0.000027542287	0.13	0.38801583	1.8821502	-0.00013944173	-0.027643526	-0.017700106	-0.0028534293	-0.0025053106	0	937.2723825645874
0.17378008	0.000030199517	0.13	0.39758005	1.8343317	-0.00012040992	-0.02772524	-0.017472029	-0.0028149269	-0.0024756526	0	937.3181223158344
0.17378008	0.000033113112	0.13	0.40747341	1.7867048	-0.00010118867	-0.027808047	-0.017235379	-0.0027754709	-0.0024450056	0	937.3650871945281
0.17378008	0.000036307805	0.13	0.41770901	1.7392839	-0.000081760366	-0.027892022	-0.016989932	-0.0027350283	-0.0024133339	0	937.4133211103157
0.17378008	0.000039810717	0.13	0.4283006	1.6920848	-0.000062105773	-0.027977249	-0.016735459	-0.0026935651	-0.0023806006	0	937.4628701065972
0.17378008	0.000043651583	0.13	0.43926263	1.6451245	-0.000042203963	-0.028063815	-0.016471729	-0.0026510456	-0.0023467667	0	937.5137820617437
0.17378008	0.000047863009	0.13	0.45061024	1.5984214	-0.000022032166	-0.028151818	-0.016198509	-0.0026074327	-0.002311792	0	937.5661068290927
0.17378008	0.000052480746	0.13	0.46235938	1.5519954	-1.565613e-6	-0.028241362	-0.015915562	-0.0025626879	-0.002275634	0	937.6198966287466
0.17378008	0.000057543994	0.13	0.47452678	1.5058679	0.000019222599	-0.028332558	-0.015622649	-0.0025167711	-0.0022382488	0	937.6752059301277
0.17378008	0.000063095734	0.13	0.48713001	1.460062	0.000040361696	-0.028425528	-0.015319529	-0.0024696402	-0.0021995901	0	937.7320916295552
0.17378008	0.000069183097	0.13	0.50018758	1.4146024	0.000061883351	-0.028520401	-0.015005958	-0.0024212518	-0.0021596098	0	937.7906132888952
0.17378008	0.000075857758	0.13	0.51371889	1.3695154	0.000083821909	-0.028617318	-0.014681692	-0.0023715603	-0.0021182575	0	937.8508329805328
0.17378008	0.000083176377	0.13	0.52774435	1.3248291	0.00010621453	-0.028716431	-0.014346484	-0.0023205183	-0.0020754806	0	937.9128157881596
0.17378008	0.000091201084	0.13	0.54228541	1.2805736	0.00012910142	-0.0288179	-0.014000088	-0.0022680763	-0.0020312241	0	937.9766295352401
0.17378008	0.0001	0.13	0.55736457	1.2367803	0.00015252597	-0.028921901	-0.013642257	-0.0022141827	-0.0019854304	0	938.0423451598978
0.17378008	0.00010964782	0.13	0.57300547	1.1934828	0.000176535	-0.029028622	-0.013272741	-0.0021587836	-0.0019380395	0	938.1100371884561
0.17378008	0.00012022644	0.13	0.58923291	1.1507159	0.00020117892	-0.029138262	-0.012891294	-0.0021018228	-0.0018889887	0	938.1797830317043
0.17378008	0.00013182567	0.13	0.60607288	1.1085163	0.00022651196	-0.029251038	-0.012497667	-0.0020432414	-0.0018382125	0	938.2516640560016
0.17378008	0.00014454398	0.13	0.62355261	1.0669222	0.0002525923	-0.029367179	-0.012091613	-0.0019829781	-0.0017856423	0	938.3257650947036
0.17378008	0.00015848932	0.13	0.64170063	1.0259727	0.00027948236	-0.029486931	-0.011672885	-0.0019209687	-0.0017312069	0	938.4021749649228
0.17378008	0.00017378008	0.13	0.66054672	0.9857083	0.00030724886	-0.029610556	-0.011241238	-0.0018571464	-0.0016748318	0	938.4809862796155
0.17378008	0.00019054607	0.13	0.68012201	0.94617017	0.0003359631	-0.029738332	-0.010796427	-0.0017914412	-0.0016164395	0	938.5622959549479
0.17378008	0.00020892961	0.13	0.70045898	0.90739992	0.00036570101	-0.029870556	-0.010338209	-0.00172378	-0.0015559491	0	938.6462050129863
0.17378008	0.00022908677	0.13	0.72159143	0.86943925	0.00039654335	-0.030007542	-0.0098663403	-0.0016540865	-0.0014932768	0	938.7328190993983
0.17378008	0.00025118864	0.13	0.74355451	0.83232947	0.00042857584	-0.030149622	-0.0093805804	-0.001582281	-0.001428335	0	938.8222481292363
0.17378008	0.00027542287	0.13	0.76638472	0.79611105	0.00046188919	-0.030297148	-0.0088806879	-0.0015082803	-0.0013610332	0	938.914606815913
0.17378008	0.00030199517	0.13	0.79011991	0.76082304	0.00049657924	-0.030450488	-0.0083664222	-0.0014319976	-0.0012912773	0	939.0100145950967
0.17378008	0.00033113112	0.13	0.81479917	0.7265025	0.00053274701	-0.030610031	-0.0078375432	-0.0013533422	-0.0012189698	0	939.1085957083318
0.17378008	0.00036307805	0.13	0.84046297	0.69318393	0.00057049865	-0.030776186	-0.0072938091	-0.0012722197	-0.0011440098	0	939.210479424778
0.17378008	0.00039810717	0.13	0.86715295	0.66089859	0.00060994559	-0.030949379	-0.006734978	-0.0011885314	-0.001066293	0	939.3157999867135
0.17378008	0.00043651583	0.13	0.89491203	0.62967394	0.00065120441	-0.031130056	-0.0061608056	-0.0011021748	-0.00098571159	0	939.4246967683232
0.17378008	0.00047863009	0.13	0.92378432	0.59953307	0.00069439692	-0.031318681	-0.0055710445	-0.0010130428	-0.00090215437	0	939.5373144363625
0.17378008	0.00052480746	0.13	0.95381509	0.57049416	0.00073965009	-0.031515739	-0.004965445	-0.00092102407	-0.00081550664	0	939.6538027866754
0.17378008	0.00057543994	0.13	0.98505081	0.54257007	0.00078709607	-0.03172173	-0.0043437519	-0.00082600285	-0.0007256502	0	939.7743171538425
0.17378008	0.00063095734	0.13	1.0175391	0.51576801	0.00083687221	-0.031937175	-0.0037057053	-0.00072785869	-0.00063246329	0	939.8990183322592
0.17378008	0.00069183097	0.13	1.0513288	0.49008935	0.00088912113	-0.032162613	-0.0030510398	-0.00062646635	-0.00053582043	0	940.0280727396191
0.17378008	0.00075857758	0.13	1.08647	0.46552957	0.00094399069	-0.032398601	-0.0023794828	-0.00052169589	-0.00043559249	0	940.1616525963723
0.17378008	0.00083176377	0.13	1.1230139	0.44207836	0.0010016342	-0.032645715	-0.0016907555	-0.00041341228	-0.00033164637	0	940.2999360008893
0.17378008	0.00091201084	0.13	1.1610134	0.41971988	0.0010622107	-0.032904552	-0.00098457054	-0.00030147546	-0.00022384493	0	940.4431074807974
0.17378008	0.001	0.13	1.2005227	0.39843316	0.001125885	-0.033175725	-0.00026063405	-0.00018574006	-0.00011204668	0	940.5913577801714
0.17378008	0.0010964782	0.13	1.2415978	0.37819262	0.0011928282	-0.033459872	0.00048135577	-0.000066055394	3.8943391e-6	0	940.7448845215498
0.17378008	0.0012022644	0.13	1.2842966	0.35896867	0.0012632178	-0.033757651	0.0012417084	0.000057734879	0.00012412899	0	940.903892278751
0.17378008	0.0013182567	0.13	1.3286789	0.34072842	0.0013372387	-0.034069742	0.0020207399	0.00018579283	0.00024881326	0	941.0685933820812
0.17378008	0.0014454398	0.13	1.3748071	0.32343637	0.0014150835	-0.034396852	0.0028187721	0.00031828653	0.00037810865	0	941.2392081012686
0.17378008	0.0015848932	0.13	1.4227463	0.30705511	0.0014969532	-0.034739716	0.0036361321	0.00045539028	0.00051218257	0	941.4159652420852
0.17378008	0.0017378008	0.13	1.4725644	0.29154601	0.0015830579	-0.035099095	0.0044731506	0.00059728494	0.00065120869	0	941.5991026000656
0.17378008	0.0019054607	0.13	1.524333	0.27686979	0.0016736184	-0.035475786	0.0053301598	0.00074415813	0.0007953674	0	941.7888682073079
0.17378008	0.0020892961	0.13	1.5781275	0.2629871	0.0017688665	-0.035870618	0.006207492	0.00089620476	0.00094484631	0	941.985520443344
0.17378008	0.0022908677	0.13	1.6340277	0.2498589	0.0018690469	-0.036284464	0.0071054759	0.0010536273	0.0010998406	0	942.1893293683819
0.17378008	0.0025118864	0.13	1.6921187	0.23744687	0.0019744188	-0.036718236	0.0080244336	0.0012166362	0.0012605539	0	942.4005778601801
0.17378008	0.0027542287	0.13	1.752491	0.22571366	0.0020852573	-0.037172898	0.0089646775	0.0013854507	0.0014271982	0	942.6195625507947
0.17378008	0.0030199517	0.13	1.8152422	0.21462309	0.0022018559	-0.03764947	0.0099265029	0.0015602992	0.0015999954	0	942.8465952716301
0.17378008	0.0033113112	0.13	1.8804773	0.20414029	0.002324529	-0.038149031	0.010910185	0.0017414198	0.0017791772	0	943.0820050359218
0.17378008	0.0036307805	0.13	1.94831	0.19423177	0.0024536149	-0.038672737	0.011915968	0.0019290616	0.0019649863	0	943.3261395260698
0.17378008	0.0039810717	0.13	2.0188644	0.18486552	0.0025894794	-0.039221821	0.012944058	0.0021234853	0.0021576776	0	943.5793676088535
0.17378008	0.0043651583	0.13	2.0922764	0.17601095	0.0027325198	-0.039797612	0.013994616	0.0023249642	0.0023575188	0	943.8420822386893
0.17378008	0.0047863009	0.13	2.1686955	0.16763895	0.0028831702	-0.040401548	0.015067734	0.0025337855	0.0025647917	0	944.1147025180968
0.17378008	0.0052480746	0.13	2.2482871	0.15972181	0.0030419065	-0.041035187	0.016163438	0.0027502521	0.002779794	0	944.3976787619573
0.17378008	0.0057543994	0.13	2.331235	0.15223323	0.0032092538	-0.041700233	0.017281651	0.0029746839	0.0030028406	0	944.6914949309867
0.17378008	0.0063095734	0.13	2.4177444	0.14514825	0.0033857934	-0.042398552	0.018422189	0.0032074196	0.0032342659	0	944.9966747201202
0.17378008	0.0069183097	0.13	2.5080453	0.13844321	0.0035721717	-0.043132197	0.019584734	0.0034488194	0.0034744256	0	945.3137866227682
0.17378008	0.0075857758	0.13	2.6023958	0.1320957	0.0037691094	-0.043903431	0.020768808	0.0036992675	0.0037236997	0	945.6434493990877
0.17378008	0.0083176377	0.13	2.7010867	0.12608449	0.0039774129	-0.044714758	0.021973752	0.0039591748	0.0039824952	0	945.9863402220132
0.17378008	0.0091201084	0.13	2.8044455	0.12038949	0.0041979847	-0.045568946	0.023198697	0.0042289825	0.0042512495	0	946.3432009065755
0.17378008	0.01	0.13	2.9128413	0.11499169	0.0044318364	-0.046469057	0.024442542	0.0045091659	0.0045304345	0	946.7148474370942
0.17378008	0.010964782	0.13	3.0266894	0.10987307	0.0046800992	-0.047418465	0.025703933	0.0048002387	0.0048205606	0	947.1021772676005
0.17378008	0.012022644	0.13	3.146455	0.10501661	0.0049440355	-0.04842087	0.026981257	0.0051027578	0.0051221815	0	947.5061794879338
0.17378008	0.013182567	0.13	3.2726567	0.1004064	0.0052250462	-0.049480297	0.028272633	0.0054173283	0.0054358993	0	947.9279405832779
0.17378008	0.014454398	0.13	3.4058624	0.096035337	0.0055246599	-0.050601006	0.029576021	0.0057446085	0.005762371	0	948.3686476004958
0.17378008	0.015848932	0.13	3.5463311	0.092223317	0.0058435356	-0.051782778	0.030893923	0.0060853076	0.006102365	0	948.8292253161792
0.17378008	0.017378008	0.13	3.6807202	0.09472262	0.006145058	-0.052852931	0.032401378	0.0064397659	0.0064572856	0	949.2966511384769
0.17378008	0.019054607	0.13	3.7893726	0.099417471	0.0063754214	-0.053576839	0.034335442	0.0068059164	0.0068243045	0	949.7493259445059
0.17378008	0.020892961	0.13	3.9397308	0.095345506	0.0067232112	-0.054851105	0.035802016	0.0071843315	0.0072019664	0	950.2552296644388
0.17378008	0.022908677	0.13	4.111518	0.091593104	0.0071306483	-0.056370191	0.037109224	0.0075788686	0.0075958095	0	950.7977104003688
0.17378008	0.025118864	0.13	4.2940808	0.087988158	0.0075674796	-0.057981722	0.038412103	0.0079907686	0.0080070428	0	951.3672801489179
0.17378008	0.027542287	0.13	4.4879977	0.084516042	0.0080353282	-0.059687841	0.039711258	0.0084211173	0.0084367492	0	951.9655378154202
0.17378008	0.030199517	0.13	4.6936415	0.081165439	0.008535315	-0.061488234	0.041009836	0.0088710481	0.0088860603	0	952.593920944257
0.17378008	0.033113112	0.13	4.9110341	0.077925147	0.0090677121	-0.063378856	0.042314803	0.0093417153	0.0093561282	0	953.2535360427496
0.17378008	0.036307805	0.13	5.1396629	0.07478396	0.0096315187	-0.065350511	0.043638368	0.0098342506	0.0098480825	0	953.9449340438324
0.17378008	0.039810717	0.13	5.3782531	0.071730509	0.010223946	-0.06738724	0.044999595	0.0103497	0.010362967	0	954.6678232312554
0.17378008	0.043651583	0.13	5.272661	0.066449709	0.010346763	-0.068504619	0.047386112	0.010895148	0.010907439	0	955.0747153572966
0.17378008	0.047863009	0.13	4.8470749	0.059386224	0.010005796	-0.068974556	0.050529314	0.011415759	0.011426743	0	955.1382762579456
0.17378008	0.052480746	0.13	4.4589357	0.052944249	0.0096948304	-0.069833708	0.053395948	0.011890561	0.011900353	0	955.1962444522228
0.17378008	0.057543994	0.13	4.1049486	0.047069098	0.0094112265	-0.071061254	0.05601035	0.012323585	0.012332291	0	955.2491122535802
0.17378008	0.063095734	0.13	3.7821086	0.041710897	0.0091525768	-0.07263862	0.058394712	0.012718508	0.012726223	0	955.2973282668896
0.17378008	0.069183097	0.13	3.4876749	0.036824159	0.0089166854	-0.074549302	0.060569277	0.013078682	0.013085493	0	955.3413018513786
0.17378008	0.075857758	0.13	3.2191483	0.032367401	0.0087015499	-0.076778688	0.062552503	0.013407165	0.013413152	0	955.3814061460301
0.17378008	0.083176377	0.13	2.974249	0.02830279	0.008505344	-0.079313915	0.064361227	0.013706745	0.01371198	0	955.4179817526795
0.17378008	0.091201084	0.13	3.487289	0.026046414	0.0092249392	-0.082729365	0.065425161	0.014018612	0.014023429	0	956.2240410863668
0.17378008	0.1	0.13	4.3230704	0.024050326	0.010348024	-0.086219036	0.066554531	0.014398974	0.014403423	0	957.4171978490716
0.17378008	0.10964782	0.13	5.4931362	0.022177648	0.011913817	-0.089769398	0.067767217	0.01487709	0.014881192	0	959.0364844041278
0.17378008	0.12022644	0.13	7.0691148	0.020423475	0.014042997	-0.093448116	0.069000048	0.015489189	0.015492967	0	961.1875704437417
0.17378008	0.13182567	0.13	9.1295514	0.018783489	0.016873258	-0.097340753	0.070172089	0.016278847	0.016282321	0	963.9899427954074
0.17378008	0.14454398	0.13	11.762792	0.017253939	0.020562669	-0.10154683	0.071188589	0.017297788	0.017300979	0	967.5805443960921
0.17378008	0.15848932	0.13	15.071403	0.015831617	0.025294834	-0.10617434	0.07194649	0.018607053	0.018609981	0	972.1192953379577
0.17378008	0.17378008	0.13	19.177214	0.014513806	0.031285043	-0.11133316	0.072340977	0.020278641	0.020281325	0	977.7956721747252
0.17378008	0.19054607	0.13	24.225305	0.013298191	0.03878568	-0.11712786	0.07227273	0.022397611	0.022400071	0	984.8346748757156
0.17378008	0.20892961	0.13	30.384705	0.012182702	0.048088284	-0.12364975	0.071655824	0.025064433	0.025066686	0	993.4997282036522
0.17378008	0.22908677	0.13	37.843326	0.011165295	0.059519203	-0.13096836	0.070426296	0.02839714	0.028399205	0	1004.0896447669737
0.17378008	0.25118864	0.13	46.795202	0.010243652	0.073426161	-0.13912261	0.068550972	0.032532628	0.032534522	0	1016.9270819991239
0.17378008	0.27542287	0.13	57.419756	0.0094148413	0.090154806	-0.14811296	0.066035308	0.03762629	0.037628032	0	1032.3374651991112
0.17378008	0.30199517	0.13	69.855668	0.008674988	0.11001761	-0.15789672	0.062928092	0.043849339	0.043850943	0	1050.6203413678393
0.17378008	0.33113112	0.13	84.175192	0.0080190611	0.13326133	-0.16838892	0.059320598	0.05138351	0.051384993	0	1072.0187033577859
0.17378008	0.36307805	0.13	100.36644	0.007440848	0.16004174	-0.17947004	0.055338832	0.060413593	0.060414969	0	1096.6943018350762
0.17378008	0.39810717	0.13	118.32959	0.0069331544	0.19041278	-0.19099984	0.051129727	0.071118869	0.071120152	0	1124.7157638649137
0.17378008	0.43651583	0.13	137.88839	0.0064881815	0.2243328	-0.20283409	0.046844405	0.083664939	0.083666139	0	1156.0624151197976
0.17378008	0.47863009	0.13	158.81297	0.0060979825	0.26168449	-0.21484026	0.042622517	0.098197282	0.09819841	0	1190.6410926498097
0.17378008	0.52480746	0.13	180.84706	0.0057548868	0.30230131	-0.22690889	0.038580874	0.11483733	0.11483839	0	1228.3095889454137
0.17378008	0.57543994	0.13	203.73314	0.0054518179	0.34599379	-0.23895935	0.034807647	0.13368113	0.13368214	0	1268.9006540738865
0.17378008	0.63095734	0.13	227.23154	0.0051824808	0.39257076	-0.25094063	0.031361674	0.15480027	0.15480123	0	1312.2418580062572
0.17378008	0.69183097	0.13	251.13239	0.0049414311	0.44185411	-0.26282836	0.028275354	0.1782442	0.17824512	0	1358.1698120851481
0.17378008	0.75857758	0.13	275.2612	0.0047240587	0.49368732	-0.27462005	0.02555947	0.20404353	0.2040444	0	1406.5387726152892
0.17378008	0.83176377	0.13	299.47976	0.0045265203	0.54793929	-0.28632973	0.023208562	0.23221353	0.23221436	0	1457.2248956758099
0.17378008	0.91201084	0.13	323.6841	0.0043456457	0.60450495	-0.29798289	0.021205963	0.26275764	0.26275844	0	1510.127425369746
0.17378008	1.	0.13	347.80075	0.004178839	0.66330395	-0.30961224	0.019528041	0.29567063	0.2956714	0	1565.1679811261397
0.17378008	1.0964782	0.13	371.7825	0.004023983	0.72427849	-0.32125447	0.018147503	0.3309414	0.33094215	0	1622.2889224053383
0.17378008	1.2022644	0.13	395.604	0.0038793549	0.78739067	-0.33294779	0.017035802	0.36855532	0.36855604	0	1681.4511528502103
0.17378008	1.3182567	0.13	419.25773	0.0037435524	0.85261995	-0.34473034	0.016164779	0.40849618	0.40849687	0	1742.6319343497776
0.17378008	1.4454398	0.13	442.75045	0.0036154329	0.91996078	-0.35663913	0.015507716	0.45074777	0.45074843	0	1805.8227888864342
0.17378008	1.5848932	0.13	466.10013	0.0034940625	0.98942049	-0.36870943	0.015039926	0.49529509	0.49529574	0	1871.0275881177229
0.17378008	1.7378008	0.13	489.33335	0.0033786754	1.0610175	-0.38097457	0.014739045	0.54212537	0.542126	0	1938.260907220257
0.17378008	1.9054607	0.13	512.48325	0.0032686405	1.1347799	-0.39346578	0.014585103	0.59122878	0.59122938	0	2007.5466993791124
0.17378008	2.0892961	0.13	535.58779	0.003163435	1.2107439	-0.40621233	0.014560463	0.64259897	0.64259955	0	2078.9168320107833
0.17378008	2.2908677	0.13	558.68843	0.0030626229	1.2889534	-0.41924165	0.014649684	0.6962335	0.69623407	0	2152.4106660164207
0.17378008	2.5118864	0.13	581.82898	0.0029658385	1.3694584	-0.43257954	0.014839336	0.75213412	0.75213467	0	2228.073539276379
0.17378008	2.7542287	0.13	605.05485	0.0028727725	1.4523148	-0.44625036	0.01511781	0.81030697	0.8103075	0	2305.9565555298846
0.17378008	3.0199517	0.13	628.41232	0.0027831614	1.5375839	-0.46027726	0.015475113	0.87076266	0.87076317	0	2386.1160895529424
0.17378008	3.3113112	0.13	651.9481	0.002696779	1.6253317	-0.47468234	0.015902685	0.93351639	0.93351689	0	2468.6131071103305
0.17378008	3.6307805	0.13	675.70894	0.0026134291	1.7156286	-0.4894869	0.016393223	0.99858792	0.99858841	0	2553.512861588741
0.17378008	3.9810717	0.13	699.74139	0.0025329406	1.8085495	-0.50471156	0.016940523	1.0660016	1.0660021	0	2640.8849686546428
0.17378008	4.3651583	0.13	724.09158	0.0024551625	1.9041728	-0.52037643	0.017539339	1.1357863	1.1357868	0	2730.8024494666993
0.17378008	4.7863009	0.13	748.80511	0.0023799607	2.0025811	-0.53650125	0.018185263	1.2079755	1.2079759	0	2823.3423737142916
0.17378008	5.2480746	0.13	773.92699	0.0023072151	2.1038607	-0.55310552	0.018874605	1.2826069	1.2826074	0	2918.5853751776267
0.17378008	5.7543994	0.13	799.50162	0.0022368172	2.2081014	-0.57020859	0.019604312	1.3597228	1.3597232	0	3016.615453921042
0.17378008	6.3095734	0.13	825.57274	0.002168668	2.3153966	-0.58782978	0.020371876	1.4393697	1.4393701	0	3117.5200590123422
0.17378008	6.9183097	0.13	852.18351	0.0021026771	2.4258432	-0.60598846	0.021175264	1.5215984	1.5215988	0	3221.389986016215
0.17378008	7.5857758	0.13	879.37652	0.0020387609	2.5395419	-0.62470412	0.022012858	1.6064639	1.6064643	0	3328.31965153523
0.17378008	8.3176377	0.13	907.19383	0.0019768416	2.6565967	-0.64399644	0.022883403	1.6940253	1.6940256	0	3438.4066170757
0.17378008	9.1201084	0.13	935.67708	0.0019168469	2.7771153	-0.66388539	0.023785955	1.7843458	1.7843462	0	3551.751958522361
0.17378008	10.	0.13	964.86753	0.0018587086	2.901209	-0.68439121	0.02471985	1.8774929	1.8774932	0	3668.4601683953856