0.43651583	1.e-12	0.06	2446.4541	23898.677	-0.0087644201	-0.004400291	-0.0044002815	-2.6128432	8.4903239	0	931.0825434395376
0.43651583	1.0964782e-12	0.06	2231.2276	21797.491	-0.0087217177	-0.0044636448	-0.0044636344	-2.383734	7.7432358	0	931.1190936835599
0.43651583	1.2022644e-12	0.06	2034.9387	19881.179	-0.0086790042	-0.0045271061	-0.0045270948	-2.1747805	7.0618833	0	931.1556482965607
0.43651583	1.3182567e-12	0.06	1855.921	18133.474	-0.0086362809	-0.0045906614	-0.004590649	-1.9842092	6.4404825	0	931.1922068294284
0.43651583	1.4454398e-12	0.06	1692.6551	16539.541	-0.008593549	-0.0046542987	-0.004654285	-1.8104027	5.8737584	0	931.2287688311714
0.43651583	1.5848932e-12	0.06	1543.7547	15085.85	-0.0085508097	-0.0047180074	-0.0047179925	-1.6518859	5.3568999	0	931.2653337549625
0.43651583	1.7378008e-12	0.06	1407.956	13760.06	-0.0085080639	-0.0047817786	-0.0047817622	-1.5073134	4.8855195	0	931.3019012794705
0.43651583	1.9054607e-12	0.06	1284.106	12550.919	-0.0084653123	-0.0048456041	-0.0048455862	-1.3754582	4.4556154	0	931.3384711923536
0.43651583	2.0892961e-12	0.06	1171.1535	11448.161	-0.0084225557	-0.0049094772	-0.0049094575	-1.2552015	4.0635383	0	931.375043136577
0.43651583	2.2908677e-12	0.06	1068.1397	10442.427	-0.0083797948	-0.0049733917	-0.00497337	-1.1455227	3.7059598	0	931.411616798326
0.43651583	2.5118864e-12	0.06	974.18989	9525.1795	-0.0083370301	-0.0050373423	-0.0050373186	-1.0454909	3.3798443	0	931.4481919953246
0.43651583	2.7542287e-12	0.06	888.50669	8688.6325	-0.008294262	-0.0051013244	-0.0051012984	-0.9542575	3.0824236	0	931.4847686279792
0.43651583	3.0199517e-12	0.06	810.36267	7925.685	-0.0082514911	-0.005165334	-0.0051653055	-0.87104817	2.8111726	0	931.5213463524086
0.43651583	3.3113112e-12	0.06	739.09448	7229.8615	-0.0082087176	-0.0052293676	-0.0052293364	-0.79515694	2.5637888	0	931.5579251780088
0.43651583	3.6307805e-12	0.06	674.09714	6595.2556	-0.0081659419	-0.0052934222	-0.005293388	-0.72593991	2.3381721	0	931.5945049037124
0.43651583	3.9810717e-12	0.06	614.81884	6016.4807	-0.0081231643	-0.0053574951	-0.0053574576	-0.66280978	2.1324073	0	931.6310853998597
0.43651583	4.3651583e-12	0.06	560.75639	5488.6244	-0.008080385	-0.005421584	-0.0054215428	-0.605231	1.9447475	0	931.6676666138349
0.43651583	4.7863009e-12	0.06	511.45086	5007.2064	-0.0080376043	-0.0054856869	-0.0054856417	-0.5527151	1.7735998	0	931.7042483708788
0.43651583	5.2480746e-12	0.06	466.48367	4568.1407	-0.0079948223	-0.005549802	-0.0055497524	-0.50481661	1.6175113	0	931.7408306841454
0.43651583	5.7543994e-12	0.06	425.47311	4167.7006	-0.0079520392	-0.0056139277	-0.0056138734	-0.46112924	1.4751568	0	931.7774134502827
0.43651583	6.3095734e-12	0.06	388.07104	3802.4875	-0.0079092551	-0.0056780629	-0.0056780033	-0.42128245	1.345328	0	931.8139966542573
0.43651583	6.9183097e-12	0.06	353.95994	3469.4018	-0.0078664701	-0.0057422062	-0.0057421409	-0.38493833	1.2269228	0	931.8505802697614
0.43651583	7.5857758e-12	0.06	322.85025	3165.6168	-0.0078236845	-0.0058063568	-0.0058062852	-0.35178867	1.1189359	0	931.8871640712995
0.43651583	8.3176377e-12	0.06	294.47788	2888.5542	-0.0077808982	-0.0058705136	-0.0058704351	-0.32155239	1.0204507	0	931.9237482148394
0.43651583	9.1201084e-12	0.06	268.60197	2635.8627	-0.0077381113	-0.0059346761	-0.00593459	-0.29397315	0.93063118	0	931.960332640249
0.43651583	1.e-11	0.06	245.00286	2405.3979	-0.007695324	-0.0059988436	-0.0059987492	-0.26881716	0.84871477	0	931.996917199077
0.43651583	1.0964782e-11	0.06	223.48021	2195.2042	-0.0076525363	-0.0060630163	-0.0060629128	-0.2458712	0.77400613	0	932.0335018856856
0.43651583	1.2022644e-11	0.06	203.85133	2003.4979	-0.0076097484	-0.0061271968	-0.0061270833	-0.22494081	0.70587103	0	932.0700863712275
0.43651583	1.3182567e-11	0.06	185.94957	1828.6522	-0.0075669614	-0.0061913995	-0.0061912751	-0.20584864	0.64373105	0	932.1066688103957
0.43651583	1.4454398e-11	0.06	169.62296	1669.1832	-0.0075241795	-0.0062556961	-0.0062555597	-0.18843295	0.5870585	0	932.143241226281
0.43651583	1.5848932e-11	0.06	154.73287	1523.7364	-0.0074814226	-0.0063204184	-0.0063202688	-0.17254623	0.53537158	0	932.1797662223031
0.43651583	1.7378008e-11	0.06	141.15276	1391.0715	-0.0074387693	-0.006386893	-0.006386729	-0.15805395	0.48822866	0	932.2160951629818
0.43651583	1.9054607e-11	0.06	128.76702	1270.0489	-0.0073964025	-0.006458367	-0.0064581872	-0.14483346	0.44522285	0	932.2518731613305
0.43651583	2.0892961e-11	0.06	117.47034	1159.6344	-0.0073544257	-0.0065373439	-0.0065371467	-0.13277291	0.40598553	0	932.2868618514992
0.43651583	2.2908677e-11	0.06	107.16709	1058.9034	-0.0073126967	-0.0066225824	-0.0066223662	-0.12177032	0.37018918	0	932.3212648166287
0.43651583	2.5118864e-11	0.06	97.770126	967.01625	-0.0072710399	-0.0067118831	-0.0067116461	-0.11173263	0.33753671	0	932.3553710444711
0.43651583	2.7542287e-11	0.06	89.199881	883.20225	-0.007229355	-0.0068038077	-0.0068035478	-0.10257496	0.30775495	0	932.3893558729536
0.43651583	3.0199517e-11	0.06	81.383693	806.75481	-0.0071875959	-0.0068975403	-0.0068972553	-0.09421988	0.28059306	0	932.4233086171588
0.43651583	3.3113112e-11	0.06	74.255258	737.02764	-0.0071457447	-0.0069925995	-0.006992287	-0.086596781	0.25582137	0	932.4572732449865
0.43651583	3.6307805e-11	0.06	67.754079	673.43027	-0.007103798	-0.0070886799	-0.0070883373	-0.07964125	0.23322999	0	932.491270178829
0.43651583	3.9810717e-11	0.06	61.824972	615.42371	-0.0070617591	-0.0071855748	-0.0071851991	-0.073294544	0.21262723	0	932.5253079931601
0.43651583	4.3651583e-11	0.06	56.417603	562.5161	-0.007019635	-0.0072831366	-0.0072827246	-0.067503091	0.19383816	0	932.5593884430874
0.43651583	4.7863009e-11	0.06	51.486064	514.25871	-0.0069774341	-0.0073812559	-0.0073808042	-0.062218029	0.17670316	0	932.5935098148442
0.43651583	5.2480746e-11	0.06	46.98848	470.24219	-0.0069351656	-0.0074798498	-0.0074793545	-0.057394797	0.16107661	0	932.627668166014
0.43651583	5.7543994e-11	0.06	42.886667	430.0932	-0.0068928384	-0.0075788546	-0.0075783115	-0.052992757	0.14682569	0	932.6618587423961
0.43651583	6.3095734e-11	0.06	39.145794	393.47121	-0.0068504616	-0.0076782214	-0.007677626	-0.048974846	0.13382927	0	932.6960757675428
0.43651583	6.9183097e-11	0.06	35.734097	360.06563	-0.0068080438	-0.007777914	-0.0077772611	-0.045307262	0.12197684	0	932.7303132413898
0.43651583	7.5857758e-11	0.06	32.622605	329.5932	-0.0067655933	-0.0078779065	-0.0078771906	-0.041959179	0.11116764	0	932.7645648425414
0.43651583	8.3176377e-11	0.06	29.784898	301.79555	-0.0067231186	-0.0079781826	-0.0079773977	-0.038902483	0.10130973	0	932.798823531774
0.43651583	9.1201084e-11	0.06	27.196878	276.43706	-0.0066806278	-0.0080787357	-0.008077875	-0.036111534	0.092319293	0	932.8330821157753
0.43651583	1.e-10	0.06	24.836568	253.30281	-0.0066381293	-0.008179568	-0.0081786243	-0.033562951	0.084119857	0	932.8673326007233
0.43651583	1.0964782e-10	0.06	22.683924	232.19678	-0.0065956312	-0.0082806913	-0.0082796565	-0.031235408	0.076641676	0	932.9015667616629
0.43651583	1.2022644e-10	0.06	20.720665	212.94019	-0.0065531414	-0.0083821263	-0.0083809917	-0.02910946	0.069821143	0	932.935776042912
0.43651583	1.3182567e-10	0.06	18.930121	195.37003	-0.0065106666	-0.0084839022	-0.0084826582	-0.027167369	0.063600254	0	932.9699525540009
0.43651583	1.4454398e-10	0.06	17.297088	179.33768	-0.0064682112	-0.0085860552	-0.0085846911	-0.025392963	0.057926135	0	933.0040901821171
0.43651583	1.5848932e-10	0.06	15.807703	164.7077	-0.0064257768	-0.0086886251	-0.0086871293	-0.02377149	0.052750614	0	933.0381852310111
0.43651583	1.7378008e-10	0.06	14.449328	151.35669	-0.0063833608	-0.0087916509	-0.0087900109	-0.022289498	0.048029815	0	933.0722379957059
0.43651583	1.9054607e-10	0.06	13.210439	139.17226	-0.0063409569	-0.0088951663	-0.0088933681	-0.020934719	0.043723791	0	933.1062525802231
0.43651583	2.0892961e-10	0.06	12.080529	128.05203	-0.0062985559	-0.008999194	-0.0089972223	-0.019695961	0.039796163	0	933.1402364221623
0.43651583	2.2908677e-10	0.06	11.050018	117.90268	-0.0062561475	-0.0091037427	-0.0091015808	-0.018563019	0.036213783	0	933.1741987875165
0.43651583	2.5118864e-10	0.06	10.11017	108.63911	-0.0062137223	-0.0092088057	-0.0092064351	-0.017526584	0.032946426	0	933.2081489873785
0.43651583	2.7542287e-10	0.06	9.2530146	100.18367	-0.006171273	-0.0093143621	-0.0093117629	-0.016578165	0.029966504	0	933.242095137714
0.43651583	3.0199517e-10	0.06	8.4712813	92.46546	-0.0061287953	-0.0094203802	-0.0094175302	-0.015710018	0.027248822	0	933.2760431953673
0.43651583	3.3113112e-10	0.06	7.7583372	85.419737	-0.0060862879	-0.0095268213	-0.0095236963	-0.014915078	0.024770366	0	933.3099966761914
0.43651583	3.6307805e-10	0.06	7.108131	78.98738	-0.0060437519	-0.0096336437	-0.0096302173	-0.014186905	0.022510109	0	933.3439570214804
0.43651583	3.9810717e-10	0.06	6.5151422	73.114412	-0.0060011902	-0.0097408066	-0.0097370496	-0.013519622	0.020448849	0	933.3779239643968
0.43651583	4.3651583e-10	0.06	5.9743349	67.751559	-0.0059586069	-0.0098482722	-0.0098441527	-0.012907872	0.018569054	0	933.4118959358672
0.43651583	4.7863009e-10	0.06	5.4811151	62.853857	-0.0059160067	-0.0099560078	-0.0099514908	-0.012346767	0.016854718	0	933.4458705381206
0.43651583	5.2480746e-10	0.06	5.0312931	58.380283	-0.0058733944	-0.010063986	-0.010059034	-0.011831852	0.01529124	0	933.4798449468236
0.43651583	5.7543994e-10	0.06	4.6210475	54.293416	-0.0058307748	-0.010172187	-0.010166757	-0.011359062	0.013865299	0	933.5138160783225
0.43651583	6.3095734e-10	0.06	4.2468929	50.559125	-0.0057881523	-0.010280596	-0.010274642	-0.010924692	0.012564742	0	933.5477808019858
0.43651583	6.9183097e-10	0.06	3.9056509	47.146291	-0.0057455307	-0.010389205	-0.010382676	-0.010525361	0.011378493	0	933.5817362803261
0.43651583	7.5857758e-10	0.06	3.5944232	44.026541	-0.0057029133	-0.010498011	-0.010490853	-0.010157988	0.010296451	0	933.6156797510213
0.43651583	8.3176377e-10	0.06	3.3105667	41.174018	-0.0056603023	-0.010607019	-0.01059917	-0.0098197612	0.0093094148	0	933.649609316149
0.43651583	9.1201084e-10	0.06	3.0516721	38.565163	-0.0056176988	-0.010716236	-0.01070763	-0.0095081181	0.008409001	0	933.6835237730661
0.43651583	1.e-9	0.06	2.8155426	36.178517	-0.0055751029	-0.010825675	-0.010816238	-0.0092207209	0.0075875784	0	933.7174227459462
0.43651583	1.0964782e-9	0.06	2.6001761	33.994545	-0.0055325131	-0.01093535	-0.010925003	-0.0089554377	0.0068382028	0	933.7513071367721
0.43651583	1.2022644e-9	0.06	2.4037476	31.995464	-0.0054899267	-0.011045276	-0.011033931	-0.0087103239	0.0061545567	0	933.7851791441267
0.43651583	1.3182567e-9	0.06	2.2245937	30.165083	-0.0054473402	-0.011155468	-0.011143028	-0.0084836058	0.005530892	0	933.819041718245
0.43651583	1.4454398e-9	0.06	2.0611982	28.48866	-0.0054047494	-0.011265935	-0.011252296	-0.0082736656	0.004961977	0	933.8528986925539
0.43651583	1.5848932e-9	0.06	1.9121785	26.952757	-0.0053621501	-0.011376683	-0.011361728	-0.0080790273	0.0044430449	0	933.8867544078454
0.43651583	1.7378008e-9	0.06	1.7762737	25.545117	-0.0053195386	-0.01148771	-0.011471313	-0.0078983444	0.0039697476	0	933.9206129606241
0.43651583	1.9054607e-9	0.06	1.6523334	24.254549	-0.0052769121	-0.011599008	-0.011581029	-0.0077303885	0.003538114	0	933.9544782218994
0.43651583	2.0892961e-9	0.06	1.5393079	23.070826	-0.0052342689	-0.011710563	-0.01169085	-0.007574039	0.003144514	0	933.9883532546544
0.43651583	2.2908677e-9	0.06	1.4362393	21.984603	-0.0051916083	-0.011822355	-0.011800741	-0.0074282737	0.002785627	0	934.022240689672
0.43651583	2.5118864e-9	0.06	1.3422532	20.987332	-0.0051489305	-0.011934363	-0.011910665	-0.0072921599	0.0024584155	0	934.0561424248743
0.43651583	2.7542287e-9	0.06	1.2565518	20.071205	-0.0051062366	-0.012046564	-0.012020581	-0.0071648471	0.0021601015	0	934.0900597380701
0.43651583	3.0199517e-9	0.06	1.1784072	19.229085	-0.0050635279	-0.012158935	-0.012130447	-0.0070455594	0.001888146	0	934.1239937755289
0.43651583	3.3113112e-9	0.06	1.1071552	18.454457	-0.0050208061	-0.012271453	-0.01224022	-0.006933589	0.0016402296	0	934.1579453640686
0.43651583	3.6307805e-9	0.06	1.0421902	17.741376	-0.0049780729	-0.0123841	-0.012349857	-0.0068282903	0.0014142354	0	934.1919153305067
0.43651583	3.9810717e-9	0.06	0.98295983	17.084416	-0.00493533	-0.012496857	-0.012459316	-0.0067290746	0.0012082319	0	934.2259044452863
0.43651583	4.3651583e-9	0.06	0.92896038	16.478632	-0.0048925788	-0.01260971	-0.012568554	-0.0066354049	0.0010204583	0	934.259913817095
0.43651583	4.7863009e-9	0.06	0.87973272	15.919513	-0.0048498207	-0.012722646	-0.012677527	-0.0065467911	0.00084930919	0	934.2939446109939
0.43651583	5.2480746e-9	0.06	0.83485829	15.40295	-0.0048070568	-0.012835655	-0.012786193	-0.0064627864	0.00069332194	0	934.3279981611652
0.43651583	5.7543994e-9	0.06	0.79395559	14.925195	-0.0047642882	-0.012948726	-0.012894508	-0.006382983	0.00055116387	0	934.3620759145402
0.43651583	6.3095734e-9	0.06	0.75667689	14.482836	-0.0047215156	-0.013061853	-0.013002423	-0.0063070088	0.00042162098	0	934.3961799757449
0.43651583	6.9183097e-9	0.06	0.7227053	14.072762	-0.0046787397	-0.013175031	-0.013109893	-0.0062345244	0.00030358749	0	934.43031222391
0.43651583	7.5857758e-9	0.06	0.69175206	13.692137	-0.0046359612	-0.013288254	-0.013216865	-0.00616522	0.0001960563	0	934.4644749891579
0.43651583	8.3176377e-9	0.06	0.66355406	13.33838	-0.0045931804	-0.013401519	-0.013323287	-0.0060988127	0.000098110211	0	934.4986709210624
0.43651583	9.1201084e-9	0.06	0.63787159	13.009136	-0.0045503977	-0.013514824	-0.013429101	-0.0060350445	8.9139938e-6	0	934.5329029134853
0.43651583	1.e-8	0.06	0.61448629	12.702262	-0.0045076135	-0.013628164	-0.013534246	-0.0059736795	-0.000072292868	0	934.5671740294092
0.43651583	1.0964782e-8	0.06	0.59319927	12.415803	-0.004464828	-0.01374154	-0.01363866	-0.0059145026	-0.00014620286	0	934.6014875761043
0.43651583	1.2022644e-8	0.06	0.57382939	12.147979	-0.0044220414	-0.013854949	-0.013742274	-0.005857317	-0.00021344637	0	934.6358472554581
0.43651583	1.3182567e-8	0.06	0.55621169	11.897169	-0.0043792538	-0.013968391	-0.013845015	-0.005801943	-0.00027459732	0	934.6702570888102
0.43651583	1.4454398e-8	0.06	0.54019597	11.661893	-0.0043364655	-0.014081865	-0.013946808	-0.0057482164	-0.00033017816	0	934.7047210223354
0.43651583	1.5848932e-8	0.06	0.52564545	11.440805	-0.0042936764	-0.014195371	-0.014047574	-0.0056959869	-0.00038066452	0	934.7392436035295
0.43651583	1.7378008e-8	0.06	0.51243558	11.232678	-0.0042508868	-0.014308908	-0.01414723	-0.005645117	-0.00042648947	0	934.7738292295587
0.43651583	1.9054607e-8	0.06	0.5004529	11.03639	-0.0042080966	-0.014422478	-0.014245691	-0.005595481	-0.00046804739	0	934.8084827861627
0.43651583	2.0892961e-8	0.06	0.48959403	10.850921	-0.0041653059	-0.014536079	-0.014342872	-0.0055469638	-0.00050569766	0	934.8432089711683
0.43651583	2.2908677e-8	0.06	0.47976468	10.675339	-0.0041225147	-0.014649713	-0.014438685	-0.0054994599	-0.00053976803	0	934.8780127454804
0.43651583	2.5118864e-8	0.06	0.4708788	10.508792	-0.0040797231	-0.01476338	-0.014533047	-0.0054528726	-0.00057055769	0	934.912898694178
0.43651583	2.7542287e-8	0.06	0.46285772	10.350499	-0.0040369311	-0.01487708	-0.014625876	-0.0054071133	-0.00059834023	0	934.9478714399227
0.43651583	3.0199517e-8	0.06	0.45562939	10.199747	-0.0039941387	-0.014990815	-0.014717098	-0.0053621009	-0.00062336632	0	934.9829351543847
0.43651583	3.3113112e-8	0.06	0.44912766	10.055879	-0.003951346	-0.015104584	-0.014806644	-0.005317761	-0.00064586621	0	935.0180936334077
0.43651583	3.6307805e-8	0.06	0.44329166	9.9182932	-0.0039085528	-0.01521839	-0.014894458	-0.0052740253	-0.00066605203	0	935.0533502218447
0.43651583	3.9810717e-8	0.06	0.43806519	9.7864324	-0.0038657592	-0.015332232	-0.014980497	-0.0052308314	-0.00068411979	0	935.0887072498175
0.43651583	4.3651583e-8	0.06	0.43339622	9.6597825	-0.0038229652	-0.015446112	-0.01506473	-0.0051881221	-0.00070025118	0	935.1241664649178
0.43651583	4.7863009e-8	0.06	0.42923645	9.5378674	-0.0037801707	-0.015560031	-0.015147144	-0.0051458451	-0.00071461514	0	935.159728693963
0.43651583	5.2480746e-8	0.06	0.42554096	9.420246	-0.0037373758	-0.015673991	-0.01522774	-0.0051039528	-0.00072736895	0	935.1953937866228
0.43651583	5.7543994e-8	0.06	0.42226794	9.306509	-0.0036945805	-0.015787991	-0.015306537	-0.0050624017	-0.00073865934	0	935.2311606717926
0.43651583	6.3095734e-8	0.06	0.4193785	9.1962772	-0.0036517846	-0.015902034	-0.015383569	-0.0050211524	-0.00074862299	0	935.2670276206723
0.43651583	6.9183097e-8	0.06	0.41683649	9.0891997	-0.0036089881	-0.016016121	-0.015458878	-0.004980169	-0.00075738705	0	935.302992265557
0.43651583	7.5857758e-8	0.06	0.41460847	8.9849533	-0.0035661911	-0.016130253	-0.01553252	-0.0049394191	-0.0007650694	0	935.3390513555505
0.43651583	8.3176377e-8	0.06	0.41266359	8.8832408	-0.0035233934	-0.016244432	-0.015604555	-0.0048988735	-0.00077177876	0	935.3752016961311
0.43651583	9.1201084e-8	0.06	0.4109736	8.7837907	-0.003480595	-0.016358659	-0.015675045	-0.0048585059	-0.00077761497	0	935.4114397921152
0.43651583	1.e-7	0.06	0.40951274	8.6863562	-0.0034377959	-0.016472936	-0.015744053	-0.0048182925	-0.00078266896	0	935.4477620919461
0.43651583	1.0964782e-7	0.06	0.40825772	8.5907143	-0.003394996	-0.016587265	-0.015811639	-0.004778212	-0.00078702309	0	935.4841653071447
0.43651583	1.2022644e-7	0.06	0.40718756	8.4966643	-0.0033521953	-0.016701647	-0.015877856	-0.0047382453	-0.00079075143	0	935.5206464498938
0.43651583	1.3182567e-7	0.06	0.40628354	8.4040266	-0.0033093938	-0.016816084	-0.01594275	-0.0046983753	-0.00079392022	0	935.5572029269923
0.43651583	1.4454398e-7	0.06	0.40552903	8.3126415	-0.0032665914	-0.016930578	-0.01600636	-0.0046585864	-0.00079658822	0	935.5938326338144
0.43651583	1.5848932e-7	0.06	0.40490932	8.2223671	-0.0032237881	-0.017045132	-0.016068714	-0.0046188648	-0.0007988075	0	935.63053399189
0.43651583	1.7378008e-7	0.06	0.40441148	8.1330776	-0.0031809839	-0.017159746	-0.016129832	-0.0045791978	-0.00080062384	0	935.6673058737408
0.43651583	1.9054607e-7	0.06	0.40402414	8.0446617	-0.0031381789	-0.017274424	-0.016189725	-0.0045395741	-0.00080207763	0	935.704147565297
0.43651583	2.0892961e-7	0.06	0.40373736	7.9570207	-0.0030953732	-0.017389168	-0.016248395	-0.0044999834	-0.00080320436	0	935.7410588598544
0.43651583	2.2908677e-7	0.06	0.40354239	7.8700663	-0.003052567	-0.017503979	-0.016305836	-0.0044604162	-0.00080403561	0	935.7780399077434
0.43651583	2.5118864e-7	0.06	0.40343151	7.7837189	-0.0030097609	-0.017618862	-0.016362035	-0.004420864	-0.00080459981	0	935.8150908780858
0.43651583	2.7542287e-7	0.06	0.40339779	7.6979051	-0.0029669555	-0.017733818	-0.01641697	-0.0043813188	-0.00080492315	0	935.8522124473686
0.43651583	3.0199517e-7	0.06	0.40343493	7.6125551	-0.0029241518	-0.017848851	-0.016470617	-0.0043417734	-0.00080503078	0	935.8894050290005
0.43651583	3.3113112e-7	0.06	0.40353691	7.5275995	-0.0028813514	-0.017963964	-0.016522942	-0.0043022211	-0.0008049483	0	935.9266690363903
0.43651583	3.6307805e-7	0.06	0.40369772	7.4429648	-0.002838557	-0.018079159	-0.016573909	-0.0042626559	-0.00080470377	0	935.9640039621728
0.43651583	3.9810717e-7	0.06	0.4039109	7.3585683	-0.0027957725	-0.018194442	-0.016623476	-0.0042230723	-0.00080433024	0	936.0014085097478
0.43651583	4.3651583e-7	0.06	0.40416897	7.2743094	-0.0027530037	-0.018309814	-0.0166716	-0.0041834655	-0.00080386962	0	936.0388796537145
0.43651583	4.7863009e-7	0.06	0.40446263	7.1900586	-0.0027102594	-0.018425281	-0.01671823	-0.0041438317	-0.00080337809	0	936.0764120009684
0.43651583	5.2480746e-7	0.06	0.40477929	7.1056363	-0.0026675534	-0.018540846	-0.016763315	-0.0041041677	-0.00080293619	0	936.113995460577
0.43651583	5.7543994e-7	0.06	0.40509889	7.0207516	-0.0026249094	-0.018656503	-0.016806789	-0.0040644724	-0.00080267773	0	936.1516114855209
0.43651583	6.3095734e-7	0.06	0.40537532	6.9347226	-0.0025823861	-0.018772185	-0.016848522	-0.0040247472	-0.00080292109	0	936.1892122519234
0.43651583	6.9183097e-7	0.06	0.4054328	6.8449101	-0.0025402114	-0.01888745	-0.016888009	-0.003985003	-0.00080490315	0	936.2266121016715
0.43651583	7.5857758e-7	0.06	0.40441818	6.7383824	-0.002499496	-0.018999875	-0.016922758	-0.0039452926	-0.00081468482	0	936.2629079433422
0.43651583	8.3176377e-7	0.06	0.3998079	6.5767578	-0.0024635573	-0.019102635	-0.016945874	-0.003905834	-0.00085031596	0	936.2953715610284
0.43651583	9.1201084e-7	0.06	0.39162319	6.3608795	-0.0024325485	-0.019199661	-0.016961215	-0.0038670345	-0.00091181206	0	936.3236415227315
0.43651583	1.e-6	0.06	0.38598804	6.1850615	-0.0023983787	-0.019318442	-0.016996194	-0.0038289659	-0.0009554273	0	936.3537743794451
0.43651583	1.0964782e-6	0.06	0.38515205	6.0832534	-0.0023577775	-0.019466423	-0.017058182	-0.0037911942	-0.00096495496	0	936.3884273535186
0.43651583	1.2022644e-6	0.06	0.38581678	6.0041014	-0.0023151776	-0.01962316	-0.017126651	-0.0037534099	-0.00096394419	0	936.4245928774752
0.43651583	1.3182567e-6	0.06	0.3867185	5.92799	-0.0022723119	-0.019781148	-0.017194016	-0.0037155458	-0.00096144095	0	936.4610703747105
0.43651583	1.4454398e-6	0.06	0.3876928	5.8523499	-0.0022294063	-0.019939415	-0.01725922	-0.0036775894	-0.00095862642	0	936.4977071846465
0.43651583	1.5848932e-6	0.06	0.38872197	5.7768877	-0.0021864851	-0.020097858	-0.017322073	-0.0036395348	-0.00095563102	0	936.5344911868905
0.43651583	1.7378008e-6	0.06	0.38980461	5.7015623	-0.0021435504	-0.020256471	-0.017382478	-0.0036013766	-0.00095246858	0	936.571425876625
0.43651583	1.9054607e-6	0.06	0.39094137	5.6263626	-0.0021006012	-0.02041526	-0.017440351	-0.0035631097	-0.00094913897	0	936.6085169288251
0.43651583	2.0892961e-6	0.06	0.39213325	5.5512819	-0.0020576365	-0.020574233	-0.017495602	-0.0035247287	-0.0009456399	0	936.6457703567091
0.43651583	2.2908677e-6	0.06	0.39338144	5.4763147	-0.0020146549	-0.020733398	-0.017548145	-0.0034862281	-0.00094196856	0	936.6831923238258
0.43651583	2.5118864e-6	0.06	0.39468727	5.4014561	-0.0019716547	-0.020892765	-0.017597887	-0.0034476023	-0.00093812158	0	936.7207896702103
0.43651583	2.7542287e-6	0.06	0.39605221	5.3267016	-0.0019286344	-0.021052344	-0.017644736	-0.0034088456	-0.00093409535	0	936.758568991612
0.43651583	3.0199517e-6	0.06	0.39747786	5.2520475	-0.0018855919	-0.021212147	-0.017688597	-0.0033699522	-0.00092988571	0	936.7965376166404
0.43651583	3.3113112e-6	0.06	0.39896598	5.1774902	-0.0018425253	-0.021372185	-0.017729372	-0.0033309159	-0.00092548828	0	936.834702855114
0.43651583	3.6307805e-6	0.06	0.40051849	5.1030266	-0.0017994323	-0.021532471	-0.017766962	-0.0032917306	-0.0009208983	0	936.8730724490512
0.43651583	3.9810717e-6	0.06	0.40213745	5.0286541	-0.0017563103	-0.021693019	-0.017801266	-0.0032523899	-0.00091611058	0	936.9116545350878
0.43651583	4.3651583e-6	0.06	0.40382508	4.9543703	-0.0017131566	-0.021853845	-0.017832178	-0.0032128872	-0.00091111955	0	936.9504576256861
0.43651583	4.7863009e-6	0.06	0.40558379	4.8801734	-0.0016699682	-0.022014964	-0.017859593	-0.0031732156	-0.00090591934	0	936.989490458804
0.43651583	5.2480746e-6	0.06	0.40741615	4.8060616	-0.0016267418	-0.022176393	-0.017883403	-0.0031333679	-0.00090050354	0	937.0287622233901
0.43651583	5.7543994e-6	0.06	0.40932493	4.7320337	-0.0015834737	-0.022338151	-0.017903495	-0.0030933369	-0.00089486545	0	937.0682827660897
0.43651583	6.3095734e-6	0.06	0.41131309	4.6580886	-0.00154016	-0.022500259	-0.017919757	-0.003053115	-0.00088899789	0	937.1080620650868
0.43651583	6.9183097e-6	0.06	0.41338381	4.5842258	-0.0014967963	-0.022662738	-0.017932073	-0.0030126941	-0.00088289318	0	937.1481107938433
0.43651583	7.5857758e-6	0.06	0.4155405	4.5104449	-0.0014533777	-0.022825612	-0.017940325	-0.0029720661	-0.00087654327	0	937.188440208353
0.43651583	8.3176377e-6	0.06	0.41778682	4.4367458	-0.0014098991	-0.022988905	-0.017944392	-0.0029312222	-0.00086993953	0	937.2290619216426
0.43651583	9.1201084e-6	0.06	0.42012665	4.3631291	-0.0013663546	-0.023152646	-0.017944151	-0.0028901537	-0.00086307285	0	937.2699884111407
0.43651583	0.00001	0.06	0.4225642	4.2895952	-0.001322738	-0.023316863	-0.017939477	-0.002848851	-0.00085593347	0	937.3112325488923
0.43651583	0.000010964782	0.06	0.42510394	4.2161454	-0.0012790423	-0.023481589	-0.017930244	-0.0028073044	-0.00084851115	0	937.3528080149689
0.43651583	0.000012022644	0.06	0.42775067	4.142781	-0.0012352599	-0.023646858	-0.017916321	-0.0027655036	-0.00084079499	0	937.3947293350508
0.43651583	0.000013182567	0.06	0.43050954	4.0695038	-0.0011913826	-0.023812707	-0.017897577	-0.0027234379	-0.00083277338	0	937.4370115985575
0.43651583	0.000014454398	0.06	0.43154525	3.9962633	-0.0011524157	-0.023960909	-0.01785561	-0.0026830553	-0.00082641787	0	937.4759893919371
0.43651583	0.000015848932	0.06	0.43436782	3.9231631	-0.0011088038	-0.024126282	-0.017825059	-0.0026406145	-0.00081793893	0	937.5186879016853
0.43651583	0.000017378008	0.06	0.43730322	3.8501579	-0.0010651135	-0.024292197	-0.017789111	-0.0025978915	-0.00080913367	0	937.5617643234084
0.43651583	0.000019054607	0.06	0.44035661	3.7772512	-0.0010213372	-0.024458689	-0.01774761	-0.002554875	-0.00079998915	0	937.6052345921352
0.43651583	0.000020892961	0.06	0.44353351	3.7044472	-0.00097746683	-0.024625797	-0.017700399	-0.0025115532	-0.0007904916	0	937.649115140863
0.43651583	0.000022908677	0.06	0.4468398	3.6317506	-0.00093349331	-0.024793561	-0.017647316	-0.0024679137	-0.00078062641	0	937.693423633421
0.43651583	0.000025118864	0.06	0.45028179	3.5591668	-0.00088940682	-0.024962025	-0.017588197	-0.0024239434	-0.00077037813	0	937.7381785416638
0.43651583	0.000027542287	0.06	0.45386619	3.4867017	-0.00084519655	-0.025131237	-0.017522876	-0.0023796289	-0.00075973035	0	937.7833993803636
0.43651583	0.000030199517	0.06	0.45760019	3.414362	-0.00080085073	-0.02530125	-0.017451184	-0.0023349557	-0.0007486657	0	937.8291067353972
0.43651583	0.000033113112	0.06	0.46149147	3.3421551	-0.00075635642	-0.025472119	-0.017372948	-0.0022899088	-0.00073716566	0	937.8753225174287
0.43651583	0.000036307805	0.06	0.46554826	3.2700892	-0.00071169954	-0.025643904	-0.017287994	-0.0022444724	-0.00072521064	0	937.9220697646005
0.43651583	0.000039810717	0.06	0.46977936	3.1981734	-0.0006668646	-0.025816673	-0.017196146	-0.0021986298	-0.0007127797	0	937.9693729525898
0.43651583	0.000043651583	0.06	0.4741942	3.1264177	-0.00062183474	-0.025990495	-0.017097227	-0.0021523636	-0.00069985069	0	938.0172579006526
0.43651583	0.000047863009	0.06	0.47880289	3.0548332	-0.00057659149	-0.026165448	-0.016991055	-0.0021056552	-0.00068639999	0	938.0657522226144
0.43651583	0.000052480746	0.06	0.48361625	2.9834319	-0.00053111467	-0.026341616	-0.01687745	-0.0020584851	-0.0006724024	0	938.1148850262098
0.43651583	0.000057543994	0.06	0.48864588	2.9122271	-0.00048538226	-0.026519089	-0.01675623	-0.0020108326	-0.00065783119	0	938.1646872607215
0.43651583	0.000063095734	0.06	0.49390424	2.8412334	-0.00043937018	-0.026697967	-0.016627211	-0.001962676	-0.00064265778	0	938.2151919236844
0.43651583	0.000069183097	0.06	0.49940468	2.7704665	-0.00039305218	-0.026878355	-0.01649021	-0.0019139921	-0.00062685174	0	938.2664339951165
0.43651583	0.000075857758	0.06	0.50516151	2.6999438	-0.00034639961	-0.027060369	-0.016345042	-0.0018647566	-0.00061038064	0	938.3184508227407
0.43651583	0.000083176377	0.06	0.51119011	2.6296841	-0.0002993812	-0.027244136	-0.016191526	-0.0018149436	-0.00059320981	0	938.3712819904451
0.43651583	0.000091201084	0.06	0.51750696	2.5597079	-0.0002519629	-0.027429789	-0.016029479	-0.0017645257	-0.00057530237	0	938.4249698068572
0.43651583	0.0001	0.06	0.52412974	2.4900372	-0.00020410758	-0.027617478	-0.015858721	-0.0017134736	-0.00055661882	0	938.4795593053444
0.43651583	0.00010964782	0.06	0.53107743	2.4206963	-0.00015577487	-0.027807361	-0.015679073	-0.0016617566	-0.00053711715	0	938.535098507092
0.43651583	0.00012022644	0.06	0.53837037	2.3517111	-0.00010692079	-0.027999612	-0.01549036	-0.0016093418	-0.00051675237	0	938.5916385996197
0.43651583	0.00013182567	0.06	0.54603037	2.2831098	-0.000057497567	-0.028194416	-0.015292409	-0.0015561942	-0.00049547657	0	938.6492342214717
0.43651583	0.00014454398	0.06	0.55408079	2.2149225	-7.4532844e-6	-0.028391978	-0.015085054	-0.0015022768	-0.00047323854	0	938.7079435097573
0.43651583	0.00015848932	0.06	0.56254668	2.1471819	0.000043268405	-0.028592515	-0.01486813	-0.0014475502	-0.00044998369	0	938.7678287080499
0.43651583	0.00017378008	0.06	0.57145481	2.0799228	0.000094728607	-0.028796263	-0.014641481	-0.0013919721	-0.00042565376	0	938.8289560235739
0.43651583	0.00019054607	0.06	0.58083385	2.0131828	0.00014699353	-0.029003478	-0.014404955	-0.001335498	-0.00040018661	0	938.8913962322836
0.43651583	0.00020892961	0.06	0.59071441	1.9470016	0.00020013481	-0.029214435	-0.014158411	-0.0012780801	-0.0003735161	0	938.9552245896052
0.43651583	0.00022908677	0.06	0.60112918	1.8814218	0.00025422988	-0.02942943	-0.013901712	-0.0012196678	-0.0003455717	0	939.0205215721297
0.43651583	0.00025118864	0.06	0.612113	1.8164885	0.00030936234	-0.029648782	-0.013634734	-0.001160207	-0.00031627846	0	939.0873727178866
0.43651583	0.00027542287	0.06	0.62370297	1.7522492	0.00036562233	-0.029872834	-0.01335736	-0.00109964	-0.00028555662	0	939.1558693150456
0.43651583	0.00030199517	0.06	0.63593854	1.6887542	0.00042310689	-0.030101954	-0.013069486	-0.0010379056	-0.00025332154	0	939.2261084019157
0.43651583	0.00033113112	0.06	0.64886158	1.6260561	0.0004819203	-0.030336536	-0.012771018	-0.00097493839	-0.00021948349	0	939.2981932555199
0.43651583	0.00036307805	0.06	0.66251646	1.5642098	0.00054217454	-0.030577002	-0.012461877	-0.00091066889	-0.00018394737	0	939.3722335419263
0.43651583	0.00039810717	0.06	0.67695008	1.5032723	0.00060398948	-0.030823804	-0.012141995	-0.00084502305	-0.0001466127	0	939.44834572026
0.43651583	0.00043651583	0.06	0.69221197	1.4433024	0.00066749338	-0.031077421	-0.011811319	-0.00077792215	-0.00010737343	0	939.5266532869905
0.43651583	0.00047863009	0.06	0.70835423	1.3843603	0.00073282311	-0.031338366	-0.01146981	-0.00070928243	-0.00006611779	0	939.6072870390101
0.43651583	0.00052480746	0.06	0.72543162	1.3265075	0.00080012441	-0.031607182	-0.011117443	-0.00063901497	-0.00002272837	0	939.6903853179211
0.43651583	0.00057543994	0.06	0.74350149	1.2698058	0.00086955226	-0.031884445	-0.01075421	-0.00056702526	0.00002291809	0	939.7760941885526
0.43651583	0.00063095734	0.06	0.76262381	1.214317	0.00094127099	-0.032170765	-0.010380115	-0.00049321312	0.000070950492	0	939.8645678241833
0.43651583	0.00069183097	0.06	0.78286103	1.1601022	0.0010154545	-0.032466785	-0.0099951788	-0.00041747235	0.00012150344	0	939.9559684426495
0.43651583	0.00075857758	0.06	0.80427814	1.1072211	0.0010922866	-0.032773182	-0.0095994373	-0.00033969049	0.0001747171	0	940.0504667216346
0.43651583	0.00083176377	0.06	0.8269425	1.0557311	0.0011719608	-0.033090667	-0.0091929395	-0.00025974859	0.00023073707	0	940.1482417141075
0.43651583	0.00091201084	0.06	0.85092381	1.0056862	0.0012546808	-0.033419985	-0.0087757482	-0.00017752096	0.0002897142	0	940.2494812692474
0.43651583	0.001	0.06	0.87629407	0.95713675	0.0013406603	-0.033761917	-0.0083479395	-0.000092875023	0.00035180437	0	940.3543818821146
0.43651583	0.0010964782	0.06	0.90312752	0.91012772	0.0014301235	-0.034117275	-0.0079096018	-5.6710279e-6	0.00041716828	0	940.463149219806
0.43651583	0.0012022644	0.06	0.93150065	0.86469837	0.001523305	-0.034486909	-0.0074608356	0.00008423825	0.00048597138	0	940.5759980387734
0.43651583	0.0013182567	0.06	0.96149226	0.82088123	0.00162045	-0.034871701	-0.0070017522	0.00017700755	0.00055838353	0	940.6931524460232
0.43651583	0.0014454398	0.06	0.99318365	0.77870136	0.0017218151	-0.035272571	-0.006532475	0.0002727995	0.00063457899	0	940.8148465774823
0.43651583	0.0015848932	0.06	1.0266588	0.73817576	0.0018276686	-0.035690473	-0.0060531382	0.00037178479	0.00071473635	0	940.9413249531542
0.43651583	0.0017378008	0.06	1.062005	0.6993129	0.0019382911	-0.036126399	-0.0055638892	0.00047414257	0.00079903871	0	941.0728429055598
0.43651583	0.0019054607	0.06	1.099313	0.66211257	0.0020539771	-0.036581386	-0.0050648907	0.00058006066	0.00088767377	0	941.2096679646579
0.43651583	0.0020892961	0.06	1.1386783	0.62656578	0.0021750356	-0.03705651	-0.0045563215	0.00068973597	0.00098083428	0	941.3520803764848
0.43651583	0.0022908677	0.06	1.1802018	0.592655	0.0023017927	-0.0375529	-0.0040383823	0.00080337515	0.0010787187	0	941.5003752190548
0.43651583	0.0025118864	0.06	1.223991	0.56035472	0.0024345934	-0.038071739	-0.0035113006	0.00092119488	0.001181532	0	941.6548638173471
0.43651583	0.0027542287	0.06	1.270162	0.52963203	0.0025738044	-0.038614274	-0.0029753367	0.0010434229	0.0012894865	0	941.8158760358433
0.43651583	0.0030199517	0.06	1.3188407	0.50044771	0.0027198174	-0.039181822	-0.0024307913	0.0011702989	0.0014028035	0	941.9837629506534
0.43651583	0.0033113112	0.06	1.370165	0.47275753	0.0028730526	-0.03977578	-0.0018780137	0.0013020751	0.0015217151	0	942.1588996757266
0.43651583	0.0036307805	0.06	1.4242869	0.44651431	0.0030339626	-0.040397634	-0.0013174073	0.0014390184	0.001646466	0	942.3416887171007
0.43651583	0.0039810717	0.06	1.4813734	0.42167145	0.0032030344	-0.041048943	-0.0007494184	0.0015814111	0.0017773168	0	942.5325624834204
0.43651583	0.0043651583	0.06	1.5416045	0.39819071	0.0033807851	-0.041731298	-0.00017448741	0.0017295523	0.0019145491	0	942.7319819962895
0.43651583	0.0047863009	0.06	1.6051596	0.37606104	0.0035677367	-0.042446113	0.0004071567	0.0018837595	0.002058475	0	942.9404248008836
0.43651583	0.0052480746	0.06	1.6721631	0.35534683	0.0037643126	-0.043193913	0.00099620965	0.0020443654	0.0022094572	0	943.1583279296369
0.43651583	0.0057543994	0.06	1.7424962	0.33629995	0.0039704838	-0.043971987	0.0015966443	0.0022117056	0.0023679483	0	943.3858881008496
0.43651583	0.0063095734	0.06	1.8152821	0.31949635	0.0041848103	-0.04476831	0.0022217844	0.0023860728	0.0025345087	0	943.6225034524476
0.43651583	0.0069183097	0.06	1.8886153	0.30530992	0.0044039799	-0.045560322	0.0028955306	0.002567617	0.0027094619	0	943.8664093294338
0.43651583	0.0075857758	0.06	1.9637636	0.2917776	0.0046307782	-0.046372438	0.0035948483	0.0027563924	0.0028919503	0	944.1189244343263
0.43651583	0.0083176377	0.06	2.048327	0.27666228	0.0048798903	-0.04730687	0.0042189504	0.002952948	0.0030814835	0	944.3881646142335
0.43651583	0.0091201084	0.06	2.1420347	0.26164758	0.0051509203	-0.048346774	0.0047861519	0.0031582748	0.0032798345	0	944.674790383596
0.43651583	0.01	0.06	2.2424724	0.24745976	0.0054395519	-0.04945206	0.0053380547	0.0033731227	0.0034880908	0	944.9770915587179
0.43651583	0.010964782	0.06	2.3496767	0.2340621	0.0057461931	-0.050619557	0.005879394	0.0035981443	0.003706888	0	945.2957184240528
0.43651583	0.012022644	0.06	2.4641443	0.22140223	0.0060721591	-0.05185254	0.0064085062	0.0038340267	0.0039368887	0	945.6318129122938
0.43651583	0.013182567	0.06	2.586401	0.20943679	0.0064188672	-0.053154665	0.0069233936	0.0040815075	0.0041788105	0	945.9865940512299
0.43651583	0.014454398	0.06	2.7169329	0.19812543	0.0067877194	-0.054529258	0.0074224457	0.0043413749	0.0044334226	0	946.3612883212812
0.43651583	0.015848932	0.06	2.8561366	0.18742991	0.0071800216	-0.055978953	0.0079047928	0.0046144603	0.004701539	0	946.75707367244
0.43651583	0.017378008	0.06	3.0042549	0.17731394	0.0075968783	-0.057505285	0.0083707228	0.0049016273	0.0049840062	0	947.1750040846869
0.43651583	0.019054607	0.06	3.1612921	0.16774312	0.0080390523	-0.059108158	0.0088222084	0.0052037523	0.0052816847	0	947.6159074673049
0.43651583	0.020892961	0.06	3.3269077	0.15868484	0.0085067838	-0.060785202	0.0092635562	0.0055216963	0.0055954202	0	948.080252283819
0.43651583	0.022908677	0.06	3.5002889	0.15010817	0.00899957	-0.062531029	0.0097021508	0.0058562648	0.0059260041	0	948.5679824196287
0.43651583	0.025118864	0.06	3.6800044	0.14198385	0.009515908	-0.064336428	0.010149264	0.0062081545	0.0062741192	0	949.0783212375319
0.43651583	0.027542287	0.06	3.8638527	0.1342841	0.010053017	-0.066187564	0.010620852	0.0065778853	0.0066402728	0	949.6095555077616
0.43651583	0.030199517	0.06	4.0487221	0.12698257	0.010606569	-0.068065333	0.01113821	0.006965718	0.0070247132	0	950.1588192854053
0.43651583	0.033113112	0.06	4.2304959	0.12005424	0.011170471	-0.069945033	0.011728297	0.0073715589	0.0074273353	0	950.7219075833223
0.43651583	0.036307805	0.06	4.4040524	0.11347529	0.011736782	-0.071796618	0.012423486	0.0077948617	0.0078475816	0	951.2931843060122
0.43651583	0.039810717	0.06	4.29973	0.10682732	0.012025585	-0.07366216	0.013184107	0.0082403343	0.0082899656	0	951.6074127859532
0.43651583	0.043651583	0.06	3.9521338	0.10032573	0.012039961	-0.075693817	0.013860478	0.0086652474	0.0087118581	0	951.6590496627455
0.43651583	0.047863009	0.06	3.6351223	0.094396202	0.012053073	-0.077869403	0.014477336	0.0090527727	0.0090966286	0	951.7061439477749
0.43651583	0.052480746	0.06	3.3460044	0.088988413	0.012065031	-0.080186316	0.015039917	0.0094062001	0.0094475435	0	951.7490941670802
0.43651583	0.057543994	0.06	3.0823257	0.08405645	0.012075937	-0.082642493	0.015552997	0.0097285296	0.0097675817	0	951.7882653981741
0.43651583	0.063095734	0.06	2.8418478	0.079558447	0.012085883	-0.085236377	0.016020931	0.010022498	0.01005946	0	951.8239895894943
0.43651583	0.069183097	0.06	2.6225295	0.075456219	0.012094954	-0.087966884	0.016447693	0.0102906	0.010325656	0	951.856570634058
0.43651583	0.075857758	0.06	2.6473136	0.070412165	0.012416345	-0.091904408	0.015765861	0.010544702	0.010577415	0	952.1201009381568
0.43651583	0.083176377	0.06	2.904155	0.06515318	0.013022206	-0.09629329	0.014734166	0.010815301	0.01084557	0	952.6311862482469
0.43651583	0.091201084	0.06	3.3792172	0.060208345	0.013888523	-0.10066848	0.01382082	0.011121198	0.01114917	0	953.3936587883132
0.43651583	0.1	0.06	4.1472319	0.055564086	0.015121186	-0.10505602	0.013003043	0.011487379	0.011513193	0	954.5057249353466
0.43651583	0.10964782	0.06	5.2903678	0.051208095	0.016843175	-0.10950653	0.012233592	0.011946536	0.011970327	0	956.0802691629405
0.43651583	0.12022644	0.06	6.8963526	0.047129329	0.019193312	-0.1140971	0.011438831	0.012539702	0.012561598	0	958.2435726620655
0.43651583	0.13182567	0.06	9.0576962	0.043318001	0.022325855	-0.11893019	0.010519881	0.013316744	0.013336869	0	961.1349967075475
0.43651583	0.14454398	0.06	11.872827	0.03976554	0.026411949	-0.12412913	0.0093571019	0.014336866	0.01435534	0	964.9085986296667
0.43651583	0.15848932	0.06	15.449278	0.03646452	0.0316433	-0.12983087	0.0078173661	0.015669337	0.015686278	0	969.7369938186044
0.43651583	0.17378008	0.06	19.908036	0.033408515	0.038237366	-0.13617693	0.0057630542	0.01739459	0.017410112	0	975.8167401310575
0.43651583	0.19054607	0.06	25.387157	0.030591855	0.046442135	-0.14330373	0.0030617945	0.019605735	0.019619948	0	983.3733761872834
0.43651583	0.20892961	0.06	32.042163	0.028009257	0.05653768	-0.15133263	-0.00040359429	0.022410287	0.0224233	0	992.6634429047673
0.43651583	0.22908677	0.06	40.04077	0.025655292	0.068831453	-0.16035997	-0.0047251416	0.025931675	0.025943594	0	1003.9706234696813
0.43651583	0.25118864	0.06	49.55042	0.023523729	0.083645093	-0.1704474	-0.0099600878	0.030309889	0.030320818	0	1017.5938918775371
0.43651583	0.27542287	0.06	60.719013	0.021606817	0.10129249	-0.1816137	-0.016122616	0.035700554	0.035710592	0	1033.827368738524
0.43651583	0.30199517	0.06	73.651914	0.019894673	0.12205197	-0.19382969	-0.023178829	0.042271897	0.04228114	0	1052.934470436321
0.43651583	0.33113112	0.06	88.39082	0.018374932	0.14613861	-0.20701854	-0.031047054	0.050199503	0.05020804	0	1075.1218800836848
0.43651583	0.36307805	0.06	104.90088	0.017032829	0.17368393	-0.22106266	-0.039604663	0.059659349	0.059667262	0	1100.5200823366317
0.43651583	0.39810717	0.06	123.07034	0.01585171	0.20472867	-0.2358162	-0.048700647	0.070820174	0.070827539	0	1129.1758680569576
0.43651583	0.43651583	0.06	142.72297	0.014813876	0.23922992	-0.25112085	-0.058171365	0.083836458	0.08384334	0	1161.0581455802999
0.43651583	0.47863009	0.06	163.63913	0.013901527	0.27707916	-0.26682134	-0.067856034	0.098843083	0.098849541	0	1196.0740172430164
0.43651583	0.52480746	0.06	185.57975	0.013097609	0.3181254	-0.28277788	-0.077609206	0.11595226	0.11595834	0	1234.089817546973
0.43651583	0.57543994	0.06	208.30772	0.012386426	0.36219769	-0.29887428	-0.087308838	0.13525269	0.13525845	0	1274.9518078380274
0.43651583	0.63095734	0.06	231.60395	0.011753989	0.4091234	-0.31502168	-0.096860039	0.15681063	0.1568161	0	1318.503140327547
0.43651583	0.69183097	0.06	255.2772	0.011188135	0.45874101	-0.33115881	-0.10619532	0.18067217	0.18067736	0	1364.5958610397538
0.43651583	0.75857758	0.06	279.16851	0.010678479	0.5109077	-0.34724991	-0.11527252	0.20686618	0.20687114	0	1413.098158032244
0.43651583	0.83176377	0.06	303.15178	0.010216272	0.56550298	-0.36328133	-0.12407137	0.23540762	0.23541236	0	1463.897965719001
0.43651583	0.91201084	0.06	327.13183	0.0097942047	0.62242953	-0.37925757	-0.13258955	0.26630057	0.26630512	0	1516.90397638766
0.43651583	1.	0.06	351.04114	0.0094062149	0.68161233	-0.39519724	-0.14083864	0.29954122	0.29954559	0	1572.0450510356582
0.43651583	1.0964782	0.06	374.83607	0.0090472891	0.74299699	-0.41112939	-0.14884046	0.33512031	0.33512451	0	1629.2688566246525
0.43651583	1.2022644	0.06	398.49304	0.0087132918	0.80654762	-0.42709028	-0.15662375	0.37302531	0.37302936	0	1688.5400519677428
0.43651583	1.3182567	0.06	422.00499	0.0084008146	0.8722447	-0.44312064	-0.16422158	0.41324224	0.41324615	0	1749.8384324637295
0.43651583	1.4454398	0.06	445.37819	0.0081070476	0.94008302	-0.45926366	-0.17166917	0.4557571	0.45576087	0	1813.157117487641
0.43651583	1.5848932	0.06	468.62954	0.0078296715	1.0100699	-0.47556331	-0.17900228	0.50055703	0.50056067	0	1878.500968726425
0.43651583	1.7378008	0.06	491.78423	0.0075667687	1.0822234	-0.49206323	-0.18625612	0.54763126	0.54763477	0	1945.8849698045435
0.43651583	1.9054607	0.06	514.87381	0.0073167488	1.1565712	-0.508806	-0.19346455	0.59697182	0.59697522	0	2015.3332190699196
0.43651583	2.0892961	0.06	537.93465	0.0070782883	1.2331493	-0.52583266	-0.20065961	0.64857408	0.64857737	0	2086.877734654724
0.43651583	2.2908677	0.06	561.00659	0.0068502814	1.312001	-0.54318246	-0.20787129	0.70243714	0.70244033	0	2160.557509084722
0.43651583	2.5118864	0.06	584.13201	0.0066317993	1.3931763	-0.56089283	-0.21512747	0.75856417	0.75856725	0	2236.417948922495
0.43651583	2.7542287	0.06	607.35491	0.0064220577	1.4767309	-0.57899937	-0.22245389	0.81696253	0.81696551	0	2314.509936893312
0.43651583	3.0199517	0.06	630.72037	0.0062203904	1.562726	-0.59753603	-0.22987433	0.877644	0.87764689	0	2394.889633824752
0.43651583	3.3113112	0.06	654.27398	0.006026227	1.6512276	-0.61653522	-0.23741074	0.94062478	0.94062758	0	2477.617813622348
0.43651583	3.6307805	0.06	678.06155	0.0058390765	1.7423063	-0.63602804	-0.2450834	1.0059256	1.0059283	0	2562.759666336694
0.43651583	3.9810717	0.06	702.12876	0.0056585124	1.8360372	-0.65604442	-0.2529111	1.0735715	1.0735741	0	2650.3846940595963
0.43651583	4.3651583	0.06	726.521	0.0054841616	1.9324992	-0.67661336	-0.26091136	1.1435923	1.1435948	0	2740.566040826077
0.43651583	4.7863009	0.06	751.28327	0.0053156949	2.0317752	-0.69776309	-0.26910055	1.2160219	1.2160244	0	2833.3806737625628
0.43651583	5.2480746	0.06	776.46002	0.0051528196	2.133952	-0.71952125	-0.27749411	1.2908989	1.2909013	0	2928.909276728094
0.43651583	5.7543994	0.06	802.0952	0.0049952736	2.2391199	-0.74191507	-0.28610665	1.368266	1.3682684	0	3027.23586885079
0.43651583	6.3095734	0.06	828.23216	0.0048428199	2.3473731	-0.76497148	-0.29495211	1.4481704	1.4481726	0	3128.448171334161
0.43651583	6.9183097	0.06	854.91373	0.004695243	2.4588092	-0.78871726	-0.3040439	1.5306632	1.5306654	0	3232.6371297820883
0.43651583	7.5857758	0.06	882.18223	0.0045523453	2.5735295	-0.81317919	-0.31339496	1.6157999	1.6158021	0	3339.8971926859867
0.43651583	8.3176377	0.06	910.07953	0.0044139448	2.6916389	-0.83838412	-0.32301791	1.7036403	1.7036423	0	3450.32620901219
0.43651583	9.1201084	0.06	938.64706	0.0042798722	2.813246	-0.8643591	-0.33292511	1.7942478	1.7942498	0	3564.025518776043
0.43651583	10.	0.06	967.92596	0.00414997	2.9384628	-0.89113145	-0.34312873	1.8876903	1.8876922	0	3681.099667226129