0.30199517	1.e-12	0.53	494.02965	7250.2255	-0.012077571	0.004045746	0.0040459592	-0.5357398	1.7946283	0	930.232447604307
0.30199517	1.0964782e-12	0.53	450.56292	6612.4842	-0.012102091	0.0040972937	0.0040975275	-0.4894744	1.6359108	0	930.2350889094791
0.30199517	1.2022644e-12	0.53	410.92073	6030.852	-0.012126331	0.0041481868	0.0041484432	-0.4472796	1.4911574	0	930.2376683179656
0.30199517	1.3182567e-12	0.53	374.76657	5500.3923	-0.01215032	0.004198485	0.0041987661	-0.40879725	1.3591393	0	930.2401883609547
0.30199517	1.4454398e-12	0.53	341.79353	5016.6025	-0.012174093	0.0042482595	0.0042485677	-0.3737007	1.2387361	0	930.2426517584884
0.30199517	1.5848932e-12	0.53	311.7217	4575.3765	-0.012197689	0.0042975909	0.0042979289	-0.34169203	1.1289259	0	930.2450621532619
0.30199517	1.7378008e-12	0.53	284.29583	4172.9694	-0.012221151	0.0043465673	0.0043469378	-0.31249956	1.0287766	0	930.2474230150892
0.30199517	1.9054607e-12	0.53	259.28309	3805.9659	-0.012244524	0.0043952828	0.004395689	-0.28587548	0.93743839	0	930.249739171458
0.30199517	2.0892961e-12	0.53	236.47116	3471.2512	-0.012267855	0.0044438347	0.0044442801	-0.26159383	0.85413602	0	930.2520150646326
0.30199517	2.2908677e-12	0.53	215.6664	3165.9845	-0.012291191	0.0044923213	0.0044928097	-0.23944848	0.77816253	0	930.254255634848
0.30199517	2.5118864e-12	0.53	196.69221	2887.5751	-0.012314581	0.0045408403	0.0045413759	-0.21925148	0.70887316	0	930.2564636942232
0.30199517	2.7542287e-12	0.53	179.38751	2633.6601	-0.012338067	0.0045894856	0.0045900728	-0.20083139	0.64567987	0	930.2586466399559
0.30199517	3.0199517e-12	0.53	163.60542	2402.0847	-0.012361695	0.0046383463	0.0046389901	-0.18403186	0.58804639	0	930.2608059199167
0.30199517	3.3113112e-12	0.53	149.21196	2190.8833	-0.012385501	0.0046875036	0.0046882096	-0.16871031	0.53548359	0	930.2629484436692
0.30199517	3.6307805e-12	0.53	136.08496	1998.2637	-0.012409521	0.0047370302	0.0047378044	-0.15473669	0.48754541	0	930.2650767884409
0.30199517	3.9810717e-12	0.53	124.11298	1822.5911	-0.012433783	0.0047869878	0.0047878366	-0.1419924	0.44382499	0	930.2671955703165
0.30199517	4.3651583e-12	0.53	113.1944	1662.3745	-0.012458312	0.0048374265	0.0048383572	-0.13036926	0.40395129	0	930.2693066966135
0.30199517	4.7863009e-12	0.53	103.23653	1516.2542	-0.012483124	0.0048883836	0.0048894041	-0.11976865	0.36758591	0	930.2714140073358
0.30199517	5.2480746e-12	0.53	94.154849	1382.99	-0.012508229	0.004939884	0.0049410029	-0.11010057	0.3344202	0	930.2735208548522
0.30199517	5.7543994e-12	0.53	85.872256	1261.4509	-0.012533633	0.0049919397	0.0049931665	-0.10128298	0.30417268	0	930.2756280255792
0.30199517	6.3095734e-12	0.53	78.318445	1150.6053	-0.012559333	0.0050445508	0.0050458961	-0.093241047	0.2765866	0	930.2777389357764
0.30199517	6.9183097e-12	0.53	71.429291	1049.5123	-0.012585324	0.005097707	0.005099182	-0.085906518	0.25142782	0	930.2798534529647
0.30199517	7.5857758e-12	0.53	65.146314	957.31398	-0.012611593	0.0051513889	0.0051530062	-0.079217151	0.22848279	0	930.2819748280406
0.30199517	8.3176377e-12	0.53	59.416178	873.22766	-0.012638126	0.0052055697	0.0052073431	-0.073116176	0.20755673	0	930.2841034668963
0.30199517	9.1201084e-12	0.53	54.190239	796.53963	-0.012664907	0.0052602172	0.0052621617	-0.067551821	0.18847201	0	930.2862389655186
0.30199517	1.e-11	0.53	49.424135	726.59893	-0.012691915	0.0053152956	0.0053174277	-0.062476868	0.17106662	0	930.2883839744213
0.30199517	1.0964782e-11	0.53	45.077405	662.81188	-0.01271913	0.0053707676	0.0053731054	-0.057848255	0.15519279	0	930.2905395073956
0.30199517	1.2022644e-11	0.53	41.113151	604.63703	-0.012746534	0.0054265951	0.0054291584	-0.053626708	0.14071578	0	930.2927043505227
0.30199517	1.3182567e-11	0.53	37.497718	551.58057	-0.012774106	0.0054827405	0.0054855511	-0.049776408	0.12751267	0	930.2948805069566
0.30199517	1.4454398e-11	0.53	34.200416	503.19213	-0.012801828	0.0055391688	0.0055422506	-0.046264688	0.11547137	0	930.2970685056719
0.30199517	1.5848932e-11	0.53	31.193253	459.06097	-0.012829682	0.0055958462	0.0055992253	-0.043061755	0.10448966	0	930.2992695230048
0.30199517	1.7378008e-11	0.53	28.450701	418.81249	-0.012857652	0.0056527422	0.0056564473	-0.04014044	0.094474305	0	930.3014846986478
0.30199517	1.9054607e-11	0.53	25.949477	382.10505	-0.012885725	0.0057098288	0.0057138914	-0.03747596	0.085340276	0	930.3037136981159
0.30199517	2.0892961e-11	0.53	23.66835	348.62708	-0.012913887	0.0057670815	0.0057715359	-0.035045716	0.077010029	0	930.3059588693827
0.30199517	2.2908677e-11	0.53	21.587953	318.09442	-0.012942126	0.0058244776	0.0058293618	-0.032829096	0.069412838	0	930.3082220258095
0.30199517	2.5118864e-11	0.53	19.690627	290.24792	-0.012970433	0.005881998	0.0058873534	-0.030807302	0.062484209	0	930.3105038053611
0.30199517	2.7542287e-11	0.53	17.960265	264.85124	-0.012998799	0.0059396256	0.0059454976	-0.02896319	0.056165318	0	930.3128061407234
0.30199517	3.0199517e-11	0.53	16.382178	241.68882	-0.013027216	0.0059973456	0.0060037841	-0.027281122	0.05040252	0	930.315131419332
0.30199517	3.3113112e-11	0.53	14.942969	220.5641	-0.013055678	0.0060551455	0.0060622051	-0.025746839	0.045146891	0	930.3174813944161
0.30199517	3.6307805e-11	0.53	13.630421	201.29778	-0.013084179	0.0061130139	0.0061207545	-0.024347336	0.040353813	0	930.3198586657522
0.30199517	3.9810717e-11	0.53	12.433392	183.72637	-0.013112714	0.0061709419	0.0061794291	-0.023070749	0.035982596	0	930.3222663376652
0.30199517	4.3651583e-11	0.53	11.34172	167.70076	-0.01314128	0.0062289211	0.006238227	-0.021906261	0.031996131	0	930.3247062827082
0.30199517	4.7863009e-11	0.53	10.346138	153.08496	-0.013169873	0.006286945	0.0062971485	-0.020844005	0.028360575	0	930.3271824085339
0.30199517	5.2480746e-11	0.53	9.4381941	139.75495	-0.013198489	0.0063450075	0.0063561951	-0.019874982	0.025045066	0	930.3296992203577
0.30199517	5.7543994e-11	0.53	8.6101817	127.59763	-0.013227127	0.0064031039	0.0064153704	-0.018990986	0.022021456	0	930.332259450436
0.30199517	6.3095734e-11	0.53	7.8550716	116.50986	-0.013255784	0.0064612296	0.0064746791	-0.018184529	0.019264079	0	930.3348682579219
0.30199517	6.9183097e-11	0.53	7.1664537	106.39756	-0.013284459	0.0065193818	0.0065341282	-0.017448785	0.016749527	0	930.3375300681687
0.30199517	7.5857758e-11	0.53	6.5384827	97.174949	-0.01331315	0.0065775568	0.006593725	-0.016777526	0.014456454	0	930.3402503954846
0.30199517	8.3176377e-11	0.53	5.9658277	88.763799	-0.013341856	0.0066357526	0.0066534796	-0.016165073	0.012365394	0	930.343035208929
0.30199517	9.1201084e-11	0.53	5.4436278	81.092763	-0.013370576	0.0066939669	0.0067134026	-0.015606246	0.010458597	0	930.3458907265451
0.30199517	1.e-10	0.53	4.9674501	74.096781	-0.01339931	0.0067521979	0.0067735066	-0.015096318	0.008719876	0	930.3488232227503
0.30199517	1.0964782e-10	0.53	4.5332525	67.716523	-0.013428056	0.0068104443	0.006833806	-0.014630979	0.0071344713	0	930.3518417474381
0.30199517	1.2022644e-10	0.53	4.1373492	61.897884	-0.013456815	0.0068687046	0.0068943166	-0.014206298	0.0056889247	0	930.3549532289635
0.30199517	1.3182567e-10	0.53	3.7763795	56.59153	-0.013485585	0.006926978	0.0069550563	-0.013818688	0.0043709657	0	930.3581684601133
0.30199517	1.4454398e-10	0.53	3.4472793	51.752472	-0.013514366	0.0069852635	0.0070160446	-0.013464878	0.0031694061	0	930.3614971512956
0.30199517	1.5848932e-10	0.53	3.1472549	47.339691	-0.013543159	0.0070435606	0.0070773033	-0.013141881	0.0020740462	0	930.3649492186833
0.30199517	1.7378008e-10	0.53	2.8737594	43.315781	-0.013571963	0.0071018685	0.0071388558	-0.012846975	0.0010755868	0	930.368537254331
0.30199517	1.9054607e-10	0.53	2.624471	39.64664	-0.013600779	0.0071601869	0.0072007285	-0.012577674	0.00016555198	0	930.3722734650718
0.30199517	2.0892961e-10	0.53	2.3972733	36.301176	-0.013629605	0.0072185155	0.0072629498	-0.012331712	-0.00066378468	0	930.376173872374
0.30199517	2.2908677e-10	0.53	2.1902373	33.251042	-0.013658442	0.0072768539	0.0073255508	-0.012107018	-0.0014194648	0	930.380253023528
0.30199517	2.5118864e-10	0.53	2.0016049	30.470394	-0.01368729	0.0073352017	0.0073885646	-0.011901703	-0.0021079063	0	930.3845274013286
0.30199517	2.7542287e-10	0.53	1.829774	27.935676	-0.01371615	0.0073935591	0.0074520281	-0.011714043	-0.0027349561	0	930.3890144412901
0.30199517	3.0199517e-10	0.53	1.6732848	25.625414	-0.013745021	0.007451926	0.0075159805	-0.011542465	-0.0033059422	0	930.3937346033878
0.30199517	3.3113112e-10	0.53	1.5308074	23.520033	-0.013773903	0.0075103023	0.0075804639	-0.011385529	-0.0038257183	0	930.3987088521428
0.30199517	3.6307805e-10	0.53	1.40113	21.601693	-0.013802798	0.0075686878	0.0076455233	-0.011241924	-0.0042987058	0	930.4039577170583
0.30199517	3.9810717e-10	0.53	1.2831492	19.854131	-0.013831704	0.0076270827	0.0077112067	-0.011110448	-0.0047289318	0	930.4095069798077
0.30199517	4.3651583e-10	0.53	1.1758594	18.262524	-0.013860622	0.0076854871	0.0077775644	-0.010990006	-0.0051200641	0	930.415380748698
0.30199517	4.7863009e-10	0.53	1.078345	16.813361	-0.013889554	0.007743901	0.0078446498	-0.010879595	-0.0054754435	0	930.4216037361772
0.30199517	5.2480746e-10	0.53	0.98977169	15.494319	-0.013918497	0.0078023246	0.0079125176	-0.010778299	-0.0057981136	0	930.4282059998803
0.30199517	5.7543994e-10	0.53	0.90937937	14.29416	-0.013947454	0.0078607579	0.0079812241	-0.010685278	-0.0060908479	0	930.4352127568018
0.30199517	6.3095734e-10	0.53	0.83647498	13.202632	-0.013976425	0.0079192014	0.0080508266	-0.010599766	-0.0063561745	0	930.4426525406019
0.30199517	6.9183097e-10	0.53	0.7704263	12.210368	-0.014005409	0.007977655	0.0081213815	-0.010521059	-0.0065964011	0	930.4505543763332
0.30199517	7.5857758e-10	0.53	0.71065598	11.308811	-0.014034408	0.008036119	0.008192944	-0.010448514	-0.0068136354	0	930.458943872789
0.30199517	8.3176377e-10	0.53	0.65663604	10.490125	-0.014063421	0.0080945935	0.0082655663	-0.010381543	-0.0070098061	0	930.4678479635497
0.30199517	9.1201084e-10	0.53	0.60788285	9.7471308	-0.014092449	0.0081530787	0.0083392959	-0.010319605	-0.0071866816	0	930.4772893626075
0.30199517	1.e-9	0.53	0.56395237	9.0732345	-0.014121493	0.0082115753	0.0084141748	-0.010262207	-0.0073458869	0	930.4872880451217
0.30199517	1.0964782e-9	0.53	0.52443594	8.4623673	-0.014150552	0.0082700832	0.0084902366	-0.010208895	-0.0074889203	0	930.4978616824374
0.30199517	1.2022644e-9	0.53	0.48895649	7.9089327	-0.014179628	0.0083286027	0.0085675061	-0.010159256	-0.0076171666	0	930.5090207450712
0.30199517	1.3182567e-9	0.53	0.45716519	7.4077591	-0.01420872	0.0083871342	0.0086459977	-0.010112912	-0.0077319096	0	930.5207733433508
0.30199517	1.4454398e-9	0.53	0.42873862	6.9540591	-0.01423783	0.0084456779	0.0087257148	-0.010069517	-0.0078343425	0	930.5331192912424
0.30199517	1.5848932e-9	0.53	0.40337648	6.5433967	-0.014266957	0.0085042343	0.0088066493	-0.010028755	-0.0079255764	0	930.5460554947574
0.30199517	1.7378008e-9	0.53	0.38079984	6.1716613	-0.014296103	0.0085628036	0.0088887829	-0.0099903417	-0.0080066458	0	930.5595709619206
0.30199517	1.9054607e-9	0.53	0.36074974	5.8350472	-0.014325268	0.0086213862	0.0089720875	-0.0099540151	-0.0080785137	0	930.5736516997852
0.30199517	2.0892961e-9	0.53	0.34298627	5.530038	-0.014354452	0.0086799824	0.0090565272	-0.00991954	-0.0081420748	0	930.5882798312416
0.30199517	2.2908677e-9	0.53	0.32728789	5.2533954	-0.014383656	0.0087385926	0.0091420605	-0.0098867034	-0.0081981566	0	930.6034337509843
0.30199517	2.5118864e-9	0.53	0.31345094	5.0021494	-0.01441288	0.0087972173	0.0092286422	-0.0098553127	-0.0082475214	0	930.6190909507859
0.30199517	2.7542287e-9	0.53	0.30128913	4.7735887	-0.014442126	0.0088558567	0.0093162262	-0.0098251949	-0.0082908677	0	930.6352265951155
0.30199517	3.0199517e-9	0.53	0.29063309	4.5652519	-0.014471394	0.0089145114	0.0094047676	-0.0097961942	-0.0083288305	0	930.6518183251363
0.30199517	3.3113112e-9	0.53	0.28132978	4.3749163	-0.014500684	0.0089731817	0.0094942243	-0.0097681706	-0.0083619846	0	930.6688451763267
0.30199517	3.6307805e-9	0.53	0.27324175	4.2005859	-0.014529997	0.0090318682	0.0095845589	-0.0097409982	-0.0083908456	0	930.6862875850572
0.30199517	3.9810717e-9	0.53	0.26624627	4.0404767	-0.014559334	0.0090905711	0.0096757394	-0.0097145643	-0.008415874	0	930.7041286767341
0.30199517	4.3651583e-9	0.53	0.26023445	3.8930022	-0.014588696	0.0091492907	0.0097677399	-0.0096887672	-0.0084374781	0	930.7223546143782
0.30199517	4.7863009e-9	0.53	0.25511012	3.7567585	-0.014618083	0.009208028	0.0098605422	-0.009663515	-0.0084560174	0	930.7409563349422
0.30199517	5.2480746e-9	0.53	0.25078876	3.6305049	-0.014647496	0.0092667831	0.0099541337	-0.0096387252	-0.008471808	0	930.7599266244436
0.30199517	5.7543994e-9	0.53	0.24719644	3.5131504	-0.014676936	0.0093255564	0.010048509	-0.0096143228	-0.0084851257	0	930.7792618542808
0.30199517	6.3095734e-9	0.53	0.24426869	3.4037372	-0.014706403	0.0093843485	0.010143669	-0.0095902394	-0.0084962099	0	930.7989624726265
0.30199517	6.9183097e-9	0.53	0.24194954	3.3014257	-0.014735899	0.0094431599	0.01023962	-0.0095664127	-0.0085052682	0	930.8190297375588
0.30199517	7.5857758e-9	0.53	0.24019049	3.2054802	-0.014765424	0.009501991	0.010336374	-0.0095427855	-0.0085124798	0	930.8394696247133
0.30199517	8.3176377e-9	0.53	0.23894966	3.1152574	-0.014794979	0.0095608422	0.010433949	-0.0095193051	-0.0085179988	0	930.8602901579779
0.30199517	9.1201084e-9	0.53	0.23819097	3.0301936	-0.014824564	0.0096197139	0.010532366	-0.0094959224	-0.0085219573	0	930.8815017947152
0.30199517	1.e-8	0.53	0.23788342	2.9497957	-0.014854182	0.0096786067	0.01063165	-0.0094725917	-0.0085244681	0	930.9031141654698
0.30199517	1.0964782e-8	0.53	0.23800041	2.873631	-0.014883832	0.0097375207	0.010731832	-0.0094492703	-0.0085256275	0	930.9251436468661
0.30199517	1.2022644e-8	0.53	0.23851921	2.8013201	-0.014913515	0.0097964566	0.010832942	-0.0094259174	-0.0085255169	0	930.9476042384274
0.30199517	1.3182567e-8	0.53	0.23942044	2.7325292	-0.014943233	0.0098554148	0.010935017	-0.0094024947	-0.008524205	0	930.9705124858997
0.30199517	1.4454398e-8	0.53	0.2406876	2.6669637	-0.014972986	0.0099143953	0.011038094	-0.0093789658	-0.0085217501	0	930.9938868141596
0.30199517	1.5848932e-8	0.53	0.24230671	2.6043635	-0.015002775	0.0099733983	0.011142212	-0.0093552953	-0.0085182005	0	931.0177457044574
0.30199517	1.7378008e-8	0.53	0.24426601	2.544499	-0.015032602	0.010032424	0.011247415	-0.0093314492	-0.0085135961	0	931.0421091883264
0.30199517	1.9054607e-8	0.53	0.24655562	2.4871651	-0.015062466	0.010091474	0.011353746	-0.0093073948	-0.0085079699	0	931.0669996180263
0.30199517	2.0892961e-8	0.53	0.24916734	2.4321792	-0.015092368	0.010150546	0.01146125	-0.0092831	-0.0085013488	0	931.0924384626255
0.30199517	2.2908677e-8	0.53	0.25209439	2.3793775	-0.01512231	0.01020964	0.011569974	-0.0092585339	-0.0084937542	0	931.1184472475659
0.30199517	2.5118864e-8	0.53	0.25533134	2.328614	-0.015152293	0.010268758	0.011679966	-0.0092336655	-0.0084852022	0	931.1450489358249
0.30199517	2.7542287e-8	0.53	0.25887382	2.2797558	-0.015182316	0.010327897	0.011791276	-0.0092084648	-0.0084757055	0	931.1722693654494
0.30199517	3.0199517e-8	0.53	0.26271849	2.232683	-0.015212381	0.010387058	0.011903954	-0.009182902	-0.0084652728	0	931.2001315557904
0.30199517	3.3113112e-8	0.53	0.26686291	2.1872864	-0.015242487	0.01044624	0.012018052	-0.0091569477	-0.0084539099	0	931.2286623408346
0.30199517	3.6307805e-8	0.53	0.27130549	2.1434668	-0.015272636	0.01050544	0.012133623	-0.0091305724	-0.0084416191	0	931.2578862338419
0.30199517	3.9810717e-8	0.53	0.2760453	2.1011324	-0.015302828	0.010564658	0.012250721	-0.0091037471	-0.008428401	0	931.2878301251724
0.30199517	4.3651583e-8	0.53	0.28108216	2.0601992	-0.015333063	0.010623892	0.0123694	-0.0090764425	-0.0084142531	0	931.3185209051866
0.30199517	4.7863009e-8	0.53	0.28641646	2.0205889	-0.01536334	0.010683138	0.012489716	-0.0090486297	-0.0083991718	0	931.3499873997496
0.30199517	5.2480746e-8	0.53	0.29204919	1.9822289	-0.015393658	0.010742393	0.012611724	-0.0090202793	-0.0083831511	0	931.3822579367561
0.30199517	5.7543994e-8	0.53	0.29798191	1.9450514	-0.015424019	0.010801654	0.012735482	-0.0089913621	-0.0083661835	0	931.4153595193151
0.30199517	6.3095734e-8	0.53	0.30421664	1.9089923	-0.015454419	0.010860915	0.012861046	-0.0089618485	-0.00834826	0	931.449323791987
0.30199517	6.9183097e-8	0.53	0.31075593	1.8739912	-0.015484857	0.010920169	0.012988476	-0.0089317088	-0.0083293704	0	931.4841815725156
0.30199517	7.5857758e-8	0.53	0.31760277	1.8399904	-0.01551533	0.01097941	0.013117828	-0.008900913	-0.0083095032	0	931.5199635658961
0.30199517	8.3176377e-8	0.53	0.32476057	1.8069345	-0.015545837	0.011038628	0.013249162	-0.0088694309	-0.0082886459	0	931.5567005898724
0.30199517	9.1201084e-8	0.53	0.33223321	1.7747702	-0.015576372	0.011097811	0.013382534	-0.0088372318	-0.008266785	0	931.5944261681362
0.30199517	1.e-7	0.53	0.34002492	1.7434454	-0.01560693	0.011156947	0.013518004	-0.0088042845	-0.0082439061	0	931.633174876692
0.30199517	1.0964782e-7	0.53	0.34814036	1.7129092	-0.015637507	0.011216021	0.013655628	-0.0087705574	-0.008219994	0	931.6729783601011
0.30199517	1.2022644e-7	0.53	0.35658449	1.6831102	-0.015668092	0.011275011	0.013795461	-0.0087360189	-0.0081950335	0	931.7138743419123
0.30199517	1.3182567e-7	0.53	0.36536267	1.6539977	-0.015698679	0.011333896	0.013937558	-0.0087006362	-0.0081690082	0	931.7558958478475
0.30199517	1.4454398e-7	0.53	0.37448058	1.6255203	-0.015729254	0.011392651	0.014081973	-0.0086643764	-0.0081419016	0	931.7990829221818
0.30199517	1.5848932e-7	0.53	0.38394415	1.597625	-0.015759805	0.011451242	0.014228754	-0.0086272061	-0.0081136973	0	931.8434707422425
0.30199517	1.7378008e-7	0.53	0.39375971	1.5702582	-0.015790317	0.011509635	0.01437795	-0.0085890907	-0.0080843781	0	931.8890978020213
0.30199517	1.9054607e-7	0.53	0.4039338	1.5433639	-0.015820771	0.011567787	0.014529605	-0.0085499955	-0.0080539274	0	931.936003863924
0.30199517	2.0892961e-7	0.53	0.41447323	1.516884	-0.015851145	0.011625652	0.014683761	-0.0085098853	-0.0080223283	0	931.9842305131134
0.30199517	2.2908677e-7	0.53	0.42538512	1.4907583	-0.015881417	0.011683174	0.014840453	-0.0084687238	-0.0079895641	0	932.0338158489639
0.30199517	2.5118864e-7	0.53	0.43667688	1.4649253	-0.015911559	0.011740295	0.014999717	-0.0084264739	-0.0079556175	0	932.0848041062125
0.30199517	2.7542287e-7	0.53	0.44835619	1.4393211	-0.015941541	0.011796947	0.015161582	-0.0083830983	-0.0079204716	0	932.137237912939
0.30199517	3.0199517e-7	0.53	0.46043113	1.413882	-0.015971333	0.011853062	0.015326079	-0.0083385584	-0.0078841083	0	932.1911608931625
0.30199517	3.3113112e-7	0.53	0.47291015	1.3885445	-0.016000901	0.011908564	0.015493234	-0.0082928151	-0.007846509	0	932.2466179393158
0.30199517	3.6307805e-7	0.53	0.4858022	1.363248	-0.01603021	0.011963378	0.015663078	-0.0082458284	-0.0078076531	0	932.3036573732445
0.30199517	3.9810717e-7	0.53	0.49911684	1.3379361	-0.016059228	0.012017428	0.015835644	-0.0081975571	-0.0077675176	0	932.362325694038
0.30199517	4.3651583e-7	0.53	0.51286428	1.3125597	-0.016087922	0.012070642	0.016010973	-0.0081479596	-0.0077260766	0	932.4226743241077
0.30199517	4.7863009e-7	0.53	0.52705557	1.2870789	-0.016116266	0.012122957	0.016189114	-0.0080969928	-0.0076832998	0	932.4847520926648
0.30199517	5.2480746e-7	0.53	0.54170269	1.2614658	-0.016144236	0.012174317	0.016370132	-0.0080446128	-0.0076391523	0	932.5486139173042
0.30199517	5.7543994e-7	0.53	0.55681869	1.2357067	-0.016171817	0.012224682	0.016554109	-0.0079907738	-0.0075935929	0	932.6143147250162
0.30199517	6.3095734e-7	0.53	0.57241765	1.2098025	-0.016199	0.012274027	0.016741146	-0.0079354296	-0.0075465748	0	932.6819132668223
0.30199517	6.9183097e-7	0.53	0.58851483	1.1837698	-0.016225787	0.012322346	0.016931366	-0.007878532	-0.0074980446	0	932.7514689138567
0.30199517	7.5857758e-7	0.53	0.60512668	1.1576404	-0.016252188	0.012369651	0.017124917	-0.0078200313	-0.0074479424	0	932.8230459699721
0.30199517	8.3176377e-7	0.53	0.62227073	1.1314599	-0.016278223	0.012415976	0.017321969	-0.0077598763	-0.0073962023	0	932.8967102986992
0.30199517	9.1201084e-7	0.53	0.63996557	1.1052854	-0.016303923	0.012461371	0.017522715	-0.0076980139	-0.0073427529	0	932.9725288816524
0.30199517	1.e-6	0.53	0.65823081	1.0791835	-0.016329327	0.012505908	0.017727373	-0.007634389	-0.0072875177	0	933.050573633163
0.30199517	1.0964782e-6	0.53	0.67708691	1.053227	-0.016354483	0.012549674	0.017936182	-0.0075689449	-0.0072304166	0	933.1309184688375
0.30199517	1.2022644e-6	0.53	0.69655515	1.0274927	-0.016379445	0.012592772	0.018149399	-0.0075016226	-0.0071713658	0	933.2136406303432
0.30199517	1.3182567e-6	0.53	0.71665752	1.0020585	-0.016404277	0.012635318	0.018367302	-0.0074323609	-0.0071102791	0	933.2988184210565
0.30199517	1.4454398e-6	0.53	0.73741666	0.97700132	-0.016429046	0.012677442	0.018590186	-0.0073610965	-0.0070470686	0	933.3865357911411
0.30199517	1.5848932e-6	0.53	0.75885575	0.95239501	-0.016453829	0.012719285	0.018818361	-0.0072877641	-0.0069816452	0	933.4768747646522
0.30199517	1.7378008e-6	0.53	0.78099855	0.92830949	-0.016478704	0.012760996	0.019052154	-0.0072122958	-0.0069139185	0	933.5699248915635
0.30199517	1.9054607e-6	0.53	0.80386933	0.90480946	-0.016503755	0.012802735	0.019291904	-0.0071346214	-0.0068437975	0	933.6657760600917
0.30199517	2.0892961e-6	0.53	0.82749285	0.88195371	-0.016529072	0.012844669	0.019537967	-0.0070546683	-0.0067711907	0	933.7645209865459
0.30199517	2.2908677e-6	0.53	0.85189438	0.85979473	-0.016554746	0.012886972	0.019790707	-0.0069723616	-0.0066960063	0	933.8662554314262
0.30199517	2.5118864e-6	0.53	0.87709972	0.83837852	-0.016580874	0.012929824	0.020050504	-0.0068876235	-0.0066181519	0	933.9710774853554
0.30199517	2.7542287e-6	0.53	0.90313514	0.81774412	-0.016607552	0.012973407	0.020317743	-0.0068003743	-0.0065375349	0	934.0790886683694
0.30199517	3.0199517e-6	0.53	0.93002748	0.79792371	-0.016634876	0.013017904	0.020592819	-0.0067105311	-0.0064540624	0	934.1903954802008
0.30199517	3.3113112e-6	0.53	0.95780406	0.77894199	-0.016662943	0.013063491	0.020876126	-0.0066180085	-0.0063676409	0	934.3051029830469
0.30199517	3.6307805e-6	0.53	0.98649272	0.76081563	-0.016691843	0.013110338	0.021168057	-0.0065227188	-0.0062781773	0	934.423322318093
0.30199517	3.9810717e-6	0.53	1.0161218	0.74355297	-0.016721657	0.013158596	0.021468994	-0.0064245707	-0.0061855779	0	934.5451676049468
0.30199517	4.3651583e-6	0.53	1.0467202	0.72715282	-0.016752455	0.013208395	0.021779305	-0.006323471	-0.0060897494	0	934.670756326859
0.30199517	4.7863009e-6	0.53	1.0783171	0.71160408	-0.016784292	0.01325983	0.022099332	-0.0062193229	-0.0059905991	0	934.8002071133513
0.30199517	5.2480746e-6	0.53	1.1109423	0.69688497	-0.016817202	0.01331296	0.022429386	-0.0061120275	-0.0058880346	0	934.933642887758
0.30199517	5.7543994e-6	0.53	1.144626	0.68296354	-0.016851197	0.013367802	0.022769746	-0.0060014822	-0.005781964	0	935.0711913088235
0.30199517	6.3095734e-6	0.53	1.1793988	0.66979801	-0.016886268	0.013424329	0.023120653	-0.0058875819	-0.0056722953	0	935.2129808433181
0.30199517	6.9183097e-6	0.53	1.2152921	0.65733828	-0.016922383	0.013482472	0.023482315	-0.0057702181	-0.0055589364	0	935.3591451350171
0.30199517	7.5857758e-6	0.53	1.2523379	0.64552781	-0.016959493	0.013542125	0.023854914	-0.0056492797	-0.0054417941	0	935.5098208530962
0.30199517	8.3176377e-6	0.53	1.290569	0.63430649	-0.016997535	0.013603155	0.024238611	-0.005524652	-0.0053207731	0	935.6651473632841
0.30199517	9.1201084e-6	0.53	1.3300192	0.62361307	-0.017036435	0.013665412	0.024633561	-0.0053962169	-0.0051957751	0	935.8252713787098
0.30199517	0.00001	0.53	1.3707234	0.61338704	-0.017076119	0.013728738	0.025039917	-0.0052638537	-0.0050666988	0	935.9903386165636
0.30199517	0.000010964782	0.53	1.412718	0.60357159	-0.017116509	0.013792974	0.025457847	-0.0051274372	-0.0049334371	0	936.1605060218417
0.30199517	0.000012022644	0.53	1.4560404	0.5941139	-0.017157534	0.013857968	0.02588753	-0.0049868391	-0.004795879	0	936.3359294402483
0.30199517	0.000013182567	0.53	1.5007295	0.58496626	-0.017199128	0.013923578	0.026329168	-0.0048419279	-0.004653908	0	936.5167714729635
0.30199517	0.000014454398	0.53	1.546826	0.5760867	-0.01724123	0.013989675	0.026782988	-0.0046925674	-0.0045074015	0	936.7032024725803
0.30199517	0.000015848932	0.53	1.5943719	0.56743872	-0.017283789	0.014056145	0.02724924	-0.0045386172	-0.004356231	0	936.8953948493408
0.30199517	0.000017378008	0.53	1.6434106	0.55899064	-0.017326762	0.014122888	0.027728201	-0.0043799334	-0.0042002626	0	937.0935269421439
0.30199517	0.000019054607	0.53	1.6939875	0.55071553	-0.017370109	0.014189814	0.028220169	-0.0042163675	-0.0040393564	0	937.2977847285551
0.30199517	0.000020892961	0.53	1.7461493	0.54259084	-0.017413802	0.014256849	0.028725473	-0.0040477661	-0.0038733665	0	937.5083583484143
0.30199517	0.000022908677	0.53	1.7999444	0.5345974	-0.017457815	0.014323928	0.029244459	-0.0038739722	-0.0037021418	0	937.7254445279144
0.30199517	0.000025118864	0.53	1.8554231	0.52671994	-0.017502131	0.014391001	0.029777503	-0.0036948226	-0.0035255242	0	937.9492464762493
0.30199517	0.000027542287	0.53	1.9126372	0.51894591	-0.01754674	0.014458026	0.030325003	-0.0035101498	-0.0033433502	0	938.1799717809873
0.30199517	0.000030199517	0.53	1.9716405	0.51126556	-0.017591635	0.014524975	0.030887384	-0.0033197813	-0.0031554502	0	938.4178386561812
0.30199517	0.000033113112	0.53	2.0324882	0.50367154	-0.017636817	0.014591829	0.031465094	-0.0031235389	-0.0029616488	0	938.6630692526624
0.30199517	0.000036307805	0.53	2.0952379	0.49615888	-0.017682294	0.014658584	0.03205861	-0.0029212389	-0.0027617635	0	938.9158935854238
0.30199517	0.000039810717	0.53	2.1599485	0.48872435	-0.017728081	0.014725244	0.032668433	-0.0027126921	-0.0025556063	0	939.1765470437729
0.30199517	0.000043651583	0.53	2.2266812	0.48136651	-0.017774196	0.014791827	0.033295092	-0.0024977036	-0.0023429827	0	939.4452761414705
0.30199517	0.000047863009	0.53	2.2954993	0.47408549	-0.017820668	0.014858362	0.033939145	-0.0022760714	-0.0021236908	0	939.7223314981778
0.30199517	0.000052480746	0.53	2.3664677	0.46688233	-0.017867528	0.014924888	0.034601176	-0.0020475884	-0.001897523	0	940.0079748016365
0.30199517	0.000057543994	0.53	2.4396538	0.45975906	-0.017914816	0.014991457	0.035281797	-0.0018120403	-0.0016642645	0	940.3024732266492
0.30199517	0.000063095734	0.53	2.5151269	0.45271822	-0.017962574	0.015058127	0.035981646	-0.0015692064	-0.0014236936	0	940.606105016099
0.30199517	0.000069183097	0.53	2.5929586	0.44576262	-0.018010852	0.015124967	0.036701387	-0.0013188591	-0.001175582	0	940.9191538435563
0.30199517	0.000075857758	0.53	2.6732226	0.43889522	-0.018059703	0.015192054	0.037441714	-0.0010607635	-0.00091969372	0	941.2419155029842
0.30199517	0.000083176377	0.53	2.755995	0.43211865	-0.018109183	0.015259468	0.038203342	-0.00079467757	-0.00065578596	0	941.5746934270128
0.30199517	0.000091201084	0.53	2.8413545	0.42543527	-0.018159353	0.015327299	0.038987014	-0.00052035163	-0.00038360819	0	941.9178002935948
0.30199517	0.0001	0.53	2.9293821	0.41884707	-0.018210276	0.01539564	0.039793499	-0.00023752745	-0.00010290158	0	942.271559848763
0.30199517	0.00010964782	0.53	3.0201612	0.41235503	-0.018262017	0.015464585	0.040623585	0.000054059301	0.00018659849	0	942.6363034208423
0.30199517	0.00012022644	0.53	3.1137782	0.40596004	-0.018314643	0.015534234	0.041478093	0.00035468392	0.00048516763	0	943.012376892025
0.30199517	0.00013182567	0.53	3.2103219	0.39966187	-0.018368221	0.015604687	0.042357859	0.00066462798	0.00079308733	0	943.400133614048
0.30199517	0.00014454398	0.53	3.3098843	0.39346	-0.018422821	0.015676046	0.043263749	0.00098418336	0.0011106493	0	943.7999390590411
0.30199517	0.00015848932	0.53	3.4125601	0.38735318	-0.018478512	0.015748411	0.044196651	0.0013136502	0.0014381533	0	944.2121705940315
0.30199517	0.00017378008	0.53	3.5184473	0.38133992	-0.018535364	0.015821885	0.045157478	0.0016533389	0.0017759092	0	944.637217095722
0.30199517	0.00019054607	0.53	3.6276468	0.37541827	-0.018593445	0.015896568	0.046147167	0.0020035689	0.0021242359	0	945.0754812712169
0.30199517	0.00020892961	0.53	3.7402632	0.3695862	-0.018652825	0.015972558	0.047166678	0.00236467	0.0024834624	0	945.5273754017921
0.30199517	0.00022908677	0.53	3.8564041	0.36384167	-0.018713571	0.016049953	0.048216998	0.0027369825	0.0028539285	0	945.9933280325993
0.30199517	0.00025118864	0.53	3.9761811	0.35818272	-0.018775749	0.016128846	0.049299138	0.0031208573	0.0032359844	0	946.473780599627
0.30199517	0.00027542287	0.53	4.0997091	0.35260768	-0.018839425	0.016209329	0.050414137	0.0035166566	0.0036299918	0	946.9691884820134
0.30199517	0.00030199517	0.53	4.227107	0.34711517	-0.018904662	0.01629149	0.051563055	0.003924754	0.0040363238	0	947.4800203349548
0.30199517	0.00033113112	0.53	4.3584974	0.3417041	-0.018971522	0.016375411	0.052746981	0.0043455341	0.0044553647	0	948.0067601943326
0.30199517	0.00036307805	0.53	4.4940071	0.33637391	-0.019040062	0.016461172	0.053967033	0.004779395	0.0048875123	0	948.5499112349747
0.30199517	0.00039810717	0.53	4.6337669	0.33112437	-0.019110341	0.016548848	0.055224354	0.0052267471	0.0053331771	0	949.1099872018185
0.30199517	0.00043651583	0.53	4.7779118	0.32595545	-0.019182412	0.016638509	0.056520116	0.0056880132	0.0057927818	0	949.6875219183136
0.30199517	0.00047863009	0.53	4.9265812	0.32086734	-0.019256327	0.016730218	0.057855521	0.0061636299	0.0062667631	0	950.283065086563
0.30199517	0.00052480746	0.53	5.0799191	0.31586027	-0.019332136	0.016824034	0.059231798	0.006654048	0.0067555718	0	950.8971817329818
0.30199517	0.00057543994	0.53	5.238074	0.31093437	-0.019409883	0.016920012	0.060650213	0.0071597328	0.0072596734	0	951.5304609462532
0.30199517	0.00063095734	0.53	5.4011988	0.30608928	-0.019489611	0.017018195	0.062112054	0.0076811629	0.0077795461	0	952.1835037099574
0.30199517	0.00069183097	0.53	5.5694099	0.30158506	-0.019569338	0.017114648	0.063614672	0.0082187935	0.008315729	0	952.8568531210537
0.30199517	0.00075857758	0.53	5.7429485	0.29690997	-0.019652927	0.01721693	0.065166952	0.0087732119	0.0088686447	0	953.5513040988067
0.30199517	0.00083176377	0.53	5.9219458	0.29231095	-0.01973857	0.01732145	0.066766668	0.0093449076	0.0094388622	0	954.2674468969599
0.30199517	0.00091201084	0.53	6.1065752	0.28778465	-0.019826285	0.017428206	0.068415229	0.0099344246	0.010026924	0	955.0059662425543
0.30199517	0.001	0.53	6.2970158	0.28332666	-0.01991608	0.017537178	0.070114069	0.010542324	0.010633391	0	955.7675687075239
0.30199517	0.0010964782	0.53	6.4934515	0.27893102	-0.020007947	0.01764831	0.07186463	0.011169185	0.011258839	0	956.5529798806059
0.30199517	0.0012022644	0.53	6.6960717	0.27458998	-0.020101849	0.017761498	0.073668353	0.011815602	0.011903861	0	957.3629520999631
0.30199517	0.0013182567	0.53	6.9050707	0.27029281	-0.020197709	0.017876553	0.075526641	0.012482193	0.012569071	0	958.1982563635261
0.30199517	0.0014454398	0.53	7.1206464	0.26602355	-0.020295371	0.017993134	0.0774408	0.013169593	0.013255098	0	959.0596895918336
0.30199517	0.0015848932	0.53	7.3429985	0.26175682	-0.020394556	0.018110655	0.079411935	0.013878455	0.013962589	0	959.9480641800651
0.30199517	0.0017378008	0.53	7.5723268	0.25745159	-0.020494789	0.018228146	0.081440825	0.014609455	0.014692206	0	960.864214340108
0.30199517	0.0019054607	0.53	7.8088068	0.25304998	-0.020595323	0.018344055	0.08352772	0.015363284	0.01544462	0	961.808966419688
0.30199517	0.0020892961	0.53	8.0509403	0.24845656	-0.020695104	0.0184528	0.085668895	0.016140618	0.016220477	0	962.7814557837913
0.30199517	0.0022908677	0.53	8.243518	0.22831053	-0.020794629	0.018440382	0.087752267	0.016940316	0.017013699	0	963.7254015377836
0.30199517	0.0025118864	0.53	8.4228834	0.18894807	-0.020933538	0.018440995	0.089914006	0.017756226	0.017816957	0	964.6713678364565
0.30199517	0.0027542287	0.53	8.6771692	0.17880037	-0.021095273	0.018609234	0.092310743	0.018594119	0.018651589	0	965.7129094848535
0.30199517	0.0030199517	0.53	8.948771	0.17468573	-0.021251391	0.018781108	0.094780589	0.019457949	0.019514096	0	966.7961347339035
0.30199517	0.0033113112	0.53	9.2299821	0.171245	-0.021404942	0.018946941	0.097316034	0.020348884	0.020403925	0	967.914438157326
0.30199517	0.0036307805	0.53	9.5203784	0.16791334	-0.021559283	0.019111697	0.099924276	0.021267836	0.021321806	0	969.0682500196773
0.30199517	0.0039810717	0.53	9.8201644	0.16462979	-0.021716058	0.019278301	0.10261054	0.022215712	0.022268628	0	970.2586275668679
0.30199517	0.0043651583	0.53	10.129633	0.1613834	-0.021876047	0.019448198	0.10537865	0.023193448	0.02324532	0	971.4867421738106
0.30199517	0.0047863009	0.53	10.449108	0.15816915	-0.022039642	0.01962215	0.10823182	0.024202007	0.024252846	0	972.753826005297
0.30199517	0.0052480746	0.53	10.778931	0.15498401	-0.022207071	0.019800632	0.11117304	0.025242389	0.025292204	0	974.061153769637
0.30199517	0.0057543994	0.53	11.11946	0.15182624	-0.022378488	0.019983996	0.11420528	0.026315624	0.026364424	0	975.4100597435846
0.30199517	0.0063095734	0.53	11.471069	0.14869506	-0.022554023	0.020172566	0.11733154	0.027422781	0.027470575	0	976.8019156925507
0.30199517	0.0069183097	0.53	11.834148	0.14559015	-0.022733794	0.020366663	0.12055491	0.028564963	0.028611759	0	978.2381494739973
0.30199517	0.0075857758	0.53	12.209104	0.14251155	-0.022917918	0.020566634	0.12387859	0.029743317	0.029789123	0	979.7202446616127
0.30199517	0.0083176377	0.53	12.596361	0.13945938	-0.023106516	0.020772841	0.1273059	0.030959026	0.031003851	0	981.2497408271788
0.30199517	0.0091201084	0.53	12.996362	0.1364339	-0.023299708	0.020985684	0.13084026	0.032213317	0.03225717	0	982.8282282790072
0.30199517	0.01	0.53	13.409568	0.13343537	-0.023497621	0.021205598	0.13448525	0.033507463	0.033550352	0	984.4573704235942
0.30199517	0.010964782	0.53	13.836463	0.1304641	-0.023700387	0.021433062	0.13824457	0.034842782	0.034884716	0	986.1388857259637
0.30199517	0.012022644	0.53	14.277553	0.12752036	-0.023908142	0.021668594	0.14212206	0.03622064	0.036261627	0	987.8745586086294
0.30199517	0.013182567	0.53	14.733365	0.12460443	-0.024121033	0.021912774	0.14612175	0.037642454	0.037682504	0	989.6662577731154
0.30199517	0.014454398	0.53	15.204453	0.12171652	-0.024339213	0.022166237	0.15024781	0.039109694	0.039148816	0	991.5159159993036
0.30199517	0.015848932	0.53	15.691398	0.11885675	-0.024562848	0.022429692	0.15450459	0.040623886	0.040662089	0	993.42554348726
0.30199517	0.017378008	0.53	16.194808	0.11602513	-0.02479212	0.022703924	0.15889665	0.042186613	0.042223906	0	995.3972399776292
0.30199517	0.019054607	0.53	16.715323	0.11322155	-0.025027231	0.022989824	0.16342875	0.043799523	0.043835914	0	997.4331860136747
0.30199517	0.020892961	0.53	17.253615	0.11044563	-0.025268406	0.023288389	0.1681059	0.045464323	0.045499823	0	999.5356650210673
0.30199517	0.022908677	0.53	17.81039	0.10769671	-0.025515901	0.023600746	0.17293336	0.04718279	0.047217406	0	1001.7070557913601
0.30199517	0.025118864	0.53	18.386395	0.10497382	-0.02577002	0.0239282	0.17791667	0.048956774	0.048990515	0	1003.9498314484667
0.30199517	0.027542287	0.53	18.982414	0.10227548	-0.02603112	0.024272235	0.18306173	0.050788196	0.050821069	0	1006.2665945884074
0.30199517	0.030199517	0.53	19.59928	0.09959968	-0.026299633	0.024634593	0.18837478	0.052679058	0.052711071	0	1008.660046649476
0.30199517	0.033113112	0.53	20.237871	0.096943695	-0.026576097	0.025017323	0.19386256	0.054631449	0.054662609	0	1011.133038460858
0.30199517	0.036307805	0.53	20.899119	0.094303909	-0.026861181	0.025422851	0.19953229	0.056647541	0.056677852	0	1013.6885367941019
0.30199517	0.039810717	0.53	21.584017	0.091675639	-0.02715575	0.025854118	0.20539188	0.058729605	0.058759071	0	1016.3296678649972
0.30199517	0.043651583	0.53	22.293625	0.089052847	-0.027460926	0.026314732	0.21145006	0.060880012	0.060908635	0	1019.0597247561391
0.30199517	0.047863009	0.53	23.029077	0.086427778	-0.027778197	0.026809164	0.21771657	0.063101234	0.063129014	0	1021.8821596185363
0.30199517	0.052480746	0.53	23.791598	0.083790531	-0.028109577	0.027343135	0.22420258	0.06539587	0.065422802	0	1024.8006424884027
0.30199517	0.057543994	0.53	24.58252	0.081128371	-0.028457836	0.027924059	0.2309211	0.067766633	0.067792709	0	1027.8190493546765
0.30199517	0.063095734	0.53	22.869588	0.073993263	-0.027170701	0.020288831	0.22961482	0.070184552	0.070208335	0	1028.3779090259877
0.30199517	0.069183097	0.53	21.307375	0.067485968	-0.02599682	0.012571224	0.22842349	0.072389721	0.072411413	0	1028.8876007727508
0.30199517	0.075857758	0.53	19.882621	0.061551243	-0.024926229	0.0047549712	0.22733698	0.074400859	0.074420643	0	1029.3524419917057
0.30199517	0.083176377	0.53	20.935318	0.057106596	-0.025477997	0.0047331727	0.23425473	0.076395093	0.076413448	0	1032.278849343647
0.30199517	0.091201084	0.53	22.254945	0.052958567	-0.025889544	0.0049949592	0.24167242	0.078510415	0.078527437	0	1035.5859584281025
0.30199517	0.1	0.53	23.78486	0.049056375	-0.026058074	0.0052604697	0.24931694	0.080765159	0.080780926	0	1039.2343523176394
0.30199517	0.10964782	0.53	25.558454	0.045389492	-0.025932074	0.0055344878	0.25720003	0.083181517	0.083196106	0	1043.278277005653
0.30199517	0.12022644	0.53	27.617935	0.041948544	-0.025447739	0.0058230198	0.26533485	0.085785358	0.085798841	0	1047.7842347397036
0.30199517	0.13182567	0.53	30.018274	0.038725322	-0.02452361	0.0061330945	0.27373584	0.088607279	0.088619726	0	1052.8359522551727
0.30199517	0.14454398	0.53	32.832347	0.035712792	-0.023053477	0.0064724955	0.28241841	0.091684094	0.091695573	0	1058.5408944999676
0.30199517	0.15848932	0.53	36.157101	0.032905099	-0.020897591	0.0068494337	0.29139863	0.095060889	0.095071466	0	1065.0383671642276
0.30199517	0.17378008	0.53	40.120211	0.030297527	-0.017872687	0.0072721447	0.30069285	0.098793706	0.098803444	0	1072.5087014953606
0.30199517	0.19054607	0.53	44.886003	0.027886391	-0.013742097	0.0077483789	0.31031719	0.10295286	0.10296182	0	1081.1822898161454
0.30199517	0.20892961	0.53	50.65852	0.025668806	-0.0082083605	0.008284741	0.32028686	0.1076267	0.10763495	0	1091.3461898235307
0.30199517	0.22908677	0.53	57.678584	0.023642261	-0.00091210727	0.0088858558	0.33061539	0.11292547	0.11293306	0	1103.3447908626151
0.30199517	0.25118864	0.53	66.211137	0.02180396	0.0085580554	0.0095534167	0.34131363	0.11898432	0.11899132	0	1117.570026239502
0.30199517	0.27542287	0.53	76.520117	0.02014994	0.020640502	0.010285303	0.35238894	0.1259646	0.12597108	0	1134.437442491837
0.30199517	0.30199517	0.53	88.83171	0.0186741	0.035759908	0.011075092	0.36384462	0.13405202	0.13405802	0	1154.3476932760236
0.30199517	0.33113112	0.53	103.29292	0.017367411	0.05427726	0.011912345	0.3756803	0.1434509	0.14345648	0	1177.6397648444718
0.30199517	0.36307805	0.53	119.938	0.016217624	0.07644395	0.012783821	0.3878931	0.15437465	0.15437986	0	1204.5484222570976
0.30199517	0.39810717	0.53	138.67552	0.015209679	0.10237509	0.0136754	0.40047959	0.16703388	0.16703877	0	1235.1801127246208
0.30199517	0.43651583	0.53	159.3015	0.014326728	0.13205054	0.014574123	0.41343785	0.18162452	0.18162912	0	1269.5149572991927
0.30199517	0.47863009	0.53	181.53317	0.013551454	0.16534048	0.015469725	0.42676896	0.1983183	0.19832265	0	1307.4315194142819
0.30199517	0.52480746	0.53	205.0508	0.012867274	0.20204392	0.016355318	0.44047777	0.21725708	0.21726122	0	1348.7433709829247
0.30199517	0.57543994	0.53	229.53558	0.012259197	0.24192736	0.017227304	0.45457277	0.23855117	0.23855511	0	1393.2353512581012
0.30199517	0.63095734	0.53	254.69661	0.011714246	0.28475526	0.018084801	0.46906553	0.26228081	0.26228458	0	1440.691916525955
0.30199517	0.69183097	0.53	280.2858	0.011221541	0.33030996	0.018928895	0.48397	0.28849974	0.28850335	0	1490.915507668821
0.30199517	0.75857758	0.53	306.1032	0.010772154	0.37840214	0.019761938	0.49930179	0.31723975	0.31724321	0	1543.7360194806465
0.30199517	0.83176377	0.53	331.99578	0.010358865	0.42887458	0.020586992	0.51507761	0.34851532	0.34851865	0	1599.014054569714
0.30199517	0.91201084	0.53	357.85277	0.0099758786	0.48160173	0.021407421	0.53131493	0.38232809	0.3823313	0	1656.6403500358635
0.30199517	1.	0.53	383.59956	0.0096185626	0.53648726	0.02222664	0.5480317	0.41867064	0.41867373	0	1716.533336103886
0.30199517	1.0964782	0.53	409.19139	0.009283212	0.59346062	0.023047953	0.56524621	0.45752974	0.45753273	0	1778.6358343029733
0.30199517	1.2022644	0.53	434.60754	0.0089668587	0.65247355	0.023874476	0.58297702	0.49888903	0.49889192	0	1842.9117435257683
0.30199517	1.3182567	0.53	459.84628	0.0086671141	0.71349678	0.024709102	0.60124296	0.54273106	0.54273385	0	1909.3429394627142
0.30199517	1.4454398	0.53	484.92058	0.0083820459	0.77651712	0.025554494	0.62006312	0.58903897	0.58904166	0	1977.926535487184
0.30199517	1.5848932	0.53	509.85463	0.0081100805	0.84153504	0.026413097	0.6394569	0.63779774	0.63780035	0	2048.672633805824
0.30199517	1.7378008	0.53	534.68104	0.0078499271	0.9085626	0.027287162	0.65944402	0.68899517	0.68899769	0	2121.602385537965
0.30199517	1.9054607	0.53	559.43863	0.0076005182	0.97762174	0.02817876	0.68004457	0.74262256	0.74262501	0	2196.746408957363
0.30199517	2.0892961	0.53	584.17062	0.0073609636	1.048743	0.029089816	0.70127904	0.79867526	0.79867763	0	2274.14360178764
0.30199517	2.2908677	0.53	608.92333	0.0071305141	1.1219642	0.030022124	0.7231684	0.85715301	0.8571553	0	2353.839940813588
0.30199517	2.5118864	0.53	633.74505	0.0069085336	1.1973299	0.030977372	0.74573407	0.91806019	0.91806241	0	2435.8879595767958
0.30199517	2.7542287	0.53	658.68532	0.0066944769	1.2748903	0.03195716	0.76899804	0.98140599	0.98140814	0	2520.3457746101194
0.30199517	3.0199517	0.53	683.79424	0.0064878719	1.3547008	0.032963013	0.79298284	1.0472045	1.0472066	0	2607.2766570898348
0.30199517	3.3113112	0.53	709.12207	0.0062883064	1.4368217	0.033996404	0.81771159	1.1154747	1.1154767	0	2696.7487758645207
0.30199517	3.6307805	0.53	734.71889	0.0060954168	1.5213176	0.035058758	0.84320806	1.1862404	1.1862424	0	2788.8346635940215
0.30199517	3.9810717	0.53	760.63439	0.0059088797	1.6082573	0.036151469	0.86949668	1.2595306	1.2595325	0	2883.611127772615
0.30199517	4.3651583	0.53	786.91769	0.0057284045	1.6977133	0.037275907	0.89660257	1.3353789	1.3353807	0	2981.1587958854184
0.30199517	4.7863009	0.53	813.61724	0.0055537284	1.789762	0.038433427	0.92455156	1.4138237	1.4138254	0	3081.562313280856
0.30199517	5.2480746	0.53	840.78083	0.0053846116	1.8844833	0.039625376	0.95337027	1.4949081	1.4949098	0	3184.9100071820912
0.30199517	5.7543994	0.53	868.45554	0.0052208338	1.9819606	0.040853102	0.98308609	1.5786799	1.5786816	0	3291.29387672763
0.30199517	6.3095734	0.53	896.68776	0.005062191	2.0822807	0.042117956	1.0137272	1.6651916	1.6651933	0	3400.80950897418
0.30199517	6.9183097	0.53	925.52324	0.0049084938	2.1855337	0.043421301	1.0453227	1.7545001	1.7545017	0	3513.5560496761714
0.30199517	7.5857758	0.53	955.00716	0.0047595645	2.2918134	0.044764512	1.0779025	1.8466666	1.8466681	0	3629.6365243352293
0.30199517	8.3176377	0.53	985.18417	0.0046152364	2.4012165	0.046148985	1.1114974	1.941757	1.9417585	0	3749.157126385472
0.30199517	9.1201084	0.53	1016.0985	0.0044753519	2.5138434	0.047576139	1.1461392	2.0398413	2.0398428	0	3872.2280236224515
0.30199517	10.	0.53	1047.7939	0.0043397616	2.6297979	0.049047417	1.1818607	2.140994	2.1409954	0	3998.963076333539