0.13182567	1.e-12	0.33	11.053024	388.05198	-0.0026744949	-0.018287141	-0.018284591	-0.020472386	0.033973229	0	931.383229776176
0.13182567	1.0964782e-12	0.33	10.082052	354.15467	-0.0026615727	-0.018321231	-0.018318435	-0.019437206	0.03025245	0	931.3848774731389
0.13182567	1.2022644e-12	0.33	9.1965214	323.23915	-0.0026486506	-0.018355322	-0.018352257	-0.018492955	0.026859099	0	931.3865318973899
0.13182567	1.3182567e-12	0.33	8.3889148	295.04306	-0.0026357289	-0.018389415	-0.018386054	-0.017631633	0.023764371	0	931.3881936972289
0.13182567	1.4454398e-12	0.33	7.6523767	269.32716	-0.0026228076	-0.018423509	-0.018419824	-0.016845942	0.020941994	0	931.3898634927689
0.13182567	1.5848932e-12	0.33	6.9806544	245.87324	-0.0026098869	-0.018457603	-0.018453563	-0.016129226	0.018368008	0	931.3915423363233
0.13182567	1.7378008e-12	0.33	6.3680458	224.4823	-0.0025969671	-0.018491697	-0.018487267	-0.015475416	0.016020563	0	931.3932311862484
0.13182567	1.9054607e-12	0.33	5.8093504	204.97283	-0.002584049	-0.018525789	-0.018520932	-0.014878976	0.013879728	0	931.3949305311187
0.13182567	2.0892961e-12	0.33	5.2998254	187.17932	-0.0025711332	-0.018559878	-0.018554552	-0.014334856	0.011927331	0	931.3966416675341
0.13182567	2.2908677e-12	0.33	4.8351453	170.9508	-0.0025582212	-0.018593958	-0.018588119	-0.013838452	0.010146792	0	931.3983656665991
0.13182567	2.5118864e-12	0.33	4.411365	156.14957	-0.0025453152	-0.018628026	-0.018621623	-0.013385564	0.0085229943	0	931.4001035618359
0.13182567	2.7542287e-12	0.33	4.024887	142.65003	-0.0025324188	-0.018662072	-0.018655052	-0.012972361	0.0070421447	0	931.4018556914875
0.13182567	3.0199517e-12	0.33	3.6724297	130.33761	-0.0025195374	-0.01869608	-0.018688384	-0.012595352	0.0056916615	0	931.4036238031456
0.13182567	3.3113112e-12	0.33	3.3510003	119.10777	-0.0025066801	-0.018730029	-0.018721591	-0.012251348	0.0044600617	0	931.4054080283497
0.13182567	3.6307805e-12	0.33	3.0578684	108.86502	-0.0024938635	-0.018763875	-0.018754623	-0.011937446	0.0033368561	0	931.4072082731429
0.13182567	3.9810717e-12	0.33	2.7905398	99.521724	-0.0024811398	-0.01879748	-0.018787338	-0.011650994	0.002312397	0	931.4090195202465
0.13182567	4.3651583e-12	0.33	2.5467064	90.993138	-0.0024688595	-0.018829916	-0.018818796	-0.011389578	0.0013772104	0	931.4108039051766
0.13182567	4.7863009e-12	0.33	2.3240984	83.178505	-0.0024588505	-0.018856327	-0.018844138	-0.011151005	0.00051935151	0	931.4123505612818
0.13182567	5.2480746e-12	0.33	2.1206598	75.987989	-0.0024528756	-0.018872029	-0.018858667	-0.0109333	-0.00027180897	0	931.4134595584513
0.13182567	5.7543994e-12	0.33	1.9348746	69.391033	-0.0024494468	-0.018880966	-0.018866319	-0.010734661	-0.0009987557	0	931.414308587284
0.13182567	6.3095734e-12	0.33	1.7653422	63.357022	-0.0024472132	-0.018886724	-0.01887067	-0.010553427	-0.0016641225	0	931.4150581443334
0.13182567	6.9183097e-12	0.33	1.610699	57.845622	-0.0024456037	-0.018890821	-0.018873225	-0.01038807	-0.0022720428	0	931.4157781802394
0.13182567	7.5857758e-12	0.33	1.4696663	52.815	-0.0024443655	-0.018893927	-0.018874643	-0.010237196	-0.0028269896	0	931.4165018898457
0.13182567	8.3176377e-12	0.33	1.3410646	48.225033	-0.0024433706	-0.018896383	-0.018875252	-0.010099528	-0.0033333171	0	931.4172478389642
0.13182567	9.1201084e-12	0.33	1.2238123	44.038248	-0.0024425466	-0.018898382	-0.018875228	-0.0099739022	-0.0037951179	0	931.4180294821701
0.13182567	1.e-11	0.33	1.1169203	40.220035	-0.002441849	-0.018900041	-0.018874676	-0.0098592549	-0.0042161847	0	931.4188560741825
0.13182567	1.0964782e-11	0.33	1.0194849	36.738595	-0.0024412485	-0.018901439	-0.018873656	-0.0097546152	-0.0046000083	0	931.419736540872
0.13182567	1.2022644e-11	0.33	0.93068152	33.564791	-0.002440725	-0.01890263	-0.018872205	-0.0096590974	-0.0049497909	0	931.4206782954092
0.13182567	1.3182567e-11	0.33	0.84975768	30.671972	-0.0024402638	-0.018903654	-0.018870343	-0.0095718927	-0.0052684631	0	931.4216889482736
0.13182567	1.4454398e-11	0.33	0.77602704	28.035776	-0.0024398542	-0.018904538	-0.018868079	-0.0094922629	-0.0055587046	0	931.4227757623053
0.13182567	1.5848932e-11	0.33	0.70886364	25.633954	-0.0024394879	-0.018905307	-0.018865415	-0.0094195339	-0.0058229631	0	931.4239459157834
0.13182567	1.7378008e-11	0.33	0.64769662	23.446191	-0.0024391584	-0.018905976	-0.018862347	-0.0093530905	-0.0060634736	0	931.4252067561092
0.13182567	1.9054607e-11	0.33	0.59200532	21.453939	-0.0024388605	-0.018906562	-0.018858866	-0.0092923706	-0.0062822767	0	931.4265659595314
0.13182567	2.0892961e-11	0.33	0.54131486	19.640263	-0.00243859	-0.018907074	-0.018854964	-0.0092368613	-0.0064812351	0	931.4280299526772
0.13182567	2.2908677e-11	0.33	0.495192	17.989701	-0.0024383434	-0.018907524	-0.018850626	-0.0091860938	-0.0066620496	0	931.4296066748736
0.13182567	2.5118864e-11	0.33	0.4532413	16.488125	-0.0024381178	-0.018907919	-0.018845841	-0.0091396399	-0.0068262743	0	931.4313022614826
0.13182567	2.7542287e-11	0.33	0.41510168	15.122623	-0.0024379107	-0.018908266	-0.018840595	-0.0090971089	-0.00697533	0	931.4331234022093
0.13182567	3.0199517e-11	0.33	0.38044321	13.881383	-0.0024377199	-0.018908572	-0.018834877	-0.0090581434	-0.0071105167	0	931.4350755747195
0.13182567	3.3113112e-11	0.33	0.34896411	12.753587	-0.0024375438	-0.018908841	-0.018828676	-0.0090224171	-0.0072330257	0	931.4371636929402
0.13182567	3.6307805e-11	0.33	0.32038813	11.72932	-0.0024373806	-0.018909078	-0.018821986	-0.0089896323	-0.0073439506	0	931.4393913084286
0.13182567	3.9810717e-11	0.33	0.29446206	10.799478	-0.0024372291	-0.018909288	-0.018814804	-0.0089595168	-0.0074442965	0	931.4417604788325
0.13182567	4.3651583e-11	0.33	0.27095355	9.9556942	-0.0024370879	-0.018909473	-0.018807129	-0.0089318225	-0.0075349893	0	931.4442728296002
0.13182567	4.7863009e-11	0.33	0.2496492	9.1902698	-0.0024369561	-0.018909638	-0.018798969	-0.0089063228	-0.0076168824	0	931.4469267258877
0.13182567	5.2480746e-11	0.33	0.23035279	8.4961142	-0.0024368326	-0.018909784	-0.018790332	-0.0088828117	-0.0076907648	0	931.4497207207647
0.13182567	5.7543994e-11	0.33	0.21288387	7.8666945	-0.0024367167	-0.018909916	-0.018781235	-0.0088611013	-0.007757365	0	931.4526502009651
0.13182567	6.3095734e-11	0.33	0.19707643	7.2959934	-0.0024366076	-0.018910035	-0.018771697	-0.0088410205	-0.0078173565	0	931.4557100270665
0.13182567	6.9183097e-11	0.33	0.1827779	6.7784726	-0.0024365045	-0.018910142	-0.018761743	-0.0088224141	-0.0078713608	0	931.4588931993071
0.13182567	7.5857758e-11	0.33	0.16984817	6.3090436	-0.0024364069	-0.018910242	-0.018751397	-0.0088051412	-0.0079199511	0	931.462192746112
0.13182567	8.3176377e-11	0.33	0.1581588	5.8830406	-0.0024363143	-0.018910334	-0.01874069	-0.0087890739	-0.0079636542	0	931.4655995255102
0.13182567	9.1201084e-11	0.33	0.1475923	5.4961974	-0.0024362261	-0.018910421	-0.018729651	-0.0087740966	-0.0080029528	0	931.4691051096006
0.13182567	1.e-10	0.33	0.13804148	5.1446247	-0.0024361419	-0.018910505	-0.018718309	-0.0087601045	-0.0080382881	0	931.4727008825689
0.13182567	1.0964782e-10	0.33	0.12940875	4.8247882	-0.0024360613	-0.018910586	-0.018706694	-0.0087470029	-0.0080700612	0	931.4763779185446
0.13182567	1.2022644e-10	0.33	0.12160551	4.5334859	-0.002435984	-0.018910667	-0.018694832	-0.0087347061	-0.0080986356	0	931.480128437926
0.13182567	1.3182567e-10	0.33	0.11455156	4.267826	-0.0024359095	-0.018910748	-0.018682751	-0.008723137	-0.0081243399	0	931.4839442289124
0.13182567	1.4454398e-10	0.33	0.10817438	4.0252031	-0.0024358377	-0.018910831	-0.018670471	-0.0087122255	-0.0081474696	0	931.4878191843288
0.13182567	1.5848932e-10	0.33	0.10240863	3.8032759	-0.0024357681	-0.018910916	-0.018658015	-0.0087019088	-0.0081682903	0	931.4917466426571
0.13182567	1.7378008e-10	0.33	0.097195436	3.599944	-0.0024357007	-0.018911005	-0.0186454	-0.0086921297	-0.0081870397	0	931.4957213329354
0.13182567	1.9054607e-10	0.33	0.092481904	3.4133262	-0.002435635	-0.018911099	-0.01863264	-0.0086828369	-0.0082039303	0	931.4997393841547
0.13182567	2.0892961e-10	0.33	0.088220517	3.2417387	-0.0024355711	-0.018911198	-0.018619749	-0.0086739834	-0.0082191514	0	931.5037963615666
0.13182567	2.2908677e-10	0.33	0.084368654	3.0836765	-0.0024355085	-0.018911304	-0.018606738	-0.0086655273	-0.0082328722	0	931.5078893243311
0.13182567	2.5118864e-10	0.33	0.080888095	2.9377942	-0.0024354472	-0.018911418	-0.018593613	-0.0086574304	-0.0082452433	0	931.5120164121093
0.13182567	2.7542287e-10	0.33	0.077744596	2.8028893	-0.0024353871	-0.018911539	-0.01858038	-0.0086496577	-0.0082563985	0	931.5161758585181
0.13182567	3.0199517e-10	0.33	0.074907495	2.6778874	-0.0024353279	-0.01891167	-0.018567044	-0.0086421781	-0.0082664573	0	931.5203663951443
0.13182567	3.3113112e-10	0.33	0.072349339	2.5618277	-0.0024352695	-0.018911811	-0.018553607	-0.0086349627	-0.0082755256	0	931.5245874958314
0.13182567	3.6307805e-10	0.33	0.070045575	2.453851	-0.0024352118	-0.018911962	-0.018540068	-0.0086279853	-0.0082836978	0	931.5288395645923
0.13182567	3.9810717e-10	0.33	0.067974255	2.3531887	-0.0024351547	-0.018912124	-0.018526427	-0.0086212223	-0.0082910583	0	931.5331226953838
0.13182567	4.3651583e-10	0.33	0.066115767	2.2591524	-0.0024350981	-0.018912299	-0.018512682	-0.0086146516	-0.0082976813	0	931.5374376022754
0.13182567	4.7863009e-10	0.33	0.064452626	2.1711261	-0.0024350419	-0.018912486	-0.018498828	-0.0086082535	-0.0083036337	0	931.5417859295067
0.13182567	5.2480746e-10	0.33	0.062969244	2.0885575	-0.0024349859	-0.018912687	-0.018484861	-0.0086020095	-0.0083089745	0	931.5461691052164
0.13182567	5.7543994e-10	0.33	0.061651761	2.0109517	-0.0024349302	-0.018912902	-0.018470773	-0.0085959027	-0.0083137562	0	931.5505895159013
0.13182567	6.3095734e-10	0.33	0.060487879	1.9378648	-0.0024348746	-0.018913132	-0.018456558	-0.0085899174	-0.0083180254	0	931.5550492098132
0.13182567	6.9183097e-10	0.33	0.05946671	1.8688988	-0.002434819	-0.018913378	-0.018442207	-0.008584039	-0.0083218233	0	931.5595510714181
0.13182567	7.5857758e-10	0.33	0.058578658	1.8036967	-0.0024347634	-0.01891364	-0.01842771	-0.0085782542	-0.0083251866	0	931.5640982012817
0.13182567	8.3176377e-10	0.33	0.057815289	1.7419382	-0.0024347077	-0.018913918	-0.018413056	-0.0085725503	-0.0083281478	0	931.5686941039827
0.13182567	9.1201084e-10	0.33	0.057169235	1.6833361	-0.0024346519	-0.018914215	-0.018398234	-0.0085669154	-0.008330735	0	931.573342190143
0.13182567	1.e-9	0.33	0.056634098	1.6276328	-0.0024345958	-0.01891453	-0.018383229	-0.0085613383	-0.0083329734	0	931.5780472985243
0.13182567	1.0964782e-9	0.33	0.056204362	1.5745972	-0.0024345395	-0.018914864	-0.018368029	-0.0085558086	-0.0083348848	0	931.5828130558493
0.13182567	1.2022644e-9	0.33	0.055875318	1.5240226	-0.0024344829	-0.018915218	-0.018352617	-0.0085503159	-0.008336488	0	931.5876448270355
0.13182567	1.3182567e-9	0.33	0.055642994	1.4757234	-0.0024344259	-0.018915592	-0.018336978	-0.0085448507	-0.0083377994	0	931.5925473568884
0.13182567	1.4454398e-9	0.33	0.055504088	1.4295338	-0.0024343684	-0.018915988	-0.018321094	-0.0085394038	-0.0083388331	0	931.5975263203823
0.13182567	1.5848932e-9	0.33	0.055455903	1.3853053	-0.0024343106	-0.018916406	-0.018304947	-0.0085339659	-0.0083396007	0	931.6025871106226
0.13182567	1.7378008e-9	0.33	0.055496301	1.3429051	-0.0024342522	-0.018916848	-0.018288516	-0.0085285284	-0.0083401121	0	931.6077365206668
0.13182567	1.9054607e-9	0.33	0.055623643	1.3022146	-0.0024341932	-0.018917312	-0.018271782	-0.0085230827	-0.0083403756	0	931.6129804415896
0.13182567	2.0892961e-9	0.33	0.055836734	1.2631277	-0.0024341337	-0.018917802	-0.018254722	-0.0085176203	-0.0083403972	0	931.6183259107354
0.13182567	2.2908677e-9	0.33	0.05613479	1.2255497	-0.0024340735	-0.018918316	-0.018237315	-0.0085121328	-0.0083401821	0	931.6237796272051
0.13182567	2.5118864e-9	0.33	0.056517379	1.189396	-0.0024340126	-0.018918857	-0.018219535	-0.008506612	-0.0083397338	0	931.6293496524694
0.13182567	2.7542287e-9	0.33	0.056984386	1.1545908	-0.002433951	-0.018919425	-0.01820136	-0.0085010496	-0.0083390548	0	931.6350428077731
0.13182567	3.0199517e-9	0.33	0.057535967	1.1210662	-0.0024338886	-0.018920021	-0.018182763	-0.0084954371	-0.008338146	0	931.6408675585994
0.13182567	3.3113112e-9	0.33	0.058172519	1.0887614	-0.0024338255	-0.018920646	-0.018163717	-0.0084897665	-0.0083370079	0	931.6468321825196
0.13182567	3.6307805e-9	0.33	0.058894634	1.0576214	-0.0024337615	-0.018921301	-0.018144197	-0.0084840293	-0.0083356398	0	931.6529446188606
0.13182567	3.9810717e-9	0.33	0.059703071	1.0275967	-0.0024336966	-0.018921987	-0.018124173	-0.0084782171	-0.0083340402	0	931.6592141693193
0.13182567	4.3651583e-9	0.33	0.060598724	0.99864227	-0.0024336308	-0.018922704	-0.018103618	-0.0084723214	-0.0083322069	0	931.6656492054232
0.13182567	4.7863009e-9	0.33	0.061582591	0.97071682	-0.002433564	-0.018923454	-0.018082502	-0.0084663335	-0.0083301371	0	931.6722591228256
0.13182567	5.2480746e-9	0.33	0.062655751	0.94378242	-0.0024334962	-0.018924239	-0.018060796	-0.0084602449	-0.0083278275	0	931.6790529131671
0.13182567	5.7543994e-9	0.33	0.063819342	0.91780386	-0.0024334274	-0.018925058	-0.018038469	-0.0084540465	-0.0083252741	0	931.6860401882011
0.13182567	6.3095734e-9	0.33	0.06507454	0.89274818	-0.0024333575	-0.018925914	-0.018015491	-0.0084477297	-0.0083224727	0	931.6932303435811
0.13182567	6.9183097e-9	0.33	0.066422547	0.86858427	-0.0024332864	-0.018926806	-0.01799183	-0.0084412853	-0.0083194186	0	931.7006333950737
0.13182567	7.5857758e-9	0.33	0.067864573	0.84528252	-0.0024332142	-0.018927738	-0.017967455	-0.0084347042	-0.0083161068	0	931.7082588604762
0.13182567	8.3176377e-9	0.33	0.069401833	0.82281451	-0.0024331408	-0.018928709	-0.017942334	-0.008427977	-0.008312532	0	931.7161167555548
0.13182567	9.1201084e-9	0.33	0.07103554	0.80115279	-0.0024330661	-0.018929721	-0.017916435	-0.0084210944	-0.0083086887	0	931.7242170960762
0.13182567	1.e-8	0.33	0.072766903	0.78027069	-0.0024329902	-0.018930775	-0.017889725	-0.0084140469	-0.0083045711	0	931.7325700199509
0.13182567	1.0964782e-8	0.33	0.074597123	0.76014212	-0.0024329128	-0.018931872	-0.017862172	-0.0084068248	-0.0083001731	0	931.7411857308581
0.13182567	1.2022644e-8	0.33	0.076527406	0.74074152	-0.0024328341	-0.018933015	-0.017833741	-0.0083994184	-0.0082954887	0	931.7500748928651
0.13182567	1.3182567e-8	0.33	0.078558961	0.72204377	-0.002432754	-0.018934204	-0.0178044	-0.0083918179	-0.0082905116	0	931.7592475217377
0.13182567	1.4454398e-8	0.33	0.080693005	0.70402409	-0.0024326723	-0.018935441	-0.017774114	-0.0083840132	-0.0082852351	0	931.7687146573696
0.13182567	1.5848932e-8	0.33	0.082930782	0.68665814	-0.0024325891	-0.018936727	-0.017742849	-0.0083759942	-0.0082796527	0	931.7784867477271
0.13182567	1.7378008e-8	0.33	0.085273563	0.66992188	-0.0024325043	-0.018938064	-0.017710569	-0.0083677507	-0.0082737574	0	931.7885750488032
0.13182567	1.9054607e-8	0.33	0.087722661	0.6537917	-0.0024324179	-0.018939454	-0.01767724	-0.0083592724	-0.0082675422	0	931.798990102521
0.13182567	2.0892961e-8	0.33	0.090279444	0.63824439	-0.0024323298	-0.018940897	-0.017642826	-0.0083505488	-0.0082609999	0	931.8097431648733
0.13182567	2.2908677e-8	0.33	0.092945338	0.62325716	-0.0024322399	-0.018942396	-0.017607289	-0.0083415691	-0.0082541231	0	931.8208461119666
0.13182567	2.5118864e-8	0.33	0.09572185	0.60880777	-0.0024321482	-0.018943953	-0.017570593	-0.0083323227	-0.0082469039	0	931.8323101058368
0.13182567	2.7542287e-8	0.33	0.098610572	0.59487446	-0.0024320547	-0.01894557	-0.017532699	-0.0083227987	-0.0082393348	0	931.8441472386901
0.13182567	3.0199517e-8	0.33	0.10161319	0.58143606	-0.0024319592	-0.018947247	-0.017493568	-0.0083129859	-0.0082314075	0	931.8563697906454
0.13182567	3.3113112e-8	0.33	0.1047315	0.568472	-0.0024318617	-0.018948988	-0.017453162	-0.008302873	-0.0082231136	0	931.8689895438526
0.13182567	3.6307805e-8	0.33	0.1079674	0.55596236	-0.0024317622	-0.018950793	-0.017411438	-0.0082924488	-0.0082144445	0	931.882019830744
0.13182567	3.9810717e-8	0.33	0.11132293	0.54388786	-0.0024316605	-0.018952666	-0.017368356	-0.0082817016	-0.0082053914	0	931.895473241495
0.13182567	4.3651583e-8	0.33	0.11480025	0.53222994	-0.0024315567	-0.018954608	-0.017323874	-0.0082706194	-0.0081959449	0	931.9093627045248
0.13182567	4.7863009e-8	0.33	0.11840166	0.52097069	-0.0024314506	-0.018956621	-0.017277946	-0.0082591902	-0.0081860955	0	931.9237026703486
0.13182567	5.2480746e-8	0.33	0.1221296	0.51009298	-0.0024313422	-0.018958708	-0.017230529	-0.008247402	-0.0081758334	0	931.938506471399
0.13182567	5.7543994e-8	0.33	0.12598667	0.49958031	-0.0024312314	-0.018960871	-0.017181576	-0.0082352419	-0.0081651483	0	931.9537887742906
0.13182567	6.3095734e-8	0.33	0.12997561	0.48941695	-0.0024311181	-0.018963112	-0.01713104	-0.0082226974	-0.0081540297	0	931.9695642456389
0.13182567	6.9183097e-8	0.33	0.13409934	0.47958783	-0.0024310022	-0.018965434	-0.017078873	-0.0082097552	-0.0081424666	0	931.9858478621154
0.13182567	7.5857758e-8	0.33	0.13836091	0.47007858	-0.0024308837	-0.018967839	-0.017025023	-0.0081964019	-0.0081304476	0	932.0026557466617
0.13182567	8.3176377e-8	0.33	0.14276357	0.4608755	-0.0024307625	-0.01897033	-0.01696944	-0.0081826241	-0.008117961	0	932.0200034960624
0.13182567	9.1201084e-8	0.33	0.14731071	0.45196552	-0.0024306385	-0.018972909	-0.01691207	-0.0081684076	-0.0081049946	0	932.0379079473282
0.13182567	1.e-7	0.33	0.15200593	0.44333624	-0.0024305116	-0.01897558	-0.016852859	-0.0081537382	-0.008091536	0	932.0563859374711
0.13182567	1.0964782e-7	0.33	0.15685296	0.43497583	-0.0024303816	-0.018978345	-0.01679175	-0.0081386011	-0.0080775718	0	932.0754553276278
0.13182567	1.2022644e-7	0.33	0.16185575	0.42687303	-0.0024302487	-0.018981207	-0.016728685	-0.0081229813	-0.0080630889	0	932.095133913166
0.13182567	1.3182567e-7	0.33	0.1670184	0.41901717	-0.0024301125	-0.018984169	-0.016663604	-0.0081068632	-0.008048073	0	932.115440673306
0.13182567	1.4454398e-7	0.33	0.17234522	0.41139809	-0.0024299731	-0.018987234	-0.016596446	-0.008090231	-0.0080325098	0	932.1363944275416
0.13182567	1.5848932e-7	0.33	0.17784069	0.40400612	-0.0024298302	-0.018990405	-0.016527147	-0.0080730685	-0.0080163845	0	932.1580153013626
0.13182567	1.7378008e-7	0.33	0.18350948	0.39683208	-0.0024296839	-0.018993687	-0.016455641	-0.0080553587	-0.0079996812	0	932.180323664546
0.13182567	1.9054607e-7	0.33	0.18935646	0.38986724	-0.002429534	-0.018997081	-0.016381862	-0.0080370847	-0.0079823844	0	932.2033401687379
0.13182567	2.0892961e-7	0.33	0.19538671	0.3831033	-0.0024293804	-0.019000592	-0.016305738	-0.0080182284	-0.0079644771	0	932.227087231968
0.13182567	2.2908677e-7	0.33	0.20160548	0.37653236	-0.002429223	-0.019004223	-0.016227199	-0.0079987719	-0.0079459425	0	932.2515866521517
0.13182567	2.5118864e-7	0.33	0.20801824	0.37014691	-0.0024290616	-0.019007979	-0.01614617	-0.0079786963	-0.0079267628	0	932.2768618714452
0.13182567	2.7542287e-7	0.33	0.21463068	0.36393978	-0.0024288962	-0.019011862	-0.016062576	-0.0079579823	-0.0079069198	0	932.3029361440906
0.13182567	3.0199517e-7	0.33	0.22144868	0.35790417	-0.0024287265	-0.019015878	-0.015976336	-0.00793661	-0.0078863943	0	932.329834866539
0.13182567	3.3113112e-7	0.33	0.22847834	0.35203357	-0.0024285526	-0.019020029	-0.01588737	-0.0079145592	-0.0078651671	0	932.3575827493598
0.13182567	3.6307805e-7	0.33	0.235726	0.3463218	-0.0024283741	-0.019024321	-0.015795594	-0.0078918085	-0.0078432178	0	932.3862062131302
0.13182567	3.9810717e-7	0.33	0.24319819	0.34076295	-0.0024281911	-0.019028757	-0.015700922	-0.0078683365	-0.0078205257	0	932.4157318287581
0.13182567	4.3651583e-7	0.33	0.25090172	0.33535139	-0.0024280033	-0.019033342	-0.015603264	-0.0078441207	-0.0077970692	0	932.4461877832043
0.13182567	4.7863009e-7	0.33	0.25884358	0.33008173	-0.0024278106	-0.019038081	-0.015502529	-0.007819138	-0.0077728259	0	932.477602385573
0.13182567	5.2480746e-7	0.33	0.26703104	0.32494885	-0.0024276129	-0.019042979	-0.015398621	-0.007793365	-0.0077477731	0	932.5100054952507
0.13182567	5.7543994e-7	0.33	0.2754716	0.31994781	-0.00242741	-0.019048041	-0.015291444	-0.007766777	-0.0077218867	0	932.5434270655809
0.13182567	6.3095734e-7	0.33	0.28417303	0.31507392	-0.0024272017	-0.01905327	-0.015180896	-0.0077393488	-0.0076951424	0	932.5778989102462
0.13182567	6.9183097e-7	0.33	0.29314333	0.31032269	-0.0024269878	-0.019058674	-0.015066872	-0.0077110545	-0.0076675147	0	932.6134537730992
0.13182567	7.5857758e-7	0.33	0.3023908	0.30568981	-0.0024267682	-0.019064257	-0.014949267	-0.0076818674	-0.0076389776	0	932.6501243040356
0.13182567	8.3176377e-7	0.33	0.311924	0.30117116	-0.0024265428	-0.019070025	-0.014827968	-0.0076517599	-0.007609504	0	932.6879456334041
0.13182567	9.1201084e-7	0.33	0.32175177	0.29676278	-0.0024263112	-0.019075984	-0.014702863	-0.0076207034	-0.0075790662	0	932.7269528633658
0.13182567	1.e-6	0.33	0.33188321	0.2924609	-0.0024260734	-0.019082139	-0.014573833	-0.0075886687	-0.007547635	0	932.7671828906527
0.13182567	1.0964782e-6	0.33	0.34232778	0.28826187	-0.0024258291	-0.019088497	-0.014440756	-0.0075556257	-0.0075151811	0	932.8086738240347
0.13182567	1.2022644e-6	0.33	0.35309519	0.28416221	-0.0024255782	-0.019095063	-0.014303509	-0.007521543	-0.0074816737	0	932.8514638944262
0.13182567	1.3182567e-6	0.33	0.36419548	0.28015857	-0.0024253203	-0.019101845	-0.014161961	-0.0074863886	-0.0074470809	0	932.8955940950635
0.13182567	1.4454398e-6	0.33	0.37563903	0.27624773	-0.0024250554	-0.01910885	-0.014015979	-0.0074501293	-0.0074113704	0	932.9411056634693
0.13182567	1.5848932e-6	0.33	0.38743652	0.27242661	-0.0024247831	-0.019116083	-0.013865426	-0.007412731	-0.0073745082	0	932.9880414532198
0.13182567	1.7378008e-6	0.33	0.39959899	0.26869221	-0.0024245033	-0.019123553	-0.013710161	-0.0073741584	-0.0073364595	0	933.0364452762472
0.13182567	1.9054607e-6	0.33	0.41213784	0.26504171	-0.0024242157	-0.019131266	-0.013550037	-0.0073343752	-0.0072971886	0	933.086362992736
0.13182567	2.0892961e-6	0.33	0.42506479	0.26147233	-0.00242392	-0.01913923	-0.013384903	-0.0072933439	-0.0072566581	0	933.1378417030973
0.13182567	2.2908677e-6	0.33	0.43839199	0.25798142	-0.0024236161	-0.019147453	-0.013214605	-0.0072510259	-0.0072148298	0	933.1909292499987
0.13182567	2.5118864e-6	0.33	0.45213193	0.25456645	-0.0024233036	-0.019155943	-0.013038981	-0.0072073813	-0.0071716644	0	933.2456762384298
0.13182567	2.7542287e-6	0.33	0.46629751	0.25122496	-0.0024229823	-0.019164709	-0.012857867	-0.0071623691	-0.007127121	0	933.3021337055808
0.13182567	3.0199517e-6	0.33	0.48090204	0.24795457	-0.0024226519	-0.019173758	-0.012671092	-0.0071159468	-0.0070811576	0	933.3603549529937
0.13182567	3.3113112e-6	0.33	0.49595925	0.24475301	-0.0024223121	-0.0191831	-0.01247848	-0.0070680709	-0.0070337309	0	933.4203948324938
0.13182567	3.6307805e-6	0.33	0.51148328	0.24161807	-0.0024219626	-0.019192743	-0.012279851	-0.0070186961	-0.0069847959	0	933.4823094361323
0.13182567	3.9810717e-6	0.33	0.52748873	0.23854764	-0.0024216031	-0.019202698	-0.012075016	-0.0069677761	-0.0069343067	0	933.5461576464699
0.13182567	4.3651583e-6	0.33	0.54399069	0.23553967	-0.0024212333	-0.019212973	-0.011863783	-0.006915263	-0.0068822156	0	933.6119992762365
0.13182567	4.7863009e-6	0.33	0.56100465	0.23259217	-0.0024208528	-0.019223579	-0.011645954	-0.0068611071	-0.0068284733	0	933.6798960924584
0.13182567	5.2480746e-6	0.33	0.57854666	0.22970325	-0.0024204614	-0.019234526	-0.011421323	-0.0068052577	-0.0067730292	0	933.7499121547014
0.13182567	5.7543994e-6	0.33	0.59663323	0.22687106	-0.0024200586	-0.019245824	-0.011189678	-0.0067476622	-0.006715831	0	933.8221136647394
0.13182567	6.3095734e-6	0.33	0.61528139	0.22409382	-0.0024196442	-0.019257484	-0.010950802	-0.0066882662	-0.0066568248	0	933.896568092761
0.13182567	6.9183097e-6	0.33	0.63450872	0.2213698	-0.0024192177	-0.019269518	-0.010704469	-0.006627014	-0.0065959547	0	933.973345981332
0.13182567	7.5857758e-6	0.33	0.65433335	0.21869736	-0.0024187787	-0.019281937	-0.010450448	-0.0065638479	-0.0065331635	0	934.0525193293456
0.13182567	8.3176377e-6	0.33	0.67477396	0.21607489	-0.0024183269	-0.019294754	-0.010188499	-0.0064987084	-0.006468392	0	934.1341628322468
0.13182567	9.1201084e-6	0.33	0.69584982	0.21350082	-0.0024178618	-0.019307979	-0.0099183759	-0.0064315341	-0.0064015789	0	934.2183532647393
0.13182567	0.00001	0.33	0.71758082	0.21097366	-0.0024173831	-0.019321626	-0.0096398236	-0.0063622619	-0.0063326612	0	934.3051700041226
0.13182567	0.000010964782	0.33	0.73998744	0.20849195	-0.0024168902	-0.019335709	-0.0093525801	-0.0062908265	-0.006261574	0	934.3946948489556
0.13182567	0.000012022644	0.33	0.76309085	0.2060543	-0.0024163827	-0.019350239	-0.0090563744	-0.0062171606	-0.0061882502	0	934.4870122003945
0.13182567	0.000013182567	0.33	0.78691284	0.20365934	-0.0024158602	-0.019365232	-0.0087509277	-0.006141195	-0.0061126205	0	934.5822088780351
0.13182567	0.000014454398	0.33	0.81147589	0.20130575	-0.0024153221	-0.019380701	-0.0084359521	-0.006062858	-0.0060346138	0	934.6803747109022
0.13182567	0.000015848932	0.33	0.83680318	0.19899225	-0.002414768	-0.019396662	-0.0081111509	-0.0059820758	-0.0059541562	0	934.7816020686048
0.13182567	0.000017378008	0.33	0.86291866	0.19671762	-0.0024141974	-0.019413128	-0.0077762177	-0.0058987725	-0.005871172	0	934.8859864222575
0.13182567	0.000019054607	0.33	0.88984697	0.19448066	-0.0024136096	-0.019430116	-0.007430837	-0.0058128694	-0.0057855828	0	934.9936262524022
0.13182567	0.000020892961	0.33	0.91761356	0.19228021	-0.0024130041	-0.019447642	-0.0070746832	-0.0057242858	-0.005697308	0	935.1046229832394
0.13182567	0.000022908677	0.33	0.94624464	0.19011515	-0.0024123804	-0.019465723	-0.0067074206	-0.0056329381	-0.005606264	0	935.2190811705407
0.13182567	0.000025118864	0.33	0.97576732	0.18798439	-0.0024117378	-0.019484374	-0.0063287028	-0.0055387403	-0.0055123652	0	935.3371088755964
0.13182567	0.000027542287	0.33	1.0062095	0.18588688	-0.0024110758	-0.019503615	-0.0059381731	-0.0054416037	-0.0054155228	0	935.458817165366
0.13182567	0.000030199517	0.33	1.0375999	0.1838216	-0.0024103936	-0.019523462	-0.0055354627	-0.0053414366	-0.0053156455	0	935.5843211403628
0.13182567	0.000033113112	0.33	1.0699682	0.18178757	-0.0024096907	-0.019543935	-0.0051201922	-0.0052381447	-0.005212639	0	935.713738905831
0.13182567	0.000036307805	0.33	1.1033451	0.17978381	-0.0024089662	-0.019565052	-0.0046919698	-0.0051316307	-0.0051064061	0	935.8471927875411
0.13182567	0.000039810717	0.33	1.1377622	0.1778094	-0.0024082196	-0.019586832	-0.0042503916	-0.005021794	-0.0049968465	0	935.984808487123
0.13182567	0.000043651583	0.33	1.173252	0.17586348	-0.00240745	-0.019609298	-0.0037950409	-0.0049085312	-0.0048838567	0	936.1267160507564
0.13182567	0.000047863009	0.33	1.209848	0.17394529	-0.0024066566	-0.019632468	-0.0033254886	-0.0047917356	-0.0047673302	0	936.2730492753658
0.13182567	0.000052480746	0.33	1.2475843	0.17205481	-0.0024058384	-0.019656368	-0.0028412943	-0.0046712968	-0.0046471567	0	936.4239456494279
0.13182567	0.000057543994	0.33	1.28649	0.1701948	-0.0024049927	-0.019681047	-0.0023420286	-0.0045471017	-0.0045232226	0	936.5795408480581
0.13182567	0.000063095734	0.33	1.3265344	0.16835632	-0.0024040989	-0.019706815	-0.0018275073	-0.004419036	-0.0043954148	0	936.7399113387225
0.13182567	0.000069183097	0.33	1.3670714	0.16600626	-0.0024029554	-0.019736598	-0.0013001475	-0.0042870081	-0.0042637166	0	936.9044971000711
0.13182567	0.000075857758	0.33	1.4047118	0.15804279	-0.0024002166	-0.019786213	-0.00077524094	-0.0041511116	-0.0041289374	0	937.0698211068537
0.13182567	0.000083176377	0.33	1.4414855	0.14391927	-0.0023939552	-0.019856401	-0.00025298737	-0.0040116456	-0.0039914531	0	937.2376322495704
0.13182567	0.000091201084	0.33	1.4837706	0.136104	-0.0023854899	-0.019922237	0.0002920978	-0.0038683072	-0.0038492112	0	937.4145931878431
0.13182567	0.0001	0.33	1.5294768	0.13288999	-0.0023762392	-0.019985342	0.0008589682	-0.0037206354	-0.0037019902	0	937.5990467143339
0.13182567	0.00010964782	0.33	1.5770946	0.13104806	-0.0023666029	-0.02004922	0.0014447133	-0.0035683838	-0.0035499971	0	937.7897147618805
0.13182567	0.00012022644	0.33	1.6262918	0.12953673	-0.0023566557	-0.020114826	0.0020489925	-0.0034113862	-0.0033932115	0	937.9864215396851
0.13182567	0.00013182567	0.33	1.6770423	0.12810846	-0.002346404	-0.020182393	0.0026722029	-0.0032494899	-0.0032315157	0	938.1892841579917
0.13182567	0.00014454398	0.33	1.7293816	0.12671102	-0.0023358412	-0.020252011	0.0033149053	-0.0030825412	-0.003064763	0	938.3984826976533
0.13182567	0.00015848932	0.33	1.7833574	0.12533393	-0.0023249582	-0.020323747	0.003977705	-0.0029103819	-0.002892797	0	938.6142133859537
0.13182567	0.00017378008	0.33	1.8390209	0.12397488	-0.0023137455	-0.020397663	0.0046612319	-0.0027328493	-0.002715455	0	938.8366804533946
0.13182567	0.00019054607	0.33	1.8964253	0.12263304	-0.0023021931	-0.020473823	0.0053661361	-0.0025497752	-0.0025325692	0	939.0660948634024
0.13182567	0.00020892961	0.33	1.9556255	0.12130782	-0.0022902907	-0.020552292	0.0060930895	-0.0023609863	-0.0023439662	0	939.3026746205068
0.13182567	0.00022908677	0.33	2.0166781	0.11999871	-0.0022780278	-0.020633136	0.006842784	-0.0021663038	-0.0021494674	0	939.5466441182815
0.13182567	0.00025118864	0.33	2.0796418	0.11870521	-0.0022653935	-0.020716424	0.0076159352	-0.0019655433	-0.0019488884	0	939.7982354744673
0.13182567	0.00027542287	0.33	2.144577	0.11742681	-0.0022523767	-0.020802224	0.0084132805	-0.0017585145	-0.0017420389	0	940.0576877539506
0.13182567	0.00030199517	0.33	2.2115459	0.11616307	-0.002238966	-0.020890609	0.0092355808	-0.0015450211	-0.0015287228	0	940.3252475898178
0.13182567	0.00033113112	0.33	2.2806131	0.1149135	-0.0022251496	-0.02098165	0.010083623	-0.0013248605	-0.0013087376	0	940.6011700524505
0.13182567	0.00036307805	0.33	2.3518449	0.11367767	-0.0022109154	-0.021075422	0.010958217	-0.001097824	-0.0010818744	0	940.8857176254023
0.13182567	0.00039810717	0.33	2.4253102	0.11245513	-0.002196251	-0.021172001	0.0118602	-0.0008636958	-0.00084791778	0	941.1791615386403
0.13182567	0.00043651583	0.33	2.5010799	0.11124547	-0.0021811437	-0.021271463	0.012790437	-0.00062225364	-0.00060664534	0	941.4817819235733
0.13182567	0.00047863009	0.33	2.5792272	0.11004826	-0.0021655806	-0.021373888	0.01374982	-0.00037326805	-0.00035782773	0	941.7938674710508
0.13182567	0.00052480746	0.33	2.6598279	0.10886311	-0.0021495481	-0.021479354	0.01473927	-0.00011650221	-0.00010122818	0	942.1157165212587
0.13182567	0.00057543994	0.33	2.7429601	0.10768963	-0.0021330326	-0.021587944	0.015759737	0.00014828814	0.00016339753	0	942.4476364060229
0.13182567	0.00063095734	0.33	2.8287046	0.10652741	-0.00211602	-0.021699739	0.016812204	0.00042135512	0.00043630144	0	942.7899451588182
0.13182567	0.00069183097	0.33	2.9171451	0.1053761	-0.0020984959	-0.021814822	0.017897686	0.00070295889	0.00071774368	0	943.1429710168003
0.13182567	0.00075857758	0.33	3.0083677	0.10423532	-0.0020804457	-0.021933279	0.019017228	0.00099336793	0.0010079927	0	943.5070517067338
0.13182567	0.00083176377	0.33	3.1024617	0.10310471	-0.0020618541	-0.022055194	0.020171913	0.0012928593	0.0013073254	0	943.8825373952293
0.13182567	0.00091201084	0.33	3.1995193	0.10198392	-0.0020427058	-0.022180654	0.021362859	0.001601719	0.0016160278	0	944.2697891008768
0.13182567	0.001	0.33	3.299636	0.10087259	-0.0020229851	-0.022309745	0.022591219	0.0019202421	0.0019343951	0	944.669179070072
0.13182567	0.0010964782	0.33	3.4029102	0.0997704	-0.0020026757	-0.022442555	0.023858185	0.0022487333	0.0022627316	0	945.0810922051564
0.13182567	0.0012022644	0.33	3.509444	0.098677078	-0.0019817614	-0.02257917	0.025164991	0.0025875073	0.0026013522	0	945.5059263368909
0.13182567	0.0013182567	0.33	3.6191419	0.097617096	-0.0019602423	-0.022720282	0.026512304	0.0029368861	0.0029505822	0	945.9438881790475
0.13182567	0.0014454398	0.33	3.693153	0.080022445	-0.0019475038	-0.022967077	0.027800343	0.0032959058	0.0033071333	0	946.3552217808285
0.13182567	0.0015848932	0.33	3.803554	0.07526356	-0.0019651866	-0.023027308	0.029322802	0.0036631322	0.0036736921	0	946.8106560433121
0.13182567	0.0017378008	0.33	3.9229365	0.074533776	-0.0019848153	-0.02306733	0.030914816	0.0040418066	0.004052264	0	947.2858279899946
0.13182567	0.0019054607	0.33	4.0461031	0.073876301	-0.0020049434	-0.023108497	0.032556571	0.0044323685	0.0044427337	0	947.7759532413656
0.13182567	0.0020892961	0.33	4.1731193	0.073373908	-0.0020255924	-0.023150984	0.034249477	0.0048351926	0.0048454874	0	948.2814487765278
0.13182567	0.0022908677	0.33	4.3038598	0.073210254	-0.0020468403	-0.023195459	0.035994503	0.0052506531	0.0052609249	0	948.8025417541958
0.13182567	0.0025118864	0.33	4.4375482	0.073298774	-0.0020690235	-0.023244081	0.037791176	0.0056790847	0.0056893689	0	949.3387694478301
0.13182567	0.0027542287	0.33	4.5733101	0.07173662	-0.0020933953	-0.023296906	0.03964118	0.0061207199	0.0061307849	0	949.8894764354345
0.13182567	0.0030199517	0.33	4.7140333	0.068243177	-0.0021220103	-0.023339242	0.041561002	0.0065758714	0.0065854463	0	950.4578441886354
0.13182567	0.0033113112	0.33	4.8613636	0.066302819	-0.002154193	-0.023367818	0.04355576	0.0070451519	0.0070544546	0	951.0460942533296
0.13182567	0.0036307805	0.33	5.0127155	0.066114831	-0.0021878376	-0.023397625	0.045612372	0.0075291019	0.0075383781	0	951.6521490062411
0.13182567	0.0039810717	0.33	5.164168	0.064592648	-0.0022218074	-0.023446145	0.047715321	0.0080279112	0.0080369738	0	952.2722653035762
0.13182567	0.0043651583	0.33	5.3213158	0.059894524	-0.0022564303	-0.02349583	0.049884185	0.0085417577	0.0085501612	0	952.9122053492965
0.13182567	0.0047863009	0.33	5.4877308	0.057837899	-0.0022845346	-0.023556404	0.05211133	0.0090714921	0.0090796071	0	953.5763404524009
0.13182567	0.0052480746	0.33	5.6613432	0.0571242	-0.0022494502	-0.023806049	0.054220731	0.0096178994	0.0096259142	0	954.2633381682888
0.13182567	0.0057543994	0.33	5.8407946	0.056460755	-0.0022074777	-0.024078833	0.056380544	0.010181616	0.010189538	0	954.9724382758438
0.13182567	0.0063095734	0.33	6.0261203	0.0558034	-0.0021643008	-0.02435799	0.058609828	0.01076321	0.01077104	0	955.7042099355683
0.13182567	0.0069183097	0.33	6.1331054	0.048931657	-0.001838232	-0.02578104	0.059773426	0.0113594	0.011366266	0	956.3713540812671
0.13182567	0.0075857758	0.33	6.3036046	0.046385257	-0.0015493015	-0.02692682	0.061294942	0.011968965	0.011975473	0	957.1145791929385
0.13182567	0.0083176377	0.33	6.4950771	0.043382581	-0.0014453312	-0.027475009	0.06349721	0.012595895	0.012601982	0	957.8950937366383
0.13182567	0.0091201084	0.33	6.7036025	0.042882229	-0.0013837226	-0.027865186	0.065943242	0.013242756	0.013248773	0	958.7113873234835
0.13182567	0.01	0.33	6.919211	0.042385202	-0.0013204045	-0.028263138	0.068469927	0.013910403	0.01391635	0	959.5542940894716
0.13182567	0.010964782	0.33	7.1421797	0.041891172	-0.0012553434	-0.028668683	0.071080203	0.014599545	0.014605423	0	960.4247564562315
0.13182567	0.012022644	0.33	7.3727994	0.041399936	-0.0011885069	-0.029081596	0.073777137	0.015310916	0.015316725	0	961.3237558091669
0.13182567	0.013182567	0.33	7.6113763	0.040911366	-0.0011198642	-0.029501597	0.076563941	0.016045282	0.016051022	0	962.252316988579
0.13182567	0.014454398	0.33	7.8582324	0.040425468	-0.0010493857	-0.029928347	0.079443977	0.016803438	0.016809109	0	963.2115102157754
0.13182567	0.015848932	0.33	8.1137071	0.039942534	-0.00097704359	-0.030361446	0.082420762	0.017586212	0.017591816	0	964.2024520890093
0.13182567	0.017378008	0.33	8.3781577	0.039463422	-0.0009028116	-0.03080042	0.085497985	0.018394466	0.018400003	0	965.2263110893323
0.13182567	0.019054607	0.33	8.6519615	0.038990164	-0.00082666532	-0.031244721	0.088679508	0.0192291	0.019234571	0	966.2843075899909
0.13182567	0.020892961	0.33	8.9355158	0.038527156	-0.00074858075	-0.031693719	0.091969378	0.020091048	0.020096454	0	967.3777189394743
0.13182567	0.022908677	0.33	9.2292396	0.038083552	-0.00066853146	-0.032146711	0.095371822	0.020981288	0.020986631	0	968.5078805795964
0.13182567	0.025118864	0.33	9.5335722	0.037677852	-0.00058647959	-0.032602942	0.098891231	0.021900837	0.021906123	0	969.6761895406808
0.13182567	0.027542287	0.33	9.8489689	0.037346583	-0.00050235726	-0.03306168	0.10253208	0.022850757	0.022855997	0	970.8840971035543
0.13182567	0.030199517	0.33	10.175882	0.037162261	-0.00041605622	-0.033522301	0.10629887	0.023832156	0.02383737	0	972.1331005407669
0.13182567	0.033113112	0.33	10.514319	0.037447477	-0.00033248373	-0.033970437	0.11020994	0.024846176	0.024851431	0	973.4242752882142
0.13182567	0.036307805	0.33	10.860144	0.03723188	-0.00030761869	-0.034251026	0.11442447	0.025893766	0.02589899	0	974.7543803152214
0.13182567	0.039810717	0.33	11.222508	0.035034545	-0.00031526244	-0.034415035	0.11889572	0.026975964	0.026980879	0	976.1335389310691
0.13182567	0.043651583	0.33	11.601145	0.033972169	-0.00032221486	-0.034562999	0.12352754	0.028094519	0.028099286	0	977.5631328793527
0.13182567	0.047863009	0.33	11.994554	0.03304703	-0.00032856849	-0.034699496	0.12831984	0.029250911	0.029255547	0	979.0430473076037
0.13182567	0.052480746	0.33	12.403595	0.032107215	-0.00033364683	-0.034823947	0.13327785	0.030446627	0.030451132	0	980.5755394276188
0.13182567	0.057543994	0.33	12.828968	0.031291861	-0.00033491417	-0.034941812	0.13840091	0.031683235	0.031687626	0	982.1627870673186
0.13182567	0.063095734	0.33	13.271397	0.030549608	-0.00033086683	-0.035055301	0.14369175	0.032962372	0.032966659	0	983.8070494867521
0.13182567	0.069183097	0.33	13.002892	0.02887345	-0.0011891457	-0.034894984	0.14942488	0.034281803	0.034285854	0	984.7782349972281
0.13182567	0.075857758	0.33	12.07615	0.026418998	-0.0027995837	-0.034997237	0.15506919	0.035520339	0.035524046	0	985.0151786273221
0.13182567	0.083176377	0.33	11.230951	0.024180511	-0.0042683207	-0.035775291	0.16021687	0.036649898	0.036653291	0	985.2312762149521
0.13182567	0.091201084	0.33	10.46012	0.022138986	-0.0056078247	-0.037191034	0.1649116	0.037680068	0.037683174	0	985.4283565301156
0.13182567	0.1	0.33	10.787652	0.02038244	-0.0057960375	-0.038842245	0.16956137	0.038677681	0.03868054	0	986.6932100213741
0.13182567	0.10964782	0.33	12.162157	0.018826865	-0.0048535486	-0.040360807	0.17454024	0.039800281	0.039802923	0	989.1224712668446
0.13182567	0.12022644	0.33	13.838296	0.017368071	-0.0034846071	-0.041949572	0.17965148	0.04107198	0.041074417	0	991.9934547862679
0.13182567	0.13182567	0.33	15.87473	0.016002528	-0.0015838823	-0.043646877	0.18486307	0.042525109	0.042527354	0	995.3951976444278
0.13182567	0.14454398	0.33	18.346501	0.014727205	0.00097925954	-0.045495363	0.19013888	0.044198507	0.044200573	0	999.4392364332575
0.13182567	0.15848932	0.33	21.350918	0.013539565	0.004368235	-0.047539967	0.19544069	0.046139412	0.046141311	0	1004.2672613470074
0.13182567	0.17378008	0.33	25.013845	0.012437542	0.0087876396	-0.049825525	0.20073058	0.048405948	0.048407693	0	1010.0597459020707
0.13182567	0.19054607	0.33	29.49512	0.011419495	0.014491136	-0.052393877	0.20597387	0.05107021	0.051071812	0	1017.0442699826809
0.13182567	0.20892961	0.33	34.990981	0.010484092	0.021786347	-0.055280317	0.21114261	0.05422174	0.054223211	0	1025.5011992315822
0.13182567	0.22908677	0.33	41.730563	0.0096301384	0.031033162	-0.058509292	0.21621996	0.057970995	0.057972346	0	1035.763451906284
0.13182567	0.25118864	0.33	49.96319	0.0088562967	0.042631345	-0.062089685	0.22120486	0.062452029	0.062453272	0	1048.206303749404
0.13182567	0.27542287	0.33	59.934335	0.0081607331	0.056994447	-0.066010591	0.22611628	0.067823393	0.067824538	0	1063.2241947240477
0.13182567	0.30199517	0.33	71.851497	0.0075407348	0.074510784	-0.070239165	0.23099541	0.074266147	0.074267205	0	1081.1947443185989
0.13182567	0.33113112	0.33	85.84658	0.0069924056	0.095498363	-0.074722254	0.23590398	0.081978279	0.08197926	0	1102.4358806831026
0.13182567	0.36307805	0.33	101.94595	0.0065105602	0.12016603	-0.079392541	0.24091815	0.091165717	0.091166631	0	1127.1674421906744
0.13182567	0.39810717	0.33	120.05918	0.0060888882	0.1485936	-0.08417811	0.24611898	0.10203125	0.1020321	0	1155.489553434923
0.13182567	0.43651583	0.33	139.99105	0.0057203556	0.18073688	-0.089012631	0.25158221	0.11476347	0.11476427	0	1187.3841758886076
0.13182567	0.47863009	0.33	161.47207	0.0053977229	0.2164539	-0.093843155	0.25737049	0.1295279	0.12952866	0	1222.7373445028172
0.13182567	0.52480746	0.33	184.19668	0.0051140293	0.25554134	-0.09863385	0.26352967	0.14646157	0.14646228	0	1261.372242944117
0.13182567	0.57543994	0.33	207.85836	0.0048629419	0.2977701	-0.10336584	0.27008893	0.16567123	0.16567192	0	1303.082664241405
0.13182567	0.63095734	0.33	232.17534	0.0046389422	0.342913	-0.10803448	0.27706358	0.18723468	0.18723533	0	1347.6599049044844
0.13182567	0.69183097	0.33	256.90539	0.0044373711	0.39076256	-0.11264565	0.28445871	0.2112039	0.21120452	0	1394.9106021024563
0.13182567	0.75857758	0.33	281.85159	0.0042543835	0.44114013	-0.11721205	0.29227293	0.23760936	0.23760996	0	1444.6664715069173
0.13182567	0.83176377	0.33	306.86192	0.0040868528	0.4938989	-0.12175029	0.3005013	0.26646446	0.26646503	0	1496.7880438494
0.13182567	0.91201084	0.33	331.82517	0.0039322595	0.54892313	-0.12627871	0.30913752	0.29776971	0.29777026	0	1551.1646204799326
0.13182567	1.	0.33	356.66548	0.0037885829	0.60612552	-0.13081592	0.31817538	0.33151651	0.33151704	0	1607.7122518921892
0.13182567	1.0964782	0.33	381.33634	0.0036542042	0.66544376	-0.13537997	0.32760965	0.36769032	0.36769083	0	1666.370772173373
0.13182567	1.2022644	0.33	405.81506	0.003527825	0.72683706	-0.13998786	0.33743651	0.40627324	0.40627373	0	1727.1006720367773
0.13182567	1.3182567	0.33	430.09789	0.0034084007	0.79028298	-0.14465536	0.34765379	0.44724611	0.44724659	0	1789.8801948132013
0.13182567	1.4454398	0.33	454.19577	0.0032950865	0.85577456	-0.14939698	0.35826101	0.49059017	0.49059063	0	1854.702652300657
0.13182567	1.5848932	0.33	478.13097	0.003187196	0.92331799	-0.15422603	0.36925935	0.5362883	0.53628874	0	1921.5742262754088
0.13182567	1.7378008	0.33	501.93423	0.0030841672	0.9929306	-0.15915472	0.3806515	0.58432599	0.58432642	0	1990.512033457133
0.13182567	1.9054607	0.33	525.64259	0.0029855369	1.0646393	-0.1641943	0.39244159	0.63469208	0.6346925	0	2061.542638083014
0.13182567	2.0892961	0.33	549.2976	0.0028909203	1.1384792	-0.16935522	0.40463505	0.68737928	0.68737968	0	2134.7007118996403
0.13182567	2.2908677	0.33	572.94394	0.002799995	1.2144926	-0.17464719	0.41723853	0.74238452	0.74238492	0	2210.028060397478
0.13182567	2.5118864	0.33	596.62836	0.0027124884	1.2927282	-0.18007938	0.43025971	0.79970924	0.79970962	0	2287.572821643496
0.13182567	2.7542287	0.33	620.39887	0.0026281682	1.3732402	-0.18566047	0.44370732	0.85935951	0.85935988	0	2367.388626873479
0.13182567	3.0199517	0.33	644.30409	0.0025468344	1.4560881	-0.19139877	0.45759098	0.92134616	0.92134652	0	2449.534362969914
0.13182567	3.3113112	0.33	668.39284	0.0024683134	1.5413359	-0.19730231	0.47192117	0.98568477	0.98568512	0	2534.0734115080068
0.13182567	3.6307805	0.33	692.71376	0.0023924527	1.6290521	-0.20337886	0.48670917	1.0523957	1.0523961	0	2621.07363015229
0.13182567	3.9810717	0.33	717.31508	0.0023191178	1.7193092	-0.20963608	0.50196701	1.1215042	1.1215045	0	2710.6068673711243
0.13182567	4.3651583	0.33	742.24449	0.0022481883	1.8121835	-0.21608148	0.51770745	1.1930399	1.1930402	0	2802.748768322487
0.13182567	4.7863009	0.33	767.54902	0.002179556	1.9077552	-0.22272254	0.53394392	1.2670374	1.2670377	0	2897.5788502071264
0.13182567	5.2480746	0.33	793.27498	0.0021131227	2.0061078	-0.22956672	0.55069054	1.3435358	1.3435361	0	2995.17994473047
0.13182567	5.7543994	0.33	819.46797	0.0020487987	2.1073287	-0.23662148	0.56796206	1.4225785	1.4225788	0	3095.63874323845
0.13182567	6.3095734	0.33	846.1729	0.0019865012	2.2115086	-0.24389435	0.5857739	1.5042136	1.5042139	0	3199.0452453805506
0.13182567	6.9183097	0.33	873.43397	0.0019261535	2.3187414	-0.25139295	0.6041421	1.5884934	1.5884936	0	3305.492649650447
0.13182567	7.5857758	0.33	901.2948	0.0018676844	2.4291249	-0.25912497	0.62308332	1.6754746	1.6754748	0	3415.0780110817523
0.13182567	8.3176377	0.33	929.79846	0.0018110269	2.54276	-0.26709826	0.64261488	1.765218	1.7652183	0	3527.9015019979943
0.13182567	9.1201084	0.33	958.98751	0.001756118	2.6597513	-0.27532079	0.66275471	1.8577889	1.8577892	0	3644.0669602490025
0.13182567	10.	0.33	988.90415	0.0017028981	2.7802068	-0.28380073	0.68352141	1.9532564	1.9532567	0	3763.6816259446973