0.17378008	1.e-12	0.02	39.940118	1083.5688	-0.0032203215	-0.0168909	-0.016890853	-0.046067282	0.15434738	0	936.2222462985251
0.17378008	1.0964782e-12	0.02	36.440305	989.79968	-0.0032032863	-0.016935784	-0.016935732	-0.042326217	0.14074511	0	936.2374086471085
0.17378008	1.2022644e-12	0.02	33.248438	904.2736	-0.003186251	-0.016980669	-0.016980611	-0.038912905	0.12833969	0	936.2525710896484
0.17378008	1.3182567e-12	0.02	30.337422	826.26521	-0.0031692157	-0.017025554	-0.017025491	-0.035798509	0.11702581	0	936.2677335133973
0.17378008	1.4454398e-12	0.02	27.682542	755.11303	-0.0031521805	-0.01707044	-0.017070371	-0.032956725	0.10670744	0	936.2828958431894
0.17378008	1.5848932e-12	0.02	25.261264	690.2138	-0.0031351452	-0.017115327	-0.017115251	-0.030363567	0.097296964	0	936.298058266938
0.17378008	1.7378008e-12	0.02	23.053032	631.01733	-0.00311811	-0.017160215	-0.017160131	-0.02799716	0.088714513	0	936.3132205967303
0.17378008	1.9054607e-12	0.02	21.0391	577.02182	-0.0031010747	-0.017205103	-0.017205012	-0.02583755	0.080887224	0	936.3283830016876
0.17378008	2.0892961e-12	0.02	19.202372	527.76965	-0.0030840395	-0.017249993	-0.017249893	-0.023866543	0.073748651	0	936.3435453126883
0.17378008	2.2908677e-12	0.02	17.527257	482.84347	-0.0030670042	-0.017294883	-0.017294774	-0.022067543	0.067238196	0	936.358707717646
0.17378008	2.5118864e-12	0.02	15.999533	441.86262	-0.0030499689	-0.017339775	-0.017339655	-0.020425416	0.06130059	0	936.3738701226033
0.17378008	2.7542287e-12	0.02	14.606233	404.47997	-0.0030329337	-0.017384667	-0.017384535	-0.018926358	0.055885429	0	936.3890324523954
0.17378008	3.0199517e-12	0.02	13.335527	370.3789	-0.0030158984	-0.017429561	-0.017429416	-0.017557781	0.050946743	0	936.4041948573528
0.17378008	3.3113112e-12	0.02	12.176631	339.27069	-0.0029988632	-0.017474455	-0.017474297	-0.016308204	0.046442609	0	936.4193571683536
0.17378008	3.6307805e-12	0.02	11.119704	310.89199	-0.0029818279	-0.017519351	-0.017519177	-0.015167157	0.042334789	0	936.4345195921024
0.17378008	3.9810717e-12	0.02	10.155776	285.00262	-0.0029647927	-0.017564247	-0.017564057	-0.014125089	0.038588413	0	936.4496819218944
0.17378008	4.3651583e-12	0.02	9.2766627	261.38357	-0.0029477574	-0.017609145	-0.017608937	-0.013173292	0.035171678	0	936.4648443456433
0.17378008	4.7863009e-12	0.02	8.4749021	239.83506	-0.0029307221	-0.017654044	-0.017653816	-0.012303823	0.032055578	0	936.4800067881831
0.17378008	5.2480746e-12	0.02	7.7436877	220.1749	-0.0029136869	-0.017698945	-0.017698694	-0.011509437	0.029213662	0	936.495169155558
0.17378008	5.7543994e-12	0.02	7.0768122	202.23695	-0.0028966516	-0.017743846	-0.017743571	-0.010783529	0.026621803	0	936.5103316356805
0.17378008	6.3095734e-12	0.02	6.4686146	185.86967	-0.0028796164	-0.017788749	-0.017788448	-0.010120074	0.024258	0	936.5254940218466
0.17378008	6.9183097e-12	0.02	5.9139318	170.93486	-0.0028625811	-0.017833654	-0.017833323	-0.0095135748	0.022102187	0	936.540656539552
0.17378008	7.5857758e-12	0.02	5.4080552	157.30647	-0.0028455459	-0.017878559	-0.017878197	-0.0089590215	0.020136062	0	936.555818982092
0.17378008	8.3176377e-12	0.02	4.9466901	144.86956	-0.0028285106	-0.017923466	-0.017923069	-0.0084518427	0.018342934	0	936.5709815561711
0.17378008	9.1201084e-12	0.02	4.5259203	133.51928	-0.0028114753	-0.017968375	-0.017967939	-0.0079878703	0.016707583	0	936.5861441678327
0.17378008	1.e-11	0.02	4.1421736	123.16003	-0.0027944401	-0.018013285	-0.018012807	-0.0075633025	0.015216125	0	936.6013067231207
0.17378008	1.0964782e-11	0.02	3.7921926	113.7046	-0.0027774048	-0.018058197	-0.018057673	-0.007174672	0.013855899	0	936.6164694099476
0.17378008	1.2022644e-11	0.02	3.4730061	105.07348	-0.0027603696	-0.01810311	-0.018102536	-0.0068188168	0.012615359	0	936.631632059192
0.17378008	1.3182567e-11	0.02	3.1819046	97.194123	-0.0027433343	-0.018148026	-0.018147396	-0.0064928531	0.011483973	0	936.6467948587668
0.17378008	1.4454398e-11	0.02	2.916417	90.000389	-0.0027262991	-0.018192942	-0.018192252	-0.0061941507	0.010452137	0	936.6619576395505
0.17378008	1.5848932e-11	0.02	2.6742895	83.43195	-0.0027092639	-0.018237861	-0.018237104	-0.0059203109	0.0095110917	0	936.6771204954993
0.17378008	1.7378008e-11	0.02	2.4534667	77.433787	-0.0026922287	-0.018282782	-0.018281952	-0.0056691461	0.0086528487	0	936.6922834266132
0.17378008	1.9054607e-11	0.02	2.2520739	71.955721	-0.0026751935	-0.018327705	-0.018326794	-0.005438661	0.0078701218	0	936.7074464704749
0.17378008	2.0892961e-11	0.02	2.0684015	66.951988	-0.0026581583	-0.01837263	-0.018371632	-0.0052270361	0.0071562666	0	936.7226095895019
0.17378008	2.2908677e-11	0.02	1.9008904	62.380851	-0.0026411232	-0.018417557	-0.018416463	-0.0050326118	0.0065052227	0	936.7377727461118
0.17378008	2.5118864e-11	0.02	1.7481186	58.204246	-0.0026240882	-0.018462487	-0.018461287	-0.0048538748	0.0059114633	0	936.7529359403039
0.17378008	2.7542287e-11	0.02	1.608789	54.387452	-0.0026070533	-0.01850742	-0.018506104	-0.0046894447	0.0053699471	0	936.7680991720789
0.17378008	3.0199517e-11	0.02	1.4817189	50.898809	-0.0025900185	-0.018552357	-0.018550914	-0.0045380627	0.0048760768	0	936.7832624414365
0.17378008	3.3113112e-11	0.02	1.3658294	47.709432	-0.0025729841	-0.018597297	-0.018595715	-0.0043985806	0.0044256583	0	936.7984255040896
0.17378008	3.6307805e-11	0.02	1.2601367	44.792977	-0.0025559501	-0.018642243	-0.018640508	-0.0042699514	0.0040148659	0	936.813588341247
0.17378008	3.9810717e-11	0.02	1.1637434	42.12541	-0.0025389168	-0.018687196	-0.018685294	-0.0041512203	0.0036402093	0	936.8287506522479
0.17378008	4.3651583e-11	0.02	1.0758306	39.684798	-0.0025218847	-0.018732158	-0.018730072	-0.0040415163	0.0032985026	0	936.8439119861007
0.17378008	4.7863009e-11	0.02	0.99565164	37.451108	-0.0025048545	-0.018777134	-0.018774847	-0.0039400453	0.0029868349	0	936.8590715911533
0.17378008	5.2480746e-11	0.02	0.92252324	35.405917	-0.002487829	-0.018822127	-0.01881962	-0.0038460831	0.0027025228	0	936.8742268178314
0.17378008	5.7543994e-11	0.02	0.85580449	33.530915	-0.0024708312	-0.018867126	-0.018864376	-0.0037589702	0.0024428392	0	936.8893563380016
0.17378008	6.3095734e-11	0.02	0.79473421	31.794561	-0.0024540812	-0.018911937	-0.018908922	-0.0036781127	0.0022025442	0	936.9042569800525
0.17378008	6.9183097e-11	0.02	0.7379947	30.115771	-0.0024384899	-0.018956531	-0.018953225	-0.0036030184	0.001967133	0	936.91807351402
0.17378008	7.5857758e-11	0.02	0.68595455	28.553094	-0.0024231181	-0.019007546	-0.019003921	-0.003533273	0.0017478489	0	936.9315636805674
0.17378008	8.3176377e-11	0.02	0.63950337	27.205892	-0.0024064477	-0.01906708	-0.019063106	-0.0034683473	0.0015635988	0	936.9461144472733
0.17378008	9.1201084e-11	0.02	0.59740062	25.991764	-0.0023894457	-0.019128448	-0.019124091	-0.0034077541	0.0013996295	0	936.9609429494965
0.17378008	1.e-10	0.02	0.559027	24.878989	-0.0023724132	-0.019189986	-0.019185208	-0.003351102	0.0012504647	0	936.9757976280105
0.17378008	1.0964782e-10	0.02	0.5240325	23.856789	-0.0023553782	-0.019251541	-0.019246302	-0.0032980435	0.0011144593	0	936.9906550876378
0.17378008	1.2022644e-10	0.02	0.49211804	22.917044	-0.0023383429	-0.0193131	-0.019307356	-0.0032482621	0.00099042757	0	937.0055135807871
0.17378008	1.3182567e-10	0.02	0.46301254	22.052489	-0.0023213076	-0.019374663	-0.019368365	-0.0032014693	0.00087731385	0	937.0203729195451
0.17378008	1.4454398e-10	0.02	0.43646891	21.256507	-0.0023042724	-0.019436229	-0.019429324	-0.0031574023	0.00077415768	0	937.0352331039122
0.17378008	1.5848932e-10	0.02	0.41226182	20.523066	-0.0022872371	-0.0194978	-0.019490229	-0.003115821	0.00068008334	0	937.0500943969662
0.17378008	1.7378008e-10	0.02	0.39018577	19.846666	-0.0022702018	-0.019559374	-0.019551073	-0.0030765065	0.00059429223	0	937.0649568362899
0.17378008	1.9054607e-10	0.02	0.37005338	19.222291	-0.0022531665	-0.019620951	-0.01961185	-0.0030392595	0.00051605609	0	937.0798205346313
0.17378008	2.0892961e-10	0.02	0.35169373	18.645365	-0.0022361312	-0.019682533	-0.019672555	-0.0030038977	0.00044471077	0	937.0946855859465
0.17378008	2.2908677e-10	0.02	0.33495097	18.111716	-0.0022190959	-0.01974412	-0.019733179	-0.0029702552	0.00037965062	0	937.1095521593579
0.17378008	2.5118864e-10	0.02	0.31968299	17.617539	-0.0022020607	-0.01980571	-0.019793716	-0.0029381806	0.00032032337	0	937.1244202736565
0.17378008	2.7542287e-10	0.02	0.30576016	17.159365	-0.0021850254	-0.019867305	-0.019854155	-0.0029075357	0.00026622538	0	937.1392903234595
0.17378008	3.0199517e-10	0.02	0.29306431	16.73403	-0.0021679901	-0.019928904	-0.019914488	-0.0028781946	0.00021689742	0	937.1541623651411
0.17378008	3.3113112e-10	0.02	0.28148766	16.338649	-0.0021509548	-0.019990508	-0.019974704	-0.0028500423	0.00017192074	0	937.1690366054056
0.17378008	3.6307805e-10	0.02	0.27093193	15.97059	-0.0021339194	-0.020052117	-0.020034792	-0.0028229741	0.00013091353	0	937.183913344914
0.17378008	3.9810717e-10	0.02	0.26130752	15.627454	-0.0021168841	-0.020113731	-0.02009474	-0.0027968942	0.000093527665	0	937.1987926212488
0.17378008	4.3651583e-10	0.02	0.25253273	15.307054	-0.0020998488	-0.02017535	-0.020154533	-0.0027717156	0.000059445764	0	937.2136748102363
0.17378008	4.7863009e-10	0.02	0.24453305	15.007395	-0.0020828135	-0.020236975	-0.020214158	-0.0027473585	0.000028378467	0	937.2285601561633
0.17378008	5.2480746e-10	0.02	0.23724059	14.726658	-0.0020657781	-0.020298604	-0.020273599	-0.0027237505	6.1998126e-8	0	937.2434490536473
0.17378008	5.7543994e-10	0.02	0.23059342	14.463185	-0.0020487428	-0.02036024	-0.020332837	-0.0027008252	-0.000025744074	0	937.25834167181
0.17378008	6.3095734e-10	0.02	0.2245351	14.215465	-0.0020317074	-0.020421881	-0.020391855	-0.0026785222	-0.000049258915	0	937.2732385180169
0.17378008	6.9183097e-10	0.02	0.21901417	13.982119	-0.0020146721	-0.020483529	-0.020450632	-0.0026567863	-0.000070682255	0	937.2881397989721
0.17378008	7.5857758e-10	0.02	0.21398376	13.761891	-0.0019976367	-0.020545183	-0.020509147	-0.0026355672	-0.000090196128	0	937.3030460972064
0.17378008	8.3176377e-10	0.02	0.2094011	13.553635	-0.0019806013	-0.020606843	-0.020567376	-0.002614819	-0.00010796639	0	937.3179577697545
0.17378008	9.1201084e-10	0.02	0.20522726	13.356309	-0.0019635659	-0.020668509	-0.020625294	-0.0025944997	-0.0001241442	0	937.3328752863991
0.17378008	1.e-9	0.02	0.20142672	13.168959	-0.0019465305	-0.020730183	-0.020682877	-0.0025745709	-0.00013886724	0	937.3477990981314
0.17378008	1.0964782e-9	0.02	0.19796714	12.990719	-0.0019294951	-0.020791863	-0.020740095	-0.0025549978	-0.000152261	0	937.3627297686911
0.17378008	1.2022644e-9	0.02	0.19481902	12.820797	-0.0019124596	-0.020853551	-0.020796921	-0.0025357482	-0.00016443981	0	937.3776678993994
0.17378008	1.3182567e-9	0.02	0.1919555	12.658473	-0.0018954242	-0.020915246	-0.020853326	-0.0025167932	-0.00017550788	0	937.3926138472914
0.17378008	1.4454398e-9	0.02	0.18935207	12.503088	-0.0018783887	-0.02097695	-0.020909279	-0.0024981058	-0.00018556019	0	937.4075683828107
0.17378008	1.5848932e-9	0.02	0.18698637	12.354043	-0.0018613532	-0.021038661	-0.02096475	-0.0024796619	-0.0001946834	0	937.4225319757401
0.17378008	1.7378008e-9	0.02	0.18483801	12.210789	-0.0018443177	-0.02110038	-0.021019711	-0.0024614391	-0.00020295659	0	937.437505152236
0.17378008	1.9054607e-9	0.02	0.18288838	12.072824	-0.0018272821	-0.021162108	-0.021074134	-0.0024434169	-0.00021045206	0	937.4524885324115
0.17378008	2.0892961e-9	0.02	0.18112043	11.939692	-0.0018102466	-0.021223844	-0.021127994	-0.0024255769	-0.00021723593	0	937.4674823981366
0.17378008	2.2908677e-9	0.02	0.17951859	11.810971	-0.0017932109	-0.02128559	-0.021181268	-0.0024079019	-0.00022336882	0	937.4824874634804
0.17378008	2.5118864e-9	0.02	0.17806857	11.686277	-0.0017761753	-0.021347344	-0.021233938	-0.0023903763	-0.00022890641	0	937.4975037848172
0.17378008	2.7542287e-9	0.02	0.17675724	11.565256	-0.0017591396	-0.021409109	-0.021285991	-0.002372986	-0.0002339	0	937.5125317943468
0.17378008	3.0199517e-9	0.02	0.17557254	11.447581	-0.0017421039	-0.021470883	-0.02133742	-0.002355718	-0.00023839688	0	937.5275715296522
0.17378008	3.3113112e-9	0.02	0.17450334	11.332951	-0.0017250681	-0.021532668	-0.021388225	-0.0023385603	-0.00024244085	0	937.5426230846896
0.17378008	3.6307805e-9	0.02	0.17353936	11.22109	-0.0017080323	-0.021594464	-0.02143841	-0.0023215023	-0.00024607244	0	937.5576862903372
0.17378008	3.9810717e-9	0.02	0.17267114	11.111739	-0.0016909964	-0.02165627	-0.021487989	-0.0023045339	-0.00024932932	0	937.5727609774734
0.17378008	4.3651583e-9	0.02	0.1718899	11.004663	-0.0016739605	-0.021718087	-0.021536981	-0.0022876463	-0.0002522464	0	937.5878466951071
0.17378008	4.7863009e-9	0.02	0.17118755	10.899641	-0.0016569245	-0.021779917	-0.021585411	-0.0022708314	-0.00025485608	0	937.6029430674117
0.17378008	5.2480746e-9	0.02	0.17055665	10.796472	-0.0016398884	-0.021841758	-0.021633306	-0.0022540817	-0.00025718831	0	937.6180495870221
0.17378008	5.7543994e-9	0.02	0.16999033	10.694971	-0.0016228523	-0.021903611	-0.0216807	-0.0022373907	-0.00025927077	0	937.6331655210771
0.17378008	6.3095734e-9	0.02	0.16948232	10.594967	-0.0016058161	-0.021965478	-0.021727626	-0.0022207523	-0.00026112885	0	937.6482903434206
0.17378008	6.9183097e-9	0.02	0.16902686	10.496306	-0.0015887797	-0.022027358	-0.021774119	-0.0022041611	-0.0002627858	0	937.663423490313
0.17378008	7.5857758e-9	0.02	0.16861874	10.398847	-0.0015717433	-0.022089251	-0.021820212	-0.0021876122	-0.00026426276	0	937.6785641537283
0.17378008	8.3176377e-9	0.02	0.16825323	10.302462	-0.0015547068	-0.022151159	-0.021865938	-0.0021711011	-0.00026557886	0	937.6937118075095
0.17378008	9.1201084e-9	0.02	0.16792606	10.207037	-0.0015376701	-0.022213081	-0.021911324	-0.002154624	-0.00026675137	0	937.7088660382484
0.17378008	1.e-8	0.02	0.16763341	10.112468	-0.0015206333	-0.022275018	-0.021956399	-0.0021381772	-0.00026779574	0	937.7240262070403
0.17378008	1.0964782e-8	0.02	0.16737184	10.018665	-0.0015035963	-0.022336971	-0.022001184	-0.0021217575	-0.00026872576	0	937.7391920132243
0.17378008	1.2022644e-8	0.02	0.16713828	9.9255446	-0.0014865592	-0.02239894	-0.022045698	-0.0021053621	-0.00026955371	0	937.7543630058091
0.17378008	1.3182567e-8	0.02	0.16693003	9.8330343	-0.0014695219	-0.022460926	-0.022089957	-0.0020889884	-0.00027029046	0	937.7695389780899
0.17378008	1.4454398e-8	0.02	0.16674465	9.7410694	-0.0014524844	-0.022522929	-0.022133972	-0.0020726338	-0.00027094559	0	937.784719723363
0.17378008	1.5848932e-8	0.02	0.16658003	9.6495927	-0.0014354467	-0.022584949	-0.02217775	-0.0020562965	-0.00027152758	0	937.7999051100888
0.17378008	1.7378008e-8	0.02	0.16643425	9.5585534	-0.0014184088	-0.022646988	-0.022221297	-0.0020399743	-0.00027204385	0	937.8150950255197
0.17378008	1.9054607e-8	0.02	0.16630568	9.4679068	-0.0014013705	-0.022709047	-0.022264613	-0.0020236656	-0.00027250094	0	937.8302896575685
0.17378008	2.0892961e-8	0.02	0.16619283	9.3776132	-0.0013843321	-0.022771124	-0.022307698	-0.0020073687	-0.00027290456	0	937.845488724366
0.17378008	2.2908677e-8	0.02	0.16609444	9.2876376	-0.0013672933	-0.022833223	-0.022350546	-0.0019910821	-0.0002732597	0	937.8606926205292
0.17378008	2.5118864e-8	0.02	0.16600939	9.197949	-0.0013502541	-0.022895342	-0.022393151	-0.0019748046	-0.00027357073	0	937.8759014588061
0.17378008	2.7542287e-8	0.02	0.16593669	9.1085202	-0.0013332146	-0.022957483	-0.022435503	-0.0019585347	-0.00027384145	0	937.8911153331534
0.17378008	3.0199517e-8	0.02	0.16587549	9.0193269	-0.0013161747	-0.023019647	-0.022477591	-0.0019422714	-0.00027407517	0	937.9063345442319
0.17378008	3.3113112e-8	0.02	0.16582508	8.9303477	-0.0012991343	-0.023081834	-0.022519401	-0.0019260136	-0.00027427474	0	937.9215594490764
0.17378008	3.6307805e-8	0.02	0.1657848	8.8415639	-0.0012820934	-0.023144046	-0.022560919	-0.0019097602	-0.00027444263	0	937.9367903107652
0.17378008	3.9810717e-8	0.02	0.16575413	8.7529585	-0.001265052	-0.023206282	-0.022602126	-0.0018935103	-0.00027458098	0	937.952027486333
0.17378008	4.3651583e-8	0.02	0.1657326	8.6645169	-0.00124801	-0.023268545	-0.022643004	-0.0018772629	-0.0002746916	0	937.9672714079803
0.17378008	4.7863009e-8	0.02	0.16571984	8.5762258	-0.0012309673	-0.023330834	-0.022683532	-0.0018610172	-0.00027477604	0	937.9825225642805
0.17378008	5.2480746e-8	0.02	0.16571552	8.4880738	-0.0012139239	-0.023393152	-0.022723688	-0.0018447724	-0.00027483562	0	937.9977813686429
0.17378008	5.7543994e-8	0.02	0.16571938	8.4000504	-0.0011968798	-0.023455498	-0.022763449	-0.0018285275	-0.00027487141	0	938.0130482532671
0.17378008	6.3095734e-8	0.02	0.16573122	8.3121465	-0.0011798348	-0.023517875	-0.02280279	-0.0018122819	-0.00027488433	0	938.0283238758493
0.17378008	6.9183097e-8	0.02	0.16575087	8.2243541	-0.0011627888	-0.023580283	-0.022841685	-0.0017960348	-0.0002748751	0	938.0436088189197
0.17378008	7.5857758e-8	0.02	0.16577822	8.1366659	-0.0011457418	-0.023642723	-0.022880107	-0.0017797853	-0.00027484428	0	938.0589035898433
0.17378008	8.3176377e-8	0.02	0.16581319	8.0490755	-0.0011286937	-0.023705197	-0.022918027	-0.0017635328	-0.00027479231	0	938.0742088275254
0.17378008	9.1201084e-8	0.02	0.16585573	7.9615772	-0.0011116443	-0.023767706	-0.022955416	-0.0017472765	-0.00027471951	0	938.0895252648262
0.17378008	1.e-7	0.02	0.16590582	7.8741659	-0.0010945936	-0.023830252	-0.022992245	-0.0017310157	-0.00027462607	0	938.1048534466939
0.17378008	1.0964782e-7	0.02	0.16596347	7.7868371	-0.0010775414	-0.023892835	-0.023028482	-0.0017147496	-0.0002745121	0	938.1201941623634
0.17378008	1.2022644e-7	0.02	0.16602871	7.6995867	-0.0010604875	-0.023955458	-0.023064095	-0.0016984774	-0.00027437762	0	938.1355482010696
0.17378008	1.3182567e-7	0.02	0.1661016	7.612411	-0.0010434319	-0.024018122	-0.023099052	-0.0016821985	-0.00027422255	0	938.1509161641343
0.17378008	1.4454398e-7	0.02	0.16618222	7.5253067	-0.0010263743	-0.024080829	-0.023133321	-0.001665912	-0.00027404673	0	938.166298934749
0.17378008	1.5848932e-7	0.02	0.16627066	7.4382708	-0.0010093145	-0.02414358	-0.023166867	-0.0016496173	-0.00027384999	0	938.1816973585222
0.17378008	1.7378008e-7	0.02	0.16636702	7.3513006	-0.00099225235	-0.024206378	-0.023199656	-0.0016333135	-0.00027363205	0	938.1971122152935
0.17378008	1.9054607e-7	0.02	0.16647145	7.2643936	-0.00097518763	-0.024269224	-0.023231654	-0.0016169999	-0.00027339255	0	938.2125443506715
0.17378008	2.0892961e-7	0.02	0.16658407	7.1775476	-0.00095812006	-0.02433212	-0.023262826	-0.0016006757	-0.00027313115	0	938.2279946854304
0.17378008	2.2908677e-7	0.02	0.16670506	7.0907605	-0.00094104937	-0.02439507	-0.023293136	-0.0015843399	-0.0002728474	0	938.2434641497398
0.17378008	2.5118864e-7	0.02	0.16683459	7.0040304	-0.00092397527	-0.024458075	-0.023322549	-0.001567992	-0.00027254083	0	938.2589536737695
0.17378008	2.7542287e-7	0.02	0.16697285	6.9173556	-0.00090689742	-0.024521137	-0.023351028	-0.0015516308	-0.00027221092	0	938.2744642722499
0.17378008	3.0199517e-7	0.02	0.16712006	6.8307345	-0.00088981547	-0.02458426	-0.023378537	-0.0015352557	-0.00027185708	0	938.2899969505161
0.17378008	3.3113112e-7	0.02	0.16727645	6.7441656	-0.00087272901	-0.024647446	-0.023405038	-0.0015188658	-0.0002714787	0	938.3055528078594
0.17378008	3.6307805e-7	0.02	0.16744228	6.6576477	-0.00085563761	-0.024710699	-0.023430495	-0.00150246	-0.00027107511	0	938.3211329247802
0.17378008	3.9810717e-7	0.02	0.16761781	6.5711794	-0.0008385408	-0.024774021	-0.023454869	-0.0014860375	-0.0002706456	0	938.3367384757348
0.17378008	4.3651583e-7	0.02	0.16780336	6.4847599	-0.00082143806	-0.024837416	-0.023478122	-0.0014695973	-0.0002701894	0	938.3523706633673
0.17378008	4.7863009e-7	0.02	0.16799926	6.398388	-0.0008043288	-0.024900889	-0.023500216	-0.0014531384	-0.00026970568	0	938.3680307560905
0.17378008	5.2480746e-7	0.02	0.16820586	6.312063	-0.00078721241	-0.024964441	-0.02352111	-0.0014366598	-0.00026919356	0	938.3837200974832
0.17378008	5.7543994e-7	0.02	0.16842356	6.2257842	-0.0007700882	-0.025028079	-0.023540765	-0.0014201604	-0.00026865209	0	938.3994400687061
0.17378008	6.3095734e-7	0.02	0.16865278	6.1395511	-0.00075295541	-0.025091806	-0.023559141	-0.0014036391	-0.00026808029	0	938.4151921354817
0.17378008	6.9183097e-7	0.02	0.16889399	6.0533632	-0.00073581321	-0.025155627	-0.023576196	-0.0013870947	-0.00026747705	0	938.4309778668835
0.17378008	7.5857758e-7	0.02	0.16914771	5.9672204	-0.00071866071	-0.025219548	-0.023591889	-0.0013705261	-0.00026684124	0	938.4467988695686
0.17378008	8.3176377e-7	0.02	0.16941449	5.8811225	-0.0007014969	-0.025283573	-0.023606176	-0.001353932	-0.00026617161	0	938.4626569193155
0.17378008	9.1201084e-7	0.02	0.16969494	5.7950696	-0.00068432069	-0.02534771	-0.023619015	-0.001337311	-0.00026546684	0	938.4785538294852
0.17378008	1.e-6	0.02	0.16998971	5.7090619	-0.0006671309	-0.025411964	-0.023630362	-0.0013206619	-0.00026472551	0	938.4944915355825
0.17378008	1.0964782e-6	0.02	0.17029954	5.6231	-0.00064992622	-0.025476342	-0.023640171	-0.0013039832	-0.00026394609	0	938.510472132838
0.17378008	1.2022644e-6	0.02	0.1706252	5.5371845	-0.0006327052	-0.025540851	-0.023648396	-0.0012872733	-0.00026312694	0	938.5264978480216
0.17378008	1.3182567e-6	0.02	0.17096756	5.4513163	-0.00061546628	-0.0256055	-0.023654992	-0.0012705306	-0.00026226633	0	938.542570992464
0.17378008	1.4454398e-6	0.02	0.17132754	5.3654965	-0.00059820773	-0.025670298	-0.02365991	-0.0012537536	-0.00026136234	0	938.5586941123875
0.17378008	1.5848932e-6	0.02	0.17170617	5.2797264	-0.00058092766	-0.025735252	-0.023663102	-0.0012369403	-0.00026041296	0	938.5748698855531
0.17378008	1.7378008e-6	0.02	0.17210454	5.1940077	-0.000563624	-0.025800374	-0.023664519	-0.001220089	-0.00025941601	0	938.5911011776353
0.17378008	1.9054607e-6	0.02	0.17252387	5.1083422	-0.00054629449	-0.025865675	-0.023664111	-0.0012031976	-0.00025836912	0	938.6073910516169
0.17378008	2.0892961e-6	0.02	0.17296546	5.0227324	-0.00052893663	-0.025931165	-0.023661826	-0.0011862641	-0.00025726978	0	938.6237428335596
0.17378008	2.2908677e-6	0.02	0.17343074	4.9371806	-0.0005115477	-0.025996858	-0.023657612	-0.0011692861	-0.00025611526	0	938.6401600562289
0.17378008	2.5118864e-6	0.02	0.17392125	4.8516898	-0.00049412471	-0.026062766	-0.023651416	-0.0011522612	-0.00025490261	0	938.6566465248644
0.17378008	2.7542287e-6	0.02	0.17443869	4.7662634	-0.00047666438	-0.026128906	-0.023643184	-0.001135187	-0.00025362868	0	938.6732063359711
0.17378008	3.0199517e-6	0.02	0.17498489	4.680905	-0.00045916314	-0.026195293	-0.023632863	-0.0011180607	-0.00025229004	0	938.6898438397368
0.17378008	3.3113112e-6	0.02	0.17556184	4.5956189	-0.00044161705	-0.026261944	-0.023620395	-0.0011008793	-0.00025088301	0	938.7065638279444
0.17378008	3.6307805e-6	0.02	0.17617172	4.5104097	-0.0004240218	-0.026328879	-0.023605726	-0.0010836397	-0.0002494036	0	938.7233713648515
0.17378008	3.9810717e-6	0.02	0.17681688	4.4252826	-0.00040637268	-0.026396117	-0.023588797	-0.0010663387	-0.00024784751	0	938.7402719844977
0.17378008	4.3651583e-6	0.02	0.1774999	4.3402433	-0.00038866453	-0.02646368	-0.023569552	-0.0010489726	-0.00024621009	0	938.7572715873536
0.17378008	4.7863009e-6	0.02	0.17822358	4.2552984	-0.00037089167	-0.026531594	-0.023547932	-0.0010315376	-0.0002444863	0	938.7743766188372
0.17378008	5.2480746e-6	0.02	0.17899095	4.1704547	-0.00035304792	-0.026599883	-0.023523879	-0.0010140295	-0.00024267072	0	938.7915939753585
0.17378008	5.7543994e-6	0.02	0.17980532	4.0857202	-0.0003351265	-0.026668577	-0.023497333	-0.00099644391	-0.00024075746	0	938.808931154649
0.17378008	6.3095734e-6	0.02	0.18067029	4.0011035	-0.00031711996	-0.026737705	-0.023468236	-0.00097877605	-0.00023874015	0	938.8263962463662
0.17378008	6.9183097e-6	0.02	0.18158979	3.9166138	-0.00029902019	-0.026807303	-0.023436528	-0.00096102075	-0.00023661188	0	938.8439979978633
0.17378008	7.5857758e-6	0.02	0.18256808	3.8322616	-0.00028081826	-0.026877405	-0.02340215	-0.00094317248	-0.00023436521	0	938.8617459081465
0.17378008	8.3176377e-6	0.02	0.18360979	3.7480583	-0.00026250444	-0.026948052	-0.023365043	-0.00092522523	-0.00023199203	0	938.8796502278736
0.17378008	9.1201084e-6	0.02	0.18471998	3.6640163	-0.00024406807	-0.027019286	-0.023325148	-0.00090717255	-0.0002294836	0	938.897722081498
0.17378008	0.00001	0.02	0.18590414	3.5801492	-0.00022549749	-0.027091155	-0.023282407	-0.00088900747	-0.00022683041	0	938.915973514248
0.17378008	0.000010964782	0.02	0.18716824	3.4964718	-0.00020677994	-0.02716371	-0.023236762	-0.00087072245	-0.00022402218	0	938.9344176048729
0.17378008	0.000012022644	0.02	0.18634963	3.4129497	-0.00019288255	-0.027218861	-0.023170014	-0.00085461881	-0.00022336663	0	938.948729393132
0.17378008	0.000013182567	0.02	0.18758459	3.3296972	-0.00017430819	-0.027291208	-0.023116646	-0.00083629151	-0.00022043752	0	938.9671840726584
0.17378008	0.000014454398	0.02	0.18890062	3.2466874	-0.00015558726	-0.027364254	-0.023060044	-0.00081783921	-0.00021733856	0	938.985837235365
0.17378008	0.000015848932	0.02	0.19030415	3.163941	-0.00013670603	-0.027438053	-0.023000138	-0.00079925368	-0.00021405764	0	939.0047030968756
0.17378008	0.000017378008	0.02	0.19180215	3.0814807	-0.00011764947	-0.027512666	-0.022936864	-0.00078052598	-0.00021058161	0	939.0237969815007
0.17378008	0.000019054607	0.02	0.19340217	2.9993314	-0.000098401224	-0.027588157	-0.022870155	-0.0007616465	-0.0002068963	0	939.0431355157895
0.17378008	0.000020892961	0.02	0.19511241	2.9175197	-0.000078943454	-0.027664597	-0.022799949	-0.00074260485	-0.00020298638	0	939.062736624769
0.17378008	0.000022908677	0.02	0.19694172	2.8360746	-0.000059256721	-0.027742062	-0.022726183	-0.00072338978	-0.00019883524	0	939.0826197565025
0.17378008	0.000025118864	0.02	0.19889971	2.7550272	-0.000039319873	-0.027820636	-0.022648799	-0.00070398916	-0.00019442496	0	939.1028058745725
0.17378008	0.000027542287	0.02	0.20099674	2.6744114	-0.000019109901	-0.027900408	-0.022567737	-0.00068438989	-0.00018973622	0	939.1233177249161
0.17378008	0.000030199517	0.02	0.20324403	2.5942635	1.3982225e-6	-0.027981475	-0.022482946	-0.00066457777	-0.00018474811	0	939.1441797808621
0.17378008	0.000033113112	0.02	0.2056537	2.5146223	0.000022231674	-0.028063943	-0.022394372	-0.00064453751	-0.00017943811	0	939.1654185912386
0.17378008	0.000036307805	0.02	0.20823878	2.4355298	0.000043419956	-0.028147927	-0.02230197	-0.00062425254	-0.00017378192	0	939.1870627211813
0.17378008	0.000039810717	0.02	0.21101336	2.3570307	0.000064995061	-0.028233548	-0.022205695	-0.00060370499	-0.00016775341	0	939.2091430753434
0.17378008	0.000043651583	0.02	0.21399258	2.2791727	0.000086991648	-0.02832094	-0.02210551	-0.00058287555	-0.00016132444	0	939.2316929133985
0.17378008	0.000047863009	0.02	0.21719271	2.2020065	0.00010944721	-0.028410248	-0.022001382	-0.00056174338	-0.00015446476	0	939.2547480825839
0.17378008	0.000052480746	0.02	0.2206312	2.1255861	0.0001324023	-0.028501626	-0.021893283	-0.00054028598	-0.00014714193	0	939.2783472112493
0.17378008	0.000057543994	0.02	0.22432677	2.0499682	0.00015590067	-0.02859524	-0.021781191	-0.00051847906	-0.00013932114	0	939.3025318206671
0.17378008	0.000063095734	0.02	0.22829942	1.9752128	0.00017998949	-0.028691271	-0.021665093	-0.00049629646	-0.00013096516	0	939.3273464744217
0.17378008	0.000069183097	0.02	0.23257052	1.9013826	0.00020471956	-0.028789912	-0.021544982	-0.00047370999	-0.00012203416	0	939.3528390339717
0.17378008	0.000075857758	0.02	0.23716282	1.8285432	0.00023014547	-0.028891368	-0.021420858	-0.00045068927	-0.00011248565	0	939.37906079019
0.17378008	0.000083176377	0.02	0.24210049	1.7567627	0.00025632578	-0.028995862	-0.021292729	-0.00042720166	-0.00010227444	0	939.4060666136928
0.17378008	0.000091201084	0.02	0.24740919	1.686111	0.00028332324	-0.02910363	-0.021160614	-0.00040321205	-0.000091352414	0	939.4339151051711
0.17378008	0.0001	0.02	0.25311603	1.6166603	0.00031120495	-0.029214926	-0.021024539	-0.00037868276	-0.000079668594	0	939.4626688208859
0.17378008	0.00010964782	0.02	0.25924961	1.5484836	0.00034004249	-0.029330019	-0.020884541	-0.00035357337	-0.000067169013	0	939.4923943196466
0.17378008	0.00012022644	0.02	0.26584001	1.4816549	0.00036991208	-0.029449195	-0.020740665	-0.00032784057	-0.000053796716	0	939.5231623695153
0.17378008	0.00013182567	0.02	0.27291877	1.416248	0.00040089472	-0.029572758	-0.020592967	-0.00030143805	-0.000039491716	0	939.5550480229722
0.17378008	0.00014454398	0.02	0.28051883	1.3523361	0.00043307628	-0.029701031	-0.020441514	-0.00027431636	-0.000024191036	0	939.5881307014761
0.17378008	0.00015848932	0.02	0.28867452	1.2899905	0.00046654758	-0.029834352	-0.020286382	-0.00024642268	-7.828676e-6	0	939.6224943082132
0.17378008	0.00017378008	0.02	0.29742145	1.22928	0.00050140446	-0.029973081	-0.020127657	-0.00021770086	9.664252e-6	0	939.6582272750736
0.17378008	0.00019054607	0.02	0.30679646	1.1702696	0.00053774782	-0.030117593	-0.019965435	-0.0001880911	0.000028359561	0	939.6954226002364
0.17378008	0.00020892961	0.02	0.31683753	1.1130196	0.00057568359	-0.030268285	-0.019799823	-0.00015753	0.000048331825	0	939.7341778011888
0.17378008	0.00022908677	0.02	0.32758364	1.0575846	0.00061532278	-0.030425569	-0.019630935	-0.00012595037	0.000069658309	0	939.7745950368717
0.17378008	0.00025118864	0.02	0.33907471	1.0040121	0.00065678141	-0.030589876	-0.019458895	-0.000093281137	0.000092418892	0	939.8167809855345
0.17378008	0.00027542287	0.02	0.35135147	0.95234201	0.00070018052	-0.030761657	-0.019283837	-0.000059447286	0.00011669594	0	939.860846854132
0.17378008	0.00030199517	0.02	0.36445538	0.9026052	0.00074564606	-0.030941378	-0.019105899	-0.000024369774	0.00014257424	0	939.90690838772
0.17378008	0.00033113112	0.02	0.37842853	0.85482322	0.00079330892	-0.031129524	-0.01892523	0.000012034543	0.0001701409	0	939.9550857661023
0.17378008	0.00036307805	0.02	0.39331355	0.80900758	0.00084330487	-0.031326598	-0.018741984	0.000049852952	0.00019948534	0	940.0055036602051
0.17378008	0.00039810717	0.02	0.40915363	0.76515948	0.0008957746	-0.031533118	-0.018556322	0.000089176977	0.00023069931	0	940.0582912320772
0.17378008	0.00043651583	0.02	0.42599244	0.72326976	0.00095086365	-0.031749621	-0.01836841	0.00013010234	0.00026387684	0	940.1135821067026
0.17378008	0.00047863009	0.02	0.44387422	0.68331914	0.0010087227	-0.03197666	-0.018178422	0.00017272914	0.00029911445	0	940.1715145881009
0.17378008	0.00052480746	0.02	0.46284378	0.64527871	0.0010695073	-0.032214808	-0.017986535	0.0002171618	0.00033651123	0	940.2322314996009
0.17378008	0.00057543994	0.02	0.48294668	0.60911063	0.0011333786	-0.032464652	-0.017792933	0.00026350917	0.00037616903	0	940.2958807945581
0.17378008	0.00063095734	0.02	0.50422935	0.57476912	0.0012005031	-0.032726802	-0.017597806	0.00031188463	0.00041819275	0	940.362615340255
0.17378008	0.00069183097	0.02	0.52673929	0.54220157	0.0012710533	-0.033001884	-0.01740135	0.00036240613	0.00046269062	0	940.4325935286187
0.17378008	0.00075857758	0.02	0.55052531	0.51134968	0.0013452079	-0.033290547	-0.01720377	0.00041519638	0.00050977457	0	940.5059794077589
0.17378008	0.00083176377	0.02	0.57563788	0.4821508	0.0014231524	-0.033593459	-0.017005275	0.0004703829	0.00055956053	0	940.5829433396648
0.17378008	0.00091201084	0.02	0.60212939	0.45453906	0.0015050796	-0.033911316	-0.016806088	0.00052809832	0.00061216894	0	940.6636622820748
0.17378008	0.001	0.02	0.63005462	0.42844663	0.0015911902	-0.034244836	-0.01660644	0.00058848044	0.00066772505	0	940.7483204649625
0.17378008	0.0010964782	0.02	0.65947113	0.40380469	0.0016816937	-0.034594764	-0.016406574	0.00065167262	0.00072635951	0	940.837110160981
0.17378008	0.0012022644	0.02	0.69043984	0.38054436	0.0017768093	-0.034961879	-0.01620675	0.00071782398	0.00078820869	0	940.9302324371154
0.17378008	0.0013182567	0.02	0.72302561	0.35859749	0.0018767667	-0.03534699	-0.016007243	0.00078708987	0.00085341533	0	941.0278979439171
0.17378008	0.0014454398	0.02	0.75729791	0.3378972	0.0019818078	-0.035750942	-0.015808347	0.00085963213	0.00092212891	0	941.1303284376002
0.17378008	0.0015848932	0.02	0.79333168	0.31837842	0.0020921877	-0.036174624	-0.015610381	0.00093561973	0.00099450636	0	941.237757606858
0.17378008	0.0017378008	0.02	0.83120827	0.29997817	0.0022081763	-0.036618967	-0.015413693	0.0010152293	0.0010707126	0	941.3504325010043
0.17378008	0.0019054607	0.02	0.87101657	0.28263578	0.0023300609	-0.037084956	-0.015218661	0.0010986457	0.0011509214	0	941.4686159540499
0.17378008	0.0020892961	0.02	0.91285431	0.26629311	0.002458148	-0.037573632	-0.015025705	0.001186063	0.001235316	0	941.5925880504254
0.17378008	0.0022908677	0.02	0.95682961	0.25089454	0.002592766	-0.038086103	-0.014835289	0.0012776855	0.0013240904	0	941.7226486242255
0.17378008	0.0025118864	0.02	1.0030627	0.23638704	0.0027342686	-0.038623549	-0.014647931	0.0013737283	0.00141745	0	941.8591202658172
0.17378008	0.0027542287	0.02	1.0516881	0.22272014	0.0028830385	-0.039187237	-0.014464216	0.0014744194	0.0015156133	0	942.0023515539457
0.17378008	0.0030199517	0.02	1.1028567	0.209846	0.003039491	-0.03977853	-0.0142848	0.0015800005	0.0016188132	0	942.1527203630033
0.17378008	0.0033113112	0.02	1.1567381	0.19772007	0.0032040791	-0.040398893	-0.014110422	0.001690729	0.0017272989	0	942.3106384293178
0.17378008	0.0036307805	0.02	1.2135183	0.18631054	0.0033772906	-0.041049818	-0.013941827	0.0018068799	0.0018413395	0	942.4765500733429
0.17378008	0.0039810717	0.02	1.2733077	0.17571693	0.0035595168	-0.041731197	-0.013778133	0.0019287448	0.0019612451	0	942.650839520933
0.17378008	0.0043651583	0.02	1.3346093	0.16719701	0.0037488566	-0.042415728	-0.013591241	0.0020565779	0.0020875023	0	942.8322485813367
0.17378008	0.0047863009	0.02	1.3961973	0.1598609	0.0039438523	-0.043097778	-0.013374698	0.0021903549	0.0022199225	0	943.0195289104474
0.17378008	0.0052480746	0.02	1.4663949	0.15084045	0.0041567395	-0.043919807	-0.013270115	0.0023306209	0.0023585201	0	943.2215155982859
0.17378008	0.0057543994	0.02	1.5410916	0.14233103	0.0043818946	-0.044789399	-0.013184204	0.002477993	0.0025043182	0	943.4346779085975
0.17378008	0.0063095734	0.02	1.6204428	0.13431149	0.0046198735	-0.045704912	-0.013114422	0.0026329122	0.0026577542	0	943.6595859320537
0.17378008	0.0069183097	0.02	1.7048689	0.12675254	0.0048716411	-0.046669334	-0.013062828	0.0027958552	0.0028192991	0	943.8971075639597
0.17378008	0.0075857758	0.02	1.7948261	0.11962693	0.0051382473	-0.047685852	-0.013031651	0.0029673415	0.0029894675	0	944.1481873681531
0.17378008	0.0083176377	0.02	1.8908003	0.11290896	0.0054208223	-0.048757813	-0.013023251	0.0031479371	0.0031688205	0	944.4138428939083
0.17378008	0.0091201084	0.02	1.9932957	0.1065744	0.0057205653	-0.049888649	-0.013040041	0.0033382562	0.0033579679	0	944.6951555245688
0.17378008	0.01	0.02	2.1028171	0.10060043	0.0060387251	-0.051081778	-0.013084391	0.0035389629	0.0035575698	0	944.9932540539463
0.17378008	0.010964782	0.02	2.2198437	0.094965544	0.0063765677	-0.052340455	-0.01315847	0.00375077	0.0037683346	0	945.3092872134289
0.17378008	0.012022644	0.02	2.3447911	0.0896495	0.0067353275	-0.053667558	-0.01326404	0.0039744341	0.0039910155	0	945.6443816922018
0.17378008	0.013182567	0.02	2.4779599	0.08463322	0.007116138	-0.055065304	-0.013402168	0.0042107477	0.0042264012	0	945.9995824372647
0.17378008	0.014454398	0.02	2.6194674	0.079898744	0.007519938	-0.056534889	-0.013572863	0.0044605242	0.0044753021	0	946.3757713434462
0.17378008	0.015848932	0.02	2.7691621	0.075429161	0.0079473483	-0.058076026	-0.013774611	0.0047245761	0.0047385274	0	946.7735601429548
0.17378008	0.017378008	0.02	2.9265177	0.071208544	0.0083985177	-0.0596864	-0.014003836	0.005003684	0.0050168546	0	947.1931558408281
0.17378008	0.019054607	0.02	3.0905115	0.067221897	0.0088729379	-0.06136105	-0.014254277	0.0052985532	0.0053109864	0	947.6341985083717
0.17378008	0.020892961	0.02	3.25949	0.063455102	0.0093692322	-0.063091713	-0.014516325	0.005609759	0.0056214956	0	948.0955752116375
0.17378008	0.022908677	0.02	3.4310354	0.059894856	0.0098849326	-0.064866189	-0.014776397	0.0059376785	0.0059487565	0	948.5752223456643
0.17378008	0.025118864	0.02	3.6018506	0.056528628	0.010416266	-0.066667833	-0.015016421	0.006282409	0.0062928645	0	949.0699344329308
0.17378008	0.027542287	0.02	3.767692	0.053344605	0.010957988	-0.068475312	-0.015213593	0.006643679	0.0066535455	0	949.5752125338796
0.17378008	0.030199517	0.02	3.9233904	0.050331644	0.011503317	-0.070262811	-0.015340576	0.0070207547	0.0070300639	0	950.0851985900931
0.17378008	0.033113112	0.02	4.0630098	0.047479223	0.012044033	-0.072000872	-0.015366351	0.0074123558	0.0074211374	0	950.5927522619457
0.17378008	0.036307805	0.02	4.1802041	0.044777389	0.012570838	-0.07365812	-0.015257928	0.0078165965	0.0078248784	0	951.0897573960314
0.17378008	0.039810717	0.02	4.268838	0.04221671	0.013074052	-0.075204007	-0.014983093	0.0082309727	0.008238781	0	951.5677243429255
0.17378008	0.043651583	0.02	4.1456428	0.039538729	0.013368438	-0.077444697	-0.015346295	0.0086492131	0.0086565261	0	951.8374941877657
0.17378008	0.047863009	0.02	3.8559445	0.03683577	0.013470152	-0.080448549	-0.016414124	0.0090379034	0.0090447164	0	951.912995235213
0.17378008	0.052480746	0.02	3.5917365	0.034370642	0.013562917	-0.083418805	-0.017387995	0.0093923931	0.0093987502	0	951.9818537059665
0.17378008	0.057543994	0.02	3.4162331	0.032032453	0.01374336	-0.087213402	-0.019123964	0.0097249089	0.0097308336	0	952.118770569995
0.17378008	0.063095734	0.02	3.3475444	0.029730549	0.014058839	-0.092199796	-0.021987546	0.010056223	0.010061722	0	952.361373258566
0.17378008	0.069183097	0.02	3.3228383	0.027562882	0.014415554	-0.097218641	-0.024817396	0.010382636	0.010387734	0	952.6433537322773
0.17378008	0.075857758	0.02	3.3882795	0.025522845	0.014868593	-0.10224643	-0.027587946	0.010710614	0.010715335	0	953.0169512232671
0.17378008	0.083176377	0.02	3.603429	0.023604344	0.015492676	-0.10726929	-0.030283178	0.011051804	0.01105617	0	953.5526710536429
0.17378008	0.091201084	0.02	4.0410164	0.021801788	0.016383332	-0.1122887	-0.032902399	0.011424341	0.011428374	0	954.3402819841007
0.17378008	0.1	0.02	4.7854534	0.020110086	0.017656677	-0.11732787	-0.035466553	0.011854083	0.011857803	0	955.4884890196871
0.17378008	0.10964782	0.02	5.9302357	0.018524636	0.019447789	-0.12243747	-0.038023963	0.01237563	0.012379057	0	957.1232987164215
0.17378008	0.12022644	0.02	7.5749107	0.017041319	0.021908291	-0.12769923	-0.040653966	0.013033068	0.01303622	0	959.3856799454431
0.17378008	0.13182567	0.02	9.8227653	0.015656484	0.025204361	-0.133226	-0.043466925	0.013880438	0.013883334	0	962.4296939324703
0.17378008	0.14454398	0.02	12.780433	0.014366928	0.029516555	-0.13915734	-0.046599852	0.014982062	0.014984719	0	966.4224102042828
0.17378008	0.15848932	0.02	16.559951	0.01316986	0.035042235	-0.14565125	-0.050208095	0.016412955	0.016415391	0	971.5463440655269
0.17378008	0.17378008	0.02	21.282537	0.012062833	0.042000091	-0.15287331	-0.054454518	0.01825953	0.018261762	0	978.0039086351718
0.17378008	0.19054607	0.02	27.082089	0.011043649	0.050634703	-0.16098501	-0.059497809	0.020620686	0.020622728	0	986.0219208515947
0.17378008	0.20892961	0.02	34.105655	0.010110207	0.06121812	-0.17013225	-0.065480982	0.023609105	0.023610975	0	995.8533011087184
0.17378008	0.22908677	0.02	42.508313	0.00926031	0.074045288	-0.1804345	-0.07252051	0.027352348	0.027354061	0	1007.7729817683642
0.17378008	0.25118864	0.02	52.441093	0.0084914266	0.089421241	-0.19197481	-0.08069637	0.031993109	0.031994679	0	1022.0660593351438
0.17378008	0.27542287	0.02	64.032638	0.0078004456	0.10764017	-0.20479161	-0.090043835	0.037687954	0.037689397	0	1039.008282653167
0.17378008	0.30199517	0.02	77.367973	0.0071834814	0.1289595	-0.21887388	-0.1005486	0.044604099	0.044605427	0	1058.8417881423047
0.17378008	0.33113112	0.02	92.469819	0.0066357842	0.15357476	-0.23416131	-0.11214699	0.052914162	0.052915389	0	1081.75148461235
0.17378008	0.36307805	0.02	109.28825	0.0061518002	0.181602	-0.25055065	-0.12473227	0.062789471	0.062790609	0	1107.8484143123233
0.17378008	0.39810717	0.02	127.70222	0.0057253795	0.2130725	-0.26790713	-0.1381661	0.074392908	0.074393967	0	1137.1645664357823
0.17378008	0.43651583	0.02	147.53249	0.005350081	0.24794041	-0.28607893	-0.15229294	0.087872494	0.087873483	0	1169.6597847113208
0.17378008	0.47863009	0.02	168.5621	0.0050195028	0.28610007	-0.30491124	-0.16695419	0.10335665	0.10335757	0	1205.2377749653483
0.17378008	0.52480746	0.02	190.55879	0.0047275665	0.32740748	-0.32425788	-0.18199971	0.12095159	0.12095246	0	1243.766061114297
0.17378008	0.57543994	0.02	213.29475	0.0044687171	0.37170105	-0.34398905	-0.19729568	0.14074085	0.14074168	0	1285.0953334459634
0.17378008	0.63095734	0.02	236.56115	0.0042380291	0.41881826	-0.36399552	-0.21272867	0.16278647	0.16278725	0	1329.075025297619
0.17378008	0.69183097	0.02	260.17687	0.0040312357	0.4686074	-0.38419	-0.22820707	0.18713131	0.18713205	0	1375.5643166816494
0.17378008	0.75857758	0.02	283.99234	0.0038447013	0.52093451	-0.4045066	-0.24366056	0.21380202	0.21380274	0	1424.4386648284767
0.17378008	0.83176377	0.02	307.88968	0.0036753642	0.57568667	-0.42489936	-0.25903859	0.24281217	0.24281285	0	1475.5929239193472
0.17378008	0.91201084	0.02	331.78066	0.0035206644	0.6327728	-0.44534027	-0.27430843	0.2741652	0.27416586	0	1528.9421333816622
0.17378008	1.	0.02	355.60342	0.0033784705	0.69212286	-0.4658172	-0.28945307	0.30785728	0.30785791	0	1584.4208056984385
0.17378008	1.0964782	0.02	379.31874	0.0032470113	0.75368625	-0.48633175	-0.30446908	0.34387962	0.34388022	0	1641.98146331715
0.17378008	1.2022644	0.02	402.90635	0.0031248148	0.81742991	-0.50689723	-0.31936458	0.38222056	0.38222114	0	1701.5928916219125
0.17378008	1.3182567	0.02	426.36152	0.0030106566	0.88333629	-0.52753664	-0.33415725	0.42286723	0.42286778	0	1763.2382690105255
0.17378008	1.4454398	0.02	449.69205	0.002903517	0.95140149	-0.54828083	-0.34887241	0.46580693	0.46580747	0	1826.9134553822316
0.17378008	1.5848932	0.02	472.91566	0.0028025444	1.0216336	-0.56916671	-0.36354129	0.51102825	0.51102877	0	1892.625464968194
0.17378008	1.7378008	0.02	496.05784	0.0027070266	1.0940511	-0.59023561	-0.37819936	0.55852191	0.55852241	0	1960.3909944084212
0.17378008	1.9054607	0.02	519.15005	0.002616366	1.1686819	-0.61153186	-0.39288491	0.60828141	0.60828189	0	2030.2355474526878
0.17378008	2.0892961	0.02	542.22826	0.0025300601	1.2455618	-0.63310158	-0.40763782	0.66030359	0.66030405	0	2102.1920111431987
0.17378008	2.2908677	0.02	565.33176	0.0024476848	1.3247339	-0.65499164	-0.42249855	0.71458898	0.71458943	0	2176.3001204502602
0.17378008	2.5118864	0.02	588.50223	0.0023688812	1.4062481	-0.67724894	-0.43750735	0.77114208	0.77114252	0	2252.6060033347285
0.17378008	2.7542287	0.02	611.78294	0.0022933444	1.4901597	-0.69991976	-0.45270369	0.82997158	0.82997201	0	2331.1608760675717
0.17378008	3.0199517	0.02	635.21822	0.0022208139	1.5765297	-0.72304944	-0.46812586	0.89109045	0.89109086	0	2412.021332615996
0.17378008	3.3113112	0.02	658.85297	0.0021510667	1.6654239	-0.74668214	-0.48381074	0.95451603	0.95451643	0	2495.2485033566277
0.17378008	3.6307805	0.02	682.73228	0.0020839101	1.7569129	-0.77086067	-0.49979367	1.0202701	1.0202705	0	2580.9080575183884
0.17378008	3.9810717	0.02	706.90125	0.0020191771	1.8510715	-0.79562654	-0.51610842	1.0883788	1.0883792	0	2669.0696400070196
0.17378008	4.3651583	0.02	731.4047	0.0019567221	1.9479786	-0.82102001	-0.53278729	1.1588728	1.1588731	0	2759.8067755694215
0.17378008	4.7863009	0.02	756.28715	0.001896417	2.0477172	-0.84708017	-0.54986114	1.231787	1.2317873	0	2853.1968682299103
0.17378008	5.2480746	0.02	781.59263	0.0018381484	2.1503741	-0.87384508	-0.56735957	1.3071607	1.3071611	0	2949.3209160381766
0.17378008	5.7543994	0.02	807.36473	0.0017818152	2.2560399	-0.90135195	-0.58531107	1.3850377	1.385038	0	3048.2635082505963
0.17378008	6.3095734	0.02	833.64652	0.0017273267	2.3648087	-0.92963729	-0.60374312	1.4654656	1.4654659	0	3150.112541581487
0.17378008	6.9183097	0.02	860.48058	0.0016746009	2.4767785	-0.95873708	-0.62268243	1.5484966	1.5484969	0	3254.959591519339
0.17378008	7.5857758	0.02	887.90904	0.0016235631	2.592051	-0.98868692	-0.642155	1.6341868	1.6341871	0	3362.8997232862644
0.17378008	8.3176377	0.02	915.97363	0.0015741447	2.7107312	-1.0195222	-0.66218636	1.7225967	1.7225969	0	3474.0311115019476
0.17378008	9.1201084	0.02	944.7157	0.0015262825	2.8329281	-1.0512782	-0.68280164	1.8137905	1.8137908	0	3588.4556965639918
0.17378008	10.	0.02	974.17631	0.0014799179	2.9587544	-1.0839904	-0.70402572	1.9078367	1.907837	0	3706.2788999596237