0.17378008	1.e-12	0.45	39.778504	1065.2253	-0.0092303407	-0.0018548586	-0.0018537835	-0.052401677	0.14462022	0	930.1090538752346
0.17378008	1.0964782e-12	0.45	36.278707	971.54233	-0.0092300815	-0.0018548457	-0.0018536669	-0.048676455	0.13101803	0	930.109346709567
0.17378008	1.2022644e-12	0.45	33.086856	886.10235	-0.0092298208	-0.001854838	-0.0018535454	-0.045278983	0.11861269	0	930.1096430249894
0.17378008	1.3182567e-12	0.45	30.175859	808.18014	-0.0092295599	-0.001854833	-0.0018534158	-0.042180425	0.10729892	0	930.1099429530404
0.17378008	1.4454398e-12	0.45	27.521001	737.11419	-0.0092292974	-0.0018548337	-0.0018532797	-0.039354478	0.096980654	0	930.1102471326246
0.17378008	1.5848932e-12	0.45	25.099746	672.30125	-0.0092290343	-0.0018548379	-0.001853134	-0.036777155	0.087570309	0	930.1105559348705
0.17378008	1.7378008e-12	0.45	22.89154	613.19112	-0.0092287694	-0.0018548485	-0.0018529802	-0.034426579	0.078987996	0	930.1108698530496
0.17378008	1.9054607e-12	0.45	20.877638	559.28205	-0.0092285038	-0.0018548627	-0.0018528143	-0.032282799	0.071160864	0	930.1111895448578
0.17378008	2.0892961e-12	0.45	19.040944	510.11639	-0.0092282371	-0.0018548822	-0.0018526361	-0.030327617	0.064022465	0	930.1115154706819
0.17378008	2.2908677e-12	0.45	17.365865	465.2768	-0.0092279691	-0.0018549068	-0.001852444	-0.02854444	0.057512205	0	930.1118484949225
0.17378008	2.5118864e-12	0.45	15.838183	424.38266	-0.0092277006	-0.0018549354	-0.001852235	-0.026918132	0.051574816	0	930.11218913434
0.17378008	2.7542287e-12	0.45	14.444928	387.08681	-0.0092274302	-0.0018549707	-0.0018520098	-0.025434889	0.046159896	0	930.1125384083632
0.17378008	3.0199517e-12	0.45	13.174274	353.07267	-0.0092271582	-0.0018550122	-0.0018517657	-0.024082121	0.041221477	0	930.1128971766943
0.17378008	3.3113112e-12	0.45	12.015434	322.05151	-0.0092268854	-0.0018550585	-0.0018514988	-0.022848349	0.036717638	0	930.1132663366182
0.17378008	3.6307805e-12	0.45	10.958569	293.75999	-0.0092266107	-0.0018551118	-0.0018512087	-0.0217231	0.032610146	0	930.1136470907784
0.17378008	3.9810717e-12	0.45	9.9947101	267.95797	-0.0092263355	-0.0018551694	-0.0018508898	-0.020696825	0.028864133	0	930.1140404914884
0.17378008	4.3651583e-12	0.45	9.1156733	244.42643	-0.0092260584	-0.0018552342	-0.0018505418	-0.019760813	0.025447799	0	930.1144479809805
0.17378008	4.7863009e-12	0.45	8.313997	222.96562	-0.0092257794	-0.0018553062	-0.0018501612	-0.018907121	0.022332143	0	930.1148710390707
0.17378008	5.2480746e-12	0.45	7.5828759	203.39337	-0.0092254993	-0.0018553843	-0.001849743	-0.018128505	0.019490716	0	930.1153110281284
0.17378008	5.7543994e-12	0.45	6.9161035	185.54354	-0.0092252179	-0.0018554684	-0.001849283	-0.017418356	0.016899398	0	930.1157699118454
0.17378008	6.3095734e-12	0.45	6.3080196	169.26463	-0.0092249347	-0.0018555601	-0.0018487782	-0.016770649	0.014536191	0	930.1162494284174
0.17378008	6.9183097e-12	0.45	5.7534623	154.41845	-0.0092246503	-0.0018556581	-0.0018482222	-0.016179886	0.012381034	0	930.1167517200536
0.17378008	7.5857758e-12	0.45	5.2477241	140.87899	-0.0092243641	-0.0018557638	-0.0018476109	-0.015641057	0.010415634	0	930.117279083991
0.17378008	8.3176377e-12	0.45	4.7865115	128.53133	-0.0092240754	-0.0018558788	-0.0018469399	-0.015149588	0.0086233037	0	930.1178340382651
0.17378008	9.1201084e-12	0.45	4.3659098	117.27065	-0.0092237855	-0.0018560004	-0.0018461998	-0.014701309	0.0069888308	0	930.118419335802
0.17378008	1.e-11	0.45	3.9823483	107.00139	-0.0092234938	-0.0018561302	-0.001845385	-0.014292418	0.0054983398	0	930.1190379080458
0.17378008	1.0964782e-11	0.45	3.632571	97.636368	-0.0092232003	-0.0018562681	-0.0018444875	-0.013919445	0.0041391781	0	930.1196931374317
0.17378008	1.2022644e-11	0.45	3.3136089	89.09611	-0.0092229049	-0.0018564145	-0.0018434989	-0.013579226	0.0028998081	0	930.1203886694734
0.17378008	1.3182567e-11	0.45	3.0227543	81.308127	-0.0092226077	-0.0018565694	-0.0018424098	-0.013268876	0.001769709	0	930.1211283845755
0.17378008	1.4454398e-11	0.45	2.757538	74.206317	-0.0092223081	-0.0018567342	-0.0018412114	-0.012985761	0.00073928713	0	930.1219165671564
0.17378008	1.5848932e-11	0.45	2.5157089	67.730406	-0.0092220066	-0.0018569079	-0.0018398911	-0.012727482	-0.00020020439	0	930.1227580747686
0.17378008	1.7378008e-11	0.45	2.2952139	61.825431	-0.0092217033	-0.0018570904	-0.0018384368	-0.012491846	-0.0010567412	0	930.1236579293891
0.17378008	1.9054607e-11	0.45	2.0941812	56.441272	-0.009221397	-0.0018572848	-0.0018368379	-0.012276857	-0.0018375948	0	930.1246217402231
0.17378008	2.0892961e-11	0.45	1.9109043	51.532236	-0.0092210894	-0.001857487	-0.0018350759	-0.012080691	-0.0025493941	0	930.1256557318908
0.17378008	2.2908677e-11	0.45	1.7438271	47.056652	-0.0092207788	-0.0018577013	-0.0018331391	-0.011901685	-0.0031981827	0	930.1267664484648
0.17378008	2.5118864e-11	0.45	1.5915311	42.976536	-0.0092204658	-0.0018579265	-0.0018310092	-0.011738321	-0.0037894693	0	930.1279610635269
0.17378008	2.7542287e-11	0.45	1.4527232	39.257252	-0.009220151	-0.0018581614	-0.0018286664	-0.011589216	-0.004328275	0	930.129247384865
0.17378008	3.0199517e-11	0.45	1.3262247	35.867227	-0.0092198331	-0.001858409	-0.0018260935	-0.011453105	-0.0048191763	0	930.1306339061498
0.17378008	3.3113112e-11	0.45	1.210961	32.777676	-0.0092195127	-0.001858668	-0.0018232677	-0.011328836	-0.0052663437	0	930.1321297035827
0.17378008	3.6307805e-11	0.45	1.105953	29.962362	-0.0092191899	-0.0018589386	-0.0018201663	-0.011215355	-0.0056735777	0	930.133744280867
0.17378008	3.9810717e-11	0.45	1.010308	27.397364	-0.0092188641	-0.0018592223	-0.001816766	-0.011111702	-0.0060443413	0	930.135488053085
0.17378008	4.3651583e-11	0.45	0.9232126	25.060881	-0.0092185353	-0.0018595194	-0.0018130411	-0.011016999	-0.00638179	0	930.1373718863094
0.17378008	4.7863009e-11	0.45	0.84392562	22.933035	-0.009218204	-0.0018598287	-0.0018089631	-0.010930446	-0.0066887986	0	930.1394073606837
0.17378008	5.2480746e-11	0.45	0.77177141	20.995708	-0.0092178696	-0.0018601518	-0.0018045049	-0.01085131	-0.0069679868	0	930.1416064979463
0.17378008	5.7543994e-11	0.45	0.70613417	19.232376	-0.0092175316	-0.0018604903	-0.0017996387	-0.010778923	-0.0072217421	0	930.1439815218424
0.17378008	6.3095734e-11	0.45	0.64645252	17.627971	-0.0092171912	-0.0018608416	-0.0017943319	-0.010712674	-0.0074522408	0	930.1465450883172
0.17378008	6.9183097e-11	0.45	0.59221447	16.16874	-0.0092168471	-0.0018612087	-0.0017885575	-0.010652005	-0.0076614677	0	930.149309834525
0.17378008	7.5857758e-11	0.45	0.54295287	14.842132	-0.0092164993	-0.0018615918	-0.0017822862	-0.010596405	-0.0078512345	0	930.1522881486343
0.17378008	8.3176377e-11	0.45	0.49824116	13.636675	-0.0092161485	-0.0018619898	-0.0017754885	-0.010545407	-0.008023196	0	930.15549184568
0.17378008	9.1201084e-11	0.45	0.45768949	12.541877	-0.0092157941	-0.0018624044	-0.0017681399	-0.010498586	-0.0081788661	0	930.158931848109
0.17378008	1.e-10	0.45	0.42094105	11.548129	-0.0092154354	-0.0018628372	-0.0017602188	-0.010455551	-0.0083196323	0	930.1626179461923
0.17378008	1.0964782e-10	0.45	0.38766889	10.646618	-0.0092150736	-0.0018632856	-0.0017517035	-0.010415945	-0.0084467681	0	930.1665581873071
0.17378008	1.2022644e-10	0.45	0.3575728	9.829242	-0.0092147076	-0.0018637528	-0.0017425825	-0.010379442	-0.0085614459	0	930.170758467226
0.17378008	1.3182567e-10	0.45	0.33037672	9.0885471	-0.0092143374	-0.0018642389	-0.0017328475	-0.010345746	-0.0086647468	0	930.1752222952255
0.17378008	1.4454398e-10	0.45	0.30582628	8.417658	-0.0092139622	-0.0018647456	-0.0017224977	-0.010314584	-0.008757671	0	930.1799507612016
0.17378008	1.5848932e-10	0.45	0.28368682	7.8102276	-0.009213584	-0.0018652692	-0.0017115337	-0.010285708	-0.0088411446	0	930.1849417323408
0.17378008	1.7378008e-10	0.45	0.26374158	7.2603895	-0.0092132003	-0.0018658155	-0.0016999723	-0.010258894	-0.008916027	0	930.1901904544425
0.17378008	1.9054607e-10	0.45	0.24579029	6.7627227	-0.009212813	-0.0018663805	-0.0016878271	-0.010233935	-0.0089831159	0	930.1956893921927
0.17378008	2.0892961e-10	0.45	0.22964802	6.3122202	-0.0092124196	-0.0018669702	-0.0016751271	-0.010210646	-0.0090431509	0	930.2014286331765
0.17378008	2.2908677e-10	0.45	0.21514423	5.9042663	-0.0092120219	-0.0018675808	-0.0016618963	-0.010188858	-0.0090968169	0	930.2073963388709
0.17378008	2.5118864e-10	0.45	0.202122	5.5346162	-0.0092116193	-0.001868214	-0.0016481676	-0.010168418	-0.0091447463	0	930.21357916275
0.17378008	2.7542287e-10	0.45	0.19043736	5.1993792	-0.0092112113	-0.0018688715	-0.001633976	-0.010149187	-0.0091875206	0	930.2199627764423
0.17378008	3.0199517e-10	0.45	0.17995875	4.8950033	-0.0092107972	-0.0018695551	-0.0016193572	-0.010131042	-0.0092256722	0	930.2265327435263
0.17378008	3.3113112e-10	0.45	0.17056637	4.6182595	-0.0092103782	-0.0018702624	-0.0016043424	-0.01011387	-0.009259686	0	930.2332747450255
0.17378008	3.6307805e-10	0.45	0.16215161	4.3662249	-0.0092099531	-0.0018709966	-0.0015889666	-0.01009757	-0.0092900016	0	930.2401751102648
0.17378008	3.9810717e-10	0.45	0.15461641	4.1362647	-0.0092095219	-0.001871758	-0.0015732596	-0.01008205	-0.0093170153	0	930.2472212396722
0.17378008	4.3651583e-10	0.45	0.14787257	3.9260138	-0.0092090846	-0.0018725472	-0.0015572482	-0.01006723	-0.0093410829	0	930.2544018020899
0.17378008	4.7863009e-10	0.45	0.14184106	3.733356	-0.0092086401	-0.0018733671	-0.0015409584	-0.010053036	-0.009362522	0	930.2617068381255
0.17378008	5.2480746e-10	0.45	0.1364513	3.5564045	-0.0092081894	-0.0018742156	-0.0015244071	-0.010039401	-0.0093816154	0	930.2691282628184
0.17378008	5.7543994e-10	0.45	0.13164046	3.3934807	-0.009207732	-0.0018750946	-0.0015076114	-0.010026265	-0.0093986137	0	930.2766593159965
0.17378008	6.3095734e-10	0.45	0.12735273	3.2430945	-0.0092072667	-0.0018760071	-0.0014905861	-0.010013575	-0.0094137387	0	930.284294867633
0.17378008	6.9183097e-10	0.45	0.12353865	3.1039257	-0.0092067942	-0.0018769524	-0.0014733384	-0.010001281	-0.0094271856	0	930.29203121584
0.17378008	7.5857758e-10	0.45	0.12015452	2.9748055	-0.0092063143	-0.001877931	-0.0014558733	-0.0099893403	-0.0094391264	0	930.2998664345091
0.17378008	8.3176377e-10	0.45	0.11716178	2.8546999	-0.0092058258	-0.0018789461	-0.0014381954	-0.0099777116	-0.0094497121	0	930.3077997062178
0.17378008	9.1201084e-10	0.45	0.11452645	2.7426953	-0.0092053301	-0.0018799955	-0.0014203008	-0.0099663585	-0.0094590752	0	930.3158313645122
0.17378008	1.e-9	0.45	0.11221871	2.6379835	-0.0092048246	-0.0018810852	-0.001402191	-0.0099552474	-0.0094673314	0	930.3239632180555
0.17378008	1.0964782e-9	0.45	0.11021237	2.5398508	-0.0092043106	-0.0018822131	-0.0013838567	-0.0099443476	-0.0094745819	0	930.3321979774938
0.17378008	1.2022644e-9	0.45	0.10848454	2.4476659	-0.0092037869	-0.0018833825	-0.0013652916	-0.0099336306	-0.0094809153	0	930.3405394339734
0.17378008	1.3182567e-9	0.45	0.10701526	2.3608706	-0.0092032534	-0.001884594	-0.0013464846	-0.0099230701	-0.0094864083	0	930.3489923745796
0.17378008	1.4454398e-9	0.45	0.10578716	2.2789711	-0.0092027101	-0.0018858483	-0.0013274223	-0.0099126418	-0.0094911279	0	930.3575624648913
0.17378008	1.5848932e-9	0.45	0.10478519	2.2015306	-0.0092021572	-0.0018871461	-0.0013080895	-0.0099023226	-0.009495132	0	930.3662559436227
0.17378008	1.7378008e-9	0.45	0.10399635	2.128162	-0.009201592	-0.0018884933	-0.0012884745	-0.0098920911	-0.0094984706	0	930.3750802944114
0.17378008	1.9054607e-9	0.45	0.10340952	2.0585226	-0.0092010159	-0.0018898881	-0.0012685557	-0.009881927	-0.0095011868	0	930.3840433344417
0.17378008	2.0892961e-9	0.45	0.10301519	1.9923086	-0.0092004288	-0.0018913311	-0.0012483127	-0.0098718108	-0.0095033175	0	930.3931537828797
0.17378008	2.2908677e-9	0.45	0.10280532	1.9292506	-0.0091998295	-0.0018928257	-0.0012277262	-0.0098617243	-0.009504894	0	930.4024209273289
0.17378008	2.5118864e-9	0.45	0.10277315	1.8691092	-0.0091992169	-0.0018943756	-0.0012067754	-0.0098516495	-0.0095059429	0	930.4118545956429
0.17378008	2.7542287e-9	0.45	0.10291306	1.8116721	-0.0091985914	-0.0018959801	-0.0011854342	-0.0098415694	-0.0095064863	0	930.4214654471907
0.17378008	3.0199517e-9	0.45	0.10322046	1.75675	-0.0091979519	-0.0018976427	-0.0011636792	-0.0098314674	-0.0095065425	0	930.4312644091174
0.17378008	3.3113112e-9	0.45	0.10369164	1.7041746	-0.0091972985	-0.0018993642	-0.0011414831	-0.0098213271	-0.0095061265	0	930.4412629300264
0.17378008	3.6307805e-9	0.45	0.10432365	1.6537956	-0.0091966298	-0.0019011484	-0.0011188202	-0.0098111328	-0.0095052502	0	930.4514731913825
0.17378008	3.9810717e-9	0.45	0.10511425	1.6054786	-0.0091959465	-0.0019029946	-0.0010956597	-0.0098008688	-0.0095039227	0	930.461907557866
0.17378008	4.3651583e-9	0.45	0.10606176	1.5591031	-0.0091952461	-0.0019049093	-0.0010719767	-0.0097905195	-0.009502151	0	930.4725789062201
0.17378008	4.7863009e-9	0.45	0.10716501	1.5145607	-0.0091945293	-0.0019068921	-0.0010477385	-0.0097800697	-0.0094999396	0	930.4835004044528
0.17378008	5.2480746e-9	0.45	0.10842328	1.4717536	-0.0091937948	-0.0019089466	-0.0010229156	-0.0097695041	-0.0094972916	0	930.4946857467293
0.17378008	5.7543994e-9	0.45	0.10983619	1.4305932	-0.0091930421	-0.0019110752	-0.00099747666	-0.0097588077	-0.0094942081	0	930.5061486535224
0.17378008	6.3095734e-9	0.45	0.1114037	1.3909987	-0.0091922699	-0.0019132818	-0.00097139076	-0.0097479651	-0.0094906888	0	930.5179034193793
0.17378008	6.9183097e-9	0.45	0.113126	1.3528963	-0.0091914782	-0.0019155672	-0.00094462373	-0.0097369613	-0.0094867324	0	930.5299644915265
0.17378008	7.5857758e-9	0.45	0.11500352	1.3162178	-0.0091906657	-0.0019179355	-0.00091714349	-0.0097257811	-0.0094823361	0	930.5423466549646
0.17378008	8.3176377e-9	0.45	0.11703688	1.2809004	-0.0091898314	-0.0019203904	-0.00088891745	-0.0097144092	-0.0094774965	0	930.5550646284544
0.17378008	9.1201084e-9	0.45	0.11922685	1.2468854	-0.0091889739	-0.0019229359	-0.00085991245	-0.0097028303	-0.0094722089	0	930.5681337475817
0.17378008	1.e-8	0.45	0.12157432	1.214118	-0.0091880933	-0.0019255732	-0.00083009214	-0.009691029	-0.0094664682	0	930.5815692873296
0.17378008	1.0964782e-8	0.45	0.12408033	1.1825465	-0.0091871871	-0.0019283089	-0.0007994251	-0.0096789898	-0.0094602684	0	930.595386881127
0.17378008	1.2022644e-8	0.45	0.126746	1.152122	-0.0091862553	-0.0019311443	-0.00076787399	-0.0096666971	-0.009453603	0	930.6096023164896
0.17378008	1.3182567e-8	0.45	0.12957258	1.1227981	-0.0091852967	-0.0019340836	-0.00073540366	-0.0096541353	-0.0094464649	0	930.624231582471
0.17378008	1.4454398e-8	0.45	0.13256141	1.0945305	-0.0091843095	-0.0019371322	-0.00070197983	-0.0096412884	-0.0094388463	0	930.639290864024
0.17378008	1.5848932e-8	0.45	0.13571392	1.0672768	-0.0091832925	-0.0019402942	-0.00066756626	-0.0096281406	-0.0094307392	0	930.6547966110588
0.17378008	1.7378008e-8	0.45	0.13903167	1.0409964	-0.009182245	-0.0019435725	-0.00063212484	-0.0096146756	-0.009422135	0	930.6707655943471
0.17378008	1.9054607e-8	0.45	0.14251633	1.01565	-0.009181164	-0.0019469753	-0.00059562221	-0.0096008772	-0.0094130247	0	930.6872147373397
0.17378008	2.0892961e-8	0.45	0.14616969	0.99120012	-0.0091800495	-0.0019505042	-0.00055801758	-0.009586729	-0.0094033987	0	930.7041612862288
0.17378008	2.2908677e-8	0.45	0.14999367	0.9676103	-0.0091788991	-0.0019541663	-0.00051927486	-0.0095722143	-0.0093932471	0	930.7216227549819
0.17378008	2.5118864e-8	0.45	0.15399034	0.94484558	-0.0091777115	-0.0019579659	-0.00047935447	-0.0095573163	-0.0093825596	0	930.7396170996328
0.17378008	2.7542287e-8	0.45	0.15816192	0.92287217	-0.0091764837	-0.0019619116	-0.00043822006	-0.009542018	-0.0093713254	0	930.7581625078174
0.17378008	3.0199517e-8	0.45	0.1625108	0.90165758	-0.0091752158	-0.0019660051	-0.00039582763	-0.009526302	-0.0093595333	0	930.7772774889731
0.17378008	3.3113112e-8	0.45	0.16703956	0.88117043	-0.0091739052	-0.0019702537	-0.00035213759	-0.009510151	-0.0093471715	0	930.7969812247967
0.17378008	3.6307805e-8	0.45	0.17175094	0.86138052	-0.0091725483	-0.0019746674	-0.00030711209	-0.009493547	-0.0093342279	0	930.8172931008701
0.17378008	3.9810717e-8	0.45	0.17664791	0.84225886	-0.0091711452	-0.0019792482	-0.00026070404	-0.0094764722	-0.0093206897	0	930.8382329330962
0.17378008	4.3651583e-8	0.45	0.18173362	0.82377752	-0.0091696921	-0.0019840062	-0.00021287331	-0.0094589081	-0.0093065439	0	930.8598212589642
0.17378008	4.7863009e-8	0.45	0.18701144	0.80590973	-0.0091681866	-0.0019889489	-0.00016357584	-0.0094408361	-0.0092917767	0	930.8820789621932
0.17378008	5.2480746e-8	0.45	0.19248499	0.78862982	-0.0091666275	-0.0019940812	-0.0001127636	-0.0094222371	-0.0092763738	0	930.9050274775575
0.17378008	5.7543994e-8	0.45	0.19815808	0.77191319	-0.0091650112	-0.0019994135	-0.000060392574	-0.0094030919	-0.0092603204	0	930.9286887976507
0.17378008	6.3095734e-8	0.45	0.2040348	0.7557363	-0.0091633352	-0.0020049533	-6.4146616e-6	-0.0093833805	-0.0092436011	0	930.9530856084476
0.17378008	6.9183097e-8	0.45	0.21011946	0.74007662	-0.0091615959	-0.0020107113	0.000049217048	-0.0093630829	-0.0092261999	0	930.9782411264764
0.17378008	7.5857758e-8	0.45	0.21641662	0.72491269	-0.009159792	-0.0020166926	0.00010655645	-0.0093421785	-0.0092081002	0	931.0041793603004
0.17378008	8.3176377e-8	0.45	0.2229311	0.71022398	-0.0091579205	-0.0020229064	0.00016565496	-0.0093206462	-0.0091892846	0	931.0309248673575
0.17378008	9.1201084e-8	0.45	0.22966797	0.69599088	-0.0091559765	-0.0020293662	0.00022656169	-0.0092984644	-0.0091697354	0	931.0585030162885
0.17378008	1.e-7	0.45	0.23663259	0.68219476	-0.0091539595	-0.002036076	0.00028933692	-0.0092756111	-0.0091494338	0	931.0869397635253
0.17378008	1.0964782e-7	0.45	0.24383056	0.66881781	-0.0091518645	-0.0020430494	0.00035403329	-0.0092520637	-0.0091283606	0	931.1162620633187
0.17378008	1.2022644e-7	0.45	0.25126775	0.65584309	-0.0091496879	-0.0020502974	0.0004207081	-0.009227799	-0.0091064956	0	931.1464975247966
0.17378008	1.3182567e-7	0.45	0.25895035	0.64325447	-0.0091474285	-0.0020578256	0.00048942598	-0.0092027933	-0.0090838183	0	931.1776746012865
0.17378008	1.4454398e-7	0.45	0.26688478	0.63103657	-0.0091450826	-0.0020656452	0.00056024819	-0.0091770222	-0.009060307	0	931.2098226701779
0.17378008	1.5848932e-7	0.45	0.27507777	0.61917478	-0.0091426465	-0.0020737675	0.0006332381	-0.0091504607	-0.0090359394	0	931.2429720009782
0.17378008	1.7378008e-7	0.45	0.28353632	0.60765514	-0.0091401179	-0.0020822011	0.00070846397	-0.0091230831	-0.0090106924	0	931.2771536153163
0.17378008	1.9054607e-7	0.45	0.29226776	0.59646441	-0.0091374943	-0.0020909548	0.00078599631	-0.009094863	-0.0089845421	0	931.3123996740442
0.17378008	2.0892961e-7	0.45	0.30127969	0.58558994	-0.0091347733	-0.0021000374	0.00086590796	-0.0090657732	-0.0089574637	0	931.3487432291922
0.17378008	2.2908677e-7	0.45	0.31058	0.57501969	-0.0091319523	-0.0021094579	0.00094827417	-0.009035786	-0.0089294316	0	931.3862185396617
0.17378008	2.5118864e-7	0.45	0.32017693	0.56474219	-0.0091290303	-0.0021192227	0.0010331754	-0.0090048727	-0.0089004191	0	931.4248605638604
0.17378008	2.7542287e-7	0.45	0.33007901	0.55474649	-0.0091260072	-0.0021293356	0.0011206974	-0.0089730037	-0.0088703989	0	931.4647056512232
0.17378008	3.0199517e-7	0.45	0.34029509	0.54502216	-0.0091228805	-0.0021398058	0.001210923	-0.0089401487	-0.0088393425	0	931.5057911715523
0.17378008	3.3113112e-7	0.45	0.35083434	0.53555922	-0.0091196528	-0.0021506321	0.0013039489	-0.0089062764	-0.0088072205	0	931.5481555671644
0.17378008	3.6307805e-7	0.45	0.36170629	0.52634815	-0.0091163251	-0.0021618158	0.0013998716	-0.0088713548	-0.0087740026	0	931.5918386991189
0.17378008	3.9810717e-7	0.45	0.37292078	0.51737983	-0.0091128976	-0.0021733614	0.001498788	-0.0088353508	-0.0087396573	0	931.63688134925
0.17378008	4.3651583e-7	0.45	0.38448801	0.50864553	-0.0091093751	-0.0021852624	0.0016008087	-0.0087982302	-0.0087041522	0	931.6833257698115
0.17378008	4.7863009e-7	0.45	0.39641854	0.50013689	-0.0091057612	-0.0021975152	0.0017060448	-0.008759958	-0.0086674537	0	931.7312155519381
0.17378008	5.2480746e-7	0.45	0.40872329	0.49184585	-0.0091020633	-0.0022101084	0.0018146188	-0.008720498	-0.0086295272	0	931.7805955363858
0.17378008	5.7543994e-7	0.45	0.42141354	0.48376472	-0.0090982862	-0.0022230361	0.0019266509	-0.008679813	-0.0085903369	0	931.8315120343308
0.17378008	6.3095734e-7	0.45	0.43450098	0.47588603	-0.0090944385	-0.0022362844	0.0020422728	-0.0086378647	-0.0085498458	0	931.8840126488515
0.17378008	6.9183097e-7	0.45	0.44799767	0.46820263	-0.0090905299	-0.0022498367	0.0021616227	-0.0085946134	-0.0085080156	0	931.9381466977331
0.17378008	7.5857758e-7	0.45	0.46191607	0.46070758	-0.0090865701	-0.002263677	0.0022848421	-0.0085500185	-0.008464807	0	931.9939648940156
0.17378008	8.3176377e-7	0.45	0.47626908	0.45339419	-0.0090825713	-0.0022777835	0.002412082	-0.0085040381	-0.0084201792	0	932.051519618467
0.17378008	9.1201084e-7	0.45	0.49106997	0.44625597	-0.0090785446	-0.0022921378	0.002543494	-0.0084566288	-0.0083740902	0	932.1108645390602
0.17378008	1.e-6	0.45	0.5063325	0.43928666	-0.009074502	-0.0023067187	0.0026792369	-0.0084077461	-0.0083264966	0	932.172055522351
0.17378008	1.0964782e-6	0.45	0.52207085	0.43248017	-0.0090704569	-0.0023215025	0.0028194762	-0.0083573441	-0.0082773534	0	932.2351499522929
0.17378008	1.2022644e-6	0.45	0.53829966	0.42583059	-0.0090664228	-0.0023364658	0.0029643815	-0.0083053753	-0.0082266146	0	932.3002068523814
0.17378008	1.3182567e-6	0.45	0.55503406	0.41933221	-0.0090624131	-0.0023515854	0.0031141267	-0.008251791	-0.0081742322	0	932.3672871581275
0.17378008	1.4454398e-6	0.45	0.57228964	0.4129795	-0.0090584387	-0.0023668434	0.003268885	-0.0081965409	-0.008120157	0	932.4364538579916
0.17378008	1.5848932e-6	0.45	0.59008254	0.40676709	-0.009054513	-0.0023822172	0.0034288395	-0.008139573	-0.0080643382	0	932.5077717772856
0.17378008	1.7378008e-6	0.45	0.60842936	0.40068979	-0.009050647	-0.0023976895	0.0035941729	-0.008080834	-0.0080067232	0	932.5813078271557
0.17378008	1.9054607e-6	0.45	0.62734727	0.3947426	-0.0090468517	-0.0024132432	0.0037650725	-0.0080202685	-0.0079472578	0	932.6571308636485
0.17378008	2.0892961e-6	0.45	0.64685399	0.38892069	-0.0090431361	-0.0024288658	0.0039417268	-0.0079578199	-0.007885886	0	932.7353121293067
0.17378008	2.2908677e-6	0.45	0.66696778	0.38321942	-0.0090395082	-0.0024445473	0.004124327	-0.0078934295	-0.00782255	0	932.8159249478105
0.17378008	2.5118864e-6	0.45	0.68770752	0.37763432	-0.0090359766	-0.0024602769	0.0043130709	-0.0078270369	-0.0077571904	0	932.8990448696092
0.17378008	2.7542287e-6	0.45	0.70909265	0.37216113	-0.0090325466	-0.0024760507	0.004508155	-0.0077585797	-0.0076897455	0	932.9847499960729
0.17378008	3.0199517e-6	0.45	0.73114326	0.36679581	-0.0090292226	-0.0024918676	0.0047097794	-0.0076879937	-0.0076201519	0	933.0731207962756
0.17378008	3.3113112e-6	0.45	0.75388007	0.36153441	-0.0090260107	-0.0025077231	0.0049181535	-0.0076152127	-0.0075483441	0	933.1642400741123
0.17378008	3.6307805e-6	0.45	0.77732447	0.35637328	-0.0090229133	-0.0025236206	0.0051334853	-0.0075401684	-0.0074742543	0	933.2581935179423
0.17378008	3.9810717e-6	0.45	0.80149852	0.35130893	-0.0090199328	-0.0025395639	0.0053559888	-0.0074627903	-0.0073978129	0	933.3550693529521
0.17378008	4.3651583e-6	0.45	0.82642496	0.34633805	-0.0090170704	-0.0025555601	0.005585882	-0.0073830057	-0.0073189477	0	933.4549586230244
0.17378008	4.7863009e-6	0.45	0.85212727	0.34145759	-0.0090143262	-0.0025716189	0.0058233868	-0.0073007399	-0.0072375846	0	933.5579550545003
0.17378008	5.2480746e-6	0.45	0.8786297	0.33666462	-0.009011702	-0.0025877462	0.0060687363	-0.0072159155	-0.0071536467	0	933.6641555118696
0.17378008	5.7543994e-6	0.45	0.90595723	0.33195644	-0.0090091965	-0.0026039553	0.0063221639	-0.0071284529	-0.0070670549	0	933.7736598991162
0.17378008	6.3095734e-6	0.45	0.93413563	0.32733059	-0.009006808	-0.0026202608	0.006583909	-0.00703827	-0.0069777276	0	933.8865710328762
0.17378008	6.9183097e-6	0.45	0.96319154	0.32278471	-0.0090045376	-0.0026366708	0.0068542256	-0.0069452819	-0.0068855803	0	934.0029952719472
0.17378008	7.5857758e-6	0.45	0.99315234	0.31831675	-0.0090023804	-0.0026532077	0.0071333617	-0.0068494015	-0.0067905263	0	934.1230420756926
0.17378008	8.3176377e-6	0.45	1.0240464	0.31392472	-0.0090003372	-0.0026698816	0.0074215858	-0.0067505386	-0.0066924757	0	934.2468242154434
0.17378008	9.1201084e-6	0.45	1.0559028	0.30960692	-0.0089984048	-0.0026867112	0.0077191667	-0.0066486003	-0.0065913361	0	934.3744583476335
0.17378008	0.00001	0.45	1.0887518	0.30536173	-0.0089965826	-0.0027037101	0.0080263873	-0.0065434908	-0.0064870117	0	934.5060646473692
0.17378008	0.000010964782	0.45	1.1226244	0.30118776	-0.0089948689	-0.002720895	0.0083435362	-0.0064351113	-0.0063794042	0	934.6417667332632
0.17378008	0.000012022644	0.45	1.1575525	0.29708373	-0.0089932647	-0.0027382761	0.0086709186	-0.0063233598	-0.0062684118	0	934.7816927056557
0.17378008	0.000013182567	0.45	1.1935692	0.2930485	-0.0089917732	-0.0027558601	0.0090088527	-0.0062081313	-0.0061539297	0	934.9259740942997
0.17378008	0.000014454398	0.45	1.2307084	0.28908098	-0.0089904054	-0.0027736367	0.009357684	-0.0060893175	-0.0060358496	0	935.0747466428994
0.17378008	0.000015848932	0.45	1.269005	0.28518008	-0.0089891812	-0.0027915762	0.0097177878	-0.0059668066	-0.0059140602	0	935.2281503325983
0.17378008	0.000017378008	0.45	1.3084948	0.28134431	-0.0089881477	-0.0028095899	0.010089609	-0.0058404833	-0.0057884464	0	935.3863290155494
0.17378008	0.000019054607	0.45	1.349214	0.27757129	-0.0089873949	-0.0028274953	0.010473698	-0.005710229	-0.00565889	0	935.5494308424172
0.17378008	0.000020892961	0.45	1.3911991	0.27385612	-0.0089871056	-0.0028449076	0.010870818	-0.0055759213	-0.0055252694	0	935.7176067449793
0.17378008	0.000022908677	0.45	1.4344856	0.27018826	-0.0089876305	-0.0028610742	0.011282112	-0.0054374344	-0.005387461	0	935.8910104831057
0.17378008	0.000025118864	0.45	1.479107	0.26654588	-0.0089896094	-0.00287461	0.011709369	-0.0052946391	-0.0052453393	0	936.0697973199697
0.17378008	0.000027542287	0.45	1.5250939	0.26288929	-0.0089940819	-0.0028832536	0.012155266	-0.0051474031	-0.0050987796	0	936.2541223308327
0.17378008	0.000030199517	0.45	1.5724768	0.25916323	-0.0090024285	-0.0028839925	0.012623243	-0.0049955907	-0.0049476564	0	936.444142892891
0.17378008	0.000033113112	0.45	1.6212948	0.25532323	-0.0090159392	-0.0028740025	0.013116567	-0.0048390636	-0.0047918396	0	936.6400282688423
0.17378008	0.000036307805	0.45	1.6716031	0.25137603	-0.0090352293	-0.0028519215	0.013637055	-0.0046776785	-0.0046311845	0	936.8419685797351
0.17378008	0.000039810717	0.45	1.7234709	0.24738975	-0.0090600545	-0.0028182675	0.014184659	-0.004511286	-0.0044655293	0	937.0501730667729
0.17378008	0.000043651583	0.45	1.7769693	0.24345926	-0.0090896405	-0.0027747294	0.014758174	-0.0043397295	-0.0042946998	0	937.2648597560953
0.17378008	0.000047863009	0.45	1.8321628	0.23966525	-0.009123095	-0.0027232755	0.015356133	-0.0041628463	-0.0041185183	0	937.4862467677979
0.17378008	0.000052480746	0.45	1.8891084	0.23605655	-0.0091596367	-0.0026656457	0.015977309	-0.003980467	-0.0039368064	0	937.714549403281
0.17378008	0.000057543994	0.45	1.9478581	0.23265343	-0.0091986512	-0.0026032269	0.016620848	-0.0037924175	-0.0037493864	0	937.9499838565317
0.17378008	0.000063095734	0.45	2.0084616	0.22945923	-0.0092396708	-0.0025370902	0.017286227	-0.0035985185	-0.0035560782	0	938.1927684355587
0.17378008	0.000069183097	0.45	2.0709682	0.22647197	-0.0092823257	-0.0024680958	0.017973149	-0.0033985856	-0.0033566978	0	938.4431250187197
0.17378008	0.000075857758	0.45	2.1354263	0.22369312	-0.0093262927	-0.0023970108	0.01868143	-0.0031924303	-0.0031510564	0	938.7012794775248
0.17378008	0.000083176377	0.45	2.201882	0.22113359	-0.0093712512	-0.0023246087	0.019410898	-0.0029798586	-0.0029389582	0	938.967460314267
0.17378008	0.000091201084	0.45	2.2703743	0.21881627	-0.0094168554	-0.0022517456	0.020161315	-0.002760673	-0.0027202012	0	939.2418918031955
0.17378008	0.0001	0.45	2.3409257	0.21677312	-0.0094627492	-0.0021793518	0.02093239	-0.0025346723	-0.0024945784	0	939.5247854874486
0.17378008	0.00010964782	0.45	2.4135202	0.21502692	-0.0095086554	-0.0021082918	0.021723917	-0.0023016551	-0.0022618842	0	939.8163147168339
0.17378008	0.00012022644	0.45	2.488053	0.2135239	-0.0095545636	-0.0020390798	0.022536061	-0.0020614252	-0.0020219323	0	940.1165590255578
0.17378008	0.00013182567	0.45	2.564237	0.21192175	-0.0096010125	-0.0019715025	0.023369736	-0.0018138048	-0.0017746082	0	940.4253987129945
0.17378008	0.00014454398	0.45	2.64157	0.20916535	-0.0096494374	-0.0019039733	0.024227251	-0.0015586555	-0.0015199687	0	940.7424614763747
0.17378008	0.00015848932	0.45	2.719817	0.20360224	-0.0097023855	-0.0018319218	0.02511392	-0.0012958826	-0.0012582247	0	941.06760083746
0.17378008	0.00017378008	0.45	2.7999674	0.19516666	-0.0097625852	-0.0017474314	0.026038427	-0.0010253595	-0.00098926183	0	941.4019249196242
0.17378008	0.00019054607	0.45	2.8836179	0.18643119	-0.009830104	-0.0016467711	0.027005297	-0.00074681811	-0.00071233618	0	941.7472834921502
0.17378008	0.00020892961	0.45	2.9713391	0.17940772	-0.0099021769	-0.0015347049	0.028010581	-0.00045987686	-0.00042669397	0	942.1046047986254
0.17378008	0.00022908677	0.45	3.0628646	0.17427016	-0.0099767079	-0.0014164984	0.029049856	-0.00016414692	-0.00013191426	0	942.473988104129
0.17378008	0.00025118864	0.45	3.1578522	0.17050038	-0.010053109	-0.0012943463	0.030121794	0.00014072698	0.00017226238	0	942.855424388834
0.17378008	0.00027542287	0.45	3.2561048	0.16759828	-0.010131377	-0.0011688871	0.031226654	0.00045507356	0.00048607219	0	943.2490261656906
0.17378008	0.00030199517	0.45	3.3575198	0.16524598	-0.01021148	-0.0010406588	0.03236482	0.00077920715	0.00080977071	0	943.654985763726
0.17378008	0.00033113112	0.45	3.4619196	0.16327312	-0.010292785	-0.00091176629	0.033535139	0.0011134311	0.0011436297	0	944.0734104343253
0.17378008	0.00036307805	0.45	3.568607	0.16129699	-0.010372273	-0.00079095684	0.034729846	0.0014580112	0.0014878443	0	944.5038536490557
0.17378008	0.00039810717	0.45	3.6759935	0.15743814	-0.010439273	-0.00070638315	0.035921801	0.0018130963	0.0018422158	0	944.9448665981474
0.17378008	0.00043651583	0.45	3.7851779	0.15029692	-0.010472527	-0.00070356888	0.037066523	0.0021787603	0.0022065589	0	945.3976157989607
0.17378008	0.00047863009	0.45	3.9007208	0.14483249	-0.010466512	-0.000784151	0.038163452	0.002555419	0.0025822069	0	945.8670537004555
0.17378008	0.00052480746	0.45	4.0220284	0.14213031	-0.010443271	-0.00090025089	0.039261576	0.0029437049	0.0029699931	0	946.3531818059364
0.17378008	0.00057543994	0.45	4.1476293	0.14029885	-0.010415938	-0.0010262462	0.040387663	0.003344098	0.0033700474	0	946.8549774924765
0.17378008	0.00063095734	0.45	4.2772526	0.13865061	-0.010387283	-0.0011569015	0.041548128	0.0037570009	0.0037826454	0	947.3725504543302
0.17378008	0.00069183097	0.45	4.4109629	0.13704762	-0.010357701	-0.0012915273	0.042744878	0.0041828099	0.004208158	0	947.9063358511894
0.17378008	0.00075857758	0.45	4.548882	0.13546646	-0.010327221	-0.0014301193	0.043979172	0.0046219312	0.0046469868	0	948.4568387464083
0.17378008	0.00083176377	0.45	4.6911441	0.13390328	-0.010295826	-0.0015727642	0.045252217	0.0050747843	0.0050995508	0	949.0245854375173
0.17378008	0.00091201084	0.45	4.8378885	0.13235728	-0.010263489	-0.0017195621	0.046565248	0.0055418016	0.0055662821	0	949.6101234562245
0.17378008	0.001	0.45	4.9892594	0.13082818	-0.010230185	-0.0018706151	0.047919539	0.0060234293	0.006047627	0	950.2140149444785
0.17378008	0.0010964782	0.45	5.1454061	0.12931596	-0.010195886	-0.0020260251	0.049316407	0.0065201285	0.0065440466	0	950.8368430435137
0.17378008	0.0012022644	0.45	5.3064828	0.12782085	-0.010160564	-0.0021858967	0.05075721	0.0070323747	0.0070560161	0	951.4792082295456
0.17378008	0.0013182567	0.45	5.4726491	0.12634345	-0.01012419	-0.0023503319	0.052243356	0.0075606591	0.0075840273	0	952.1417330585751
0.17378008	0.0014454398	0.45	5.6440702	0.12488496	-0.010086736	-0.0025194354	0.053776295	0.0081054885	0.008128587	0	952.8250569048228
0.17378008	0.0015848932	0.45	5.8209166	0.12344745	-0.010048172	-0.0026933108	0.055357528	0.0086673866	0.0086902192	0	953.5298425846645
0.17378008	0.0017378008	0.45	6.0033648	0.12203442	-0.010008466	-0.0028720626	0.056988606	0.0092468937	0.009269465	0	954.2567759338278
0.17378008	0.0019054607	0.45	6.1915967	0.12065177	-0.0099675874	-0.0030557984	0.058671126	0.0098445673	0.0098668828	0	955.0065609216513
0.17378008	0.0020892961	0.45	6.3857999	0.11930959	-0.0099255016	-0.0032446276	0.060406739	0.010460984	0.010483052	0	955.7799281071725
0.17378008	0.0022908677	0.45	6.5861659	0.1180263	-0.0098821718	-0.0034386722	0.062197137	0.011096739	0.011118569	0	956.5776274514543
0.17378008	0.0025118864	0.45	6.7928847	0.11684002	-0.0098375552	-0.0036380852	0.064044036	0.011752445	0.011774055	0	957.4004247002565
0.17378008	0.0027542287	0.45	7.0061114	0.11585442	-0.0097916106	-0.0038431186	0.065949115	0.012428733	0.012450161	0	958.2490684522717
0.17378008	0.0030199517	0.45	7.2255206	0.11554601	-0.0097449164	-0.0040538394	0.067914295	0.013126236	0.013147607	0	959.1238274701686
0.17378008	0.0033113112	0.45	7.4427921	0.11718636	-0.0097174327	-0.0042468317	0.069965043	0.01384531	0.013866984	0	960.01671549545
0.17378008	0.0036307805	0.45	7.6516737	0.11110386	-0.0098020236	-0.0042347452	0.072290824	0.014585003	0.014605553	0	960.9205872745645
0.17378008	0.0039810717	0.45	7.8810938	0.10570955	-0.0099364367	-0.004087676	0.074823723	0.015346218	0.01536577	0	961.8652182441708
0.17378008	0.0043651583	0.45	8.1224486	0.10025745	-0.010004619	-0.0040826805	0.077288934	0.016130502	0.016149045	0	962.8434585938251
0.17378008	0.0047863009	0.45	8.37619	0.096492947	-0.010024929	-0.0041774692	0.079731064	0.016939086	0.016956933	0	963.8569193492544
0.17378008	0.0052480746	0.45	8.6243197	0.093883349	-0.010148243	-0.0040806497	0.082443897	0.017772458	0.017789823	0	964.8880555368961
0.17378008	0.0057543994	0.45	8.8800723	0.091363959	-0.010373106	-0.0037671214	0.085454999	0.018630388	0.018647286	0	965.949889250631
0.17378008	0.0063095734	0.45	9.1199952	0.083138832	-0.010628016	-0.0034546332	0.088549166	0.019512498	0.019527875	0	967.0186120924036
0.17378008	0.0069183097	0.45	9.3827909	0.077990804	-0.010874447	-0.0031381098	0.091734093	0.020419585	0.02043401	0	968.1336752368036
0.17378008	0.0075857758	0.45	9.6669915	0.072689151	-0.010852733	-0.0033982103	0.094431827	0.021352798	0.021366242	0	969.2946907842759
0.17378008	0.0083176377	0.45	9.9751335	0.071720953	-0.010764674	-0.003775915	0.097104174	0.02231545	0.022328716	0	970.5073080594011
0.17378008	0.0091201084	0.45	10.293559	0.070801737	-0.010674158	-0.0041616121	0.099863621	0.023308811	0.023321907	0	971.7590601104844
0.17378008	0.01	0.45	10.596707	0.068045556	-0.010714996	-0.0043202857	0.10294815	0.024333363	0.024345949	0	973.0248425969825
0.17378008	0.010964782	0.45	10.825624	0.059956062	-0.010893767	-0.0043936723	0.10621908	0.025382871	0.02539396	0	974.2398391804218
0.17378008	0.012022644	0.45	11.172875	0.059521766	-0.010978268	-0.0044373476	0.10962399	0.026460991	0.026472	0	975.6000559239222
0.17378008	0.013182567	0.45	11.531905	0.058998149	-0.011067602	-0.00447298	0.11314446	0.027573745	0.027584658	0	977.0045910254167
0.17378008	0.014454398	0.45	11.902714	0.058275526	-0.011163671	-0.0044971716	0.11678724	0.028722269	0.028733047	0	978.4545113613603
0.17378008	0.015848932	0.45	12.285865	0.057260323	-0.011268194	-0.0045056065	0.12056011	0.029907739	0.029918329	0	979.9514912372069
0.17378008	0.017378008	0.45	12.682076	0.056302818	-0.011382265	-0.004494938	0.12446997	0.031131407	0.031141821	0	981.497420118875
0.17378008	0.019054607	0.45	13.091135	0.055032061	-0.011506419	-0.0044653411	0.12852032	0.032394542	0.032404721	0	983.0932751543287
0.17378008	0.020892961	0.45	13.514903	0.053399549	-0.011642819	-0.0044084227	0.13272335	0.033698481	0.033708358	0	984.7421780494435
0.17378008	0.022908677	0.45	13.952131	0.052076201	-0.011781569	-0.004349881	0.13705727	0.035044645	0.035054277	0	986.4442138348833
0.17378008	0.025118864	0.45	14.406843	0.049149811	-0.011865824	-0.004407438	0.14140839	0.036434433	0.036443524	0	988.2047234698805
0.17378008	0.027542287	0.45	14.883599	0.048268275	-0.011841825	-0.0046893122	0.14567264	0.037869922	0.03787885	0	990.030215793397
0.17378008	0.030199517	0.45	15.378125	0.047549327	-0.011809859	-0.0049828078	0.15006701	0.039353018	0.039361813	0	991.918208943561
0.17378008	0.033113112	0.45	15.891014	0.046823107	-0.011774804	-0.0052761772	0.15460765	0.040885486	0.040894146	0	993.8709480117761
0.17378008	0.036307805	0.45	16.423123	0.046087372	-0.011736364	-0.0055685178	0.15930004	0.042469165	0.042477689	0	995.891028077539
0.17378008	0.039810717	0.45	16.975364	0.045339715	-0.011694214	-0.0058588076	0.16414989	0.044105985	0.044114371	0	997.9811687127552
0.17378008	0.043651583	0.45	17.548706	0.044577274	-0.011647995	-0.0061459093	0.16916318	0.045797965	0.04580621	0	1000.1442355917427
0.17378008	0.047863009	0.45	18.144183	0.043796538	-0.011597313	-0.0064285406	0.1743462	0.047547225	0.047555326	0	1002.383258342972
0.17378008	0.052480746	0.45	18.762897	0.04299318	-0.011541737	-0.0067052648	0.17970553	0.049355988	0.04936394	0	1004.7014239721104
0.17378008	0.057543994	0.45	19.406025	0.042161728	-0.011480793	-0.0069744729	0.18524809	0.05122659	0.051234388	0	1007.1021036396342
0.17378008	0.063095734	0.45	20.074823	0.041295169	-0.011413959	-0.0072343797	0.19098115	0.053161483	0.05316912	0	1009.588861586698
0.17378008	0.069183097	0.45	19.697364	0.03906717	-0.012452268	-0.007554155	0.19684118	0.055161928	0.055169153	0	1011.090948939787
0.17378008	0.075857758	0.45	18.34957	0.035746204	-0.014457636	-0.0084755537	0.20229226	0.057044032	0.057050644	0	1011.5115153026234
0.17378008	0.083176377	0.45	17.120367	0.032717447	-0.016286553	-0.010075265	0.2072637	0.058760532	0.058766583	0	1011.8950750050192
0.17378008	0.091201084	0.45	16.539366	0.030036902	-0.017574695	-0.01183379	0.21228121	0.060348639	0.060354194	0	1012.8062067586148
0.17378008	0.1	0.45	17.889955	0.027805385	-0.017405115	-0.012257549	0.21884473	0.062034344	0.062039487	0	1015.7406234353822
0.17378008	0.10964782	0.45	19.479854	0.025708871	-0.016930041	-0.01269242	0.22561499	0.06386387	0.063868625	0	1019.0494822723891
0.17378008	0.12022644	0.45	21.351359	0.023741967	-0.01607783	-0.013147819	0.23258936	0.065862662	0.065867053	0	1022.7989845744139
0.17378008	0.13182567	0.45	23.559454	0.021899952	-0.014757985	-0.013634751	0.23976383	0.068060897	0.068064948	0	1027.072462741261
0.17378008	0.14454398	0.45	26.17693	0.020178782	-0.012854431	-0.014165342	0.24713351	0.07049497	0.070498702	0	1031.9769093073794
0.17378008	0.15848932	0.45	29.300543	0.018575091	-0.01021718	-0.014752275	0.25469316	0.073209529	0.073212965	0	1037.6510323053897
0.17378008	0.17378008	0.45	33.057653	0.017086166	-0.0066529037	-0.015408118	0.26243788	0.076260158	0.076263318	0	1044.2744045655495
0.17378008	0.19054607	0.45	37.612118	0.01570989	-0.0019157199	-0.01614449	0.27036398	0.079716669	0.079719575	0	1052.0764883348966
0.17378008	0.20892961	0.45	43.167344	0.014444601	0.0042993295	-0.016971026	0.27846999	0.083666874	0.083669546	0	1061.3431901549138
0.17378008	0.22908677	0.45	49.963323	0.013288855	0.012356355	-0.017894106	0.28675795	0.088220373	0.088222831	0	1072.4174781559639
0.17378008	0.25118864	0.45	58.263991	0.012241039	0.022667602	-0.018915472	0.2952348	0.093511617	0.093513881	0	1085.6896180941717
0.17378008	0.27542287	0.45	68.332187	0.011298875	0.035667462	-0.020031012	0.3039136	0.099701136	0.099703225	0	1101.5732709968336
0.17378008	0.30199517	0.45	80.393052	0.010458858	0.051771458	-0.021230232	0.31281408	0.10697371	0.10697564	0	1120.467189807838
0.17378008	0.33113112	0.45	94.592788	0.0097158039	0.071326921	-0.022496908	0.32196199	0.11553264	0.11553443	0	1142.7086019132585
0.17378008	0.36307805	0.45	110.96525	0.0090626864	0.094568838	-0.023811128	0.33138705	0.12559026	0.12559194	0	1168.5308587029863
0.17378008	0.39810717	0.45	129.41904	0.0084908656	0.12159562	-0.025152278	0.34112001	0.1373561	0.13735767	0	1198.0394249782112
0.17378008	0.43651583	0.45	149.75054	0.007990676	0.15237246	-0.026502049	0.3511896	0.151025	0.15102648	0	1231.2137444584232
0.17378008	0.47863009	0.45	171.67746	0.0075521789	0.18675853	-0.027846559	0.36162048	0.16676767	0.16676906	0	1267.9319263912012
0.17378008	0.52480746	0.45	194.88052	0.0071658561	0.22454601	-0.029177154	0.3724324	0.18472498	0.18472631	0	1308.0070606925565
0.17378008	0.57543994	0.45	219.04119	0.0068230987	0.26549837	-0.030490068	0.38364058	0.20500629	0.20500756	0	1351.223347053336
0.17378008	0.63095734	0.45	243.86861	0.0065164527	0.30938012	-0.031785416	0.39525669	0.22769092	0.22769212	0	1397.3644613567033
0.17378008	0.69183097	0.45	269.11464	0.0062396665	0.35597573	-0.033066014	0.4072901	0.25283166	0.25283282	0	1446.2318607600712
0.17378008	0.75857758	0.45	294.57906	0.0059876111	0.4050993	-0.034336304	0.4197489	0.28045936	0.28046047	0	1497.6543005525318
0.17378008	0.83176377	0.45	320.10851	0.0057561371	0.45659769	-0.035601543	0.4326408	0.31058754	0.31058861	0	1551.4911555183673
0.17378008	0.91201084	0.45	345.59184	0.0055419154	0.51034965	-0.036867239	0.44597362	0.3432168	0.34321783	0	1607.6318096893576
0.17378008	1.	0.45	370.95402	0.0053422844	0.5662631	-0.038138803	0.45975571	0.37833868	0.37833967	0	1665.993278304877
0.17378008	1.0964782	0.45	396.14984	0.0051551172	0.62427155	-0.039421361	0.47399614	0.41593886	0.41593981	0	1726.5169245007796
0.17378008	1.2022644	0.45	421.15813	0.0049787099	0.6843305	-0.040719662	0.4887048	0.45599982	0.45600074	0	1789.1651191545811
0.17378008	1.3182567	0.45	445.97671	0.0048116926	0.74641416	-0.042038059	0.50389241	0.49850294	0.49850383	0	1853.9181633391531
0.17378008	1.4454398	0.45	470.61808	0.0046529579	0.81051253	-0.04338052	0.51957057	0.54343014	0.543431	0	1920.771565932123
0.17378008	1.5848932	0.45	495.10597	0.0045016046	0.87662899	-0.044750659	0.5357517	0.59076511	0.59076594	0	1989.7337538951142
0.17378008	1.7378008	0.45	519.47254	0.0043568943	0.94477828	-0.046151786	0.55244905	0.64049434	0.64049514	0	2060.824178579786
0.17378008	1.9054607	0.45	543.75611	0.004218217	1.0149848	-0.047586941	0.56967664	0.69260776	0.69260854	0	2134.071693098471
0.17378008	2.0892961	0.45	567.99945	0.0040850646	1.0872814	-0.049058942	0.58744923	0.74709931	0.74710007	0	2209.5134027659715
0.17378008	2.2908677	0.45	592.24836	0.0039570104	1.1617081	-0.050570421	0.60578234	0.80396727	0.803968	0	2287.1934709119987
0.17378008	2.5118864	0.45	616.55066	0.0038336924	1.2383114	-0.05212386	0.62469219	0.86321451	0.86321522	0	2367.162445212817
0.17378008	2.7542287	0.45	640.95537	0.0037148008	1.3171435	-0.053721619	0.6441957	0.92484867	0.92484936	0	2449.476524830273
0.17378008	3.0199517	0.45	665.51207	0.003600068	1.3982616	-0.055365964	0.66431052	0.9888822	0.98888287	0	2534.196915400177
0.17378008	3.3113112	0.45	690.27049	0.0034892605	1.4817278	-0.057059091	0.68505494	1.0553325	1.0553331	0	2621.3896970233777
0.17378008	3.6307805	0.45	715.28017	0.003382173	1.5676084	-0.058803143	0.70644797	1.1242216	1.1242223	0	2711.125200394368
0.17378008	3.9810717	0.45	740.59023	0.0032786227	1.655974	-0.060600227	0.72850933	1.1955768	1.1955774	0	2803.478096529772
0.17378008	4.3651583	0.45	766.2492	0.0031784462	1.7468988	-0.06245243	0.75125941	1.2694297	1.2694303	0	2898.52672216043
0.17378008	4.7863009	0.45	792.30496	0.0030814957	1.8404608	-0.064361831	0.77471933	1.345817	1.3458176	0	2996.3532930127267
0.17378008	5.2480746	0.45	818.80468	0.0029876364	1.9367417	-0.066330512	0.79891091	1.4247798	1.4247804	0	3097.0437971679307
0.17378008	5.7543994	0.45	845.7948	0.0028967449	2.0358265	-0.068360569	0.82385672	1.506364	1.5063646	0	3200.687640376269
0.17378008	6.3095734	0.45	873.32108	0.002808707	2.1378037	-0.070454117	0.84958007	1.5906199	1.5906205	0	3307.3778297419535
0.17378008	6.9183097	0.45	901.42859	0.0027234166	2.2427652	-0.072613299	0.87610504	1.6776023	1.6776028	0	3417.2108924507843
0.17378008	7.5857758	0.45	930.16182	0.0026407745	2.3508065	-0.074840297	0.90345649	1.7673703	1.7673708	0	3530.2870679112543
0.17378008	8.3176377	0.45	959.56471	0.0025606876	2.4620261	-0.077137329	0.93166009	1.8599874	1.8599879	0	3646.7097566994817
0.17378008	9.1201084	0.45	989.68075	0.0024830681	2.5765263	-0.079506665	0.9607423	1.9555214	1.9555218	0	3766.586263755392
0.17378008	10.	0.45	1020.553	0.0024078327	2.6944126	-0.081950622	0.99073047	2.0540443	2.0540447	0	3890.0272769239564