0.30199517	1.e-12	0.09	494.22326	7263.1884	-0.0059294628	-0.0098474406	-0.0098474044	-0.53282838	1.8017062	0	933.161527012455
0.30199517	1.0964782e-12	0.09	450.75745	6625.4596	-0.0058999047	-0.0099223237	-0.009922284	-0.48654395	1.6430118	0	933.1829668940445
0.30199517	1.2022644e-12	0.09	411.11616	6043.8376	-0.0058703483	-0.0099972376	-0.0099971941	-0.44433004	1.4982807	0	933.204402599266
0.30199517	1.3182567e-12	0.09	374.96287	5513.3854	-0.0058407953	-0.01007218	-0.010072132	-0.40582849	1.3662843	0	933.2258327591727
0.30199517	1.4454398e-12	0.09	341.99066	5029.6006	-0.0058112477	-0.010147148	-0.010147096	-0.37071265	1.245902	0	933.2472556383877
0.30199517	1.5848932e-12	0.09	311.91965	4588.3769	-0.0057817075	-0.010222143	-0.010222086	-0.33868462	1.1361119	0	933.268669366236
0.30199517	1.7378008e-12	0.09	284.49455	4185.9693	-0.0057521769	-0.010297165	-0.010297102	-0.30947271	1.0359819	0	933.2900718756742
0.30199517	1.9054607e-12	0.09	259.48255	3818.9621	-0.0057226584	-0.010372215	-0.010372146	-0.28282911	0.944662	0	933.311460648667
0.30199517	2.0892961e-12	0.09	236.67131	3484.2405	-0.0056931543	-0.010447297	-0.010447222	-0.25852787	0.86137699	0	933.3328331859703
0.30199517	2.2908677e-12	0.09	215.8672	3178.9633	-0.0056636672	-0.010522417	-0.010522334	-0.23636287	0.78541979	0	933.3541867064711
0.30199517	2.5118864e-12	0.09	196.89361	2900.5399	-0.0056341992	-0.010597583	-0.010597492	-0.21614616	0.7161456	0	933.3755183914732
0.30199517	2.7542287e-12	0.09	179.58946	2646.607	-0.0056047518	-0.010672805	-0.010672705	-0.1977063	0.65296634	0	933.3968260705805
0.30199517	3.0199517e-12	0.09	163.80787	2415.0098	-0.0055753255	-0.010748099	-0.010747989	-0.18088695	0.59534569	0	933.4181079210364
0.30199517	3.3113112e-12	0.09	149.41485	2203.7828	-0.0055459194	-0.010823482	-0.010823362	-0.16554553	0.54279454	0	933.4393632663536
0.30199517	3.6307805e-12	0.09	136.28825	2011.1339	-0.0055165309	-0.010898977	-0.010898845	-0.151552	0.49486683	0	933.4605927736238
0.30199517	3.9810717e-12	0.09	124.31662	1835.4284	-0.0054871556	-0.010974607	-0.010974463	-0.13878776	0.4511558	0	933.4817984629124
0.30199517	4.3651583e-12	0.09	113.39834	1675.1758	-0.0054577875	-0.011050397	-0.011050239	-0.12714465	0.41129049	0	933.5029840267111
0.30199517	4.7863009e-12	0.09	103.44074	1529.0165	-0.0054284196	-0.011126369	-0.011126195	-0.11652403	0.37493259	0	933.5241541816382
0.30199517	5.2480746e-12	0.09	94.359291	1395.7109	-0.0053990449	-0.01120254	-0.01120235	-0.10683592	0.34177361	0	933.5453138979942
0.30199517	5.7543994e-12	0.09	86.076907	1274.1283	-0.0053696568	-0.01127892	-0.011278712	-0.09799828	0.31153216	0	933.5664687004235
0.30199517	6.3095734e-12	0.09	78.52328	1163.2375	-0.0053402506	-0.011355511	-0.011355283	-0.089936275	0.28395161	0	933.5876228357613
0.30199517	6.9183097e-12	0.09	71.634295	1062.0978	-0.0053108229	-0.011432308	-0.011432057	-0.082581659	0.2587979	0	933.6087800058954
0.30199517	7.5857758e-12	0.09	65.35147	969.85144	-0.0052813727	-0.011509295	-0.011509021	-0.075872187	0.23585754	0	933.6299422496821
0.30199517	8.3176377e-12	0.09	59.621473	885.716	-0.0052519001	-0.011586457	-0.011586156	-0.069751095	0.21493581	0	933.651111079822
0.30199517	9.1201084e-12	0.09	54.395659	808.97778	-0.0052224065	-0.011663772	-0.011663442	-0.064166609	0.1958551	0	933.6722868721411
0.30199517	1.e-11	0.09	49.629667	738.98591	-0.005192894	-0.011741219	-0.011740857	-0.059071514	0.1784534	0	933.6934695138917
0.30199517	1.0964782e-11	0.09	45.283037	675.14677	-0.0051633652	-0.011818778	-0.011818381	-0.054422749	0.16258298	0	933.7146582534212
0.30199517	1.2022644e-11	0.09	41.318868	616.91891	-0.0051338224	-0.011896431	-0.011895996	-0.050181039	0.14810909	0	933.7358524518256
0.30199517	1.3182567e-11	0.09	37.703507	563.80856	-0.005104268	-0.011974162	-0.011973684	-0.046310569	0.13490883	0	933.7570513762438
0.30199517	1.4454398e-11	0.09	34.406263	515.36541	-0.0050747041	-0.012051956	-0.012051432	-0.042778674	0.12287012	0	933.7782541528798
0.30199517	1.5848932e-11	0.09	31.399144	471.17872	-0.0050451324	-0.012129802	-0.012129228	-0.03955556	0.11189074	0	933.7994601992032
0.30199517	1.7378008e-11	0.09	28.656621	430.87396	-0.0050155544	-0.012207691	-0.012207062	-0.03661406	0.10187748	0	933.8206689514749
0.30199517	1.9054607e-11	0.09	26.155412	394.10953	-0.0049859714	-0.012285615	-0.012284925	-0.033929394	0.092745323	0	933.8418799493076
0.30199517	2.0892961e-11	0.09	23.874285	360.57388	-0.0049563843	-0.012363568	-0.012362812	-0.031478962	0.084416724	0	933.8630927698971
0.30199517	2.2908677e-11	0.09	21.793874	329.98291	-0.004926794	-0.012441545	-0.012440716	-0.029242156	0.076820979	0	933.8843071595611
0.30199517	2.5118864e-11	0.09	19.896517	302.07749	-0.0048972011	-0.012519542	-0.012518633	-0.027200177	0.069893596	0	933.9055228928032
0.30199517	2.7542287e-11	0.09	18.166108	276.62133	-0.0048676061	-0.012597556	-0.012596559	-0.025335884	0.063575767	0	933.9267398380846
0.30199517	3.0199517e-11	0.09	16.587958	253.39888	-0.0048380095	-0.012675585	-0.012674491	-0.023633641	0.05781385	0	933.9479577793054
0.30199517	3.3113112e-11	0.09	15.148668	232.21363	-0.0048084115	-0.012753626	-0.012752427	-0.02207919	0.052558933	0	933.969176697674
0.30199517	3.6307805e-11	0.09	13.836022	212.88628	-0.0047788125	-0.012831678	-0.012830363	-0.020659527	0.047766401	0	933.9903965556082
0.30199517	3.9810717e-11	0.09	12.638875	195.25339	-0.0047492126	-0.01290974	-0.012908298	-0.019362791	0.043395569	0	934.0116173437118
0.30199517	4.3651583e-11	0.09	11.547064	179.16583	-0.004719612	-0.01298781	-0.01298623	-0.018178167	0.03940933	0	934.032839043194
0.30199517	4.7863009e-11	0.09	10.551323	164.48765	-0.0046900108	-0.013065889	-0.013064156	-0.017095789	0.035773845	0	934.0540618137807
0.30199517	5.2480746e-11	0.09	9.6431964	151.09483	-0.0046604091	-0.013143975	-0.013142075	-0.016106661	0.03245825	0	934.0752856460762
0.30199517	5.7543994e-11	0.09	8.8149764	138.87426	-0.0046308071	-0.013222069	-0.013219985	-0.015202578	0.029434398	0	934.0965105212892
0.30199517	6.3095734e-11	0.09	8.0596319	127.72281	-0.0046012047	-0.013300169	-0.013297885	-0.014376057	0.026676618	0	934.1177366179372
0.30199517	6.9183097e-11	0.09	7.3707509	117.5464	-0.0045716021	-0.013378276	-0.013375771	-0.013620273	0.024161501	0	934.1389640863507
0.30199517	7.5857758e-11	0.09	6.7424853	108.25924	-0.0045419993	-0.013456389	-0.013453643	-0.012929002	0.021867693	0	934.1601929265295
0.30199517	8.3176377e-11	0.09	6.1695018	99.783093	-0.0045123963	-0.013534509	-0.013531498	-0.012296567	0.019775723	0	934.1814233921563
0.30199517	9.1201084e-11	0.09	5.6469363	92.04659	-0.0044827932	-0.013612635	-0.013609333	-0.011717791	0.017867831	0	934.2026556429574
0.30199517	1.e-10	0.09	5.1703529	84.984656	-0.0044531899	-0.013690767	-0.013687147	-0.011187953	0.016127822	0	934.22388985745
0.30199517	1.0964782e-10	0.09	4.7357057	78.537937	-0.0044235866	-0.013768906	-0.013764936	-0.010702746	0.014540924	0	934.2451261859646
0.30199517	1.2022644e-10	0.09	4.3393049	72.652301	-0.0043939831	-0.013847051	-0.013842698	-0.010258243	0.013093665	0	934.2663649855361
0.30199517	1.3182567e-10	0.09	3.9777856	67.278383	-0.0043643796	-0.013925203	-0.01392043	-0.0098508627	0.011773761	0	934.287606321934
0.30199517	1.4454398e-10	0.09	3.648079	62.37116	-0.004334776	-0.014003361	-0.013998128	-0.0094773379	0.010570005	0	934.3088506273585
0.30199517	1.5848932e-10	0.09	3.3473861	57.889569	-0.0043051724	-0.014081526	-0.014075788	-0.0091346897	0.0094721805	0	934.3300981460966
0.30199517	1.7378008e-10	0.09	3.0731542	53.796162	-0.0042755687	-0.014159697	-0.014153406	-0.0088202006	0.0084709664	0	934.351349310348
0.30199517	1.9054607e-10	0.09	2.8230556	50.056788	-0.004245965	-0.014237876	-0.014230978	-0.0085313929	0.007557864	0	934.3726043644002
0.30199517	2.0892961e-10	0.09	2.5949671	46.640298	-0.0042163612	-0.014316062	-0.014308498	-0.0082660065	0.006725122	0	934.3938639095746
0.30199517	2.2908677e-10	0.09	2.3869526	43.518287	-0.0041867575	-0.014394255	-0.014385962	-0.00802198	0.0059656713	0	934.4151280962019
0.30199517	2.5118864e-10	0.09	2.1972462	40.664847	-0.0041571537	-0.014472456	-0.014463363	-0.0077974336	0.0052730649	0	934.4363977041212
0.30199517	2.7542287e-10	0.09	2.0242375	38.056353	-0.0041275499	-0.014550664	-0.014540694	-0.0075906527	0.0046414235	0	934.4576732313022
0.30199517	3.0199517e-10	0.09	1.866458	35.671257	-0.004097946	-0.014628881	-0.014617949	-0.0074000735	0.0040653849	0	934.4789552790669
0.30199517	3.3113112e-10	0.09	1.7225681	33.489909	-0.0040683422	-0.014707106	-0.014695119	-0.0072242699	0.0035400594	0	934.5002444205498
0.30199517	3.6307805e-10	0.09	1.5913466	31.494387	-0.0040387383	-0.014785339	-0.014772197	-0.007061941	0.0030609875	0	934.5215414355904
0.30199517	3.9810717e-10	0.09	1.4716794	29.668348	-0.0040091344	-0.014863581	-0.014849171	-0.0069119004	0.0026241024	0	934.5428472449628
0.30199517	4.3651583e-10	0.09	1.3625508	27.996887	-0.0039795306	-0.014941832	-0.014926033	-0.0067730662	0.0022256957	0	934.5641624311972
0.30199517	4.7863009e-10	0.09	1.2630344	26.466412	-0.0039499267	-0.015020092	-0.01500277	-0.0066444511	0.0018623853	0	934.5854882814982
0.30199517	5.2480746e-10	0.09	1.1722854	25.064526	-0.0039203228	-0.015098362	-0.015079369	-0.0065251551	0.0015310871	0	934.6068258012012
0.30199517	5.7543994e-10	0.09	1.0895336	23.779926	-0.0038907189	-0.015176641	-0.015155818	-0.006414357	0.0012289888	0	934.6281760050363
0.30199517	6.3095734e-10	0.09	1.0140765	22.602303	-0.0038611149	-0.01525493	-0.015232102	-0.0063113079	0.00095352616	0	934.6495402553734
0.30199517	6.9183097e-10	0.09	0.94527353	21.522256	-0.003831511	-0.01533323	-0.015308202	-0.0062153245	0.00070236073	0	934.6709199709561
0.30199517	7.5857758e-10	0.09	0.88254069	20.531213	-0.0038019071	-0.015411541	-0.015384103	-0.0061257837	0.00047336046	0	934.6923165141542
0.30199517	8.3176377e-10	0.09	0.82534545	19.621357	-0.0037723031	-0.015489863	-0.015459783	-0.0060421168	0.00026458146	0	934.7137318392638
0.30199517	9.1201084e-10	0.09	0.77320232	18.785561	-0.0037426992	-0.015568196	-0.015535222	-0.0059638053	0.000074251403	0	934.7351674495891
0.30199517	1.e-9	0.09	0.72566865	18.017326	-0.0037130952	-0.015646541	-0.015610395	-0.0058903758	-0.00009924544	0	934.7566256470654
0.30199517	1.0964782e-9	0.09	0.68234093	17.310725	-0.0036834912	-0.015724898	-0.015685278	-0.0058213967	-0.00025738191	0	934.7781083671977
0.30199517	1.2022644e-9	0.09	0.64285135	16.660357	-0.0036538872	-0.015803267	-0.015759843	-0.0057564738	-0.0004015006	0	934.7996179776899
0.30199517	1.3182567e-9	0.09	0.60686462	16.061295	-0.0036242832	-0.01588165	-0.015834059	-0.0056952478	-0.00053282513	0	934.8211570999298
0.30199517	1.4454398e-9	0.09	0.57407518	15.509048	-0.0035946792	-0.015960045	-0.015907893	-0.0056373904	-0.00065247071	0	934.8427285244265
0.30199517	1.5848932e-9	0.09	0.54420458	14.999525	-0.0035650752	-0.016038455	-0.01598131	-0.005582602	-0.00076145351	0	934.8643352108109
0.30199517	1.7378008e-9	0.09	0.51699907	14.528992	-0.0035354711	-0.016116879	-0.016054272	-0.0055306091	-0.00086069942	0	934.8859804663529
0.30199517	1.9054607e-9	0.09	0.49222749	14.094048	-0.0035058671	-0.016195317	-0.016126738	-0.005481162	-0.00095105198	0	934.9076675701355
0.30199517	2.0892961e-9	0.09	0.4696792	13.691593	-0.003476263	-0.01627377	-0.016198664	-0.0054340326	-0.0010332795	0	934.9294004307505
0.30199517	2.2908677e-9	0.09	0.44916236	13.318802	-0.0034466589	-0.016352239	-0.016270003	-0.0053890125	-0.0011080821	0	934.9511829286032
0.30199517	2.5118864e-9	0.09	0.43050223	12.973098	-0.0034170548	-0.016430723	-0.016340706	-0.0053459113	-0.0011760971	0	934.9730192071765
0.30199517	2.7542287e-9	0.09	0.41353962	12.652133	-0.0033874506	-0.016509224	-0.016410721	-0.0053045548	-0.0012379051	0	934.9949137575927
0.30199517	3.0199517e-9	0.09	0.39812951	12.353767	-0.0033578465	-0.016587743	-0.016479994	-0.0052647839	-0.001294035	0	935.0168709582265
0.30199517	3.3113112e-9	0.09	0.38413979	12.076047	-0.0033282423	-0.016666278	-0.01654847	-0.005226453	-0.001344969	0	935.0388956478395
0.30199517	3.6307805e-9	0.09	0.37145001	11.817192	-0.0032986381	-0.016744832	-0.016616093	-0.0051894288	-0.0013911461	0	935.0609924678843
0.30199517	3.9810717e-9	0.09	0.35995034	11.575575	-0.0032690338	-0.016823405	-0.016682805	-0.0051535894	-0.0014329672	0	935.0831664168486
0.30199517	4.3651583e-9	0.09	0.34954047	11.349709	-0.0032394296	-0.016901997	-0.016748554	-0.005118823	-0.0014707985	0	935.1054217039853
0.30199517	4.7863009e-9	0.09	0.34012874	11.138237	-0.0032098253	-0.016980608	-0.016813286	-0.0050850275	-0.0015049745	0	935.127763083495
0.30199517	5.2480746e-9	0.09	0.33163121	10.93991	-0.003180221	-0.017059241	-0.016876953	-0.0050521091	-0.0015358022	0	935.1501945203436
0.30199517	5.7543994e-9	0.09	0.32397085	10.753587	-0.0031506167	-0.017137894	-0.016939513	-0.0050199821	-0.0015635633	0	935.1727195660878
0.30199517	6.3095734e-9	0.09	0.31707682	10.578214	-0.0031210123	-0.017216569	-0.01700093	-0.0049885678	-0.0015885174	0	935.1953413588765
0.30199517	6.9183097e-9	0.09	0.3108838	10.412822	-0.003091408	-0.017295266	-0.017061179	-0.0049577945	-0.0016109044	0	935.2180618248179
0.30199517	7.5857758e-9	0.09	0.30533137	10.256516	-0.0030618036	-0.017373987	-0.017120244	-0.0049275965	-0.0016309464	0	935.2408825047996
0.30199517	8.3176377e-9	0.09	0.30036356	10.108465	-0.0030321993	-0.017452732	-0.01717812	-0.0048979136	-0.00164885	0	935.263803633713
0.30199517	9.1201084e-9	0.09	0.2959284	9.9679021	-0.0030025951	-0.017531501	-0.017234812	-0.0048686912	-0.0016648073	0	935.2868247887534
0.30199517	1.e-8	0.09	0.29197759	9.8341144	-0.002972991	-0.017610296	-0.017290337	-0.0048398794	-0.0016789976	0	935.3099445323861
0.30199517	1.0964782e-8	0.09	0.28846627	9.7064413	-0.002943387	-0.017689116	-0.017344723	-0.0048114331	-0.0016915879	0	935.3331604969063
0.30199517	1.2022644e-8	0.09	0.28535282	9.5842715	-0.0029137834	-0.017767964	-0.017398005	-0.0047833111	-0.0017027337	0	935.3564694408134
0.30199517	1.3182567e-8	0.09	0.28259872	9.4670401	-0.0028841803	-0.017846839	-0.017450223	-0.0047554764	-0.0017125796	0	935.3798678877158
0.30199517	1.4454398e-8	0.09	0.28016845	9.3542265	-0.0028545779	-0.017925743	-0.017501425	-0.0047278955	-0.0017212593	0	935.4033515907781
0.30199517	1.5848932e-8	0.09	0.27802938	9.2453519	-0.0028249766	-0.018004675	-0.017551656	-0.0047005383	-0.0017288966	0	935.4269163689345
0.30199517	1.7378008e-8	0.09	0.27615163	9.1399768	-0.002795377	-0.018083636	-0.017600963	-0.0046733778	-0.0017356057	0	935.4505576840841
0.30199517	1.9054607e-8	0.09	0.27450792	9.0376967	-0.0027657799	-0.018162627	-0.017649389	-0.0046463897	-0.0017414925	0	935.474271148457
0.30199517	2.0892961e-8	0.09	0.27307333	8.9381377	-0.0027361867	-0.018241647	-0.017696974	-0.0046195523	-0.0017466553	0	935.4980520642266
0.30199517	2.2908677e-8	0.09	0.27182501	8.8409489	-0.0027065993	-0.018320695	-0.01774375	-0.0045928461	-0.0017511876	0	935.5218959402702
0.30199517	2.5118864e-8	0.09	0.27074178	8.745793	-0.0026770208	-0.01839977	-0.017789743	-0.0045662541	-0.0017551806	0	935.5457976653523
0.30199517	2.7542287e-8	0.09	0.26980354	8.6523333	-0.0026474559	-0.018478867	-0.01783497	-0.004539761	-0.0017587274	0	935.5697513859808
0.30199517	3.0199517e-8	0.09	0.26899055	8.5602142	-0.0026179115	-0.01855798	-0.01787944	-0.0045133536	-0.0017619289	0	935.5937498581072
0.30199517	3.3113112e-8	0.09	0.26828226	8.469031	-0.0025883985	-0.018637099	-0.017923149	-0.0044870206	-0.0017649039	0	935.6177831787121
0.30199517	3.6307805e-8	0.09	0.26765456	8.3782524	-0.0025589353	-0.018716202	-0.017966077	-0.0044607528	-0.0017678142	0	935.6418357510113
0.30199517	3.9810717e-8	0.09	0.26706587	8.2868128	-0.0025295672	-0.018795213	-0.018008142	-0.0044345441	-0.001770996	0	935.6658719466864
0.30199517	4.3651583e-8	0.09	0.26634983	8.1899208	-0.0025005192	-0.018873634	-0.018048838	-0.0044083966	-0.0017759916	0	935.6897231513396
0.30199517	4.7863009e-8	0.09	0.26450671	8.0578933	-0.0024732052	-0.01894813	-0.018084812	-0.0043823586	-0.0017923899	0	935.7123444461582
0.30199517	5.2480746e-8	0.09	0.25899606	7.8151177	-0.0024513319	-0.019010172	-0.018107518	-0.0043566636	-0.0018447278	0	935.7309758015532
0.30199517	5.7543994e-8	0.09	0.25062998	7.4869055	-0.0024340524	-0.019063659	-0.018120828	-0.0043316779	-0.0019252361	0	935.7460855156858
0.30199517	6.3095734e-8	0.09	0.24359461	7.1993686	-0.0024152792	-0.019127653	-0.018143777	-0.0043074823	-0.0019934606	0	935.761783576245
0.30199517	6.9183097e-8	0.09	0.24088134	7.04173	-0.0023900563	-0.019218472	-0.018192652	-0.0042837703	-0.0020204169	0	935.781349226028
0.30199517	7.5857758e-8	0.09	0.24059416	6.9560874	-0.0023611172	-0.019324165	-0.018255468	-0.004260179	-0.0020243528	0	935.8032276253159
0.30199517	8.3176377e-8	0.09	0.24074839	6.8824532	-0.0023315764	-0.019432294	-0.018319751	-0.0042365878	-0.0020244291	0	935.8255473102618
0.30199517	9.1201084e-8	0.09	0.24100237	6.8105243	-0.0023019725	-0.019540726	-0.018383326	-0.0042129759	-0.0020239366	0	935.8479861508852
0.30199517	1.e-7	0.09	0.24131896	6.7391988	-0.002272361	-0.019649239	-0.018445933	-0.004189336	-0.0020232221	0	935.8705139871388
0.30199517	1.0964782e-7	0.09	0.24169274	6.6683292	-0.0022427477	-0.019757812	-0.018507506	-0.0041656622	-0.0020223273	0	935.8931309505613
0.30199517	1.2022644e-7	0.09	0.24212186	6.5978705	-0.0022131334	-0.019866446	-0.018568	-0.004141949	-0.0020212609	0	935.9158400947402
0.30199517	1.3182567e-7	0.09	0.24260507	6.5277924	-0.0021835179	-0.01997514	-0.018627371	-0.0041181911	-0.0020200276	0	935.9386453282676
0.30199517	1.4454398e-7	0.09	0.24314141	6.4580688	-0.0021539012	-0.020083898	-0.018685571	-0.0040943833	-0.0020186302	0	935.9615507100657
0.30199517	1.5848932e-7	0.09	0.24373011	6.3886764	-0.0021242832	-0.020192721	-0.018742553	-0.0040705203	-0.0020170714	0	935.9845603084525
0.30199517	1.7378008e-7	0.09	0.2443706	6.3195943	-0.0020946638	-0.020301612	-0.018798269	-0.004046597	-0.0020153524	0	936.0076782763065
0.30199517	1.9054607e-7	0.09	0.24506246	6.2508036	-0.0020650429	-0.020410572	-0.018852669	-0.0040226084	-0.0020134746	0	936.0309089356289
0.30199517	2.0892961e-7	0.09	0.24580543	6.1822869	-0.0020354203	-0.020519605	-0.018905701	-0.0039985495	-0.0020114383	0	936.054256871498
0.30199517	2.2908677e-7	0.09	0.24659938	6.1140287	-0.002005796	-0.020628712	-0.018957312	-0.0039744153	-0.0020092436	0	936.0777265656409
0.30199517	2.5118864e-7	0.09	0.2474443	6.0460146	-0.0019761698	-0.020737898	-0.01900745	-0.0039502007	-0.0020068902	0	936.1013226031363
0.30199517	2.7542287e-7	0.09	0.2483403	5.9782315	-0.0019465414	-0.020847164	-0.01905606	-0.0039259008	-0.0020043771	0	936.1250499167028
0.30199517	3.0199517e-7	0.09	0.2492876	5.9106672	-0.0019169107	-0.020956513	-0.019103084	-0.0039015106	-0.0020017035	0	936.1489135048273
0.30199517	3.3113112e-7	0.09	0.25028653	5.8433106	-0.0018872776	-0.021065949	-0.019148466	-0.003877025	-0.0019988676	0	936.172918196876
0.30199517	3.6307805e-7	0.09	0.25133749	5.7761514	-0.0018576416	-0.021175474	-0.019192147	-0.0038524389	-0.0019958678	0	936.1970694517238
0.30199517	3.9810717e-7	0.09	0.25244102	5.70918	-0.0018280026	-0.021285094	-0.019234067	-0.0038277472	-0.0019927021	0	936.22137243698
0.30199517	4.3651583e-7	0.09	0.25359773	5.6423876	-0.0017983604	-0.02139481	-0.019274163	-0.0038029447	-0.0019893681	0	936.2458326678931
0.30199517	4.7863009e-7	0.09	0.25480833	5.5757659	-0.0017687145	-0.021504627	-0.019312374	-0.0037780262	-0.0019858631	0	936.2704557724596
0.30199517	5.2480746e-7	0.09	0.25607361	5.5093071	-0.0017390647	-0.021614548	-0.019348633	-0.0037529864	-0.0019821845	0	936.2952476041719
0.30199517	5.7543994e-7	0.09	0.25739445	5.4430042	-0.0017094105	-0.021724579	-0.019382875	-0.0037278198	-0.001978329	0	936.3202141292695
0.30199517	6.3095734e-7	0.09	0.25877184	5.3768504	-0.0016797516	-0.021834723	-0.019415031	-0.003702521	-0.0019742933	0	936.3453614643231
0.30199517	6.9183097e-7	0.09	0.26020684	5.3108396	-0.0016500875	-0.021944985	-0.019445033	-0.0036770843	-0.0019700738	0	936.3706958292553
0.30199517	7.5857758e-7	0.09	0.26170061	5.2449657	-0.0016204178	-0.02205537	-0.019472808	-0.0036515042	-0.0019656668	0	936.3962237728365
0.30199517	8.3176377e-7	0.09	0.2632544	5.1792234	-0.0015907417	-0.022165883	-0.019498282	-0.0036257746	-0.0019610681	0	936.4219523042243
0.30199517	9.1201084e-7	0.09	0.26486955	5.1136075	-0.0015610589	-0.02227653	-0.019521382	-0.0035998897	-0.0019562736	0	936.4478878782327
0.30199517	1.e-6	0.09	0.26654751	5.0481133	-0.0015313685	-0.022387317	-0.019542029	-0.0035738434	-0.0019512784	0	936.47403802078
0.30199517	1.0964782e-6	0.09	0.26828979	4.9827363	-0.0015016699	-0.022498249	-0.019560143	-0.0035476295	-0.001946078	0	936.5004100604759
0.30199517	1.2022644e-6	0.09	0.27009803	4.9174723	-0.0014719624	-0.022609333	-0.019575644	-0.0035212416	-0.0019406673	0	936.527011419887
0.30199517	1.3182567e-6	0.09	0.27197396	4.8523175	-0.001442245	-0.022720576	-0.019588449	-0.0034946732	-0.0019350409	0	936.5538500571315
0.30199517	1.4454398e-6	0.09	0.27391941	4.7872682	-0.0014125167	-0.022831986	-0.01959847	-0.0034679174	-0.0019291933	0	936.5809343531323
0.30199517	1.5848932e-6	0.09	0.27593633	4.7223211	-0.0013827766	-0.02294357	-0.01960562	-0.0034409675	-0.0019231186	0	936.6082725102951
0.30199517	1.7378008e-6	0.09	0.27802676	4.6574732	-0.0013530235	-0.023055336	-0.019609808	-0.0034138162	-0.0019168108	0	936.6358733511385
0.30199517	1.9054607e-6	0.09	0.28019286	4.5927215	-0.0013232562	-0.023167292	-0.019610942	-0.0033864564	-0.0019102634	0	936.6637457827419
0.30199517	2.0892961e-6	0.09	0.28243691	4.5280635	-0.0012934732	-0.02327945	-0.019608926	-0.0033588804	-0.0019034698	0	936.6918993322981
0.30199517	2.2908677e-6	0.09	0.28476131	4.4634968	-0.0012636732	-0.023391817	-0.019603662	-0.0033310805	-0.0018964229	0	936.7203435082083
0.30199517	2.5118864e-6	0.09	0.2871686	4.3990192	-0.0012338543	-0.023504406	-0.01959505	-0.0033030487	-0.0018891156	0	936.7490885517349
0.30199517	2.7542287e-6	0.09	0.28966142	4.3346289	-0.0012040149	-0.023617227	-0.019582987	-0.0032747767	-0.0018815399	0	936.7781446759532
0.30199517	3.0199517e-6	0.09	0.29224259	4.270324	-0.001174153	-0.023730292	-0.019567366	-0.0032462561	-0.0018736882	0	936.8075228080082
0.30199517	3.3113112e-6	0.09	0.29491504	4.2061033	-0.0011442663	-0.023843614	-0.01954808	-0.003217478	-0.001865552	0	936.8372341569147
0.30199517	3.6307805e-6	0.09	0.29768187	4.1419653	-0.0011143525	-0.023957208	-0.019525017	-0.0031884334	-0.0018571225	0	936.8672903544915
0.30199517	3.9810717e-6	0.09	0.30054634	4.0779092	-0.001084409	-0.024071087	-0.019498063	-0.0031591127	-0.0018483908	0	936.8977034835494
0.30199517	4.3651583e-6	0.09	0.30351188	4.0139341	-0.0010544328	-0.024185269	-0.019467102	-0.0031295063	-0.0018393473	0	936.9284861718461
0.30199517	4.7863009e-6	0.09	0.30658209	3.9500395	-0.001024421	-0.024299769	-0.019432012	-0.0030996042	-0.0018299821	0	936.959651460549
0.30199517	5.2480746e-6	0.09	0.30976078	3.8862252	-0.00099437004	-0.024414607	-0.019392672	-0.0030693957	-0.0018202849	0	936.9912129263774
0.30199517	5.7543994e-6	0.09	0.31305193	3.822491	-0.00096427613	-0.024529801	-0.019348956	-0.0030388703	-0.0018102449	0	937.0231847849551
0.30199517	6.3095734e-6	0.09	0.31645976	3.7588374	-0.00093413515	-0.024645375	-0.019300736	-0.0030080164	-0.0017998506	0	937.0555817310843
0.30199517	6.9183097e-6	0.09	0.31998869	3.6952646	-0.00090394257	-0.024761349	-0.019247879	-0.0029768226	-0.0017890904	0	937.0884192675927
0.30199517	7.5857758e-6	0.09	0.32364341	3.6317737	-0.00087369345	-0.024877749	-0.019190251	-0.0029452768	-0.0017779518	0	937.1217133670918
0.30199517	8.3176377e-6	0.09	0.32742884	3.5683657	-0.00084338233	-0.024994601	-0.019127715	-0.0029133664	-0.0017664219	0	937.1554807444488
0.30199517	9.1201084e-6	0.09	0.33135019	3.5050421	-0.00081300327	-0.025111935	-0.01906013	-0.0028810782	-0.0017544873	0	937.1897389037667
0.30199517	0.00001	0.09	0.33541294	3.4418047	-0.0007825497	-0.02522978	-0.018987352	-0.0028483988	-0.0017421336	0	937.2245061947563
0.30199517	0.000010964782	0.09	0.33962291	3.3786557	-0.00075201451	-0.025348171	-0.018909236	-0.0028153139	-0.0017293461	0	937.2598015590554
0.30199517	0.000012022644	0.09	0.34398623	3.3155976	-0.00072138983	-0.025467143	-0.018825633	-0.0027818089	-0.0017161092	0	937.2956449906142
0.30199517	0.000013182567	0.09	0.34850938	3.2526336	-0.00069066708	-0.025586736	-0.01873639	-0.0027478684	-0.0017024066	0	937.3320574887185
0.30199517	0.000014454398	0.09	0.35319925	3.189767	-0.00065983685	-0.025706992	-0.018641353	-0.0027134763	-0.0016882211	0	937.3690609170541
0.30199517	0.000015848932	0.09	0.35806312	3.1270017	-0.00062888885	-0.025827957	-0.018540364	-0.0026786161	-0.0016735349	0	937.4066783043678
0.30199517	0.000017378008	0.09	0.36146567	3.0643015	-0.00060301566	-0.025930725	-0.018414309	-0.0026450193	-0.0016600913	0	937.4416471791033
0.30199517	0.000019054607	0.09	0.36654273	3.0017495	-0.00057229901	-0.026051433	-0.018299109	-0.0026093383	-0.0016445157	0	937.4802488926603
0.30199517	0.000020892961	0.09	0.37180313	2.9393137	-0.00054147578	-0.026172835	-0.018177296	-0.0025731506	-0.0016283962	0	937.5195099462014
0.30199517	0.000022908677	0.09	0.37725464	2.8770005	-0.00051053583	-0.026294978	-0.018048687	-0.0025364381	-0.0016117123	0	937.5594553415608
0.30199517	0.000025118864	0.09	0.38290547	2.814817	-0.00047946804	-0.026417911	-0.017913096	-0.0024991814	-0.0015944426	0	937.6001112550296
0.30199517	0.000027542287	0.09	0.3887643	2.752771	-0.00044826027	-0.02654169	-0.017770333	-0.0024613606	-0.0015765647	0	937.6415051594978
0.30199517	0.000030199517	0.09	0.39484034	2.690871	-0.00041689926	-0.026666372	-0.017620205	-0.002422955	-0.001558055	0	937.6836658338526
0.30199517	0.000033113112	0.09	0.40114331	2.6291265	-0.00038537048	-0.026792021	-0.017462517	-0.0023839426	-0.0015388886	0	937.7266234193504
0.30199517	0.000036307805	0.09	0.40768353	2.5675481	-0.00035365808	-0.026918705	-0.01729707	-0.0023443009	-0.0015190393	0	937.7704096357172
0.30199517	0.000039810717	0.09	0.41447194	2.5061473	-0.00032174476	-0.027046498	-0.017123663	-0.002304006	-0.0014984799	0	937.815057734171
0.30199517	0.000043651583	0.09	0.42152014	2.4449367	-0.00028961158	-0.027175482	-0.016942092	-0.002263033	-0.0014771812	0	937.8606027604992
0.30199517	0.000047863009	0.09	0.42884043	2.38393	-0.00025723793	-0.027305741	-0.016752151	-0.0022213558	-0.0014551128	0	937.9070814986851
0.30199517	0.000052480746	0.09	0.43644589	2.3231425	-0.00022460128	-0.027437372	-0.016553633	-0.0021789472	-0.0014322425	0	937.9545326212387
0.30199517	0.000057543994	0.09	0.44435039	2.2625906	-0.00019167708	-0.027570475	-0.016346328	-0.0021357785	-0.0014085364	0	938.0029969522748
0.30199517	0.000063095734	0.09	0.45256868	2.2022922	-0.00015843857	-0.027705161	-0.016130026	-0.0020918197	-0.0013839587	0	938.0525173923465
0.30199517	0.000069183097	0.09	0.46111643	2.1422669	-0.0001248566	-0.027841548	-0.015904514	-0.0020470392	-0.0013584716	0	938.1031393412521
0.30199517	0.000075857758	0.09	0.47001028	2.0825356	-0.000090899433	-0.027979767	-0.015669582	-0.002001404	-0.0013320352	0	938.154910375762
0.30199517	0.000083176377	0.09	0.47926794	2.0231214	-0.000056532551	-0.028119956	-0.015425015	-0.0019548793	-0.0013046074	0	938.2078811083825
0.30199517	0.000091201084	0.09	0.48890822	1.964049	-0.000021718431	-0.028262266	-0.015170603	-0.0019074285	-0.0012761437	0	938.2621045522095
0.30199517	0.0001	0.09	0.49895112	1.905345	0.000013583707	-0.02840686	-0.014906135	-0.0018590131	-0.0012465969	0	938.317636865064
0.30199517	0.00010964782	0.09	0.50941789	1.847038	0.000049418102	-0.028553914	-0.014631401	-0.0018095926	-0.0012159175	0	938.3745373701621
0.30199517	0.00012022644	0.09	0.52033109	1.7891589	0.000085832738	-0.028703619	-0.014346193	-0.0017591244	-0.0011840528	0	938.4328687402713
0.30199517	0.00013182567	0.09	0.53171469	1.7317405	0.00012287958	-0.028856178	-0.014050306	-0.0017075635	-0.0011509474	0	938.4926971348857
0.30199517	0.00014454398	0.09	0.54359415	1.674818	0.00016061486	-0.029011813	-0.013743538	-0.0016548627	-0.0011165425	0	938.5540924689424
0.30199517	0.00015848932	0.09	0.55599642	1.6184288	0.00019909936	-0.02917076	-0.01342569	-0.0016009719	-0.0010807764	0	938.6171286787174
0.30199517	0.00017378008	0.09	0.56895011	1.5626123	0.00023839869	-0.029333276	-0.013096569	-0.0015458386	-0.0010435836	0	938.6818837293439
0.30199517	0.00019054607	0.09	0.58248549	1.5074105	0.00027858357	-0.029499635	-0.012755985	-0.0014894072	-0.0010048952	0	938.7484401334507
0.30199517	0.00020892961	0.09	0.59663456	1.4528673	0.00031973011	-0.02967013	-0.012403756	-0.0014316192	-0.00096463844	0	938.8168847914367
0.30199517	0.00022908677	0.09	0.61143113	1.3990287	0.0003619201	-0.029845078	-0.012039702	-0.0013724127	-0.00092273674	0	938.8873097713113
0.30199517	0.00025118864	0.09	0.62691085	1.3459427	0.00040524133	-0.030024815	-0.011663654	-0.0013117225	-0.00087910946	0	938.9598118483049
0.30199517	0.00027542287	0.09	0.64311126	1.293659	0.00044978777	-0.030209701	-0.011275447	-0.0012494799	-0.00083367187	0	939.0344932659192
0.30199517	0.00030199517	0.09	0.66007183	1.2422288	0.00049565988	-0.030400119	-0.010874925	-0.0011856123	-0.00078633499	0	939.1114616043868
0.30199517	0.00033113112	0.09	0.67783392	1.1917042	0.00054296486	-0.030596479	-0.010461938	-0.0011200431	-0.00073700541	0	939.1908302692452
0.30199517	0.00036307805	0.09	0.69644088	1.1421384	0.00059181677	-0.030799213	-0.010036346	-0.0010526917	-0.00068558548	0	939.272718265842
0.30199517	0.00039810717	0.09	0.71593794	1.0935846	0.00064233683	-0.03100878	-0.009598016	-0.00098347306	-0.00063197301	0	939.3572507348856
0.30199517	0.00043651583	0.09	0.73637226	1.0460958	0.00069465347	-0.031225665	-0.0091468216	-0.00091229762	-0.00057606142	0	939.4445590332501
0.30199517	0.00047863009	0.09	0.75779282	0.99972432	0.0007489025	-0.031450381	-0.0086826454	-0.0008390711	-0.00051773962	0	939.5347806907525
0.30199517	0.00052480746	0.09	0.78025047	0.95452072	0.00080522714	-0.031683465	-0.0082053761	-0.00076369438	-0.00045689225	0	939.6280596835686
0.30199517	0.00057543994	0.09	0.80379771	0.91053341	0.00086377816	-0.031925484	-0.0077149095	-0.00068606322	-0.00039339949	0	939.72454648121
0.30199517	0.00063095734	0.09	0.82848877	0.86780777	0.00092471381	-0.032177028	-0.0072111468	-0.00060606816	-0.00032713732	0	939.8243981245084
0.30199517	0.00069183097	0.09	0.85437943	0.82638536	0.00098819985	-0.032438715	-0.006693994	-0.00052359439	-0.00025797754	0	939.9277783045395
0.30199517	0.00075857758	0.09	0.88152697	0.78630314	0.0010544096	-0.032711191	-0.0061633616	-0.00043852145	-0.00018578783	0	940.0348574349681
0.30199517	0.00083176377	0.09	0.90999014	0.74759275	0.0011235238	-0.032995125	-0.0056191627	-0.00035072331	-0.00011043198	0	940.1458126811765
0.30199517	0.00091201084	0.09	0.93982908	0.71027979	0.0011957307	-0.033291212	-0.0050613115	-0.00026006808	-0.000031769888	0	940.2608281716651
0.30199517	0.001	0.09	0.97110533	0.67438321	0.0012712261	-0.033600174	-0.0044897243	-0.00016641783	0.000050342478	0	940.3800949510758
0.30199517	0.0010964782	0.09	1.0038818	0.63991491	0.0013502134	-0.033922756	-0.0039043171	-0.000069628662	0.00013605284	0	940.5038112301143
0.30199517	0.0012022644	0.09	1.0382231	0.60687936	0.0014329039	-0.034259731	-0.0033050059	0.000030449691	0.0002255129	0	940.6321826420532
0.30199517	0.0013182567	0.09	1.0741954	0.57527349	0.001519517	-0.034611895	-0.0026917052	0.00013397382	0.00031887827	0	940.7654225574857
0.30199517	0.0014454398	0.09	1.1118669	0.54508678	0.0016102809	-0.034980074	-0.00206433	0.00024110696	0.0004163088	0	940.9037525728999
0.30199517	0.0015848932	0.09	1.1513079	0.51630146	0.001705433	-0.035365121	-0.0014227957	0.00035201909	0.00051796875	0	941.04740289496
0.30199517	0.0017378008	0.09	1.1925919	0.48889302	0.0018052207	-0.035767921	-0.0007670191	0.00046688725	0.00062402729	0	941.1966130075995
0.30199517	0.0019054607	0.09	1.2357955	0.46283077	0.0019099031	-0.036189394	-0.000096922602	0.00058589584	0.00073465894	0	941.3516329139552
0.30199517	0.0020892961	0.09	1.2809995	0.43807861	0.0020197518	-0.036630497	0.00058756545	0.00070923692	0.00085004419	0	941.5127238592711
0.30199517	0.0022908677	0.09	1.3282896	0.4145959	0.0021350531	-0.037092232	0.0012865054	0.0008371108	0.00097037024	0	941.6801599438485
0.30199517	0.0025118864	0.09	1.377758	0.39233833	0.0022561098	-0.037575649	0.0019999396	0.00096972637	0.0010958318	0	941.8542292493981
0.30199517	0.0027542287	0.09	1.4295037	0.37125885	0.0023832441	-0.038081857	0.0027278886	0.001107302	0.0012266321	0	942.0352362416016
0.30199517	0.0030199517	0.09	1.4836349	0.35130852	0.0025168004	-0.038612029	0.0034703427	0.0012500661	0.0013629838	0	942.2235036865252
0.30199517	0.0033113112	0.09	1.5402699	0.33243736	0.0026571488	-0.039167414	0.0042272512	0.0013982583	0.0015051104	0	942.419375030068
0.30199517	0.0036307805	0.09	1.5995398	0.31459503	0.0028046894	-0.03974935	0.004998514	0.0015521304	0.0016532475	0	942.6232177277823
0.30199517	0.0039810717	0.09	1.6615897	0.29773144	0.0029598568	-0.040359276	0.005783968	0.0017119475	0.0018076444	0	942.8354263228896
0.30199517	0.0043651583	0.09	1.7265822	0.28179726	0.0031231257	-0.040998746	0.0065833743	0.0018779901	0.0019685654	0	943.0564266254669
0.30199517	0.0047863009	0.09	1.7946992	0.26674431	0.0032950169	-0.041669448	0.0073964003	0.0020505552	0.0021362922	0	943.2866798361991
0.30199517	0.0052480746	0.09	1.8661457	0.25252587	0.0034761047	-0.042373225	0.0082226036	0.0022299592	0.0023111261	0	943.5266881377332
0.30199517	0.0057543994	0.09	1.9411527	0.23909699	0.0036670234	-0.043112086	0.0090614159	0.0024165394	0.00249339	0	943.7769994404213
0.30199517	0.0063095734	0.09	2.0199807	0.22641515	0.0038684761	-0.043888232	0.0099121228	0.0026106574	0.0026834317	0	944.0382139423674
0.30199517	0.0069183097	0.09	2.1029219	0.21444272	0.0040812398	-0.044704057	0.010773865	0.0028127018	0.002881628	0	944.3109890226831
0.30199517	0.0075857758	0.09	2.1902953	0.20315941	0.0043061546	-0.045562052	0.011645733	0.0030230913	0.0030883908	0	944.5960371020968
0.30199517	0.0083176377	0.09	2.282389	0.19262853	0.0045439942	-0.046464043	0.012527532	0.0032422754	0.0033041901	0	944.8940686498604
0.30199517	0.0091201084	0.09	2.3789983	0.18334323	0.0047944393	-0.04740545	0.013425521	0.0034707161	0.0035296463	0	945.2053129293149
0.30199517	0.01	0.09	2.4766122	0.17731736	0.0050498907	-0.048341523	0.014386186	0.0037087348	0.0037657282	0	945.5265608925903
0.30199517	0.010964782	0.09	2.5668884	0.17525892	0.0052922923	-0.04917577	0.015507806	0.0039559992	0.0040123309	0	945.8491582126428
0.30199517	0.012022644	0.09	2.6651615	0.16925822	0.0055562898	-0.050116713	0.016583702	0.0042122331	0.0042666361	0	946.1881798302916
0.30199517	0.013182567	0.09	2.7840185	0.16095634	0.005869942	-0.051309292	0.017470838	0.0044792255	0.0045309601	0	946.5578935715332
0.30199517	0.014454398	0.09	2.9117887	0.15315752	0.0062071501	-0.052588416	0.018336262	0.0047583331	0.004807561	0	946.947903634344
0.30199517	0.015848932	0.09	3.0478402	0.14576895	0.0065667843	-0.053942011	0.019194071	0.0050503676	0.0050972206	0	947.3583405525375
0.30199517	0.017378008	0.09	3.1927135	0.13875916	0.0069503797	-0.055373514	0.020042913	0.0053561668	0.0054007668	0	947.7905323265711
0.30199517	0.019054607	0.09	3.3468889	0.13210453	0.0073594021	-0.056885802	0.02088206	0.0056766202	0.0057190813	0	948.2457946110133
0.30199517	0.020892961	0.09	3.5107004	0.12578273	0.0077950781	-0.058480439	0.021712165	0.0060126574	0.0060530865	0	948.7253350949774
0.30199517	0.022908677	0.09	3.6842455	0.11977253	0.0082582217	-0.060157028	0.02253591	0.0063652303	0.0064037276	0	949.2301453769428
0.30199517	0.025118864	0.09	3.8672684	0.11405372	0.0087490095	-0.061912412	0.023358809	0.0067352837	0.0067719428	0	949.760857652851
0.30199517	0.027542287	0.09	4.0590171	0.10860701	0.0092667026	-0.063739737	0.024190145	0.0071237147	0.0071586232	0	950.3175626565277
0.30199517	0.030199517	0.09	4.2580755	0.10341393	0.0098093199	-0.065627446	0.025043985	0.0075313154	0.0075645548	0	950.8995885329783
0.30199517	0.033113112	0.09	4.4621846	0.098456732	0.010373285	-0.067558281	0.025940168	0.0079586993	0.0079903453	0	951.5052526240129
0.30199517	0.036307805	0.09	4.6680757	0.093718286	0.010953087	-0.069508514	0.026905088	0.0084062101	0.008436333	0	952.1316089788505
0.30199517	0.039810717	0.09	4.8713593	0.089181918	0.011541033	-0.071447658	0.027971979	0.0088738165	0.0089024814	0	952.7742399115461
0.30199517	0.043651583	0.09	4.4911741	0.082068718	0.011439994	-0.0727625	0.029756889	0.009338059	0.0093644375	0	952.8302407311456
0.30199517	0.047863009	0.09	4.1444412	0.075581402	0.011347846	-0.074331033	0.031384746	0.0097614532	0.0097857466	0	952.8813146861497
0.30199517	0.052480746	0.09	3.828217	0.0696649	0.011263805	-0.076142452	0.03286937	0.010147593	0.010169985	0	952.9278937887063
0.30199517	0.057543994	0.09	3.5398171	0.064268986	0.01118716	-0.078187259	0.034223362	0.010499757	0.010520415	0	952.9703755595195
0.30199517	0.063095734	0.09	3.2767932	0.059347854	0.011117258	-0.080457164	0.035458218	0.010820935	0.01084001	0	953.0091185743095
0.30199517	0.069183097	0.09	3.0369127	0.054859728	0.011053507	-0.08294499	0.03658442	0.011113852	0.011131485	0	953.0444529775486
0.30199517	0.075857758	0.09	2.818139	0.050766508	0.010995365	-0.085644581	0.037611529	0.011380995	0.011397313	0	953.0766780114056
0.30199517	0.083176377	0.09	2.7428482	0.04701219	0.01110076	-0.088768777	0.038330218	0.011631206	0.011646317	0	953.2364764768331
0.30199517	0.091201084	0.09	3.2548738	0.04345218	0.011938119	-0.092736413	0.038325276	0.01192316	0.011937126	0	954.0228120788676
0.30199517	0.1	0.09	4.0492574	0.040108732	0.013129384	-0.096715814	0.038432111	0.012278561	0.012291452	0	955.1511174573102
0.30199517	0.10964782	0.09	5.2006609	0.036972719	0.014789456	-0.10075689	0.038604664	0.012728699	0.012740582	0	956.7254548208008
0.30199517	0.12022644	0.09	6.7892713	0.03403598	0.017048809	-0.10493301	0.038773549	0.013312458	0.013323398	0	958.8625456774917
0.30199517	0.13182567	0.09	8.9009601	0.031291311	0.020054052	-0.10933934	0.038847674	0.014076855	0.014086913	0	961.6924359439629
0.30199517	0.14454398	0.09	11.629287	0.028732433	0.023970311	-0.1140886	0.038718564	0.015077676	0.015086911	0	965.361099546578
0.30199517	0.15848932	0.09	15.079306	0.026353941	0.028985624	-0.1193045	0.038266845	0.016380404	0.016388874	0	970.0351161039522
0.30199517	0.17378008	0.09	19.372238	0.024151207	0.035316565	-0.12511398	0.037370088	0.018061575	0.018069338	0	975.9076183380353
0.30199517	0.19054607	0.09	24.649225	0.022120213	0.043213253	-0.13163858	0.035911368	0.020210566	0.020217676	0	983.2037221135346
0.30199517	0.20892961	0.09	31.071806	0.020257284	0.052961065	-0.13898553	0.033788247	0.022931603	0.022938114	0	992.1828955237576
0.30199517	0.22908677	0.09	38.816672	0.018558718	0.064876007	-0.14723833	0.030922128	0.026345563	0.026351528	0	1003.1354006250934
0.30199517	0.25118864	0.09	48.063036	0.017020294	0.079291361	-0.1564475	0.02726758	0.0305909	0.030596371	0	1016.3705359511132
0.30199517	0.27542287	0.09	58.972702	0.015636735	0.096535068	-0.16662238	0.022820501	0.035822973	0.035827999	0	1032.1960766335258
0.30199517	0.30199517	0.09	71.665744	0.014401216	0.1169005	-0.17772618	0.017623076	0.042211159	0.042215788	0	1050.8912320389766
0.30199517	0.33113112	0.09	86.197451	0.013305071	0.14061674	-0.1896765	0.01176327	0.049933594	0.049937871	0	1072.6786790144815
0.30199517	0.36307805	0.09	102.54341	0.012337801	0.16782612	-0.2023526	0.0053675697	0.059170003	0.059173968	0	1097.7028436022867
0.30199517	0.39810717	0.09	120.59769	0.011487428	0.19857554	-0.21560865	-0.0014122691	0.070093675	0.070097367	0	1126.0206240215277
0.30199517	0.43651583	0.09	140.18482	0.010741102	0.23282315	-0.22929014	-0.0084156451	0.082863964	0.082867416	0	1157.6062800498053
0.30199517	0.47863009	0.09	161.08153	0.010085821	0.27045709	-0.24324982	-0.015489002	0.097620474	0.097623716	0	1192.3676967631561
0.30199517	0.52480746	0.09	183.04194	0.0095090706	0.31131999	-0.25735998	-0.022498158	0.11447961	0.11448267	0	1230.1683612937402
0.30199517	0.57543994	0.09	205.82054	0.008999313	0.35523306	-0.27151988	-0.029335654	0.13353354	0.13353643	0	1270.8493755888521
0.30199517	0.63095734	0.09	229.18949	0.0085462605	0.40201558	-0.2856582	-0.035923281	0.15485109	0.15485384	0	1314.2475548204209
0.30199517	0.69183097	0.09	252.94933	0.0081409795	0.45149859	-0.29973191	-0.042210892	0.1784801	0.17848272	0	1360.2083905014351
0.30199517	0.75857758	0.09	276.934	0.0077758629	0.50353296	-0.31372276	-0.048172887	0.20445047	0.20445297	0	1408.5939300098162
0.30199517	0.83176377	0.09	301.01167	0.0074445261	0.55799314	-0.32763264	-0.0538036	0.23277749	0.23277989	0	1459.2866900378258
0.30199517	0.91201084	0.09	325.08274	0.0071416643	0.61477798	-0.34147881	-0.059112488	0.26346517	0.26346746	0	1512.1908338580547
0.30199517	1.	0.09	349.07655	0.0068629004	0.67380975	-0.35528947	-0.064119693	0.29650915	0.29651136	0	1567.231625830573
0.30199517	1.0964782	0.09	372.94737	0.0066046388	0.73503221	-0.36909996	-0.068852262	0.33189945	0.33190157	0	1624.3539376819344
0.30199517	1.2022644	0.09	396.6704	0.0063639326	0.79840833	-0.38294977	-0.073341128	0.36962263	0.36962467	0	1683.5203615854812
0.30199517	1.3182567	0.09	420.23803	0.0061383684	0.86391795	-0.39688027	-0.077618831	0.40966371	0.40966568	0	1744.7092042926731
0.30199517	1.4454398	0.09	443.65648	0.0059259687	0.93155558	-0.41093307	-0.081717894	0.45200765	0.45200956	0	1807.9125574161894
0.30199517	1.5848932	0.09	466.94291	0.0057251103	1.0013285	-0.42514896	-0.085669725	0.49664061	0.49664245	0	1873.1346051036126
0.30199517	1.7378008	0.09	490.123	0.0055344573	1.0732548	-0.43956726	-0.089503947	0.54355082	0.5435526	0	1940.3898391451307
0.30199517	1.9054607	0.09	513.22892	0.0053529063	1.1473625	-0.4542254	-0.093248034	0.59272941	0.59273113	0	2009.7022629361927
0.30199517	2.0892961	0.09	536.2977	0.0051795417	1.2236877	-0.46915885	-0.096927164	0.64417088	0.64417254	0	2081.10366571206
0.30199517	2.2908677	0.09	559.36988	0.0050135998	1.302274	-0.48440111	-0.10056422	0.69787355	0.69787516	0	2154.6330775153397
0.30199517	2.5118864	0.09	582.48847	0.00485444	1.3831713	-0.49998382	-0.10417991	0.75383985	0.75384141	0	2230.335631570264
0.30199517	2.7542287	0.09	605.69811	0.0047015216	1.4664356	-0.5159369	-0.10779288	0.8120765	0.81207801	0	2308.2623668142364
0.30199517	3.0199517	0.09	629.04442	0.0045543845	1.5521282	-0.53228881	-0.11141994	0.87259467	0.87259613	0	2388.469457134793
0.30199517	3.3113112	0.09	652.57352	0.0044126348	1.6403152	-0.54906668	-0.11507624	0.93540999	0.93541141	0	2471.0177267042145
0.30199517	3.6307805	0.09	676.33165	0.0042759323	1.7310671	-0.56629657	-0.11877546	1.0005427	1.000544	0	2555.9722580868165
0.30199517	3.9810717	0.09	700.36489	0.0041439807	1.8244588	-0.58400363	-0.12253	1.0680174	1.0680188	0	2643.402376172385
0.30199517	4.3651583	0.09	724.71899	0.0040165202	1.9205694	-0.60221228	-0.12635114	1.1378634	1.1378647	0	2733.3814467333596
0.30199517	4.7863009	0.09	749.43922	0.0038933208	2.0194814	-0.62094641	-0.13024919	1.2101144	1.2101157	0	2825.9861120884293
0.30199517	5.2480746	0.09	774.57029	0.003774177	2.1212816	-0.64022951	-0.13423366	1.2848084	1.2848096	0	2921.2971223359887
0.30199517	5.7543994	0.09	800.15635	0.0036589042	2.2260601	-0.66008477	-0.13831333	1.3619879	1.3619891	0	3019.3983898695346
0.30199517	6.3095734	0.09	826.24093	0.003547335	2.3339107	-0.6805353	-0.14249642	1.4416996	1.4417008	0	3120.3773508284507
0.30199517	6.9183097	0.09	852.86702	0.0034393165	2.4449308	-0.70160413	-0.14679064	1.5239946	1.5239957	0	3224.3248669134305
0.30199517	7.5857758	0.09	880.07703	0.003334708	2.5592214	-0.72331438	-0.1512033	1.6089279	1.6089289	0	3331.3352160847817
0.30199517	8.3176377	0.09	907.91292	0.0032333794	2.6768872	-0.74568934	-0.15574137	1.6965588	1.6965599	0	3441.5061814453024
0.30199517	9.1201084	0.09	936.4162	0.0031352096	2.7980362	-0.76875252	-0.16041157	1.7869509	1.7869519	0	3554.9386678036713
0.30199517	10.	0.09	965.62806	0.0030400853	2.9227803	-0.79252776	-0.16522038	1.8801714	1.8801724	0	3671.73726456804