0.14454398	1.e-12	0.19	16.961072	551.9544	-0.0027362979	-0.018137865	-0.0181369	-0.024234349	0.060679046	0	933.7566667745634
0.14454398	1.0964782e-12	0.19	15.475043	504.24047	-0.0027221286	-0.018175229	-0.01817417	-0.022645649	0.054927372	0	933.7633264137642
0.14454398	1.2022644e-12	0.19	14.11977	460.72083	-0.0027079593	-0.018212594	-0.018211433	-0.021196113	0.04968179	0	933.7699873025869
0.14454398	1.3182567e-12	0.19	12.883748	421.02646	-0.0026937901	-0.018249961	-0.018248688	-0.019873497	0.044897771	0	933.7766495255923
0.14454398	1.4454398e-12	0.19	11.756484	384.82076	-0.0026796209	-0.01828733	-0.018285934	-0.018666633	0.040534703	0	933.7833133552547
0.14454398	1.5848932e-12	0.19	10.728409	351.79678	-0.0026654518	-0.0183247	-0.018323169	-0.017565335	0.036555548	0	933.789979054652
0.14454398	1.7378008e-12	0.19	9.7907952	321.67457	-0.0026512827	-0.018362072	-0.018360394	-0.016560316	0.032926527	0	933.7966465392234
0.14454398	1.9054607e-12	0.19	8.9356831	294.1988	-0.0026371138	-0.018399445	-0.018397605	-0.015643102	0.029616832	0	933.8033163351258
0.14454398	2.0892961e-12	0.19	8.1558139	269.13663	-0.002622945	-0.01843682	-0.018434802	-0.014805969	0.026598366	0	933.8099885363152
0.14454398	2.2908677e-12	0.19	7.4445672	246.27567	-0.0026087766	-0.018474197	-0.018471984	-0.01404187	0.023845506	0	933.8166630394398
0.14454398	2.5118864e-12	0.19	6.7959051	225.42226	-0.0025946085	-0.018511574	-0.018509148	-0.013344377	0.021334881	0	933.8233404740083
0.14454398	2.7542287e-12	0.19	6.204321	206.39973	-0.0025804412	-0.018548952	-0.018546292	-0.012707632	0.019045176	0	933.8300207272729
0.14454398	3.0199517e-12	0.19	5.6647928	189.04698	-0.002566275	-0.01858633	-0.018583413	-0.012126287	0.016956951	0	933.8367040529163
0.14454398	3.3113112e-12	0.19	5.1727402	173.21706	-0.0025521105	-0.018623706	-0.018620508	-0.011595468	0.015052474	0	933.8433904227512
0.14454398	3.6307805e-12	0.19	4.7239856	158.77593	-0.0025379488	-0.018661078	-0.018657572	-0.011110729	0.01331557	0	933.8500796958432
0.14454398	3.9810717e-12	0.19	4.314719	145.60131	-0.0025237914	-0.018698444	-0.018694599	-0.010668015	0.011731483	0	933.8567715339485
0.14454398	4.3651583e-12	0.19	3.9414648	133.58161	-0.002509641	-0.018735796	-0.018731581	-0.010263629	0.010286743	0	933.8634648283802
0.14454398	4.7863009e-12	0.19	3.6010523	122.61494	-0.0024955027	-0.018773125	-0.018768503	-0.0098941972	0.0089690478	0	933.8701574651161
0.14454398	5.2480746e-12	0.19	3.2905834	112.60759	-0.0024813952	-0.018810382	-0.018805315	-0.0095566451	0.0077670555	0	933.876840800155
0.14454398	5.7543994e-12	0.19	3.007352	103.46663	-0.0024674715	-0.018847179	-0.018841623	-0.0092481706	0.0066692721	0	933.8834414158605
0.14454398	6.3095734e-12	0.19	2.7484162	95.050649	-0.0024549086	-0.018880483	-0.018874391	-0.0089662425	0.0056564752	0	933.8893954226921
0.14454398	6.9183097e-12	0.19	2.5104571	87.155129	-0.0024462885	-0.018903647	-0.018896967	-0.0087086468	0.0046994135	0	933.8934643607708
0.14454398	7.5857758e-12	0.19	2.2919378	79.772255	-0.0024409445	-0.018918454	-0.01891113	-0.0084734188	0.0037988506	0	933.8959570558312
0.14454398	8.3176377e-12	0.19	2.0919773	72.956822	-0.0024370257	-0.018929768	-0.018921738	-0.0082586933	0.0029650808	0	933.8977453117706
0.14454398	9.1201084e-12	0.19	1.9093408	66.706761	-0.0024336149	-0.018940073	-0.01893127	-0.0080627094	0.0021995471	0	933.8992483532523
0.14454398	1.e-11	0.19	1.7427101	60.997036	-0.0024301856	-0.018950935	-0.018941283	-0.0078838339	0.0015000309	0	933.9006829098157
0.14454398	1.0964782e-11	0.19	1.5908596	55.801873	-0.0024261785	-0.018964234	-0.018953652	-0.0077205591	0.00086407493	0	933.9022397602049
0.14454398	1.2022644e-11	0.19	1.4527997	51.112937	-0.0024205105	-0.018983865	-0.018972264	-0.0075714872	0.0002917946	0	933.9042426504528
0.14454398	1.3182567e-11	0.19	1.3279078	46.955873	-0.0024110307	-0.019017702	-0.019004984	-0.0074352992	-0.00021154549	0	933.9073084521899
0.14454398	1.4454398e-11	0.19	1.2150025	43.280344	-0.002397835	-0.019065322	-0.01905138	-0.007310751	-0.00065244564	0	933.911424180623
0.14454398	1.5848932e-11	0.19	1.1122824	39.954055	-0.002383755	-0.019116221	-0.019100938	-0.0071967598	-0.001050175	0	933.9158062946241
0.14454398	1.7378008e-11	0.19	1.0186432	36.921133	-0.0023695929	-0.019167428	-0.019150676	-0.0070923856	-0.0014123897	0	933.9202334138054
0.14454398	1.9054607e-11	0.19	0.93326814	34.153454	-0.0023554242	-0.019218664	-0.019200302	-0.0069967794	-0.0017425668	0	933.9246867280688
0.14454398	2.0892961e-11	0.19	0.85543081	31.627559	-0.002341255	-0.019269905	-0.019249781	-0.0069091671	-0.0020435415	0	933.929166754175
0.14454398	2.2908677e-11	0.19	0.78447016	29.32223	-0.0023270857	-0.019321151	-0.019299097	-0.0068288429	-0.0023178722	0	933.9336759725767
0.14454398	2.5118864e-11	0.19	0.71978369	27.218135	-0.0023129164	-0.019372401	-0.019348235	-0.0067551626	-0.0025678887	0	933.9382169670783
0.14454398	2.7542287e-11	0.19	0.66082211	25.297652	-0.0022987471	-0.019423655	-0.019397179	-0.0066875385	-0.0027957143	0	933.9427925939589
0.14454398	3.0199517e-11	0.19	0.60708469	23.544713	-0.0022845778	-0.019474913	-0.01944591	-0.0066254343	-0.0030032844	0	933.9474062450493
0.14454398	3.3113112e-11	0.19	0.55811496	21.944674	-0.0022704085	-0.019526177	-0.019494411	-0.0065683606	-0.003192363	0	933.9520609551454
0.14454398	3.6307805e-11	0.19	0.51349682	20.48418	-0.0022562391	-0.019577445	-0.019542661	-0.0065158707	-0.0033645574	0	933.9567605670696
0.14454398	3.9810717e-11	0.19	0.47285098	19.15106	-0.0022420698	-0.019628718	-0.01959064	-0.006467557	-0.0035213327	0	933.961508463257
0.14454398	4.3651583e-11	0.19	0.43583174	17.934217	-0.0022279005	-0.019679996	-0.019638324	-0.0064230473	-0.0036640237	0	933.9663090220823
0.14454398	4.7863009e-11	0.19	0.40212393	16.823534	-0.0022137312	-0.019731279	-0.01968569	-0.0063820017	-0.003793847	0	933.9711663494463
0.14454398	5.2480746e-11	0.19	0.37144028	15.809786	-0.0021995619	-0.019782568	-0.019732716	-0.00634411	-0.0039119116	0	933.9760843727317
0.14454398	5.7543994e-11	0.19	0.34351883	14.88456	-0.0021853926	-0.019833862	-0.019779376	-0.0063090886	-0.0040192283	0	933.9810677333916
0.14454398	6.3095734e-11	0.19	0.31812069	14.040179	-0.0021712233	-0.019885162	-0.019825646	-0.0062766788	-0.0041167191	0	933.9861207158439
0.14454398	6.9183097e-11	0.19	0.29502791	13.269638	-0.002157054	-0.019936467	-0.019871502	-0.0062466441	-0.0042052254	0	933.9912476045066
0.14454398	7.5857758e-11	0.19	0.27404152	12.566537	-0.0021428847	-0.019987779	-0.019916922	-0.0062187682	-0.0042855155	0	933.9964523267628
0.14454398	8.3176377e-11	0.19	0.25497978	11.925024	-0.0021287154	-0.020039097	-0.019961884	-0.0061928539	-0.0043582923	0	934.0017388099959
0.14454398	9.1201084e-11	0.19	0.23767647	11.339746	-0.002114546	-0.020090422	-0.02000637	-0.0061687206	-0.004424199	0	934.0071103614757
0.14454398	1.e-10	0.19	0.22197948	10.805796	-0.0021003767	-0.020141753	-0.020050365	-0.0061462036	-0.0044838256	0	934.0125694710507
0.14454398	1.0964782e-10	0.19	0.20774933	10.31867	-0.0020862074	-0.020193091	-0.020093857	-0.0061251525	-0.0045377145	0	934.0181183748861
0.14454398	1.2022644e-10	0.19	0.19485804	9.8742294	-0.0020720381	-0.020244437	-0.020136841	-0.0061054295	-0.004586365	0	934.0237579655688
0.14454398	1.3182567e-10	0.19	0.18318795	9.4686632	-0.0020578688	-0.020295789	-0.020179315	-0.0060869096	-0.0046302379	0	934.0294886001342
0.14454398	1.4454398e-10	0.19	0.1726308	9.0984602	-0.0020436995	-0.020347149	-0.020221284	-0.0060694782	-0.0046697591	0	934.035309385995
0.14454398	1.5848932e-10	0.19	0.16308687	8.7603816	-0.0020295301	-0.020398517	-0.020262759	-0.0060530313	-0.0047053226	0	934.0412184534159
0.14454398	1.7378008e-10	0.19	0.15446432	8.4514393	-0.0020153608	-0.020449893	-0.020303755	-0.0060374741	-0.0047372935	0	934.0472129367228
0.14454398	1.9054607e-10	0.19	0.14667852	8.1688785	-0.0020011915	-0.020501277	-0.020344293	-0.0060227204	-0.0047660093	0	934.0532891810064
0.14454398	2.0892961e-10	0.19	0.13965164	7.9101628	-0.0019870222	-0.02055267	-0.020384398	-0.0060086922	-0.0047917823	0	934.0594427233314
0.14454398	2.2908677e-10	0.19	0.13331215	7.6729618	-0.0019728529	-0.020604072	-0.020424098	-0.0059953185	-0.0048148999	0	934.0656685652102
0.14454398	2.5118864e-10	0.19	0.12759453	7.4551401	-0.0019586835	-0.020655482	-0.020463422	-0.0059825353	-0.0048356267	0	934.0719616235941
0.14454398	2.7542287e-10	0.19	0.12243887	7.2547476	-0.0019445142	-0.020706902	-0.0205024	-0.0059702846	-0.0048542046	0	934.0783163550474
0.14454398	3.0199517e-10	0.19	0.11779056	7.0700102	-0.0019303449	-0.020758332	-0.020541063	-0.0059585139	-0.0048708542	0	934.084727319487
0.14454398	3.3113112e-10	0.19	0.11360002	6.8993188	-0.0019161756	-0.020809771	-0.02057944	-0.0059471761	-0.0048857758	0	934.0911893399078
0.14454398	3.6307805e-10	0.19	0.10982233	6.7412198	-0.0019020062	-0.020861221	-0.020617558	-0.0059362286	-0.0048991504	0	934.097697690296
0.14454398	3.9810717e-10	0.19	0.10641694	6.5944046	-0.0018878369	-0.020912681	-0.020655442	-0.0059256327	-0.0049111407	0	934.104247719803
0.14454398	4.3651583e-10	0.19	0.10334731	6.457698	-0.0018736676	-0.020964152	-0.020693114	-0.005915354	-0.0049218932	0	934.1108355950023
0.14454398	4.7863009e-10	0.19	0.10058063	6.330048	-0.0018594982	-0.021015635	-0.020730593	-0.0059053611	-0.0049315381	0	934.1174580180198
0.14454398	5.2480746e-10	0.19	0.098087461	6.2105141	-0.0018453289	-0.021067129	-0.020767896	-0.0058956256	-0.0049401919	0	934.1241117661457
0.14454398	5.7543994e-10	0.19	0.095841467	6.098257	-0.0018311595	-0.021118635	-0.020805035	-0.0058861224	-0.0049479584	0	934.1307948850846
0.14454398	6.3095734e-10	0.19	0.093819096	5.9925293	-0.0018169902	-0.021170154	-0.020842022	-0.0058768281	-0.0049549295	0	934.1375050447143
0.14454398	6.9183097e-10	0.19	0.091999326	5.8926649	-0.0018028208	-0.021221685	-0.020878865	-0.005867722	-0.0049611867	0	934.1442410048084
0.14454398	7.5857758e-10	0.19	0.090363406	5.7980714	-0.0017886515	-0.021273229	-0.020915568	-0.0058587852	-0.0049668022	0	934.1510018633844
0.14454398	8.3176377e-10	0.19	0.088894628	5.7082211	-0.0017744821	-0.021324787	-0.020952135	-0.0058500004	-0.0049718401	0	934.1577870942856
0.14454398	9.1201084e-10	0.19	0.087578123	5.6226447	-0.0017603128	-0.021376358	-0.020988568	-0.0058413519	-0.0049763568	0	934.164596152564
0.14454398	1.e-9	0.19	0.086400665	5.5409243	-0.0017461434	-0.021427944	-0.021024864	-0.0058328256	-0.0049804025	0	934.171429761685
0.14454398	1.0964782e-9	0.19	0.085350512	5.462688	-0.001731974	-0.021479545	-0.021061021	-0.0058244084	-0.0049840213	0	934.1782881847269
0.14454398	1.2022644e-9	0.19	0.084417243	5.3876043	-0.0017178046	-0.021531161	-0.021097035	-0.0058160884	-0.0049872523	0	934.1851721357592
0.14454398	1.3182567e-9	0.19	0.083591637	5.3153778	-0.0017036353	-0.021582793	-0.021132899	-0.0058078545	-0.0049901298	0	934.1920827704478
0.14454398	1.4454398e-9	0.19	0.082865542	5.2457453	-0.0016894659	-0.021634442	-0.021168606	-0.0057996966	-0.0049926842	0	934.199021526327
0.14454398	1.5848932e-9	0.19	0.082231773	5.1784719	-0.0016752965	-0.021686107	-0.021204146	-0.0057916053	-0.0049949423	0	934.205990094615
0.14454398	1.7378008e-9	0.19	0.081684018	5.1133481	-0.001661127	-0.021737789	-0.021239509	-0.0057835718	-0.0049969275	0	934.2129903544421
0.14454398	1.9054607e-9	0.19	0.08121675	5.0501868	-0.0016469576	-0.021789489	-0.021274682	-0.0057755881	-0.0049986606	0	934.2200244386217
0.14454398	2.0892961e-9	0.19	0.080825158	4.9888215	-0.0016327882	-0.021841208	-0.021309653	-0.0057676464	-0.0050001595	0	934.2270945833197
0.14454398	2.2908677e-9	0.19	0.080505069	4.9291032	-0.0016186187	-0.021892945	-0.021344408	-0.0057597394	-0.0050014397	0	934.2342033817359
0.14454398	2.5118864e-9	0.19	0.080252894	4.8708986	-0.0016044493	-0.021944702	-0.021378929	-0.0057518606	-0.0050025151	0	934.2413538592713
0.14454398	2.7542287e-9	0.19	0.080065571	4.8140895	-0.0015902798	-0.02199648	-0.0214132	-0.0057440033	-0.0050033974	0	934.2485490601173
0.14454398	3.0199517e-9	0.19	0.079940517	4.7585697	-0.0015761103	-0.022048278	-0.021447203	-0.0057361614	-0.0050040967	0	934.2557921036309
0.14454398	3.3113112e-9	0.19	0.079875577	4.7042451	-0.0015619408	-0.022100098	-0.021480918	-0.0057283286	-0.0050046213	0	934.2630865601603
0.14454398	3.6307805e-9	0.19	0.079868982	4.6510311	-0.0015477713	-0.022151939	-0.021514325	-0.0057204994	-0.0050049786	0	934.2704360000541
0.14454398	3.9810717e-9	0.19	0.079919317	4.5988526	-0.0015336018	-0.022203804	-0.021547402	-0.005712668	-0.0050051744	0	934.2778443506954
0.14454398	4.3651583e-9	0.19	0.080025475	4.5476426	-0.0015194322	-0.022255692	-0.021580126	-0.005704829	-0.0050052136	0	934.2853158119414
0.14454398	4.7863009e-9	0.19	0.080186634	4.4973414	-0.0015052626	-0.022307604	-0.021612473	-0.0056969768	-0.0050050998	0	934.2928545742532
0.14454398	5.2480746e-9	0.19	0.080402209	4.4478951	-0.001491093	-0.022359542	-0.021644418	-0.0056891062	-0.0050048361	0	934.3004651005663
0.14454398	5.7543994e-9	0.19	0.08067184	4.3992562	-0.0014769234	-0.022411505	-0.021675935	-0.0056812118	-0.0050044244	0	934.308152032334
0.14454398	6.3095734e-9	0.19	0.080995354	4.3513818	-0.0014627537	-0.022463495	-0.021706997	-0.0056732882	-0.0050038659	0	934.3159202834825
0.14454398	6.9183097e-9	0.19	0.081372738	4.3042332	-0.001448584	-0.022515513	-0.021737577	-0.0056653304	-0.0050031615	0	934.3237745800259
0.14454398	7.5857758e-9	0.19	0.081804123	4.2577761	-0.0014344142	-0.022567559	-0.021767646	-0.0056573329	-0.005002311	0	934.3317201929256
0.14454398	8.3176377e-9	0.19	0.082289752	4.211979	-0.0014202445	-0.022619634	-0.021797175	-0.0056492905	-0.0050013141	0	934.3397621112736
0.14454398	9.1201084e-9	0.19	0.082829969	4.1668134	-0.0014060746	-0.022671739	-0.021826134	-0.0056411978	-0.0050001697	0	934.3479059724621
0.14454398	1.e-8	0.19	0.083425192	4.1222533	-0.0013919047	-0.022723876	-0.021854492	-0.0056330495	-0.0049988766	0	934.356157122618
0.14454398	1.0964782e-8	0.19	0.084075905	4.0782748	-0.0013777348	-0.022776044	-0.021882218	-0.0056248401	-0.0049974329	0	934.3645210957811
0.14454398	1.2022644e-8	0.19	0.084782638	4.0348559	-0.0013635648	-0.022828246	-0.02190928	-0.005616564	-0.0049958365	0	934.3730036984653
0.14454398	1.3182567e-8	0.19	0.085545956	3.9919756	-0.0013493947	-0.022880482	-0.021935647	-0.0056082161	-0.0049940852	0	934.3816104647105
0.14454398	1.4454398e-8	0.19	0.086366455	3.9496146	-0.0013352246	-0.022932753	-0.021961285	-0.0055997905	-0.0049921766	0	934.3903473701522
0.14454398	1.5848932e-8	0.19	0.087244749	3.9077546	-0.0013210544	-0.02298506	-0.021986162	-0.0055912816	-0.0049901075	0	934.3992202213045
0.14454398	1.7378008e-8	0.19	0.088181466	3.8663778	-0.0013068841	-0.023037405	-0.022010243	-0.0055826838	-0.0049878751	0	934.4082352662768
0.14454398	1.9054607e-8	0.19	0.089177246	3.8254676	-0.0012927137	-0.023089789	-0.022033496	-0.0055739912	-0.0049854762	0	934.4173982176267
0.14454398	2.0892961e-8	0.19	0.090232737	3.7850075	-0.0012785432	-0.023142213	-0.022055886	-0.0055651981	-0.0049829076	0	934.4267153234634
0.14454398	2.2908677e-8	0.19	0.091348601	3.7449818	-0.0012643726	-0.023194677	-0.022077378	-0.0055562986	-0.0049801657	0	934.4361928318966
0.14454398	2.5118864e-8	0.19	0.092525507	3.705375	-0.0012502018	-0.023247185	-0.022097937	-0.0055472868	-0.004977247	0	934.4458370849926
0.14454398	2.7542287e-8	0.19	0.093764141	3.6661721	-0.001236031	-0.023299736	-0.022117528	-0.0055381565	-0.0049741477	0	934.4556541429477
0.14454398	3.0199517e-8	0.19	0.09506521	3.6273585	-0.00122186	-0.023352333	-0.022136115	-0.0055289018	-0.0049708642	0	934.4656506203021
0.14454398	3.3113112e-8	0.19	0.096429441	3.5889198	-0.0012076888	-0.023404976	-0.022153661	-0.0055195164	-0.0049673923	0	934.4758331222001
0.14454398	3.6307805e-8	0.19	0.097857594	3.5508421	-0.0011935174	-0.023457667	-0.022170131	-0.0055099942	-0.0049637279	0	934.4862078967514
0.14454398	3.9810717e-8	0.19	0.099350458	3.5131114	-0.0011793458	-0.023510409	-0.022185485	-0.0055003288	-0.0049598671	0	934.4967820846525
0.14454398	4.3651583e-8	0.19	0.10090887	3.4757142	-0.0011651741	-0.023563201	-0.022199686	-0.0054905139	-0.0049558054	0	934.5075621970913
0.14454398	4.7863009e-8	0.19	0.10253371	3.4386378	-0.001151002	-0.023616047	-0.022212695	-0.0054805429	-0.0049515383	0	934.5185554781168
0.14454398	5.2480746e-8	0.19	0.1042259	3.4018691	-0.0011368298	-0.023668947	-0.022224472	-0.0054704094	-0.0049470613	0	934.5297687865561
0.14454398	5.7543994e-8	0.19	0.10598645	3.3653957	-0.0011226572	-0.023721904	-0.022234978	-0.0054601066	-0.0049423697	0	934.5412093664577
0.14454398	6.3095734e-8	0.19	0.10781641	3.3292057	-0.0011084843	-0.023774919	-0.02224417	-0.0054496279	-0.0049374585	0	934.5528848001143
0.14454398	6.9183097e-8	0.19	0.10971689	3.2932872	-0.0010943111	-0.023827995	-0.022252006	-0.0054389663	-0.0049323227	0	934.5648025852571
0.14454398	7.5857758e-8	0.19	0.11168912	3.2576292	-0.0010801375	-0.023881132	-0.022258444	-0.005428115	-0.004926957	0	934.5769703135745
0.14454398	8.3176377e-8	0.19	0.11373435	3.2222206	-0.0010659635	-0.023934334	-0.022263438	-0.0054170667	-0.004921356	0	934.5893961968674
0.14454398	9.1201084e-8	0.19	0.11585396	3.187051	-0.001051789	-0.023987602	-0.022266944	-0.0054058143	-0.0049155142	0	934.6020881838587
0.14454398	1.e-7	0.19	0.11804939	3.1521104	-0.0010376141	-0.024040939	-0.022268915	-0.0053943504	-0.0049094256	0	934.6150545709105
0.14454398	1.0964782e-7	0.19	0.12032218	3.117389	-0.0010234386	-0.024094346	-0.022269303	-0.0053826675	-0.0049030843	0	934.6283041147717
0.14454398	1.2022644e-7	0.19	0.12267396	3.0828776	-0.0010092625	-0.024147826	-0.022268058	-0.005370758	-0.0048964841	0	934.6418457413135
0.14454398	1.3182567e-7	0.19	0.12510645	3.0485674	-0.00099508571	-0.024201382	-0.022265131	-0.005358614	-0.0048896184	0	934.6556882824499
0.14454398	1.4454398e-7	0.19	0.12762148	3.01445	-0.00098090824	-0.024255016	-0.022260468	-0.0053462276	-0.0048824806	0	934.6698413687257
0.14454398	1.5848932e-7	0.19	0.13022097	2.9805172	-0.00096672999	-0.02430873	-0.022254018	-0.0053335904	-0.0048750637	0	934.6843141984857
0.14454398	1.7378008e-7	0.19	0.13290695	2.9467614	-0.00095255088	-0.024362528	-0.022245724	-0.0053206942	-0.0048673606	0	934.6991170223879
0.14454398	1.9054607e-7	0.19	0.13568154	2.9131753	-0.00093837082	-0.024416411	-0.02223553	-0.0053075304	-0.0048593636	0	934.7142599219686
0.14454398	2.0892961e-7	0.19	0.13854699	2.879752	-0.00092418972	-0.024470384	-0.022223378	-0.0052940901	-0.0048510653	0	934.7297533357989
0.14454398	2.2908677e-7	0.19	0.14150564	2.8464846	-0.00091000749	-0.024524449	-0.022209208	-0.0052803645	-0.0048424575	0	934.7456080594844
0.14454398	2.5118864e-7	0.19	0.14455993	2.8133671	-0.00089582401	-0.024578609	-0.022192957	-0.0052663441	-0.004833532	0	934.7618354523704
0.14454398	2.7542287e-7	0.19	0.14771244	2.7803934	-0.00088163917	-0.024632867	-0.022174562	-0.0052520195	-0.00482428	0	934.7784468644063
0.14454398	3.0199517e-7	0.19	0.15096585	2.7475578	-0.00086745283	-0.024687227	-0.022153957	-0.005237381	-0.0048146931	0	934.7954542092805
0.14454398	3.3113112e-7	0.19	0.15432294	2.7148549	-0.00085326485	-0.024741692	-0.022131075	-0.0052224185	-0.0048047616	0	934.8128695791993
0.14454398	3.6307805e-7	0.19	0.15778662	2.6822795	-0.00083907507	-0.024796266	-0.022105846	-0.0052071217	-0.0047944763	0	934.8307056207124
0.14454398	3.9810717e-7	0.19	0.16135993	2.6498269	-0.00082488332	-0.024850953	-0.022078199	-0.00519148	-0.0047838271	0	934.8489751682822
0.14454398	4.3651583e-7	0.19	0.16504602	2.6174923	-0.0008106894	-0.024905757	-0.022048058	-0.0051754825	-0.004772804	0	934.8676919771456
0.14454398	4.7863009e-7	0.19	0.16884816	2.5852714	-0.00079649311	-0.024960682	-0.022015348	-0.0051591181	-0.0047613965	0	934.8868696240219
0.14454398	5.2480746e-7	0.19	0.17276976	2.55316	-0.00078229422	-0.025015732	-0.02197999	-0.005142375	-0.0047495935	0	934.906522427887
0.14454398	5.7543994e-7	0.19	0.17681434	2.5211541	-0.00076809247	-0.025070912	-0.021941904	-0.0051252415	-0.0047373838	0	934.9266649144212
0.14454398	6.3095734e-7	0.19	0.18098557	2.48925	-0.0007538876	-0.025126226	-0.021901005	-0.0051077055	-0.004724756	0	934.9473125018918
0.14454398	6.9183097e-7	0.19	0.18528726	2.457444	-0.0007396793	-0.02518168	-0.021857208	-0.0050897541	-0.0047116977	0	934.9684806555447
0.14454398	7.5857758e-7	0.19	0.18972332	2.4257329	-0.00072546723	-0.025237279	-0.021810424	-0.0050713745	-0.0046981966	0	934.990185582882
0.14454398	8.3176377e-7	0.19	0.19429785	2.3941134	-0.00071125105	-0.025293027	-0.021760562	-0.0050525533	-0.0046842398	0	935.0124438484409
0.14454398	9.1201084e-7	0.19	0.19901507	2.3625824	-0.00069703034	-0.025348931	-0.021707528	-0.0050332767	-0.0046698139	0	935.0352726274759
0.14454398	1.e-6	0.19	0.20387935	2.3311371	-0.00068280468	-0.025404996	-0.021651224	-0.0050135305	-0.0046549053	0	935.0586898093113
0.14454398	1.0964782e-6	0.19	0.20889522	2.2997747	-0.00066857359	-0.02546123	-0.021591552	-0.0049933001	-0.0046394997	0	935.0827133396455
0.14454398	1.2022644e-6	0.19	0.21406736	2.2684927	-0.00065433653	-0.025517637	-0.021528407	-0.0049725704	-0.0046235825	0	935.1073624701722
0.14454398	1.3182567e-6	0.19	0.21940061	2.2372886	-0.00064009295	-0.025574226	-0.021461684	-0.0049513258	-0.0046071384	0	935.1326564619814
0.14454398	1.4454398e-6	0.19	0.22489999	2.2061601	-0.0006258422	-0.025631003	-0.021391274	-0.0049295503	-0.0045901517	0	935.1586153841887
0.14454398	1.5848932e-6	0.19	0.23057068	2.1751051	-0.00061158361	-0.025687975	-0.021317065	-0.0049072274	-0.0045726064	0	935.1852598602535
0.14454398	1.7378008e-6	0.19	0.23641804	2.1441216	-0.0005973164	-0.025745152	-0.02123894	-0.00488434	-0.0045544855	0	935.2126115095748
0.14454398	1.9054607e-6	0.19	0.24244762	2.1132077	-0.00058303975	-0.025802541	-0.021156781	-0.0048608704	-0.0045357718	0	935.2406921676511
0.14454398	2.0892961e-6	0.19	0.24866513	2.0823616	-0.00056875275	-0.02586015	-0.021070464	-0.0048368006	-0.0045164474	0	935.2695248256465
0.14454398	2.2908677e-6	0.19	0.25507652	2.0515816	-0.00055445441	-0.02591799	-0.020979863	-0.004812112	-0.0044964939	0	935.2991329069254
0.14454398	2.5118864e-6	0.19	0.26168789	2.0208664	-0.00054014363	-0.02597607	-0.020884849	-0.004786785	-0.0044758923	0	935.3295404737562
0.14454398	2.7542287e-6	0.19	0.26850558	1.9902146	-0.00052581921	-0.026034401	-0.020785286	-0.0047607999	-0.0044546227	0	935.360772931986
0.14454398	3.0199517e-6	0.19	0.27553614	1.9596248	-0.00051147984	-0.026092993	-0.020681037	-0.0047341361	-0.0044326648	0	935.3928559693315
0.14454398	3.3113112e-6	0.19	0.28278632	1.9290961	-0.00049712408	-0.026151859	-0.020571961	-0.0047067724	-0.0044099977	0	935.4258161097226
0.14454398	3.6307805e-6	0.19	0.29026313	1.8986274	-0.00048275036	-0.02621101	-0.020457911	-0.0046786869	-0.0043865996	0	935.4596810703371
0.14454398	3.9810717e-6	0.19	0.2979738	1.868218	-0.00046835693	-0.02627046	-0.020338738	-0.0046498571	-0.004362448	0	935.4944790945093
0.14454398	4.3651583e-6	0.19	0.3059258	1.8378671	-0.00045394191	-0.026330222	-0.020214285	-0.0046202597	-0.0043375198	0	935.5302399758564
0.14454398	4.7863009e-6	0.19	0.31412687	1.8075742	-0.00043950322	-0.026390312	-0.020084396	-0.0045898706	-0.004311791	0	935.5669935173917
0.14454398	5.2480746e-6	0.19	0.32258499	1.777339	-0.00042503859	-0.026450746	-0.019948906	-0.004558665	-0.0042852368	0	935.6047713073018
0.14454398	5.7543994e-6	0.19	0.33130844	1.7471612	-0.00041054551	-0.026511539	-0.019807648	-0.0045266174	-0.0042578318	0	935.6436055163045
0.14454398	6.3095734e-6	0.19	0.34030577	1.7170407	-0.00039602126	-0.02657271	-0.019660448	-0.0044937013	-0.0042295494	0	935.683529762048
0.14454398	6.9183097e-6	0.19	0.34958582	1.6869778	-0.00038146284	-0.026634279	-0.01950713	-0.0044598894	-0.0042003625	0	935.7245782822938
0.14454398	7.5857758e-6	0.19	0.35915775	1.6569727	-0.00036686696	-0.026696264	-0.019347511	-0.0044251536	-0.0041702427	0	935.7667868368987
0.14454398	8.3176377e-6	0.19	0.36903102	1.627026	-0.00035223003	-0.026758689	-0.019181405	-0.0043894647	-0.0041391609	0	935.8101920031424
0.14454398	9.1201084e-6	0.19	0.37921545	1.5971382	-0.00033754812	-0.026821576	-0.019008618	-0.0043527929	-0.0041070871	0	935.8548321058951
0.14454398	0.00001	0.19	0.38972116	1.5673105	-0.00032281689	-0.026884951	-0.018828955	-0.004315107	-0.0040739899	0	935.9007460337664
0.14454398	0.000010964782	0.19	0.40055866	1.537544	-0.00030803164	-0.02694884	-0.018642211	-0.0042763752	-0.0040398374	0	935.9479747987843
0.14454398	0.000012022644	0.19	0.41173884	1.50784	-0.00029318718	-0.027013271	-0.018448181	-0.0042365642	-0.0040045961	0	935.9965598733634
0.14454398	0.000013182567	0.19	0.42327294	1.4782003	-0.00027827785	-0.027078276	-0.01824665	-0.00419564	-0.0039682317	0	936.046544956688
0.14454398	0.000014454398	0.19	0.43517264	1.448627	-0.00026329742	-0.027143887	-0.0180374	-0.0041535673	-0.0039307086	0	936.0979748190465
0.14454398	0.000015848932	0.19	0.44745004	1.4191222	-0.00024823913	-0.02721014	-0.017820209	-0.0041103097	-0.0038919901	0	936.1508954427677
0.14454398	0.000017378008	0.19	0.46011765	1.3896886	-0.00023309552	-0.027277073	-0.017594846	-0.0040658296	-0.003852038	0	936.2053550745325
0.14454398	0.000019054607	0.19	0.47318847	1.3603291	-0.00021785846	-0.027344726	-0.017361077	-0.0040200881	-0.0038108132	0	936.2614031260822
0.14454398	0.000020892961	0.19	0.48667597	1.3310473	-0.00020251903	-0.027413145	-0.017118663	-0.0039730449	-0.0037682748	0	936.3190906440022
0.14454398	0.000022908677	0.19	0.50059411	1.3018469	-0.00018706748	-0.027482376	-0.016867357	-0.0039246585	-0.0037243807	0	936.378470882857
0.14454398	0.000025118864	0.19	0.5149574	1.2727319	-0.00017149317	-0.02755247	-0.016606908	-0.0038748861	-0.0036790874	0	936.4395986474932
0.14454398	0.000027542287	0.19	0.52978087	1.2437073	-0.00015578444	-0.027623483	-0.016337061	-0.0038236833	-0.0036323498	0	936.502530415184
0.14454398	0.000030199517	0.19	0.54508015	1.2147781	-0.00013992854	-0.027695475	-0.016057552	-0.0037710042	-0.0035841212	0	936.5673252939854
0.14454398	0.000033113112	0.19	0.56087145	1.1859501	-0.00012391153	-0.027768508	-0.015768116	-0.0037168014	-0.0035343532	0	936.6340436885542
0.14454398	0.000036307805	0.19	0.57644864	1.157213	-0.00011271722	-0.027824444	-0.01545027	-0.0036617954	-0.0034837682	0	936.7013025211123
0.14454398	0.000039810717	0.19	0.59320546	1.1286055	-0.00009681302	-0.027898019	-0.015138399	-0.0036044705	-0.0034308443	0	936.771919961553
0.14454398	0.000043651583	0.19	0.61050012	1.1001199	-0.000080744185	-0.027972693	-0.014815599	-0.0035454767	-0.0033762328	0	936.84464310418
0.14454398	0.000047863009	0.19	0.62835089	1.0717646	-0.000064495365	-0.028048535	-0.014481566	-0.0034847605	-0.0033198788	0	936.9195406406162
0.14454398	0.000052480746	0.19	0.64677674	1.0435486	-0.000048049845	-0.028125623	-0.014135989	-0.0034222664	-0.0032617255	0	936.9966837946129
0.14454398	0.000057543994	0.19	0.66579736	1.0154818	-0.000031389422	-0.028204037	-0.013778552	-0.0033579371	-0.003201714	0	937.0761460805815
0.14454398	0.000063095734	0.19	0.68543319	0.98757477	-0.000014494274	-0.028283868	-0.013408933	-0.0032917132	-0.0031397833	0	937.1580036051946
0.14454398	0.000069183097	0.19	0.7057055	0.95983909	2.6571362e-6	-0.02836521	-0.013026804	-0.0032235334	-0.0030758705	0	937.2423351577719
0.14454398	0.000075857758	0.19	0.72663634	0.93228721	0.000020088225	-0.028448165	-0.012631829	-0.0031533343	-0.00300991	0	937.3292227214033
0.14454398	0.000083176377	0.19	0.74824864	0.90493253	0.000037824424	-0.028532843	-0.012223669	-0.0030810502	-0.0029418342	0	937.418750708143
0.14454398	0.000091201084	0.19	0.77056622	0.87778946	0.00005589333	-0.028619365	-0.011801979	-0.0030066131	-0.0028715728	0	937.5110066354968
0.14454398	0.0001	0.19	0.79361386	0.85087337	0.000074324828	-0.028707856	-0.011366405	-0.0029299527	-0.0027990532	0	937.6060817775408
0.14454398	0.00010964782	0.19	0.81741729	0.82420068	0.0000931513	-0.028798454	-0.010916591	-0.0028509962	-0.0027242	0	937.7040701114803
0.14454398	0.00012022644	0.19	0.84200328	0.79778883	0.00011240775	-0.028891305	-0.010452175	-0.0027696681	-0.0026469352	0	937.8050691491658
0.14454398	0.00013182567	0.19	0.86739962	0.77165632	0.00013213202	-0.028986568	-0.0099727897	-0.0026858904	-0.0025671778	0	937.9091800150758
0.14454398	0.00014454398	0.19	0.89363522	0.74582261	0.0001523649	-0.029084412	-0.0094780616	-0.0025995823	-0.002484844	0	938.0165077103362
0.14454398	0.00015848932	0.19	0.92074011	0.72030819	0.00017315038	-0.029185017	-0.0089676137	-0.0025106601	-0.0023998469	0	938.1271608674933
0.14454398	0.00017378008	0.19	0.94874549	0.69513442	0.00019453576	-0.029288578	-0.0084410633	-0.0024190369	-0.0023120965	0	938.2412522466029
0.14454398	0.00019054607	0.19	0.9776838	0.67032352	0.00021657184	-0.029395301	-0.0078980238	-0.002324623	-0.0022214996	0	938.3588985924182
0.14454398	0.00020892961	0.19	1.0075887	0.64589846	0.00023931313	-0.029505407	-0.0073381034	-0.0022273252	-0.0021279594	0	938.4802210637703
0.14454398	0.00022908677	0.19	1.0384951	0.62188276	0.00026281797	-0.029619131	-0.0067609054	-0.0021270471	-0.0020313758	0	938.6053452927604
0.14454398	0.00025118864	0.19	1.0704393	0.59830041	0.00028714866	-0.029736723	-0.0061660288	-0.0020236888	-0.0019316455	0	938.7344013997944
0.14454398	0.00027542287	0.19	1.1034589	0.57517563	0.00031237169	-0.02985845	-0.0055530678	-0.0019171466	-0.0018286609	0	938.8675242989397
0.14454398	0.00030199517	0.19	1.1375929	0.55253264	0.00033855782	-0.029984592	-0.0049216112	-0.0018073134	-0.001722311	0	939.004853880202
0.14454398	0.00033113112	0.19	1.1728817	0.5303954	0.00036578219	-0.030115448	-0.0042712432	-0.0016940777	-0.001612481	0	939.146534970064
0.14454398	0.00036307805	0.19	1.2093673	0.50878733	0.00039412443	-0.030251332	-0.0036015414	-0.0015773245	-0.001499052	0	939.2927177918708
0.14454398	0.00039810717	0.19	1.2470927	0.48773097	0.00042366879	-0.030392576	-0.0029120787	-0.0014569343	-0.0013819011	0	939.4435577487918
0.14454398	0.00043651583	0.19	1.2861029	0.46724764	0.00045450415	-0.030539528	-0.0022024208	-0.0013327834	-0.0012609014	0	939.5992158795093
0.14454398	0.00047863009	0.19	1.3264441	0.44735712	0.00048672413	-0.030692556	-0.0014721264	-0.0012047435	-0.0011359215	0	939.7598589258674
0.14454398	0.00052480746	0.19	1.3681642	0.4280772	0.00052042705	-0.030852042	-0.00072074586	-0.0010726818	-0.0010068259	0	939.9256595345026
0.14454398	0.00057543994	0.19	1.4113124	0.40942344	0.0005557161	-0.031018387	0.000052177557	-0.0009364609	-0.00087347466	0	940.0967961946722
0.14454398	0.00063095734	0.19	1.4559397	0.39140876	0.00059269923	-0.031192011	0.00084711116	-0.00079593819	-0.00073572335	0	940.2734537552512
0.14454398	0.00069183097	0.19	1.5020986	0.37404317	0.00063148932	-0.031373348	0.0016645316	-0.0006509661	-0.00059342281	0	940.4558233648816
0.14454398	0.00075857758	0.19	1.5498432	0.35733353	0.00067220408	-0.031562854	0.0025049269	-0.00050139191	-0.00044641925	0	940.644102740406
0.14454398	0.00083176377	0.19	1.5992294	0.34128337	0.00071496619	-0.031760999	0.0033687965	-0.00034705744	-0.00029455395	0	940.8384963064399
0.14454398	0.00091201084	0.19	1.6503149	0.32589279	0.00075990347	-0.031968272	0.0042566524	-0.00018779891	-0.00013766313	0	941.0392155591435
0.14454398	0.001	0.19	1.7031589	0.31115845	0.0008071488	-0.032185181	0.0051690191	-0.000023446926	0.000024422102	0	941.2464789803454
0.14454398	0.0010964782	0.19	1.7578229	0.29707363	0.00085684051	-0.03241225	0.0061064365	0.00014617396	0.00019187616	0	941.4605129216736
0.14454398	0.0012022644	0.19	1.8143702	0.28362842	0.00090912246	-0.032650027	0.0070694563	0.0003212452	0.00036487897	0	941.6815510370584
0.14454398	0.0013182567	0.19	1.8728662	0.27080993	0.00096414435	-0.032899074	0.0080586462	0.0005019546	0.00054361636	0	941.9098353237697
0.14454398	0.0014454398	0.19	1.9333787	0.25860263	0.0010220621	-0.033159977	0.0090745879	0.0006884965	0.00072828027	0	942.1456161224185
0.14454398	0.0015848932	0.19	1.9959779	0.24698873	0.0010830383	-0.033433344	0.010117878	0.00088107201	0.00091906908	0	942.3891527004251
0.14454398	0.0017378008	0.19	2.0607367	0.23594856	0.0011472426	-0.033719806	0.011189126	0.0010798892	0.0011161878	0	942.640713261417
0.14454398	0.0019054607	0.19	2.1277307	0.22546098	0.0012148524	-0.034020019	0.012288955	0.0012851635	0.0013198487	0	942.9005757184891
0.14454398	0.0020892961	0.19	2.1970387	0.21550381	0.0012860536	-0.034334665	0.013418003	0.0014971178	0.0015302712	0	943.1690286309519
0.14454398	0.0022908677	0.19	2.2687428	0.20605424	0.0013610409	-0.034664457	0.014576919	0.001715983	0.0017476826	0	943.4463707899826
0.14454398	0.0025118864	0.19	2.3429287	0.19708909	0.0014400197	-0.03501014	0.015766362	0.001941998	0.0019723185	0	943.7329128252811
0.14454398	0.0027542287	0.19	2.4196861	0.18858521	0.0015232059	-0.035372491	0.016986999	0.0021754106	0.0022044228	0	944.0289766601238
0.14454398	0.0030199517	0.19	2.4991091	0.18051969	0.0016108279	-0.035752327	0.018239506	0.0024164775	0.0024442489	0	944.3348975690096
0.14454398	0.0033113112	0.19	2.5812965	0.17287001	0.0017031281	-0.036150509	0.019524563	0.0026654647	0.0026920592	0	944.6510246944227
0.14454398	0.0036307805	0.19	2.6663523	0.16561429	0.0018003639	-0.036567942	0.02084285	0.0029226482	0.0029481265	0	944.9777212723278
0.14454398	0.0039810717	0.19	2.7543866	0.15873131	0.0019028102	-0.037005584	0.022195045	0.0031883146	0.0032127341	0	945.3153666240479
0.14454398	0.0043651583	0.19	2.8455158	0.15220064	0.0020107614	-0.037464455	0.023581816	0.0034627615	0.0034861763	0	945.664356607256
0.14454398	0.0047863009	0.19	2.9398637	0.14600265	0.0021245343	-0.037945638	0.025003818	0.0037462984	0.0037687596	0	946.0251058051628
0.14454398	0.0052480746	0.19	3.0375624	0.14011855	0.002244471	-0.038450295	0.026461685	0.004039247	0.004060803	0	946.3980488231167
0.14454398	0.0057543994	0.19	3.1387532	0.13453039	0.0023709436	-0.038979677	0.027956016	0.0043419428	0.0043626391	0	946.7836422053168
0.14454398	0.0063095734	0.19	3.2435883	0.12922106	0.0025043576	-0.039535133	0.029487368	0.0046547354	0.0046746149	0	947.1823663797139
0.14454398	0.0069183097	0.19	3.3522321	0.12417424	0.0026451585	-0.040118132	0.031056241	0.0049779901	0.0049970932	0	947.5947291813794
0.14454398	0.0075857758	0.19	3.4648631	0.11937443	0.0027938376	-0.040730278	0.032663057	0.0053120887	0.0053304534	0	948.0212675531195
0.14454398	0.0083176377	0.19	3.5816759	0.11480687	0.0029509405	-0.041373337	0.034308144	0.0056574316	0.0056750936	0	948.4625526755018
0.14454398	0.0091201084	0.19	3.7028848	0.11045753	0.0031170758	-0.042049257	0.035991709	0.0060144391	0.006031432	0	948.9191933211034
0.14454398	0.01	0.19	3.8287255	0.10631308	0.0032929269	-0.04276021	0.037713805	0.0063835533	0.0063999086	0	949.3918410503077
0.14454398	0.010964782	0.19	3.9594604	0.10236083	0.0034792642	-0.04350862	0.039474303	0.0067652411	0.0067809884	0	949.8811966755138
0.14454398	0.012022644	0.19	4.0953822	0.098588728	0.0036769611	-0.04429721	0.041272842	0.0071599961	0.0071751631	0	950.3880163683107
0.14454398	0.013182567	0.19	4.2368197	0.094985276	0.003887012	-0.045129049	0.043108794	0.0075683428	0.0075829554	0	950.9131223235449
0.14454398	0.014454398	0.19	4.3841441	0.091539521	0.0041105528	-0.046007613	0.044981197	0.0079908395	0.0080049221	0	951.4574100597431
0.14454398	0.015848932	0.19	4.5377766	0.088241001	0.0043488843	-0.046936837	0.046888708	0.0084280837	0.0084416588	0	952.0218620146219
0.14454398	0.017378008	0.19	4.6981973	0.085079702	0.0046034995	-0.04792119	0.048829534	0.0088807167	0.0088938055	0	952.6075608775213
0.14454398	0.019054607	0.19	4.865955	0.082046011	0.0048761123	-0.048965734	0.05080137	0.0093494301	0.0093620521	0	953.2157054868494
0.14454398	0.020892961	0.19	5.0416789	0.079130668	0.005168687	-0.050076181	0.052801346	0.0098349733	0.0098471469	0	953.847629085838
0.14454398	0.022908677	0.19	5.2260909	0.076324716	0.0054834691	-0.051258947	0.054825979	0.010338162	0.010349904	0	954.5048196923191
0.14454398	0.025118864	0.19	5.4200183	0.073619437	0.0058230097	-0.052521156	0.056871168	0.010859887	0.010871213	0	955.1889421315313
0.14454398	0.027542287	0.19	5.6244057	0.071006294	0.0061901795	-0.053870598	0.058932241	0.011401127	0.011412051	0	955.9018595803556
0.14454398	0.030199517	0.19	5.8403231	0.068476855	0.006588164	-0.055315589	0.061004097	0.011962959	0.011973493	0	956.6456544068728
0.14454398	0.033113112	0.19	6.0689664	0.066024108	0.0070204147	-0.056864661	0.06308152	0.012546569	0.012556727	0	957.4226383740437
0.14454398	0.036307805	0.19	6.3095985	0.06464491	0.0074824619	-0.05849508	0.06519066	0.013153243	0.013163188	0	958.2332801370651
0.14454398	0.039810717	0.19	6.5111494	0.072954613	0.0077741779	-0.059447898	0.068093991	0.013782077	0.0137933	0	959.02566153207
0.14454398	0.043651583	0.19	6.6962385	0.074510702	0.0079845364	-0.060087913	0.07143035	0.01442935	0.014440812	0	959.8189052789444
0.14454398	0.047863009	0.19	6.9475893	0.070195871	0.0084510682	-0.061720724	0.073897888	0.015097195	0.015107994	0	960.6977409017734
0.14454398	0.052480746	0.19	6.8091612	0.064066569	0.0083373158	-0.062447755	0.077399044	0.015795995	0.015805851	0	961.2158804121374
0.14454398	0.057543994	0.19	6.2793907	0.055279579	0.007554739	-0.062170857	0.082035954	0.016458277	0.016466781	0	961.3083675608864
0.14454398	0.063095734	0.19	5.7962343	0.04726575	0.0068410204	-0.06243789	0.086264866	0.017062286	0.017069557	0	961.3927167395218
0.14454398	0.069183097	0.19	5.3555904	0.039957051	0.0061901013	-0.063217195	0.090121679	0.017613148	0.017619295	0	961.4696440001924
0.14454398	0.075857758	0.19	4.9537183	0.033291438	0.005596456	-0.064480399	0.093639135	0.018115541	0.018120662	0	961.5398026038943
0.14454398	0.083176377	0.19	4.5872067	0.027212327	0.0050550451	-0.06620215	0.096847093	0.018573728	0.018577914	0	961.6037880565425
0.14454398	0.091201084	0.19	4.5439644	0.022642546	0.0049057237	-0.068497443	0.099635204	0.019000172	0.019003655	0	961.9612172157243
0.14454398	0.1	0.19	5.4520959	0.020917839	0.0059016636	-0.071327226	0.10204731	0.019487868	0.019491086	0	963.3275707678908
0.14454398	0.10964782	0.19	6.6641311	0.019299155	0.0073043727	-0.074214513	0.10456535	0.020079008	0.020081977	0	965.0950216298241
0.14454398	0.12022644	0.19	8.2415431	0.017782267	0.0092220632	-0.077217242	0.10713646	0.020806336	0.020809072	0	967.3558050903857
0.14454398	0.13182567	0.19	10.254452	0.016363461	0.011781062	-0.080406598	0.10969473	0.021709023	0.021711541	0	970.2168474446669
0.14454398	0.14454398	0.19	12.785409	0.015039523	0.015130247	-0.083863782	0.11216436	0.022833685	0.022835999	0	973.8044975887176
0.14454398	0.15848932	0.19	15.934464	0.013807729	0.019447086	-0.087675768	0.11446398	0.024235843	0.024237967	0	978.2709721559777
0.14454398	0.17378008	0.19	19.824656	0.012665805	0.024944526	-0.091930317	0.11651158	0.025981909	0.025983857	0	983.8017085557073
0.14454398	0.19054607	0.19	24.606435	0.011611855	0.0318771	-0.0967103	0.11823022	0.028151674	0.02815346	0	990.6221220451116
0.14454398	0.20892961	0.19	30.458848	0.010644245	0.040543741	-0.1020872	0.11955457	0.030841089	0.030842726	0	999.0014171701428
0.14454398	0.22908677	0.19	37.584905	0.0097614031	0.051284076	-0.10811372	0.12043821	0.034164898	0.0341664	0	1009.250408913451
0.14454398	0.25118864	0.19	46.19877	0.0089615586	0.064465101	-0.11481596	0.12086157	0.038258436	0.038259815	0	1021.7104204143842
0.14454398	0.27542287	0.19	56.503888	0.0082424182	0.080456644	-0.12218634	0.12083896	0.04327772	0.043278988	0	1036.7314838314323
0.14454398	0.30199517	0.19	68.664196	0.007600844	0.099597536	-0.13017954	0.12042261	0.049397022	0.049398191	0	1054.6412769963647
0.14454398	0.33113112	0.19	82.774466	0.0070326209	0.12215894	-0.13871386	0.11970136	0.05680352	0.056804602	0	1075.7104347554655
0.14454398	0.36307805	0.19	98.838414	0.006532401	0.14831464	-0.14767929	0.1187926	0.065689345	0.06569035	0	1100.1231946930418
0.14454398	0.39810717	0.19	116.76213	0.0060938685	0.17812726	-0.15695124	0.1178285	0.076242185	0.076243123	0	1127.9619907965114
0.14454398	0.43651583	0.19	136.36522	0.0057100911	0.21155402	-0.16640658	0.11694003	0.088636127	0.088637006	0	1159.2100088862394
0.14454398	0.47863009	0.19	157.40574	0.00537396	0.24846855	-0.17593768	0.11624289	0.10302432	0.10302514	0	1193.7691705540362
0.14454398	0.52480746	0.19	179.61081	0.0050786055	0.28869074	-0.18546154	0.11582841	0.11953442	0.1195352	0	1231.486554680362
0.14454398	0.57543994	0.19	202.70521	0.0048177084	0.33201615	-0.19492303	0.1157603	0.13826701	0.13826776	0	1272.1814498696676
0.14454398	0.63095734	0.19	226.43307	0.0045856808	0.37823973	-0.20429341	0.11607617	0.15929652	0.15929722	0	1315.6679122869705
0.14454398	0.69183097	0.19	250.57125	0.0043777287	0.42717182	-0.21356597	0.11679184	0.18267379	0.18267447	0	1361.7705681135183
0.14454398	0.75857758	0.19	274.93534	0.00418983	0.47864709	-0.22275059	0.11790687	0.20842969	0.20843034	0	1410.3340004623328
0.14454398	0.83176377	0.19	299.38039	0.004018664	0.5325282	-0.23186845	0.11940977	0.23657894	0.23657956	0	1461.2271182631293
0.14454398	0.91201084	0.19	323.79833	0.0038615181	0.58870589	-0.24094766	0.12128244	0.26712389	0.26712449	0	1514.3440334405277
0.14454398	1.	0.19	348.11366	0.0037161907	0.64709728	-0.2500199	0.12350354	0.30005795	0.30005852	0	1569.6030652566526
0.14454398	1.0964782	0.19	372.27854	0.0035809013	0.70764305	-0.259118	0.12605087	0.3353685	0.33536905	0	1626.944515608295
0.14454398	1.2022644	0.19	396.268	0.0034542108	0.77030457	-0.26827448	0.12890289	0.3730394	0.37303993	0	1686.328243820833
0.14454398	1.3182567	0.19	420.07548	0.0033349552	0.83506099	-0.27752055	0.13203972	0.41305299	0.41305351	0	1747.73111103048
0.14454398	1.4454398	0.19	443.70904	0.0032221899	0.90190672	-0.28688566	0.13544357	0.45539174	0.45539224	0	1811.1446892420888
0.14454398	1.5848932	0.19	467.18804	0.003115146	0.97084914	-0.29639733	0.13909897	0.50003946	0.50003994	0	1876.57315078351
0.14454398	1.7378008	0.19	490.54054	0.003013194	1.0419068	-0.30608114	0.14299274	0.54698232	0.54698278	0	1944.031571732436
0.14454398	1.9054607	0.19	513.80108	0.0029158158	1.1151076	-0.31596081	0.14711396	0.59620955	0.59621	0	2013.5442165519444
0.14454398	2.0892961	0.19	537.00891	0.002822582	1.1904882	-0.32605842	0.15145375	0.64771404	0.64771447	0	2085.143944473107
0.14454398	2.2908677	0.19	560.20667	0.0027331345	1.268092	-0.33639459	0.15600509	0.70149268	0.7014931	0	2158.87027943985
0.14454398	2.5118864	0.19	583.43927	0.002647172	1.347969	-0.34698868	0.16076268	0.75754669	0.75754709	0	2234.7692535773663
0.14454398	2.7542287	0.19	606.75304	0.0025644392	1.430175	-0.35785897	0.16572268	0.81588172	0.81588212	0	2312.892609125306
0.14454398	3.0199517	0.19	630.19514	0.0024847177	1.5147709	-0.36902289	0.17088261	0.87650805	0.87650844	0	2393.297122890292
0.14454398	3.3113112	0.19	653.813	0.0024078194	1.6018223	-0.38049711	0.17624116	0.93944059	0.93944096	0	2476.0441965014684
0.14454398	3.6307805	0.19	677.65404	0.0023335805	1.6913993	-0.39229778	0.18179806	1.0046989	1.0046992	0	2561.1996452901676
0.14454398	3.9810717	0.19	701.76537	0.0022618573	1.7835761	-0.4044406	0.18755398	1.0723071	1.0723075	0	2648.833304612028
0.14454398	4.3651583	0.19	726.19364	0.0021925224	1.8784309	-0.41694093	0.19351041	1.1422941	1.1422944	0	2739.0189144683704
0.14454398	4.7863009	0.19	750.9849	0.0021254622	1.9760456	-0.42981396	0.19966959	1.2146931	1.2146935	0	2831.8338251403743
0.14454398	5.2480746	0.19	776.18456	0.0020605743	2.0765058	-0.44307473	0.2060344	1.289542	1.2895424	0	2927.3589775521577
0.14454398	5.7543994	0.19	801.83736	0.0019977659	2.1799006	-0.45673824	0.21260833	1.3668831	1.3668834	0	3025.6787100021893
0.14454398	6.3095734	0.19	827.98737	0.001936952	2.2863228	-0.47081952	0.21939545	1.4467628	1.4467631	0	3126.880940720835
0.14454398	6.9183097	0.19	854.67801	0.0018780543	2.3958686	-0.4853337	0.22640028	1.5292321	1.5292324	0	3231.0568627934863
0.14454398	7.5857758	0.19	881.95214	0.0018210004	2.5086377	-0.50029605	0.23362785	1.614346	1.6143463	0	3338.3010488281448
0.14454398	8.3176377	0.19	909.85204	0.0017657226	2.6247336	-0.51572205	0.24108359	1.702164	1.7021642	0	3448.711713188105
0.14454398	9.1201084	0.19	938.41958	0.0017121577	2.7442628	-0.53162741	0.24877337	1.7927492	1.7927495	0	3562.389967480379
0.14454398	10.	0.19	967.69619	0.0016602461	2.8673359	-0.54802813	0.25670341	1.8861693	1.8861696	0	3679.4408380110053