0.10964782	1.e-12	0.46	4.7826364	195.68484	-0.0095073316	-0.0011690016	-0.0011599584	-0.015131177	0.007705357	0	930.1312565664425
0.10964782	1.0964782e-12	0.46	4.3623188	178.52828	-0.0095075168	-0.0011682528	-0.0011583391	-0.014683264	0.0061510897	0	930.1317824204984
0.10964782	1.2022644e-12	0.46	3.9790182	162.88289	-0.0095077038	-0.0011675022	-0.0011566347	-0.014274712	0.0047338155	0	930.1323433635621
0.10964782	1.3182567e-12	0.46	3.6294808	148.61585	-0.009507892	-0.001166751	-0.0011548384	-0.013902054	0.0034415022	0	930.1329428983327
0.10964782	1.4454398e-12	0.46	3.3107392	135.60606	-0.0095080816	-0.0011659989	-0.0011529415	-0.013562127	0.0022631787	0	930.133584597038
0.10964782	1.5848932e-12	0.46	3.0200876	123.74309	-0.0095082728	-0.0011652454	-0.0011509341	-0.013252048	0.001188842	0	930.1342725505456
0.10964782	1.7378008e-12	0.46	2.7550584	112.92623	-0.0095084655	-0.001164491	-0.0011488068	-0.012969186	0.00020937036	0	930.1350109154924
0.10964782	1.9054607e-12	0.46	2.5134017	103.06366	-0.0095086597	-0.0011637355	-0.0011465483	-0.01271114	-0.00068355203	0	930.1358045757393
0.10964782	2.0892961e-12	0.46	2.2930658	94.07165	-0.0095088556	-0.0011629788	-0.0011441468	-0.012475723	-0.0014975073	0	930.1366584433335
0.10964782	2.2908677e-12	0.46	2.0921799	85.873862	-0.0095090529	-0.0011622215	-0.0011415902	-0.012260937	-0.0022394079	0	930.137578029766
0.10964782	2.5118864e-12	0.46	1.9090381	78.400687	-0.0095092521	-0.0011614627	-0.0011388641	-0.012064961	-0.0029155552	0	930.1385690889346
0.10964782	2.7542287e-12	0.46	1.7420852	71.588657	-0.0095094527	-0.0011607035	-0.0011359548	-0.011886131	-0.0035316936	0	930.1396380117628
0.10964782	3.0199517e-12	0.46	1.5899031	65.379912	-0.0095096551	-0.001159943	-0.0011328462	-0.011722933	-0.0040930595	0	930.1407913808456
0.10964782	3.3113112e-12	0.46	1.4511988	59.721691	-0.0095098591	-0.0011591818	-0.0011295224	-0.011573982	-0.0046044261	0	930.1420362560768
0.10964782	3.6307805e-12	0.46	1.3247934	54.565895	-0.0095100649	-0.0011584194	-0.0011259661	-0.011438016	-0.0050701445	0	930.1433799266049
0.10964782	3.9810717e-12	0.46	1.209612	49.86866	-0.0095102726	-0.0011576561	-0.0011221596	-0.011313883	-0.0054941812	0	930.1448299484139
0.10964782	4.3651583e-12	0.46	1.1046745	45.589989	-0.0095104821	-0.0011568918	-0.001118085	-0.01120053	-0.0058801524	0	930.1463941518416
0.10964782	4.7863009e-12	0.46	1.009087	41.693402	-0.0095106934	-0.0011561267	-0.0011137238	-0.011097	-0.0062313557	0	930.1480805325892
0.10964782	5.2480746e-12	0.46	0.92203436	38.145617	-0.0095109066	-0.0011553608	-0.0011090583	-0.011002415	-0.0065507991	0	930.1498966466411
0.10964782	5.7543994e-12	0.46	0.84277271	34.916262	-0.0095111217	-0.0011545942	-0.0011040705	-0.010915976	-0.0068412276	0	930.1518502735986
0.10964782	6.3095734e-12	0.46	0.77062337	31.977603	-0.0095113388	-0.0011538265	-0.0010987439	-0.010836952	-0.0071051476	0	930.1539484508062
0.10964782	6.9183097e-12	0.46	0.70496662	29.304303	-0.009511558	-0.0011530578	-0.0010930635	-0.010764679	-0.0073448496	0	930.1561975673079
0.10964782	7.5857758e-12	0.46	0.64523639	26.873193	-0.0095117791	-0.0011522888	-0.0010870172	-0.010698546	-0.007562429	0	930.1586030406378
0.10964782	8.3176377e-12	0.46	0.59091524	24.663073	-0.0095120024	-0.0011515187	-0.0010805945	-0.010638	-0.007759805	0	930.1611691270268
0.10964782	9.1201084e-12	0.46	0.54152988	22.65452	-0.0095122277	-0.001150748	-0.0010737893	-0.010582533	-0.0079387374	0	930.1638986508086
0.10964782	1.e-11	0.46	0.49664703	20.829722	-0.0095124554	-0.0011499763	-0.0010665985	-0.010531683	-0.0081008424	0	930.1667925759772
0.10964782	1.0964782e-11	0.46	0.4558698	19.172332	-0.0095126852	-0.0011492042	-0.0010590241	-0.010485028	-0.0082476062	0	930.1698503200017
0.10964782	1.2022644e-11	0.46	0.41883441	17.667336	-0.0095129174	-0.001148431	-0.0010510717	-0.010442185	-0.0083803968	0	930.1730691806924
0.10964782	1.3182567e-11	0.46	0.3852073	16.300933	-0.0095131519	-0.0011476573	-0.0010427521	-0.010402802	-0.0085004742	0	930.1764445842455
0.10964782	1.4454398e-11	0.46	0.35468257	15.060445	-0.0095133888	-0.0011468829	-0.0010340794	-0.010366562	-0.0086089992	0	930.1799703426832
0.10964782	1.5848932e-11	0.46	0.32697981	13.934227	-0.0095136281	-0.0011461079	-0.0010250716	-0.010333173	-0.0087070405	0	930.1836386764044
0.10964782	1.7378008e-11	0.46	0.3018421	12.911596	-0.0095138701	-0.0011453319	-0.001015749	-0.010302372	-0.0087955811	0	930.1874405298784
0.10964782	1.9054607e-11	0.46	0.27903428	11.982765	-0.0095141145	-0.0011445557	-0.0010061351	-0.010273919	-0.0088755234	0	930.1913660282733
0.10964782	2.0892961e-11	0.46	0.25834138	11.138787	-0.0095143616	-0.0011437788	-0.00099625346	-0.010247597	-0.0089476937	0	930.1954047070861
0.10964782	2.2908677e-11	0.46	0.23956723	10.371501	-0.0095146115	-0.0011430011	-0.00098612813	-0.010223207	-0.009012847	0	930.1995460779488
0.10964782	2.5118864e-11	0.46	0.22253304	9.6734781	-0.009514864	-0.0011422231	-0.00097578368	-0.010200571	-0.0090716708	0	930.2037797096189
0.10964782	2.7542287e-11	0.46	0.20707615	9.0379762	-0.0095151194	-0.0011414445	-0.00096524279	-0.010179527	-0.0091247897	0	930.2080955179295
0.10964782	3.0199517e-11	0.46	0.19304883	8.4588866	-0.0095153778	-0.0011406651	-0.00095452674	-0.010159926	-0.0091727693	0	930.2124842117066
0.10964782	3.3113112e-11	0.46	0.18031704	7.930687	-0.0095156391	-0.0011398855	-0.00094365592	-0.010141636	-0.0092161204	0	930.216937072348
0.10964782	3.6307805e-11	0.46	0.16875939	7.4483937	-0.0095159034	-0.0011391055	-0.00093264788	-0.010124536	-0.0092553039	0	930.2214464207854
0.10964782	3.9810717e-11	0.46	0.15826598	7.0075158	-0.0095161712	-0.0011383243	-0.0009215177	-0.010108515	-0.0092907341	0	930.2260052696595
0.10964782	4.3651583e-11	0.46	0.14873742	6.6040097	-0.009516442	-0.001137543	-0.00091028016	-0.010093475	-0.0093227836	0	930.2306077008362
0.10964782	4.7863009e-11	0.46	0.1400839	6.2342386	-0.009516716	-0.0011367615	-0.00089894677	-0.010079326	-0.0093517866	0	930.2352485517797
0.10964782	5.2480746e-11	0.46	0.13222427	5.8949323	-0.0095169935	-0.0011359794	-0.00088752716	-0.010065985	-0.0093780432	0	930.2399233785336
0.10964782	5.7543994e-11	0.46	0.12508522	5.5831509	-0.0095172746	-0.0011351968	-0.00087602949	-0.010053379	-0.0094018221	0	930.2446285603892
0.10964782	6.3095734e-11	0.46	0.11860057	5.2962518	-0.0095175592	-0.0011344139	-0.0008644605	-0.01004144	-0.0094233646	0	930.2493612782743
0.10964782	6.9183097e-11	0.46	0.11271053	5.0318589	-0.0095178475	-0.0011336306	-0.00085282532	-0.010030107	-0.0094428865	0	930.2541191270897
0.10964782	7.5857758e-11	0.46	0.10736112	4.787835	-0.0095181396	-0.0011328469	-0.00084112754	-0.010019325	-0.0094605819	0	930.2589004612804
0.10964782	8.3176377e-11	0.46	0.10250361	4.5622574	-0.0095184357	-0.0011320627	-0.00082936978	-0.010009043	-0.0094766245	0	930.2637039605695
0.10964782	9.1201084e-11	0.46	0.098093977	4.3533949	-0.0095187357	-0.0011312783	-0.00081755384	-0.009999214	-0.0094911703	0	930.2685289409533
0.10964782	1.e-10	0.46	0.094092472	4.1596886	-0.0095190398	-0.0011304937	-0.00080568031	-0.0099897974	-0.0095043593	0	930.2733749595207
0.10964782	1.0964782e-10	0.46	0.090463217	3.9797337	-0.0095193484	-0.0011297083	-0.00079374825	-0.0099807545	-0.0095163173	0	930.2782420467134
0.10964782	1.2022644e-10	0.46	0.087173822	3.8122635	-0.0095196612	-0.0011289228	-0.00078175722	-0.0099720505	-0.0095271572	0	930.2831306745695
0.10964782	1.3182567e-10	0.46	0.084195065	3.6561355	-0.0095199785	-0.0011281371	-0.00076970513	-0.0099636535	-0.0095369804	0	930.2880414645172
0.10964782	1.4454398e-10	0.46	0.081500597	3.5103186	-0.0095203005	-0.0011273508	-0.00075758896	-0.0099555343	-0.0095458781	0	930.2929755338874
0.10964782	1.5848932e-10	0.46	0.079066668	3.3738821	-0.0095206274	-0.0011265642	-0.00074540563	-0.0099476664	-0.0095539324	0	930.2979340259437
0.10964782	1.7378008e-10	0.46	0.076871897	3.2459852	-0.009520959	-0.0011257776	-0.00073315142	-0.0099400251	-0.0095612167	0	930.302918736383
0.10964782	1.9054607e-10	0.46	0.074897063	3.1258688	-0.0095212958	-0.0011249905	-0.00072082103	-0.009932588	-0.0095677973	0	930.3079314860834
0.10964782	2.0892961e-10	0.46	0.073124905	3.0128468	-0.0095216378	-0.0011242029	-0.00070840918	-0.0099253345	-0.0095737335	0	930.3129745570608
0.10964782	2.2908677e-10	0.46	0.071539956	2.9062993	-0.0095219853	-0.0011234151	-0.00069590994	-0.0099182454	-0.0095790786	0	930.3180502303921
0.10964782	2.5118864e-10	0.46	0.07012839	2.8056665	-0.0095223383	-0.0011226268	-0.00068331644	-0.009911303	-0.0095838801	0	930.3231614752917
0.10964782	2.7542287e-10	0.46	0.068877881	2.7104423	-0.009522697	-0.0011218384	-0.00067062139	-0.0099044911	-0.0095881809	0	930.3283112545852
0.10964782	3.0199517e-10	0.46	0.067777483	2.6201699	-0.0095230616	-0.0011210496	-0.00065781653	-0.0098977943	-0.0095920189	0	930.3335029503315
0.10964782	3.3113112e-10	0.46	0.066817513	2.534437	-0.0095234323	-0.0011202604	-0.00064489289	-0.0098911984	-0.0095954281	0	930.3387402514528
0.10964782	3.6307805e-10	0.46	0.065989455	2.4528713	-0.0095238094	-0.0011194707	-0.00063184052	-0.00988469	-0.0095984385	0	930.3440271764696
0.10964782	3.9810717e-10	0.46	0.065285863	2.3751372	-0.0095241928	-0.0011186807	-0.00061864934	-0.0098782567	-0.0096010768	0	930.349368175915
0.10964782	4.3651583e-10	0.46	0.064700284	2.3009326	-0.0095245832	-0.0011178899	-0.00060530736	-0.0098718865	-0.0096033664	0	930.3547677741722
0.10964782	4.7863009e-10	0.46	0.064227174	2.2299851	-0.0095249803	-0.0011170991	-0.00059180331	-0.0098655682	-0.0096053276	0	930.3602311240054
0.10964782	5.2480746e-10	0.46	0.063861839	2.1620502	-0.0095253847	-0.0011163074	-0.00057812327	-0.0098592909	-0.0096069784	0	930.3657636779004
0.10964782	5.7543994e-10	0.46	0.063600361	2.0969081	-0.0095257964	-0.0011155153	-0.00056425376	-0.0098530443	-0.009608334	0	930.3713712619139
0.10964782	6.3095734e-10	0.46	0.063439545	2.0343619	-0.0095262158	-0.0011147224	-0.00055017953	-0.0098468184	-0.0096094072	0	930.3770600912706
0.10964782	6.9183097e-10	0.46	0.06337686	1.974235	-0.0095266431	-0.0011139288	-0.00053588482	-0.0098406035	-0.0096102091	0	930.3828367895305
0.10964782	7.5857758e-10	0.46	0.063410385	1.9163698	-0.0095270783	-0.0011131349	-0.00052135336	-0.0098343899	-0.0096107485	0	930.3887083885886
0.10964782	8.3176377e-10	0.46	0.063538767	1.8606256	-0.0095275221	-0.0011123401	-0.00050656662	-0.0098281684	-0.0096110323	0	930.3946822394164
0.10964782	9.1201084e-10	0.46	0.063761166	1.8068769	-0.0095279748	-0.0011115439	-0.00049150554	-0.0098219297	-0.0096110662	0	930.400766297877
0.10964782	1.e-9	0.46	0.064077206	1.7550122	-0.0095284362	-0.0011107473	-0.00047615146	-0.0098156647	-0.0096108537	0	930.4069688167372
0.10964782	1.0964782e-9	0.46	0.064486941	1.7049322	-0.0095289072	-0.0011099492	-0.00046048252	-0.009809364	-0.0096103974	0	930.4132983982811
0.10964782	1.2022644e-9	0.46	0.064990801	1.6565488	-0.0095293877	-0.0011091502	-0.00044447772	-0.0098030186	-0.0096096984	0	930.4197642126667
0.10964782	1.3182567e-9	0.46	0.065589554	1.6097841	-0.0095298781	-0.00110835	-0.00042811427	-0.0097966191	-0.0096087564	0	930.4263757339072
0.10964782	1.4454398e-9	0.46	0.066284262	1.5645686	-0.0095303787	-0.0011075488	-0.00041136894	-0.0097901563	-0.0096075702	0	930.4331427201405
0.10964782	1.5848932e-9	0.46	0.067076248	1.5208406	-0.0095308903	-0.0011067455	-0.00039421632	-0.0097836205	-0.0096061376	0	930.4400754019177
0.10964782	1.7378008e-9	0.46	0.067967041	1.4785451	-0.0095314127	-0.001105941	-0.0003766322	-0.0097770024	-0.0096044553	0	930.4471844307154
0.10964782	1.9054607e-9	0.46	0.068958352	1.437633	-0.0095319466	-0.0011051346	-0.00035859006	-0.009770292	-0.0096025194	0	930.4544806107837
0.10964782	2.0892961e-9	0.46	0.070052031	1.3980597	-0.0095324923	-0.0011043265	-0.00034006335	-0.0097634794	-0.009600325	0	930.4619751351643
0.10964782	2.2908677e-9	0.46	0.071250035	1.3597852	-0.0095330504	-0.001103516	-0.00032102419	-0.0097565545	-0.0095978668	0	930.4696794898559
0.10964782	2.5118864e-9	0.46	0.072554392	1.3227724	-0.009533621	-0.0011027036	-0.000301445	-0.0097495069	-0.0095951386	0	930.4776055009795
0.10964782	2.7542287e-9	0.46	0.073967177	1.2869871	-0.0095342049	-0.0011018885	-0.00028129677	-0.0097423263	-0.0095921341	0	930.4857649550067
0.10964782	3.0199517e-9	0.46	0.075490483	1.2523971	-0.0095348023	-0.0011010709	-0.00026055045	-0.0097350017	-0.0095888462	0	930.494170219436
0.10964782	3.3113112e-9	0.46	0.077126402	1.2189717	-0.0095354137	-0.0011002506	-0.00023917653	-0.0097275223	-0.0095852676	0	930.502833578709
0.10964782	3.6307805e-9	0.46	0.078877005	1.1866816	-0.00953604	-0.0010994267	-0.00021714425	-0.0097198769	-0.0095813905	0	930.5117674816902
0.10964782	3.9810717e-9	0.46	0.080744325	1.1554977	-0.0095366813	-0.0010985997	-0.00019442379	-0.0097120542	-0.0095772069	0	930.5209847226292
0.10964782	4.3651583e-9	0.46	0.082730352	1.1253917	-0.0095373382	-0.0010977692	-0.00017098416	-0.0097040426	-0.0095727088	0	930.5304981316665
0.10964782	4.7863009e-9	0.46	0.084837029	1.0963351	-0.0095380116	-0.0010969345	-0.00014679357	-0.0096958305	-0.0095678876	0	930.5403206028336
0.10964782	5.2480746e-9	0.46	0.087066239	1.0682997	-0.0095387016	-0.0010960959	-0.00012182132	-0.0096874059	-0.0095627347	0	930.5504653107154
0.10964782	5.7543994e-9	0.46	0.089419823	1.0412567	-0.0095394091	-0.0010952526	-0.00009603485	-0.0096787567	-0.0095572414	0	930.5609454821372
0.10964782	6.3095734e-9	0.46	0.091899573	1.0151775	-0.0095401349	-0.0010944043	-0.000069402	-0.0096698705	-0.0095513987	0	930.5717742650006
0.10964782	6.9183097e-9	0.46	0.094507245	0.99003285	-0.0095408793	-0.0010935509	-0.000041890526	-0.0096607351	-0.0095451977	0	930.5829653132953
0.10964782	7.5857758e-9	0.46	0.097244574	0.96579337	-0.0095416434	-0.0010926913	-0.000013466769	-0.0096513376	-0.009538629	0	930.5945321409206
0.10964782	8.3176377e-9	0.46	0.10011328	0.94242942	-0.0095424275	-0.0010918262	0.000015901732	-0.0096416655	-0.0095316834	0	930.6064884956534
0.10964782	9.1201084e-9	0.46	0.10311509	0.91991125	-0.0095432326	-0.0010909543	0.000046249359	-0.0096317056	-0.0095243514	0	930.6188482978305
0.10964782	1.e-8	0.46	0.10625174	0.89820904	-0.0095440596	-0.001090075	0.000077610687	-0.0096214448	-0.0095166233	0	930.6316256451607
0.10964782	1.0964782e-8	0.46	0.10952503	0.87729301	-0.009544909	-0.0010891886	0.00011001964	-0.0096108699	-0.0095084893	0	930.644834729816
0.10964782	1.2022644e-8	0.46	0.11293678	0.85713355	-0.0095457817	-0.0010882942	0.00014351199	-0.0095999673	-0.0094999393	0	930.6584901668482
0.10964782	1.3182567e-8	0.46	0.1164889	0.83770137	-0.0095466788	-0.0010873909	0.00017812406	-0.0095887234	-0.0094909632	0	930.672606621538
0.10964782	1.4454398e-8	0.46	0.1201834	0.81896754	-0.009547601	-0.0010864785	0.00021389237	-0.0095771244	-0.0094815504	0	930.6871992201361
0.10964782	1.5848932e-8	0.46	0.12402236	0.80090366	-0.0095485495	-0.0010855559	0.00025085453	-0.0095651561	-0.0094716902	0	930.7022830902084
0.10964782	1.7378008e-8	0.46	0.12800801	0.78348195	-0.0095495249	-0.0010846231	0.00028904846	-0.0095528043	-0.0094613715	0	930.7178740570416
0.10964782	1.9054607e-8	0.46	0.13214268	0.76667532	-0.0095505285	-0.0010836788	0.00032851375	-0.0095400546	-0.0094505831	0	930.7339880100018
0.10964782	2.0892961e-8	0.46	0.13642889	0.75045744	-0.0095515612	-0.0010827229	0.00036928995	-0.0095268921	-0.0094393133	0	930.7506411969923
0.10964782	2.2908677e-8	0.46	0.14086927	0.73480284	-0.0095526242	-0.0010817542	0.00041141842	-0.0095133019	-0.00942755	0	930.7678503663291
0.10964782	2.5118864e-8	0.46	0.14546664	0.71968692	-0.0095537185	-0.0010807719	0.00045494146	-0.0094992688	-0.0094152809	0	930.7856328605094
0.10964782	2.7542287e-8	0.46	0.150224	0.70508602	-0.0095548456	-0.0010797749	0.00049990244	-0.0094847772	-0.0094024932	0	930.804006014702
0.10964782	3.0199517e-8	0.46	0.15514452	0.69097739	-0.0095560064	-0.0010787628	0.00054634532	-0.0094698113	-0.0093891738	0	930.8229879828128
0.10964782	3.3113112e-8	0.46	0.16023158	0.67733924	-0.0095572021	-0.0010777349	0.0005943157	-0.0094543548	-0.009375309	0	930.842597345686
0.10964782	3.6307805e-8	0.46	0.16548874	0.66415078	-0.0095584344	-0.0010766892	0.00064386145	-0.0094383914	-0.0093608847	0	930.8628531954776
0.10964782	3.9810717e-8	0.46	0.17091978	0.6513921	-0.0095597043	-0.0010756256	0.00069502993	-0.0094219042	-0.0093458864	0	930.8837750616169
0.10964782	4.3651583e-8	0.46	0.17652869	0.63904427	-0.0095610133	-0.001074543	0.00074787113	-0.0094048759	-0.0093302991	0	930.905383140437
0.10964782	4.7863009e-8	0.46	0.18231965	0.62708925	-0.0095623628	-0.0010734399	0.00080243646	-0.0093872889	-0.0093141072	0	930.9276983359516
0.10964782	5.2480746e-8	0.46	0.1882971	0.61550991	-0.0095637546	-0.001072315	0.00085877892	-0.0093691251	-0.0092972947	0	930.9507418635463
0.10964782	5.7543994e-8	0.46	0.19446567	0.60428992	-0.0095651899	-0.0010711679	0.00091695211	-0.009350366	-0.009279845	0	930.9745357616662
0.10964782	6.3095734e-8	0.46	0.20083024	0.59341383	-0.0095666703	-0.0010699971	0.00097701232	-0.0093309926	-0.0092617409	0	930.9991028555476
0.10964782	6.9183097e-8	0.46	0.20739591	0.58286694	-0.0095681977	-0.0010688009	0.0010390176	-0.0093109855	-0.0092429646	0	931.0244664492304
0.10964782	7.5857758e-8	0.46	0.214168	0.57263533	-0.0095697734	-0.0010675788	0.0011030267	-0.0092903248	-0.0092234979	0	931.0506507130331
0.10964782	8.3176377e-8	0.46	0.22115211	0.56270576	-0.0095713994	-0.0010663289	0.0011691013	-0.0092689898	-0.0092033218	0	931.0776804259244
0.10964782	9.1201084e-8	0.46	0.22835405	0.55306571	-0.0095730776	-0.0010650497	0.0012373049	-0.0092469596	-0.0091824165	0	931.1055812474344
0.10964782	1.e-7	0.46	0.23577989	0.54370329	-0.0095748099	-0.0010637401	0.0013077024	-0.0092242125	-0.009160762	0	931.1343794421729
0.10964782	1.0964782e-7	0.46	0.24343595	0.5346072	-0.0095765977	-0.001062399	0.0013803603	-0.0092007262	-0.0091383372	0	931.1641024360523
0.10964782	1.2022644e-7	0.46	0.2513288	0.52576676	-0.0095784434	-0.0010610246	0.0014553486	-0.0091764778	-0.0091151206	0	931.19477822812
0.10964782	1.3182567e-7	0.46	0.25946528	0.51717181	-0.009580349	-0.0010596152	0.0015327385	-0.0091514439	-0.0090910896	0	931.2264357118897
0.10964782	1.4454398e-7	0.46	0.26785248	0.5088127	-0.0095823161	-0.0010581703	0.0016126028	-0.0091256001	-0.0090662214	0	931.2591048482216
0.10964782	1.5848932e-7	0.46	0.27649779	0.5006803	-0.0095843474	-0.0010566872	0.0016950185	-0.0090989215	-0.0090404919	0	931.2928163796936
0.10964782	1.7378008e-7	0.46	0.28540884	0.49276591	-0.0095864444	-0.0010551656	0.0017800625	-0.0090713825	-0.0090138765	0	931.3276021331424
0.10964782	1.9054607e-7	0.46	0.29459357	0.48506129	-0.0095886098	-0.001053603	0.0018678164	-0.0090429567	-0.0089863497	0	931.3634948392664
0.10964782	2.0892961e-7	0.46	0.30406017	0.47755859	-0.0095908453	-0.0010519992	0.001958362	-0.0090136167	-0.0089578853	0	931.4005282547698
0.10964782	2.2908677e-7	0.46	0.31381717	0.47025037	-0.0095931537	-0.0010503516	0.0020517861	-0.0089833346	-0.0089284561	0	931.4387372638347
0.10964782	2.5118864e-7	0.46	0.32387337	0.46312955	-0.0095955367	-0.0010486597	0.0021481758	-0.0089520814	-0.0088980339	0	931.4781579138254
0.10964782	2.7542287e-7	0.46	0.33423789	0.45618938	-0.0095979971	-0.0010469215	0.0022476227	-0.0089198274	-0.0088665898	0	931.5188271634846
0.10964782	3.0199517e-7	0.46	0.34492013	0.44942347	-0.0096005367	-0.0010451369	0.0023502193	-0.0088865419	-0.0088340939	0	931.5607833001
0.10964782	3.3113112e-7	0.46	0.35592987	0.44282572	-0.0096031581	-0.001043304	0.0024560626	-0.0088521932	-0.0088005152	0	931.604065804208
0.10964782	3.6307805e-7	0.46	0.36727718	0.43639033	-0.0096058637	-0.0010414216	0.0025652521	-0.0088167489	-0.0087658219	0	931.6487154247576
0.10964782	3.9810717e-7	0.46	0.37897246	0.43011178	-0.0096086556	-0.0010394894	0.0026778893	-0.0087801752	-0.0087299809	0	931.6947740569678
0.10964782	4.3651583e-7	0.46	0.39102648	0.42398482	-0.0096115362	-0.0010375066	0.0027940797	-0.0087424376	-0.0086929583	0	931.7422850429882
0.10964782	4.7863009e-7	0.46	0.40345035	0.41800444	-0.0096145078	-0.0010354726	0.0029139316	-0.0087035003	-0.0086547189	0	931.7912930290852
0.10964782	5.2480746e-7	0.46	0.41625554	0.41216588	-0.0096175723	-0.0010333878	0.0030375558	-0.0086633265	-0.0086152265	0	931.8418441178512
0.10964782	5.7543994e-7	0.46	0.42945392	0.40646462	-0.0096207326	-0.0010312508	0.0031650684	-0.0086218783	-0.0085744437	0	931.8939857629739
0.10964782	6.3095734e-7	0.46	0.44305772	0.40089632	-0.0096239904	-0.0010290625	0.0032965867	-0.0085791165	-0.0085323317	0	931.9477670642592
0.10964782	6.9183097e-7	0.46	0.45707956	0.39545687	-0.0096273474	-0.0010268245	0.0034322312	-0.0085350008	-0.0084888508	0	932.0032385045536
0.10964782	7.5857758e-7	0.46	0.47153247	0.39014235	-0.009630806	-0.0010245368	0.0035721278	-0.0084894896	-0.0084439597	0	932.0604522428878
0.10964782	8.3176377e-7	0.46	0.48642991	0.38494902	-0.0096343677	-0.0010222015	0.003716404	-0.0084425399	-0.0083976161	0	932.1194619754215
0.10964782	9.1201084e-7	0.46	0.50178574	0.37987334	-0.0096380343	-0.0010198201	0.0038651924	-0.0083941074	-0.008349776	0	932.1803233206654
0.10964782	1.e-6	0.46	0.51761429	0.37491192	-0.0096418073	-0.0010173953	0.0040186281	-0.0083441466	-0.0083003942	0	932.2430932594993
0.10964782	1.0964782e-6	0.46	0.53393032	0.37006151	-0.0096456878	-0.0010149308	0.0041768501	-0.0082926104	-0.008249424	0	932.3078308342102
0.10964782	1.2022644e-6	0.46	0.55074904	0.36531903	-0.0096496766	-0.0010124307	0.0043400011	-0.0082394503	-0.0081968174	0	932.3745969680942
0.10964782	1.3182567e-6	0.46	0.56808617	0.36068154	-0.0096537744	-0.0010098998	0.0045082277	-0.0081846162	-0.0081425245	0	932.4434543639848
0.10964782	1.4454398e-6	0.46	0.5859579	0.35614622	-0.0096579814	-0.0010073444	0.0046816799	-0.0081280565	-0.008086494	0	932.514467663978
0.10964782	1.5848932e-6	0.46	0.60438092	0.35171035	-0.0096622976	-0.0010047715	0.0048605118	-0.008069718	-0.0080286732	0	932.5877034701031
0.10964782	1.7378008e-6	0.46	0.62337244	0.34737135	-0.0096667221	-0.0010021897	0.005044881	-0.0080095458	-0.0079690074	0	932.6632307426985
0.10964782	1.9054607e-6	0.46	0.64295021	0.34312668	-0.0096712538	-0.00099960915	0.0052349487	-0.0079474834	-0.0079074403	0	932.7411201859361
0.10964782	2.0892961e-6	0.46	0.66313253	0.33897391	-0.0096758908	-0.00099704115	0.0054308805	-0.0078834722	-0.0078439138	0	932.8214451573201
0.10964782	2.2908677e-6	0.46	0.68393821	0.33491062	-0.0096806301	-0.00099450034	0.0056328439	-0.0078174523	-0.0077783681	0	932.9042808690565
0.10964782	2.5118864e-6	0.46	0.70538671	0.33093443	-0.0096854685	-0.0009920018	0.0058410119	-0.0077493615	-0.0077107413	0	932.9897050983652
0.10964782	2.7542287e-6	0.46	0.72749803	0.32704295	-0.0096904012	-0.00098956422	0.0060555598	-0.0076791358	-0.0076409697	0	933.0777981198307
0.10964782	3.0199517e-6	0.46	0.75029277	0.32323371	-0.0096954225	-0.00098720921	0.0062766658	-0.0076067093	-0.0075689878	0	933.1686423070263
0.10964782	3.3113112e-6	0.46	0.77379222	0.3195042	-0.009700526	-0.00098495959	0.0065045134	-0.0075320139	-0.0074947276	0	933.2623229818812
0.10964782	3.6307805e-6	0.46	0.79801823	0.31585172	-0.0097057028	-0.00098284435	0.0067392862	-0.0074549795	-0.0074181194	0	933.3589278584584
0.10964782	3.9810717e-6	0.46	0.82299335	0.31227339	-0.0097109433	-0.00098089424	0.0069811729	-0.0073755337	-0.0073390912	0	933.4585475127369
0.10964782	4.3651583e-6	0.46	0.84874082	0.30876606	-0.0097162362	-0.0009791442	0.0072303646	-0.007293602	-0.0072575688	0	933.5612751552367
0.10964782	4.7863009e-6	0.46	0.87528457	0.30532623	-0.0097215683	-0.00097763371	0.0074870552	-0.0072091075	-0.0071734757	0	933.667206991812
0.10964782	5.2480746e-6	0.46	0.9026492	0.30194996	-0.0097269241	-0.00097640769	0.0077514403	-0.0071219709	-0.0070867332	0	933.776442124058
0.10964782	5.7543994e-6	0.46	0.93086013	0.29863284	-0.0097322871	-0.00097551395	0.0080237202	-0.0070321106	-0.00699726	0	933.8890826244751
0.10964782	6.3095734e-6	0.46	0.95994353	0.2953699	-0.0097376382	-0.00097500556	0.0083040975	-0.0069394423	-0.0069049725	0	934.0052340024937
0.10964782	6.9183097e-6	0.46	0.98992635	0.29215548	-0.0097429567	-0.00097494083	0.0085927779	-0.0068438792	-0.0068097845	0	934.1250046106691
0.10964782	7.5857758e-6	0.46	1.0208364	0.28898335	-0.0097482205	-0.00097538057	0.0088899726	-0.0067453317	-0.0067116072	0	934.2485064940486
0.10964782	8.3176377e-6	0.46	1.0527025	0.28584659	-0.009753406	-0.00097638946	0.0091958975	-0.0066437075	-0.006610349	0	934.3758551383677
0.10964782	9.1201084e-6	0.46	1.0855541	0.28273768	-0.0097584882	-0.00097803605	0.0095107733	-0.0065389115	-0.0065059159	0	934.5071694193132
0.10964782	0.00001	0.46	1.119422	0.27964871	-0.0097634423	-0.0009803881	0.0098348307	-0.0064308456	-0.0063982104	0	934.6425723466605
0.10964782	0.000010964782	0.46	1.1543378	0.27657151	-0.0097682434	-0.00098351483	0.010168308	-0.0063194086	-0.0062871326	0	934.7821903088607
0.10964782	0.000012022644	0.46	1.1903342	0.27349798	-0.0097728671	-0.00098748336	0.010511456	-0.0062044962	-0.0061725788	0	934.9261546270839
0.10964782	0.000013182567	0.46	1.2274452	0.27042045	-0.0097772908	-0.0009923582	0.010864536	-0.0060860008	-0.0060544426	0	935.074599469383
0.10964782	0.000014454398	0.46	1.2657059	0.26733216	-0.0097814941	-0.00099819811	0.011227829	-0.0059638115	-0.0059326136	0	935.2276654511081
0.10964782	0.000015848932	0.46	1.3051527	0.26422763	-0.0097854594	-0.0010050567	0.011601627	-0.0058378137	-0.0058069781	0	935.3854953110275
0.10964782	0.000017378008	0.46	1.3458233	0.26110318	-0.0097891725	-0.0010129791	0.011986245	-0.0057078893	-0.0056774184	0	935.5482385339881
0.10964782	0.000019054607	0.46	1.3877568	0.25795722	-0.0097926232	-0.0010220027	0.012382015	-0.0055739166	-0.0055438128	0	935.7160481939768
0.10964782	0.000020892961	0.46	1.4309937	0.25479054	-0.0097958055	-0.0010321549	0.012789291	-0.0054357696	-0.0054060354	0	935.8890829272073
0.10964782	0.000022908677	0.46	1.4755756	0.25160634	-0.0097987174	-0.0010434549	0.013208448	-0.0052933186	-0.005263956	0	936.0675066878332
0.10964782	0.000025118864	0.46	1.5215458	0.24841013	-0.0098013607	-0.0010559129	0.013639882	-0.0051464297	-0.0051174401	0	936.2514889358611
0.10964782	0.000027542287	0.46	1.5689488	0.24520944	-0.0098037415	-0.0010695313	0.014084008	-0.0049949647	-0.0049663486	0	936.4412033029676
0.10964782	0.000030199517	0.46	1.6178304	0.24201336	-0.009805869	-0.0010843048	0.014541263	-0.0048387806	-0.0048105375	0	936.636830016578
0.10964782	0.000033113112	0.46	1.668238	0.23883194	-0.0098077548	-0.0011002234	0.015012102	-0.0046777305	-0.0046498587	0	936.8385548287622
0.10964782	0.000036307805	0.46	1.7202201	0.23567562	-0.0098094132	-0.0011172728	0.015496998	-0.0045116622	-0.0044841587	0	937.0465687343644
0.10964782	0.000039810717	0.46	1.7738266	0.23255456	-0.0098108598	-0.0011354353	0.015996442	-0.004340419	-0.0043132798	0	937.2610692863951
0.10964782	0.000043651583	0.46	1.829109	0.22947818	-0.0098121113	-0.0011546922	0.016510941	-0.0041638392	-0.004137059	0	937.4822599195438
0.10964782	0.000047863009	0.46	1.88612	0.22645466	-0.0098131847	-0.0011750247	0.017041016	-0.0039817559	-0.0039553285	0	937.7103498374317
0.10964782	0.000052480746	0.46	1.9449139	0.22349066	-0.0098140973	-0.0011964142	0.017587206	-0.0037939971	-0.0037679156	0	937.945555741411
0.10964782	0.000057543994	0.46	2.0055466	0.22059119	-0.009814866	-0.0012188442	0.018150061	-0.0036003852	-0.0035746421	0	938.1880994628606
0.10964782	0.000063095734	0.46	2.0680756	0.21775951	-0.0098155071	-0.0012422999	0.018730148	-0.0034007371	-0.0033753244	0	938.4382107443
0.10964782	0.000069183097	0.46	2.13256	0.21499728	-0.0098160356	-0.0012667699	0.019328048	-0.0031948639	-0.0031697736	0	938.6961266004846
0.10964782	0.000075857758	0.46	2.1990609	0.21230464	-0.0098164657	-0.0012922461	0.019944355	-0.0029825713	-0.0029577952	0	938.9620904164221
0.10964782	0.000083176377	0.46	2.2676411	0.20968046	-0.0098168103	-0.0013187236	0.020579678	-0.0027636583	-0.0027391885	0	939.2363532815573
0.10964782	0.000091201084	0.46	2.3383654	0.20712264	-0.0098170812	-0.0013462007	0.021234645	-0.0025379181	-0.0025137468	0	939.5191755306569
0.10964782	0.0001	0.46	2.4113004	0.20462872	-0.0098172906	-0.001374676	0.021909898	-0.0023051371	-0.0022812568	0	939.810823173463
0.10964782	0.00010964782	0.46	2.4865135	0.20219835	-0.0098174611	-0.0014041292	0.022606123	-0.0020650954	-0.0020414987	0	940.1115714650405
0.10964782	0.00012022644	0.46	2.5640615	0.19984498	-0.0098177226	-0.001434339	0.023324224	-0.0018175665	-0.0017942445	0	940.4216890647058
0.10964782	0.00013182567	0.46	2.6438813	0.19761296	-0.0098192003	-0.0014632146	0.024066997	-0.0015623224	-0.0015392609	0	940.7413272048971
0.10964782	0.00014454398	0.46	2.7251306	0.19502777	-0.0098297139	-0.0014760143	0.024849912	-0.0012991707	-0.0012764108	0	941.0698249013913
0.10964782	0.00015848932	0.46	2.8067826	0.18951487	-0.0098657046	-0.0014399682	0.025706488	-0.0010280405	-0.001005924	0	941.4062214862001
0.10964782	0.00017378008	0.46	2.8914048	0.18235989	-0.009922753	-0.0013591986	0.026633377	-0.00074878516	-0.00072750366	0	941.7532222686275
0.10964782	0.00019054607	0.46	2.9802677	0.17697456	-0.009988848	-0.0012568476	0.027608234	-0.00046102459	-0.00044037156	0	942.1124549516855
0.10964782	0.00020892961	0.46	3.0727934	0.1734281	-0.010059177	-0.0011446876	0.028620109	-0.00016436847	-0.00014412931	0	942.4837086969096
0.10964782	0.00022908677	0.46	3.1685464	0.17085797	-0.010132288	-0.0010270064	0.029665563	0.00014151802	0.00016145725	0	942.8668614171786
0.10964782	0.00025118864	0.46	3.2674037	0.16871056	-0.010207776	-0.00090516841	0.030744106	0.00045694325	0.00047663187	0	943.2620818584289
0.10964782	0.00027542287	0.46	3.3693817	0.16674947	-0.010285564	-0.0007795463	0.031856266	0.0007822118	0.00080167156	0	943.6696705688248
0.10964782	0.00030199517	0.46	3.4745031	0.16495065	-0.010365681	-0.00065028237	0.033002831	0.0011176316	0.0011368814	0	944.0899408746193
0.10964782	0.00033113112	0.46	3.5823629	0.16353538	-0.010448325	-0.00051820121	0.034183937	0.0014634988	0.0014825835	0	944.5227655210815
0.10964782	0.00036307805	0.46	3.6892432	0.16114782	-0.010535499	-0.00038823504	0.035395639	0.0018199521	0.0018387582	0	944.9645575295744
0.10964782	0.00039810717	0.46	3.791309	0.14926881	-0.010650571	-0.00022037966	0.036678961	0.002186578	0.0022039978	0	945.4110917123019
0.10964782	0.00043651583	0.46	3.9022337	0.1410959	-0.010801593	0.000033982633	0.038083572	0.0025636176	0.0025800836	0	945.8762696338954
0.10964782	0.00047863009	0.46	4.0199843	0.13431112	-0.010913916	0.00020847726	0.039444183	0.0029518506	0.0029675248	0	946.3587909922845
0.10964782	0.00052480746	0.46	4.1444891	0.13062909	-0.011016107	0.0003654454	0.040824252	0.0033519783	0.0033672228	0	946.859241775587
0.10964782	0.00057543994	0.46	4.2735682	0.12873479	-0.011118053	0.00052137747	0.042241423	0.003764549	0.0037795725	0	947.3759582390633
0.10964782	0.00063095734	0.46	4.4040698	0.12705423	-0.011212463	0.00065265374	0.043673265	0.004189891	0.0042047183	0	947.9060960741122
0.10964782	0.00069183097	0.46	4.534882	0.12119699	-0.011241407	0.00062941622	0.044991146	0.0046279452	0.004642089	0	948.4484895432124
0.10964782	0.00075857758	0.46	4.6760005	0.11890089	-0.011212378	0.00049120508	0.04623587	0.0050793521	0.0050932279	0	949.0137339744858
0.10964782	0.00083176377	0.46	4.8222828	0.11752316	-0.011178377	0.00034167162	0.047512392	0.0055448618	0.0055585769	0	949.597393022219
0.10964782	0.00091201084	0.46	4.9731885	0.11618269	-0.011143281	0.00018765437	0.048828895	0.0060249373	0.0060384959	0	950.1993606846493
0.10964782	0.001	0.46	5.128853	0.11485262	-0.01110713	0.00002916627	0.050186778	0.0065200377	0.0065334411	0	950.820204027048
0.10964782	0.0010964782	0.46	5.28943	0.11353211	-0.011069895	-0.00013389801	0.051587365	0.0070306369	0.0070438861	0	951.4605225296909
0.10964782	0.0012022644	0.46	5.4550784	0.11222097	-0.011031546	-0.00030164741	0.053032021	0.0075572241	0.0075703204	0	952.1209343326221
0.10964782	0.0013182567	0.46	5.6259628	0.11091917	-0.010992053	-0.00047418798	0.054522161	0.0081003053	0.0081132496	0	952.8020791858884
0.10964782	0.0014454398	0.46	5.8022531	0.10962693	-0.010951384	-0.00065162941	0.05605924	0.008660401	0.0086731945	0	953.5046160066693
0.10964782	0.0015848932	0.46	5.9841256	0.10834512	-0.010909508	-0.00083407778	0.057644771	0.0092380503	0.0092506942	0	954.2292278401833
0.10964782	0.0017378008	0.46	6.1717624	0.10707571	-0.010866393	-0.0010216373	0.059280314	0.0098338093	0.0098463051	0	954.9766189846166
0.10964782	0.0019054607	0.46	6.3653515	0.105823	-0.010822008	-0.0012144113	0.060967485	0.010448252	0.010460601	0	955.7475170017938
0.10964782	0.0020892961	0.46	6.5650873	0.10459603	-0.010776324	-0.0014124968	0.06270796	0.011081971	0.011094178	0	956.5426735064123
0.10964782	0.0022908677	0.46	6.7711681	0.10341359	-0.010729317	-0.0016159814	0.064503478	0.011735579	0.011747648	0	957.3628626439463
0.10964782	0.0025118864	0.46	6.9837937	0.10231576	-0.010680976	-0.0018249402	0.066355848	0.012409709	0.012421649	0	958.2088765995252
0.10964782	0.0027542287	0.46	7.2031505	0.10139266	-0.010631321	-0.002039427	0.068266959	0.01310501	0.013116842	0	959.0815130077572
0.10964782	0.0030199517	0.46	7.4293537	0.10086825	-0.010580439	-0.0022595363	0.070238722	0.013822149	0.01383392	0	959.9815160607733
0.10964782	0.0033113112	0.46	7.6621151	0.10134433	-0.010528524	-0.0024861381	0.072272331	0.01456179	0.014573617	0	960.9092195297687
0.10964782	0.0036307805	0.46	7.8985695	0.10380941	-0.01047539	-0.0027272125	0.074361937	0.01532448	0.015336594	0	961.8622702357418
0.10964782	0.0039810717	0.46	8.1284246	0.10270822	-0.010447344	-0.0029518466	0.07654065	0.016110094	0.01612208	0	962.8302611770492
0.10964782	0.0043651583	0.46	8.3716918	0.095088286	-0.010517853	-0.0029563039	0.079014473	0.01691863	0.016929727	0	963.8331998152894
0.10964782	0.0047863009	0.46	8.6303233	0.091467827	-0.010575429	-0.0029768607	0.081549464	0.017751882	0.017762557	0	964.8747266655321
0.10964782	0.0052480746	0.46	8.8990575	0.087973937	-0.010597147	-0.0030754921	0.084086058	0.018610978	0.018621244	0	965.950637266793
0.10964782	0.0057543994	0.46	9.1781185	0.0846968	-0.010603218	-0.0032079994	0.086670938	0.01949694	0.019506824	0	967.062118459231
0.10964782	0.0063095734	0.46	9.4481129	0.079824005	-0.010807646	-0.0029566991	0.089724348	0.02040972	0.020419036	0	968.1897289821193
0.10964782	0.0069183097	0.46	9.6933897	0.074859456	-0.011082126	-0.0026417062	0.092928815	0.021348242	0.021356978	0	969.3168079177235
0.10964782	0.0075857758	0.46	9.9509075	0.067131213	-0.011381485	-0.0022793231	0.09627076	0.022312096	0.02231993	0	970.4799294069716
0.10964782	0.0083176377	0.46	10.251858	0.060419291	-0.011358273	-0.0025547605	0.099067782	0.023301629	0.02330868	0	971.7106116768941
0.10964782	0.0091201084	0.46	10.578438	0.060104655	-0.011255475	-0.0029714689	0.10181932	0.024322551	0.024329565	0	972.9964120071872
0.10964782	0.01	0.46	10.880217	0.060107568	-0.010933749	-0.0039534423	0.10410438	0.025374213	0.025381228	0	974.28629768037
0.10964782	0.010964782	0.46	11.168206	0.053208046	-0.010926912	-0.0043248386	0.10710188	0.026453384	0.026459594	0	975.5882411715155
0.10964782	0.012022644	0.46	11.527363	0.052763304	-0.011012747	-0.0043631208	0.11053752	0.027565685	0.027571843	0	976.9924773972723
0.10964782	0.013182567	0.46	11.898758	0.052084566	-0.011105761	-0.0043879687	0.1140949	0.028713786	0.028719865	0	978.4425845188075
0.10964782	0.014454398	0.46	12.282612	0.051618091	-0.011206681	-0.0043980063	0.11777879	0.029898908	0.029904932	0	979.9399410664029
0.10964782	0.015848932	0.46	12.679771	0.050749091	-0.011318722	-0.004385068	0.12160081	0.031122293	0.031128215	0	981.4865485021669
0.10964782	0.017378008	0.46	13.090528	0.050464064	-0.011440505	-0.0043521322	0.12556159	0.032385292	0.032391181	0	983.0839747727551
0.10964782	0.019054607	0.46	13.51509	0.049409424	-0.011578923	-0.0042846163	0.12967942	0.033689202	0.033694968	0	984.7336483933266
0.10964782	0.020892961	0.46	13.955429	0.049128017	-0.011730532	-0.0041859929	0.13395463	0.035035527	0.035041261	0	986.4389478529663
0.10964782	0.022908677	0.46	14.408357	0.048168561	-0.011904861	-0.004043942	0.13840348	0.036425609	0.03643123	0	988.1979476064461
0.10964782	0.025118864	0.46	14.881669	0.046899082	-0.012104975	-0.0038343022	0.1430542	0.037861069	0.037866542	0	990.01996889369
0.10964782	0.027542287	0.46	15.372982	0.046164797	-0.012306181	-0.003616292	0.14785175	0.039343821	0.039349209	0	991.9044241105285
0.10964782	0.030199517	0.46	15.882273	0.045450079	-0.012505166	-0.0033976873	0.15279267	0.040875611	0.040880915	0	993.8529306247549
0.10964782	0.033113112	0.46	16.410339	0.044725681	-0.012700979	-0.0031792538	0.15788065	0.042458239	0.042463458	0	995.867976781242
0.10964782	0.036307805	0.46	16.958044	0.043988625	-0.012892615	-0.0029616684	0.16311961	0.044093587	0.044098721	0	997.9522010674059
0.10964782	0.039810717	0.46	17.526307	0.043236324	-0.013078953	-0.002745696	0.1685135	0.045783625	0.045788671	0	1000.108363926245
0.10964782	0.043651583	0.46	18.116106	0.042465685	-0.013258742	-0.0025321922	0.17406637	0.047530417	0.047535373	0	1002.3393911642589
0.10964782	0.047863009	0.46	18.728481	0.041672925	-0.013430585	-0.0023221224	0.17978226	0.049336123	0.049340986	0	1004.6483414424881
0.10964782	0.052480746	0.46	19.364541	0.040853345	-0.013592927	-0.0021165595	0.18566531	0.051203009	0.051207777	0	1007.0384650933045
0.10964782	0.057543994	0.46	20.025468	0.040001007	-0.01374404	-0.0019167053	0.19171966	0.053133457	0.053138126	0	1009.5131749938854
0.10964782	0.063095734	0.46	20.712525	0.039108241	-0.013882002	-0.0017239034	0.19794948	0.055129964	0.055134528	0	1012.0760792630876
0.10964782	0.069183097	0.46	20.332857	0.035276583	-0.014753041	-0.0024697465	0.20342888	0.057183537	0.057187654	0	1013.6258782144323
0.10964782	0.075857758	0.46	18.963571	0.028990253	-0.01626092	-0.004599875	0.20771807	0.05910605	0.059109433	0	1014.0629155336801
0.10964782	0.083176377	0.46	17.714767	0.023257052	-0.017636122	-0.0073075445	0.21162987	0.060859403	0.060862117	0	1014.4615035838494
0.10964782	0.091201084	0.46	17.203984	0.018992515	-0.01857391	-0.0097275927	0.21603567	0.062491918	0.062494135	0	1015.4845775021574
0.10964782	0.1	0.46	18.57598	0.017582871	-0.018444338	-0.010064989	0.22273692	0.064243824	0.064245876	0	1018.5025995224639
0.10964782	0.10964782	0.46	20.18719	0.016258483	-0.018011201	-0.010411069	0.22964895	0.066141645	0.066143543	0	1021.8969398271006
0.10964782	0.12022644	0.46	22.079767	0.015015943	-0.017203907	-0.010773322	0.23677108	0.068210811	0.068212563	0	1025.7336303172135
0.10964782	0.13182567	0.46	24.308593	0.013852268	-0.015933118	-0.011160497	0.24410164	0.07048147	0.070483086	0	1030.095888107939
0.10964782	0.14454398	0.46	26.946405	0.012764905	-0.014083977	-0.011582222	0.25163827	0.072989978	0.072991468	0	1035.0906088645374
0.10964782	0.15848932	0.46	30.089961	0.011751726	-0.011507712	-0.012048562	0.2593784	0.075780949	0.07578232	0	1040.8564628491033
0.10964782	0.17378008	0.46	33.866691	0.010811019	-0.0080121313	-0.012569474	0.26731982	0.078909925	0.078911187	0	1047.5730715613786
0.10964782	0.19054607	0.46	38.440611	0.009941447	-0.0033523201	-0.013154144	0.27546132	0.082446699	0.082447859	0	1055.470025499072
0.10964782	0.20892961	0.46	44.015391	0.0091419638	0.0027760036	-0.013810164	0.28380352	0.086479075	0.086480142	0	1064.83348545005
0.10964782	0.22908677	0.46	50.831408	0.0084116582	0.010736703	-0.014542525	0.29234992	0.091116682	0.091117664	0	1076.0068373693864
0.10964782	0.25118864	0.46	59.153116	0.0077495166	0.020942335	-0.01535252	0.30110797	0.096494044	0.096494948	0	1089.3809253156783
0.10964782	0.27542287	0.46	69.243954	0.0071541024	0.033828248	-0.016236793	0.31009006	0.10277182	0.10277265	0	1105.3701425195006
0.10964782	0.30199517	0.46	81.329663	0.0066232051	0.049811525	-0.017186936	0.31931387	0.11013496	0.11013574	0	1124.3740070128047
0.10964782	0.33113112	0.46	95.556925	0.0061535524	0.069241475	-0.018190037	0.32880193	0.11878703	0.11878775	0	1146.730454895809
0.10964782	0.36307805	0.46	111.95983	0.0057407054	0.092355183	-0.019230309	0.33857991	0.12894064	0.12894131	0	1172.6733375950835
0.10964782	0.39810717	0.46	130.44692	0.0053792052	0.11925294	-0.020291478	0.34867427	0.14080558	0.14080621	0	1202.3083210727596
0.10964782	0.43651583	0.46	150.81429	0.0050629445	0.14990138	-0.02135916	0.35910991	0.15457698	0.15457757	0	1235.6148175728874
0.10964782	0.47863009	0.46	172.77922	0.0047856436	0.18416057	-0.022422521	0.36990853	0.17042577	0.17042633	0	1272.47072963867
0.10964782	0.52480746	0.46	196.02198	0.0045412895	0.22182306	-0.023474886	0.38108796	0.18849302	0.18849355	0	1312.6888505653365
0.10964782	0.57543994	0.46	220.22368	0.0043244449	0.26265235	-0.024513443	0.39266255	0.20888823	0.20888874	0	1356.0531752184881
0.10964782	0.63095734	0.46	245.0932	0.0041304027	0.30641268	-0.025538436	0.40464395	0.23169083	0.23169131	0	1402.347226801919
0.10964782	0.69183097	0.46	270.38223	0.0039552163	0.3528881	-0.026552213	0.41704208	0.25695372	0.25695418	0	1451.3723936029019
0.10964782	0.75857758	0.46	295.89049	0.0037956479	0.40189222	-0.027558381	0.42986596	0.28470782	0.28470826	0	1502.9574484804007
0.10964782	0.83176377	0.46	321.46464	0.0036490789	0.45327138	-0.028561165	0.4431244	0.31496674	0.31496716	0	1556.9618255052712
0.10964782	0.91201084	0.46	346.99355	0.0035134083	0.50690383	-0.029564964	0.45682646	0.34773116	0.34773157	0	1613.275048328705
0.10964782	1.	0.46	372.40224	0.0033869568	0.56269701	-0.030574087	0.47098168	0.38299272	0.38299311	0	1671.8142739704858
0.10964782	1.0964782	0.46	397.64559	0.0032683821	0.62058397	-0.031592601	0.4856003	0.42073718	0.42073757	0	1732.5210242590579
0.10964782	1.2022644	0.46	422.70253	0.0031566092	0.68051981	-0.032624267	0.50069328	0.46094715	0.46094752	0	1795.3578496228733
0.10964782	1.3182567	0.46	447.57094	0.0030507736	0.74247836	-0.033672527	0.5162724	0.5036041	0.50360445	0	1860.3052529534425
0.10964782	1.4454398	0.46	472.26342	0.0029501765	0.80644929	-0.034740514	0.53235019	0.54869006	0.54869041	0	1927.358944007463
0.10964782	1.5848932	0.46	496.80377	0.0028542491	0.87243565	-0.03583108	0.54893995	0.59618889	0.59618922	0	1996.5275367200645
0.10964782	1.7378008	0.46	521.22422	0.0027625253	0.94045189	-0.036946835	0.56605575	0.64608717	0.64608749	0	2067.8306888654124
0.10964782	1.9054607	0.46	545.56319	0.0026746201	1.0105222	-0.038090174	0.58371238	0.69837501	0.69837532	0	2141.2975207682252
0.10964782	2.0892961	0.46	569.8635	0.0025902126	1.082679	-0.03926332	0.60192533	0.75304648	0.75304679	0	2216.9651879160947
0.10964782	2.2908677	0.46	594.17104	0.0025090333	1.1569623	-0.040468346	0.62071081	0.81010003	0.81010032	0	2294.878288281664
0.10964782	2.5118864	0.46	618.53369	0.0024308535	1.2334182	-0.041707209	0.6400857	0.86953869	0.86953898	0	2375.087431364598
0.10964782	2.7542287	0.46	643.00054	0.0023554776	1.3120988	-0.042981773	0.66006757	0.93137027	0.93137055	0	2457.649162274702
0.10964782	3.0199517	0.46	667.62126	0.0022827364	1.393061	-0.044293824	0.68067468	0.99560741	0.99560768	0	2542.6248342535055
0.10964782	3.3113112	0.46	692.44562	0.0022124823	1.4763668	-0.045645101	0.70192593	1.0622676	1.0622679	0	2630.080868933862
0.10964782	3.6307805	0.46	717.52326	0.0021445853	1.5620822	-0.047037294	0.72384096	1.1313734	1.1313736	0	2720.087766038069
0.10964782	3.9810717	0.46	742.90334	0.0020789302	1.6502777	-0.048472072	0.74644006	1.2029518	1.202952	0	2812.7205342625384
0.10964782	4.3651583	0.46	768.63448	0.0020154133	1.7410272	-0.049951088	0.76974423	1.277035	1.2770352	0	2908.057683687918
0.10964782	4.7863009	0.46	794.76464	0.0019539411	1.8344086	-0.05147599	0.79377518	1.3536597	1.35366	0	3006.181789518296
0.10964782	5.2480746	0.46	821.34105	0.0018944284	1.9305033	-0.053048429	0.81855536	1.4328674	1.4328677	0	3107.179035264532
0.10964782	5.7543994	0.46	848.41023	0.001836797	2.0293961	-0.054670069	0.84410795	1.5147041	1.5147043	0	3211.13911446572
0.10964782	6.3095734	0.46	876.01802	0.0017809746	2.1311754	-0.056342588	0.87045687	1.5992204	1.5992206	0	3318.1554229242593
0.10964782	6.9183097	0.46	904.20957	0.001726894	2.235933	-0.058067693	0.89762684	1.6864712	1.6864714	0	3428.324896724788
0.10964782	7.5857758	0.46	933.02945	0.0016744925	2.3437638	-0.059847116	0.92564336	1.776516	1.7765162	0	3541.747721720575
0.10964782	8.3176377	0.46	962.52168	0.0016237109	2.4547665	-0.061682624	0.95453275	1.8694186	1.8694188	0	3658.5280085172726
0.10964782	9.1201084	0.46	992.72985	0.0015744937	2.5690429	-0.063576022	0.98432217	1.965247	1.9652471	0	3778.773143421168
0.10964782	10.	0.46	1023.6971	0.0015267881	2.6866985	-0.065529158	1.0150396	2.0640734	2.0640736	0	3902.5943435343906