0.20892961	1.e-12	0.33	93.40031	2061.1838	-0.0043924269	-0.013785834	-0.013785427	-0.10834962	0.34999246	0	931.164115732781
0.20892961	1.0964782e-12	0.33	85.184497	1880.0746	-0.0043719462	-0.013839828	-0.013839382	-0.09960267	0.31846645	0	931.1666295868532
0.20892961	1.2022644e-12	0.33	77.691586	1714.9	-0.0043514655	-0.013893824	-0.013893335	-0.091625125	0.28971438	0	931.1691440610387
0.20892961	1.3182567e-12	0.33	70.857972	1564.2579	-0.0043309848	-0.013947822	-0.013947286	-0.084349283	0.26349219	0	931.171659155337
0.20892961	1.4454398e-12	0.33	64.625642	1426.8696	-0.004310504	-0.014001822	-0.014001235	-0.077713399	0.23957728	0	931.1741749637052
0.20892961	1.5848932e-12	0.33	58.941691	1301.569	-0.0042900232	-0.014055825	-0.01405518	-0.071661167	0.21776662	0	931.1766920122993
0.20892961	1.7378008e-12	0.33	53.757865	1187.2925	-0.0042695424	-0.014109829	-0.014109123	-0.066141228	0.19787506	0	931.179209681007
0.20892961	1.9054607e-12	0.33	49.030162	1083.07	-0.0042490616	-0.014163836	-0.014163062	-0.061106749	0.17973376	0	931.1817285899408
0.20892961	2.0892961e-12	0.33	44.718448	988.01694	-0.0042285808	-0.014217846	-0.014216996	-0.056515014	0.1631887	0	931.1842490491574
0.20892961	2.2908677e-12	0.33	40.786119	901.3265	-0.0042081	-0.014271857	-0.014270926	-0.052327066	0.14809944	0	931.1867707486003
0.20892961	2.5118864e-12	0.33	37.199793	822.26283	-0.0041876191	-0.014325871	-0.01432485	-0.048507375	0.13433787	0	931.1892944023391
0.20892961	2.7542287e-12	0.33	33.929027	750.1549	-0.0041671383	-0.014379888	-0.014378769	-0.045023539	0.12178718	0	931.1918195124041
0.20892961	3.0199517e-12	0.33	30.946055	684.39067	-0.0041466574	-0.014433907	-0.01443268	-0.041846007	0.11034083	0	931.1943471968784
0.20892961	3.3113112e-12	0.33	28.225555	624.41197	-0.0041261766	-0.014487929	-0.014486584	-0.038947826	0.099901645	0	931.1968769577919
0.20892961	3.6307805e-12	0.33	25.744431	569.70973	-0.0041056957	-0.014541954	-0.014540479	-0.036304416	0.090381007	0	931.199409603171
0.20892961	3.9810717e-12	0.33	23.481623	519.8197	-0.0040852148	-0.014595982	-0.014594364	-0.033893361	0.081698098	0	931.2019453491157
0.20892961	4.3651583e-12	0.33	21.41792	474.31845	-0.0040647339	-0.014650013	-0.014648238	-0.031694214	0.073779206	0	931.204484505683
0.20892961	4.7863009e-12	0.33	19.535804	432.81984	-0.0040442531	-0.014704046	-0.014702101	-0.029688331	0.06655711	0	931.2070269789158
0.20892961	5.2480746e-12	0.33	17.819298	394.97166	-0.0040237722	-0.014758083	-0.01475595	-0.027858706	0.059970498	0	931.2095738868968
0.20892961	5.7543994e-12	0.33	16.253831	360.45274	-0.0040032914	-0.014812123	-0.014809785	-0.026189829	0.05396346	0	931.2121250417135
0.20892961	6.3095734e-12	0.33	14.826112	328.97015	-0.0039828105	-0.014866167	-0.014863602	-0.024667555	0.048485	0	931.2146818715048
0.20892961	6.9183097e-12	0.33	13.524023	300.25672	-0.0039623296	-0.014920214	-0.014917402	-0.023278986	0.043488611	0	931.2172439722578
0.20892961	7.5857758e-12	0.33	12.336509	274.06882	-0.0039418487	-0.014974264	-0.014971181	-0.022012356	0.038931881	0	931.2198125841985
0.20892961	8.3176377e-12	0.33	11.253491	250.18424	-0.0039213678	-0.015028319	-0.015024938	-0.020856934	0.034776126	0	931.2223880173838
0.20892961	9.1201084e-12	0.33	10.265773	228.40031	-0.003900887	-0.015082376	-0.01507867	-0.019802935	0.030986069	0	931.2249711080266
0.20892961	1.e-11	0.33	9.3649727	208.53222	-0.0038804061	-0.015136438	-0.015132374	-0.018841435	0.027529535	0	931.2275629742098
0.20892961	1.0964782e-11	0.33	8.5434416	190.41141	-0.0038599252	-0.015190504	-0.015186048	-0.017964293	0.024377182	0	931.23016414209
0.20892961	1.2022644e-11	0.33	7.7942065	173.88416	-0.0038394443	-0.015244574	-0.015239688	-0.017164086	0.021502252	0	931.2327758518933
0.20892961	1.3182567e-11	0.33	7.1109069	158.81027	-0.0038189634	-0.015298648	-0.015293291	-0.016434043	0.018880336	0	931.2353990337897
0.20892961	1.4454398e-11	0.33	6.4877424	145.06187	-0.0037984825	-0.015352727	-0.015346852	-0.01576799	0.01648918	0	931.2380352380617
0.20892961	1.5848932e-11	0.33	5.9194231	132.52235	-0.0037780017	-0.01540681	-0.015400369	-0.015160295	0.014308484	0	931.2406849908662
0.20892961	1.7378008e-11	0.33	5.4011246	121.08538	-0.0037575208	-0.015460898	-0.015453836	-0.014605822	0.012319737	0	931.2433503404552
0.20892961	1.9054607e-11	0.33	4.928447	110.65396	-0.0037370399	-0.015514991	-0.015507247	-0.014099886	0.010506056	0	931.2460330532123
0.20892961	2.0892961e-11	0.33	4.4973779	101.13965	-0.003716559	-0.015569089	-0.015560598	-0.013638214	0.0088520451	0	931.2487343693631
0.20892961	2.2908677e-11	0.33	4.104258	92.461779	-0.0036960781	-0.015623191	-0.015613882	-0.013216911	0.0073436639	0	931.2514564593039
0.20892961	2.5118864e-11	0.33	3.7457501	84.546781	-0.0036755973	-0.0156773	-0.015667093	-0.012832422	0.0059681079	0	931.2542010894172
0.20892961	2.7542287e-11	0.33	3.4188112	77.32757	-0.0036551164	-0.015731413	-0.015720222	-0.012481505	0.0047137002	0	931.2569712381255
0.20892961	3.0199517e-11	0.33	3.1206657	70.742963	-0.0036346355	-0.015785532	-0.015773263	-0.012161205	0.0035697923	0	931.2597686718117
0.20892961	3.3113112e-11	0.33	2.8487828	64.737167	-0.0036141546	-0.015839657	-0.015826205	-0.011868824	0.0025266739	0	931.262596801098
0.20892961	3.6307805e-11	0.33	2.6008546	59.259298	-0.0035936737	-0.015893788	-0.01587904	-0.011601903	0.00157549	0	931.2654581064365
0.20892961	3.9810717e-11	0.33	2.3747765	54.262957	-0.0035731928	-0.015947926	-0.015931756	-0.011358199	0.00070816613	0	931.2683563085063
0.20892961	4.3651583e-11	0.33	2.1686293	49.705832	-0.003552712	-0.016002069	-0.015984343	-0.011135665	-0.000082660102	0	931.2712944139168
0.20892961	4.7863009e-11	0.33	1.9806632	45.549337	-0.0035322311	-0.016056219	-0.016036786	-0.010932434	-0.0008037021	0	931.274277261429
0.20892961	5.2480746e-11	0.33	1.8092825	41.758289	-0.0035117502	-0.016110376	-0.016089073	-0.010746803	-0.0014610808	0	931.2773084777655
0.20892961	5.7543994e-11	0.33	1.6530325	38.300606	-0.0034912693	-0.01616454	-0.016141188	-0.01057722	-0.0020603767	0	931.2803930238313
0.20892961	6.3095734e-11	0.33	1.5105866	35.147036	-0.0034707884	-0.016218711	-0.016193114	-0.010422267	-0.0026066776	0	931.2835361705879
0.20892961	6.9183097e-11	0.33	1.3807356	32.270905	-0.0034503075	-0.01627289	-0.016244834	-0.01028065	-0.0031046214	0	931.2867431889972
0.20892961	7.5857758e-11	0.33	1.2623771	29.647897	-0.0034298267	-0.016327076	-0.016296328	-0.010151191	-0.0035584361	0	931.2900201862335
0.20892961	8.3176377e-11	0.33	1.1545062	27.255841	-0.0034093458	-0.01638127	-0.016347574	-0.010032812	-0.0039719749	0	931.2933741714548
0.20892961	9.1201084e-11	0.33	1.0562069	25.074524	-0.0033888649	-0.016435472	-0.016398551	-0.0099245308	-0.0043487499	0	931.2968115618921
0.20892961	1.e-10	0.33	0.96664435	23.08552	-0.003368384	-0.016489683	-0.016449232	-0.0098254513	-0.0046919618	0	931.3003407290728
0.20892961	1.0964782e-10	0.33	0.88505766	21.272034	-0.0033479031	-0.016543902	-0.016499591	-0.0097347545	-0.005004527	0	931.3039697344677
0.20892961	1.2022644e-10	0.33	0.81075352	19.618755	-0.0033274222	-0.01659813	-0.0165496	-0.0096516931	-0.0052891025	0	931.3077072596603
0.20892961	1.3182567e-10	0.33	0.74310012	18.111727	-0.0033069413	-0.016652367	-0.016599229	-0.0095755846	-0.0055481095	0	931.3115626063479
0.20892961	1.4454398e-10	0.33	0.68152179	16.738228	-0.0032864604	-0.016706614	-0.016648445	-0.0095058058	-0.0057837533	0	931.3155460063972
0.20892961	1.5848932e-10	0.33	0.62549397	15.486662	-0.0032659796	-0.016760871	-0.016697215	-0.0094417874	-0.0059980436	0	931.3196675977181
0.20892961	1.7378008e-10	0.33	0.57453866	14.346457	-0.0032454987	-0.016815138	-0.016745503	-0.0093830087	-0.0061928103	0	931.3239387302599
0.20892961	1.9054607e-10	0.33	0.52822027	13.307972	-0.0032250178	-0.016869415	-0.016793273	-0.0093289945	-0.0063697225	0	931.3283704721028
0.20892961	2.0892961e-10	0.33	0.48614164	12.362412	-0.0032045369	-0.016923703	-0.01684049	-0.0092793098	-0.0065303005	0	931.3329736752264
0.20892961	2.2908677e-10	0.33	0.4479406	11.501751	-0.003184056	-0.016978001	-0.016887115	-0.0092335571	-0.0066759316	0	931.3377604318367
0.20892961	2.5118864e-10	0.33	0.41328658	10.718658	-0.0031635752	-0.017032312	-0.016933114	-0.0091913728	-0.0068078823	0	931.3427411899006
0.20892961	2.7542287e-10	0.33	0.3818776	10.006432	-0.0031430943	-0.017086634	-0.016978452	-0.0091524242	-0.0069273103	0	931.3479269893107
0.20892961	3.0199517e-10	0.33	0.35343748	9.3589378	-0.0031226134	-0.017140968	-0.017023097	-0.0091164067	-0.0070352749	0	931.3533276579209
0.20892961	3.3113112e-10	0.33	0.32771318	8.7705527	-0.0031021326	-0.017195315	-0.017067022	-0.0090830421	-0.0071327486	0	931.3589514733015
0.20892961	3.6307805e-10	0.33	0.30447246	8.2361118	-0.0030816517	-0.017249674	-0.017110204	-0.0090520756	-0.0072206249	0	931.364805754667
0.20892961	3.9810717e-10	0.33	0.28350175	7.7508627	-0.0030611709	-0.017304047	-0.017152625	-0.0090232745	-0.0072997278	0	931.3708958951222
0.20892961	4.3651583e-10	0.33	0.26460418	7.3104248	-0.0030406901	-0.017358433	-0.017194278	-0.0089964258	-0.0073708186	0	931.3772241590198
0.20892961	4.7863009e-10	0.33	0.24759795	6.9107509	-0.0030202093	-0.017412834	-0.017235159	-0.0089713356	-0.0074346032	0	931.3837917865858
0.20892961	5.2480746e-10	0.33	0.23231489	6.5480993	-0.0029997286	-0.017467249	-0.017275274	-0.0089478267	-0.0074917365	0	931.3905968235244
0.20892961	5.7543994e-10	0.33	0.2185993	6.219007	-0.0029792479	-0.017521679	-0.017314636	-0.0089257378	-0.0075428274	0	931.397635333057
0.20892961	6.3095734e-10	0.33	0.20630699	5.9202694	-0.0029587672	-0.017576124	-0.017353268	-0.0089049226	-0.0075884419	0	931.4049001838823
0.20892961	6.9183097e-10	0.33	0.19530458	5.6489253	-0.0029382867	-0.017630585	-0.017391195	-0.0088852481	-0.0076291058	0	931.4123834366733
0.20892961	7.5857758e-10	0.33	0.18546893	5.4022439	-0.0029178063	-0.017685062	-0.017428451	-0.008866594	-0.0076653058	0	931.4200746434631
0.20892961	8.3176377e-10	0.33	0.17668669	5.1777146	-0.0028973262	-0.017739556	-0.017465072	-0.0088488516	-0.0076974916	0	931.4279624543026
0.20892961	9.1201084e-10	0.33	0.16885392	4.9730389	-0.0028768462	-0.017794066	-0.017501095	-0.0088319226	-0.007726076	0	931.4360355850115
0.20892961	1.e-9	0.33	0.16187577	4.786121	-0.0028563667	-0.017848594	-0.017536558	-0.0088157189	-0.007751437	0	931.4442818776145
0.20892961	1.0964782e-9	0.33	0.15566604	4.6150595	-0.0028358877	-0.017903139	-0.017571498	-0.0088001609	-0.0077739177	0	931.4526898600186
0.20892961	1.2022644e-9	0.33	0.15014686	4.4581375	-0.0028154095	-0.017957701	-0.017605949	-0.0087851772	-0.0077938284	0	931.461248708431
0.20892961	1.3182567e-9	0.33	0.14524818	4.313811	-0.0027949324	-0.01801228	-0.01763994	-0.0087707036	-0.0078114485	0	931.4699491493416
0.20892961	1.4454398e-9	0.33	0.14090729	4.1806984	-0.0027744569	-0.018066875	-0.017673499	-0.0087566822	-0.0078270271	0	931.4787820313838
0.20892961	1.5848932e-9	0.33	0.1370683	4.0575659	-0.0027539838	-0.018121485	-0.017706645	-0.0087430615	-0.0078407872	0	931.4877407118308
0.20892961	1.7378008e-9	0.33	0.13368157	3.9433156	-0.0027335141	-0.018176108	-0.017739394	-0.0087297945	-0.0078529259	0	931.4968192902121
0.20892961	1.9054607e-9	0.33	0.13070315	3.8369712	-0.0027130496	-0.01823074	-0.017771756	-0.0087168392	-0.0078636181	0	931.5060129747444
0.20892961	2.0892961e-9	0.33	0.12809421	3.7376635	-0.0026925927	-0.018285376	-0.017803731	-0.0087041574	-0.0078730193	0	931.5153195104712
0.20892961	2.2908677e-9	0.33	0.12582048	3.6446164	-0.0026721473	-0.018340005	-0.017835315	-0.0086917147	-0.0078812673	0	931.5247364733133
0.20892961	2.5118864e-9	0.33	0.12385168	3.5571305	-0.0026517194	-0.018394614	-0.017866491	-0.0086794796	-0.0078884863	0	931.5342634968405
0.20892961	2.7542287e-9	0.33	0.12216093	3.4745668	-0.0026313181	-0.018449179	-0.017897234	-0.0086674237	-0.00789479	0	931.5438997824223
0.20892961	3.0199517e-9	0.33	0.12072414	3.3963258	-0.0026109574	-0.018503664	-0.017927498	-0.0086555211	-0.0079002856	0	931.5536464387458
0.20892961	3.3113112e-9	0.33	0.11951941	3.3218248	-0.0025906588	-0.018558016	-0.017957217	-0.0086437476	-0.0079050788	0	931.5635037288891
0.20892961	3.6307805e-9	0.33	0.11852619	3.2504654	-0.0025704553	-0.018612148	-0.017986292	-0.0086320817	-0.007909281	0	931.573471342796
0.20892961	3.9810717e-9	0.33	0.11772447	3.1815949	-0.0025503963	-0.018665932	-0.018014578	-0.0086205036	-0.0079130176	0	931.5835478241397
0.20892961	4.3651583e-9	0.33	0.1170934	3.1144402	-0.0025305584	-0.018719171	-0.018041855	-0.0086089957	-0.0079164427	0	931.5937294146595
0.20892961	4.7863009e-9	0.33	0.11660681	3.0478503	-0.0025110839	-0.018771493	-0.01806773	-0.0085975421	-0.0079197966	0	931.6040042664358
0.20892961	5.2480746e-9	0.33	0.11620173	2.9784286	-0.0024924689	-0.018821585	-0.018090868	-0.0085861314	-0.0079238231	0	931.6143201866136
0.20892961	5.7543994e-9	0.33	0.1156475	2.8927316	-0.0024767949	-0.018863916	-0.018105708	-0.0085747648	-0.0079315128	0	931.6244456944773
0.20892961	6.3095734e-9	0.33	0.11468799	2.7757708	-0.0024666643	-0.018891544	-0.018105282	-0.0085634722	-0.0079462286	0	931.6340961393089
0.20892961	6.9183097e-9	0.33	0.1135289	2.6401426	-0.0024606834	-0.018908156	-0.018093247	-0.008552286	-0.0079652018	0	931.6434471164764
0.20892961	7.5857758e-9	0.33	0.11242244	2.5011427	-0.0024567972	-0.018919217	-0.018075035	-0.0085412124	-0.0079850374	0	931.6527452055107
0.20892961	8.3176377e-9	0.33	0.11148146	2.3656388	-0.0024540129	-0.018927368	-0.018053256	-0.0085302395	-0.0080041963	0	931.6621139592546
0.20892961	9.1201084e-9	0.33	0.1107501	2.2363313	-0.0024518793	-0.018933811	-0.018029078	-0.0085193489	-0.0080220596	0	931.671615163526
0.20892961	1.e-8	0.33	0.1102447	2.114217	-0.0024501679	-0.018939157	-0.018003077	-0.008508519	-0.0080383841	0	931.6812849164256
0.20892961	1.0964782e-8	0.33	0.10996952	1.9995459	-0.0024487503	-0.018943748	-0.017975558	-0.0084977273	-0.0080530915	0	931.6911492908918
0.20892961	1.2022644e-8	0.33	0.10992331	1.8922171	-0.0024475483	-0.018947795	-0.017946695	-0.0084869514	-0.0080661822	0	931.7012278110924
0.20892961	1.3182567e-8	0.33	0.11010218	1.7919576	-0.0024465105	-0.018951436	-0.017916589	-0.008476169	-0.0080776943	0	931.7115374549737
0.20892961	1.4454398e-8	0.33	0.11050109	1.6984123	-0.002445602	-0.018954765	-0.017885295	-0.0084653581	-0.0080876849	0	931.7220939602548
0.20892961	1.5848932e-8	0.33	0.11111456	1.6111907	-0.0024447976	-0.018957852	-0.017852843	-0.0084544976	-0.0080962197	0	931.732911702286
0.20892961	1.7378008e-8	0.33	0.11193708	1.529893	-0.0024440787	-0.018960749	-0.017819245	-0.0084435667	-0.0081033669	0	931.7440044363038
0.20892961	1.9054607e-8	0.33	0.11296335	1.4541243	-0.0024434311	-0.018963494	-0.017784499	-0.0084325451	-0.0081091938	0	931.7553861242493
0.20892961	2.0892961e-8	0.33	0.1141884	1.3835031	-0.0024428436	-0.01896612	-0.017748595	-0.0084214131	-0.0081137658	0	931.7670703898202
0.20892961	2.2908677e-8	0.33	0.11560763	1.3176655	-0.0024423075	-0.018968652	-0.017711516	-0.0084101515	-0.0081171444	0	931.7790706781966
0.20892961	2.5118864e-8	0.33	0.1172169	1.256268	-0.0024418155	-0.018971111	-0.01767324	-0.0083987414	-0.0081193872	0	931.7914006694498
0.20892961	2.7542287e-8	0.33	0.11901245	1.1989876	-0.0024413618	-0.018973516	-0.017633743	-0.0083871645	-0.0081205475	0	931.8040732544166
0.20892961	3.0199517e-8	0.33	0.12099101	1.1455225	-0.0024409412	-0.018975881	-0.017592993	-0.0083754024	-0.0081206744	0	931.8171032406469
0.20892961	3.3113112e-8	0.33	0.12314971	1.0955915	-0.0024405497	-0.018978221	-0.01755096	-0.0083634376	-0.0081198127	0	931.830503688099
0.20892961	3.6307805e-8	0.33	0.12548612	1.0489331	-0.0024401837	-0.018980546	-0.017507609	-0.0083512524	-0.0081180029	0	931.8442888311882
0.20892961	3.9810717e-8	0.33	0.1279982	1.0053044	-0.00243984	-0.018982868	-0.017462904	-0.0083388296	-0.0081152817	0	931.8584728385597
0.20892961	4.3651583e-8	0.33	0.13068433	0.96448058	-0.002439516	-0.018985196	-0.017416806	-0.008326152	-0.008111682	0	931.8730702452895
0.20892961	4.7863009e-8	0.33	0.13354329	0.92625339	-0.0024392093	-0.018987538	-0.017369274	-0.0083132027	-0.0081072332	0	931.8880960186536
0.20892961	5.2480746e-8	0.33	0.13657421	0.89043018	-0.0024389178	-0.018989902	-0.017320266	-0.0082999645	-0.008101961	0	931.9035651541151
0.20892961	5.7543994e-8	0.33	0.13977663	0.85683293	-0.0024386396	-0.018992297	-0.017269739	-0.0082864209	-0.0080958883	0	931.9194927692806
0.20892961	6.3095734e-8	0.33	0.14315042	0.82529718	-0.0024383732	-0.018994727	-0.017217647	-0.008272555	-0.008089035	0	931.9358945360999
0.20892961	6.9183097e-8	0.33	0.14669581	0.79567104	-0.0024381171	-0.018997201	-0.017163943	-0.0082583499	-0.0080814178	0	931.9527864365797
0.20892961	7.5857758e-8	0.33	0.15041338	0.76781434	-0.0024378699	-0.018999724	-0.017108578	-0.0082437888	-0.0080730512	0	931.9701849788833
0.20892961	8.3176377e-8	0.33	0.15430404	0.74159771	-0.0024376305	-0.019002302	-0.017051501	-0.0082288549	-0.0080639471	0	931.9881070094169
0.20892961	9.1201084e-8	0.33	0.15836902	0.7169018	-0.0024373978	-0.019004941	-0.016992659	-0.008213531	-0.0080541148	0	932.0065699947011
0.20892961	1.e-7	0.33	0.16260989	0.6936165	-0.0024371708	-0.019007645	-0.016932	-0.0081978	-0.0080435617	0	932.025590997242
0.20892961	1.0964782e-7	0.33	0.16702852	0.67164029	-0.0024369486	-0.01901042	-0.016869467	-0.0081816446	-0.0080322931	0	932.0451885358733
0.20892961	1.2022644e-7	0.33	0.17162711	0.6508795	-0.0024367304	-0.019013272	-0.016805001	-0.0081650474	-0.0080203124	0	932.0653816555841
0.20892961	1.3182567e-7	0.33	0.17640812	0.63124775	-0.0024365154	-0.019016204	-0.016738545	-0.0081479903	-0.0080076208	0	932.0861887812514
0.20892961	1.4454398e-7	0.33	0.18137435	0.6126654	-0.002436303	-0.019019222	-0.016670036	-0.0081304556	-0.0079942182	0	932.1076300101774
0.20892961	1.5848932e-7	0.33	0.18652888	0.59505897	-0.0024360926	-0.019022331	-0.01659941	-0.0081124247	-0.0079801024	0	932.1297257497222
0.20892961	1.7378008e-7	0.33	0.19187507	0.57836071	-0.0024358835	-0.019025535	-0.016526603	-0.0080938793	-0.0079652701	0	932.1524965012013
0.20892961	1.9054607e-7	0.33	0.1974166	0.56250809	-0.0024356752	-0.019028839	-0.016451546	-0.0080748002	-0.0079497162	0	932.1759641283004
0.20892961	2.0892961e-7	0.33	0.20315739	0.54744346	-0.0024354671	-0.019032248	-0.01637417	-0.0080551682	-0.0079334341	0	932.2001505886619
0.20892961	2.2908677e-7	0.33	0.20910166	0.53311358	-0.0024352589	-0.019035766	-0.016294403	-0.0080349635	-0.0079164159	0	932.225078488228
0.20892961	2.5118864e-7	0.33	0.21525392	0.51946932	-0.0024350501	-0.019039398	-0.016212171	-0.0080141659	-0.0078986523	0	932.2507712409672
0.20892961	2.7542287e-7	0.33	0.22161895	0.50646535	-0.0024348402	-0.01904315	-0.016127396	-0.0079927549	-0.007880133	0	932.2772535010745
0.20892961	3.0199517e-7	0.33	0.2282018	0.49405975	-0.0024346289	-0.019047025	-0.01604	-0.0079707092	-0.0078608459	0	932.3045497348313
0.20892961	3.3113112e-7	0.33	0.2350078	0.48221384	-0.0024344157	-0.019051028	-0.015949902	-0.0079480074	-0.0078407783	0	932.3326855266023
0.20892961	3.6307805e-7	0.33	0.24204255	0.47089185	-0.0024342004	-0.019055166	-0.015857017	-0.0079246272	-0.0078199157	0	932.3616874191086
0.20892961	3.9810717e-7	0.33	0.24931195	0.46006071	-0.0024339825	-0.019059441	-0.015761258	-0.007900546	-0.007798243	0	932.3915828570541
0.20892961	4.3651583e-7	0.33	0.25682216	0.44968982	-0.0024337618	-0.01906386	-0.015662537	-0.0078757404	-0.0077757436	0	932.4223993133296
0.20892961	4.7863009e-7	0.33	0.26457962	0.43975089	-0.0024335379	-0.019068428	-0.01556076	-0.0078501865	-0.0077523998	0	932.4541663090783
0.20892961	5.2480746e-7	0.33	0.27259106	0.4302177	-0.0024333106	-0.019073149	-0.015455832	-0.0078238599	-0.007728193	0	932.4869134875872
0.20892961	5.7543994e-7	0.33	0.28086348	0.42106597	-0.0024330795	-0.01907803	-0.015347656	-0.0077967351	-0.0077031033	0	932.5206713001692
0.20892961	6.3095734e-7	0.33	0.28940419	0.41227317	-0.0024328443	-0.019083075	-0.01523613	-0.0077687862	-0.0076771097	0	932.5554716544633
0.20892961	6.9183097e-7	0.33	0.29822079	0.40381845	-0.0024326047	-0.019088291	-0.015121149	-0.0077399868	-0.0076501903	0	932.591347388279
0.20892961	7.5857758e-7	0.33	0.30732115	0.39568241	-0.0024323606	-0.019093683	-0.015002606	-0.0077103092	-0.007622322	0	932.628331771625
0.20892961	8.3176377e-7	0.33	0.31671347	0.38784707	-0.0024321115	-0.019099256	-0.01488039	-0.0076797254	-0.0075934804	0	932.6664596905629
0.20892961	9.1201084e-7	0.33	0.32640623	0.38029569	-0.0024318572	-0.019105018	-0.014754386	-0.007648206	-0.0075636403	0	932.7057669895105
0.20892961	1.e-6	0.33	0.33640826	0.37301272	-0.0024315975	-0.019110974	-0.014624477	-0.0076157215	-0.0075327753	0	932.7462901329995
0.20892961	1.0964782e-6	0.33	0.34672867	0.36598369	-0.0024313321	-0.01911713	-0.014490539	-0.007582241	-0.0075008578	0	932.7880678499134
0.20892961	1.2022644e-6	0.33	0.35737692	0.3591951	-0.0024310606	-0.019123493	-0.014352449	-0.0075477328	-0.0074678592	0	932.8311386530359
0.20892961	1.3182567e-6	0.33	0.36836278	0.3526344	-0.0024307829	-0.01913007	-0.014210075	-0.0075121643	-0.0074337496	0	932.8755435637901
0.20892961	1.4454398e-6	0.33	0.37969638	0.34628985	-0.0024304987	-0.019136867	-0.014063285	-0.007475502	-0.0073984981	0	932.9213237915121
0.20892961	1.5848932e-6	0.33	0.39138818	0.3401505	-0.0024302076	-0.019143893	-0.013911941	-0.0074377111	-0.0073620724	0	932.9685224998348
0.20892961	1.7378008e-6	0.33	0.40344903	0.33420614	-0.0024299095	-0.019151152	-0.0137559	-0.0073987562	-0.0073244393	0	933.0171841208025
0.20892961	1.9054607e-6	0.33	0.41589008	0.32844719	-0.0024296039	-0.019158655	-0.013595017	-0.0073586004	-0.0072855641	0	933.0673540824009
0.20892961	2.0892961e-6	0.33	0.42872293	0.3228647	-0.0024292907	-0.019166407	-0.013429139	-0.0073172059	-0.007245411	0	933.1190799172406
0.20892961	2.2908677e-6	0.33	0.44195949	0.31745029	-0.0024289695	-0.019174418	-0.013258112	-0.0072745337	-0.0072039428	0	933.1724097498588
0.20892961	2.5118864e-6	0.33	0.45561213	0.31219608	-0.0024286401	-0.019182694	-0.013081775	-0.0072305438	-0.0071611212	0	933.2273936872757
0.20892961	2.7542287e-6	0.33	0.46969359	0.30709471	-0.0024283021	-0.019191245	-0.012899961	-0.0071851946	-0.0071169064	0	933.2840838847637
0.20892961	3.0199517e-6	0.33	0.48421702	0.30213924	-0.0024279552	-0.01920008	-0.012712501	-0.0071384434	-0.0070712572	0	933.3425330237521
0.20892961	3.3113112e-6	0.33	0.49919601	0.29732315	-0.0024275992	-0.019209206	-0.012519218	-0.0070902463	-0.007024131	0	933.4027961721663
0.20892961	3.6307805e-6	0.33	0.51464459	0.29264032	-0.0024272337	-0.019218634	-0.01231993	-0.007040558	-0.006975484	0	933.4649301361274
0.20892961	3.9810717e-6	0.33	0.53057725	0.28808498	-0.0024268583	-0.019228372	-0.01211445	-0.0069893317	-0.0069252707	0	933.5289932720384
0.20892961	4.3651583e-6	0.33	0.54700892	0.28365168	-0.0024264727	-0.01923843	-0.011902584	-0.0069365192	-0.0068734441	0	933.5950460127438
0.20892961	4.7863009e-6	0.33	0.56395503	0.27933528	-0.0024260767	-0.01924882	-0.011684135	-0.0068820708	-0.0068199555	0	933.6631496272994
0.20892961	5.2480746e-6	0.33	0.58143149	0.27513095	-0.0024256697	-0.019259549	-0.011458895	-0.0068259354	-0.006764755	0	933.7333691712099
0.20892961	5.7543994e-6	0.33	0.59945475	0.27103411	-0.0024252515	-0.019270631	-0.011226654	-0.0067680602	-0.0067077908	0	933.8057699442676
0.20892961	6.3095734e-6	0.33	0.61804174	0.26704042	-0.0024248217	-0.019282074	-0.010987193	-0.0067083908	-0.0066490094	0	933.8804202246863
0.20892961	6.9183097e-6	0.33	0.63720993	0.26314578	-0.0024243798	-0.019293891	-0.010740286	-0.0066468708	-0.0065883555	0	933.9573905550321
0.20892961	7.5857758e-6	0.33	0.65697739	0.25934631	-0.0024239256	-0.019306093	-0.010485702	-0.0065834427	-0.0065257723	0	934.0367527462854
0.20892961	8.3176377e-6	0.33	0.6773627	0.25563832	-0.0024234585	-0.019318692	-0.010223201	-0.0065180467	-0.0064612008	0	934.1185817757607
0.20892961	9.1201084e-6	0.33	0.6983851	0.25201832	-0.0024229782	-0.0193317	-0.0099525352	-0.0064506214	-0.0063945805	0	934.2029547573446
0.20892961	0.00001	0.33	0.72006437	0.24848299	-0.0024224841	-0.019345131	-0.0096734506	-0.0063811032	-0.0063258484	0	934.289951009144
0.20892961	0.000010964782	0.33	0.74242094	0.24502916	-0.002421976	-0.019358997	-0.0093856844	-0.0063094267	-0.00625494	0	934.3796522019373
0.20892961	0.000012022644	0.33	0.76547592	0.24165384	-0.0024214532	-0.019373311	-0.0090889658	-0.0062355247	-0.0061817886	0	934.4721429567384
0.20892961	0.000013182567	0.33	0.78925101	0.23835416	-0.0024209154	-0.019388088	-0.0087830153	-0.0061593276	-0.0061063251	0	934.5675102162265
0.20892961	0.000014454398	0.33	0.81376868	0.2351274	-0.0024203619	-0.019403341	-0.0084675448	-0.0060807636	-0.0060284787	0	934.6658439653945
0.20892961	0.000015848932	0.33	0.83905205	0.23197097	-0.0024197924	-0.019419086	-0.0081422573	-0.0059997588	-0.0059481758	0	934.7672365729113
0.20892961	0.000017378008	0.33	0.86512498	0.22888238	-0.0024192063	-0.019435338	-0.0078068466	-0.0059162371	-0.0058653409	0	934.8717835418369
0.20892961	0.000019054607	0.33	0.89201207	0.22585925	-0.002418603	-0.019452111	-0.0074609967	-0.0058301198	-0.0057798959	0	934.9795834137851
0.20892961	0.000020892961	0.33	0.91973877	0.22289934	-0.0024179819	-0.019469423	-0.0071043817	-0.005741326	-0.0056917602	0	935.0907377999297
0.20892961	0.000022908677	0.33	0.9483312	0.22000046	-0.0024173425	-0.019487289	-0.0067366657	-0.0056497719	-0.0056008507	0	935.2053513180538
0.20892961	0.000025118864	0.33	0.97781643	0.21716055	-0.0024166842	-0.019505727	-0.0063575022	-0.0055553714	-0.0055070818	0	935.3235319664968
0.20892961	0.000027542287	0.33	1.0082223	0.21437762	-0.0024160063	-0.019524755	-0.0059665341	-0.0054580357	-0.0054103649	0	935.4453911241535
0.20892961	0.000030199517	0.33	1.0395775	0.21164977	-0.0024153082	-0.019544389	-0.0055633928	-0.005357673	-0.0053106088	0	935.5710436416136
0.20892961	0.000033113112	0.33	1.0719118	0.20897517	-0.0024145893	-0.019564649	-0.0051476982	-0.005254189	-0.0052077195	0	935.7006079351165
0.20892961	0.000036307805	0.33	1.1052557	0.20635208	-0.0024138487	-0.019585555	-0.0047190587	-0.005147486	-0.0051015998	0	935.8342062684223
0.20892961	0.000039810717	0.33	1.1396408	0.20377885	-0.0024130858	-0.019607124	-0.00427707	-0.0050374636	-0.0049921496	0	935.9719645611397
0.20892961	0.000043651583	0.33	1.1750994	0.20125399	-0.0024122998	-0.019629379	-0.0038213161	-0.0049240182	-0.0048792657	0	936.1140125484521
0.20892961	0.000047863009	0.33	1.2116649	0.19877627	-0.0024114898	-0.019652342	-0.0033513686	-0.0048070429	-0.0047628414	0	936.2604839042009
0.20892961	0.000052480746	0.33	1.2493702	0.19634501	-0.0024106541	-0.019676041	-0.002866792	-0.0046864276	-0.0046427667	0	936.4115152552816
0.20892961	0.000057543994	0.33	1.2882443	0.19395952	-0.0024097888	-0.019700532	-0.002367162	-0.004562059	-0.0045189286	0	936.5672418229999
0.20892961	0.000063095734	0.33	1.3282923	0.19160911	-0.0024088789	-0.019725989	-0.0018521588	-0.004433822	-0.0043912142	0	936.7277768569252
0.20892961	0.000069183097	0.33	1.3694041	0.1891901	-0.002407858	-0.019753139	-0.0013220006	-0.004301605	-0.0042595351	0	936.8931150898547
0.20892961	0.000075857758	0.33	1.410993	0.18601508	-0.0024064383	-0.019785023	-0.00077920283	-0.004165326	-0.0041239621	0	937.0627470031093
0.20892961	0.000083176377	0.33	1.4515486	0.17959778	-0.0024036942	-0.019829927	-0.0002315092	-0.0040250073	-0.0039850704	0	937.2351412702503
0.20892961	0.000091201084	0.33	1.491272	0.16873913	-0.0023983922	-0.019891882	0.00031760752	-0.0038807753	-0.0038432531	0	937.4103800899978
0.20892961	0.0001	0.33	1.5335834	0.15870665	-0.0023906739	-0.01995975	0.00087986125	-0.0037325461	-0.0036972548	0	937.5919623977021
0.20892961	0.00010964782	0.33	1.5794476	0.15241525	-0.0023815523	-0.020026945	0.0014624328	-0.0035799902	-0.0035460979	0	937.7811628709496
0.20892961	0.00012022644	0.33	1.6279626	0.14871648	-0.0023717004	-0.020094019	0.0020653813	-0.0034228009	-0.0033897311	0	937.9773675159047
0.20892961	0.00013182567	0.33	1.6784696	0.14622623	-0.0023613967	-0.020162208	0.0026881025	-0.0032607548	-0.0032282387	0	938.1801273119376
0.20892961	0.00014454398	0.33	1.7307183	0.14422578	-0.002350734	-0.020232142	0.0033306187	-0.0030936713	-0.0030616	0	938.389361981645
0.20892961	0.00015848932	0.33	1.7846534	0.14241912	-0.0023397364	-0.020304092	0.0039933302	-0.0029213832	-0.0028897137	0	938.6051729971457
0.20892961	0.00017378008	0.33	1.8402918	0.1406963	-0.0023284047	-0.02037819	0.0046767967	-0.0027437248	-0.0027124384	0	938.8277331454467
0.20892961	0.00019054607	0.33	1.8976762	0.13901879	-0.0023167321	-0.020454523	0.0053816465	-0.0025605271	-0.0025296137	0	939.0572436241321
0.20892961	0.00020892961	0.33	1.9568581	0.1373734	-0.0023047091	-0.020533162	0.0061085445	-0.0023716165	-0.002341069	0	939.2939195156841
0.20892961	0.00022908677	0.33	2.0178934	0.13575549	-0.0022923255	-0.020614175	0.0068581811	-0.002176814	-0.0021466263	0	939.5379844667215
0.20892961	0.00025118864	0.33	2.0808404	0.13416312	-0.0022795705	-0.020697632	0.0076312708	-0.0019759352	-0.0019461016	0	939.7896701599661
0.20892961	0.00027542287	0.33	2.1457593	0.13259518	-0.002266433	-0.020783601	0.0084285516	-0.0017687897	-0.0017393048	0	940.0492158463389
0.20892961	0.00030199517	0.33	2.2127126	0.13105083	-0.0022529015	-0.020872155	0.0092507844	-0.0015551812	-0.0015260396	0	940.3168682528819
0.20892961	0.00033113112	0.33	2.2817646	0.1295293	-0.0022389643	-0.020963365	0.010098756	-0.001334907	-0.0013061038	0	940.5928823250154
0.20892961	0.00036307805	0.33	2.3529818	0.12802989	-0.0022246092	-0.021057306	0.010973276	-0.0011077583	-0.0010792885	0	940.8775205472323
0.20892961	0.00039810717	0.33	2.4264328	0.12655189	-0.002209824	-0.021154054	0.011875183	-0.00087351938	-0.00084537825	0	941.1710543956654
0.20892961	0.00043651583	0.33	2.5021887	0.12509462	-0.0021945959	-0.021253685	0.01280534	-0.00063196785	-0.00060415077	0	941.4737634755675
0.20892961	0.00047863009	0.33	2.5803227	0.12365744	-0.0021789117	-0.021356279	0.013764641	-0.0003828742	-0.00035537669	0	941.7859373797708
0.20892961	0.00052480746	0.33	2.6609104	0.12223971	-0.0021627583	-0.021461915	0.014754006	-0.00012600163	-0.000098819386	0	942.1078736686214
0.20892961	0.00057543994	0.33	2.7440301	0.12084081	-0.0021461217	-0.021570673	0.015774386	0.00013889422	0.00016576539	0	942.4398803598282
0.20892961	0.00063095734	0.33	2.8297625	0.11946013	-0.002128988	-0.021682637	0.016826763	0.0004120655	0.00043862965	0	942.7822749888965
0.20892961	0.00069183097	0.33	2.9181912	0.1180971	-0.0021113428	-0.02179789	0.017912152	0.00069377238	0.00072003344	0	943.1353857929819
0.20892961	0.00075857758	0.33	3.0094026	0.11675114	-0.0020931713	-0.021916516	0.0190316	0.00098428342	0.0010102452	0	943.4995513068753
0.20892961	0.00083176377	0.33	3.1034856	0.11542171	-0.0020744584	-0.022038602	0.020186187	0.0012838756	0.0013095418	0	943.8751205791043
0.20892961	0.00091201084	0.33	3.2005326	0.11410825	-0.0020551887	-0.022164231	0.021377033	0.0015928352	0.0016182092	0	944.2624553423285
0.20892961	0.001	0.33	3.3006391	0.11281027	-0.0020353465	-0.022293492	0.022605291	0.0019114572	0.0019365426	0	944.6619278429441
0.20892961	0.0010964782	0.33	3.4039034	0.11152729	-0.0020149155	-0.022426471	0.023872154	0.0022400463	0.0022648464	0	945.0739232933491
0.20892961	0.0012022644	0.33	3.5104259	0.11025995	-0.0019938796	-0.022563261	0.025178849	0.0025789171	0.0026034355	0	945.4988372599512
0.20892961	0.0013182567	0.33	3.6200964	0.10902729	-0.0019722507	-0.022704571	0.026526027	0.0029283899	0.0029526342	0	945.936860408747
0.20892961	0.0014454398	0.33	3.7165165	0.10247019	-0.0019528539	-0.022896435	0.027869057	0.003288365	0.0033111511	0	946.3715002390913
0.20892961	0.0015848932	0.33	3.8048944	0.08598552	-0.0019589425	-0.023060079	0.029288161	0.003656518	0.0036756385	0	946.8057821138286
0.20892961	0.0017378008	0.33	3.9235305	0.084569465	-0.0019784153	-0.023102812	0.03087752	0.0040352669	0.0040540725	0	947.2802773385677
0.20892961	0.0019054607	0.33	4.0465893	0.08389965	-0.0019987153	-0.023143699	0.03251961	0.0044258822	0.0044445388	0	947.7703449476046
0.20892961	0.0020892961	0.33	4.1734271	0.083388925	-0.0020195995	-0.023185981	0.034212774	0.0048287459	0.004847289	0	948.2756994915903
0.20892961	0.0022908677	0.33	4.3039649	0.083030393	-0.0020411828	-0.023230087	0.035958221	0.005244226	0.0052626893	0	948.7966078728539
0.20892961	0.0025118864	0.33	4.4379662	0.082585277	-0.0020637471	-0.023276543	0.03775711	0.0056726744	0.0056910388	0	949.3331645834826
0.20892961	0.0027542287	0.33	4.5752778	0.081380296	-0.0020879143	-0.023324704	0.039611827	0.0061144201	0.0061325165	0	949.8855251027506
0.20892961	0.0030199517	0.33	4.7165188	0.079034483	-0.0021146608	-0.023370356	0.041528379	0.0065698097	0.0065873845	0	950.454634548839
0.20892961	0.0033113112	0.33	4.862653	0.076589918	-0.002144557	-0.023409187	0.043512927	0.0070392807	0.0070563119	0	951.0418672521722
0.20892961	0.0036307805	0.33	5.0132172	0.075017521	-0.0021769194	-0.023445239	0.045563338	0.0075233052	0.0075399867	0	951.6472040550128
0.20892961	0.0039810717	0.33	5.1667643	0.073254902	-0.0022104653	-0.023487943	0.047672147	0.0080222427	0.0080385322	0	952.2695355655736
0.20892961	0.0043651583	0.33	5.3244533	0.069989628	-0.0022439427	-0.023538423	0.049840257	0.0085364096	0.0085519731	0	952.9103181007519
0.20892961	0.0047863009	0.33	5.4889847	0.067098031	-0.0022689325	-0.023613906	0.052052534	0.0090663571	0.0090812775	0	953.572769559123
0.20892961	0.0052480746	0.33	5.6619433	0.065901753	-0.0022428538	-0.023838179	0.054187346	0.0096128398	0.0096274943	0	954.2591846787242
0.20892961	0.0057543994	0.33	5.8413851	0.065135303	-0.0022012743	-0.024109665	0.056348495	0.010176615	0.010191099	0	954.9683297726685
0.20892961	0.0063095734	0.33	6.0266601	0.064389078	-0.0021583943	-0.02438795	0.058578688	0.010758266	0.010772585	0	955.7001043168585
0.20892961	0.0069183097	0.33	6.1365019	0.05607933	-0.0018853703	-0.025639165	0.059914157	0.011355088	0.011367558	0	956.3706991384486
0.20892961	0.0075857758	0.33	6.3070327	0.052696927	-0.0015843926	-0.026820659	0.061399993	0.011964892	0.01197661	0	957.1141805635475
0.20892961	0.0083176377	0.33	6.4955687	0.049354284	-0.0014435533	-0.027489283	0.063481859	0.012592084	0.012603059	0	957.892004511537
0.20892961	0.0091201084	0.33	6.7040491	0.048762587	-0.001381981	-0.027879392	0.065927992	0.01323899	0.013249833	0	958.708295307873
0.20892961	0.01	0.33	6.9196529	0.048200215	-0.0013189271	-0.028276458	0.068455594	0.013906681	0.013917399	0	959.5512381625663
0.20892961	0.010964782	0.33	7.1426167	0.047646813	-0.001254147	-0.028681068	0.071066836	0.014595865	0.01460646	0	960.4217360261052
0.20892961	0.012022644	0.33	7.3732315	0.047103049	-0.0011876099	-0.02909299	0.07376479	0.015307279	0.015317753	0	961.3207703308717
0.20892961	0.013182567	0.33	7.6118026	0.04657004	-0.0011192855	-0.029511946	0.076552668	0.016041686	0.016052042	0	962.2493654473843
0.20892961	0.014454398	0.33	7.8586523	0.046049556	-0.0010491461	-0.029937592	0.079433836	0.016799884	0.016810124	0	963.2085910520025
0.20892961	0.015848932	0.33	8.1141186	0.045544563	-0.00097716394	-0.03036953	0.08241181	0.017582699	0.017592827	0	964.199563385945
0.20892961	0.017378008	0.33	8.3785582	0.045059016	-0.00090331238	-0.030807293	0.08549027	0.018390994	0.018401013	0	965.2234484873936
0.20892961	0.019054607	0.33	8.6523457	0.044599527	-0.00082756479	-0.031250346	0.088673065	0.019225665	0.019235583	0	966.2814647846942
0.20892961	0.020892961	0.33	8.9358756	0.044175906	-0.00074989403	-0.031698084	0.09196422	0.020087651	0.020097474	0	967.3748857553263
0.20892961	0.022908677	0.33	9.2295608	0.043802945	-0.00067027078	-0.032149831	0.095367935	0.020977923	0.020987664	0	968.5050411849218
0.20892961	0.025118864	0.33	9.5338311	0.04350304	-0.00058867315	-0.032604824	0.098888605	0.021897501	0.021907175	0	969.6733143391707
0.20892961	0.027542287	0.33	9.8491243	0.043310872	-0.00050513333	-0.033062089	0.10253095	0.022847442	0.022857073	0	970.8811384404539
0.20892961	0.030199517	0.33	10.175848	0.043288299	-0.00042018765	-0.033519216	0.10630125	0.023828848	0.023838474	0	972.1299567269189
0.20892961	0.033113112	0.33	10.513812	0.043550813	-0.00034523826	-0.033942847	0.11023685	0.024842842	0.024852526	0	973.4206351959483
0.20892961	0.036307805	0.33	10.86182	0.043042255	-0.00031784325	-0.03422399	0.11445085	0.025890463	0.025900034	0	974.7529529651242
0.20892961	0.039810717	0.33	11.223901	0.041109406	-0.00032296027	-0.034396074	0.11891404	0.02697283	0.026981971	0	976.1319865530108
0.20892961	0.043651583	0.33	11.602073	0.039590547	-0.00033030226	-0.034544048	0.12354587	0.028091494	0.028100297	0	977.5612175753868
0.20892961	0.047863009	0.33	11.995444	0.038378353	-0.00033653022	-0.0346808	0.12833793	0.029247973	0.029256507	0	979.0411756652394
0.20892961	0.052480746	0.33	12.404419	0.037262569	-0.00034067217	-0.034808063	0.13329316	0.030443774	0.03045206	0	980.5736856276005
0.20892961	0.057543994	0.33	12.829709	0.036232746	-0.00034123869	-0.034928105	0.13841406	0.031680459	0.031688516	0	982.1609220113075
0.20892961	0.063095734	0.33	13.27209	0.035280193	-0.00033684394	-0.035042608	0.1437039	0.032959666	0.032967511	0	983.8052007885738
0.20892961	0.069183097	0.33	13.00353	0.03466342	-0.0011943765	-0.034884477	0.14943486	0.034279185	0.034286893	0	984.776414683319
0.20892961	0.075857758	0.33	12.076707	0.034364365	-0.0028036045	-0.034990357	0.15507556	0.035517826	0.035525467	0	985.0133758832851
0.20892961	0.083176377	0.33	11.231435	0.034091623	-0.0042712379	-0.03577172	0.16021994	0.036647479	0.03665506	0	985.2294871885692
0.20892961	0.091201084	0.33	10.460537	0.033842879	-0.0056097354	-0.037190482	0.16491167	0.037677736	0.037685261	0	985.4265830065609
0.20892961	0.1	0.33	10.789389	0.03230339	-0.0057960982	-0.03884254	0.16956061	0.038675519	0.038682702	0	986.6929173467676
0.20892961	0.10964782	0.33	12.163787	0.029838114	-0.0048535719	-0.040361075	0.17453952	0.039798285	0.03980492	0	989.1222261342448
0.20892961	0.12022644	0.33	13.839823	0.027526194	-0.0034845982	-0.041949813	0.1796508	0.041070138	0.041076259	0	991.993252309935
0.20892961	0.13182567	0.33	15.876158	0.025362043	-0.0015838468	-0.043647093	0.18486243	0.042523411	0.042529051	0	995.3950325627957
0.20892961	0.14454398	0.33	18.347833	0.023340859	0.00097931598	-0.045495556	0.19013827	0.044196945	0.044202135	0	999.4391003278209
0.20892961	0.15848932	0.33	21.352157	0.021458627	0.0043683063	-0.047540138	0.19544011	0.046137976	0.046142747	0	1004.2671485052088
0.20892961	0.17378008	0.33	25.014992	0.019712078	0.0087877194	-0.049825675	0.20073004	0.048404629	0.048409013	0	1010.0596534488402
0.20892961	0.19054607	0.33	29.496176	0.01809861	0.014491218	-0.052394009	0.20597336	0.051068998	0.051073023	0	1017.0441888981914
0.20892961	0.20892961	0.33	34.991949	0.016616117	0.021786424	-0.055280431	0.21114213	0.054220628	0.054224323	0	1025.5011227509628
0.20892961	0.22908677	0.33	41.731443	0.015262707	0.031033227	-0.05850939	0.2162195	0.057969973	0.057973367	0	1035.7633703520116
0.20892961	0.25118864	0.33	49.963984	0.014036261	0.042631394	-0.06208977	0.22120442	0.06245109	0.062454211	0	1048.2062133632176
0.20892961	0.27542287	0.33	59.935046	0.012933875	0.056994473	-0.066010664	0.22611587	0.067822528	0.067825404	0	1063.2240920295549
0.20892961	0.30199517	0.33	71.852128	0.011951249	0.074510785	-0.070239229	0.23099502	0.074265347	0.074268005	0	1081.1946243361035
0.20892961	0.33113112	0.33	85.847136	0.011082209	0.095498336	-0.074722311	0.23590361	0.081977537	0.081980001	0	1102.4357405939088
0.20892961	0.36307805	0.33	101.94644	0.010318537	0.12016598	-0.079392593	0.2409178	0.091165027	0.091167321	0	1127.1672866926087
0.20892961	0.39810717	0.33	120.0596	0.0096502337	0.14859352	-0.084178159	0.24611864	0.1020306	0.10203275	0	1155.4893728504626
0.20892961	0.43651583	0.33	139.99142	0.0090661497	0.18073678	-0.089012678	0.25158188	0.11476286	0.11476488	0	1187.383979613406
0.20892961	0.47863009	0.33	161.47239	0.008554812	0.21645378	-0.093843201	0.25737017	0.12952733	0.12952923	0	1222.7371325368738
0.20892961	0.52480746	0.33	184.19697	0.0081051883	0.25554121	-0.098633895	0.26352935	0.14646102	0.14646282	0	1261.372021582521
0.20892961	0.57543994	0.33	207.85862	0.007707242	0.29776996	-0.10336588	0.27008863	0.16567072	0.16567243	0	1303.0824396852863
0.20892961	0.63095734	0.33	232.17557	0.0073522265	0.34291285	-0.10803453	0.27706328	0.18723418	0.18723582	0	1347.6596709527123
0.20892961	0.69183097	0.33	256.90559	0.007032758	0.39076241	-0.11264569	0.28445842	0.21120343	0.21120499	0	1394.9103712512497
0.20892961	0.75857758	0.33	281.85178	0.0067427424	0.44113997	-0.11721209	0.29227265	0.23760891	0.23761041	0	1444.666234360623
0.20892961	0.83176377	0.33	306.86209	0.0064772242	0.49389874	-0.12175033	0.30050102	0.26646403	0.26646547	0	1496.7878067031058
0.20892961	0.91201084	0.33	331.82533	0.0062322104	0.54892298	-0.12627875	0.30913725	0.29776929	0.29777068	0	1551.1643958298578
0.20892961	1.	0.33	356.66563	0.0060044984	0.60612537	-0.13081597	0.31817512	0.33151611	0.33151744	0	1607.7120303426798
0.20892961	1.0964782	0.33	381.33648	0.0057915226	0.6654436	-0.13538001	0.3276094	0.36768993	0.36769122	0	1666.3705443287756
0.20892961	1.2022644	0.33	405.8152	0.0055912253	0.72683691	-0.1399879	0.33743626	0.40627286	0.40627411	0	1727.1004535878333
0.20892961	1.3182567	0.33	430.09802	0.0054019504	0.79028283	-0.1446554	0.34765355	0.44724575	0.44724695	0	1789.8799794648228
0.20892961	1.4454398	0.33	454.19589	0.0052223597	0.85577441	-0.14939702	0.35826078	0.49058982	0.49059098	0	1854.7024400528444
0.20892961	1.5848932	0.33	478.13108	0.0050513648	0.92331784	-0.15422607	0.36925912	0.53628796	0.53628908	0	1921.5740140275964
0.20892961	1.7378008	0.33	501.93434	0.0048880752	0.99293046	-0.15915475	0.38065128	0.58432566	0.58432675	0	1990.5118337055399
0.20892961	1.9054607	0.33	525.6427	0.0047317568	1.0646392	-0.16419434	0.39244137	0.63469176	0.63469281	0	2061.542475914035
0.20892961	2.0892961	0.33	549.2977	0.0045817996	1.1384791	-0.16935525	0.40463485	0.68737897	0.68737999	0	2134.7005559317927
0.20892961	2.2908677	0.33	572.94404	0.0044376927	1.2144925	-0.17464722	0.41723833	0.74238423	0.74238521	0	2210.0279044296303
0.20892961	2.5118864	0.33	596.62845	0.0042990042	1.2927281	-0.18007941	0.43025952	0.79970895	0.79970991	0	2287.5726687762135
0.20892961	2.7542287	0.33	620.39896	0.0041653657	1.3732401	-0.1856605	0.44370713	0.85935924	0.85936016	0	2367.388474006197
0.20892961	3.0199517	0.33	644.30418	0.0040364604	1.456088	-0.19139881	0.4575908	0.92134589	0.92134679	0	2449.534213203198
0.20892961	3.3113112	0.33	668.39292	0.0039120129	1.5413358	-0.19730234	0.47192099	0.98568451	0.98568538	0	2534.0732617412896
0.20892961	3.6307805	0.33	692.71384	0.0037917819	1.629052	-0.20337889	0.486709	1.0523955	1.0523963	0	2621.073483486139
0.20892961	3.9810717	0.33	717.31516	0.0036755538	1.7193091	-0.20963611	0.50196685	1.1215039	1.1215047	0	2710.606723805539
0.20892961	4.3651583	0.33	742.24456	0.0035631382	1.8121834	-0.21608151	0.51770729	1.1930397	1.1930405	0	2802.7486247569027
0.20892961	4.7863009	0.33	767.54909	0.0034543634	1.9077551	-0.22272257	0.53394376	1.2670372	1.267038	0	2897.5787066415414
0.20892961	5.2480746	0.33	793.27505	0.0033490737	2.0061077	-0.22956674	0.55069039	1.3435355	1.3435363	0	2995.17980426545
0.20892961	5.7543994	0.33	819.46804	0.003247127	2.1073286	-0.2366215	0.56796192	1.4225783	1.422579	0	3095.638605873996
0.20892961	6.3095734	0.33	846.17296	0.0031483921	2.2115085	-0.24389438	0.58577376	1.5042134	1.5042141	0	3199.045108016096
0.20892961	6.9183097	0.33	873.43403	0.0030527476	2.3187413	-0.25139297	0.60414196	1.5884932	1.5884939	0	3305.492512285993
0.20892961	7.5857758	0.33	901.29487	0.0029600803	2.4291248	-0.259125	0.62308318	1.6754744	1.675475	0	3415.0778737172977
0.20892961	8.3176377	0.33	929.79852	0.0028702842	2.5427599	-0.26709828	0.64261475	1.7652179	1.7652185	0	3527.9013677341063
0.20892961	9.1201084	0.33	958.98757	0.0027832594	2.6597512	-0.27532082	0.66275458	1.8577887	1.8577894	0	3644.066825985115
0.20892961	10.	0.33	988.90421	0.0026989116	2.7802067	-0.28380075	0.68352129	1.9532563	1.9532569	0	3763.6814947813746