0.43651583	1.e-12	0.4	2446.2397	23888.958	-0.0094223308	-0.0026469927	-0.0026469298	-2.6140677	8.4845838	0	929.7176690544972
0.43651583	1.0964782e-12	0.4	2231.0122	21787.764	-0.0093831765	-0.0027029163	-0.0027028473	-2.3849795	7.7374714	0	929.7334418198973
0.43651583	1.2022644e-12	0.4	2034.7224	19871.452	-0.009343634	-0.0027597334	-0.0027596578	-2.1760472	7.0560976	0	929.749243711823
0.43651583	1.3182567e-12	0.4	1855.704	18123.752	-0.0093037372	-0.0028173641	-0.0028172812	-1.9854971	6.4346779	0	929.7650729826834
0.43651583	1.4454398e-12	0.4	1692.4373	16529.829	-0.0092635183	-0.0028757322	-0.0028756413	-1.8117119	5.8679369	0	929.7809280164254
0.43651583	1.5848932e-12	0.4	1543.5363	15076.151	-0.009223008	-0.0029347659	-0.0029346662	-1.6532164	5.3510635	0	929.7968069902927
0.43651583	1.7378008e-12	0.4	1407.7371	13750.38	-0.0091822355	-0.0029943978	-0.0029942885	-1.5086654	4.87967	0	929.8127077996587
0.43651583	1.9054607e-12	0.4	1283.8867	12541.26	-0.0091412275	-0.0030545659	-0.0030544461	-1.3768318	4.4497544	0	929.8286286969317
0.43651583	2.0892961e-12	0.4	1170.9338	11438.527	-0.0091000089	-0.0031152128	-0.0031150814	-1.2565966	4.0576672	0	929.8445679345207
0.43651583	2.2908677e-12	0.4	1067.9196	10432.82	-0.0090586027	-0.0031762859	-0.0031761418	-1.1469393	3.7000798	0	929.8605236708769
0.43651583	2.5118864e-12	0.4	973.96947	9515.602	-0.0090170295	-0.0032377378	-0.0032375798	-1.0469291	3.3739565	0	929.8764944026963
0.43651583	2.7542287e-12	0.4	888.28599	8679.0867	-0.0089753083	-0.0032995253	-0.003299352	-0.9557173	3.0765288	0	929.8924785890912
0.43651583	3.0199517e-12	0.4	810.14173	7916.173	-0.0089334561	-0.0033616096	-0.0033614196	-0.87252963	2.8052719	0	929.9084748395055
0.43651583	3.3113112e-12	0.4	738.87333	7220.3848	-0.0088914882	-0.003423956	-0.0034237477	-0.79666007	2.5578828	0	929.9244818949214
0.43651583	3.6307805e-12	0.4	673.87578	6585.8156	-0.0088494183	-0.0034865334	-0.003486305	-0.72746471	2.3322616	0	929.9404986466513
0.43651583	3.9810717e-12	0.4	614.59733	6007.0788	-0.0088072586	-0.0035493141	-0.0035490637	-0.6643563	2.1264927	0	929.9565240799653
0.43651583	4.3651583e-12	0.4	560.53474	5479.2617	-0.0087650198	-0.0036122737	-0.003611999	-0.60679923	1.9388295	0	929.9725574620022
0.43651583	4.7863009e-12	0.4	511.22908	4997.884	-0.0087227118	-0.0036753902	-0.003675089	-0.55430507	1.7676787	0	929.9885977216575
0.43651583	5.2480746e-12	0.4	466.2618	4558.8593	-0.0086803429	-0.0037386444	-0.0037383143	-0.50642832	1.6115875	0	930.0046443515657
0.43651583	5.7543994e-12	0.4	425.25115	4158.461	-0.0086379207	-0.0038020195	-0.0038016574	-0.46276271	1.4692307	0	930.0206967879877
0.43651583	6.3095734e-12	0.4	387.849	3793.2904	-0.008595452	-0.0038655002	-0.0038651032	-0.42293768	1.3393999	0	930.0367543168542
0.43651583	6.9183097e-12	0.4	353.73783	3460.2478	-0.0085529435	-0.0039290725	-0.0039286372	-0.38661533	1.2209929	0	930.0528160925559
0.43651583	7.5857758e-12	0.4	322.62809	3156.5063	-0.0085104037	-0.0039927209	-0.0039922437	-0.35348745	1.1130044	0	930.0688800292578
0.43651583	8.3176377e-12	0.4	294.25565	2879.487	-0.0084678534	-0.0040564175	-0.0040558942	-0.32327295	1.0145176	0	930.0849372950458
0.43651583	9.1201084e-12	0.4	268.37964	2626.8373	-0.0084253707	-0.0041200713	-0.0041194975	-0.2957155	0.92469568	0	930.10094878521
0.43651583	1.e-11	0.4	244.78023	2396.4054	-0.0083832855	-0.0041833116	-0.0041826825	-0.27058132	0.84277274	0	930.1167440062219
0.43651583	1.0964782e-11	0.4	223.25648	2186.2089	-0.0083428233	-0.0042447732	-0.0042440833	-0.24765723	0.76804096	0	930.1316848616699
0.43651583	1.2022644e-11	0.4	203.62441	1994.4071	-0.0083066891	-0.0043014641	-0.0043007077	-0.2267489	0.69983942	0	930.144354374258
0.43651583	1.3182567e-11	0.4	185.71672	1819.3437	-0.0082765436	-0.0043516458	-0.0043508164	-0.20767924	0.63757579	0	930.153845882215
0.43651583	1.4454398e-11	0.4	169.38231	1659.5755	-0.008250969	-0.0043970905	-0.0043961811	-0.19028675	0.58074101	0	930.1608256501219
0.43651583	1.5848932e-11	0.4	154.4837	1513.7985	-0.0082279777	-0.0044401763	-0.0044391792	-0.17442403	0.52887671	0	930.1662676690028
0.43651583	1.7378008e-11	0.4	140.89512	1380.8084	-0.0082063042	-0.0044824159	-0.0044813225	-0.1599566	0.48155782	0	930.1707927848504
0.43651583	1.9054607e-11	0.4	128.50165	1259.4949	-0.0081852433	-0.0045246536	-0.0045234548	-0.14676175	0.43839122	0	930.1747464570519
0.43651583	2.0892961e-11	0.4	117.19832	1148.8391	-0.0081643957	-0.0045673651	-0.0045660506	-0.13472756	0.39901545	0	930.1783255245482
0.43651583	2.2908677e-11	0.4	106.88931	1047.9082	-0.0081435271	-0.0046108237	-0.0046093824	-0.12375192	0.36309929	0	930.1816477148782
0.43651583	2.5118864e-11	0.4	97.487206	955.84983	-0.0081224967	-0.0046551848	-0.0046536045	-0.11374171	0.33033979	0	930.1847873288689
0.43651583	2.7542287e-11	0.4	88.912258	871.88534	-0.0081012204	-0.0047005307	-0.0046987979	-0.10461201	0.30046015	0	930.1877929420497
0.43651583	3.0199517e-11	0.4	81.091718	795.304	-0.0080796504	-0.0047468954	-0.0047449954	-0.096285342	0.27320763	0	930.1906971385465
0.43651583	3.3113112e-11	0.4	73.959224	725.45711	-0.0080577625	-0.0047942809	-0.0047921976	-0.088691066	0.2483515	0	930.1935224303454
0.43651583	3.6307805e-11	0.4	67.454253	661.75278	-0.0080355482	-0.004842668	-0.0048403837	-0.081764742	0.22568121	0	930.1962846209352
0.43651583	3.9810717e-11	0.4	61.521599	603.651	-0.0080130093	-0.0048920242	-0.0048895195	-0.075447604	0.20500465	0	930.1989948723525
0.43651583	4.3651583e-11	0.4	56.110911	550.65913	-0.0079901536	-0.0049423104	-0.004939564	-0.069686052	0.18614653	0	930.2016612648592
0.43651583	4.7863009e-11	0.4	51.17627	502.32781	-0.0079669921	-0.0049934851	-0.0049904738	-0.064431208	0.16894696	0	930.2042897740912
0.43651583	5.2480746e-11	0.4	46.675792	458.24712	-0.0079435362	-0.0050455099	-0.0050422081	-0.059638489	0.15326009	0	930.2068850227097
0.43651583	5.7543994e-11	0.4	42.57128	418.04319	-0.007919796	-0.0050983521	-0.0050947317	-0.055267235	0.13895286	0	930.2094507501847
0.43651583	6.3095734e-11	0.4	38.827894	381.375	-0.007895779	-0.005151987	-0.0051480173	-0.051280365	0.12590393	0	930.21199016983
0.43651583	6.9183097e-11	0.4	35.413864	347.93154	-0.0078714888	-0.0052064	-0.0052020473	-0.04764406	0.11400263	0	930.2145065137504
0.43651583	7.5857758e-11	0.4	32.300212	317.42915	-0.0078469253	-0.0052615872	-0.0052568147	-0.044327475	0.103148	0	930.2170025066854
0.43651583	8.3176377e-11	0.4	29.460512	289.60913	-0.0078220834	-0.0053175562	-0.0053123232	-0.041302482	0.093248	0	930.2194815498613
0.43651583	9.1201084e-11	0.4	26.870661	264.23554	-0.007796954	-0.0053743255	-0.0053685877	-0.038543423	0.084218659	0	930.2219465935135
0.43651583	1.e-10	0.4	24.508679	241.09322	-0.0077715237	-0.0054319235	-0.0054256321	-0.036026901	0.07598341	0	930.2244012455731
0.43651583	1.0964782e-10	0.4	22.354519	219.98591	-0.0077457756	-0.0054903879	-0.0054834896	-0.033731576	0.068472421	0	930.2268489072663
0.43651583	1.2022644e-10	0.4	20.389899	200.73466	-0.0077196895	-0.0055497636	-0.0055421997	-0.031637986	0.061622008	0	930.2292937126809
0.43651583	1.3182567e-10	0.4	18.598146	183.17625	-0.0076932434	-0.0056101009	-0.0056018074	-0.029728381	0.05537409	0	930.2317394200784
0.43651583	1.4454398e-10	0.4	16.964052	167.16181	-0.0076664136	-0.0056714542	-0.0056623606	-0.02798657	0.049675697	0	930.2341902950851
0.43651583	1.5848932e-10	0.4	15.47375	152.55558	-0.0076391764	-0.0057338778	-0.0057239069	-0.02639779	0.044478521	0	930.2366507160759
0.43651583	1.7378008e-10	0.4	14.114592	139.23375	-0.0076115089	-0.0057974245	-0.0057864918	-0.024948575	0.039738502	0	930.2391250990077
0.43651583	1.9054607e-10	0.4	12.875042	127.08338	-0.0075833903	-0.0058621425	-0.0058501552	-0.023626642	0.035415455	0	930.2416179913769
0.43651583	2.0892961e-10	0.4	11.744582	116.00148	-0.0075548031	-0.0059280725	-0.0059149289	-0.022420791	0.031472729	0	930.2441338843059
0.43651583	2.2908677e-10	0.4	10.713616	105.8941	-0.0075257346	-0.0059952435	-0.0059808321	-0.021320804	0.027876894	0	930.2466774944127
0.43651583	2.5118864e-10	0.4	9.773395	96.67555	-0.0074961784	-0.0060636702	-0.0060478688	-0.020317364	0.024597455	0	930.249253331611
0.43651583	2.7542287e-10	0.4	8.9159384	88.267662	-0.0074661354	-0.00613335	-0.0061160245	-0.019401974	0.021606597	0	930.2518659997712
0.43651583	3.0199517e-10	0.4	8.1339681	80.599134	-0.007435615	-0.0062042601	-0.0061852638	-0.018566881	0.018878942	0	930.2545199712239
0.43651583	3.3113112e-10	0.4	7.4208466	73.604925	-0.0074046372	-0.0062763533	-0.0062555251	-0.017805017	0.016391343	0	930.2572196055529
0.43651583	3.6307805e-10	0.4	6.77052	67.225693	-0.0073732321	-0.0063495573	-0.0063267207	-0.017109933	0.014122678	0	930.2599695817931
0.43651583	3.9810717e-10	0.4	6.1774673	61.407304	-0.0073414424	-0.0064237712	-0.0063987328	-0.016475749	0.012053677	0	930.2627740528237
0.43651583	4.3651583e-10	0.4	5.636653	56.100361	-0.0073093229	-0.006498865	-0.0064714128	-0.015897101	0.010166755	0	930.2656373782279
0.43651583	4.7863009e-10	0.4	5.1434849	51.259801	-0.007276942	-0.0065746764	-0.0065445783	-0.015369097	0.0084458669	0	930.2685638424236
0.43651583	5.2480746e-10	0.4	4.6937747	46.844501	-0.0072443813	-0.0066510122	-0.0066180135	-0.014887274	0.0068763707	0	930.271557880159
0.43651583	5.7543994e-10	0.4	4.2837031	42.81694	-0.0072117365	-0.0067276453	-0.0066914673	-0.014447563	0.0054449038	0	930.2746239449746
0.43651583	6.3095734e-10	0.4	3.9097865	39.142877	-0.0071791168	-0.0068043173	-0.0067646548	-0.01404625	0.0041392711	0	930.2777665092005
0.43651583	6.9183097e-10	0.4	3.5688485	35.791073	-0.0071466447	-0.0068807374	-0.0068372558	-0.013679951	0.0029483444	0	930.2809908156121
0.43651583	7.5857758e-10	0.4	3.2579927	32.733023	-0.0071144544	-0.0069565872	-0.0069089206	-0.013345576	0.0018619697	0	930.2843022009405
0.43651583	8.3176377e-10	0.4	2.974578	29.942727	-0.0070826898	-0.007031525	-0.0069792728	-0.013040307	0.00087088492	0	930.2877069226904
0.43651583	9.1201084e-10	0.4	2.7161969	27.396478	-0.0070515009	-0.0071051942	-0.007047918	-0.012761576	-0.000033354057	0	930.2912122718897
0.43651583	1.e-9	0.4	2.4806551	25.072669	-0.0070210382	-0.0071772358	-0.0071144565	-0.012507036	-0.00085844045	0	930.2948270616607
0.43651583	1.0964782e-9	0.4	2.2659533	22.951626	-0.0069914473	-0.0072473021	-0.0071784959	-0.012274549	-0.0016113762	0	930.298561965466
0.43651583	1.2022644e-9	0.4	2.0702704	21.015446	-0.0069628616	-0.007315073	-0.0072396678	-0.012062163	-0.0022985262	0	930.3024300996381
0.43651583	1.3182567e-9	0.4	1.8919481	19.247854	-0.0069353953	-0.0073802729	-0.0072976444	-0.011868095	-0.0029256692	0	930.3064473616225
0.43651583	1.4454398e-9	0.4	1.7294769	17.634073	-0.0069091383	-0.0074426827	-0.0073521502	-0.011690719	-0.0034980451	0	930.310632824596
0.43651583	1.5848932e-9	0.4	1.5814836	16.160686	-0.0068841535	-0.0075021469	-0.007402969	-0.011528549	-0.0040204011	0	930.315008643509
0.43651583	1.7378008e-9	0.4	1.4467183	14.81552	-0.0068604755	-0.0075585764	-0.0074499466	-0.011380228	-0.0044970359	0	930.319600261792
0.43651583	1.9054607e-9	0.4	1.3240445	13.587526	-0.0068381126	-0.0076119441	-0.0074929866	-0.011244517	-0.0049318425	0	930.3244361106919
0.43651583	2.0892961e-9	0.4	1.2124278	12.466671	-0.0068170509	-0.007662276	-0.0075320414	-0.011120281	-0.0053283484	0	930.3295471394915
0.43651583	2.2908677e-9	0.4	1.1109272	11.443835	-0.0067972584	-0.007709641	-0.0075671022	-0.011006483	-0.0056897535	0	930.3349667215521
0.43651583	2.5118864e-9	0.4	1.0186861	10.510721	-0.00677869	-0.0077541394	-0.0075981882	-0.010902175	-0.0060189639	0	930.340730015409
0.43651583	2.7542287e-9	0.4	0.93492462	9.6597674	-0.006761293	-0.0077958901	-0.0076253344	-0.010806488	-0.0063186237	0	930.3468733822413
0.43651583	3.0199517e-9	0.4	0.85893199	8.884076	-0.0067450096	-0.007835025	-0.0076485868	-0.010718625	-0.0065911417	0	930.3534338409236
0.43651583	3.3113112e-9	0.4	0.7900602	8.177344	-0.006729781	-0.0078716787	-0.0076679933	-0.010637857	-0.0068387169	0	930.3604486358267
0.43651583	3.6307805e-9	0.4	0.72771769	7.5338035	-0.0067155492	-0.0079059845	-0.0076836014	-0.010563516	-0.0070633605	0	930.3679544099991
0.43651583	3.9810717e-9	0.4	0.67136368	6.9481675	-0.0067022585	-0.0079380711	-0.0076954565	-0.010494988	-0.0072669156	0	930.3759864347242
0.43651583	4.3651583e-9	0.4	0.62050295	6.4155807	-0.006689856	-0.0079680607	-0.0077036022	-0.010431712	-0.0074510755	0	930.3845780269888
0.43651583	4.7863009e-9	0.4	0.57468096	5.9315754	-0.0066782927	-0.0079960671	-0.0077080809	-0.010373171	-0.0076174001	0	930.3937592904673
0.43651583	5.2480746e-9	0.4	0.53347945	5.4920311	-0.0066675233	-0.0080221958	-0.007708936	-0.010318892	-0.0077673303	0	930.4035564766153
0.43651583	5.7543994e-9	0.4	0.49651242	5.0931393	-0.006657506	-0.0080465441	-0.0077062143	-0.010268441	-0.007902202	0	930.4139912706011
0.43651583	6.3095734e-9	0.4	0.46342259	4.7313716	-0.0066482023	-0.0080692023	-0.0076999696	-0.010221421	-0.0080232571	0	930.4250796262444
0.43651583	6.9183097e-9	0.4	0.43387834	4.4034529	-0.0066395766	-0.0080902541	-0.0076902641	-0.010177468	-0.0081316534	0	930.4368316156856
0.43651583	7.5857758e-9	0.4	0.40757121	4.1063391	-0.0066315963	-0.0081097762	-0.0076771695	-0.010136251	-0.0082284732	0	930.449250922021
0.43651583	8.3176377e-9	0.4	0.38421389	3.8371986	-0.0066242306	-0.0081278418	-0.0076607693	-0.010097466	-0.0083147286	0	930.4623351023808
0.43651583	9.1201084e-9	0.4	0.36353874	3.5933993	-0.006617451	-0.0081445189	-0.0076411576	-0.010060836	-0.0083913668	0	930.4760755691375
0.43651583	1.e-8	0.4	0.34529679	3.3724974	-0.0066112306	-0.0081598717	-0.0076184373	-0.010026112	-0.0084592725	0	930.4904589240892
0.43651583	1.0964782e-8	0.4	0.329257	3.1722308	-0.0066055433	-0.0081739632	-0.0075927207	-0.0099930671	-0.0085192696	0	930.5054674846162
0.43651583	1.2022644e-8	0.4	0.3152059	2.9905129	-0.0066003651	-0.0081868519	-0.0075641232	-0.0099614949	-0.0085721224	0	930.5210804299502
0.43651583	1.3182567e-8	0.4	0.30294717	2.8254281	-0.0065956717	-0.0081985966	-0.0075327642	-0.0099312107	-0.0086185355	0	930.5372757178882
0.43651583	1.4454398e-8	0.4	0.29230141	2.6752269	-0.0065914406	-0.008209253	-0.0074987609	-0.0099020478	-0.0086591551	0	930.5540304418267
0.43651583	1.5848932e-8	0.4	0.2831057	2.53832	-0.0065876492	-0.0082188767	-0.0074622281	-0.0098738561	-0.0086945694	0	930.5713226911022
0.43651583	1.7378008e-8	0.4	0.27521304	2.4132723	-0.0065842753	-0.008227523	-0.0074232756	-0.0098465008	-0.0087253105	0	930.5891320583548
0.43651583	1.9054607e-8	0.4	0.2684917	2.298794	-0.0065812976	-0.0082352451	-0.0073820042	-0.0098198609	-0.0087518564	0	930.6074406730519
0.43651583	2.0892961e-8	0.4	0.26282434	2.1937325	-0.0065786947	-0.0082420965	-0.007338507	-0.0097938272	-0.0087746336	0	930.6262336524783
0.43651583	2.2908677e-8	0.4	0.25810707	2.0970617	-0.0065764454	-0.0082481306	-0.0072928681	-0.0097683017	-0.0087940207	0	930.645499308441
0.43651583	2.5118864e-8	0.4	0.25424838	2.0078718	-0.0065745298	-0.0082533982	-0.0072451598	-0.0097431958	-0.0088103519	0	930.6652291660605
0.43651583	2.7542287e-8	0.4	0.25116807	1.9253587	-0.0065729275	-0.0082579511	-0.0071954459	-0.0097184295	-0.0088239206	0	930.685418414762
0.43651583	3.0199517e-8	0.4	0.24879612	1.8488133	-0.0065716187	-0.0082618397	-0.00714378	-0.0096939299	-0.0088349835	0	930.7060655136587
0.43651583	3.3113112e-8	0.4	0.24707165	1.7776116	-0.006570584	-0.008265114	-0.0070902069	-0.0096696306	-0.008843764	0	930.7271718533073
0.43651583	3.6307805e-8	0.4	0.24594191	1.7112046	-0.0065698045	-0.0082678227	-0.0070347622	-0.0096454707	-0.0088504564	0	930.748741812082
0.43651583	3.9810717e-8	0.4	0.2453613	1.6491102	-0.0065692619	-0.0082700132	-0.0069774728	-0.0096213944	-0.0088552287	0	930.7707824743057
0.43651583	4.3651583e-8	0.4	0.24529057	1.5909045	-0.0065689385	-0.0082717313	-0.0069183577	-0.0095973497	-0.008858226	0	930.7933033295888
0.43651583	4.7863009e-8	0.4	0.24569595	1.5362146	-0.0065688167	-0.0082730232	-0.0068574302	-0.0095732883	-0.0088595732	0	930.8163159157932
0.43651583	5.2480746e-8	0.4	0.24654854	1.4847127	-0.0065688798	-0.0082739324	-0.0067946956	-0.0095491651	-0.0088593774	0	930.8398339317821
0.43651583	5.7543994e-8	0.4	0.24782365	1.4361096	-0.006569112	-0.0082745007	-0.0067301529	-0.0095249374	-0.0088577304	0	930.8638725985139
0.43651583	6.3095734e-8	0.4	0.24950028	1.39015	-0.0065694977	-0.0082747695	-0.0066637961	-0.0095005648	-0.0088547104	0	930.8884488281651
0.43651583	6.9183097e-8	0.4	0.25156062	1.3466083	-0.0065700219	-0.0082747788	-0.0065956139	-0.009476009	-0.0088503837	0	930.9135809610514
0.43651583	7.5857758e-8	0.4	0.25398969	1.3052844	-0.0065706703	-0.0082745666	-0.0065255897	-0.0094512329	-0.0088448064	0	930.9392886716711
0.43651583	8.3176377e-8	0.4	0.25677495	1.2660006	-0.0065714299	-0.008274168	-0.0064537003	-0.0094262013	-0.0088380258	0	930.9655928935401
0.43651583	9.1201084e-8	0.4	0.25990603	1.2285986	-0.0065722874	-0.0082736193	-0.0063799211	-0.0094008796	-0.0088300808	0	930.9925153682008
0.43651583	1.e-7	0.4	0.26337442	1.1929369	-0.0065732302	-0.0082729547	-0.0063042224	-0.0093752343	-0.0088210037	0	931.0200790962128
0.43651583	1.0964782e-7	0.4	0.26717332	1.1588891	-0.0065742468	-0.0082722057	-0.0062265689	-0.0093492328	-0.0088108206	0	931.0483081492406
0.43651583	1.2022644e-7	0.4	0.2712974	1.1263416	-0.006575326	-0.0082714037	-0.0061469229	-0.0093228429	-0.0087995521	0	931.0772272190612
0.43651583	1.3182567e-7	0.4	0.27574265	1.0951921	-0.0065764567	-0.0082705794	-0.0060652434	-0.009296033	-0.008787214	0	931.1068621437221
0.43651583	1.4454398e-7	0.4	0.28050627	1.0653482	-0.0065776292	-0.0082697602	-0.0059814837	-0.0092687717	-0.008773818	0	931.1372395880878
0.43651583	1.5848932e-7	0.4	0.28558649	1.0367264	-0.0065788335	-0.0082689751	-0.0058955962	-0.0092410279	-0.0087593717	0	931.1683868371362
0.43651583	1.7378008e-7	0.4	0.29098256	1.0092509	-0.0065800604	-0.0082682498	-0.0058075277	-0.0092127706	-0.0087438794	0	931.2003325288186
0.43651583	1.9054607e-7	0.4	0.29669457	0.98285245	-0.0065813006	-0.0082676118	-0.0057172245	-0.0091839689	-0.0087273422	0	931.2331055829573
0.43651583	2.0892961e-7	0.4	0.30272346	0.95746823	-0.0065825458	-0.0082670851	-0.0056246268	-0.0091545917	-0.0087097583	0	931.2667362723473
0.43651583	2.2908677e-7	0.4	0.30907091	0.93304055	-0.0065837878	-0.0082666945	-0.0055296731	-0.0091246079	-0.0086911235	0	931.3012554147324
0.43651583	2.5118864e-7	0.4	0.3157393	0.90951652	-0.0065850184	-0.008266464	-0.005432299	-0.0090939862	-0.0086714309	0	931.3366949177516
0.43651583	2.7542287e-7	0.4	0.32273169	0.88684758	-0.0065862303	-0.0082664163	-0.0053324357	-0.009062695	-0.0086506715	0	931.3730874970706
0.43651583	3.0199517e-7	0.4	0.33005175	0.86498891	-0.0065874158	-0.0082665746	-0.0052300128	-0.0090307022	-0.0086288341	0	931.4104668455029
0.43651583	3.3113112e-7	0.4	0.33770372	0.84389918	-0.0065885681	-0.0082669607	-0.0051249554	-0.0089979757	-0.0086059058	0	931.4488675014704
0.43651583	3.6307805e-7	0.4	0.34569243	0.82354001	-0.0065896789	-0.0082675994	-0.0050171892	-0.0089644826	-0.0085818714	0	931.4883251872482
0.43651583	3.9810717e-7	0.4	0.35402326	0.80387598	-0.0065907426	-0.0082685095	-0.0049066308	-0.0089301897	-0.0085567142	0	931.528876508302
0.43651583	4.3651583e-7	0.4	0.36270209	0.78487403	-0.006591752	-0.0082697139	-0.0047931983	-0.0088950631	-0.0085304158	0	931.5705590096634
0.43651583	4.7863009e-7	0.4	0.37173533	0.76650342	-0.0065927002	-0.0082712345	-0.0046768054	-0.0088590684	-0.008502956	0	931.6134116081287
0.43651583	5.2480746e-7	0.4	0.38112987	0.74873546	-0.0065935804	-0.0082730936	-0.0045573633	-0.0088221706	-0.0084743131	0	931.6574740661042
0.43651583	5.7543994e-7	0.4	0.3908931	0.73154334	-0.0065943863	-0.008275312	-0.0044347785	-0.0087843338	-0.0084444636	0	931.7027874425953
0.43651583	6.3095734e-7	0.4	0.4010329	0.71490199	-0.0065951115	-0.0082779115	-0.0043089551	-0.0087455216	-0.0084133829	0	931.7493937925472
0.43651583	6.9183097e-7	0.4	0.41155762	0.69878785	-0.0065957493	-0.0082809139	-0.0041797938	-0.0087056966	-0.0083810444	0	931.7973367305834
0.43651583	7.5857758e-7	0.4	0.42247606	0.68317882	-0.0065962929	-0.008284342	-0.004047193	-0.0086648207	-0.0083474203	0	931.846660829684
0.43651583	8.3176377e-7	0.4	0.43379753	0.66805412	-0.0065967363	-0.0082882172	-0.0039110456	-0.0086228548	-0.0083124812	0	931.8974119782208
0.43651583	9.1201084e-7	0.4	0.44553177	0.65339415	-0.0065970725	-0.0082925626	-0.0037712429	-0.0085797589	-0.0082761963	0	931.9496376054527
0.43651583	1.e-6	0.4	0.45768903	0.63918047	-0.0065972954	-0.0082973997	-0.0036276705	-0.008535492	-0.008238533	0	932.0033864372385
0.43651583	1.0964782e-6	0.4	0.47028002	0.62539563	-0.0065973985	-0.0083027514	-0.0034802112	-0.0084900123	-0.0081994576	0	932.0587086275773
0.43651583	1.2022644e-6	0.4	0.48331591	0.61202314	-0.0065973753	-0.0083086405	-0.0033287438	-0.0084432766	-0.0081589347	0	932.1156558337711
0.43651583	1.3182567e-6	0.4	0.49680836	0.59904738	-0.0065972191	-0.0083150909	-0.0031731439	-0.0083952407	-0.0081169273	0	932.1742811036802
0.43651583	1.4454398e-6	0.4	0.51076955	0.58645358	-0.0065969237	-0.0083221248	-0.0030132809	-0.0083458593	-0.0080733969	0	932.2346393455035
0.43651583	1.5848932e-6	0.4	0.5252121	0.5742277	-0.0065964828	-0.0083297655	-0.0028490208	-0.0082950859	-0.0080283035	0	932.2967868392052
0.43651583	1.7378008e-6	0.4	0.54014918	0.56235641	-0.0065958899	-0.0083380365	-0.002680225	-0.0082428725	-0.0079816055	0	932.3607817814634
0.43651583	1.9054607e-6	0.4	0.55559445	0.55082703	-0.006595139	-0.0083469607	-0.0025067494	-0.0081891702	-0.0079332596	0	932.426683966217
0.43651583	2.0892961e-6	0.4	0.57156207	0.5396275	-0.0065942231	-0.0083565638	-0.0023284478	-0.0081339282	-0.0078832209	0	932.4945549162048
0.43651583	2.2908677e-6	0.4	0.58806676	0.52874634	-0.0065931369	-0.0083668666	-0.0021451639	-0.0080770948	-0.0078314428	0	932.5644583527492
0.43651583	2.5118864e-6	0.4	0.60512377	0.51817259	-0.0065918744	-0.0083778931	-0.0019567391	-0.0080186165	-0.007777877	0	932.6364595192679
0.43651583	2.7542287e-6	0.4	0.62274889	0.50789579	-0.0065904298	-0.0083896663	-0.0017630085	-0.0079584385	-0.0077224735	0	932.7106258389704
0.43651583	3.0199517e-6	0.4	0.6409585	0.49790594	-0.0065887977	-0.0084022088	-0.0015638008	-0.0078965042	-0.0076651804	0	932.7870267645274
0.43651583	3.3113112e-6	0.4	0.65976953	0.4881935	-0.0065869725	-0.0084155437	-0.0013589397	-0.0078327555	-0.007605944	0	932.8657338156534
0.43651583	3.6307805e-6	0.4	0.67919951	0.47874932	-0.0065849493	-0.0084296926	-0.0011482409	-0.0077671326	-0.0075447089	0	932.9468208609761
0.43651583	3.9810717e-6	0.4	0.69926657	0.46956462	-0.0065827228	-0.0084446792	-0.00093151624	-0.007699574	-0.0074814174	0	933.0303635956384
0.43651583	4.3651583e-6	0.4	0.71998948	0.46063099	-0.0065802891	-0.0084605224	-0.00070856626	-0.0076300162	-0.0074160101	0	933.1164406462274
0.43651583	4.7863009e-6	0.4	0.74138763	0.45194037	-0.0065776436	-0.0084772452	-0.00047918864	-0.0075583941	-0.0073484256	0	933.2051323718877
0.43651583	5.2480746e-6	0.4	0.76348107	0.44348499	-0.0065747824	-0.0084948671	-0.0002431711	-0.0074846405	-0.0072786003	0	933.2965222172977
0.43651583	5.7543994e-6	0.4	0.78629051	0.43525739	-0.0065717021	-0.0085134085	-2.9482938e-7	-0.0074086862	-0.0072064685	0	933.3906956117298
0.43651583	6.3095734e-6	0.4	0.80983737	0.42725037	-0.0065683994	-0.0085328883	0.00024966765	-0.00733046	-0.0071319623	0	933.4877411479816
0.43651583	6.9183097e-6	0.4	0.83414373	0.41945701	-0.0065648701	-0.008553329	0.00050694789	-0.0072498884	-0.0070550115	0	933.5877497954689
0.43651583	7.5857758e-6	0.4	0.85923248	0.41187063	-0.0065611131	-0.0085747457	0.00077179257	-0.0071668961	-0.0069755437	0	933.6908152962726
0.43651583	8.3176377e-6	0.4	0.88512718	0.40448478	-0.006557125	-0.0085971592	0.0010444507	-0.007081405	-0.006893484	0	933.7970344293825
0.43651583	9.1201084e-6	0.4	0.9118522	0.39729322	-0.0065529039	-0.008620587	0.001325183	-0.006993335	-0.0068087552	0	933.9065069653636
0.43651583	0.00001	0.4	0.9394327	0.39028993	-0.0065484478	-0.0086450475	0.0016142576	-0.0069026035	-0.0067212774	0	934.01933555361
0.43651583	0.000010964782	0.4	0.96789464	0.38346909	-0.0065437544	-0.0086705599	0.0019119512	-0.0068091254	-0.0066309682	0	934.1356263462144
0.43651583	0.000012022644	0.4	0.99726482	0.37682505	-0.0065388226	-0.0086971411	0.0022185512	-0.0067128129	-0.0065377425	0	934.2554883891314
0.43651583	0.000013182567	0.4	1.0275709	0.37035237	-0.0065336508	-0.0087248096	0.0025343534	-0.0066135757	-0.0064415125	0	934.3790343550381
0.43651583	0.000014454398	0.4	1.0588416	0.36404575	-0.0065282382	-0.0087535824	0.0028596646	-0.0065113207	-0.0063421874	0	934.5063802990461
0.43651583	0.000015848932	0.4	1.0911061	0.35790007	-0.0065225823	-0.008783481	0.0031947969	-0.0064059517	-0.0062396737	0	934.6376458654076
0.43651583	0.000017378008	0.4	1.1243951	0.35191039	-0.0065166828	-0.0088145221	0.0035400778	-0.00629737	-0.0061338748	0	934.7729544190528
0.43651583	0.000019054607	0.4	1.1587399	0.34607191	-0.0065105372	-0.008846728	0.0038958397	-0.0061854736	-0.0060246908	0	934.9124332335036
0.43651583	0.000020892961	0.4	1.1941728	0.34037996	-0.0065041453	-0.0088801162	0.0042624308	-0.0060701573	-0.005912019	0	935.0562133593357
0.43651583	0.000022908677	0.4	1.2307275	0.33483008	-0.0064975045	-0.0089147104	0.0046402046	-0.0059513129	-0.0057957531	0	935.2044300939592
0.43651583	0.000025118864	0.4	1.2684382	0.32941789	-0.0064906135	-0.008950532	0.0050295282	-0.0058288288	-0.0056757835	0	935.3572226245849
0.43651583	0.000027542287	0.4	1.3073408	0.32413919	-0.006483471	-0.0089876022	0.0054307812	-0.0057025899	-0.005551997	0	935.5147348362507
0.43651583	0.000030199517	0.4	1.3474718	0.31898993	-0.0064760738	-0.0090259479	0.0058443501	-0.0055724775	-0.0054242769	0	935.6771149923687
0.43651583	0.000033113112	0.4	1.3888692	0.31396619	-0.0064684197	-0.0090655944	0.0062706353	-0.0054383695	-0.0052925029	0	935.8445156407693
0.43651583	0.000036307805	0.4	1.4315721	0.30906416	-0.0064605067	-0.0091065664	0.0067100514	-0.0053001397	-0.0051565505	0	936.0170944781007
0.43651583	0.000039810717	0.4	1.4756209	0.30428022	-0.0064523318	-0.0091488918	0.0071630235	-0.0051576581	-0.0050162916	0	936.1950140867511
0.43651583	0.000043651583	0.4	1.5210572	0.29961086	-0.0064438911	-0.0091926021	0.0076299867	-0.005010791	-0.0048715938	0	936.378441652979
0.43651583	0.000047863009	0.4	1.567924	0.2950527	-0.0064351818	-0.0092377254	0.0081113944	-0.0048594	-0.0047223205	0	936.5675502071389
0.43651583	0.000052480746	0.4	1.6162657	0.29060252	-0.0064262	-0.0092842945	0.0086077102	-0.0047033429	-0.0045683309	0	936.7625176465347
0.43651583	0.000057543994	0.4	1.6661279	0.28625722	-0.006416941	-0.0093323436	0.0091194117	-0.0045424728	-0.0044094796	0	936.9635278816875
0.43651583	0.000063095734	0.4	1.7175578	0.28201383	-0.006407401	-0.0093819064	0.0096469926	-0.0043766384	-0.0042456166	0	937.1707700283112
0.43651583	0.000069183097	0.4	1.7706042	0.27786955	-0.0063975744	-0.0094330208	0.010190959	-0.0042056836	-0.0040765873	0	937.3844395535813
0.43651583	0.000075857758	0.4	1.8253173	0.27382168	-0.0063874567	-0.0094857233	0.010751836	-0.0040294475	-0.0039022318	0	937.6047380318478
0.43651583	0.000083176377	0.4	1.8817489	0.26986769	-0.0063770423	-0.0095400533	0.011330162	-0.0038477642	-0.0037223855	0	937.8318730694702
0.43651583	0.000091201084	0.4	1.9399525	0.26600516	-0.0063663253	-0.0095960524	0.011926492	-0.0036604627	-0.0035368785	0	938.0660587933924
0.43651583	0.0001	0.4	1.9999832	0.26223184	-0.0063552998	-0.0096537622	0.012541398	-0.0034673665	-0.0033455353	0	938.3075157196017
0.43651583	0.00010964782	0.4	2.0618981	0.25854559	-0.0063439591	-0.0097132274	0.013175472	-0.0032682937	-0.0031481752	0	938.5564726322609
0.43651583	0.00012022644	0.4	2.1257557	0.25494444	-0.0063322967	-0.0097744926	0.013829321	-0.0030630569	-0.0029446114	0	938.8131637650115
0.43651583	0.00013182567	0.4	2.1916168	0.25142654	-0.0063203068	-0.0098376021	0.014503575	-0.0028514624	-0.0027346513	0	939.0778313378012
0.43651583	0.00014454398	0.4	2.2595437	0.24799024	-0.0063079805	-0.0099026078	0.015198878	-0.0026333112	-0.0025180965	0	939.3507257447952
0.43651583	0.00015848932	0.4	2.329601	0.24463397	-0.0062953122	-0.0099695554	0.015915901	-0.0024083973	-0.0022947419	0	939.6321044268998
0.43651583	0.00017378008	0.4	2.4018551	0.24135637	-0.0062822953	-0.010038493	0.016655334	-0.0021765086	-0.0020643761	0	939.9222329052828
0.43651583	0.00019054607	0.4	2.4763745	0.23815626	-0.0062689251	-0.010109465	0.017417895	-0.0019374267	-0.0018267809	0	940.22138543907
0.43651583	0.00020892961	0.4	2.5532296	0.23503256	-0.0062552086	-0.010182489	0.018204352	-0.0016909259	-0.0015817313	0	940.5298440857794
0.43651583	0.00022908677	0.4	2.6324912	0.23198407	-0.0062411876	-0.010257502	0.01901558	-0.0014367737	-0.0013289955	0	940.8478984194514
0.43651583	0.00025118864	0.4	2.714227	0.22900743	-0.0062270477	-0.010334095	0.01985282	-0.001174731	-0.0010683357	0	941.1758404569975
0.43651583	0.00027542287	0.4	2.7984839	0.22608601	-0.0062135283	-0.010410545	0.020718659	-0.00090455262	-0.00079951456	0	941.5139477460218
0.43651583	0.00030199517	0.4	2.8852303	0.2231399	-0.0062033222	-0.010480476	0.021620361	-0.00062599179	-0.00052232247	0	941.8624202260308
0.43651583	0.00033113112	0.4	2.9742551	0.21989874	-0.0062036696	-0.010526675	0.022576053	-0.00033881315	-0.00023664965	0	942.2212678564171
0.43651583	0.00036307805	0.4	3.0653372	0.21597035	-0.0062235686	-0.010527654	0.023608169	-0.000042806612	0.000057531783	0	942.5904676178295
0.43651583	0.00039810717	0.4	3.1587194	0.21140032	-0.006263344	-0.010482407	0.02471869	0.00026223748	0.00036045267	0	942.9704588510263
0.43651583	0.00043651583	0.4	3.2548823	0.20668407	-0.0063166735	-0.01040584	0.025893711	0.00057656837	0.00067259242	0	943.3619559075423
0.43651583	0.00047863009	0.4	3.3541177	0.20227709	-0.0063780537	-0.010311248	0.027120975	0.00090047515	0.00099445174	0	943.7655230903272
0.43651583	0.00052480746	0.4	3.456497	0.19840597	-0.0064441349	-0.010207118	0.028393061	0.0012342639	0.001326442	0	944.1815186556488
0.43651583	0.00057543994	0.4	3.5619664	0.19508633	-0.0065129187	-0.010098925	0.029705597	0.0015782408	0.0016688767	0	944.6101771190185
0.43651583	0.00063095734	0.4	3.6704271	0.19216802	-0.0065831486	-0.0099904634	0.031055922	0.0019327042	0.0020219842	0	945.05167897094
0.43651583	0.00069183097	0.4	3.7818056	0.18937699	-0.0066540595	-0.0098842887	0.032442652	0.002297943	0.0023859263	0	945.5062229294849
0.43651583	0.00075857758	0.4	3.8961289	0.18638793	-0.0067253217	-0.0097816437	0.033865751	0.0026742435	0.0027608381	0	945.9741052396081
0.43651583	0.00083176377	0.4	4.0135771	0.18295008	-0.0067970097	-0.009682369	0.035326624	0.0030619018	0.0031468992	0	946.4557839394175
0.43651583	0.00091201084	0.4	4.1344636	0.17901305	-0.0068694924	-0.009585188	0.036827829	0.0034612389	0.0035444072	0	946.9518737865217
0.43651583	0.001	0.4	4.2591288	0.17474643	-0.0069432319	-0.0094884792	0.038372313	0.0038726092	0.0039537952	0	947.4630481674071
0.43651583	0.0010964782	0.4	4.3878127	0.17041713	-0.0070185375	-0.0093912372	0.039962446	0.0042963955	0.0043755702	0	947.9899071824627
0.43651583	0.0012022644	0.4	4.5205985	0.16621523	-0.0070953346	-0.0092938355	0.04159926	0.0047329974	0.0048102199	0	948.5329087758403
0.43651583	0.0013182567	0.4	4.6574624	0.16214945	-0.0071729746	-0.0091984068	0.043282075	0.0051828162	0.0052581497	0	949.0924067878503
0.43651583	0.0014454398	0.4	4.7984076	0.15807153	-0.0072500582	-0.009108939	0.045008399	0.0056462509	0.0057196899	0	949.6687793935465
0.43651583	0.0015848932	0.4	4.9436132	0.15381845	-0.0073241929	-0.0090314634	0.046773743	0.0061237087	0.0061951717	0	950.262587419486
0.43651583	0.0017378008	0.4	5.0934995	0.149385	-0.0073915558	-0.0089749189	0.048570761	0.0066156253	0.0066850286	0	950.8746619112211
0.43651583	0.0019054607	0.4	5.2486603	0.14498723	-0.0074463582	-0.0089526193	0.050387778	0.0071224887	0.0071898488	0	951.5060539605086
0.43651583	0.0020892961	0.4	5.4096854	0.14094362	-0.0074818409	-0.0089802182	0.052210833	0.0076448452	0.0077103267	0	952.1578673687218
0.43651583	0.0022908677	0.4	5.5768571	0.13739765	-0.0074955756	-0.0090632988	0.054036086	0.0081832877	0.0082471218	0	952.8309405100226
0.43651583	0.0025118864	0.4	5.7500644	0.13417601	-0.0074922618	-0.0091907079	0.055876491	0.0087384151	0.0088007523	0	953.5257263488661
0.43651583	0.0027542287	0.4	5.9292129	0.131079	-0.0074772883	-0.0093496172	0.05774673	0.0093108126	0.0093717111	0	954.2426796348818
0.43651583	0.0030199517	0.4	6.1143991	0.12807018	-0.0074534693	-0.0095331824	0.059655561	0.0099010661	0.0099605667	0	954.9824477285956
0.43651583	0.0033113112	0.4	6.3057975	0.12519415	-0.0074224989	-0.009737175	0.061609184	0.010509776	0.010567941	0	955.7457690344166
0.43651583	0.0036307805	0.4	6.5035856	0.12248864	-0.0073858312	-0.0099579773	0.06361325	0.01113756	0.011194468	0	956.5334011238859
0.43651583	0.0039810717	0.4	6.7079381	0.11996255	-0.0073446873	-0.010192581	0.065672866	0.011785053	0.011840787	0	957.3461160378521
0.43651583	0.0043651583	0.4	6.9190388	0.11760538	-0.0072999729	-0.010438766	0.067792414	0.012452908	0.012507547	0	958.184709682123
0.43651583	0.0047863009	0.4	7.1370865	0.11539943	-0.0072522997	-0.010695026	0.069975631	0.013141795	0.013195409	0	959.0500117868589
0.43651583	0.0052480746	0.4	7.362297	0.11332696	-0.0072020651	-0.010960363	0.072225813	0.013852406	0.013905057	0	959.9428876917475
0.43651583	0.0057543994	0.4	7.5949017	0.11137281	-0.0071495209	-0.01123412	0.074545989	0.014585454	0.014637197	0	960.8642391916117
0.43651583	0.0063095734	0.4	7.8351472	0.10952494	-0.0070948288	-0.011515841	0.076939061	0.015341677	0.015392561	0	961.8150050061923
0.43651583	0.0069183097	0.4	8.0832425	0.10778112	-0.007038194	-0.011805073	0.079408001	0.016121834	0.016171909	0	962.7961092919682
0.43651583	0.0075857758	0.4	8.3109831	0.10423344	-0.0070475415	-0.012009039	0.082048189	0.016926173	0.016974599	0	963.7795783697734
0.43651583	0.0083176377	0.4	8.4884927	0.092201448	-0.0074405103	-0.011430355	0.085559688	0.017748876	0.017791712	0	964.7300716164461
0.43651583	0.0091201084	0.4	8.7156099	0.084891461	-0.0076603666	-0.011193039	0.088821245	0.018591917	0.018631357	0	965.749280632687
0.43651583	0.01	0.4	8.9870804	0.081886576	-0.0075699572	-0.01164665	0.091486152	0.019459357	0.019497401	0	966.8357678835102
0.43651583	0.010964782	0.4	9.2736735	0.080126417	-0.0074562695	-0.012146669	0.094201868	0.020354303	0.02039153	0	967.9632219687676
0.43651583	0.012022644	0.4	9.5705107	0.078331825	-0.0073360933	-0.012664413	0.097000105	0.021277845	0.021314237	0	969.1277859726974
0.43651583	0.013182567	0.4	9.8779112	0.076491333	-0.0072109459	-0.01319582	0.099888054	0.022230998	0.022266536	0	970.330736858567
0.43651583	0.014454398	0.4	10.196253	0.074624879	-0.0070813932	-0.013739058	0.10287077	0.023214819	0.023249489	0	971.5734427274822
0.43651583	0.015848932	0.4	10.525944	0.072776052	-0.0069478169	-0.014292676	0.10595302	0.024230399	0.02426421	0	972.8573365105583
0.43651583	0.017378008	0.4	10.867411	0.070994288	-0.0068105822	-0.014855224	0.1091397	0.025278871	0.025311855	0	974.1839151233112
0.43651583	0.019054607	0.4	11.221092	0.069320058	-0.0066700156	-0.015425315	0.11243571	0.026361413	0.026393618	0	975.5547133457397
0.43651583	0.020892961	0.4	11.587327	0.067816345	-0.0065262923	-0.01600221	0.11584544	0.027479238	0.027510745	0	976.9712164427497
0.43651583	0.022908677	0.4	11.946626	0.068186918	-0.0063833399	-0.016629448	0.11932911	0.02863325	0.028664929	0	978.414783813623
0.43651583	0.025118864	0.4	12.241734	0.061248877	-0.0063779343	-0.017136418	0.12306122	0.029817406	0.029845862	0	979.8224872234342
0.43651583	0.027542287	0.4	12.639687	0.056618557	-0.0064772405	-0.017152262	0.1274166	0.031036703	0.031063007	0	981.3660482125074
0.43651583	0.030199517	0.4	13.060181	0.054540705	-0.006450678	-0.017458587	0.13161777	0.032296195	0.032321534	0	982.9699149217005
0.43651583	0.033113112	0.4	13.498297	0.053232242	-0.0063370215	-0.017971024	0.13575336	0.033597791	0.033622522	0	984.6309654572253
0.43651583	0.036307805	0.4	13.953356	0.052155092	-0.0062156834	-0.018493054	0.14002427	0.034943161	0.034967391	0	986.3500901512076
0.43651583	0.039810717	0.4	14.426022	0.051185925	-0.0060898655	-0.019015193	0.14444448	0.036333997	0.036357777	0	988.1295347527467
0.43651583	0.043651583	0.4	14.917119	0.050271909	-0.0059601382	-0.019534073	0.14902204	0.037772061	0.037795417	0	989.9717887341942
0.43651583	0.047863009	0.4	15.427556	0.04938574	-0.0058269858	-0.020046239	0.1537652	0.039259209	0.039282153	0	991.8794976297058
0.43651583	0.052480746	0.4	15.958314	0.048510682	-0.0056905509	-0.020548817	0.15868179	0.04079738	0.040819918	0	993.8554701759392
0.43651583	0.057543994	0.4	16.510451	0.047634545	-0.0055510718	-0.021038402	0.16378032	0.04238862	0.042410751	0	995.9026807549226
0.43651583	0.063095734	0.4	17.085099	0.046746849	-0.0054088337	-0.021511158	0.16906989	0.044035078	0.044056797	0	998.0242814204923
0.43651583	0.069183097	0.4	16.74524	0.050854595	-0.0065372037	-0.021253508	0.17526952	0.045748278	0.045771905	0	999.2940870788409
0.43651583	0.075857758	0.4	15.557824	0.059366577	-0.0087786819	-0.020882513	0.18176774	0.047369883	0.047397464	0	999.6302727688114
0.43651583	0.083176377	0.4	14.474887	0.067129598	-0.010822934	-0.021274316	0.18769419	0.048848804	0.048879992	0	999.9368791563898
0.43651583	0.091201084	0.4	13.487237	0.074209557	-0.012687315	-0.022384563	0.19309918	0.050197596	0.050232073	0	1000.2165078980299
0.43651583	0.1	0.4	14.680553	0.068974723	-0.012379569	-0.02325897	0.19894313	0.051572849	0.051604894	0	1002.7019645470841
0.43651583	0.10964782	0.4	16.171211	0.063748494	-0.011701647	-0.024140187	0.20498973	0.053082868	0.053112485	0	1005.6113869064108
0.43651583	0.12022644	0.4	17.947979	0.058845849	-0.010629077	-0.025063354	0.21121035	0.054752637	0.054779976	0	1008.957008116867
0.43651583	0.13182567	0.4	20.066805	0.054255059	-0.0090654063	-0.026050798	0.21758943	0.056612824	0.05663803	0	1012.8236039385483
0.43651583	0.14454398	0.4	22.601045	0.049966066	-0.0068885049	-0.0271272	0.22410921	0.05870039	0.058723604	0	1017.3192488154041
0.43651583	0.15848932	0.4	25.647544	0.045970482	-0.0039425528	-0.028318456	0.23075095	0.061060585	0.061081943	0	1022.5833028384075
0.43651583	0.17378008	0.4	29.333175	0.042261536	-0.00002900846	-0.029650315	0.23749631	0.063749573	0.063769207	0	1028.7954161076705
0.43651583	0.19054607	0.4	33.820595	0.038833907	0.0051020882	-0.031146704	0.24432895	0.066837667	0.066855709	0	1036.1843014541168
0.43651583	0.20892961	0.4	39.311114	0.03568339	0.011758006	-0.032827625	0.25123673	0.070413018	0.070429597	0	1045.0340954848143
0.43651583	0.22908677	0.4	46.041575	0.032806283	0.020302679	-0.034706609	0.25821422	0.074585311	0.074600552	0	1055.6846972962835
0.43651583	0.25118864	0.4	54.271702	0.030198454	0.031145064	-0.036787883	0.26526554	0.079488718	0.079502748	0	1068.521896931148
0.43651583	0.27542287	0.4	64.259351	0.027854096	0.044712928	-0.039063877	0.27240686	0.085283037	0.085295978	0	1083.9536865491652
0.43651583	0.30199517	0.4	76.224641	0.025764372	0.061412319	-0.041514028	0.27966763	0.092151815	0.092163785	0	1102.3726428613948
0.43651583	0.33113112	0.4	90.309758	0.023916314	0.081579579	-0.044105954	0.28708938	0.10029668	0.10030779	0	1124.110389216381
0.43651583	0.36307805	0.4	106.54654	0.022292422	0.10543905	-0.046799382	0.29472183	0.10992797	0.10993833	0	1149.3963956595535
0.43651583	0.39810717	0.4	124.84399	0.020871235	0.13308058	-0.049552082	0.30261693	0.12125315	0.12126285	0	1178.334604426453
0.43651583	0.43651583	0.4	145.00101	0.019628766	0.16446378	-0.052325972	0.31082281	0.13446515	0.13447427	0	1210.9051559242762
0.43651583	0.47863009	0.4	166.73896	0.018540335	0.19944529	-0.055091564	0.3193793	0.14973307	0.14974168	0	1246.9883232196034
0.43651583	0.52480746	0.4	189.74244	0.017582277	0.23781716	-0.057829826	0.32831611	0.16719657	0.16720473	0	1286.3998894925217
0.43651583	0.57543994	0.4	213.69619	0.01673315	0.27934434	-0.060531707	0.3376533	0.18696411	0.18697188	0	1328.9265489798809
0.43651583	0.63095734	0.4	238.31179	0.015974356	0.32379363	-0.063196261	0.34740315	0.20911443	0.20912185	0	1374.3538101870615
0.43651583	0.69183097	0.4	263.34259	0.015290266	0.37095219	-0.065828294	0.35757257	0.23369993	0.23370703	0	1422.4842929835963
0.43651583	0.75857758	0.4	288.58915	0.014668038	0.42063682	-0.068436205	0.36816523	0.26075115	0.26075796	0	1473.147248279299
0.43651583	0.83176377	0.4	313.89835	0.014097268	0.47269696	-0.071030286	0.37918327	0.29028137	0.29028792	0	1526.2020193830137
0.43651583	0.91201084	0.4	339.15889	0.013569602	0.5270138	-0.073621527	0.39062854	0.32229097	0.32229727	0	1581.5376718138655
0.43651583	1.	0.4	364.29537	0.013078352	0.58349742	-0.076220867	0.40250332	0.3567712	0.35677728	0	1639.070576739182
0.43651583	1.0964782	0.4	389.26214	0.012618174	0.64208335	-0.078838756	0.41481082	0.39370745	0.39371331	0	1698.7413667827573
0.43651583	1.2022644	0.4	414.0375	0.012184784	0.7027289	-0.081484942	0.42755535	0.43308185	0.43308751	0	1760.5115517104637
0.43651583	1.3182567	0.4	438.61873	0.011774738	0.76540991	-0.084168402	0.44074245	0.47487536	0.47488083	0	1824.3605137002614
0.43651583	1.4454398	0.4	463.01781	0.011385253	0.83011789	-0.086897349	0.45437886	0.51906943	0.51907472	0	1890.282808910512
0.43651583	1.5848932	0.4	487.25797	0.011014066	0.89685761	-0.089679287	0.4684725	0.56564727	0.56565239	0	1958.2858956109635
0.43651583	1.7378008	0.4	511.37088	0.010659321	0.96564507	-0.092521091	0.48303241	0.61459479	0.61459975	0	2028.3882043155215
0.43651583	1.9054607	0.4	535.39442	0.010319489	1.0365059	-0.095429088	0.49806866	0.66590134	0.66590613	0	2100.6176006533374
0.43651583	2.0892961	0.4	559.37092	0.0099932975	1.109474	-0.098409141	0.51359231	0.71956019	0.71956483	0	2175.0100925268835
0.43651583	2.2908677	0.4	583.34579	0.0096796767	1.1845905	-0.10146672	0.52961532	0.77556894	0.77557344	0	2251.6088191396398
0.43651583	2.5118864	0.4	607.36643	0.009377722	1.2619029	-0.10460699	0.54615053	0.83392974	0.8339341	0	2330.4632354533687
0.43651583	2.7542287	0.4	631.48148	0.0090866599	1.3414644	-0.10783484	0.56321158	0.89464946	0.89465368	0	2411.6284526132413
0.43651583	3.0199517	0.4	655.74016	0.008805823	1.4233332	-0.11115497	0.5808129	0.95773976	0.95774385	0	2495.1645764938257
0.43651583	3.3113112	0.4	680.19183	0.0085346302	1.5075723	-0.11457191	0.59896968	1.0232171	1.0232211	0	2581.13650851124
0.43651583	3.6307805	0.4	704.88567	0.0082725706	1.5942491	-0.11809009	0.61769783	1.0911029	1.0911068	0	2669.6135547639615
0.43651583	3.9810717	0.4	729.87044	0.008019191	1.6834348	-0.12171385	0.63701398	1.1614232	1.161427	0	2760.6688622936167
0.43651583	4.3651583	0.4	755.19431	0.0077740859	1.7752047	-0.12544747	0.65693547	1.234209	1.2342126	0	2854.3796971963307
0.43651583	4.7863009	0.4	780.9048	0.0075368894	1.8696377	-0.12929523	0.67748033	1.3094958	1.3094993	0	2950.8269673235213
0.43651583	5.2480746	0.4	807.04872	0.0073072687	1.9668165	-0.13326138	0.69866729	1.3873237	1.3873271	0	3050.095413953236
0.43651583	5.7543994	0.4	833.67215	0.0070849185	2.0668269	-0.1373502	0.72051577	1.4677376	1.4677409	0	3152.2729503361425
0.43651583	6.3095734	0.4	860.82045	0.0068695576	2.1697585	-0.14156601	0.74304592	1.5507867	1.5507899	0	3257.4513344243232
0.43651583	6.9183097	0.4	888.53835	0.0066609245	2.2757041	-0.14591318	0.76627858	1.6365247	1.6365278	0	3365.7255900990162
0.43651583	7.5857758	0.4	916.86992	0.0064587751	2.3847601	-0.15039614	0.79023531	1.7250095	1.7250125	0	3477.194394271538
0.43651583	8.3176377	0.4	945.85872	0.0062628805	2.4970262	-0.15501941	0.8149384	1.8163034	1.8163063	0	3591.9597987719458
0.43651583	9.1201084	0.4	975.54783	0.0060730247	2.6126056	-0.15978759	0.8404109	1.910473	1.9104759	0	3710.1274295368858
0.43651583	10.	0.4	1005.9799	0.0058890033	2.7316049	-0.16470537	0.86667662	2.0075891	2.0075918	0	3831.8063926530617