0.75857758	1.e-12	0.43	24558.604	132932.77	-0.016252421	-0.0016024146	-0.0016023949	-26.155203	81.170824	0	923.6477498430132
0.75857758	1.0964782e-12	0.43	22397.78	121238.03	-0.01617806	-0.0016024146	-0.001602393	-23.855316	74.028726	0	923.7176176296296
0.75857758	1.2022644e-12	0.43	20427.085	110572.3	-0.016103698	-0.0016024146	-0.001602391	-21.757787	67.515054	0	923.7874863962124
0.75857758	1.3182567e-12	0.43	18629.79	100845.03	-0.016029336	-0.0016024146	-0.0016023887	-19.844812	61.574516	0	923.8573552839991
0.75857758	1.4454398e-12	0.43	16990.637	91973.648	-0.015954975	-0.0016024146	-0.0016023862	-18.100152	56.156681	0	923.9272233130234
0.75857758	1.5848932e-12	0.43	15495.712	83882.84	-0.015880613	-0.0016024146	-0.0016023835	-16.508995	51.215556	0	923.9970923624153
0.75857758	1.7378008e-12	0.43	14132.324	76503.929	-0.015806252	-0.0016024146	-0.0016023805	-15.057837	46.709197	0	924.0669605934461
0.75857758	1.9054607e-12	0.43	12888.899	69774.273	-0.01573189	-0.0016024146	-0.0016023772	-13.734359	42.599348	0	924.136829885246
0.75857758	2.0892961e-12	0.43	11754.883	63636.747	-0.015657529	-0.0016024146	-0.0016023736	-12.527326	38.851122	0	924.2066983586847
0.75857758	2.2908677e-12	0.43	10720.647	58039.248	-0.015583167	-0.0016024146	-0.0016023696	-11.426492	35.432699	0	924.2765679332936
0.75857758	2.5118864e-12	0.43	9777.4131	52934.26	-0.015508805	-0.0016024146	-0.0016023653	-10.422513	32.31506	0	924.3464376291067
0.75857758	2.7542287e-12	0.43	8917.1735	48278.448	-0.015434444	-0.0016024146	-0.0016023606	-9.5068667	29.47174	0	924.4163065469595
0.75857758	3.0199517e-12	0.43	8132.6256	44032.288	-0.015360082	-0.0016024146	-0.0016023554	-8.6717808	26.878601	0	924.4861766063843
0.75857758	3.3113112e-12	0.43	7417.1095	40159.737	-0.015285721	-0.0016024146	-0.0016023497	-7.910167	24.51363	0	924.5560459282503
0.75857758	3.6307805e-12	0.43	6764.551	36627.92	-0.015211359	-0.0016024146	-0.0016023434	-7.2155603	22.356751	0	924.6259164320895
0.75857758	3.9810717e-12	0.43	6169.4106	33406.857	-0.015136998	-0.0016024147	-0.0016023365	-6.582065	20.389654	0	924.6957862387715
0.75857758	4.3651583e-12	0.43	5626.6361	30469.203	-0.015062636	-0.0016024147	-0.001602329	-6.0043038	18.59564	0	924.7656572274265
0.75857758	4.7863009e-12	0.43	5131.6199	27790.024	-0.014988274	-0.0016024147	-0.0016023208	-5.4773728	16.95948	0	924.8355284988904
0.75857758	5.2480746e-12	0.43	4680.1597	25346.575	-0.014913913	-0.0016024147	-0.0016023117	-4.9967995	15.467284	0	924.9053991944011
0.75857758	5.7543994e-12	0.43	4268.4231	23118.115	-0.014839551	-0.0016024147	-0.0016023018	-4.5585048	14.106385	0	924.9752711526874
0.75857758	6.3095734e-12	0.43	3892.9148	21085.727	-0.01476519	-0.0016024148	-0.0016022909	-4.1587688	12.865231	0	925.0451425754216
0.75857758	6.9183097e-12	0.43	3550.4473	19232.16	-0.014690828	-0.0016024148	-0.001602279	-3.7941988	11.733284	0	925.1150153417342
0.75857758	7.5857758e-12	0.43	3238.1132	17541.678	-0.014616467	-0.0016024148	-0.001602266	-3.4617003	10.700937	0	925.1848876128959
0.75857758	8.3176377e-12	0.43	2953.2611	15999.932	-0.014542105	-0.0016024149	-0.0016022516	-3.1584516	9.7594253	0	925.2547613892411
0.75857758	9.1201084e-12	0.43	2693.4729	14593.835	-0.014467744	-0.0016024149	-0.0016022359	-2.881879	8.9007563	0	925.3246347512381
0.75857758	1.e-11	0.43	2456.5432	13311.451	-0.014393382	-0.001602415	-0.0016022187	-2.6296351	8.1176408	0	925.3945096588202
0.75857758	1.0964782e-11	0.43	2240.4608	12141.895	-0.014319021	-0.001602415	-0.0016021998	-2.3995795	7.403431	0	925.4643843136591
0.75857758	1.2022644e-11	0.43	2043.3913	11075.239	-0.01424466	-0.0016024151	-0.0016021792	-2.1897597	6.7520639	0	925.5342596553204
0.75857758	1.3182567e-11	0.43	1863.6617	10102.429	-0.014170298	-0.0016024152	-0.0016021565	-1.9983953	6.1580101	0	925.6041367849743
0.75857758	1.4454398e-11	0.43	1699.7465	9215.2074	-0.014095937	-0.0016024153	-0.0016021317	-1.8238623	5.6162266	0	925.6740138234907
0.75857758	1.5848932e-11	0.43	1550.2539	8406.0438	-0.014021576	-0.0016024155	-0.0016021045	-1.6646797	5.1221141	0	925.7438918316384
0.75857758	1.7378008e-11	0.43	1413.9152	7668.0698	-0.013947215	-0.0016024156	-0.0016020746	-1.519497	4.6714782	0	925.8137709306216
0.75857758	1.9054607e-11	0.43	1289.5727	6995.0214	-0.013872854	-0.0016024159	-0.001602042	-1.3870822	4.2604934	0	925.8836511204398
0.75857758	2.0892961e-11	0.43	1176.1711	6381.1859	-0.013798494	-0.0016024162	-0.0016020062	-1.266312	3.8856708	0	925.9535316635349
0.75857758	2.2908677e-11	0.43	1072.7475	5821.3531	-0.013724133	-0.0016024166	-0.001601967	-1.1561617	3.5438285	0	926.0234145198399
0.75857758	2.5118864e-11	0.43	978.42413	5310.7714	-0.013649773	-0.0016024171	-0.0016019242	-1.0556969	3.2320646	0	926.0932978910266
0.75857758	2.7542287e-11	0.43	892.40017	4845.1073	-0.013575413	-0.0016024177	-0.0016018773	-0.96406529	2.9477326	0	926.163182918667
0.75857758	3.0199517e-11	0.43	813.94539	4420.4084	-0.013501054	-0.0016024186	-0.001601826	-0.88048977	2.6884187	0	926.2330687843995
0.75857758	3.3113112e-11	0.43	742.39379	4033.0704	-0.013426696	-0.0016024197	-0.0016017699	-0.80426144	2.4519216	0	926.3029556498298
0.75857758	3.6307805e-11	0.43	677.13795	3679.8058	-0.013352339	-0.0016024211	-0.0016017086	-0.73473384	2.2362337	0	926.3728436765628
0.75857758	3.9810717e-11	0.43	617.62391	3357.6164	-0.013277983	-0.0016024229	-0.0016016417	-0.67131736	2.0395239	0	926.4427330262039
0.75857758	4.3651583e-11	0.43	563.34647	3063.7682	-0.013203629	-0.0016024253	-0.0016015688	-0.61347431	1.8601225	0	926.5126229207929
0.75857758	4.7863009e-11	0.43	513.84486	2795.7673	-0.013129277	-0.0016024285	-0.0016014893	-0.56071426	1.6965064	0	926.5825136027374
0.75857758	5.2480746e-11	0.43	468.69885	2551.3394	-0.013054928	-0.0016024326	-0.0016014028	-0.51259	1.5472868	0	926.6524042940779
0.75857758	5.7543994e-11	0.43	427.5252	2328.4103	-0.012980583	-0.0016024381	-0.0016013089	-0.46869359	1.4111968	0	926.7222942168537
0.75857758	6.3095734e-11	0.43	389.97438	2125.0884	-0.012906243	-0.0016024452	-0.001601207	-0.42865305	1.2870812	0	926.7921826739077
0.75857758	6.9183097e-11	0.43	355.72763	1939.6484	-0.01283191	-0.0016024545	-0.0016010969	-0.3921291	1.1738863	0	926.8620678669117
0.75857758	7.5857758e-11	0.43	324.49421	1770.5169	-0.012757586	-0.0016024668	-0.0016009783	-0.35881231	1.0706512	0	926.9319480379387
0.75857758	8.3176377e-11	0.43	296.00899	1616.2587	-0.012683274	-0.001602483	-0.0016008508	-0.32842049	0.97649952	0	927.0018205298982
0.75857758	9.1201084e-11	0.43	270.03014	1475.5653	-0.012608978	-0.0016025042	-0.0016007145	-0.30069629	0.89063196	0	927.0716815441274
0.75857758	1.e-10	0.43	246.33715	1347.2429	-0.012534702	-0.0016025321	-0.0016005698	-0.27540497	0.81231952	0	927.1415271607597
0.75857758	1.0964782e-10	0.43	224.72885	1230.2029	-0.012460452	-0.0016025688	-0.0016004172	-0.25233248	0.74089734	0	927.2113515403963
0.75857758	1.2022644e-10	0.43	205.02182	1123.4524	-0.012386239	-0.0016026171	-0.0016002579	-0.23128357	0.67575902	0	927.2811438630029
0.75857758	1.3182567e-10	0.43	187.04876	1026.0858	-0.012312071	-0.0016026807	-0.0016000938	-0.21208021	0.61635148	0	927.3508958444313
0.75857758	1.4454398e-10	0.43	170.65708	937.27731	-0.012237965	-0.0016027642	-0.0015999278	-0.19456001	0.56217028	0	927.4205903404331
0.75857758	1.5848932e-10	0.43	155.70761	856.27341	-0.012163939	-0.0016028739	-0.0015997639	-0.17857487	0.51275524	0	927.4902088227793
0.75857758	1.7378008e-10	0.43	142.07344	782.38697	-0.012090018	-0.0016030181	-0.001599608	-0.16398973	0.46768663	0	927.5597254186591
0.75857758	1.9054607e-10	0.43	129.6388	714.99115	-0.012016234	-0.0016032072	-0.0015994681	-0.15068142	0.42658152	0	927.6291068298763
0.75857758	2.0892961e-10	0.43	118.2981	653.5141	-0.011942628	-0.001603455	-0.0015993552	-0.13853761	0.38909055	0	927.6983100901075
0.75857758	2.2908677e-10	0.43	107.95504	597.43404	-0.011869253	-0.0016037793	-0.0015992839	-0.12745586	0.35489491	0	927.7672795037978
0.75857758	2.5118864e-10	0.43	98.521757	546.27485	-0.011796177	-0.0016042026	-0.0015992735	-0.11734273	0.32370361	0	927.8359433830506
0.75857758	2.7542287e-10	0.43	89.918126	499.60202	-0.011723485	-0.0016047536	-0.0015993489	-0.10811304	0.29525101	0	927.9042118048851
0.75857758	3.0199517e-10	0.43	82.071036	457.01884	-0.011651283	-0.0016054683	-0.0015995422	-0.099689089	0.26929455	0	927.9719722065533
0.75857758	3.3113112e-10	0.43	74.913788	418.16312	-0.011579697	-0.001606391	-0.0015998933	-0.092000038	0.24561263	0	928.039090082699
0.75857758	3.6307805e-10	0.43	68.38553	382.7041	-0.01150888	-0.0016075758	-0.0016004511	-0.084981294	0.2240028	0	928.1054019235823
0.75857758	3.9810717e-10	0.43	62.430735	350.33964	-0.011439009	-0.0016090865	-0.0016012745	-0.078573957	0.20428002	0	928.1707176297652
0.75857758	4.3651583e-10	0.43	56.998743	320.79386	-0.011370278	-0.0016109971	-0.0016024314	-0.072724335	0.18627525	0	928.23482749308
0.75857758	4.7863009e-10	0.43	52.043338	293.81491	-0.011302895	-0.0016133902	-0.0016039981	-0.06738348	0.16983408	0	928.2975052577347
0.75857758	5.2480746e-10	0.43	47.522366	269.17305	-0.011237069	-0.0016163553	-0.0016060571	-0.06250677	0.15481568	0	928.3585212234898
0.75857758	5.7543994e-10	0.43	43.397393	246.659	-0.011172995	-0.0016199855	-0.0016086938	-0.05805353	0.14109173	0	928.4176576723837
0.75857758	6.3095734e-10	0.43	39.633398	226.08245	-0.011110835	-0.0016243736	-0.0016119926	-0.053986687	0.12854567	0	928.4747282961237
0.75857758	6.9183097e-10	0.43	36.198482	207.27059	-0.011050709	-0.0016296086	-0.0016160331	-0.050272442	0.11707177	0	928.5295881874252
0.75857758	7.5857758e-10	0.43	33.063603	190.06681	-0.01099268	-0.0016357728	-0.0016208876	-0.04687998	0.1065744	0	928.5821489435241
0.75857758	8.3176377e-10	0.43	30.202334	174.32929	-0.010936754	-0.0016429404	-0.0016266193	-0.043781207	0.096967163	0	928.6323793933999
0.75857758	9.1201084e-10	0.43	27.590626	159.92971	-0.010882879	-0.0016511773	-0.0016332817	-0.040950499	0.08817207	0	928.6803067797505
0.75857758	1.e-9	0.43	25.206593	146.75186	-0.010830955	-0.0016605423	-0.0016409204	-0.03836448	0.080118677	0	928.7260066361132
0.75857758	1.0964782e-9	0.43	23.03031	134.69042	-0.010780844	-0.0016710889	-0.0016495742	-0.036001825	0.072743278	0	928.7695929467977
0.75857758	1.2022644e-9	0.43	21.043633	123.64977	-0.010732381	-0.0016828678	-0.0016592777	-0.033843071	0.065988139	0	928.8112067612342
0.75857758	1.3182567e-9	0.43	19.230029	113.54298	-0.010685386	-0.001695929	-0.0016700635	-0.031870455	0.059800825	0	928.851004030358
0.75857758	1.4454398e-9	0.43	17.574424	104.29083	-0.01063967	-0.001710324	-0.0016819637	-0.03006776	0.054133605	0	928.8891493632
0.75857758	1.5848932e-9	0.43	16.063074	95.821068	-0.010595045	-0.001726107	-0.0016950113	-0.028420182	0.048942945	0	928.9258060656138
0.75857758	1.7378008e-9	0.43	14.683438	88.067692	-0.010551326	-0.0017433359	-0.0017092414	-0.026914205	0.044189073	0	928.961133776329
0.75857758	1.9054607e-9	0.43	13.424073	80.970346	-0.010508335	-0.0017620737	-0.0017246913	-0.025537487	0.039835602	0	928.9952846682894
0.75857758	2.0892961e-9	0.43	12.274533	74.473802	-0.0104659	-0.0017823884	-0.0017414012	-0.024278757	0.035849212	0	929.0284041054085
0.75857758	2.2908677e-9	0.43	11.225283	68.527502	-0.01042386	-0.0018043529	-0.0017594139	-0.023127723	0.032199377	0	929.0606260659472
0.75857758	2.5118864e-9	0.43	10.267619	63.085139	-0.010382063	-0.0018280458	-0.0017787744	-0.022074988	0.028858107	0	929.0920751832489
0.75857758	2.7542287e-9	0.43	9.3935935	58.104303	-0.010340364	-0.0018535502	-0.0017995296	-0.021111969	0.025799745	0	929.122868746075
0.75857758	3.0199517e-9	0.43	8.5959511	53.54614	-0.010298627	-0.0018809542	-0.0018217276	-0.020230829	0.023000758	0	929.1531151022832
0.75857758	3.3113112e-9	0.43	7.8680681	49.375061	-0.010256722	-0.0019103495	-0.0018454165	-0.019424408	0.020439571	0	929.1829169623384
0.75857758	3.6307805e-9	0.43	7.2038977	45.558465	-0.010214527	-0.0019418315	-0.0018706439	-0.018686171	0.018096401	0	929.2123697221901
0.75857758	3.9810717e-9	0.43	6.5979198	42.066491	-0.010171928	-0.0019754978	-0.0018974553	-0.018010145	0.015953109	0	929.241562109692
0.75857758	4.3651583e-9	0.43	6.0450962	38.871792	-0.010128814	-0.0020114475	-0.0019258929	-0.017390877	0.013993071	0	929.2705813672453
0.75857758	4.7863009e-9	0.43	5.5408283	35.949326	-0.010085083	-0.0020497797	-0.0019559939	-0.016823385	0.012201049	0	929.2995083012278
0.75857758	5.2480746e-9	0.43	5.0809191	33.276161	-0.010040636	-0.0020905927	-0.0019877888	-0.016303119	0.01056308	0	929.3284236062102
0.75857758	5.7543994e-9	0.43	4.6615392	30.831302	-0.0099953828	-0.0021339816	-0.0020212989	-0.01582592	0.0090663719	0	929.3574034255078
0.75857758	6.3095734e-9	0.43	4.2791942	28.595528	-0.009949239	-0.0021800369	-0.0020565348	-0.015387989	0.0076992034	0	929.3865227758973
0.75857758	6.9183097e-9	0.43	3.930696	26.55124	-0.0099021268	-0.0022288428	-0.002093494	-0.014985855	0.0064508389	0	929.4158557655953
0.75857758	7.5857758e-9	0.43	3.6131365	24.682328	-0.0098539763	-0.0022804747	-0.0021321577	-0.014616345	0.0053114453	0	929.4454756656669
0.75857758	8.3176377e-9	0.43	3.3238629	22.974044	-0.0098047257	-0.0023349978	-0.0021724896	-0.014276556	0.004272015	0	929.4754552069254
0.75857758	9.1201084e-9	0.43	3.060456	21.412885	-0.0097543222	-0.002392464	-0.0022144323	-0.013963839	0.0033242982	0	929.5058671887739
0.75857758	1.e-8	0.43	2.8207092	19.986484	-0.0097027223	-0.0024529111	-0.0022579065	-0.013675765	0.0024607374	0	929.5367845205436
0.75857758	1.0964782e-8	0.43	2.6026108	18.683518	-0.009649893	-0.0025163602	-0.002302808	-0.013410116	0.0016744096	0	929.5682803060563
0.75857758	1.2022644e-8	0.43	2.4043262	17.493615	-0.0095958117	-0.0025828145	-0.002349007	-0.013164862	0.00095897089	0	929.6004282203892
0.75857758	1.3182567e-8	0.43	2.2241825	16.40727	-0.0095404667	-0.0026522587	-0.0023963481	-0.012938143	0.00030860754	0	929.6333020400929
0.75857758	1.4454398e-8	0.43	2.0606541	15.415775	-0.0094838577	-0.0027246576	-0.0024446491	-0.012728256	-0.00028201037	0	929.6669756582237
0.75857758	1.5848932e-8	0.43	1.9123497	14.511143	-0.0094259947	-0.0027999571	-0.0024937036	-0.012533643	-0.00081777091	0	929.7015230674324
0.75857758	1.7378008e-8	0.43	1.7779994	13.686048	-0.0093668989	-0.0028780839	-0.0025432821	-0.012352874	-0.0013031592	0	929.7370170699396
0.75857758	1.9054607e-8	0.43	1.656444	12.933768	-0.0093066005	-0.002958948	-0.0025931363	-0.012184639	-0.0017422931	0	929.7735296073254
0.75857758	2.0892961e-8	0.43	1.546624	12.248126	-0.0092451391	-0.0030424425	-0.0026430022	-0.012027736	-0.0021389571	0	929.8111301322594
0.75857758	2.2908677e-8	0.43	1.44757	11.623447	-0.0091825617	-0.0031284477	-0.0026926069	-0.011881063	-0.0024966321	0	929.8498847403463
0.75857758	2.5118864e-8	0.43	1.3583933	11.054505	-0.0091189217	-0.0032168329	-0.0027416739	-0.011743609	-0.002818525	0	929.889854968418
0.75857758	2.7542287e-8	0.43	1.2782779	10.536487	-0.0090542778	-0.0033074583	-0.0027899301	-0.011614447	-0.0031075953	0	929.9310959999665
0.75857758	3.0199517e-8	0.43	1.2064717	10.064948	-0.0089886919	-0.003400179	-0.0028371127	-0.011492725	-0.0033665799	0	929.9736558505394
0.75857758	3.3113112e-8	0.43	1.1422803	9.6357766	-0.0089222295	-0.0034948461	-0.0028829753	-0.011377663	-0.0035980187	0	930.0175725274344
0.75857758	3.6307805e-8	0.43	1.0850586	9.2451443	-0.0088549604	-0.0035913053	-0.0029272903	-0.011268547	-0.0038042878	0	930.0628724023713
0.75857758	3.9810717e-8	0.43	1.0342014	8.8894092	-0.0087869701	-0.0036893831	-0.0029698373	-0.011164723	-0.0039876745	0	930.1095641870005
0.75857758	4.3651583e-8	0.43	0.98911699	8.5647651	-0.008718417	-0.0037888105	-0.0030103291	-0.011065597	-0.0041506566	0	930.1576150867327
0.75857758	4.7863009e-8	0.43	0.9491277	8.2657534	-0.0086497943	-0.0038888653	-0.0030480537	-0.010970635	-0.0042971073	0	930.206849365265
0.75857758	5.2480746e-8	0.43	0.91309108	7.9795138	-0.0085829724	-0.0039869413	-0.0030804419	-0.010879385	-0.0044369592	0	930.2565476500246
0.75857758	5.7543994e-8	0.43	0.87866768	7.6746772	-0.0085233393	-0.0040755774	-0.0031000939	-0.010791565	-0.004595255	0	930.3046371790465
0.75857758	6.3095734e-8	0.43	0.84343112	7.3185559	-0.008477201	-0.0041459751	-0.0030982915	-0.010707149	-0.0047983607	0	930.3487153202468
0.75857758	6.9183097e-8	0.43	0.80775942	6.9213237	-0.0084438042	-0.0041990536	-0.0030760487	-0.010626221	-0.0050381468	0	930.3890801789195
0.75857758	7.5857758e-8	0.43	0.7733404	6.5127396	-0.0084185637	-0.0042410991	-0.0030397542	-0.010548741	-0.0052905457	0	930.4274587316123
0.75857758	8.3176377e-8	0.43	0.74124782	6.1126033	-0.0083980993	-0.0042767875	-0.0029941891	-0.010474527	-0.0055393898	0	930.4650952700863
0.75857758	9.1201084e-8	0.43	0.71192071	5.7305452	-0.0083805056	-0.0043087712	-0.0029421081	-0.010403325	-0.0057766503	0	930.5026671072719
0.75857758	1.e-7	0.43	0.68545992	5.370655	-0.0083647106	-0.0043385525	-0.0028851084	-0.010334857	-0.0059987475	0	930.5405361674998
0.75857758	1.0964782e-7	0.43	0.66180498	5.0342404	-0.0083500771	-0.0043670308	-0.0028241731	-0.010268845	-0.0062043466	0	930.5789039565318
0.75857758	1.2022644e-7	0.43	0.64082155	4.7212014	-0.0083362035	-0.0043947768	-0.0027599431	-0.010205019	-0.0063932596	0	930.6178888718167
0.75857758	1.3182567e-7	0.43	0.62234477	4.4307203	-0.0083228248	-0.0044221693	-0.0026928527	-0.010143127	-0.0065658927	0	930.6575644352827
0.75857758	1.4454398e-7	0.43	0.60620128	4.1616237	-0.0083097588	-0.0044494697	-0.0026232026	-0.010082929	-0.006722956	0	930.6979803489967
0.75857758	1.5848932e-7	0.43	0.59222077	3.9125801	-0.0082968781	-0.0044768602	-0.0025511985	-0.010024207	-0.0068653043	0	930.7391732080902
0.75857758	1.7378008e-7	0.43	0.58024168	3.6822097	-0.0082840918	-0.0045044695	-0.002476977	-0.0099667558	-0.0069938474	0	930.7811732308637
0.75857758	1.9054607e-7	0.43	0.57011404	3.4691471	-0.0082713359	-0.0045323855	-0.0024006192	-0.009910387	-0.0071094991	0	930.8240077840371
0.75857758	2.0892961e-7	0.43	0.56170048	3.2720764	-0.0082585663	-0.0045606652	-0.0023221615	-0.0098549259	-0.0072131471	0	930.8677035963656
0.75857758	2.2908677e-7	0.43	0.55487639	3.0897495	-0.0082457543	-0.0045893413	-0.0022416031	-0.0098002107	-0.0073056373	0	930.9122879565853
0.75857758	2.5118864e-7	0.43	0.54952939	2.9209956	-0.0082328833	-0.0046184258	-0.0021589109	-0.0097460912	-0.0073877648	0	930.9577898343141
0.75857758	2.7542287e-7	0.43	0.54555872	2.764724	-0.0082199478	-0.0046479118	-0.0020740225	-0.0096924276	-0.0074602703	0	931.0042396075796
0.75857758	3.0199517e-7	0.43	0.54287432	2.6199241	-0.0082069503	-0.0046777786	-0.0019868514	-0.0096390895	-0.0075238394	0	931.0516698746012
0.75857758	3.3113112e-7	0.43	0.54139597	2.4856625	-0.0081939006	-0.0047079921	-0.0018972897	-0.0095859548	-0.0075791035	0	931.100115020652
0.75857758	3.6307805e-7	0.43	0.54105242	2.3610796	-0.0081808151	-0.004738506	-0.0018052087	-0.0095329088	-0.0076266422	0	931.1496116333467
0.75857758	3.9810717e-7	0.43	0.5417806	2.2453852	-0.0081677156	-0.0047692638	-0.0017104627	-0.0094798435	-0.0076669852	0	931.200198094869
0.75857758	4.3651583e-7	0.43	0.54352477	2.1378537	-0.0081546275	-0.0048002029	-0.0016128926	-0.0094266566	-0.0077006161	0	931.2519148187434
0.75857758	4.7863009e-7	0.43	0.54623591	2.0378201	-0.0081415813	-0.00483125	-0.0015123229	-0.009373251	-0.0077279747	0	931.3048040525259
0.75857758	5.2480746e-7	0.43	0.54987102	1.9446749	-0.0081286091	-0.0048623299	-0.0014085701	-0.009319534	-0.0077494604	0	931.3589097725727
0.75857758	5.7543994e-7	0.43	0.55439257	1.85786	-0.008115746	-0.0048933609	-0.0013014388	-0.0092654169	-0.0077654351	0	931.4142779442999
0.75857758	6.3095734e-7	0.43	0.55976799	1.7768647	-0.0081030287	-0.0049242594	-0.0011907266	-0.0092108144	-0.0077762258	0	931.4709558579107
0.75857758	6.9183097e-7	0.43	0.5659692	1.701222	-0.0080904949	-0.0049549391	-0.0010762234	-0.0091556444	-0.0077821275	0	931.5289929749438
0.75857758	7.5857758e-7	0.43	0.5729722	1.6305044	-0.0080781829	-0.0049853144	-0.00095771449	-0.009099827	-0.0077834054	0	931.5884400556988
0.75857758	8.3176377e-7	0.43	0.58075669	1.5643213	-0.0080661303	-0.0050153006	-0.00083498201	-0.0090432846	-0.0077802974	0	931.6493497908132
0.75857758	9.1201084e-7	0.43	0.5893058	1.5023154	-0.0080543751	-0.0050448131	-0.00070780305	-0.0089859415	-0.0077730161	0	931.7117765353635
0.75857758	1.e-6	0.43	0.59860572	1.4441601	-0.0080429544	-0.0050737704	-0.00057595343	-0.0089277235	-0.0077617509	0	931.775776003132
0.75857758	1.0964782e-6	0.43	0.60864548	1.3895569	-0.0080319033	-0.0051020951	-0.00043920821	-0.0088685575	-0.0077466699	0	931.8414060940822
0.75857758	1.2022644e-6	0.43	0.61941675	1.3382326	-0.0080212562	-0.0051297122	-0.00029734035	-0.0088083714	-0.0077279216	0	931.9087262143
0.75857758	1.3182567e-6	0.43	0.63091357	1.2899375	-0.0080110456	-0.0051565522	-0.00015012355	-0.0087470938	-0.007705636	0	931.9777972560764
0.75857758	1.4454398e-6	0.43	0.64313225	1.244443	-0.0080013023	-0.0051825486	2.670261e-6	-0.0086846539	-0.007679927	0	932.0486824244705
0.75857758	1.5848932e-6	0.43	0.65607112	1.20154	-0.0079920551	-0.0052076409	0.00016126785	-0.0086209808	-0.0076508925	0	932.1214462768387
0.75857758	1.7378008e-6	0.43	0.66973043	1.161037	-0.0079833301	-0.005231775	0.0003258949	-0.0085560041	-0.0076186167	0	932.1961554694142
0.75857758	1.9054607e-6	0.43	0.68411226	1.1227586	-0.0079751523	-0.0052548994	0.00049677912	-0.008489653	-0.0075831705	0	932.2728785104821
0.75857758	2.0892961e-6	0.43	0.69922033	1.0865438	-0.0079675436	-0.0052769705	0.00067414573	-0.0084218565	-0.0075446128	0	932.3516858153919
0.75857758	2.2908677e-6	0.43	0.71505998	1.0522452	-0.0079605248	-0.0052979475	0.00085822237	-0.0083525432	-0.0075029912	0	932.4326498107264
0.75857758	2.5118864e-6	0.43	0.73163802	1.0197275	-0.0079541137	-0.0053177969	0.001049235	-0.008281641	-0.0074583429	0	932.5158450630229
0.75857758	2.7542287e-6	0.43	0.74896269	0.98886613	-0.0079483269	-0.0053364885	0.0012474118	-0.0082090772	-0.0074106956	0	932.6013481632053
0.75857758	3.0199517e-6	0.43	0.76704359	0.95954696	-0.0079431786	-0.005353998	0.0014529807	-0.0081347782	-0.007360068	0	932.6892378561521
0.75857758	3.3113112e-6	0.43	0.78589162	0.93166477	-0.0079386816	-0.0053703044	0.0016661724	-0.0080586692	-0.0073064703	0	932.779595321249
0.75857758	3.6307805e-6	0.43	0.80551893	0.90512276	-0.0079348473	-0.0053853914	0.0018872192	-0.0079806745	-0.0072499048	0	932.872503699694
0.75857758	3.9810717e-6	0.43	0.82593889	0.87983171	-0.0079316853	-0.005399246	0.0021163562	-0.007900717	-0.0071903666	0	932.9680489551399
0.75857758	4.3651583e-6	0.43	0.84716599	0.85570936	-0.0079292035	-0.0054118604	0.0023538198	-0.0078187184	-0.0071278437	0	933.0663191737176
0.75857758	4.7863009e-6	0.43	0.86921593	0.83267976	-0.0079274099	-0.0054232269	0.0025998531	-0.0077345987	-0.0070623174	0	933.1674050544887
0.75857758	5.2480746e-6	0.43	0.89210548	0.81067272	-0.0079263106	-0.0054333428	0.0028547014	-0.0076482765	-0.0069937631	0	933.2713999705179
0.75857758	5.7543994e-6	0.43	0.91585253	0.78962334	-0.0079259117	-0.0054422059	0.0031186163	-0.0075596686	-0.0069221498	0	933.3783998401532
0.75857758	6.3095734e-6	0.43	0.940476	0.76947152	-0.0079262178	-0.0054498176	0.0033918534	-0.0074686901	-0.0068474413	0	933.4885036071423
0.75857758	6.9183097e-6	0.43	0.96599592	0.75016155	-0.0079272344	-0.0054561783	0.0036746768	-0.007375254	-0.0067695955	0	933.6018128037354
0.75857758	7.5857758e-6	0.43	0.99243333	0.73164171	-0.0079289655	-0.005461292	0.003967355	-0.0072792714	-0.0066885653	0	933.7184321491886
0.75857758	8.3176377e-6	0.43	1.0198104	0.71386397	-0.0079314173	-0.0054651588	0.0042701686	-0.0071806514	-0.0066042985	0	933.8384691842732
0.75857758	9.1201084e-6	0.43	1.0481502	0.69678359	-0.0079345939	-0.0054677841	0.0045834009	-0.0070793007	-0.006516738	0	933.9620345136822
0.75857758	0.00001	0.43	1.0774769	0.68035887	-0.0079385012	-0.0054691696	0.0049073482	-0.0069751237	-0.0064258219	0	934.0892423030617
0.75857758	0.000010964782	0.43	1.1078156	0.66455086	-0.0079431458	-0.0054693164	0.0052423158	-0.0068680225	-0.0063314836	0	934.2202096964801
0.75857758	0.000012022644	0.43	1.1391927	0.6493231	-0.0079485345	-0.0054682263	0.0055886177	-0.0067578966	-0.0062336522	0	934.3550571650067
0.75857758	0.000013182567	0.43	1.1716353	0.63464137	-0.0079546754	-0.005465898	0.0059465808	-0.0066446429	-0.006132252	0	934.4939091700446
0.75857758	0.000014454398	0.43	1.2051718	0.62047349	-0.0079615779	-0.0054623294	0.0063165421	-0.0065281555	-0.0060272034	0	934.6368930320939
0.75857758	0.000015848932	0.43	1.2398313	0.60678908	-0.0079692519	-0.0054575173	0.0066988503	-0.0064083258	-0.0059184221	0	934.7841403288267
0.75857758	0.000017378008	0.43	1.2756441	0.59355938	-0.0079777089	-0.0054514564	0.0070938665	-0.0062850423	-0.0058058198	0	934.9357861443714
0.75857758	0.000019054607	0.43	1.3126417	0.58075703	-0.0079869616	-0.0054441396	0.0075019643	-0.0061581903	-0.005689304	0	935.0919694855428
0.75857758	0.000020892961	0.43	1.3508563	0.56835595	-0.007997024	-0.0054355587	0.0079235298	-0.0060276521	-0.0055687781	0	935.2528331878837
0.75857758	0.000022908677	0.43	1.3903213	0.5563311	-0.0080079105	-0.0054257054	0.0083589605	-0.0058933068	-0.0054441414	0	935.4185243168608
0.75857758	0.000025118864	0.43	1.4310711	0.5446584	-0.0080196374	-0.0054145685	0.0088086688	-0.0057550302	-0.005315289	0	935.5891941725615
0.75857758	0.000027542287	0.43	1.4731413	0.53331454	-0.0080322214	-0.0054021385	0.0092730776	-0.0056126945	-0.005182112	0	935.7649979213845
0.75857758	0.000030199517	0.43	1.5165682	0.52227679	-0.0080456787	-0.0053884078	0.0097526204	-0.0054661686	-0.0050444976	0	935.9460954820506
0.75857758	0.000033113112	0.43	1.5613893	0.51152296	-0.0080600259	-0.0053733708	0.010247742	-0.0053153177	-0.004902329	0	936.1326509628016
0.75857758	0.000036307805	0.43	1.6076434	0.50103123	-0.0080752789	-0.005357025	0.010758898	-0.0051600031	-0.0047554851	0	936.324833492917
0.75857758	0.000039810717	0.43	1.6553701	0.49078008	-0.008091452	-0.0053393746	0.011286549	-0.0050000825	-0.0046038411	0	936.5228157250469
0.75857758	0.000043651583	0.43	1.7046101	0.4807482	-0.0081085572	-0.0053204308	0.011831166	-0.0048354095	-0.0044472675	0	936.7267766745772
0.75857758	0.000047863009	0.43	1.7554054	0.47091437	-0.0081266022	-0.0053002174	0.012393221	-0.0046658338	-0.0042856313	0	936.9368998010381
0.75857758	0.000052480746	0.43	1.8077992	0.46125756	-0.0081455906	-0.005278771	0.012973187	-0.0044912007	-0.0041187948	0	937.1533728201906
0.75857758	0.000057543994	0.43	1.8618359	0.45175686	-0.0081655187	-0.005256147	0.013571535	-0.0043113514	-0.0039466161	0	937.3763894985973
0.75857758	0.000063095734	0.43	1.9175613	0.44239171	-0.0081863753	-0.0052324212	0.014188733	-0.0041261226	-0.0037689485	0	937.6061494375208
0.75857758	0.000069183097	0.43	1.9750228	0.43314199	-0.0082081378	-0.0052076973	0.014825236	-0.0039353465	-0.0035856404	0	937.842857697099
0.75857758	0.000075857758	0.43	2.0342697	0.42398847	-0.0082307723	-0.0051821086	0.015481487	-0.0037388505	-0.0033965346	0	938.0867251064006
0.75857758	0.000083176377	0.43	2.0953532	0.41491321	-0.008254228	-0.0051558271	0.01615791	-0.003536457	-0.0032014683	0	938.3379706969002
0.75857758	0.000091201084	0.43	2.158327	0.4059003	-0.0082784364	-0.0051290674	0.016854902	-0.0033279836	-0.0030002716	0	938.5968192220248
0.75857758	0.0001	0.43	2.2232477	0.39693674	-0.008303308	-0.0051020927	0.017572831	-0.0031132419	-0.0027927668	0	938.8635034496948
0.75857758	0.00010964782	0.43	2.2901752	0.38801332	-0.0083287263	-0.0050752261	0.018312027	-0.0028920384	-0.0025787678	0	939.138266163596
0.75857758	0.00012022644	0.43	2.3591729	0.37912589	-0.0083545452	-0.0050488566	0.019072771	-0.0026641731	-0.002358078	0	939.4213581619076
0.75857758	0.00013182567	0.43	2.4303088	0.37027639	-0.0083805834	-0.0050234512	0.019855289	-0.0024294401	-0.0021304897	0	939.7130410947884
0.75857758	0.00014454398	0.43	2.5036556	0.36147389	-0.0084066182	-0.0049995649	0.020659739	-0.0021876259	-0.0018957825	0	940.0135880375115
0.75857758	0.00015848932	0.43	2.579291	0.35273531	-0.0084323797	-0.0049778569	0.021486199	-0.0019385102	-0.0016537221	0	940.3232840917866
0.75857758	0.00017378008	0.43	2.6572978	0.34408568	-0.0084575435	-0.0049591034	0.022334649	-0.0016818647	-0.00140406	0	940.6424259723515
0.75857758	0.00019054607	0.43	2.7377644	0.33555789	-0.0084817256	-0.004944211	0.023204967	-0.0014174525	-0.0011465329	0	940.9713251827022
0.75857758	0.00020892961	0.43	2.8207843	0.32719176	-0.0085044788	-0.0049342226	0.024096915	-0.001145028	-0.0008808629	0	941.3103057413454
0.75857758	0.00022908677	0.43	2.9064556	0.31903259	-0.0085252973	-0.0049303105	0.025010153	-0.00086433596	-0.00060675838	0	941.6597055159808
0.75857758	0.00025118864	0.43	2.9948807	0.31112885	-0.0085436284	-0.0049337465	0.025944265	-0.00057511175	-0.00032391542	0	942.0198757349277
0.75857758	0.00027542287	0.43	3.0861655	0.30352941	-0.0085589051	-0.0049458322	0.026898834	-0.00027708003	-0.000032019271	0	942.3911806582765
0.75857758	0.00030199517	0.43	3.1804179	0.2962799	-0.0085705902	-0.004967797	0.027873542	0.000030044432	0.00026925216	0	942.7739965443675
0.75857758	0.00033113112	0.43	3.2777468	0.28941865	-0.008578245	-0.0050006412	0.028868328	0.00034655827	0.00058022643	0	943.1687109357204
0.75857758	0.00036307805	0.43	3.3782597	0.28297232	-0.0085815944	-0.0050449939	0.029883531	0.00067276827	0.00090123184	0	943.5757192672038
0.75857758	0.00039810717	0.43	3.4820619	0.27695243	-0.008580579	-0.0051009936	0.030920013	0.0010089916	0.0012325949	0	943.9954256082926
0.75857758	0.00043651583	0.43	3.5892554	0.27135387	-0.0085753716	-0.005168254	0.031979188	0.0013555559	0.0015746391	0	944.4282388766184
0.75857758	0.00047863009	0.43	3.6999394	0.26615609	-0.0085663412	-0.0052459493	0.033062945	0.0017127984	0.001927685	0	944.8745755533137
0.75857758	0.00052480746	0.43	3.8142115	0.26132688	-0.0085539866	-0.005332965	0.034173492	0.002081066	0.0022920536	0	945.3348590441077
0.75857758	0.00057543994	0.43	3.9321703	0.25682753	-0.0085388571	-0.0054280801	0.035313181	0.0024607154	0.0026680705	0	945.8095234845662
0.75857758	0.00063095734	0.43	4.053917	0.25261775	-0.0085214813	-0.0055301268	0.036484341	0.0028521129	0.003056069	0	946.2990131669565
0.75857758	0.00069183097	0.43	4.1795567	0.24865959	-0.008502328	-0.0056380783	0.037689202	0.0032556348	0.0034563953	0	946.803788572256
0.75857758	0.00075857758	0.43	4.3092	0.24491966	-0.008481787	-0.0057510933	0.03892984	0.0036716682	0.0038694092	0	947.3243221890884
0.75857758	0.00083176377	0.43	4.4429625	0.24137021	-0.0084601702	-0.0058685102	0.040208194	0.004100611	0.0042954863	0	947.861104348423
0.75857758	0.00091201084	0.43	4.5809656	0.23798919	-0.0084377247	-0.0059898158	0.041526093	0.0045428732	0.0047350187	0	948.4146418236221
0.75857758	0.001	0.43	4.7233354	0.23476007	-0.008414652	-0.0061146062	0.042885298	0.0049988765	0.0051884149	0	948.9854567593381
0.75857758	0.0010964782	0.43	4.8702018	0.23167143	-0.0083911331	-0.0062425274	0.04428756	0.0054690553	0.0056561	0	949.5740865211819
0.75857758	0.0012022644	0.43	5.0216965	0.22871687	-0.0083673712	-0.0063731827	0.04573472	0.0059538567	0.006138516	0	950.1810839775915
0.75857758	0.0013182567	0.43	5.1779486	0.2258953	-0.0083436775	-0.006505946	0.047228891	0.0064537413	0.0066361226	0	950.807010415512
0.75857758	0.0014454398	0.43	5.3390722	0.22321144	-0.008320669	-0.0066395365	0.048772886	0.0069691806	0.007149395	0	951.4524226119739
0.75857758	0.0015848932	0.43	5.505139	0.22067444	-0.0082997773	-0.0067709079	0.050371334	0.0075006563	0.0076788224	0	952.1178456618645
0.75857758	0.0017378008	0.43	5.6761132	0.21828715	-0.0082843862	-0.0068927843	0.052033142	0.0080486528	0.0082248915	0	952.8036988086387
0.75857758	0.0019054607	0.43	5.8517522	0.21600974	-0.0082814525	-0.0069901734	0.053774982	0.0086136414	0.0087880414	0	953.5101813904807
0.75857758	0.0020892961	0.43	6.0316103	0.21370995	-0.0083005238	-0.0070426942	0.05561897	0.0091960581	0.0093686013	0	954.2372579669861
0.75857758	0.0022908677	0.43	6.2153326	0.21119208	-0.0083468609	-0.0070398625	0.057577377	0.0097962968	0.0099668071	0	954.9849433175175
0.75857758	0.0025118864	0.43	6.4029009	0.20827822	-0.0084173325	-0.0069899746	0.059643751	0.010414733	0.01058289	0	955.7535728105312
0.75857758	0.0027542287	0.43	6.5945838	0.20480498	-0.0085047679	-0.0069100424	0.061802981	0.011051754	0.011217108	0	956.5437787453203
0.75857758	0.0030199517	0.43	6.7909121	0.20063812	-0.0086022132	-0.0068158886	0.064041203	0.011707788	0.011869777	0	957.3564935277473
0.75857758	0.0033113112	0.43	6.9926661	0.19577285	-0.0087041992	-0.0067191786	0.066348774	0.012383326	0.012541387	0	958.1929599302962
0.75857758	0.0036307805	0.43	7.2006643	0.19038311	-0.0088070144	-0.0066272696	0.06872042	0.013078941	0.013232651	0	959.0545343846712
0.75857758	0.0039810717	0.43	7.4154242	0.18470566	-0.008908697	-0.0065441001	0.071154352	0.013795276	0.013944402	0	959.9423373507395
0.75857758	0.0043651583	0.43	7.6369887	0.17883745	-0.009008224	-0.0064726039	0.073649852	0.014532998	0.014677386	0	960.8570399224477
0.75857758	0.0047863009	0.43	7.8651504	0.17263892	-0.0091032197	-0.0064195777	0.076202408	0.015292763	0.015432147	0	961.7990513180885
0.75857758	0.0052480746	0.43	8.10013	0.1659005	-0.0091860517	-0.0064030686	0.078796329	0.016075223	0.016209167	0	962.7692033066796
0.75857758	0.0057543994	0.43	8.3434935	0.15882461	-0.0092403872	-0.0064579116	0.081399209	0.01688111	0.01700934	0	963.769749172634
0.75857758	0.0063095734	0.43	8.5980028	0.15238813	-0.0092481826	-0.0066195183	0.083978143	0.017711377	0.01783441	0	964.8043480062295
0.75857758	0.0069183097	0.43	8.8649909	0.14748665	-0.0092116	-0.0068793958	0.086544207	0.018567205	0.018686281	0	965.8754432223238
0.75857758	0.0075857758	0.43	9.1433081	0.1440098	-0.0091507353	-0.0071935728	0.089144036	0.019449777	0.019566046	0	966.9829945605418
0.75857758	0.0083176377	0.43	9.4164324	0.14219937	-0.009112849	-0.0074940894	0.091848336	0.02035982	0.020474627	0	968.1111638429436
0.75857758	0.0091201084	0.43	9.6130689	0.13825569	-0.0094736281	-0.0070981187	0.095342766	0.021292361	0.021403985	0	969.1839838003597
0.75857758	0.01	0.43	9.8742809	0.1351223	-0.0099118295	-0.0064070989	0.099228811	0.022247145	0.022356239	0	970.3422780377307
0.75857758	0.010964782	0.43	10.168827	0.13217182	-0.010150614	-0.006133292	0.10279722	0.023229284	0.023335996	0	971.5596083793557
0.75857758	0.012022644	0.43	10.491797	0.12998476	-0.010194924	-0.006273529	0.10605426	0.02424176	0.024346706	0	972.8338630675498
0.75857758	0.013182567	0.43	10.830798	0.1284992	-0.010185575	-0.0065291166	0.10930184	0.02528676	0.025390507	0	974.1547119289287
0.75857758	0.014454398	0.43	11.181896	0.12711771	-0.010171449	-0.0067963921	0.11264692	0.026365588	0.02646822	0	975.5194403712833
0.75857758	0.015848932	0.43	11.545289	0.12576595	-0.010155727	-0.0070681039	0.11610015	0.027479432	0.027580972	0	976.9293623767558
0.75857758	0.017378008	0.43	11.921477	0.12443739	-0.010138437	-0.0073436044	0.11966569	0.028629522	0.028729989	0	978.386132332014
0.75857758	0.019054607	0.43	12.310998	0.12312997	-0.010119445	-0.0076225152	0.12334755	0.029817137	0.029916549	0	979.8914962313481
0.75857758	0.020892961	0.43	12.714422	0.12184195	-0.010098598	-0.0079044123	0.12714988	0.031043613	0.031141985	0	981.4472744826236
0.75857758	0.022908677	0.43	13.132351	0.12057171	-0.010075725	-0.0081888137	0.13107701	0.032310342	0.032407688	0	983.0553771282407
0.75857758	0.025118864	0.43	13.565422	0.11931803	-0.010050646	-0.0084751537	0.13513348	0.033618775	0.033715109	0	984.7178075094387
0.75857758	0.027542287	0.43	14.014308	0.11808142	-0.010023206	-0.0087626909	0.13932412	0.034970432	0.035065767	0	986.4366626421221
0.75857758	0.030199517	0.43	14.47971	0.11686917	-0.0099934325	-0.0090501666	0.14365442	0.036366895	0.036461252	0	988.2141347201652
0.75857758	0.033113112	0.43	14.962321	0.1157128	-0.0099622314	-0.0093342634	0.14813204	0.037809819	0.037903242	0	990.0524673316681
0.75857758	0.036307805	0.43	15.462669	0.11471504	-0.0099342272	-0.0096034195	0.15277303	0.039300918	0.039393536	0	991.9537998669321
0.75857758	0.039810717	0.43	15.980744	0.11407801	-0.0099250477	-0.0098218892	0.15761777	0.040841938	0.040934041	0	993.9197630355787
0.75857758	0.043651583	0.43	16.516387	0.11377711	-0.0099594375	-0.0099332855	0.16272742	0.0424346	0.04252646	0	995.9518171100751
0.75857758	0.047863009	0.43	17.071465	0.11327137	-0.010037747	-0.0099329274	0.16811158	0.044080697	0.044172149	0	998.0535113924873
0.75857758	0.052480746	0.43	17.649049	0.11231851	-0.010133677	-0.0098746596	0.17372148	0.045782289	0.045872972	0	1000.2298519809567
0.75857758	0.057543994	0.43	18.251029	0.11111662	-0.010224963	-0.0098054397	0.17951539	0.047541685	0.047631397	0	1002.4848983615345
0.75857758	0.063095734	0.43	18.878481	0.1098234	-0.010300692	-0.0097476927	0.18547629	0.049361333	0.049450001	0	1004.8220277079151
0.75857758	0.069183097	0.43	18.514534	0.11298175	-0.011225096	-0.010203279	0.19110789	0.051245871	0.051337089	0	1006.2287299168895
0.75857758	0.075857758	0.43	17.230877	0.12012482	-0.012893812	-0.011646206	0.1959419	0.053022006	0.053118991	0	1006.6138655522468
0.75857758	0.083176377	0.43	16.060169	0.12663937	-0.0144157	-0.013710153	0.20035058	0.054641859	0.054744104	0	1006.9651167967784
0.75857758	0.091201084	0.43	15.288521	0.13047079	-0.015611952	-0.016054523	0.20468061	0.056128802	0.056234141	0	1007.5905487132682
0.75857758	0.1	0.43	16.595086	0.12076733	-0.015363292	-0.01665125	0.21096636	0.057689728	0.057787232	0	1010.3637063796668
0.75857758	0.10964782	0.43	18.141791	0.11164947	-0.014804919	-0.0172639	0.21745074	0.059390195	0.059480338	0	1013.5081087714627
0.75857758	0.12022644	0.43	19.971316	0.10309423	-0.01386303	-0.017905742	0.22412719	0.061255751	0.061338986	0	1017.0904483042423
0.75857758	0.13182567	0.43	22.138931	0.09508147	-0.012444781	-0.018592298	0.23098707	0.063316707	0.063393473	0	1021.1944673101723
0.75857758	0.14454398	0.43	24.717584	0.087593918	-0.010431676	-0.019340699	0.23802036	0.065609612	0.065680333	0	1025.9274523136996
0.75857758	0.15848932	0.43	27.804036	0.080617176	-0.007671354	-0.020168888	0.24521646	0.068179281	0.068244369	0	1031.4282738922504
0.75857758	0.17378008	0.43	31.525466	0.074139644	-0.0039683119	-0.021094674	0.25256513	0.07108145	0.071141309	0	1037.8764828902529
0.75857758	0.19054607	0.43	36.045329	0.06815225	0.00092510622	-0.022134568	0.26005765	0.074386063	0.074441087	0	1045.5012452346252
0.75857758	0.20892961	0.43	41.566342	0.062647864	0.0073149921	-0.023302315	0.26768832	0.078181003	0.078231583	0	1054.5878512435197
0.75857758	0.22908677	0.43	48.327476	0.057620249	0.015565668	-0.024607113	0.27545624	0.082575861	0.082622382	0	1065.478241876876
0.75857758	0.25118864	0.43	56.591318	0.053062418	0.026088414	-0.02605164	0.28336728	0.087704965	0.087747806	0	1078.5612132039064
0.75857758	0.27542287	0.43	66.619121	0.048964449	0.039315356	-0.02763033	0.29143583	0.093728571	0.093768103	0	1094.2485894956053
0.75857758	0.30199517	0.43	78.63444	0.045311083	0.055658589	-0.029328574	0.29968558	0.10083103	0.10086761	0	1112.937132005232
0.75857758	0.33113112	0.43	92.782229	0.04207977	0.075461299	-0.031123596	0.3081487	0.10921508	0.10924905	0	1134.9622835084342
0.75857758	0.36307805	0.43	109.09573	0.039239955	0.098954289	-0.032987272	0.31686297	0.11909239	0.11912407	0	1160.5561621216248
0.75857758	0.39810717	0.43	127.48371	0.036754086	0.12623241	-0.034890318	0.32586765	0.13067179	0.13070146	0	1189.8237481121423
0.75857758	0.43651583	0.43	147.74336	0.034580152	0.15725833	-0.036806548	0.33519921	0.14414749	0.14417541	0	1222.7446999841159
0.75857758	0.47863009	0.43	169.59356	0.032674938	0.19188986	-0.038715917	0.3448883	0.15968968	0.15971606	0	1259.1978048815251
0.75857758	0.52480746	0.43	192.71623	0.03099704	0.22991874	-0.04060573	0.35495854	0.1774388	0.17746382	0	1298.9969317140124
0.75857758	0.57543994	0.43	216.79385	0.029508984	0.27110875	-0.042470222	0.36542697	0.1975039	0.19752772	0	1341.9270207378331
0.75857758	0.63095734	0.43	241.5363	0.028178303	0.31522511	-0.044309184	0.37630543	0.21996407	0.21998682	0	1387.7722643152242
0.75857758	0.69183097	0.43	266.69585	0.026977753	0.36205324	-0.046126306	0.38760222	0.24487196	0.24489374	0	1436.334403822117
0.75857758	0.75857758	0.43	292.07249	0.025884968	0.41140826	-0.047927666	0.39932361	0.27225826	0.27227915	0	1487.442265578744
0.75857758	0.83176377	0.43	317.51291	0.024881848	0.46313804	-0.049720565	0.41147506	0.30213637	0.30215645	0	1540.9551194199375
0.75857758	0.91201084	0.43	342.90586	0.023953865	0.51712234	-0.051512717	0.424062	0.33450677	0.33452611	0	1596.76218579915
0.75857758	1.	0.43	368.17617	0.023089403	0.57326997	-0.053311745	0.43709036	0.36936085	0.3693795	0	1654.780181549801
0.75857758	1.0964782	0.43	393.27845	0.022279175	0.63151529	-0.055124894	0.45056686	0.40668416	0.40670214	0	1714.9501485703508
0.75857758	1.2022644	0.43	418.19136	0.021515745	0.69181457	-0.056958902	0.46449918	0.44645899	0.44647636	0	1777.2341024886573
0.75857758	1.3182567	0.43	442.91248	0.020793131	0.75414271	-0.058819954	0.47889601	0.48866652	0.48868331	0	1841.6119710882776
0.75857758	1.4454398	0.43	467.45416	0.020106501	0.81849037	-0.060713699	0.49376701	0.53328847	0.5333047	0	1908.0788815953943
0.75857758	1.5848932	0.43	491.83992	0.019451921	0.8848615	-0.062645293	0.50912283	0.58030831	0.58032401	0	1976.6428480326595
0.75857758	1.7378008	0.43	516.10176	0.01882617	0.9532714	-0.064619453	0.52497506	0.62971226	0.62972746	0	2047.3229282617635
0.75857758	1.9054607	0.43	540.27782	0.018226586	1.023745	-0.066640519	0.54133615	0.68149001	0.68150472	0	2120.147575609983
0.75857758	2.0892961	0.43	564.41071	0.017650956	1.0963155	-0.068712514	0.55821941	0.7356352	0.73564945	0	2195.153361061306
0.75857758	2.2908677	0.43	588.54609	0.017097419	1.1710236	-0.070839193	0.57563896	0.79214582	0.79215963	0	2272.384229590455
0.75857758	2.5118864	0.43	612.73161	0.016564399	1.247916	-0.073024095	0.59360967	0.85102444	0.85103782	0	2351.8900665740816
0.75857758	2.7542287	0.43	637.01614	0.016050545	1.3270453	-0.075270586	0.61214719	0.91227836	0.91229132	0	2433.726615954617
0.75857758	3.0199517	0.43	661.44914	0.015554695	1.4084693	-0.077581892	0.63126788	0.97591971	0.97593227	0	2517.9547942636173
0.75857758	3.3113112	0.43	686.08018	0.015075832	1.4922505	-0.079961139	0.65098881	1.0419655	1.0419776	0	2604.6402208390805
0.75857758	3.6307805	0.43	710.95865	0.014613064	1.5784554	-0.08241137	0.67132777	1.1104375	1.1104493	0	2693.8525641698416
0.75857758	3.9810717	0.43	736.13354	0.014165598	1.6671551	-0.08493558	0.69230325	1.1813624	1.1813738	0	2785.666097554512
0.75857758	4.3651583	0.43	761.65323	0.013732722	1.7584241	-0.087536728	0.71393445	1.2547717	1.2547828	0	2880.158575663197
0.75857758	4.7863009	0.43	787.56546	0.013313797	1.8523409	-0.090217762	0.73624126	1.3307014	1.3307122	0	2977.4117901964414
0.75857758	5.2480746	0.43	813.91724	0.012908237	1.9489874	-0.092981629	0.75924428	1.4091924	1.4092029	0	3077.51101422628
0.75857758	5.7543994	0.43	840.75488	0.012515507	2.0484491	-0.095831292	0.78296484	1.4902901	1.4903002	0	3180.5451981895717
0.75857758	6.3095734	0.43	868.12397	0.012135113	2.1508149	-0.098769742	0.807425	1.5740443	1.5740541	0	3286.6067819749273
0.75857758	6.9183097	0.43	896.06943	0.011766594	2.2561772	-0.10180001	0.83264755	1.6605093	1.6605188	0	3395.791788879249
0.75857758	7.5857758	0.43	924.6356	0.011409522	2.3646316	-0.10492516	0.85865606	1.7497438	1.749753	0	3508.199563938774
0.75857758	8.3176377	0.43	953.86625	0.011063493	2.4762773	-0.10814834	0.88547484	1.8418108	1.8418197	0	3623.9331335946968
0.75857758	9.1201084	0.43	983.8047	0.010728127	2.5912169	-0.11147273	0.91312903	1.9367775	1.9367861	0	3743.099054141272
0.75857758	10.	0.43	1014.4939	0.010403064	2.7095564	-0.11490161	0.94164456	2.0347155	2.0347239	0	3865.807395565298