0.75857758	1.e-12	0.02	24558.605	132932.18	-0.015814894	-0.0045169982	-0.0045169973	-26.154167	81.171389	0	924.6213433006945
0.75857758	1.0964782e-12	0.02	22397.78	121237.45	-0.015740532	-0.0045169982	-0.0045169972	-23.854279	74.029289	0	924.6912112611303
0.75857758	1.2022644e-12	0.02	20427.085	110571.72	-0.015666171	-0.0045169983	-0.0045169972	-21.756751	67.515619	0	924.7610782801218
0.75857758	1.3182567e-12	0.02	18629.79	100844.45	-0.015591809	-0.0045169983	-0.0045169971	-19.843776	61.575081	0	924.8309462405576
0.75857758	1.4454398e-12	0.02	16990.637	91973.063	-0.015517447	-0.0045169983	-0.004516997	-18.099115	56.157245	0	924.9008142009934
0.75857758	1.5848932e-12	0.02	15495.712	83882.256	-0.015443086	-0.0045169983	-0.0045169969	-16.507959	51.21612	0	924.970681221864
0.75857758	1.7378008e-12	0.02	14132.324	76503.344	-0.015368724	-0.0045169984	-0.0045169968	-15.056801	46.709761	0	925.0405491822997
0.75857758	1.9054607e-12	0.02	12888.899	69773.689	-0.015294363	-0.0045169984	-0.0045169967	-13.733323	42.599913	0	925.1104162031703
0.75857758	2.0892961e-12	0.02	11754.883	63636.163	-0.015220001	-0.0045169984	-0.0045169965	-12.52629	38.851687	0	925.1802841654851
0.75857758	2.2908677e-12	0.02	10720.647	58038.663	-0.015145639	-0.0045169985	-0.0045169964	-11.425456	35.433263	0	925.2501521259211
0.75857758	2.5118864e-12	0.02	9777.4132	52933.676	-0.015071278	-0.0045169985	-0.0045169962	-10.421477	32.315625	0	925.3200191486707
0.75857758	2.7542287e-12	0.02	8917.1735	48277.864	-0.014996916	-0.0045169986	-0.0045169961	-9.5058306	29.472304	0	925.3898871091066
0.75857758	3.0199517e-12	0.02	8132.6256	44031.704	-0.014922555	-0.0045169986	-0.0045169959	-8.6707446	26.879165	0	925.4597541318561
0.75857758	3.3113112e-12	0.02	7417.1095	40159.153	-0.014848193	-0.0045169987	-0.0045169957	-7.9091308	24.514194	0	925.529622094171
0.75857758	3.6307805e-12	0.02	6764.551	36627.336	-0.014773831	-0.0045169987	-0.0045169954	-7.2145242	22.357315	0	925.5994900583652
0.75857758	3.9810717e-12	0.02	6169.4105	33406.272	-0.01469947	-0.0045169988	-0.0045169952	-6.5810287	20.390218	0	925.6693570811146
0.75857758	4.3651583e-12	0.02	5626.6361	30468.619	-0.014625108	-0.0045169989	-0.0045169949	-6.0032676	18.596204	0	925.7392250453088
0.75857758	4.7863009e-12	0.02	5131.6199	27789.44	-0.014550747	-0.004516999	-0.0045169946	-5.4763366	16.960044	0	925.8090920699375
0.75857758	5.2480746e-12	0.02	4680.1596	25345.991	-0.014476385	-0.0045169991	-0.0045169943	-4.9957632	15.467848	0	925.8789600341315
0.75857758	5.7543994e-12	0.02	4268.4231	23117.531	-0.014402024	-0.0045169992	-0.0045169939	-4.5574687	14.106949	0	925.9488270606395
0.75857758	6.3095734e-12	0.02	3892.9149	21085.143	-0.014327662	-0.0045169993	-0.0045169935	-4.1577327	12.865795	0	926.0186950267127
0.75857758	6.9183097e-12	0.02	3550.4473	19231.575	-0.0142533	-0.0045169994	-0.0045169931	-3.7931625	11.733849	0	926.0885629927859
0.75857758	7.5857758e-12	0.02	3238.1132	17541.093	-0.014178939	-0.0045169996	-0.0045169926	-3.4606641	10.701502	0	926.158430021173
0.75857758	8.3176377e-12	0.02	2953.2611	15999.347	-0.014104577	-0.0045169997	-0.0045169921	-3.1574154	9.7599896	0	926.2282979891253
0.75857758	9.1201084e-12	0.02	2693.4728	14593.25	-0.014030216	-0.0045169999	-0.0045169916	-2.8808427	8.9013205	0	926.2981650175124
0.75857758	1.e-11	0.02	2456.5432	13310.866	-0.013955854	-0.0045170001	-0.004516991	-2.628599	8.1182051	0	926.3680329873439
0.75857758	1.0964782e-11	0.02	2240.4607	12141.31	-0.013881492	-0.0045170003	-0.0045169903	-2.3985433	7.4039952	0	926.4379009590544
0.75857758	1.2022644e-11	0.02	2043.3912	11074.654	-0.013807131	-0.0045170005	-0.0045169896	-2.1887236	6.7526282	0	926.5077679911997
0.75857758	1.3182567e-11	0.02	1863.6617	10101.844	-0.013732769	-0.0045170008	-0.0045169888	-1.9973591	6.1585743	0	926.5776359647895
0.75857758	1.4454398e-11	0.02	1699.7464	9214.6229	-0.013658408	-0.0045170011	-0.0045169879	-1.8228261	5.6167908	0	926.6475030006931
0.75857758	1.5848932e-11	0.02	1550.2539	8405.4593	-0.013584046	-0.0045170014	-0.004516987	-1.6636436	5.1226784	0	926.7173709761618
0.75857758	1.7378008e-11	0.02	1413.9151	7667.4852	-0.013509684	-0.0045170018	-0.004516986	-1.5184609	4.6720424	0	926.7872389535098
0.75857758	1.9054607e-11	0.02	1289.5727	6994.4368	-0.013435323	-0.0045170023	-0.0045169849	-1.3860461	4.2610576	0	926.8571059931716
0.75857758	2.0892961e-11	0.02	1176.171	6380.6012	-0.013360961	-0.0045170028	-0.0045169837	-1.2652759	3.8862349	0	926.926973974278
0.75857758	2.2908677e-11	0.02	1072.7474	5820.7684	-0.0132866	-0.0045170034	-0.0045169825	-1.1551256	3.5443926	0	926.9968410158187
0.75857758	2.5118864e-11	0.02	978.42403	5310.1868	-0.013212238	-0.0045170041	-0.0045169811	-1.0546607	3.2326287	0	927.0667090006833
0.75857758	2.7542287e-11	0.02	892.40006	4844.5226	-0.013137877	-0.0045170049	-0.0045169797	-0.96302917	2.9482967	0	927.1365760459825
0.75857758	3.0199517e-11	0.02	813.94528	4419.8238	-0.013063515	-0.0045170058	-0.0045169782	-0.87945367	2.6889828	0	927.2064440327262
0.75857758	3.3113112e-11	0.02	742.39366	4032.4857	-0.012989153	-0.0045170069	-0.0045169767	-0.80322534	2.4524857	0	927.2763120194699
0.75857758	3.6307805e-11	0.02	677.13782	3679.2212	-0.012914792	-0.0045170083	-0.0045169752	-0.73369776	2.2367978	0	927.3461790666482
0.75857758	3.9810717e-11	0.02	617.62377	3357.0319	-0.01284043	-0.00451701	-0.0045169736	-0.67028129	2.040088	0	927.416047055271
0.75857758	4.3651583e-11	0.02	563.34632	3063.1837	-0.012766069	-0.004517012	-0.0045169722	-0.61243825	1.8606867	0	927.4859141005701
0.75857758	4.7863009e-11	0.02	513.8447	2795.1829	-0.012691707	-0.0045170145	-0.0045169708	-0.55967823	1.6970707	0	927.5557820854347
0.75857758	5.2480746e-11	0.02	468.69868	2550.7551	-0.012617346	-0.0045170176	-0.0045169697	-0.51155397	1.5478511	0	927.6256491250965
0.75857758	5.7543994e-11	0.02	427.52503	2327.8262	-0.012542984	-0.0045170215	-0.004516969	-0.46765758	1.4117612	0	927.6955170968071
0.75857758	6.3095734e-11	0.02	389.97421	2124.5046	-0.012468623	-0.0045170264	-0.0045169689	-0.42761706	1.2876458	0	927.7653841176776
0.75857758	6.9183097e-11	0.02	355.72745	1939.0649	-0.012394261	-0.0045170327	-0.0045169695	-0.39109312	1.1744511	0	927.8352520649595
0.75857758	7.5857758e-11	0.02	324.49403	1769.9338	-0.0123199	-0.0045170406	-0.0045169714	-0.35777635	1.0712164	0	927.9051190482473
0.75857758	8.3176377e-11	0.02	296.00882	1615.6763	-0.012245538	-0.0045170508	-0.0045169749	-0.32738456	0.97706521	0	927.9749869410346
0.75857758	9.1201084e-11	0.02	270.03	1474.9837	-0.012171177	-0.0045170639	-0.0045169807	-0.29966037	0.89119831	0	928.0448538510362
0.75857758	1.e-10	0.02	246.33703	1346.6624	-0.012096816	-0.0045170808	-0.0045169896	-0.27436906	0.81288675	0	928.1147207027849
0.75857758	1.0964782e-10	0.02	224.72879	1229.6239	-0.012022455	-0.0045171027	-0.0045170026	-0.25129658	0.74146577	0	928.1845874774893
0.75857758	1.2022644e-10	0.02	205.02184	1122.8754	-0.011948094	-0.0045171312	-0.0045170214	-0.23024768	0.67632905	0	928.2544541432042
0.75857758	1.3182567e-10	0.02	187.04889	1025.5115	-0.011873733	-0.0045171682	-0.0045170478	-0.21104431	0.61692365	0	928.3243206661049
0.75857758	1.4454398e-10	0.02	170.65736	936.70641	-0.011799372	-0.0045172164	-0.0045170845	-0.19352408	0.56274527	0	928.3941869954554
0.75857758	1.5848932e-10	0.02	155.7081	855.70713	-0.011725012	-0.0045172795	-0.0045171348	-0.1775389	0.513334	0	928.4640521296785
0.75857758	1.7378008e-10	0.02	142.07422	781.82679	-0.011650652	-0.004517362	-0.0045172034	-0.16295371	0.46827037	0	928.5339169200209
0.75857758	1.9054607e-10	0.02	129.63997	714.439	-0.011576293	-0.00451747	-0.0045172961	-0.1496453	0.42717184	0	928.6037803179274
0.75857758	2.0892961e-10	0.02	118.2998	652.97248	-0.011501934	-0.0045176116	-0.0045174209	-0.13750136	0.38968952	0	928.6736431126329
0.75857758	2.2908677e-10	0.02	107.95744	596.90621	-0.011427576	-0.0045177974	-0.0045175883	-0.1264194	0.35550521	0	928.7435041672635
0.75857758	2.5118864e-10	0.02	98.525096	545.76503	-0.01135322	-0.0045180411	-0.0045178118	-0.116306	0.32432873	0	928.8133622885708
0.75857758	2.7542287e-10	0.02	89.92269	499.11556	-0.011278865	-0.0045183611	-0.0045181098	-0.10707592	0.29589539	0	928.8832180703607
0.75857758	3.0199517e-10	0.02	82.0772	456.56257	-0.011204512	-0.0045187814	-0.0045185057	-0.098651446	0.26996382	0	928.9530701333508
0.75857758	3.3113112e-10	0.02	74.922023	417.7456	-0.011130162	-0.0045193332	-0.0045190309	-0.090961694	0.24631388	0	929.0229169479288
0.75857758	3.6307805e-10	0.02	68.396418	382.33587	-0.011055815	-0.0045200576	-0.0045197262	-0.083942017	0.22474478	0	929.0927577474097
0.75857758	3.9810717e-10	0.02	62.444987	350.03357	-0.010981473	-0.0045210081	-0.0045206447	-0.077533455	0.20507341	0	929.1625896548438
0.75857758	4.3651583e-10	0.02	57.017207	320.56523	-0.010907137	-0.0045222544	-0.0045218559	-0.071682238	0.18713275	0	929.2324104246702
0.75857758	4.7863009e-10	0.02	52.066998	293.68142	-0.010832809	-0.0045238867	-0.0045234498	-0.066339326	0.17077046	0	929.3022164865408
0.75857758	5.2480746e-10	0.02	47.552336	269.15467	-0.010758492	-0.0045260213	-0.0045255423	-0.061459997	0.15584761	0	929.3720028438469
0.75857758	5.7543994e-10	0.02	43.434891	246.77747	-0.010684187	-0.0045288071	-0.0045282819	-0.05700346	0.14223745	0	929.4417657665141
0.75857758	6.3095734e-10	0.02	39.679707	226.36058	-0.0106099	-0.0045324329	-0.0045318571	-0.05293252	0.12982439	0	929.5114960749888
0.75857758	6.9183097e-10	0.02	36.2549	207.73137	-0.010535634	-0.0045371355	-0.0045365041	-0.04921325	0.11850298	0	929.5811865120681
0.75857758	7.5857758e-10	0.02	33.13139	190.73234	-0.010461395	-0.0045432072	-0.0045425149	-0.045814711	0.108177	0	929.6508259532986
0.75857758	8.3176377e-10	0.02	30.282654	175.21985	-0.01038719	-0.0045510025	-0.0045502434	-0.042708687	0.09875869	0	929.7204011714794
0.75857758	9.1201084e-10	0.02	27.684501	161.06284	-0.010313025	-0.0045609406	-0.0045601082	-0.039869449	0.090167979	0	929.7898986631768
0.75857758	1.e-9	0.02	25.314866	148.14178	-0.010238909	-0.0045735026	-0.0045725899	-0.037273528	0.082331811	0	929.8593009412008
0.75857758	1.0964782e-9	0.02	23.153627	136.34762	-0.010164849	-0.0045892206	-0.0045882198	-0.034899526	0.075183554	0	929.9285914447725
0.75857758	1.2022644e-9	0.02	21.182429	125.58092	-0.010090852	-0.0046086559	-0.0046075586	-0.032727928	0.068662435	0	929.9977530606486
0.75857758	1.3182567e-9	0.02	19.384538	115.75103	-0.010016924	-0.004632368	-0.0046311648	-0.030740936	0.062713057	0	930.0667696564922
0.75857758	1.4454398e-9	0.02	17.744692	106.77532	-0.0099430665	-0.0046608754	-0.0046595561	-0.028922323	0.057284943	0	930.1356300946953
0.75857758	1.5848932e-9	0.02	16.248979	98.578519	-0.0098692785	-0.0046946158	-0.0046931693	-0.027257286	0.052332126	0	930.2043271067807
0.75857758	1.7378008e-9	0.02	14.884715	91.092105	-0.009795555	-0.0047339113	-0.0047323252	-0.02573233	0.047812771	0	930.2728593623237
0.75857758	1.9054607e-9	0.02	13.640338	84.253672	-0.0097218869	-0.0047789459	-0.0047772068	-0.024335142	0.043688807	0	930.3412319725597
0.75857758	2.0892961e-9	0.02	12.505311	78.00641	-0.0096482621	-0.0048297602	-0.0048278532	-0.023054496	0.039925597	0	930.4094555714895
0.75857758	2.2908677e-9	0.02	11.470027	72.298586	-0.0095746664	-0.0048862595	-0.0048841686	-0.021880151	0.036491613	0	930.4775453011482
0.75857758	2.5118864e-9	0.02	10.525725	67.083065	-0.0095010848	-0.0049482361	-0.0049459435	-0.020802764	0.03335814	0	930.5455191917952
0.75857758	2.7542287e-9	0.02	9.6644203	62.316878	-0.0094275027	-0.0050153955	-0.0050128817	-0.019813815	0.03049901	0	930.6133965270691
0.75857758	3.0199517e-9	0.02	8.8788267	57.960833	-0.0093539071	-0.0050873853	-0.005084629	-0.01890553	0.027890351	0	930.6811961772008
0.75857758	3.3113112e-9	0.02	8.1622998	53.97916	-0.0092802867	-0.0051638206	-0.0051607983	-0.018070817	0.025510377	0	930.7489360333936
0.75857758	3.6307805e-9	0.02	7.5087775	50.339199	-0.0092066326	-0.0052443052	-0.0052409914	-0.017303209	0.023339188	0	930.8166319404777
0.75857758	3.9810717e-9	0.02	6.9127289	47.011124	-0.0091329385	-0.0053284477	-0.0053248142	-0.016596804	0.021358603	0	930.8842972233689
0.75857758	4.3651583e-9	0.02	6.3691078	43.96769	-0.0090592	-0.0054158722	-0.0054118882	-0.015946219	0.019552008	0	930.9519431286641
0.75857758	4.7863009e-9	0.02	5.8733094	41.184007	-0.0089854148	-0.0055062257	-0.0055018572	-0.015346544	0.017904218	0	931.0195785108275
0.75857758	5.2480746e-9	0.02	5.4211325	38.63734	-0.0089115822	-0.0055991817	-0.0055943918	-0.0147933	0.016401358	0	931.0872102174112
0.75857758	5.7543994e-9	0.02	5.0087437	36.306924	-0.0088377027	-0.0056944422	-0.0056891902	-0.014282402	0.015030746	0	931.1548434498491
0.75857758	6.3095734e-9	0.02	4.6326456	34.173794	-0.0087637779	-0.0057917377	-0.0057859789	-0.013810124	0.013780798	0	931.2224818442587
0.75857758	6.9183097e-9	0.02	4.2896475	32.220634	-0.0086898099	-0.005890826	-0.0058845116	-0.013373066	0.012640932	0	931.2901280558523
0.75857758	7.5857758e-9	0.02	3.9768386	30.431637	-0.0086158014	-0.0059914909	-0.0059845674	-0.012968129	0.011601484	0	931.3577836988029
0.75857758	8.3176377e-9	0.02	3.6915634	28.792371	-0.0085417553	-0.0060935403	-0.0060859488	-0.012592486	0.010653632	0	931.4254497596539
0.75857758	9.1201084e-9	0.02	3.4313997	27.289666	-0.0084676746	-0.006196804	-0.0061884802	-0.012243558	0.0097893202	0	931.4931267194631
0.75857758	1.e-8	0.02	3.1941381	25.911508	-0.0083935624	-0.0063011318	-0.0062920049	-0.011918994	0.0090011997	0	931.5608146101757
0.75857758	1.0964782e-8	0.02	2.9777633	24.64693	-0.0083194216	-0.0064063911	-0.0063963837	-0.011616648	0.0082825622	0	931.628513322802
0.75857758	1.2022644e-8	0.02	2.7804372	23.48593	-0.0082452549	-0.0065124656	-0.0065014927	-0.011334565	0.0076272877	0	931.6962226487582
0.75857758	1.3182567e-8	0.02	2.6004833	22.419384	-0.0081710652	-0.0066192529	-0.0066072214	-0.011070961	0.0070297938	0	931.7639419397448
0.75857758	1.4454398e-8	0.02	2.4363726	21.438969	-0.0080968547	-0.0067266634	-0.0067134712	-0.010824209	0.0064849879	0	931.8316709815405
0.75857758	1.5848932e-8	0.02	2.2867107	20.537096	-0.0080226257	-0.0068346186	-0.0068201537	-0.010592825	0.0059882255	0	931.8994092742967
0.75857758	1.7378008e-8	0.02	2.1502257	19.706842	-0.0079483804	-0.0069430498	-0.0069271894	-0.010375457	0.0055352709	0	931.9671562448783
0.75857758	1.9054607e-8	0.02	2.025758	18.941893	-0.0078741205	-0.0070518967	-0.0070345063	-0.010170869	0.0051222614	0	932.0349116489986
0.75857758	2.0892961e-8	0.02	1.9122498	18.236495	-0.0077998478	-0.007161107	-0.007142039	-0.0099779379	0.0047456746	0	932.1026750243913
0.75857758	2.2908677e-8	0.02	1.8087364	17.585397	-0.0077255637	-0.0072706347	-0.0072497273	-0.009795636	0.0044022989	0	932.1704461869015
0.75857758	2.5118864e-8	0.02	1.7143384	16.983813	-0.0076512695	-0.0073804398	-0.0073575157	-0.0096230277	0.0040892058	0	932.2382249580121
0.75857758	2.7542287e-8	0.02	1.6282534	16.427378	-0.0075769664	-0.0074904874	-0.0074653521	-0.0094592593	0.0038037253	0	932.3060111892714
0.75857758	3.0199517e-8	0.02	1.54975	15.912114	-0.0075026555	-0.0076007471	-0.0075731873	-0.0093035522	0.0035434229	0	932.3738047716903
0.75857758	3.3113112e-8	0.02	1.4781612	15.434391	-0.0074283378	-0.0077111923	-0.0076809743	-0.0091551966	0.0033060791	0	932.4416056488943
0.75857758	3.6307805e-8	0.02	1.4128786	14.990901	-0.0073540139	-0.0078217998	-0.0077886676	-0.0090135448	0.0030896703	0	932.5094141121491
0.75857758	3.9810717e-8	0.02	1.3533474	14.578628	-0.0072796846	-0.0079325496	-0.0078962222	-0.0088780063	0.0028923518	0	932.577230255411
0.75857758	4.3651583e-8	0.02	1.299062	14.194822	-0.0072053505	-0.0080434241	-0.0080035936	-0.0087480425	0.0027124416	0	932.6450543511538
0.75857758	4.7863009e-8	0.02	1.2495609	13.836974	-0.0071310122	-0.0081544081	-0.0081107371	-0.008623162	0.0025484064	0	932.7128866756103
0.75857758	5.2480746e-8	0.02	1.2044238	13.502799	-0.0070566701	-0.0082654884	-0.0082176071	-0.0085029168	0.0023988482	0	932.7807277098375
0.75857758	5.7543994e-8	0.02	1.163267	13.190212	-0.0069823246	-0.0083766533	-0.0083241566	-0.0083868983	0.002262493	0	932.8485779612006
0.75857758	6.3095734e-8	0.02	1.1257409	12.897312	-0.0069079761	-0.008487893	-0.0084303368	-0.0082747335	0.0021381788	0	932.9164379708897
0.75857758	6.9183097e-8	0.02	1.0915267	12.622366	-0.0068336248	-0.0085991987	-0.0085360966	-0.0081660826	0.0020248468	0	932.984308511227
0.75857758	7.5857758e-8	0.02	1.0603338	12.363795	-0.006759271	-0.0087105633	-0.0086413824	-0.0080606352	0.0019215316	0	933.0521903075575
0.75857758	8.3176377e-8	0.02	1.031897	12.120158	-0.006684915	-0.0088219815	-0.0087461382	-0.0079581084	0.0018273528	0	933.120084130324
0.75857758	9.1201084e-8	0.02	1.0059747	11.890138	-0.006610557	-0.0089334541	-0.0088503096	-0.0078582441	0.0017415057	0	933.1879908138613
0.75857758	1.e-7	0.02	0.98234536	11.67252	-0.0065361978	-0.0090450102	-0.0089538651	-0.0077608068	0.0016632448	0	933.255910198443
0.75857758	1.0964782e-7	0.02	0.96080211	11.46612	-0.0064618409	-0.009156824	-0.009056913	-0.0076655819	0.0015918276	0	933.3238369604918
0.75857758	1.2022644e-7	0.02	0.94113043	11.269462	-0.0063875037	-0.0092697982	-0.0091602843	-0.0075723752	0.0015262584	0	933.3917391359946
0.75857758	1.3182567e-7	0.02	0.9230319	11.079646	-0.0063132593	-0.0093877404	-0.0092677086	-0.0074810166	0.0014643653	0	933.4594779586656
0.75857758	1.4454398e-7	0.02	0.90608079	10.891729	-0.0062392615	-0.0095190261	-0.0093874768	-0.0073913726	0.001402291	0	933.5267531265068
0.75857758	1.5848932e-7	0.02	0.8900816	10.704195	-0.0061655477	-0.0096673006	-0.0095231423	-0.007303344	0.0013389098	0	933.5934627267438
0.75857758	1.7378008e-7	0.02	0.87515693	10.520224	-0.0060919859	-0.0098278362	-0.0096698784	-0.0072168322	0.0012768891	0	933.6598214820044
0.75857758	1.9054607e-7	0.02	0.86139937	10.342378	-0.0060184629	-0.0099959238	-0.009822869	-0.0071317265	0.0012184071	0	933.7260262518997
0.75857758	2.0892961e-7	0.02	0.84880488	10.171612	-0.0059449227	-0.010168957	-0.0099793928	-0.0070479122	0.0011643501	0	933.7921807888731
0.75857758	2.2908677e-7	0.02	0.83731977	10.00802	-0.0058713407	-0.010345561	-0.010137953	-0.0069652775	0.0011149048	0	933.8583363330606
0.75857758	2.5118864e-7	0.02	0.82687178	9.8513192	-0.0057977067	-0.010524957	-0.010297639	-0.0068837173	0.0010699497	0	933.924519579393
0.75857758	2.7542287e-7	0.02	0.81738415	9.701083	-0.005724017	-0.01070666	-0.01045783	-0.0068031335	0.0010292371	0	933.9907456699052
0.75857758	3.0199517e-7	0.02	0.80878163	9.556836	-0.0056502708	-0.010890341	-0.010618049	-0.0067234358	0.00099247398	0	934.057024319703
0.75857758	3.3113112e-7	0.02	0.80099288	9.4181002	-0.0055764687	-0.011075753	-0.0107779	-0.006644541	0.00095935765	0	934.1233624064052
0.75857758	3.6307805e-7	0.02	0.79395131	9.2844148	-0.0055026119	-0.011262705	-0.010937037	-0.0065663725	0.00092959242	0	934.1897653043249
0.75857758	3.9810717e-7	0.02	0.78759532	9.1553443	-0.0054287023	-0.011451039	-0.011095143	-0.0064888602	0.00090289698	0	934.2562371851327
0.75857758	4.3651583e-7	0.02	0.78186817	9.0304826	-0.0053547417	-0.011640619	-0.011251926	-0.0064119396	0.0008790078	0	934.3227818446725
0.75857758	4.7863009e-7	0.02	0.7767177	8.9094533	-0.005280732	-0.011831327	-0.011407111	-0.0063355519	0.00085768008	0	934.3894026653796
0.75857758	5.2480746e-7	0.02	0.77209598	8.7919088	-0.0052066752	-0.012023055	-0.011560443	-0.0062596427	0.00083868729	0	934.4561025599066
0.75857758	5.7543994e-7	0.02	0.76795883	8.6775279	-0.0051325734	-0.012215705	-0.011711686	-0.0061841625	0.00082181964	0	934.5228839899147
0.75857758	6.3095734e-7	0.02	0.76426543	8.5660129	-0.0050584289	-0.012409184	-0.011860624	-0.0061090658	0.00080688244	0	934.5897488533258
0.75857758	6.9183097e-7	0.02	0.76097789	8.4570881	-0.0049842442	-0.012603405	-0.012007066	-0.0060343109	0.00079369457	0	934.6566983903662
0.75857758	7.5857758e-7	0.02	0.758061	8.3504972	-0.004910022	-0.012798289	-0.01215085	-0.0059598599	0.00078208727	0	934.7237331084012
0.75857758	8.3176377e-7	0.02	0.75548193	8.2460031	-0.0048357651	-0.01299376	-0.012291847	-0.005885678	0.00077190364	0	934.7908528007268
0.75857758	9.1201084e-7	0.02	0.75321014	8.1433862	-0.0047614763	-0.013189751	-0.012429961	-0.0058117336	0.0007629982	0	934.8580566405248
0.75857758	1.e-6	0.02	0.75121725	8.0424449	-0.0046871583	-0.013386202	-0.012565134	-0.005737998	0.00075523677	0	934.925343180865
0.75857758	1.0964782e-6	0.02	0.74947693	7.9429946	-0.0046128136	-0.01358306	-0.012697343	-0.0056644452	0.00074849633	0	934.9927105050339
0.75857758	1.2022644e-6	0.02	0.74796486	7.8448672	-0.0045384443	-0.01378028	-0.012826596	-0.0055910516	0.00074266473	0	935.0601564896139
0.75857758	1.3182567e-6	0.02	0.74665869	7.7479106	-0.0044640521	-0.013977823	-0.01295293	-0.005517796	0.00073764038	0	935.1276788420656
0.75857758	1.4454398e-6	0.02	0.74553797	7.6519875	-0.0043896386	-0.014175659	-0.013076405	-0.0054446591	0.00073333178	0	935.195274931606
0.75857758	1.5848932e-6	0.02	0.74458409	7.5569754	-0.0043152048	-0.014373761	-0.013197094	-0.0053716238	0.00072965704	0	935.2629424469043
0.75857758	1.7378008e-6	0.02	0.74378027	7.4627645	-0.0042407512	-0.014572109	-0.013315083	-0.0052986745	0.00072654324	0	935.3306793021256
0.75857758	1.9054607e-6	0.02	0.74311142	7.3692578	-0.0041662783	-0.014770687	-0.01343046	-0.0052257973	0.00072392586	0	935.3984833738518
0.75857758	2.0892961e-6	0.02	0.74256415	7.2763692	-0.0040917861	-0.014969483	-0.01354331	-0.0051529796	0.00072174808	0	935.4663530648221
0.75857758	2.2908677e-6	0.02	0.74212659	7.1840233	-0.0040172742	-0.015168489	-0.013653713	-0.00508021	0.00071996019	0	935.5342872475582
0.75857758	2.5118864e-6	0.02	0.74178839	7.0921536	-0.003942742	-0.0153677	-0.013761738	-0.0050074785	0.00071851889	0	935.6022851891987
0.75857758	2.7542287e-6	0.02	0.74154051	7.0007022	-0.0038681888	-0.015567113	-0.013867443	-0.0049347755	0.00071738666	0	935.6703464575439
0.75857758	3.0199517e-6	0.02	0.74137519	6.9096185	-0.0037936135	-0.015766729	-0.013970873	-0.0048620928	0.00071653109	0	935.7384712405068
0.75857758	3.3113112e-6	0.02	0.74128576	6.8188584	-0.0037190146	-0.015966551	-0.014072058	-0.0047894225	0.00071592432	0	935.806660383696
0.75857758	3.6307805e-6	0.02	0.74126659	6.7283832	-0.0036443908	-0.016166583	-0.014171017	-0.0047167574	0.00071554234	0	935.8749147515119
0.75857758	3.9810717e-6	0.02	0.74131288	6.6381592	-0.0035697404	-0.016366834	-0.014267755	-0.0046440911	0.00071536447	0	935.943235847259
0.75857758	4.3651583e-6	0.02	0.74142061	6.5481562	-0.0034950616	-0.016567313	-0.014362266	-0.0045714171	0.00071537266	0	936.0116254749028
0.75857758	4.7863009e-6	0.02	0.74158632	6.4583471	-0.0034203524	-0.016768033	-0.014454532	-0.0044987297	0.00071555086	0	936.0800858518172
0.75857758	5.2480746e-6	0.02	0.74180703	6.3687069	-0.0033456112	-0.016969011	-0.01454453	-0.0044260233	0.0007158843	0	936.1486189135073
0.75857758	5.7543994e-6	0.02	0.74207994	6.279211	-0.0032708362	-0.017170269	-0.014632228	-0.0043532928	0.00071635856	0	936.2172269525123
0.75857758	6.3095734e-6	0.02	0.74240228	6.1898346	-0.0031960261	-0.017371834	-0.014717591	-0.004280533	0.0007169584	0	936.2859118479629
0.75857758	6.9183097e-6	0.02	0.74277092	6.10055	-0.0031211803	-0.017573742	-0.014800583	-0.0042077393	0.00071766634	0	936.3546748400853
0.75857758	7.5857758e-6	0.02	0.74318194	6.011325	-0.0030462991	-0.017776039	-0.014881172	-0.0041349074	0.00071846059	0	936.423516248332
0.75857758	8.3176377e-6	0.02	0.74362999	5.9221187	-0.0029713849	-0.01797879	-0.014959333	-0.0040620333	0.00071931209	0	936.4924342875286
0.75857758	9.1201084e-6	0.02	0.74410694	5.8328745	-0.0028964433	-0.018182078	-0.015035057	-0.0039891138	0.00072017845	0	936.5614238652308
0.75857758	0.00001	0.02	0.74459769	5.7434964	-0.002821488	-0.018386011	-0.015108351	-0.0039161467	0.0007209843	0	936.6304719778543
0.75857758	0.000010964782	0.02	0.74506224	5.653747	-0.0027465619	-0.018590692	-0.015179212	-0.0038431322	0.0007215377	0	936.6995383744197
0.75857758	0.000012022644	0.02	0.7431799	5.5630077	-0.0026767825	-0.018782601	-0.015234006	-0.0037724453	0.00071896437	0	936.7640710299277
0.75857758	0.000013182567	0.02	0.74265813	5.468337	-0.0026032277	-0.018986842	-0.015297721	-0.0036996095	0.00071536585	0	936.8319832832084
0.75857758	0.000014454398	0.02	0.74018102	5.3622952	-0.0025319732	-0.019190332	-0.015357153	-0.0036269071	0.00070245318	0	936.8978147374823
0.75857758	0.000015848932	0.02	0.7355363	5.2438181	-0.002463286	-0.019402854	-0.015421956	-0.0035545725	0.00067913284	0	936.9611331175233
0.75857758	0.000017378008	0.02	0.73306124	5.1382735	-0.0023920695	-0.019649379	-0.015516969	-0.003482622	0.00066586966	0	937.0262602548196
0.75857758	0.000019054607	0.02	0.73318729	5.0479436	-0.0023177868	-0.019919439	-0.015631588	-0.0034107659	0.00066479614	0	937.093899865027
0.75857758	0.000020892961	0.02	0.73394534	4.9611239	-0.002242756	-0.020194757	-0.015747395	-0.003338858	0.00066660831	0	937.1622200400001
0.75857758	0.000022908677	0.02	0.7348469	4.8748918	-0.0021675509	-0.02047124	-0.015860149	-0.0032668676	0.00066897748	0	937.2307613510739
0.75857758	0.000025118864	0.02	0.73582588	4.7888318	-0.0020922462	-0.020748336	-0.01596915	-0.0031947849	0.00067157788	0	937.2994667666317
0.75857758	0.000027542287	0.02	0.73687549	4.7028816	-0.0020168462	-0.021025991	-0.016074186	-0.0031226027	0.00067436636	0	937.3683362302997
0.75857758	0.000030199517	0.02	0.73799787	4.6170312	-0.0019413445	-0.021304221	-0.016175116	-0.0030503141	0.00067734185	0	937.4373784048703
0.75857758	0.000033113112	0.02	0.73919706	4.5312805	-0.0018657319	-0.021583063	-0.01627181	-0.0029779117	0.00068051154	0	937.5066043772148
0.75857758	0.000036307805	0.02	0.74047785	4.4456319	-0.0017899983	-0.021862558	-0.016364139	-0.0029053879	0.00068388522	0	937.5760260610213
0.75857758	0.000039810717	0.02	0.74184564	4.3600892	-0.0017141322	-0.022142751	-0.016451975	-0.0028327343	0.00068747423	0	937.6456566665792
0.75857758	0.000043651583	0.02	0.74330632	4.2746573	-0.001638121	-0.022423695	-0.016535189	-0.002759942	0.00069129117	0	937.7155104564906
0.75857758	0.000047863009	0.02	0.74486641	4.1893415	-0.0015619511	-0.022705446	-0.016613653	-0.0026870018	0.00069534996	0	937.785602614131
0.75857758	0.000052480746	0.02	0.746533	4.1041485	-0.0014856073	-0.022988065	-0.016687237	-0.0026139035	0.00069966589	0	937.8559498637641
0.75857758	0.000057543994	0.02	0.74831387	4.0190855	-0.0014090732	-0.02327162	-0.016755813	-0.0025406363	0.0007042557	0	937.9265700195486
0.75857758	0.000063095734	0.02	0.75021751	3.9341607	-0.0013323306	-0.023556185	-0.016819253	-0.0024671886	0.00070913769	0	937.9974825868616
0.75857758	0.000069183097	0.02	0.75225319	3.8493836	-0.0012553597	-0.02384184	-0.016877429	-0.0023935479	0.00071433183	0	938.0687085743839
0.75857758	0.000075857758	0.02	0.754431	3.7647643	-0.0011781389	-0.024128673	-0.016930215	-0.0023197007	0.00071985989	0	938.1402706444319
0.75857758	0.000083176377	0.02	0.75676195	3.6803145	-0.0011006446	-0.024416778	-0.016977486	-0.0022456326	0.0007257456	0	938.2121933196611
0.75857758	0.000091201084	0.02	0.75925804	3.5960466	-0.0010228507	-0.024706261	-0.017019119	-0.0021713281	0.00073201479	0	938.2845034340583
0.75857758	0.0001	0.02	0.76193233	3.5119748	-0.00094472902	-0.024997235	-0.017054995	-0.0020967702	0.00073869554	0	938.3572297007399
0.75857758	0.00010964782	0.02	0.76479904	3.4281144	-0.00086624857	-0.025289821	-0.017084996	-0.0020219409	0.00074581843	0	938.4304034542112
0.75857758	0.00012022644	0.02	0.76787365	3.3444822	-0.00078737553	-0.025584155	-0.017109009	-0.0019468205	0.00075341666	0	938.5040585939894
0.75857758	0.00013182567	0.02	0.77117297	3.2610967	-0.00070807303	-0.025880381	-0.017126924	-0.0018713878	0.0007615263	0	938.5782318288927
0.75857758	0.00014454398	0.02	0.7747153	3.177978	-0.00062830073	-0.026178658	-0.017138638	-0.00179562	0.00077018654	0	938.6529629964924
0.75857758	0.00015848932	0.02	0.77852051	3.0951481	-0.00054801467	-0.026479158	-0.017144051	-0.0017194921	0.00077943989	0	938.7282952792116
0.75857758	0.00017378008	0.02	0.7826102	3.0126309	-0.0004671669	-0.026782065	-0.017143073	-0.0016429776	0.00078933248	0	938.8042754204265
0.75857758	0.00019054607	0.02	0.78700778	2.9304523	-0.00038570515	-0.027087584	-0.017135619	-0.0015660472	0.00079991432	0	938.8809541284793
0.75857758	0.00020892961	0.02	0.7917387	2.8486407	-0.00030357246	-0.027395932	-0.017121613	-0.0014886696	0.00081123959	0	938.9583863491516
0.75857758	0.00022908677	0.02	0.79683048	2.7672265	-0.00022070684	-0.027707347	-0.017100989	-0.0014108108	0.00082336695	0	939.0366315663254
0.75857758	0.00025118864	0.02	0.802313	2.6862428	-0.00013704078	-0.028022088	-0.017073692	-0.0013324339	0.00083635989	0	939.1157542435795
0.75857758	0.00027542287	0.02	0.80821855	2.6057251	-0.000052500923	-0.028340431	-0.017039678	-0.0012534992	0.00085028703	0	939.195824131427
0.75857758	0.00030199517	0.02	0.81458207	2.5257119	0.00003299247	-0.02866268	-0.016998916	-0.0011739634	0.00086522248	0	939.2769167323996
0.75857758	0.00033113112	0.02	0.82144134	2.4462442	0.00011952598	-0.02898916	-0.01695139	-0.0010937798	0.0008812462	0	939.359113695666
0.75857758	0.00036307805	0.02	0.82883709	2.3673663	0.00020719355	-0.029320223	-0.016897099	-0.0010128979	0.0008984444	0	939.4425033056051
0.75857758	0.00039810717	0.02	0.83681326	2.2891253	0.00029609699	-0.029656248	-0.016836061	-0.00093126293	0.00091690986	0	939.5271808811216
0.75857758	0.00043651583	0.02	0.84541716	2.2115714	0.00038634653	-0.029997646	-0.016768311	-0.00084881571	0.00093674233	0	939.6132493328083
0.75857758	0.00047863009	0.02	0.85469969	2.1347579	0.00047806147	-0.030344859	-0.016693904	-0.00076549223	0.00095804888	0	939.7008197172895
0.75857758	0.00052480746	0.02	0.86471548	2.0587414	0.00057137072	-0.03069836	-0.016612919	-0.00068122331	0.00098094431	0	939.7900116694212
0.75857758	0.00057543994	0.02	0.87552317	1.9835815	0.00066641336	-0.031058662	-0.016525456	-0.00059593425	0.0010055514	0	939.8809539848221
0.75857758	0.00063095734	0.02	0.8871855	1.9093405	0.00076333943	-0.031426312	-0.016431641	-0.00050954438	0.0010320013	0	939.9737852681719
0.75857758	0.00069183097	0.02	0.89976959	1.836084	0.0008623104	-0.031801898	-0.016331629	-0.00042196668	0.0010604339	0	940.0686543184356
0.75857758	0.00075857758	0.02	0.91334706	1.76388	0.00096349999	-0.032186049	-0.016225599	-0.0003331073	0.0010909978	0	940.1657209932612
0.75857758	0.00083176377	0.02	0.92799422	1.6927986	0.0010670947	-0.03257944	-0.016113763	-0.00024286516	0.0011238509	0	940.2651565378303
0.75857758	0.00091201084	0.02	0.94379224	1.6229124	0.0011732945	-0.032982787	-0.015996362	-0.00015113148	0.0011591605	0	940.3671443083205
0.75857758	0.001	0.02	0.96082726	1.5542951	0.0012823137	-0.033396856	-0.015873672	-0.00005778923	0.0011971032	0	940.471880476581
0.75857758	0.0010964782	0.02	0.97919055	1.4870218	0.0013943812	-0.03382246	-0.015745998	0.000037287247	0.0012378652	0	940.5795743777718
0.75857758	0.0012022644	0.02	0.99897855	1.4211681	0.0015097412	-0.034260459	-0.01561368	0.00013423286	0.0012816424	0	940.6904490647076
0.75857758	0.0013182567	0.02	1.0202929	1.3568094	0.0016286541	-0.034711762	-0.015477089	0.00023319219	0.0013286404	0	940.80474222863
0.75857758	0.0014454398	0.02	1.0432403	1.2940209	0.0017513961	-0.035177321	-0.015336624	0.0003343201	0.0013790748	0	940.9227058797575
0.75857758	0.0015848932	0.02	1.0679321	1.232877	0.0018782596	-0.035658128	-0.015192702	0.00043778202	0.0014331709	0	941.0446069110233
0.75857758	0.0017378008	0.02	1.0944833	1.173451	0.0020095521	-0.036155193	-0.015045749	0.00054375463	0.0014911647	0	941.1707262336759
0.75857758	0.0019054607	0.02	1.123011	1.1158156	0.0021455945	-0.03666953	-0.014896168	0.0006524259	0.0015533028	0	941.3013577813389
0.75857758	0.0020892961	0.02	1.153631	1.0600432	0.0022867162	-0.037202106	-0.014744302	0.00076399531	0.0016198432	0	941.4368046014208
0.75857758	0.0022908677	0.02	1.1864528	1.0062064	0.0024332485	-0.037753785	-0.014590369	0.00087867338	0.001691055	0	941.5773738754172
0.75857758	0.0025118864	0.02	1.2215726	0.95437484	0.0025855158	-0.038325289	-0.014434427	0.00099668084	0.0017672152	0	941.7233693084314
0.75857758	0.0027542287	0.02	1.2590726	0.90460516	0.0027438353	-0.038917314	-0.014276485	0.001118247	0.0018485987	0	941.8750887614708
0.75857758	0.0030199517	0.02	1.2990481	0.85691113	0.002908559	-0.039531227	-0.014117205	0.0012436095	0.0019354545	0	942.0328505216937
0.75857758	0.0033113112	0.02	1.3417014	0.81121962	0.0030802156	-0.040170866	-0.013959694	0.0013730195	0.0020279745	0	942.1970929527095
0.75857758	0.0036307805	0.02	1.3874683	0.76737496	0.0032596953	-0.040844207	-0.013811177	0.0015067588	0.0021263149	0	942.3685166883994
0.75857758	0.0039810717	0.02	1.4369247	0.72527482	0.0034481022	-0.041559908	-0.013679539	0.001645161	0.0022307266	0	942.5480109334112
0.75857758	0.0043651583	0.02	1.4904453	0.68496524	0.0036462502	-0.042320387	-0.013566397	0.0017886086	0.0023416295	0	942.7363100144398
0.75857758	0.0047863009	0.02	1.5481894	0.64651752	0.0038546547	-0.043123422	-0.013468707	0.0019375087	0.002459488	0	942.9339553842045
0.75857758	0.0052480746	0.02	1.6103359	0.60993707	0.0040738873	-0.043967809	-0.013384415	0.0020922832	0.0025847285	0	943.1415226956045
0.75857758	0.0057543994	0.02	1.677163	0.57518503	0.0043046909	-0.04485455	-0.013313649	0.0022533765	0.002717764	0	943.3597075464511
0.75857758	0.0063095734	0.02	1.7490261	0.54220647	0.0045479475	-0.045785953	-0.013257813	0.0024212644	0.0028590261	0	943.5893122503876
0.75857758	0.0069183097	0.02	1.8263328	0.51094066	0.0048046443	-0.046764942	-0.0132189	0.0025964602	0.0030089788	0	943.8312268952526
0.75857758	0.0075857758	0.02	1.9095302	0.48132353	0.0050758581	-0.047794763	-0.013199199	0.0027795192	0.0031681257	0	944.0864201917138
0.75857758	0.0083176377	0.02	1.9990946	0.45328855	0.005362745	-0.048878847	-0.013201148	0.0029710419	0.0033370138	0	944.3559325580652
0.75857758	0.0091201084	0.02	2.0955193	0.42676755	0.0056665286	-0.050020711	-0.013227249	0.0031716765	0.0035162362	0	944.6408666306195
0.75857758	0.01	0.02	2.1992974	0.40169149	0.0059884793	-0.051223855	-0.013279945	0.0033821199	0.0037064339	0	944.942370126034
0.75857758	0.010964782	0.02	2.3108954	0.37799138	0.0063298823	-0.052491601	-0.013361476	0.0036031161	0.0039082953	0	945.2616084811691
0.75857758	0.012022644	0.02	2.4307155	0.35559897	0.0066919892	-0.05382689	-0.013473665	0.0038354521	0.0041225523	0	945.599723399464
0.75857758	0.013182567	0.02	2.5590446	0.33444735	0.0070759491	-0.055231996	-0.013617633	0.0040799491	0.0043499721	0	945.9577734704073
0.75857758	0.014454398	0.02	2.6959866	0.31447148	0.0074827145	-0.056708161	-0.013793432	0.0043374482	0.0045913433	0	946.3366526528471
0.75857758	0.015848932	0.02	2.8413762	0.29560845	0.007912919	-0.058255141	-0.013999594	0.0046087881	0.0048474537	0	946.7369838410273
0.75857758	0.017378008	0.02	2.9946738	0.27779777	0.0083667227	-0.05987066	-0.014232578	0.0048947742	0.00511906	0	947.1589839993788
0.75857758	0.019054607	0.02	3.1548436	0.2609815	0.0088436275	-0.06154979	-0.014486152	0.0051961352	0.005406844	0	947.6023022378264
0.75857758	0.020892961	0.02	3.3202196	0.24510431	0.0093422663	-0.063284294	-0.014750738	0.005513469	0.0057113591	0	948.0658340597181
0.75857758	0.022908677	0.02	3.4883719	0.23011353	0.0098601798	-0.065061998	-0.015012773	0.0058471737	0.0060329606	0	948.5475236584856
0.75857758	0.025118864	0.02	3.6559916	0.21595913	0.010393603	-0.066866278	-0.015254207	0.0061973666	0.0063717257	0	949.0441727536775
0.75857758	0.027542287	0.02	3.8188241	0.20259367	0.010937298	-0.068675818	-0.015452249	0.006563795	0.0067273632	0	949.5512882686248
0.75857758	0.030199517	0.02	3.9716895	0.18997224	0.011484491	-0.070464814	-0.015579577	0.0069457427	0.0070991207	0	950.0630191916496
0.75857758	0.033113112	0.02	4.1086416	0.17805246	0.012026967	-0.072203819	-0.015605177	0.0073419464	0.0074857008	0	950.572229786997
0.75857758	0.036307805	0.02	4.2233217	0.16679561	0.012555431	-0.073861445	-0.015496047	0.0077505359	0.0078852018	0	951.0708069454524
0.75857758	0.039810717	0.02	4.3094309	0.15620635	0.013060027	-0.075406529	-0.015219357	0.0081690182	0.0082951346	0	951.5501072295349
0.75857758	0.043651583	0.02	4.0060582	0.15400248	0.013161352	-0.07740131	-0.015335631	0.0085909035	0.0087152406	0	951.6431237481935
0.75857758	0.047863009	0.02	3.729379	0.15199253	0.013253761	-0.079444367	-0.015441674	0.0089756675	0.0090983818	0	951.7279553560535
0.75857758	0.052480746	0.02	3.5366673	0.14712637	0.013423431	-0.082502672	-0.016502635	0.0093292259	0.0094480115	0	951.8674345651219
0.75857758	0.057543994	0.02	3.4553737	0.13710059	0.013736573	-0.087409032	-0.019349436	0.0096719544	0.0097826454	0	952.1081568263928
0.75857758	0.063095734	0.02	3.3845616	0.12759403	0.014053151	-0.092377644	-0.022194335	0.010007001	0.010110017	0	952.3521431752719
0.75857758	0.069183097	0.02	3.3578188	0.11858541	0.01441088	-0.097380063	-0.025006883	0.010336942	0.010432684	0	952.6354014954419
0.75857758	0.075857758	0.02	3.4213033	0.11005558	0.01486485	-0.10239273	-0.027761462	0.010668253	0.010757108	0	953.0101738377366
0.75857758	0.083176377	0.02	3.6345698	0.1019874	0.015489779	-0.1074017	-0.03044199	0.011012587	0.011094928	0	953.5469648477767
0.75857758	0.091201084	0.02	4.0703417	0.094365622	0.016381195	-0.11240841	-0.033047704	0.011388087	0.011464275	0	954.335543662084
0.75857758	0.1	0.02	4.8130248	0.087176789	0.017655215	-0.11743596	-0.035599467	0.011820617	0.011891001	0	955.4846177473669
0.75857758	0.10964782	0.02	5.9561093	0.080409042	0.019446911	-0.12253495	-0.038145516	0.012344783	0.012409703	0	957.1201896383043
0.75857758	0.12022644	0.02	7.599137	0.07405198	0.021907907	-0.12778702	-0.040765103	0.013004677	0.013064464	0	959.3832307428627
0.75857758	0.13182567	0.02	9.8453895	0.068096482	0.025204376	-0.13330494	-0.043568503	0.013854342	0.013909322	0	962.4277992425681
0.75857758	0.14454398	0.02	12.801496	0.062534523	0.029516873	-0.13922819	-0.046692652	0.014958107	0.015008596	0	966.4209651527742
0.75857758	0.15848932	0.02	16.579487	0.057358957	0.035042758	-0.14571469	-0.050292824	0.01639099	0.0164373	0	971.5452432895543
0.75857758	0.17378008	0.02	21.300579	0.052563243	0.042000717	-0.15292997	-0.054531826	0.018239407	0.018281845	0	978.0030440847195
0.75857758	0.19054607	0.02	27.098669	0.048141069	0.050635333	-0.16103547	-0.059568297	0.020602259	0.020641127	0	986.0211882161173
0.75857758	0.20892961	0.02	34.120804	0.044085812	0.061218657	-0.17017707	-0.065545218	0.023592233	0.023627826	0	995.8525985769148
0.75857758	0.22908677	0.02	42.522069	0.040389808	0.074045644	-0.1804742	-0.072579033	0.027336893	0.027369502	0	1007.7722165299691
0.75857758	0.25118864	0.02	52.4535	0.037043449	0.089421339	-0.19200988	-0.080749702	0.031978935	0.032008843	0	1022.0651492345631
0.75857758	0.27542287	0.02	64.043753	0.034034238	0.10763995	-0.20482255	-0.09009248	0.037674933	0.037702411	0	1039.0071618456611
0.75857758	0.30199517	0.02	77.377869	0.03134602	0.12895893	-0.21890115	-0.10059304	0.044592107	0.044617414	0	1058.840417504372
0.75857758	0.33113112	0.02	92.478583	0.02895866	0.15357382	-0.23418537	-0.11218771	0.052903084	0.052926464	0	1081.7498362389001
0.75857758	0.36307805	0.02	109.29599	0.026848358	0.18160071	-0.25057192	-0.12476969	0.0627792	0.062800877	0	1107.8464991023138
0.75857758	0.39810717	0.02	127.70903	0.024988585	0.21307088	-0.26792601	-0.13820064	0.074383349	0.074403524	0	1137.1623952881716
0.75857758	0.43651583	0.02	147.53848	0.023351457	0.2479385	-0.28609577	-0.15232497	0.087863561	0.087882414	0	1169.6573882559394
0.75857758	0.47863009	0.02	168.56738	0.021909188	0.28609791	-0.30492636	-0.16698404	0.10334827	0.10336595	0	1205.2351845836783
0.75857758	0.52480746	0.02	190.56347	0.020635358	0.32740513	-0.32427156	-0.18202768	0.1209437	0.12096036	0	1243.7633275428677
0.75857758	0.57543994	0.02	213.29891	0.019505794	0.37169854	-0.34400152	-0.197322	0.14073339	0.14074914	0	1285.092480549735
0.75857758	0.63095734	0.02	236.56486	0.018499049	0.41881563	-0.364007	-0.21275357	0.16277939	0.16279433	0	1329.0720863372044
0.75857758	0.69183097	0.02	260.18021	0.017596532	0.4686047	-0.38420064	-0.22823074	0.18712458	0.18713878	0	1375.5613350649678
0.75857758	0.75857758	0.02	283.99536	0.016782398	0.52093176	-0.40451654	-0.24368314	0.21379561	0.21380915	0	1424.4356567160519
0.75857758	0.83176377	0.02	307.89243	0.016043297	0.5756839	-0.42490872	-0.2590602	0.24280603	0.24281898	0	1475.5899152431837
0.75857758	0.91201084	0.02	331.78318	0.015368067	0.63277003	-0.44534914	-0.27432919	0.27415933	0.27417173	0	1528.9391406781092
0.75857758	1.	0.02	355.60574	0.014747411	0.6921201	-0.46582566	-0.28947305	0.30785164	0.30786355	0	1584.4178370477584
0.75857758	1.0964782	0.02	379.32089	0.014173601	0.75368351	-0.48633985	-0.30448835	0.3438742	0.34388565	0	1641.978526799605
0.75857758	1.2022644	0.02	402.90836	0.013640217	0.81742721	-0.50690501	-0.3193832	0.38221534	0.38222635	0	1701.590004901331
0.75857758	1.3182567	0.02	426.3634	0.013141915	0.88333362	-0.52754415	-0.33417527	0.4228622	0.42287281	0	1763.235421751689
0.75857758	1.4454398	0.02	449.69382	0.012674247	0.95139887	-0.54828809	-0.34888986	0.46580208	0.46581232	0	1826.9106658127073
0.75857758	1.5848932	0.02	472.91733	0.012233496	1.021631	-0.56917375	-0.36355821	0.51102357	0.51103345	0	1892.6227041493696
0.75857758	1.7378008	0.02	496.05942	0.011816553	1.0940486	-0.59024243	-0.37821577	0.55851739	0.55852693	0	1960.3883371296984
0.75857758	1.9054607	0.02	519.15155	0.011420812	1.1686794	-0.61153848	-0.39290083	0.60827704	0.60828626	0	2030.2328993817052
0.75857758	2.0892961	0.02	542.22969	0.011044078	1.2455594	-0.63310801	-0.40765326	0.66029936	0.66030828	0	2102.1894660485796
0.75857758	2.2908677	0.02	565.33313	0.010684501	1.3247316	-0.65499789	-0.42251354	0.71458489	0.71459352	0	2176.297677768263
0.75857758	2.5118864	0.02	588.50354	0.010340514	1.4062458	-0.677255	-0.43752189	0.77113813	0.77114648	0	2252.603569108819
0.75857758	2.7542287	0.02	611.7842	0.010010787	1.4901575	-0.69992565	-0.4527178	0.82996776	0.82997584	0	2331.1585438784605
0.75857758	3.0199517	0.02	635.21944	0.0096941829	1.5765275	-0.72305517	-0.46813956	0.89108674	0.89109457	0	2412.01900813132
0.75857758	3.3113112	0.02	658.85413	0.0093897272	1.6654218	-0.7466877	-0.48382403	0.95451244	0.95452002	0	2495.2462805329224
0.75857758	3.6307805	0.02	682.73341	0.0090965799	1.7569109	-0.77086607	-0.49980656	1.0202666	1.020274	0	2580.9059361677414
0.75857758	3.9810717	0.02	706.90233	0.0088140121	1.8510695	-0.79563179	-0.51612093	1.0883754	1.0883826	0	2669.0675257970693
0.75857758	4.3651583	0.02	731.40575	0.0085413878	1.9479767	-0.8210251	-0.53279942	1.1588695	1.1588764	0	2759.8047624567025
0.75857758	4.7863009	0.02	756.28816	0.0082781477	2.0477154	-0.84708511	-0.54987291	1.2317838	1.2317905	0	2853.194955838597
0.75857758	5.2480746	0.02	781.59361	0.0080237971	2.1503723	-0.87384987	-0.567371	1.3071577	1.3071642	0	2949.3190100359075
0.75857758	5.7543994	0.02	807.36567	0.0077778949	2.2560381	-0.9013566	-0.58532215	1.3850347	1.385041	0	3048.261608825285
0.75857758	6.3095734	0.02	833.64743	0.007540045	2.364807	-0.92964181	-0.60375388	1.4654627	1.4654688	0	3150.1107421259285
0.75857758	6.9183097	0.02	860.48146	0.0073098894	2.4767769	-0.95874146	-0.62269286	1.5484938	1.5484997	0	3254.9578922214464
0.75857758	7.5857758	0.02	887.9099	0.0070871019	2.5920494	-0.98869117	-0.64216512	1.6341841	1.6341898	0	3362.898029813678
0.75857758	8.3176377	0.02	915.97446	0.0068713834	2.7107296	-1.0195263	-0.66219617	1.722594	1.7225996	0	3474.0294238546658
0.75857758	9.1201084	0.02	944.7165	0.0066624582	2.8329266	-1.0512822	-0.68281115	1.8137879	1.8137933	0	3588.4541085106366
0.75857758	10.	0.02	974.17709	0.0064600702	2.958753	-1.0839943	-0.70403494	1.9078342	1.9078394	0	3706.277411312283