0.25118864	1.e-12	0.15	216.69008	3912.4602	-0.0049244353	-0.012418249	-0.012418147	-0.23741516	0.80856377	0	933.1883721289422
0.25118864	1.0964782e-12	0.15	197.63707	3569.2685	-0.0048998194	-0.012483104	-0.012482992	-0.21712173	0.73710643	0	933.2023614583732
0.25118864	1.2022644e-12	0.15	180.26052	3256.2692	-0.004875202	-0.012547967	-0.012547844	-0.1986126	0.67193658	0	933.2163512106084
0.25118864	1.3182567e-12	0.15	164.41291	2970.8055	-0.0048505835	-0.012612837	-0.012612701	-0.18173075	0.61250098	0	933.2303412916917
0.25118864	1.4454398e-12	0.15	149.95972	2710.4546	-0.0048259641	-0.012677712	-0.012677564	-0.16633302	0.55829506	0	933.2443313727749
0.25118864	1.5848932e-12	0.15	136.77826	2473.007	-0.0048013439	-0.012742592	-0.012742429	-0.15228881	0.50885869	0	933.2583219236408
0.25118864	1.7378008e-12	0.15	124.75662	2256.4473	-0.0047767232	-0.012807476	-0.012807298	-0.13947902	0.46377218	0	933.2723123805501
0.25118864	1.9054607e-12	0.15	113.79275	2058.9376	-0.0047521019	-0.012872365	-0.012872169	-0.12779505	0.42265281	0	933.2863031193292
0.25118864	2.0892961e-12	0.15	103.79359	1878.8016	-0.0047274803	-0.012937257	-0.012937042	-0.11713783	0.38515149	0	933.3002938581081
0.25118864	2.2908677e-12	0.15	94.674245	1714.5109	-0.0047028584	-0.013002152	-0.013001917	-0.10741702	0.35094988	0	933.3142845968872
0.25118864	2.5118864e-12	0.15	86.357304	1564.671	-0.0046782362	-0.01306705	-0.013066793	-0.098550228	0.31975765	0	933.3282754766009
0.25118864	2.7542287e-12	0.15	78.772163	1428.0105	-0.0046536138	-0.013131951	-0.013131669	-0.090462304	0.29131	0	933.3422665442279
0.25118864	3.0199517e-12	0.15	71.854433	1303.3698	-0.0046289912	-0.013196856	-0.013196546	-0.083084722	0.26536544	0	933.3562576588329
0.25118864	3.3113112e-12	0.15	65.545388	1189.6912	-0.0046043685	-0.013261762	-0.013261423	-0.076354975	0.24170371	0	933.3702488673944
0.25118864	3.6307805e-12	0.15	59.791471	1086.0102	-0.0045797456	-0.013326672	-0.013326299	-0.070216064	0.22012397	0	933.3842404048041
0.25118864	3.9810717e-12	0.15	54.543836	991.44713	-0.0045551227	-0.013391584	-0.013391176	-0.064616	0.20044301	0	933.3982318012787
0.25118864	4.3651583e-12	0.15	49.757936	905.19966	-0.0045304997	-0.013456499	-0.013456051	-0.05950737	0.18249376	0	933.4122235735796
0.25118864	4.7863009e-12	0.15	45.393144	826.53614	-0.0045058766	-0.013521416	-0.013520925	-0.054846934	0.16612385	0	933.4262155807719
0.25118864	5.2480746e-12	0.15	41.412406	754.78926	-0.0044812534	-0.013586337	-0.013585798	-0.050595255	0.15119432	0	933.4402078228553
0.25118864	5.7543994e-12	0.15	37.781931	689.35045	-0.0044566302	-0.013651259	-0.013650669	-0.046716369	0.13757843	0	933.4542003468085
0.25118864	6.3095734e-12	0.15	34.470899	629.66464	-0.004432007	-0.013716185	-0.013715538	-0.043177471	0.12516059	0	933.4681931526313
0.25118864	6.9183097e-12	0.15	31.451202	575.22565	-0.0044073838	-0.013781114	-0.013780404	-0.039948648	0.11383539	0	933.4821863812583
0.25118864	7.5857758e-12	0.15	28.697205	525.5718	-0.0043827605	-0.013846045	-0.013845267	-0.037002616	0.10350668	0	933.4961801266464
0.25118864	8.3176377e-12	0.15	26.185531	480.28206	-0.0043581372	-0.013910979	-0.013910126	-0.034314491	0.094086794	0	933.5101744357738
0.25118864	9.1201084e-12	0.15	23.894858	438.97243	-0.0043335138	-0.013975916	-0.013974981	-0.031861583	0.085495758	0	933.524169402597
0.25118864	1.e-11	0.15	21.80574	401.29272	-0.0043088905	-0.014040857	-0.014039831	-0.029623193	0.077660643	0	933.5381649801373
0.25118864	1.0964782e-11	0.15	19.900443	366.92352	-0.0042842671	-0.0141058	-0.014104676	-0.027580446	0.070514937	0	933.5521613563085
0.25118864	1.2022644e-11	0.15	18.162791	335.57356	-0.0042596437	-0.014170747	-0.014169514	-0.025716128	0.063997979	0	933.5661587190232
0.25118864	1.3182567e-11	0.15	16.578036	306.97716	-0.0042350204	-0.014235697	-0.014234345	-0.024014539	0.058054449	0	933.580156974325
0.25118864	1.4454398e-11	0.15	15.132722	280.89205	-0.004210397	-0.014300651	-0.014299168	-0.02246136	0.052633889	0	933.5941564510616
0.25118864	1.5848932e-11	0.15	13.814582	257.09727	-0.0041857736	-0.014365608	-0.014363982	-0.021043534	0.047690285	0	933.6081571962116
0.25118864	1.7378008e-11	0.15	12.612425	235.39129	-0.0041611502	-0.014430568	-0.014428786	-0.019749149	0.043181672	0	933.6221593507096
0.25118864	1.9054607e-11	0.15	11.516047	215.59032	-0.0041365267	-0.014495533	-0.014493578	-0.018567345	0.039069775	0	933.6361632903818
0.25118864	2.0892961e-11	0.15	10.51614	197.52675	-0.0041119033	-0.014560501	-0.014558358	-0.017488215	0.035319689	0	933.6501688273149
0.25118864	2.2908677e-11	0.15	9.6042152	181.0477	-0.0040872799	-0.014625473	-0.014623123	-0.016502725	0.031899578	0	933.6641764782703
0.25118864	2.5118864e-11	0.15	8.7725324	166.01376	-0.0040626565	-0.014690449	-0.014687873	-0.015602636	0.028780409	0	933.6781862432475
0.25118864	2.7542287e-11	0.15	8.014031	152.29777	-0.0040380331	-0.01475543	-0.014752605	-0.014780433	0.025935704	0	933.6921985450513
0.25118864	3.0199517e-11	0.15	7.3222723	139.78379	-0.0040134096	-0.014820415	-0.014817317	-0.014029262	0.023341315	0	933.7062137595078
0.25118864	3.3113112e-11	0.15	6.6913837	128.36603	-0.0039887862	-0.014885404	-0.014882008	-0.013342874	0.020975217	0	933.7202318396385
0.25118864	3.6307805e-11	0.15	6.1160098	117.94806	-0.0039641628	-0.014950398	-0.014946674	-0.012715567	0.018817325	0	933.7342534431391
0.25118864	3.9810717e-11	0.15	5.5912661	108.4419	-0.0039395393	-0.015015397	-0.015011313	-0.012142144	0.01684932	0	933.7482789458361
0.25118864	4.3651583e-11	0.15	5.1126982	99.767338	-0.0039149159	-0.0150804	-0.015075923	-0.011617861	0.015054496	0	933.7623084416857
0.25118864	4.7863009e-11	0.15	4.6762435	91.851201	-0.0038902925	-0.015145409	-0.0151405	-0.011138396	0.013417617	0	933.7763425883838
0.25118864	5.2480746e-11	0.15	4.278197	84.626762	-0.003865669	-0.015210423	-0.01520504	-0.010699804	0.011924787	0	933.7903820436262
0.25118864	5.7543994e-11	0.15	3.9151797	78.033166	-0.0038410456	-0.015275442	-0.01526954	-0.010298488	0.010563334	0	933.8044270423042
0.25118864	6.3095734e-11	0.15	3.5841101	72.014914	-0.0038164222	-0.015340467	-0.015333996	-0.0099311684	0.0093217006	0	933.8184782421133
0.25118864	6.9183097e-11	0.15	3.2821775	66.521389	-0.0037917987	-0.015405497	-0.015398402	-0.0095948525	0.0081893469	0	933.8325365826192
0.25118864	7.5857758e-11	0.15	3.0068191	61.506429	-0.0037671753	-0.015470534	-0.015462754	-0.0092868119	0.0071566602	0	933.846602439648
0.25118864	8.3176377e-11	0.15	2.7556974	56.927936	-0.0037425518	-0.015535576	-0.015527046	-0.0090045579	0.0062148742	0	933.8606768467214
0.25118864	9.1201084e-11	0.15	2.5266805	52.747514	-0.0037179284	-0.015600625	-0.015591272	-0.0087458206	0.0053559941	0	933.8747604615353
0.25118864	1.e-10	0.15	2.3178244	48.93015	-0.0036933049	-0.01566568	-0.015655425	-0.00850853	0.0045727293	0	933.8888544585462
0.25118864	1.0964782e-10	0.15	2.1273562	45.44391	-0.0036686815	-0.015730742	-0.015719498	-0.008290798	0.0038584305	0	933.9029596363848
0.25118864	1.2022644e-10	0.15	1.9536591	42.259674	-0.003644058	-0.015795811	-0.015783482	-0.0080909026	0.0032070344	0	933.9170774513773
0.25118864	1.3182567e-10	0.15	1.7952585	39.350881	-0.0036194346	-0.015860886	-0.01584737	-0.0079072731	0.0026130111	0	933.9312087021544
0.25118864	1.4454398e-10	0.15	1.65081	36.693314	-0.0035948111	-0.015925969	-0.01591115	-0.0077384768	0.0020713184	0	933.9453552678467
0.25118864	1.5848932e-10	0.15	1.5190872	34.264883	-0.0035701877	-0.01599106	-0.015974812	-0.0075832072	0.0015773579	0	933.9595183698892
0.25118864	1.7378008e-10	0.15	1.398972	32.045448	-0.0035455642	-0.016056158	-0.016038344	-0.0074402725	0.0011269365	0	933.9736998874125
0.25118864	1.9054607e-10	0.15	1.2894449	30.01664	-0.0035209408	-0.016121265	-0.016101735	-0.0073085854	0.00071623063	0	933.9879011827863
0.25118864	2.0892961e-10	0.15	1.189576	28.161709	-0.0034963173	-0.016186379	-0.016164968	-0.0071871544	0.00034175398	0	934.0021248398157
0.25118864	2.2908677e-10	0.15	1.0985178	26.465381	-0.0034716939	-0.016251502	-0.01622803	-0.0070750749	3.2769003e-7	0	934.0163725027395
0.25118864	2.5118864e-10	0.15	1.015497	24.913727	-0.0034470704	-0.016316634	-0.016290903	-0.0069715215	-0.0003109466	0	934.0306468962976
0.25118864	2.7542287e-10	0.15	0.93980917	23.49405	-0.003422447	-0.016381775	-0.016353568	-0.0068757417	-0.00059471131	0	934.0449505103381
0.25118864	3.0199517e-10	0.15	0.87081163	22.194768	-0.0033978235	-0.016446926	-0.016416007	-0.0067870484	-0.00085337537	0	934.0592860696006
0.25118864	3.3113112e-10	0.15	0.80791866	21.005323	-0.0033732	-0.016512085	-0.016478196	-0.006704815	-0.0010891348	0	934.0736568625637
0.25118864	3.6307805e-10	0.15	0.75059633	19.916089	-0.0033485766	-0.016577255	-0.016540113	-0.0066284697	-0.0013039912	0	934.0880658958365
0.25118864	3.9810717e-10	0.15	0.69835794	18.918291	-0.0033239531	-0.016642435	-0.016601732	-0.0065574905	-0.0014997691	0	934.1025170216369
0.25118864	4.3651583e-10	0.15	0.65075993	18.003927	-0.0032993296	-0.016707626	-0.016663024	-0.0064914013	-0.0016781309	0	934.1170142331179
0.25118864	4.7863009e-10	0.15	0.60739801	17.165705	-0.0032747062	-0.016772827	-0.01672396	-0.0064297672	-0.0018405919	0	934.1315615234317
0.25118864	5.2480746e-10	0.15	0.56790382	16.396975	-0.0032500827	-0.01683804	-0.016784508	-0.0063721913	-0.0019885325	0	934.1461635904059
0.25118864	5.7543994e-10	0.15	0.53194172	15.691678	-0.0032254592	-0.016903265	-0.016844632	-0.0063183112	-0.0021232104	0	934.1608254137361
0.25118864	6.3095734e-10	0.15	0.49920586	15.044291	-0.0032008357	-0.016968501	-0.016904296	-0.0062677959	-0.0022457713	0	934.1755520670755
0.25118864	6.9183097e-10	0.15	0.46941766	14.449777	-0.0031762123	-0.017033749	-0.016963461	-0.0062203429	-0.0023572589	0	934.1903489529248
0.25118864	7.5857758e-10	0.15	0.44232329	13.903548	-0.0031515888	-0.01709901	-0.017022086	-0.0061756761	-0.002458624	0	934.2052220375239
0.25118864	8.3176377e-10	0.15	0.41769151	13.401419	-0.0031269653	-0.017164285	-0.017080128	-0.0061335426	-0.0025507325	0	934.2201772871128
0.25118864	9.1201084e-10	0.15	0.39531161	12.939575	-0.0031023418	-0.017229573	-0.017137541	-0.0060937118	-0.0026343736	0	934.2352211846927
0.25118864	1.e-9	0.15	0.37499155	12.514536	-0.0030777184	-0.017294874	-0.017194282	-0.0060559724	-0.0027102666	0	934.2503596965031
0.25118864	1.0964782e-9	0.15	0.35655619	12.123125	-0.0030530949	-0.01736019	-0.017250305	-0.0060201312	-0.0027790674	0	934.2655994934585
0.25118864	1.2022644e-9	0.15	0.33984573	11.762441	-0.0030284715	-0.017425521	-0.017305564	-0.0059860114	-0.0028413748	0	934.2809468706464
0.25118864	1.3182567e-9	0.15	0.32471416	11.429832	-0.0030038481	-0.017490867	-0.017360017	-0.005953451	-0.0028977359	0	934.2964078412851
0.25118864	1.4454398e-9	0.15	0.31102796	11.12287	-0.0029792247	-0.017556228	-0.017413624	-0.0059223022	-0.0029486519	0	934.3119880427665
0.25118864	1.5848932e-9	0.15	0.29866476	10.839329	-0.0029546014	-0.017621606	-0.017466348	-0.0058924291	-0.0029945823	0	934.327692595722
0.25118864	1.7378008e-9	0.15	0.2875122	10.577164	-0.0029299782	-0.017687	-0.01751816	-0.0058637078	-0.0030359497	0	934.3435255872612
0.25118864	1.9054607e-9	0.15	0.27746687	10.334492	-0.0029053552	-0.017752412	-0.017569036	-0.0058360246	-0.003073144	0	934.3594903058622
0.25118864	2.0892961e-9	0.15	0.26843335	10.109575	-0.0028807323	-0.017817841	-0.01761896	-0.0058092759	-0.0031065258	0	934.3755891004388
0.25118864	2.2908677e-9	0.15	0.2603234	9.9008081	-0.0028561098	-0.017883287	-0.017667927	-0.0057833667	-0.0031364294	0	934.3918223937951
0.25118864	2.5118864e-9	0.15	0.25305525	9.706704	-0.0028314876	-0.017948752	-0.017715938	-0.0057582106	-0.0031631662	0	934.408190138953
0.25118864	2.7542287e-9	0.15	0.24655301	9.5258836	-0.0028068661	-0.018014235	-0.017763006	-0.0057337288	-0.0031870259	0	934.4246901279339
0.25118864	3.0199517e-9	0.15	0.24074623	9.3570673	-0.0027822455	-0.018079737	-0.017809152	-0.0057098498	-0.0032082792	0	934.4413192131941
0.25118864	3.3113112e-9	0.15	0.23556953	9.1990679	-0.0027576263	-0.018145257	-0.017854404	-0.0056865087	-0.0032271785	0	934.458072978776
0.25118864	3.6307805e-9	0.15	0.23096229	9.0507839	-0.0027330091	-0.018210794	-0.017898795	-0.0056636466	-0.0032439595	0	934.4749462100922
0.25118864	3.9810717e-9	0.15	0.22686844	8.9111931	-0.002708395	-0.018276349	-0.017942363	-0.0056412105	-0.0032588424	0	934.4919325180985
0.25118864	4.3651583e-9	0.15	0.22323615	8.7793459	-0.0026837854	-0.018341917	-0.017985148	-0.0056191527	-0.0032720334	0	934.5090249500108
0.25118864	4.7863009e-9	0.15	0.22001756	8.6543546	-0.0026591829	-0.018407496	-0.018027186	-0.0055974303	-0.0032837269	0	934.5262159893067
0.25118864	5.2480746e-9	0.15	0.21716839	8.5353814	-0.0026345911	-0.018473079	-0.018068512	-0.005576005	-0.0032941085	0	934.5434973208328
0.25118864	5.7543994e-9	0.15	0.21464735	8.4216192	-0.0026100156	-0.018538656	-0.018109154	-0.0055548426	-0.0033033599	0	934.5608597368484
0.25118864	6.3095734e-9	0.15	0.2124154	8.312264	-0.0025854651	-0.018604211	-0.018149129	-0.0055339128	-0.0033116658	0	934.5782926672435
0.25118864	6.9183097e-9	0.15	0.21043454	8.2064728	-0.0025609532	-0.01866972	-0.01818844	-0.0055131892	-0.003319225	0	934.5957829111252
0.25118864	7.5857758e-9	0.15	0.20866508	8.1032562	-0.0025365025	-0.018735137	-0.018227065	-0.0054926491	-0.0033262794	0	934.6133123348819
0.25118864	8.3176377e-9	0.15	0.20705029	8.0008441	-0.0025121721	-0.018800331	-0.018264892	-0.0054722741	-0.0033332838	0	934.6308411948994
0.25118864	9.1201084e-9	0.15	0.20538263	7.8910735	-0.0024882975	-0.018864477	-0.018301106	-0.0054520567	-0.0033424131	0	934.6481691288668
0.25118864	1.e-8	0.15	0.20251239	7.7261045	-0.0024669267	-0.018922393	-0.018330531	-0.0054320447	-0.0033665048	0	934.6641013854849
0.25118864	1.0964782e-8	0.15	0.19648649	7.4245443	-0.0024517619	-0.018964745	-0.018343834	-0.0054124618	-0.0034275427	0	934.676474850427
0.25118864	1.2022644e-8	0.15	0.18836005	7.0322172	-0.002441363	-0.018995537	-0.018345015	-0.005393591	-0.0035135588	0	934.6860788525435
0.25118864	1.3182567e-8	0.15	0.18001371	6.6293175	-0.0024325124	-0.019023598	-0.018342894	-0.0053755391	-0.0036032203	0	934.6946934923462
0.25118864	1.4454398e-8	0.15	0.1726104	6.2651713	-0.0024228317	-0.01905629	-0.01834482	-0.0053582677	-0.0036833018	0	934.7035177022003
0.25118864	1.5848932e-8	0.15	0.16741468	5.9929494	-0.0024091557	-0.019104754	-0.018361917	-0.0053416264	-0.0037394378	0	934.7139576356087
0.25118864	1.7378008e-8	0.15	0.16542402	5.8540801	-0.0023885765	-0.019179456	-0.018404631	-0.0053253355	-0.0037602731	0	934.7272732497053
0.25118864	1.9054607e-8	0.15	0.16502781	5.7798247	-0.0023645288	-0.019267275	-0.018459816	-0.0053091439	-0.0037639333	0	934.7420901482965
0.25118864	2.0892961e-8	0.15	0.16495137	5.7161591	-0.0023399618	-0.019357087	-0.018516323	-0.0052929715	-0.0037647816	0	934.7572086473651
0.25118864	2.2908677e-8	0.15	0.16499075	5.6545244	-0.0023153431	-0.019447132	-0.018572361	-0.0052768006	-0.0037650884	0	934.7724418203848
0.25118864	2.5118864e-8	0.15	0.16512213	5.5939943	-0.0022907189	-0.019537237	-0.018627728	-0.0052606212	-0.0037650915	0	934.7877747282662
0.25118864	2.7542287e-8	0.15	0.16533997	5.5344031	-0.0022660938	-0.019627386	-0.018682373	-0.0052444246	-0.0037648264	0	934.8032102366838
0.25118864	3.0199517e-8	0.15	0.16564101	5.4756696	-0.0022414685	-0.019717576	-0.018736259	-0.0052282027	-0.0037643066	0	934.8187529025297
0.25118864	3.3113112e-8	0.15	0.16602272	5.4177291	-0.0022168428	-0.019807811	-0.018789352	-0.0052119472	-0.0037635413	0	934.8344077055
0.25118864	3.6307805e-8	0.15	0.16648298	5.3605246	-0.0021922168	-0.01989809	-0.018841614	-0.0051956505	-0.0037625379	0	934.8501799071607
0.25118864	3.9810717e-8	0.15	0.16702003	5.3040055	-0.0021675906	-0.019988416	-0.018893008	-0.0051793048	-0.0037613024	0	934.8660746281432
0.25118864	4.3651583e-8	0.15	0.16763245	5.2481265	-0.0021429641	-0.02007879	-0.018943492	-0.0051629028	-0.0037598394	0	934.8820978816657
0.25118864	4.7863009e-8	0.15	0.16831908	5.1928467	-0.0021183372	-0.020169213	-0.018993028	-0.0051464372	-0.0037581526	0	934.8982551172069
0.25118864	5.2480746e-8	0.15	0.16907901	5.1381293	-0.0020937101	-0.020259687	-0.019041574	-0.0051299006	-0.0037562445	0	934.9145520661158
0.25118864	5.7543994e-8	0.15	0.16991153	5.0839411	-0.0020690825	-0.020350214	-0.019089086	-0.0051132859	-0.0037541168	0	934.930995211393
0.25118864	6.3095734e-8	0.15	0.17081614	5.0302515	-0.0020444546	-0.020440795	-0.019135522	-0.0050965862	-0.0037517707	0	934.9475902843874
0.25118864	6.9183097e-8	0.15	0.1717925	4.977033	-0.0020198262	-0.020531431	-0.019180836	-0.0050797942	-0.0037492064	0	934.964343956013
0.25118864	7.5857758e-8	0.15	0.17284041	4.9242601	-0.0019951974	-0.020622126	-0.019224985	-0.005062903	-0.0037464238	0	934.9812621925095
0.25118864	8.3176377e-8	0.15	0.17395985	4.8719093	-0.0019705681	-0.02071288	-0.019267921	-0.0050459056	-0.0037434222	0	934.9983518527041
0.25118864	9.1201084e-8	0.15	0.17515088	4.8199591	-0.0019459383	-0.020803696	-0.019309598	-0.0050287949	-0.0037402001	0	935.0156194195976
0.25118864	1.e-7	0.15	0.17641372	4.7683893	-0.0019213079	-0.020894576	-0.019349967	-0.005011564	-0.0037367561	0	935.0330718929522
0.25118864	1.0964782e-7	0.15	0.17774869	4.7171812	-0.0018966769	-0.020985521	-0.01938898	-0.0049942057	-0.0037330881	0	935.050716037638
0.25118864	1.2022644e-7	0.15	0.17915623	4.6663175	-0.0018720452	-0.021076535	-0.019426586	-0.004976713	-0.0037291936	0	935.0685591352868
0.25118864	1.3182567e-7	0.15	0.18063689	4.6157817	-0.0018474128	-0.021167619	-0.019462735	-0.0049590788	-0.0037250699	0	935.0866082326387
0.25118864	1.4454398e-7	0.15	0.18219133	4.5655587	-0.0018227795	-0.021258775	-0.019497374	-0.0049412958	-0.0037207138	0	935.104870987151
0.25118864	1.5848932e-7	0.15	0.18382029	4.5156342	-0.0017981453	-0.021350007	-0.01953045	-0.0049233567	-0.0037161219	0	935.1233548683686
0.25118864	1.7378008e-7	0.15	0.18552465	4.4659944	-0.0017735102	-0.021441316	-0.019561908	-0.0049052543	-0.0037112905	0	935.1420676277052
0.25118864	1.9054607e-7	0.15	0.18730536	4.4166268	-0.001748874	-0.021532705	-0.019591693	-0.0048869811	-0.0037062155	0	935.1610172044885
0.25118864	2.0892961e-7	0.15	0.18916351	4.3675193	-0.0017242366	-0.021624178	-0.019619748	-0.0048685296	-0.0037008926	0	935.1802117259584
0.25118864	2.2908677e-7	0.15	0.19110028	4.3186605	-0.0016995979	-0.021715736	-0.019646013	-0.0048498921	-0.0036953173	0	935.1996597421597
0.25118864	2.5118864e-7	0.15	0.19311693	4.2700397	-0.0016749578	-0.021807384	-0.019670429	-0.0048310608	-0.0036894846	0	935.2193696622023
0.25118864	2.7542287e-7	0.15	0.19521487	4.2216469	-0.0016503162	-0.021899123	-0.019692934	-0.0048120278	-0.0036833892	0	935.2393503180008
0.25118864	3.0199517e-7	0.15	0.19739559	4.1734723	-0.001625673	-0.021990958	-0.019713465	-0.0047927851	-0.0036770257	0	935.2596106824037
0.25118864	3.3113112e-7	0.15	0.19966069	4.1255067	-0.0016010279	-0.022082891	-0.019731957	-0.0047733246	-0.0036703886	0	935.2801601980432
0.25118864	3.6307805e-7	0.15	0.20201188	4.0777417	-0.0015763807	-0.022174926	-0.019748343	-0.0047536378	-0.0036634716	0	935.301008495464
0.25118864	3.9810717e-7	0.15	0.204451	4.0301691	-0.0015517314	-0.022267067	-0.019762554	-0.0047337162	-0.0036562683	0	935.3221652991674
0.25118864	4.3651583e-7	0.15	0.20697998	3.982781	-0.0015270796	-0.022359317	-0.019774521	-0.0047135511	-0.0036487722	0	935.3436407094811
0.25118864	4.7863009e-7	0.15	0.20960085	3.9355702	-0.0015024252	-0.022451681	-0.019784171	-0.0046931337	-0.0036409764	0	935.365445108602
0.25118864	5.2480746e-7	0.15	0.2123158	3.8885296	-0.0014777679	-0.022544163	-0.01979143	-0.0046724547	-0.0036328735	0	935.3875892075752
0.25118864	5.7543994e-7	0.15	0.21512709	3.8416527	-0.0014531074	-0.022636767	-0.01979622	-0.0046515049	-0.003624456	0	935.4100842811847
0.25118864	6.3095734e-7	0.15	0.21803712	3.7949332	-0.0014284434	-0.022729498	-0.019798464	-0.0046302746	-0.003615716	0	935.4329414632804
0.25118864	6.9183097e-7	0.15	0.22104842	3.7483652	-0.0014037755	-0.02282236	-0.01979808	-0.0046087542	-0.0036066453	0	935.4561726863418
0.25118864	7.5857758e-7	0.15	0.2241636	3.701943	-0.0013791035	-0.022915358	-0.019794985	-0.0045869335	-0.0035972354	0	935.4797898358706
0.25118864	8.3176377e-7	0.15	0.22738544	3.6556613	-0.0013544269	-0.023008498	-0.019789094	-0.0045648023	-0.0035874774	0	935.5038053611081
0.25118864	9.1201084e-7	0.15	0.23071683	3.609515	-0.0013297452	-0.023101785	-0.019780318	-0.0045423498	-0.0035773619	0	935.528232275034
0.25118864	1.e-6	0.15	0.23416076	3.5634994	-0.001305058	-0.023195225	-0.019768566	-0.0045195654	-0.0035668796	0	935.5530837785413
0.25118864	1.0964782e-6	0.15	0.23772039	3.51761	-0.0012803648	-0.023288824	-0.019753745	-0.0044964376	-0.0035560201	0	935.5783734483499
0.25118864	1.2022644e-6	0.15	0.241399	3.4718423	-0.0012556649	-0.023382588	-0.01973576	-0.0044729551	-0.0035447734	0	935.6041153309613
0.25118864	1.3182567e-6	0.15	0.2452	3.4261925	-0.0012309577	-0.023476524	-0.019714511	-0.004449106	-0.0035331286	0	935.6303240835952
0.25118864	1.4454398e-6	0.15	0.24912694	3.3806565	-0.0012062425	-0.02357064	-0.019689896	-0.0044248782	-0.0035210746	0	935.657014739297
0.25118864	1.5848932e-6	0.15	0.25318353	3.3352309	-0.0011815185	-0.023664942	-0.019661812	-0.0044002591	-0.0035085999	0	935.6842025660037
0.25118864	1.7378008e-6	0.15	0.25737361	3.2899121	-0.001156785	-0.023759439	-0.01963015	-0.0043752359	-0.0034956924	0	935.7119035833047
0.25118864	1.9054607e-6	0.15	0.26170117	3.244697	-0.0011320409	-0.023854138	-0.0195948	-0.0043497951	-0.0034823397	0	935.7401343275502
0.25118864	2.0892961e-6	0.15	0.26617038	3.1995825	-0.0011072853	-0.02394905	-0.019555647	-0.0043239233	-0.0034685291	0	935.7689118518509
0.25118864	2.2908677e-6	0.15	0.27078554	3.1545658	-0.001082517	-0.024044182	-0.019512575	-0.0042976063	-0.0034542471	0	935.7982536321226
0.25118864	2.5118864e-6	0.15	0.27555115	3.1096442	-0.0010577348	-0.024139545	-0.019465464	-0.0042708294	-0.0034394798	0	935.8281777080199
0.25118864	2.7542287e-6	0.15	0.28047185	3.0648152	-0.0010329373	-0.024235149	-0.019414188	-0.0042435779	-0.0034242131	0	935.8587031527196
0.25118864	3.0199517e-6	0.15	0.28555248	3.0200766	-0.0010081232	-0.024331006	-0.019358621	-0.0042158362	-0.0034084321	0	935.8898489454416
0.25118864	3.3113112e-6	0.15	0.29079805	2.9754263	-0.00098329081	-0.024427127	-0.019298632	-0.0041875884	-0.0033921213	0	935.9216351365103
0.25118864	3.6307805e-6	0.15	0.29621378	2.9308621	-0.00095843832	-0.024523524	-0.019234087	-0.0041588181	-0.0033752651	0	935.9540823118028
0.25118864	3.9810717e-6	0.15	0.30180507	2.8863826	-0.00093356383	-0.024620212	-0.019164845	-0.0041295084	-0.0033578467	0	935.9872121283006
0.25118864	4.3651583e-6	0.15	0.30757753	2.8419859	-0.00090866521	-0.024717204	-0.019090767	-0.0040996417	-0.0033398494	0	936.021046177215
0.25118864	4.7863009e-6	0.15	0.313537	2.7976707	-0.00088374012	-0.024814516	-0.019011704	-0.0040692001	-0.0033212551	0	936.0556076564146
0.25118864	5.2480746e-6	0.15	0.31968951	2.7534358	-0.00085878603	-0.024912163	-0.018927508	-0.0040381648	-0.0033020459	0	936.0909198013507
0.25118864	5.7543994e-6	0.15	0.32604137	2.7092801	-0.00083380015	-0.025010163	-0.018838024	-0.0040065167	-0.0032822026	0	936.1270070783048
0.25118864	6.3095734e-6	0.15	0.33259909	2.6652028	-0.0008087794	-0.025108535	-0.018743093	-0.0039742359	-0.0032617057	0	936.163894789772
0.25118864	6.9183097e-6	0.15	0.33936946	2.6212032	-0.00078372043	-0.025207298	-0.018642554	-0.0039413019	-0.0032405348	0	936.2016087737993
0.25118864	7.5857758e-6	0.15	0.34635952	2.5772809	-0.00075861956	-0.025306473	-0.01853624	-0.0039076936	-0.0032186689	0	936.2401760240991
0.25118864	8.3176377e-6	0.15	0.3535766	2.5334356	-0.00073347276	-0.025406084	-0.018423979	-0.0038733889	-0.0031960861	0	936.2796245679058
0.25118864	9.1201084e-6	0.15	0.36102831	2.4896673	-0.00070827561	-0.025506154	-0.018305596	-0.0038383653	-0.0031727638	0	936.3199832216892
0.25118864	0.00001	0.15	0.36872256	2.4459763	-0.00068302326	-0.025606709	-0.018180911	-0.0038025994	-0.0031486785	0	936.3612819106048
0.25118864	0.000010964782	0.15	0.37666759	2.402363	-0.00065771041	-0.025707779	-0.018049741	-0.0037660671	-0.0031238059	0	936.4035514054185
0.25118864	0.000012022644	0.15	0.38487198	2.3588282	-0.00063233124	-0.025809392	-0.017911896	-0.0037287432	-0.003098121	0	936.4468239520129
0.25118864	0.000013182567	0.15	0.39334464	2.3153729	-0.0006068794	-0.025911581	-0.017767183	-0.0036906021	-0.0030715974	0	936.4911327170448
0.25118864	0.000014454398	0.15	0.40209488	2.2719985	-0.0005813479	-0.026014382	-0.017615404	-0.0036516169	-0.0030442082	0	936.536512173167
0.25118864	0.000015848932	0.15	0.41113236	2.2287065	-0.00055572909	-0.026117832	-0.017456357	-0.0036117599	-0.003015925	0	936.5829979768845
0.25118864	0.000017378008	0.15	0.42046719	2.1854991	-0.0005300146	-0.026221972	-0.017289836	-0.0035710025	-0.0029867189	0	936.6306270249285
0.25118864	0.000019054607	0.15	0.43010989	2.1423784	-0.00050419528	-0.026326845	-0.017115629	-0.003529315	-0.0029565596	0	936.6794377925002
0.25118864	0.000020892961	0.15	0.44007144	2.0993474	-0.00047826108	-0.0264325	-0.01693352	-0.0034866667	-0.0029254155	0	936.7294701641484
0.25118864	0.000022908677	0.15	0.4503633	2.0564093	-0.000452201	-0.026538986	-0.016743289	-0.0034430258	-0.0028932539	0	936.7807654807492
0.25118864	0.000025118864	0.15	0.45991457	2.0135416	-0.00043108544	-0.026627846	-0.016526197	-0.0033995122	-0.0028612007	0	936.8312007474153
0.25118864	0.000027542287	0.15	0.47079908	1.970798	-0.00040522652	-0.026734381	-0.016317259	-0.0033538972	-0.0028270131	0	936.8849435284005
0.25118864	0.000030199517	0.15	0.4820414	1.9281594	-0.00037924934	-0.026841756	-0.016099342	-0.0033071978	-0.0027917129	0	936.9400628759756
0.25118864	0.000033113112	0.15	0.49365424	1.8856309	-0.0003531427	-0.026950023	-0.015872191	-0.0032593783	-0.0027552632	0	936.9966052516472
0.25118864	0.000036307805	0.15	0.50565085	1.8432185	-0.00032689431	-0.027059241	-0.015635548	-0.0032104017	-0.0027176254	0	937.0546185638526
0.25118864	0.000039810717	0.15	0.51804507	1.8009285	-0.00030049078	-0.027169471	-0.015389149	-0.0031602298	-0.0026787595	0	937.1141526001593
0.25118864	0.000043651583	0.15	0.53085131	1.7587681	-0.00027391744	-0.02728078	-0.015132724	-0.0031088228	-0.0026386239	0	937.1752591963882
0.25118864	0.000047863009	0.15	0.54408467	1.7167453	-0.00024715832	-0.027393241	-0.014866	-0.0030561396	-0.0025971753	0	937.2379918325987
0.25118864	0.000052480746	0.15	0.55776089	1.6748687	-0.00022019593	-0.027506931	-0.014588697	-0.0030021376	-0.0025543688	0	937.3024064035335
0.25118864	0.000057543994	0.15	0.57189642	1.633148	-0.00019301122	-0.027621935	-0.01430053	-0.0029467726	-0.0025101577	0	937.3685609743313
0.25118864	0.000063095734	0.15	0.58650847	1.5915936	-0.00016558339	-0.027738342	-0.01400121	-0.0028899987	-0.0024644931	0	937.4365158181095
0.25118864	0.000069183097	0.15	0.60161503	1.5502171	-0.00013788978	-0.027856252	-0.013690443	-0.0028317683	-0.0024173246	0	937.5063336602502
0.25118864	0.000075857758	0.15	0.61723494	1.5090309	-0.0001099057	-0.02797577	-0.013367931	-0.0027720321	-0.0023685993	0	937.5780796971937
0.25118864	0.000083176377	0.15	0.63338789	1.4680487	-0.000081604224	-0.028097011	-0.013033372	-0.0027107387	-0.0023182623	0	937.6518217899868
0.25118864	0.000091201084	0.15	0.65009453	1.4272854	-0.000052956082	-0.028220097	-0.01268646	-0.0026478349	-0.0022662564	0	937.7276305657568
0.25118864	0.0001	0.15	0.66737646	1.3867569	-0.000023929437	-0.028345163	-0.012326884	-0.0025832653	-0.002212522	0	937.8055797681693
0.25118864	0.00010964782	0.15	0.68525632	1.3464806	5.5103137e-6	-0.028472351	-0.011954331	-0.0025169726	-0.002156997	0	937.8857460213155
0.25118864	0.00012022644	0.15	0.70375781	1.3064752	0.000035400779	-0.028601817	-0.011568485	-0.0024488969	-0.0020996165	0	937.9682091966122
0.25118864	0.00013182567	0.15	0.7229058	1.2667608	0.000065782712	-0.028733728	-0.011169028	-0.002378976	-0.0020403131	0	938.0530524015273
0.25118864	0.00014454398	0.15	0.7427263	1.227359	0.000096700346	-0.028868263	-0.010755639	-0.0023071454	-0.0019790164	0	938.1403624362082
0.25118864	0.00015848932	0.15	0.76324662	1.1882927	0.00012820152	-0.029005616	-0.010327994	-0.0022333377	-0.0019156529	0	938.2302299113979
0.25118864	0.00017378008	0.15	0.78449531	1.1495866	0.00016033803	-0.029145996	-0.0098857698	-0.002157483	-0.0018501461	0	938.3227490429517
0.25118864	0.00019054607	0.15	0.80650236	1.1112667	0.00019316578	-0.029289627	-0.0094286404	-0.0020795084	-0.0017824162	0	938.4180183010762
0.25118864	0.00020892961	0.15	0.82929912	1.0733606	0.00022674515	-0.029436747	-0.0089562799	-0.0019993381	-0.0017123799	0	938.5161403473793
0.25118864	0.00022908677	0.15	0.85291841	1.0358974	0.00026114115	-0.029587617	-0.0084683626	-0.001916893	-0.0016399504	0	938.6172221654697
0.25118864	0.00025118864	0.15	0.87739459	0.99890756	0.00029642374	-0.029742511	-0.0079645622	-0.0018320909	-0.0015650374	0	938.7213754743655
0.25118864	0.00027542287	0.15	0.90276359	0.96242285	0.00033266808	-0.029901725	-0.0074445529	-0.0017448459	-0.0014875464	0	938.8287168083566
0.25118864	0.00030199517	0.15	0.92906298	0.92647632	0.00036995474	-0.030065574	-0.00690801	-0.0016550689	-0.0014073795	0	938.9393676297542
0.25118864	0.00033113112	0.15	0.95633194	0.89110205	0.00040836998	-0.030234395	-0.0063546096	-0.0015626665	-0.0013244343	0	939.0534546342474
0.25118864	0.00036307805	0.15	0.98461139	0.85633493	0.00044800595	-0.030408545	-0.0057840287	-0.0014675419	-0.0012386045	0	939.171109924725
0.25118864	0.00039810717	0.15	1.0139439	0.82221045	0.00048896094	-0.030588406	-0.0051959462	-0.0013695938	-0.0011497794	0	939.2924711052299
0.25118864	0.00043651583	0.15	1.044374	0.78876441	0.00053133945	-0.030774379	-0.0045900412	-0.0012687169	-0.0010578442	0	939.4176815863191
0.25118864	0.00047863009	0.15	1.0759477	0.7560325	0.00057525251	-0.030966893	-0.0039659941	-0.0011648013	-0.00096267934	0	939.5468907306968
0.25118864	0.00052480746	0.15	1.1087129	0.72405	0.00062081769	-0.031166398	-0.0033234862	-0.0010577326	-0.00086416108	0	939.6802539189825
0.25118864	0.00057543994	0.15	1.1427192	0.69285127	0.00066815931	-0.03137337	-0.0026621991	-0.00094739166	-0.00076216093	0	939.8179328315816
0.25118864	0.00063095734	0.15	1.1780182	0.66246928	0.0007174084	-0.031588306	-0.0019818132	-0.00083365419	-0.00065654595	0	939.9600956225049
0.25118864	0.00069183097	0.15	1.214663	0.63293513	0.00076870285	-0.031811733	-0.001282009	-0.00071639093	-0.00054717852	0	940.106916877088
0.25118864	0.00075857758	0.15	1.2527084	0.60427749	0.00082218742	-0.032044197	-0.00056246407	-0.00059546726	-0.00043391634	0	940.2585780484192
0.25118864	0.00083176377	0.15	1.2922112	0.57652208	0.00087801375	-0.032286272	0.000177146	-0.00047074312	-0.00031661249	0	940.4152673328472
0.25118864	0.00091201084	0.15	1.3332298	0.54969115	0.00093634035	-0.032538554	0.00093715011	-0.00034207281	-0.00019511531	0	940.5771800143326
0.25118864	0.001	0.15	1.3758241	0.52380301	0.00099733261	-0.032801663	0.001717882	-0.00020930482	-0.000069268403	0	940.7445185231693
0.25118864	0.0010964782	0.15	1.420056	0.49887159	0.0010611629	-0.033076244	0.0025196815	-0.000072281637	0.000061089478	0	940.9174927061108
0.25118864	0.0012022644	0.15	1.4659893	0.47490612	0.0011280107	-0.033362966	0.0033428946	0.000069160343	0.0001961244	0	941.0963199583784
0.25118864	0.0013182567	0.15	1.5136893	0.45191087	0.0011980626	-0.033662519	0.0041878756	0.00021519114	0.00033600751	0	941.2812255266715
0.25118864	0.0014454398	0.15	1.5632237	0.42988503	0.0012715123	-0.033975621	0.0050549877	0.00036598717	0.00048091503	0	941.4724425923182
0.25118864	0.0015848932	0.15	1.6146621	0.40882272	0.0013485617	-0.034303012	0.0059446019	0.0005217317	0.00063102865	0	941.6702131403747
0.25118864	0.0017378008	0.15	1.6680765	0.38871311	0.0014294205	-0.03464546	0.0068570978	0.00068261487	0.0007865356	0	941.8747876965459
0.25118864	0.0019054607	0.15	1.7235416	0.3695407	0.0015143075	-0.035003759	0.0077928643	0.00084883402	0.0009476291	0	942.0864266472748
0.25118864	0.0020892961	0.15	1.7811351	0.35128572	0.0016034508	-0.035378736	0.0087522953	0.001020594	0.0011145086	0	942.3053998216369
0.25118864	0.0022908677	0.15	1.8409381	0.33392458	0.0016970893	-0.035771246	0.0097357915	0.0011981073	0.0012873805	0	942.5319881543694
0.25118864	0.0025118864	0.15	1.9030356	0.31743045	0.0017954737	-0.036182184	0.010743756	0.0013815947	0.0014664583	0	942.7664840053244
0.25118864	0.0027542287	0.15	1.9675172	0.30177384	0.0018988682	-0.036612485	0.011776593	0.0015712854	0.0016519634	0	943.0091925735147
0.25118864	0.0030199517	0.15	2.0344778	0.28692327	0.002007552	-0.037063127	0.012834702	0.0017674179	0.0018441256	0	943.2604324890394
0.25118864	0.0033113112	0.15	2.1040181	0.27284581	0.0021218221	-0.037535144	0.01391847	0.00197024	0.0020431841	0	943.5205373445763
0.25118864	0.0036307805	0.15	2.1762461	0.25950767	0.0022419951	-0.038029627	0.015028274	0.0021800098	0.002249388	0	943.7898577389356
0.25118864	0.0039810717	0.15	2.2512779	0.24687468	0.0023684112	-0.03854774	0.016164463	0.0023969963	0.0024629971	0	944.0687624984953
0.25118864	0.0043651583	0.15	2.3292389	0.23491277	0.0025014369	-0.039090721	0.017327358	0.0026214805	0.0026842834	0	944.3576412140281
0.25118864	0.0047863009	0.15	2.4102656	0.22358826	0.0026414699	-0.039659903	0.018517232	0.0028537562	0.0029135315	0	944.6569060258745
0.25118864	0.0052480746	0.15	2.4945074	0.21286818	0.0027889439	-0.040256725	0.019734307	0.003094131	0.0031510404	0	944.9669957110532
0.25118864	0.0057543994	0.15	2.5821285	0.20272045	0.0029443344	-0.040882747	0.020978731	0.0033429281	0.0033971245	0	945.2883778912385
0.25118864	0.0063095734	0.15	2.6733101	0.19311406	0.0031081656	-0.041539674	0.022250563	0.0036004874	0.0036521156	0	945.6215534017407
0.25118864	0.0069183097	0.15	2.7682539	0.18401916	0.0032810181	-0.042229374	0.023549753	0.0038671677	0.0039163644	0	945.9670607074615
0.25118864	0.0075857758	0.15	2.8671846	0.17540709	0.0034635386	-0.042953906	0.024876117	0.0041433486	0.0041902429	0	946.3254814933092
0.25118864	0.0083176377	0.15	2.970354	0.16725043	0.0036564489	-0.043715543	0.026229314	0.0044294331	0.0044741467	0	946.697445878786
0.25118864	0.0091201084	0.15	3.0780453	0.159523	0.0038605594	-0.044516811	0.027608812	0.0047258501	0.0047684979	0	947.0836403103364
0.25118864	0.01	0.15	3.1905773	0.15219985	0.0040767806	-0.045360516	0.029013862	0.0050330584	0.0050737484	0	947.4848147020443
0.25118864	0.010964782	0.15	3.3083104	0.14525721	0.0043061374	-0.046249776	0.030443464	0.0053515498	0.0053903837	0	947.9017910796348
0.25118864	0.012022644	0.15	3.4316511	0.13867248	0.0045497843	-0.047188059	0.031896338	0.0056818535	0.005718927	0	948.3354737747571
0.25118864	0.013182567	0.15	3.5610585	0.13242416	0.0048090193	-0.048179201	0.033370899	0.0060245415	0.0060599445	0	948.7868589615737
0.25118864	0.014454398	0.15	3.6970493	0.12649192	0.0050852976	-0.049227434	0.034865241	0.0063802331	0.0064140502	0	949.257045273848
0.25118864	0.015848932	0.15	3.8402019	0.12085758	0.0053802397	-0.050337366	0.036377153	0.0067496017	0.0067819124	0	949.7472436703816
0.25118864	0.017378008	0.15	3.991148	0.1155188	0.0056956007	-0.0515138	0.037904303	0.0071333799	0.0071642633	0	950.2587745223608
0.25118864	0.019054607	0.15	4.1503301	0.11069415	0.0060324898	-0.052758267	0.03944771	0.0075323589	0.0075619525	0	950.7928236082356
0.25118864	0.020892961	0.15	4.3129981	0.10908314	0.0063757608	-0.054001554	0.041079211	0.0079472242	0.0079763871	0	951.3452844167091
0.25118864	0.022908677	0.15	4.4562657	0.11409726	0.0066546001	-0.054941583	0.043103598	0.0083772386	0.008407742	0	951.892578743236
0.25118864	0.025118864	0.15	4.5955582	0.11437299	0.0069179098	-0.055808962	0.045293055	0.0088207148	0.0088512919	0	952.448546103552
0.25118864	0.027542287	0.15	4.7813341	0.10939528	0.007326666	-0.057306057	0.046948099	0.009280002	0.0093092484	0	953.0658525649385
0.25118864	0.030199517	0.15	4.9864785	0.1049856	0.0077918037	-0.059010758	0.04849381	0.0097586569	0.0097867243	0	953.7207243053442
0.25118864	0.033113112	0.15	5.2045516	0.10073558	0.0082920484	-0.060820849	0.050035468	0.01025805	0.010284981	0	954.4080101577379
0.25118864	0.036307805	0.15	5.4360856	0.096625042	0.0088286229	-0.062735233	0.05157733	0.010779477	0.01080531	0	955.1294589820839
0.25118864	0.039810717	0.15	5.681232	0.092639156	0.0094016442	-0.064747998	0.053128566	0.011324269	0.011349036	0	955.8864730796666
0.25118864	0.043651583	0.15	5.939507	0.088762743	0.010009465	-0.066846174	0.054705505	0.011893743	0.011917474	0	956.6798060288754
0.25118864	0.047863009	0.15	5.8373448	0.082431382	0.010066721	-0.067830108	0.057511266	0.012480597	0.012502635	0	957.1290311549523
0.25118864	0.052480746	0.15	5.3970633	0.074161892	0.0095840582	-0.068003904	0.061245315	0.013026643	0.013046469	0	957.2017953706786
0.25118864	0.057543994	0.15	4.9955218	0.066620028	0.0091438643	-0.068628091	0.064650808	0.013524642	0.013542453	0	957.2681569183273
0.25118864	0.063095734	0.15	4.6293116	0.059741765	0.0087424026	-0.069677558	0.067756654	0.013978823	0.013994795	0	957.3286792082607
0.25118864	0.069183097	0.15	4.2953239	0.053468715	0.0083762653	-0.071129855	0.07058922	0.014393041	0.014407335	0	957.3838764176162
0.25118864	0.075857758	0.15	3.9907235	0.047747626	0.008042344	-0.072964977	0.07317255	0.014770812	0.014783577	0	957.4342166378517
0.25118864	0.083176377	0.15	3.7129247	0.04252993	0.0077378043	-0.075165158	0.075528576	0.015115343	0.015126714	0	957.4801277470273
0.25118864	0.091201084	0.15	3.7545558	0.038270448	0.0078187955	-0.077900626	0.077491363	0.015446444	0.015456675	0	957.8328492703965
0.25118864	0.1	0.15	4.6130116	0.035343988	0.0089027029	-0.081161957	0.079074766	0.015854188	0.015863637	0	959.0744076951281
0.25118864	0.10964782	0.15	5.7950959	0.032598009	0.010416878	-0.084483247	0.080749253	0.016361418	0.016370133	0	960.7330676475548
0.25118864	0.12022644	0.15	7.368722	0.030025349	0.012477579	-0.087929052	0.08245498	0.017003134	0.017011161	0	962.9096272017291
0.25118864	0.13182567	0.15	9.4093201	0.0276197	0.015218482	-0.091580132	0.084116041	0.017821343	0.017828727	0	965.7189859922157
0.25118864	0.14454398	0.15	12.003069	0.025375595	0.01879444	-0.095529739	0.085644192	0.018865939	0.018872723	0	969.294201881446
0.25118864	0.15848932	0.15	15.251559	0.023288368	0.023386962	-0.099878558	0.086943912	0.02019598	0.020202206	0	973.792352203264
0.25118864	0.17378008	0.15	19.276999	0.021354091	0.029210624	-0.10472873	0.087918385	0.021881449	0.021887158	0	979.4014003883724
0.25118864	0.19054607	0.15	24.226336	0.019569436	0.036518691	-0.11017716	0.088476194	0.024005499	0.024010731	0	986.3464216182983
0.25118864	0.20892961	0.15	30.272104	0.017931469	0.045605409	-0.11630812	0.088538728	0.026666955	0.026671749	0	994.8928002132593
0.25118864	0.22908677	0.15	37.607485	0.016437313	0.056801853	-0.12318508	0.088048362	0.029982637	0.029987031	0	1005.3434814035122
0.25118864	0.25118864	0.15	46.433522	0.015083713	0.070462493	-0.13084216	0.086976988	0.034088826	0.034092858	0	1018.0275515232423
0.25118864	0.27542287	0.15	56.937988	0.013866519	0.086941369	-0.13927655	0.085333634	0.039141065	0.039144772	0	1033.2789266483614
0.25118864	0.30199517	0.15	69.268364	0.012780181	0.10656005	-0.14844396	0.08316898	0.04531156	0.045314977	0	1051.4068844446938
0.25118864	0.33113112	0.15	83.504824	0.011817407	0.12957374	-0.15825969	0.080574339	0.052783877	0.052787036	0	1072.664074927442
0.25118864	0.36307805	0.15	99.641107	0.010969111	0.15614446	-0.16860652	0.077673725	0.061745307	0.061748239	0	1097.2202053027752
0.25118864	0.39810717	0.15	117.57977	0.010224694	0.18632927	-0.17934865	0.074609955	0.072378031	0.072380765	0	1125.1490150552531
0.25118864	0.43651583	0.15	137.14353	0.0095726134	0.22008628	-0.19034837	0.071527995	0.084850613	0.084853172	0	1156.431576546944
0.25118864	0.47863009	0.15	158.09867	0.009001078	0.25729517	-0.20148128	0.068559698	0.099311248	0.099313654	0	1190.973423951449
0.25118864	0.52480746	0.15	180.18342	0.0084986959	0.29778481	-0.21264702	0.065813121	0.11588361	0.11588589	0	1228.628998442377
0.25118864	0.57543994	0.15	203.13421	0.0080549649	0.34136051	-0.2237742	0.063367588	0.13466545	0.1346676	0	1269.2265555540096
0.25118864	0.63095734	0.15	226.70572	0.0076605583	0.3878262	-0.23482027	0.061273835	0.15572941	0.15573146	0	1312.5890251763126
0.25118864	0.69183097	0.15	250.68328	0.0073074305	0.43699963	-0.24576798	0.059557555	0.17912554	0.1791275	0	1358.5487925621283
0.25118864	0.75857758	0.15	274.88874	0.0069887905	0.48872104	-0.25662019	0.05822458	0.20488461	0.20488648	0	1406.9565746829094
0.25118864	0.83176377	0.15	299.1813	0.0066989952	0.54285702	-0.26739443	0.057266354	0.23302176	0.23302355	0	1457.685818287142
0.25118864	0.91201084	0.15	323.45531	0.0064334062	0.59930091	-0.278118	0.056664843	0.26354006	0.26354178	0	1510.633767716367
0.25118864	1.	0.15	347.63641	0.0061882379	0.65797141	-0.28882396	0.056396518	0.29643383	0.29643549	0	1565.7207202526613
0.25118864	1.0964782	0.15	371.67702	0.0059604126	0.71881012	-0.29954817	0.056435351	0.33169143	0.33169302	0	1622.888137028545
0.25118864	1.2022644	0.15	395.55178	0.0057474324	0.78177886	-0.31032722	0.05675491	0.36929766	0.3692992	0	1682.0964202502562
0.25118864	1.3182567	0.15	419.25346	0.0055472693	0.84685699	-0.32119704	0.057329732	0.4092358	0.40923728	0	1743.3225886660944
0.25118864	1.4454398	0.15	442.7892	0.0053582737	0.91403894	-0.33219207	0.058136145	0.45148911	0.45149054	0	1806.5580726884155
0.25118864	1.5848932	0.15	466.17742	0.0051790993	0.9833321	-0.34334491	0.059152692	0.49604215	0.49604354	0	1871.8067916670984
0.25118864	1.7378008	0.15	489.44521	0.0050086434	1.054755	-0.35468609	0.060360302	0.54288174	0.54288308	0	1939.0834679804605
0.25118864	1.9054607	0.15	512.62618	0.0048459977	1.1283356	-0.36624414	0.061742275	0.59199766	0.59199896	0	2008.4120182644851
0.25118864	2.0892961	0.15	535.75876	0.0046904098	1.2041104	-0.37804571	0.063284175	0.64338326	0.64338451	0	2079.8247021196407
0.25118864	2.2908677	0.15	558.88481	0.0045412523	1.2821231	-0.3901157	0.064973658	0.69703581	0.69703703	0	2153.360838852517
0.25118864	2.5118864	0.15	582.04853	0.0043979985	1.3624238	-0.40247753	0.066800285	0.75295684	0.75295802	0	2229.0660294687486
0.25118864	2.7542287	0.15	605.29566	0.0042602027	1.4450684	-0.41515331	0.068755321	0.81115226	0.8111534	0	2306.9915646058994
0.25118864	3.0199517	0.15	628.67279	0.0041274847	1.530118	-0.42816405	0.070831543	0.87163254	0.87163364	0	2387.193833734775
0.25118864	3.3113112	0.15	652.22689	0.0039995175	1.6176386	-0.44152986	0.073023067	0.93441271	0.93441377	0	2469.734018908099
0.25118864	3.6307805	0.15	676.00495	0.0038760174	1.7077005	-0.45527011	0.075325182	0.99951242	0.99951346	0	2554.6775076261215
0.25118864	3.9810717	0.15	700.05371	0.0037567362	1.8003783	-0.46940361	0.077734209	1.0669559	1.0669569	0	2642.0938729648137
0.25118864	4.3651583	0.15	724.41948	0.0036414549	1.8957505	-0.48394872	0.080247372	1.1367721	1.136773	0	2732.056479569139
0.25118864	4.7863009	0.15	749.14803	0.0035299782	1.9938994	-0.49892351	0.082862691	1.2089941	1.208995	0	2824.6423746164937
0.25118864	5.2480746	0.15	774.28449	0.0034221312	2.094911	-0.51434584	0.085578878	1.2836599	1.2836608	0	2919.932179202952
0.25118864	5.7543994	0.15	799.87337	0.0033177554	2.198875	-0.53023348	0.088395264	1.3608115	1.3608124	0	3018.0100780550256
0.25118864	6.3095734	0.15	825.95854	0.0032167062	2.3058846	-0.54660419	0.091311719	1.4404955	1.4404964	0	3118.9636203418104
0.25118864	6.9183097	0.15	852.58324	0.0031188511	2.4160365	-0.56347581	0.094328593	1.5227627	1.5227635	0	3222.8837113598324
0.25118864	7.5857758	0.15	879.79012	0.0030240674	2.529431	-0.58086629	0.097446667	1.607668	1.6076689	0	3329.864699583778
0.25118864	8.3176377	0.15	907.62134	0.002932241	2.6461719	-0.59879381	0.1006671	1.6952707	1.6952715	0	3440.004275240413
0.25118864	9.1201084	0.15	936.11859	0.0028432654	2.7663667	-0.6172768	0.1039914	1.7856338	1.7856346	0	3553.403654134543
0.25118864	10.	0.15	965.32319	0.0027570404	2.8901263	-0.636334	0.10742139	1.8788248	1.8788256	0	3670.16729098763