0.19054607	1.e-12	0.37	61.012972	1484.5857	-0.0044235134	-0.013683039	-0.013682411	-0.07442345	0.22665403	0	930.6526279504776
0.19054607	1.0964782e-12	0.37	55.64492	1354.0176	-0.0044048353	-0.013732289	-0.0137316	-0.068709636	0.20588833	0	930.6530772224409
0.19054607	1.2022644e-12	0.37	50.749201	1234.9379	-0.0043861572	-0.01378154	-0.013780785	-0.063498535	0.18694979	0	930.6535278849609
0.19054607	1.3182567e-12	0.37	46.284253	1126.3358	-0.0043674789	-0.013830795	-0.013829966	-0.058745912	0.16967765	0	930.653980125951
0.19054607	1.4454398e-12	0.37	42.212174	1027.2893	-0.0043488006	-0.013880051	-0.013879143	-0.054411426	0.15392527	0	930.6544337574977
0.19054607	1.5848932e-12	0.37	38.498396	936.95771	-0.0043301225	-0.013929309	-0.013928313	-0.050458286	0.13955895	0	930.6548896346054
0.19054607	1.7378008e-12	0.37	35.111392	854.57413	-0.0043114439	-0.013978571	-0.013977479	-0.046852935	0.12645672	0	930.6553473720526
0.19054607	1.9054607e-12	0.37	32.02241	779.43928	-0.0042927656	-0.014027834	-0.014026637	-0.043564774	0.11450735	0	930.6558076087435
0.19054607	2.0892961e-12	0.37	29.205227	710.91532	-0.0042740869	-0.0140771	-0.014075788	-0.040565892	0.10360941	0	930.6562706547352
0.19054607	2.2908677e-12	0.37	26.635929	648.4206	-0.0042554083	-0.014126369	-0.01412493	-0.037830835	0.093670394	0	930.6567367355226
0.19054607	2.5118864e-12	0.37	24.292704	591.42461	-0.00423673	-0.01417564	-0.014174062	-0.035336391	0.084605918	0	930.6572060108324
0.19054607	2.7542287e-12	0.37	22.155662	539.44353	-0.0042180513	-0.014224914	-0.014223184	-0.033061386	0.076339035	0	930.65767913836
0.19054607	3.0199517e-12	0.37	20.20666	492.03609	-0.0041993727	-0.014274191	-0.014272294	-0.030986513	0.068799569	0	930.6581563436013
0.19054607	3.3113112e-12	0.37	18.429153	448.79989	-0.004180694	-0.014323471	-0.014321391	-0.02909416	0.061923518	0	930.6586381621084
0.19054607	3.6307805e-12	0.37	16.808052	409.36791	-0.0041620151	-0.014372754	-0.014370473	-0.027368269	0.055652509	0	930.6591253831162
0.19054607	3.9810717e-12	0.37	15.329597	373.40543	-0.0041433365	-0.01442204	-0.014419539	-0.025794192	0.049933311	0	930.6596178844816
0.19054607	4.3651583e-12	0.37	13.981235	340.60718	-0.0041246578	-0.014471328	-0.014468586	-0.02435857	0.044717371	0	930.6601170849475
0.19054607	4.7863009e-12	0.37	12.751522	310.69476	-0.0041059792	-0.01452062	-0.014517614	-0.02304922	0.039960412	0	930.6606227966015
0.19054607	5.2480746e-12	0.37	11.630017	283.41426	-0.0040873002	-0.014569916	-0.014566619	-0.021855031	0.035622051	0	930.6611368797828
0.19054607	5.7543994e-12	0.37	10.6072	258.53412	-0.0040686216	-0.014619214	-0.0146156	-0.020765869	0.031665461	0	930.6616589304781
0.19054607	6.3095734e-12	0.37	9.6743898	235.84315	-0.004049943	-0.014668516	-0.014664553	-0.019772493	0.028057055	0	930.6621907150707
0.19054607	6.9183097e-12	0.37	8.8236664	215.14873	-0.004031264	-0.014717823	-0.014713477	-0.018866472	0.024766199	0	930.6627329570255
0.19054607	7.5857758e-12	0.37	8.0478085	196.27523	-0.0040125854	-0.014767132	-0.014762367	-0.01804012	0.02176496	0	930.6632866428862
0.19054607	8.3176377e-12	0.37	7.3402298	179.06243	-0.0039939064	-0.014816445	-0.014811221	-0.017286426	0.019027858	0	930.6638532195835
0.19054607	9.1201084e-12	0.37	6.6949239	163.36424	-0.0039752278	-0.014865762	-0.014860034	-0.016598995	0.01653166	0	930.6644336736612
0.19054607	1.e-11	0.37	6.1064126	149.04742	-0.0039565492	-0.014915083	-0.014908802	-0.015971995	0.014255174	0	930.6650297715017
0.19054607	1.0964782e-11	0.37	5.5697003	135.99045	-0.0039378702	-0.014964409	-0.014957523	-0.015400108	0.012179077	0	930.66564258421
0.19054607	1.2022644e-11	0.37	5.0802308	124.08251	-0.0039191916	-0.015013739	-0.015006188	-0.014878482	0.010285744	0	930.6662744888862
0.19054607	1.3182567e-11	0.37	4.6338491	113.22253	-0.0039005127	-0.015063073	-0.015054794	-0.014402694	0.008559103	0	930.6669271861433
0.19054607	1.4454398e-11	0.37	4.226766	103.31834	-0.003881834	-0.015112412	-0.015103335	-0.013968708	0.0069844968	0	930.6676022920344
0.19054607	1.5848932e-11	0.37	3.8555257	94.285891	-0.0038631551	-0.015161756	-0.015151803	-0.013572843	0.0055485587	0	930.6683029634985
0.19054607	1.7378008e-11	0.37	3.516977	86.048517	-0.0038444764	-0.015211104	-0.015200192	-0.013211743	0.0042390993	0	930.6690309105447
0.19054607	1.9054607e-11	0.37	3.2082458	78.536311	-0.0038257975	-0.015260457	-0.015248494	-0.012882347	0.0030450028	0	930.6697892901125
0.19054607	2.0892961e-11	0.37	2.9267116	71.685524	-0.0038071189	-0.015309816	-0.015296699	-0.012581861	0.0019561326	0	930.6705811088113
0.19054607	2.2908677e-11	0.37	2.6699843	65.438016	-0.0037884399	-0.01535918	-0.0153448	-0.012307739	0.00096324535	0	930.6714094578109
0.19054607	2.5118864e-11	0.37	2.4358848	59.740773	-0.0037697613	-0.015408549	-0.015392784	-0.012057657	0.000057912729	0	930.6722781047683
0.19054607	2.7542287e-11	0.37	2.2224258	54.545448	-0.0037510823	-0.015457924	-0.015440642	-0.011829496	-0.00076755071	0	930.6731909300884
0.19054607	3.0199517e-11	0.37	2.0277952	49.807957	-0.0037324037	-0.015507305	-0.015488359	-0.011621324	-0.0015201523	0	930.6741523967066
0.19054607	3.3113112e-11	0.37	1.8503409	45.4881	-0.0037137247	-0.015556692	-0.015535924	-0.011431375	-0.002206281	0	930.6751670803064
0.19054607	3.6307805e-11	0.37	1.6885565	41.549223	-0.0036950461	-0.015606085	-0.015583321	-0.011258042	-0.0028317618	0	930.6762397914622
0.19054607	3.9810717e-11	0.37	1.5410684	37.957905	-0.0036763672	-0.015655485	-0.015630534	-0.011099858	-0.0034019048	0	930.6773767500965
0.19054607	4.3651583e-11	0.37	1.4066247	34.683674	-0.0036576885	-0.015704891	-0.015677545	-0.010955482	-0.0039215506	0	930.6785837439322
0.19054607	4.7863009e-11	0.37	1.2840837	31.698747	-0.0036390099	-0.015754304	-0.015724336	-0.010823693	-0.0043951118	0	930.6798671244305
0.19054607	5.2480746e-11	0.37	1.172405	28.977796	-0.003620331	-0.015803724	-0.015770887	-0.010703375	-0.0048266098	0	930.6812342202018
0.19054607	5.7543994e-11	0.37	1.0706402	26.497732	-0.003601652	-0.015853152	-0.015817174	-0.010593512	-0.0052197098	0	930.6826931866731
0.19054607	6.3095734e-11	0.37	0.97792492	24.237503	-0.0035829734	-0.015902586	-0.015863175	-0.010493175	-0.005577752	0	930.6842512021233
0.19054607	6.9183097e-11	0.37	0.89347124	22.177925	-0.0035642947	-0.015952028	-0.015908863	-0.010401515	-0.0059037797	0	930.6859181225934
0.19054607	7.5857758e-11	0.37	0.81656128	20.301505	-0.0035456158	-0.016001479	-0.015954213	-0.010317759	-0.0062005655	0	930.6877027330191
0.19054607	8.3176377e-11	0.37	0.74654082	18.592301	-0.0035269372	-0.016050938	-0.015999195	-0.010241199	-0.0064706363	0	930.6896149927934
0.19054607	9.1201084e-11	0.37	0.68281368	17.03578	-0.0035082582	-0.016100405	-0.016043779	-0.01017119	-0.0067162934	0	930.6916659887872
0.19054607	1.e-10	0.37	0.62483656	15.618691	-0.0034895793	-0.016149881	-0.016087933	-0.010107142	-0.0069396343	0	930.6938663756716
0.19054607	1.0964782e-10	0.37	0.57211432	14.328952	-0.0034709006	-0.016199366	-0.016131625	-0.010048516	-0.0071425703	0	930.6962271839441
0.19054607	1.2022644e-10	0.37	0.52419552	13.155544	-0.003452222	-0.01624886	-0.016174822	-0.0099948189	-0.0073268434	0	930.6987599796538
0.19054607	1.3182567e-10	0.37	0.4806685	12.088411	-0.003433543	-0.016298364	-0.016217491	-0.0099456008	-0.0074940425	0	930.7014767046763
0.19054607	1.4454398e-10	0.37	0.44115761	11.118371	-0.0034148644	-0.016347877	-0.0162596	-0.00990045	-0.0076456182	0	930.7043877318132
0.19054607	1.5848932e-10	0.37	0.40531976	10.23703	-0.0033961855	-0.016397401	-0.016301117	-0.0098589895	-0.0077828956	0	930.707504843214
0.19054607	1.7378008e-10	0.37	0.37284129	9.4367127	-0.0033775065	-0.016446935	-0.016342015	-0.009820875	-0.0079070874	0	930.7108372372235
0.19054607	1.9054607e-10	0.37	0.34343503	8.7103821	-0.0033588279	-0.01649648	-0.016382266	-0.0097857916	-0.0080193056	0	930.7143941779559
0.19054607	2.0892961e-10	0.37	0.31683762	8.051582	-0.0033401493	-0.016546036	-0.01642185	-0.0097534511	-0.0081205713	0	930.7181829940212
0.19054607	2.2908677e-10	0.37	0.29280708	7.4543764	-0.0033214703	-0.016595604	-0.016460754	-0.0097235901	-0.0082118249	0	930.7222085805545
0.19054607	2.5118864e-10	0.37	0.27112065	6.9132961	-0.0033027917	-0.016645183	-0.016498964	-0.0096959682	-0.0082939354	0	930.7264750528523
0.19054607	2.7542287e-10	0.37	0.25157286	6.4232952	-0.0032841127	-0.016694775	-0.016536482	-0.0096703656	-0.0083677061	0	930.7309824672884
0.19054607	3.0199517e-10	0.37	0.23397387	5.9797099	-0.0032654341	-0.016744379	-0.01657331	-0.0096465823	-0.008433883	0	930.7357293769323
0.19054607	3.3113112e-10	0.37	0.21814815	5.5782282	-0.0032467551	-0.016793997	-0.016609462	-0.0096244358	-0.0084931579	0	930.7407116664878
0.19054607	3.6307805e-10	0.37	0.20393331	5.214861	-0.0032280765	-0.016843627	-0.016644955	-0.0096037606	-0.0085461744	0	930.7459226744362
0.19054607	3.9810717e-10	0.37	0.19117923	4.8859235	-0.0032093976	-0.016893272	-0.016679816	-0.0095844059	-0.008593529	0	930.7513536722158
0.19054607	4.3651583e-10	0.37	0.17974738	4.5880166	-0.0031907189	-0.01694293	-0.016714075	-0.0095662356	-0.008635775	0	930.7569937608685
0.19054607	4.7863009e-10	0.37	0.16951022	4.3180148	-0.0031720403	-0.016992603	-0.016747764	-0.0095491265	-0.0086734229	0	930.7628319098967
0.19054607	5.2480746e-10	0.37	0.16035076	4.0730545	-0.0031533613	-0.017042292	-0.016780921	-0.009532967	-0.008706942	0	930.7688553787947
0.19054607	5.7543994e-10	0.37	0.15216212	3.8505217	-0.0031346827	-0.017091996	-0.016813581	-0.0095176571	-0.0087367623	0	930.7750512485388
0.19054607	6.3095734e-10	0.37	0.14484707	3.648043	-0.0031160038	-0.017141717	-0.01684578	-0.0095031063	-0.0087632745	0	930.7814076618142
0.19054607	6.9183097e-10	0.37	0.13831756	3.4634715	-0.0030973251	-0.017191453	-0.016877551	-0.0094892334	-0.0087868332	0	930.7879126767452
0.19054607	7.5857758e-10	0.37	0.13249426	3.2948754	-0.0030786465	-0.017241207	-0.016908925	-0.0094759654	-0.0088077568	0	930.7945556104742
0.19054607	8.3176377e-10	0.37	0.12730598	3.1405228	-0.0030599679	-0.017290978	-0.01693993	-0.0094632365	-0.008826331	0	930.8013268230603
0.19054607	9.1201084e-10	0.37	0.12268911	2.9988674	-0.0030412892	-0.017340768	-0.016970588	-0.0094509877	-0.0088428103	0	930.8082187603982
0.19054607	1.e-9	0.37	0.118587	2.8685329	-0.0030226106	-0.017390576	-0.01700092	-0.0094391658	-0.0088574205	0	930.8152239341522
0.19054607	1.0964782e-9	0.37	0.11494942	2.7482977	-0.0030039322	-0.017440403	-0.017030939	-0.0094277229	-0.0088703616	0	930.8223377310562
0.19054607	1.2022644e-9	0.37	0.11173193	2.6370805	-0.0029852539	-0.01749025	-0.017060657	-0.0094166157	-0.0088818095	0	930.8295560733966
0.19054607	1.3182567e-9	0.37	0.10889534	2.5339252	-0.0029665756	-0.017540118	-0.01709008	-0.0094058048	-0.0088919188	0	930.8368769692952
0.19054607	1.4454398e-9	0.37	0.10640517	2.4379877	-0.0029478976	-0.017590006	-0.01711921	-0.0093952548	-0.0089008251	0	930.8442994416037
0.19054607	1.5848932e-9	0.37	0.10423116	2.3485236	-0.0029292198	-0.017639915	-0.017148048	-0.0093849331	-0.008908647	0	930.8518232366393
0.19054607	1.7378008e-9	0.37	0.10234683	2.2648765	-0.0029105427	-0.017689845	-0.017176588	-0.0093748103	-0.008915488	0	930.859449970455
0.19054607	1.9054607e-9	0.37	0.10072903	2.1864684	-0.0028918659	-0.017739797	-0.017204824	-0.0093648588	-0.0089214379	0	930.8671821047114
0.19054607	2.0892961e-9	0.37	0.099357624	2.1127897	-0.0028731897	-0.017789772	-0.017232745	-0.0093550537	-0.0089265749	0	930.8750231815704
0.19054607	2.2908677e-9	0.37	0.098215095	2.0433902	-0.002854515	-0.017839767	-0.017260336	-0.0093453718	-0.0089309674	0	930.8829775700103
0.19054607	2.5118864e-9	0.37	0.09728629	1.9778745	-0.0028358416	-0.017889785	-0.017287583	-0.0093357912	-0.0089346736	0	930.8910503248932
0.19054607	2.7542287e-9	0.37	0.096558126	1.9158922	-0.0028171702	-0.017939824	-0.017314466	-0.0093262917	-0.0089377442	0	930.8992477413067
0.19054607	3.0199517e-9	0.37	0.096019357	1.8571345	-0.0027985019	-0.017989881	-0.017340964	-0.0093168542	-0.008940223	0	930.9075760861518
0.19054607	3.3113112e-9	0.37	0.095660362	1.8013276	-0.0027798381	-0.018039955	-0.017367052	-0.0093074607	-0.0089421472	0	930.9160427350164
0.19054607	3.6307805e-9	0.37	0.095472948	1.7482297	-0.0027611801	-0.018090042	-0.017392702	-0.0092980938	-0.0089435487	0	930.9246562003625
0.19054607	3.9810717e-9	0.37	0.095450171	1.6976245	-0.0027425316	-0.018140134	-0.017417881	-0.0092887374	-0.0089444551	0	930.9334244778913
0.19054607	4.3651583e-9	0.37	0.095586194	1.6493206	-0.0027238959	-0.018190222	-0.017442553	-0.0092793751	-0.008944889	0	930.9423569820476
0.19054607	4.7863009e-9	0.37	0.095876119	1.6031441	-0.0027052803	-0.018240288	-0.017466672	-0.0092699922	-0.0089448708	0	930.9514628454067
0.19054607	5.2480746e-9	0.37	0.096315876	1.5589395	-0.0026866931	-0.018290312	-0.017490187	-0.0092605733	-0.0089444166	0	930.9607519991744
0.19054607	5.7543994e-9	0.37	0.096902069	1.5165613	-0.0026681493	-0.018340254	-0.017513026	-0.0092511041	-0.0089435419	0	930.9702353798909
0.19054607	6.3095734e-9	0.37	0.097631871	1.475874	-0.0026496701	-0.018390059	-0.017535104	-0.0092415704	-0.0089422597	0	930.9799226181017
0.19054607	6.9183097e-9	0.37	0.098502878	1.4367448	-0.0026312881	-0.018439641	-0.017556301	-0.0092319583	-0.0089405831	0	930.9898248006775
0.19054607	7.5857758e-9	0.37	0.099512988	1.3990396	-0.002613051	-0.018488874	-0.017576457	-0.0092222538	-0.0089385253	0	930.9999527326202
0.19054607	8.3176377e-9	0.37	0.10066024	1.3626153	-0.0025950301	-0.018537571	-0.017595348	-0.0092124437	-0.0089361021	0	931.0103172940961
0.19054607	9.1201084e-9	0.37	0.1019427	1.3273149	-0.0025773252	-0.018585465	-0.017612674	-0.0092025144	-0.0089333318	0	931.0209290082371
0.19054607	1.e-8	0.37	0.10335834	1.2929608	-0.0025600738	-0.018632194	-0.017628034	-0.009192453	-0.0089302374	0	931.031798088119
0.19054607	1.0964782e-8	0.37	0.10490501	1.2593573	-0.0025434503	-0.018677294	-0.017640928	-0.0091822463	-0.0089268456	0	931.0429344931342
0.19054607	1.2022644e-8	0.37	0.10658055	1.2262963	-0.0025276635	-0.018720211	-0.017650762	-0.0091718815	-0.0089231857	0	931.0543485397104
0.19054607	1.3182567e-8	0.37	0.1083826	1.193548	-0.0025129734	-0.018760253	-0.017656808	-0.0091613464	-0.0089192921	0	931.0660490221792
0.19054607	1.4454398e-8	0.37	0.11030734	1.1607636	-0.0024998185	-0.018796252	-0.017657858	-0.0091506286	-0.008915223	0	931.0780438892634
0.19054607	1.5848932e-8	0.37	0.11234725	1.1273172	-0.0024890471	-0.018825947	-0.01765161	-0.0091397163	-0.0089110937	0	931.090336373068
0.19054607	1.7378008e-8	0.37	0.11449862	1.0928363	-0.0024813416	-0.018847513	-0.017636199	-0.0091285986	-0.0089069688	0	931.1029336612676
0.19054607	1.9054607e-8	0.37	0.11677185	1.0579588	-0.0024762055	-0.018862274	-0.017612908	-0.0091172643	-0.0089027077	0	931.1158562269915
0.19054607	2.0892961e-8	0.37	0.11918094	1.0235832	-0.0024726917	-0.018872755	-0.017584221	-0.0091057005	-0.0088981154	0	931.1291303968608
0.19054607	2.2908677e-8	0.37	0.12173502	0.99025378	-0.0024701474	-0.018880702	-0.01755184	-0.0090938934	-0.0088930676	0	931.1427778372522
0.19054607	2.5118864e-8	0.37	0.12443925	0.95821881	-0.0024682077	-0.018887088	-0.017516696	-0.0090818287	-0.0088874997	0	931.1568177434858
0.19054607	2.7542287e-8	0.37	0.1272967	0.92756872	-0.0024666677	-0.018892462	-0.017479295	-0.0090694915	-0.0088813783	0	931.1712667270774
0.19054607	3.0199517e-8	0.37	0.13030945	0.89831507	-0.0024654063	-0.01889715	-0.017439916	-0.0090568664	-0.008874686	0	931.1861415780594
0.19054607	3.3113112e-8	0.37	0.1334792	0.8704297	-0.0024643475	-0.018901357	-0.017398719	-0.0090439385	-0.0088674133	0	931.2014580811298
0.19054607	3.6307805e-8	0.37	0.13680745	0.84386439	-0.002463441	-0.018905218	-0.017355794	-0.0090306921	-0.0088595544	0	931.2172322088995
0.19054607	3.9810717e-8	0.37	0.14029572	0.81856109	-0.0024626523	-0.018908827	-0.017311187	-0.0090171114	-0.0088511053	0	931.2334803849711
0.19054607	4.3651583e-8	0.37	0.14394563	0.79445761	-0.0024619566	-0.018912253	-0.017264919	-0.009003181	-0.0088420631	0	931.2502186101422
0.19054607	4.7863009e-8	0.37	0.14775891	0.77149074	-0.0024613357	-0.018915548	-0.017216989	-0.0089888848	-0.0088324246	0	931.2674643321416
0.19054607	5.2480746e-8	0.37	0.15173747	0.74959809	-0.0024607756	-0.018918749	-0.017167388	-0.0089742067	-0.0088221864	0	931.2852338336364
0.19054607	5.7543994e-8	0.37	0.1558834	0.72871921	-0.0024602658	-0.018921888	-0.017116093	-0.0089591304	-0.0088113444	0	931.3035449757642
0.19054607	6.3095734e-8	0.37	0.16019901	0.70879608	-0.0024597977	-0.018924989	-0.017063076	-0.0089436393	-0.0087998938	0	931.3224155726841
0.19054607	6.9183097e-8	0.37	0.16468684	0.68977353	-0.0024593647	-0.018928073	-0.017008304	-0.0089277169	-0.0087878292	0	931.3418632976204
0.19054607	7.5857758e-8	0.37	0.1693496	0.67159929	-0.0024589612	-0.018931158	-0.016951736	-0.0089113459	-0.0087751439	0	931.3619076653449
0.19054607	8.3176377e-8	0.37	0.1741903	0.65422408	-0.0024585826	-0.018934257	-0.01689333	-0.0088945092	-0.008761831	0	931.3825675987043
0.19054607	9.1201084e-8	0.37	0.17921212	0.63760151	-0.0024582253	-0.018937384	-0.016833039	-0.008877189	-0.0087478819	0	931.4038628191752
0.19054607	1.e-7	0.37	0.18441854	0.62168809	-0.0024578859	-0.018940549	-0.016770813	-0.0088593676	-0.0087332878	0	931.4258139032385
0.19054607	1.0964782e-7	0.37	0.18981324	0.60644299	-0.0024575619	-0.018943763	-0.016706601	-0.0088410266	-0.0087180385	0	931.4484409294059
0.19054607	1.2022644e-7	0.37	0.19540017	0.59182802	-0.0024572509	-0.018947034	-0.016640346	-0.0088221474	-0.0087021233	0	931.4717659680674
0.19054607	1.3182567e-7	0.37	0.2011835	0.57780745	-0.0024569508	-0.018950372	-0.01657199	-0.008802711	-0.0086855303	0	931.4958111553831
0.19054607	1.4454398e-7	0.37	0.20716768	0.56434783	-0.00245666	-0.018953783	-0.016501472	-0.0087826977	-0.0086682466	0	931.5205992006468
0.19054607	1.5848932e-7	0.37	0.2133574	0.55141796	-0.0024563769	-0.018957274	-0.01642873	-0.0087620879	-0.008650259	0	931.5461531607925
0.19054607	1.7378008e-7	0.37	0.21975759	0.53898862	-0.0024561002	-0.018960853	-0.016353697	-0.0087408611	-0.0086315529	0	931.5724975490803
0.19054607	1.9054607e-7	0.37	0.22637345	0.52703255	-0.0024558286	-0.018964526	-0.016276306	-0.0087189962	-0.0086121128	0	931.59965687877
0.19054607	2.0892961e-7	0.37	0.23321044	0.51552426	-0.0024555612	-0.0189683	-0.016196486	-0.0086964721	-0.0085919226	0	931.6276566778524
0.19054607	2.2908677e-7	0.37	0.24027428	0.50443993	-0.0024552969	-0.018972179	-0.016114164	-0.0086732667	-0.0085709651	0	931.6565233575092
0.19054607	2.5118864e-7	0.37	0.24757095	0.49375729	-0.002455035	-0.01897617	-0.016029263	-0.0086493574	-0.0085492222	0	931.686284343653
0.19054607	2.7542287e-7	0.37	0.25510668	0.48345552	-0.0024547745	-0.01898028	-0.015941706	-0.0086247212	-0.0085266753	0	931.7169673440662
0.19054607	3.0199517e-7	0.37	0.262888	0.47351513	-0.0024545149	-0.018984513	-0.015851411	-0.0085993344	-0.0085033044	0	931.7486013349439
0.19054607	3.3113112e-7	0.37	0.27092169	0.46391791	-0.0024542555	-0.018988875	-0.015758295	-0.0085731724	-0.0084790888	0	931.781215828034
0.19054607	3.6307805e-7	0.37	0.27921482	0.45464677	-0.0024539956	-0.018993372	-0.015662271	-0.0085462103	-0.0084540068	0	931.8148417256409
0.19054607	3.9810717e-7	0.37	0.28777473	0.44568572	-0.0024537347	-0.018998009	-0.01556325	-0.0085184221	-0.008428036	0	931.849510437434
0.19054607	4.3651583e-7	0.37	0.29660906	0.43701978	-0.0024534724	-0.019002793	-0.015461139	-0.0084897815	-0.0084011529	0	931.885254669683
0.19054607	4.7863009e-7	0.37	0.30572573	0.42863486	-0.0024532081	-0.019007729	-0.015355844	-0.0084602611	-0.0083733329	0	931.9221076642104
0.19054607	5.2480746e-7	0.37	0.31513294	0.42051778	-0.0024529414	-0.019012822	-0.015247266	-0.0084298328	-0.0083445508	0	931.9601042131212
0.19054607	5.7543994e-7	0.37	0.32483924	0.41265613	-0.0024526718	-0.019018079	-0.015135304	-0.0083984679	-0.0083147803	0	931.9992798977546
0.19054607	6.3095734e-7	0.37	0.33485343	0.40503823	-0.002452399	-0.019023505	-0.015019853	-0.0083661363	-0.0082839936	0	932.0396715020947
0.19054607	6.9183097e-7	0.37	0.34518466	0.39765314	-0.0024521226	-0.019029107	-0.014900804	-0.0083328077	-0.0082521627	0	932.0813172946378
0.19054607	7.5857758e-7	0.37	0.3558424	0.39049051	-0.0024518422	-0.01903489	-0.014778047	-0.0082984504	-0.008219258	0	932.1242558915196
0.19054607	8.3176377e-7	0.37	0.36683644	0.38354061	-0.0024515575	-0.019040862	-0.014651466	-0.0082630319	-0.0081852489	0	932.1685279007552
0.19054607	9.1201084e-7	0.37	0.37817691	0.37679428	-0.002451268	-0.019047027	-0.014520943	-0.0082265188	-0.008150104	0	932.2141748135499
0.19054607	1.e-6	0.37	0.38987427	0.37024283	-0.0024509736	-0.019053394	-0.014386355	-0.0081888766	-0.0081137905	0	932.2612394834794
0.19054607	1.0964782e-6	0.37	0.40193936	0.3638781	-0.0024506738	-0.019059968	-0.014247576	-0.0081500698	-0.0080762745	0	932.3097661828632
0.19054607	1.2022644e-6	0.37	0.41438338	0.35769234	-0.0024503684	-0.019066756	-0.014104476	-0.0081100619	-0.0080375211	0	932.3598002927076
0.19054607	1.3182567e-6	0.37	0.42721786	0.35167825	-0.002450057	-0.019073766	-0.013956921	-0.008068815	-0.0079974939	0	932.4113887724886
0.19054607	1.4454398e-6	0.37	0.44045477	0.34582888	-0.0024497393	-0.019081005	-0.013804771	-0.0080262904	-0.0079561555	0	932.4645805735612
0.19054607	1.5848932e-6	0.37	0.45410643	0.34013768	-0.0024494151	-0.019088479	-0.013647885	-0.0079824479	-0.0079134672	0	932.5194249009629
0.19054607	1.7378008e-6	0.37	0.46818559	0.33459842	-0.0024490839	-0.019096198	-0.013486114	-0.0079372464	-0.0078693891	0	932.5759740227137
0.19054607	1.9054607e-6	0.37	0.4827054	0.32920518	-0.0024487456	-0.019104167	-0.013319307	-0.0078906432	-0.0078238797	0	932.6342805262864
0.19054607	2.0892961e-6	0.37	0.49767943	0.32395236	-0.0024483997	-0.019112397	-0.013147307	-0.0078425946	-0.0077768963	0	932.6943994608149
0.19054607	2.2908677e-6	0.37	0.51312169	0.31883461	-0.0024480461	-0.019120894	-0.012969953	-0.0077930552	-0.0077283948	0	932.7563868901638
0.19054607	2.5118864e-6	0.37	0.52904667	0.31384687	-0.0024476843	-0.019129667	-0.012787077	-0.0077419786	-0.0076783297	0	932.8203016874977
0.19054607	2.7542287e-6	0.37	0.54546928	0.30898429	-0.002447314	-0.019138726	-0.012598507	-0.0076893166	-0.0076266538	0	932.886203928625
0.19054607	3.0199517e-6	0.37	0.56240493	0.30424228	-0.002446935	-0.019148078	-0.012404067	-0.0076350196	-0.0075733185	0	932.9541549859547
0.19054607	3.3113112e-6	0.37	0.57986955	0.29961644	-0.0024465469	-0.019157734	-0.012203573	-0.0075790368	-0.0075182739	0	933.0242192009216
0.19054607	3.6307805e-6	0.37	0.59787949	0.29510259	-0.0024461494	-0.019167702	-0.011996837	-0.0075213153	-0.0074614678	0	933.0964622115614
0.19054607	3.9810717e-6	0.37	0.61645171	0.29069672	-0.0024457421	-0.019177993	-0.011783664	-0.0074618009	-0.0074028469	0	933.17095218334
0.19054607	4.3651583e-6	0.37	0.63560368	0.28639503	-0.0024453247	-0.019188617	-0.011563854	-0.0074004377	-0.0073423562	0	933.2477589259631
0.19054607	4.7863009e-6	0.37	0.65535338	0.28219384	-0.0024448968	-0.019199584	-0.0113372	-0.0073371679	-0.0072799383	0	933.3269547765666
0.19054607	5.2480746e-6	0.37	0.67571943	0.27808969	-0.0024444581	-0.019210905	-0.011103489	-0.007271932	-0.0072155348	0	933.4086140641659
0.19054607	5.7543994e-6	0.37	0.69672098	0.27407921	-0.0024440081	-0.01922259	-0.010862501	-0.0072046687	-0.0071490848	0	933.4928137391627
0.19054607	6.3095734e-6	0.37	0.71837782	0.27015922	-0.0024435466	-0.019234652	-0.010614008	-0.0071353147	-0.0070805258	0	933.5796332512032
0.19054607	6.9183097e-6	0.37	0.74071035	0.26632663	-0.0024430731	-0.019247102	-0.010357777	-0.0070638049	-0.0070097932	0	933.6691540699989
0.19054607	7.5857758e-6	0.37	0.76373961	0.26257852	-0.0024425872	-0.019259952	-0.010093567	-0.0069900717	-0.0069368202	0	933.761460352418
0.19054607	8.3176377e-6	0.37	0.7874873	0.25891206	-0.0024420884	-0.019273214	-0.0098211289	-0.0069140462	-0.0068615382	0	933.8566391651632
0.19054607	9.1201084e-6	0.37	0.81197581	0.25532453	-0.0024415764	-0.019286902	-0.0095402065	-0.0068356565	-0.0067838761	0	933.9547798552617
0.19054607	0.00001	0.37	0.83722824	0.25181335	-0.0024410507	-0.019301027	-0.0092505348	-0.006754829	-0.0067037606	0	934.0559750168785
0.19054607	0.000010964782	0.37	0.8632684	0.248376	-0.0024405109	-0.019315605	-0.0089518414	-0.0066714877	-0.0066211164	0	934.1603197227525
0.19054607	0.000012022644	0.37	0.89012087	0.24501009	-0.0024399563	-0.019330649	-0.0086438447	-0.0065855541	-0.0065358655	0	934.2679125257723
0.19054607	0.000013182567	0.37	0.91781098	0.2417133	-0.0024393867	-0.019346173	-0.0083262549	-0.0064969474	-0.0064479273	0	934.3788543596853
0.19054607	0.000014454398	0.37	0.94636486	0.23848341	-0.0024388014	-0.019362193	-0.0079987725	-0.0064055841	-0.0063572191	0	934.4932500001213
0.19054607	0.000015848932	0.37	0.97580948	0.23531828	-0.0024381999	-0.019378723	-0.0076610892	-0.0063113784	-0.0062636553	0	934.6112070940221
0.19054607	0.000017378008	0.37	1.0061726	0.23221585	-0.0024375817	-0.019395779	-0.0073128868	-0.0062142414	-0.0061671475	0	934.7328367299576
0.19054607	0.000019054607	0.37	1.037483	0.22917411	-0.0024369462	-0.019413378	-0.0069538372	-0.0061140818	-0.0060676048	0	934.8582535320811
0.19054607	0.000020892961	0.37	1.0697702	0.22619117	-0.0024362928	-0.019431536	-0.0065836021	-0.0060108054	-0.0059649333	0	934.9875756704671
0.19054607	0.000022908677	0.37	1.1030647	0.22326517	-0.0024356208	-0.01945027	-0.0062018325	-0.0059043148	-0.0058590361	0	935.1209251288842
0.19054607	0.000025118864	0.37	1.1373979	0.22039432	-0.0024349298	-0.019469599	-0.0058081687	-0.0057945097	-0.0057498132	0	935.2584273289718
0.19054607	0.000027542287	0.37	1.1728024	0.21757691	-0.002434219	-0.01948954	-0.0054022394	-0.0056812869	-0.0056371618	0	935.4002121008098
0.19054607	0.000030199517	0.37	1.2093116	0.21481127	-0.0024334876	-0.019510112	-0.0049836622	-0.0055645395	-0.0055209752	0	935.5464131332723
0.19054607	0.000033113112	0.37	1.24696	0.21209582	-0.0024327351	-0.019531334	-0.0045520423	-0.0054441576	-0.0054011441	0	935.6971681440899
0.19054607	0.000036307805	0.37	1.2857832	0.20942906	-0.0024319607	-0.019553227	-0.0041069728	-0.0053200279	-0.0052775552	0	935.8526193392975
0.19054607	0.000039810717	0.37	1.3258178	0.20680975	-0.0024311636	-0.019575811	-0.0036480347	-0.0051920334	-0.0051500919	0	936.0129131313633
0.19054607	0.000043651583	0.37	1.3671009	0.20423719	-0.0024303431	-0.01959911	-0.0031747971	-0.0050600535	-0.0050186337	0	936.1781999757054
0.19054607	0.000047863009	0.37	1.4096678	0.20171198	-0.0024294987	-0.019623156	-0.0026868244	-0.004923964	-0.0048830563	0	936.3486317737334
0.19054607	0.000052480746	0.37	1.4535394	0.19923429	-0.0024286306	-0.019648027	-0.0021837118	-0.0047836379	-0.0047432327	0	936.5243490618737
0.19054607	0.000057543994	0.37	1.4986542	0.19676488	-0.0024277449	-0.01967404	-0.0016652794	-0.0046389488	-0.0045990444	0	936.7054086490666
0.19054607	0.000063095734	0.37	1.5445173	0.19386746	-0.002426876	-0.019702758	-0.0011325755	-0.0044897926	-0.0044504758	0	936.8914137841116
0.19054607	0.000069183097	0.37	1.5890312	0.18779846	-0.0024261967	-0.019740303	-0.0005911946	-0.0043361794	-0.0042980934	0	937.0802572427269
0.19054607	0.000075857758	0.37	1.6297978	0.17307037	-0.0024263617	-0.019793108	-0.000047022855	-0.0041783896	-0.0041432905	0	937.2692776333829
0.19054607	0.000083176377	0.37	1.6718522	0.15520779	-0.0024301871	-0.019840129	0.00052154648	-0.0040166039	-0.0039851274	0	937.4633403972013
0.19054607	0.000091201084	0.37	1.7210163	0.14700747	-0.0025228816	-0.019633721	0.0013627381	-0.0038503839	-0.0038205704	0	937.6686790214449
0.19054607	0.0001	0.37	1.7746731	0.14514366	-0.0027179028	-0.01914383	0.0025072051	-0.0036790603	-0.0036496249	0	937.8833054282543
0.19054607	0.00010964782	0.37	1.830011	0.14333237	-0.0029188766	-0.018638985	0.003687034	-0.0035023949	-0.0034733267	0	938.1046321602628
0.19054607	0.00012022644	0.37	1.8870799	0.1415575	-0.003125864	-0.018119065	0.0049029842	-0.0033202203	-0.0032915121	0	938.332865901177
0.19054607	0.00013182567	0.37	1.9459337	0.13981499	-0.0033390249	-0.017583672	0.0061561089	-0.0031323644	-0.0031040096	0	938.5682225480814
0.19054607	0.00014454398	0.37	2.0066277	0.13810312	-0.0035585116	-0.017032431	0.0074474592	-0.0029386495	-0.0029106419	0	938.8109244087145
0.19054607	0.00015848932	0.37	2.069205	0.13641638	-0.0037840334	-0.016466207	0.0087768674	-0.0027388927	-0.0027112271	0	939.0611863156337
0.19054607	0.00017378008	0.37	2.1331775	0.13422362	-0.0039974705	-0.015935628	0.010094426	-0.0025329205	-0.0025056996	0	939.3186832027162
0.19054607	0.00019054607	0.37	2.1968231	0.12881192	-0.0040867528	-0.015749195	0.011092376	-0.002320701	-0.0022945776	0	939.5817231664498
0.19054607	0.00020892961	0.37	2.2638117	0.12462956	-0.004091908	-0.015788573	0.011889816	-0.0021021004	-0.0020768252	0	939.8541009064581
0.19054607	0.00022908677	0.37	2.3340827	0.12231396	-0.0040799237	-0.015872712	0.012668586	-0.0018767622	-0.0018519567	0	940.1360919033013
0.19054607	0.00025118864	0.37	2.4068608	0.12062832	-0.0040642737	-0.015967492	0.013463618	-0.0016444097	-0.001619946	0	940.4271803731851
0.19054607	0.00027542287	0.37	2.4819835	0.11911763	-0.0040475172	-0.01606667	0.014281997	-0.0014048078	-0.0013806505	0	940.7274248040525
0.19054607	0.00030199517	0.37	2.5594736	0.11766372	-0.0040301333	-0.016169125	0.015125705	-0.0011577263	-0.0011338638	0	941.0370640709978
0.19054607	0.00033113112	0.37	2.6393964	0.11623926	-0.0040121989	-0.016274718	0.015995774	-0.00090292987	-0.00087935627	0	941.3563846850793
0.19054607	0.00036307805	0.37	2.7218274	0.11483803	-0.0039937133	-0.016383501	0.016893074	-0.00064017656	-0.00061688714	0	941.6856897500786
0.19054607	0.00039810717	0.37	2.806846	0.11345839	-0.0039746631	-0.016495553	0.017818471	-0.00036921655	-0.00034620692	0	942.025292911701
0.19054607	0.00043651583	0.37	2.8945346	0.11209961	-0.0039550313	-0.016610966	0.018772853	-0.000089792112	-0.000067058048	0	942.3755188461487
0.19054607	0.00047863009	0.37	2.9849782	0.11076111	-0.0039347984	-0.016729838	0.019757131	0.00019836246	0.00022082508	0	942.7367025742385
0.19054607	0.00052480746	0.37	3.0782647	0.10944246	-0.0039139466	-0.016852261	0.020772251	0.00049552168	0.00051771687	0	943.1091896868977
0.19054607	0.00057543994	0.37	3.1744852	0.10814328	-0.003892456	-0.016978335	0.021819186	0.0008019686	0.00082390032	0	943.4933371343982
0.19054607	0.00063095734	0.37	3.2737333	0.10686321	-0.0038703051	-0.017108165	0.022898937	0.0011179954	0.0011396675	0	943.8895131042138
0.19054607	0.00069183097	0.37	3.3761064	0.10560203	-0.0038474727	-0.017241854	0.024012541	0.0014439036	0.0014653199	0	944.2980980169591
0.19054607	0.00075857758	0.37	3.4817045	0.10435957	-0.003823935	-0.017379512	0.025161064	0.0017800044	0.0018011688	0	944.7194848176548
0.19054607	0.00083176377	0.37	3.5906316	0.10313581	-0.0037996671	-0.017521252	0.026345606	0.0021266191	0.0021475353	0	945.1540793045752
0.19054607	0.00091201084	0.37	3.7029949	0.10193086	-0.0037746414	-0.017667193	0.027567296	0.0024840793	0.0025047511	0	945.6022998943581
0.19054607	0.001	0.37	3.8189053	0.10074502	-0.0037488279	-0.017817464	0.028827296	0.002852727	0.0028731583	0	946.0645787306904
0.19054607	0.0010964782	0.37	3.9384774	0.099578786	-0.0037221925	-0.017972199	0.0301268	0.0032329157	0.0032531106	0	946.5413629339306
0.19054607	0.0012022644	0.37	4.0618299	0.098432901	-0.0036946953	-0.018131553	0.031467027	0.00362501	0.0036449725	0	947.0331137648965
0.19054607	0.0013182567	0.37	4.1890854	0.097308446	-0.0036662905	-0.018295689	0.032849223	0.0040293867	0.004049121	0	947.5403074140984
0.19054607	0.0014454398	0.37	4.3203707	0.096206792	-0.0036369209	-0.018464806	0.03427465	0.0044464343	0.0044659453	0	948.0634363453189
0.19054607	0.0015848932	0.37	4.455817	0.095129688	-0.0036065165	-0.018639134	0.03574458	0.0048765545	0.004895847	0	948.6030085251688
0.19054607	0.0017378008	0.37	4.5955596	0.094079127	-0.0035749846	-0.018818963	0.037260273	0.0053201615	0.005339241	0	949.1595490767222
0.19054607	0.0019054607	0.37	4.7397384	0.093057261	-0.0035422041	-0.01900466	0.03882296	0.0057776834	0.0057965556	0	949.7335997251735
0.19054607	0.0020892961	0.37	4.888498	0.09206599	-0.0035080094	-0.019196711	0.040433803	0.0062495621	0.0062682333	0	950.3257200192703
0.19054607	0.0022908677	0.37	5.0419875	0.091106238	-0.0034721683	-0.01939578	0.042093838	0.006736254	0.0067547306	0	950.9364882802774
0.19054607	0.0025118864	0.37	5.2003606	0.090176712	-0.0034343489	-0.0196028	0.043803884	0.0072382305	0.0072565186	0	951.5665010664225
0.19054607	0.0027542287	0.37	5.3637762	0.089271922	-0.0033940647	-0.019819123	0.045564396	0.0077559774	0.0077740819	0	952.2163736520748
0.19054607	0.0030199517	0.37	5.5323995	0.088379883	-0.0033506005	-0.020046712	0.047375276	0.0082899975	0.0083079212	0	952.8867439457333
0.19054607	0.0033113112	0.37	5.7064037	0.087480054	-0.0033028968	-0.020288451	0.04923556	0.0088408096	0.0088585507	0	953.5782722927172
0.19054607	0.0036307805	0.37	5.8859739	0.086544746	-0.0032494303	-0.020548456	0.051143112	0.0094089503	0.0094265018	0	954.2916473756364
0.19054607	0.0039810717	0.37	6.0713112	0.085548276	-0.0031881993	-0.020832101	0.053094604	0.0099949748	0.010012324	0	955.0275929792631
0.19054607	0.0043651583	0.37	6.2626341	0.084485482	-0.0031171548	-0.021144845	0.055086682	0.010599459	0.010616593	0	955.7868682911912
0.19054607	0.0047863009	0.37	6.4601698	0.083384169	-0.0030353579	-0.021489131	0.057119078	0.011223001	0.011239911	0	956.5702623020277
0.19054607	0.0052480746	0.37	6.6641386	0.082286467	-0.0029439552	-0.021861789	0.0591972	0.01186622	0.011882908	0	957.378577738825
0.19054607	0.0057543994	0.37	6.8747536	0.081216602	-0.0028454071	-0.022256135	0.061330043	0.012529758	0.012546229	0	958.2126299094157
0.19054607	0.0063095734	0.37	7.0910449	0.08069784	-0.0027800305	-0.022566632	0.063625526	0.013214259	0.013230625	0	959.0720553241529
0.19054607	0.0069183097	0.37	7.3026758	0.079957806	-0.0029208479	-0.022357703	0.066521682	0.013919777	0.013935992	0	959.9465654699795
0.19054607	0.0075857758	0.37	7.5217277	0.077057397	-0.0031045806	-0.022038499	0.069611894	0.014646281	0.014661908	0	960.8482153555588
0.19054607	0.0083176377	0.37	7.7345477	0.075952765	-0.0033097483	-0.021707365	0.07280043	0.015394362	0.015409765	0	961.7639069325458
0.19054607	0.0091201084	0.37	7.9012983	0.060259155	-0.0035586061	-0.021429856	0.076024426	0.016160906	0.016173127	0	962.6508760907398
0.19054607	0.01	0.37	8.1397735	0.057787072	-0.0036002949	-0.021545224	0.078947409	0.016946907	0.016958626	0	963.6278501505892
0.19054607	0.010964782	0.37	8.3804619	0.057401099	-0.0037027885	-0.021520706	0.082105006	0.017756554	0.017768196	0	964.6292551457041
0.19054607	0.012022644	0.37	8.638537	0.056629822	-0.0038146086	-0.021452594	0.085403877	0.018590642	0.018602126	0	965.6710096620268
0.19054607	0.013182567	0.37	8.9016217	0.055762343	-0.0039175435	-0.02142586	0.088762098	0.019450242	0.019461551	0	966.7417447897008
0.19054607	0.014454398	0.37	9.1816636	0.054860872	-0.0040177616	-0.021389576	0.092233735	0.020336474	0.0203476	0	967.8544603736998
0.19054607	0.015848932	0.37	9.4592583	0.054834582	-0.0041382612	-0.021338127	0.095827642	0.02125027	0.021261391	0	968.9906260055302
0.19054607	0.017378008	0.37	9.7467571	0.050414146	-0.004298421	-0.021187528	0.099631144	0.022191415	0.022201639	0	970.1623917214939
0.19054607	0.019054607	0.37	10.05071	0.04802423	-0.0044811788	-0.020963668	0.10362179	0.023161694	0.023171434	0	971.3779837262866
0.19054607	0.020892961	0.37	10.360826	0.045344579	-0.0046730826	-0.020733431	0.10773626	0.02416208	0.024171276	0	972.6280285401508
0.19054607	0.022908677	0.37	10.698761	0.043993829	-0.0046867774	-0.020940528	0.11153449	0.025194059	0.025202981	0	973.9355749413478
0.19054607	0.025118864	0.37	11.052967	0.043419294	-0.0046651079	-0.021229241	0.11537598	0.026260091	0.026268896	0	975.2913872843571
0.19054607	0.027542287	0.37	11.420213	0.042844739	-0.0046413445	-0.021519317	0.11934488	0.027361478	0.027370167	0	976.6934596911128
0.19054607	0.030199517	0.37	11.801095	0.04226744	-0.0046152884	-0.021810054	0.1234459	0.02849953	0.028508102	0	978.1436163277419
0.19054607	0.033113112	0.37	12.196251	0.041685692	-0.0045867174	-0.022100666	0.12768397	0.029675613	0.029684066	0	979.6437798268205
0.19054607	0.036307805	0.37	12.606357	0.041097839	-0.0045553886	-0.022390262	0.13206424	0.030891158	0.030899493	0	981.195968750546
0.19054607	0.039810717	0.37	13.032134	0.040502016	-0.0045210358	-0.022677836	0.13659213	0.032147668	0.032155882	0	982.8023174155678
0.19054607	0.043651583	0.37	13.474347	0.039896019	-0.0044833664	-0.022962258	0.14127331	0.033446715	0.033454806	0	984.4650718528549
0.19054607	0.047863009	0.37	13.933817	0.039277175	-0.00444206	-0.023242261	0.14611372	0.03478995	0.034797916	0	986.1865980758716
0.19054607	0.052480746	0.37	14.411416	0.038642188	-0.0043967643	-0.023516422	0.15111961	0.036179107	0.036186943	0	987.969399838363
0.19054607	0.057543994	0.37	14.908077	0.037986909	-0.0043470932	-0.023783155	0.15629755	0.037616007	0.037623711	0	989.8161238959195
0.19054607	0.063095734	0.37	15.4248	0.037306	-0.0042926228	-0.024040679	0.16165445	0.03910257	0.039110136	0	991.7295707170238
0.19054607	0.069183097	0.37	15.118552	0.036138777	-0.0051308953	-0.024293364	0.16719123	0.040638853	0.040646182	0	992.8667605784378
0.19054607	0.075857758	0.37	14.049759	0.034617088	-0.0067504298	-0.025056322	0.17239823	0.04208345	0.04209047	0	993.1552592867649
0.19054607	0.083176377	0.37	13.075009	0.033229291	-0.0082274628	-0.026463567	0.17714708	0.043400938	0.043407677	0	993.4183765767268
0.19054607	0.091201084	0.37	12.186026	0.031963605	-0.0095745329	-0.028480589	0.18147808	0.044602501	0.044608983	0	993.6583414731604
0.19054607	0.1	0.37	12.915055	0.029851587	-0.0094948246	-0.029903634	0.18660097	0.045801758	0.045807812	0	995.5141499062165
0.19054607	0.10964782	0.37	14.35326	0.027582413	-0.0087009778	-0.031055794	0.19219883	0.0471361	0.047141694	0	998.2060563100607
0.19054607	0.12022644	0.37	16.082887	0.025454072	-0.0074998551	-0.032262321	0.19795277	0.0486253	0.048630463	0	1001.3348845605714
0.19054607	0.13182567	0.37	18.160843	0.023461431	-0.0057912873	-0.033552375	0.20384019	0.050300599	0.050305357	0	1004.986893521749
0.19054607	0.14454398	0.37	20.661076	0.02160009	-0.0034495126	-0.034958266	0.20983555	0.052199604	0.052203985	0	1009.2713659185827
0.19054607	0.15848932	0.37	23.680579	0.019866371	-0.0003153815	-0.036513952	0.21591186	0.054368249	0.054372278	0	1014.3284503252878
0.19054607	0.17378008	0.37	27.345837	0.018257301	0.0038124133	-0.038253246	0.22204252	0.05686337	0.056867073	0	1020.3380409034714
0.19054607	0.19054607	0.37	31.818463	0.016770528	0.0091856995	-0.040207626	0.22820345	0.059755886	0.059759287	0	1027.5283750827814
0.19054607	0.20892961	0.37	37.297896	0.01540418	0.0161123	-0.042403508	0.23437589	0.063134409	0.063137533	0	1036.1821508829873
0.19054607	0.22908677	0.37	44.018137	0.014156594	0.024954943	-0.044858935	0.24054968	0.067108857	0.067111728	0	1046.6366431382125
0.19054607	0.25118864	0.37	52.235083	0.013025915	0.036119277	-0.047579919	0.24672696	0.071813308	0.071815949	0	1059.2737290711812
0.19054607	0.27542287	0.37	62.202038	0.012009563	0.050027652	-0.050557188	0.25292537	0.077407048	0.077409483	0	1074.496366462592
0.19054607	0.30199517	0.37	74.134493	0.011103656	0.067079126	-0.053764591	0.25917973	0.084072659	0.084074911	0	1092.6916011781157
0.19054607	0.33113112	0.37	88.170895	0.010302543	0.087602588	-0.057160503	0.26554056	0.092010381	0.09201247	0	1114.1860086574964
0.19054607	0.36307805	0.37	104.34113	0.0095986365	0.11181584	-0.060692793	0.27206921	0.10142889	0.10143084	0	1139.2055557767571
0.19054607	0.39810717	0.37	122.55449	0.0089826601	0.13980414	-0.064306389	0.27883023	0.1125339	0.11253572	0	1167.8527881075452
0.19054607	0.43651583	0.37	142.61209	0.0084442537	0.17152498	-0.06795119	0.28588349	0.1255167	0.12551841	0	1200.1085797636397
0.19054607	0.47863009	0.37	164.23869	0.0079727566	0.20683492	-0.071587933	0.29327834	0.14054507	0.14054668	0	1235.8553154847439
0.19054607	0.52480746	0.37	187.12248	0.0075579357	0.24552734	-0.07519079	0.30105102	0.15775765	0.15775919	0	1274.911460722107
0.19054607	0.57543994	0.37	210.95137	0.0071905054	0.28736918	-0.078746943	0.30922506	0.17726228	0.17726374	0	1317.066220325151
0.19054607	0.63095734	0.37	235.43931	0.0068623972	0.33212946	-0.08225427	0.31781364	0.19913729	0.19913868	0	1362.1071553737193
0.19054607	0.69183097	0.37	260.34118	0.0065668201	0.37959737	-0.085718358	0.32682258	0.22343489	0.22343622	0	1409.8382193564025
0.19054607	0.75857758	0.37	285.45843	0.0062981849	0.42959155	-0.08914969	0.33625315	0.25018555	0.25018683	0	1460.0894542030828
0.19054607	0.83176377	0.37	310.63825	0.0060519577	0.48196304	-0.092561407	0.34610433	0.27940254	0.27940377	0	1512.7205476672614
0.19054607	0.91201084	0.37	335.76936	0.005824493	0.53659437	-0.095967719	0.35637442	0.31108621	0.31108739	0	1567.620538020668
0.19054607	1.	0.37	360.77613	0.0056128713	0.59339681	-0.099382871	0.36706206	0.34522782	0.34522896	0	1624.7055848405132
0.19054607	1.0964782	0.37	385.61257	0.0054147571	0.65230688	-0.10282055	0.37816686	0.38181271	0.38181381	0	1683.9159089390996
0.19054607	1.2022644	0.37	410.2566	0.0052282782	0.71328282	-0.10629356	0.38968972	0.42082292	0.42082398	0	1745.2125869426714
0.19054607	1.3182567	0.37	434.70508	0.0050519292	0.77630126	-0.10981374	0.40163295	0.4622393	0.46224033	0	1808.5744642555053
0.19054607	1.4454398	0.37	458.96961	0.0048844932	0.84135447	-0.11339194	0.41400026	0.50604315	0.50604414	0	1873.995567778801
0.19054607	1.5848932	0.37	483.07303	0.0047249809	0.90844788	-0.11703808	0.42679678	0.55221747	0.55221843	0	1941.4827827413997
0.19054607	1.7378008	0.37	507.04665	0.0045725821	0.97759814	-0.12076125	0.44002888	0.60074795	0.60074888	0	2011.0539673679527
0.19054607	1.9054607	0.37	530.92804	0.0044266287	1.0488315	-0.12456985	0.45370419	0.65162366	0.65162456	0	2082.7364377358367
0.19054607	2.0892961	0.37	554.7592	0.0042865649	1.1221823	-0.12847163	0.46783142	0.70483759	0.70483846	0	2156.565486456425
0.19054607	2.2908677	0.37	578.58525	0.0041519249	1.1976925	-0.13247384	0.48242031	0.760387	0.76038784	0	2232.5839236974107
0.19054607	2.5118864	0.37	602.45334	0.0040223141	1.2754098	-0.13658331	0.49748157	0.81827369	0.81827451	0	2310.840289941602
0.19054607	2.7542287	0.37	626.41186	0.003897396	1.3553881	-0.1408065	0.51302679	0.87850415	0.87850494	0	2391.389256899454
0.19054607	3.0199517	0.37	650.50976	0.0037768801	1.4376861	-0.14514962	0.52906841	0.94108964	0.9410904	0	2474.2903016884043
0.19054607	3.3113112	0.37	674.7962	0.0036605141	1.5223673	-0.14961866	0.54561965	1.0060462	1.006047	0	2559.607682498132
0.19054607	3.6307805	0.37	699.32011	0.0035480763	1.6094996	-0.15421946	0.56269448	1.0733948	1.0733955	0	2647.410052335239
0.19054607	3.9810717	0.37	724.13004	0.0034393701	1.6991547	-0.15895774	0.58030762	1.143161	1.1431617	0	2737.769895284043
0.19054607	4.3651583	0.37	749.27396	0.00333422	1.7914084	-0.16383915	0.5984745	1.2153753	1.215376	0	2830.763794470612
0.19054607	4.7863009	0.37	774.79917	0.0032324676	1.8863402	-0.16886929	0.61721122	1.2900726	1.2900733	0	2926.4720423310646
0.19054607	5.2480746	0.37	800.75225	0.003133969	1.9840332	-0.17405377	0.63653458	1.3672928	1.3672934	0	3024.978557084197
0.19054607	5.7543994	0.37	827.17909	0.0030385925	2.0845738	-0.17939822	0.65646207	1.4470799	1.4470805	0	3126.3705973855012
0.19054607	6.3095734	0.37	854.12484	0.0029462167	2.188052	-0.1849083	0.67701183	1.5294826	1.5294832	0	3230.7390302911936
0.19054607	6.9183097	0.37	881.634	0.0028567288	2.2945614	-0.19058975	0.6982027	1.614554	1.6145546	0	3338.1783486401746
0.19054607	7.5857758	0.37	909.75044	0.0027700237	2.4041988	-0.19644838	0.7200542	1.7023515	1.7023521	0	3448.7862882751087
0.19054607	8.3176377	0.37	938.5175	0.0026860027	2.5170645	-0.2024901	0.74258652	1.7929367	1.7929373	0	3562.6641064356354
0.19054607	9.1201084	0.37	967.97802	0.0026045731	2.6332622	-0.20872095	0.76582059	1.8863755	1.8863761	0	3679.916512136576
0.19054607	10.	0.37	998.17448	0.0025256468	2.7528992	-0.21514709	0.789778	1.982738	1.9827386	0	3800.651826269871