0.43651583	1.e-12	0.02	2446.4799	23899.769	-0.0087243531	-0.0047385959	-0.0047385928	-2.6126614	8.4910131	0	931.2792057740221
0.43651583	1.0964782e-12	0.02	2231.2535	21798.58	-0.0086816049	-0.0048016494	-0.0048016459	-2.3835496	7.7439261	0	931.3181856513576
0.43651583	1.2022644e-12	0.02	2034.9646	19882.265	-0.0086388513	-0.0048648491	-0.0048648453	-2.1745936	7.0625748	0	931.3571678531778
0.43651583	1.3182567e-12	0.02	1855.947	18134.556	-0.0085960931	-0.0049281763	-0.0049281722	-1.9840197	6.441175	0	931.3961519811068
0.43651583	1.4454398e-12	0.02	1692.681	16540.62	-0.0085533308	-0.0049916148	-0.0049916102	-1.8102107	5.8744517	0	931.4351378735396
0.43651583	1.5848932e-12	0.02	1543.7807	15086.925	-0.0085105649	-0.0050551501	-0.0050551452	-1.6516913	5.357594	0	931.4741253256509
0.43651583	1.7378008e-12	0.02	1407.9819	13761.131	-0.0084677959	-0.00511877	-0.0051187646	-1.5071162	4.8862141	0	931.5131141044285
0.43651583	1.9054607e-12	0.02	1284.1321	12551.986	-0.0084250242	-0.0051824636	-0.0051824576	-1.3752586	4.4563107	0	931.5521040369923
0.43651583	2.0892961e-12	0.02	1171.1796	11449.224	-0.00838225	-0.0052462213	-0.0052462147	-1.2549993	4.0642341	0	931.5910951139468
0.43651583	2.2908677e-12	0.02	1068.1657	10443.485	-0.0083394737	-0.005310035	-0.0053100278	-1.1453179	3.706656	0	931.6300871116754
0.43651583	2.5118864e-12	0.02	974.21598	9526.2325	-0.0082966956	-0.0053738976	-0.0053738897	-1.0452836	3.3805409	0	931.6690798836056
0.43651583	2.7542287e-12	0.02	888.53279	8689.6807	-0.0082539159	-0.0054378026	-0.0054377939	-0.95404761	3.0831204	0	931.7080733639682
0.43651583	3.0199517e-12	0.02	810.3888	7926.7285	-0.0082111348	-0.0055017447	-0.0055017352	-0.87083574	2.8118698	0	931.7470674625648
0.43651583	3.3113112e-12	0.02	739.12062	7230.8999	-0.0081683525	-0.0055657192	-0.0055657088	-0.79494195	2.5644862	0	931.7860620816806
0.43651583	3.6307805e-12	0.02	674.12327	6596.2888	-0.0081255691	-0.0056297219	-0.0056297105	-0.72572234	2.3388697	0	931.8250572062827
0.43651583	3.9810717e-12	0.02	614.84498	6017.5089	-0.0080827848	-0.0056937491	-0.0056937366	-0.66258966	2.1331051	0	931.8640527179855
0.43651583	4.3651583e-12	0.02	560.78254	5489.6474	-0.0080399997	-0.0057577978	-0.0057577841	-0.60500831	1.9454455	0	931.9030485792067
0.43651583	4.7863009e-12	0.02	511.47701	5008.2242	-0.0079972138	-0.0058218653	-0.0058218502	-0.55248985	1.7742979	0	931.9420448425619
0.43651583	5.2480746e-12	0.02	466.50983	4569.1532	-0.0079544274	-0.005885949	-0.0058859325	-0.50458879	1.6182095	0	931.9810412712807
0.43651583	5.7543994e-12	0.02	425.49928	4168.7078	-0.0079116404	-0.005950047	-0.0059500289	-0.46089885	1.4758552	0	932.020037998781
0.43651583	6.3095734e-12	0.02	388.09721	3803.4894	-0.0078688529	-0.0060141575	-0.0060141376	-0.4210495	1.3460265	0	932.0590349649311
0.43651583	6.9183097e-12	0.02	353.98612	3470.3985	-0.0078260651	-0.0060782788	-0.0060782571	-0.38470282	1.2276213	0	932.0980320100048
0.43651583	7.5857758e-12	0.02	322.87643	3166.608	-0.0077832768	-0.0061424097	-0.0061423858	-0.35155059	1.1196345	0	932.1370293519808
0.43651583	8.3176377e-12	0.02	294.50406	2889.54	-0.0077404883	-0.0062065489	-0.0062065227	-0.32131174	1.0211494	0	932.1760267277814
0.43651583	9.1201084e-12	0.02	268.62815	2636.8431	-0.0076976995	-0.0062706953	-0.0062706666	-0.29372994	0.93132989	0	932.2150242539124
0.43651583	1.e-11	0.02	245.02904	2406.3729	-0.0076549104	-0.0063348482	-0.0063348167	-0.26857139	0.84941353	0	932.2540219454069
0.43651583	1.0964782e-11	0.02	223.5064	2196.1738	-0.0076121212	-0.0063990067	-0.0063989722	-0.24562286	0.77470493	0	932.2930196293848
0.43651583	1.2022644e-11	0.02	203.87751	2004.4621	-0.0075693318	-0.00646317	-0.0064631322	-0.2246899	0.70656988	0	932.3320174167151
0.43651583	1.3182567e-11	0.02	185.97576	1829.611	-0.0075265422	-0.0065273377	-0.0065272963	-0.20559516	0.64442998	0	932.3710153149138
0.43651583	1.4454398e-11	0.02	169.64916	1670.1371	-0.0074837525	-0.0065915093	-0.0065914638	-0.1881769	0.58775771	0	932.4100132431788
0.43651583	1.5848932e-11	0.02	154.75913	1524.6873	-0.0074409626	-0.0066556842	-0.0066556344	-0.17228761	0.536072	0	932.4490113011037
0.43651583	1.7378008e-11	0.02	141.17926	1392.0276	-0.0073981727	-0.0067198624	-0.0067198077	-0.15779275	0.48893407	0	932.4880093082924
0.43651583	1.9054607e-11	0.02	128.79427	1271.0327	-0.0073553827	-0.0067840442	-0.0067839843	-0.14456963	0.44594376	0	932.527007347426
0.43651583	2.0892961e-11	0.02	117.49903	1160.6762	-0.0073125927	-0.0068482333	-0.0068481676	-0.13250635	0.40673613	0	932.5660052606579
0.43651583	2.2908677e-11	0.02	107.19764	1060.022	-0.0072698031	-0.0069124482	-0.0069123761	-0.12150085	0.37097833	0	932.6050023245228
0.43651583	2.5118864e-11	0.02	97.802663	968.21619	-0.0072270153	-0.0069767789	-0.0069766998	-0.11146007	0.33836676	0	932.6439955324114
0.43651583	2.7542287e-11	0.02	89.234321	884.47965	-0.0071842366	-0.0070416406	-0.007041554	-0.10229911	0.30862427	0	932.6829702214671
0.43651583	3.0199517e-11	0.02	81.41983	808.09998	-0.0071414946	-0.0071086561	-0.0071085611	-0.093940576	0.28149732	0	932.7218699726694
0.43651583	3.3113112e-11	0.02	74.292735	738.42448	-0.0070988492	-0.007181538	-0.0071814338	-0.086313865	0.25675326	0	932.7605687395688
0.43651583	3.6307805e-11	0.02	67.79249	674.86045	-0.0070563265	-0.0072626787	-0.0072625645	-0.079354611	0.23418108	0	932.7989970431863
0.43651583	3.9810717e-11	0.02	61.864014	616.87362	-0.0070138758	-0.0073503489	-0.0073502236	-0.073004107	0.21359129	0	932.83723502093
0.43651583	4.3651583e-11	0.02	56.457093	563.97741	-0.0069714425	-0.0074420811	-0.0074419438	-0.067208804	0.19481136	0	932.87538033686
0.43651583	4.7863009e-11	0.02	51.525887	515.72632	-0.0069289971	-0.0075363288	-0.0075361783	-0.061919852	0.17768318	0	932.9134897745474
0.43651583	5.2480746e-11	0.02	47.028568	471.71285	-0.0068865267	-0.0076322349	-0.0076320698	-0.057092704	0.16206196	0	932.951591564173
0.43651583	5.7543994e-11	0.02	42.926969	431.56466	-0.0068440271	-0.0077293094	-0.0077291284	-0.052686724	0.14781536	0	932.9896988577722
0.43651583	6.3095734e-11	0.02	39.186277	394.94191	-0.0068014981	-0.0078272559	-0.0078270574	-0.048664853	0.13482254	0	933.0278174186391
0.43651583	6.9183097e-11	0.02	35.774737	361.53446	-0.0067589417	-0.0079258868	-0.0079256691	-0.044993293	0.12297322	0	933.0659488947713
0.43651583	7.5857758e-11	0.02	32.663388	331.05939	-0.006716361	-0.0080250799	-0.0080248412	-0.041641218	0.11216678	0	933.1040926716933
0.43651583	8.3176377e-11	0.02	29.825814	303.25861	-0.0066737592	-0.0081247559	-0.0081244942	-0.038580517	0.10231142	0	933.1422472367043
0.43651583	9.1201084e-11	0.02	27.237924	277.89671	-0.0066311401	-0.0082248659	-0.008224579	-0.035785551	0.09332342	0	933.1804099421097
0.43651583	1.e-10	0.02	24.877745	254.75899	-0.0065885072	-0.0083253843	-0.0083250698	-0.033232938	0.0851264	0	933.2185779842462
0.43651583	1.0964782e-10	0.02	22.725238	233.64961	-0.0065458644	-0.0084263047	-0.0084259598	-0.030901353	0.077650706	0	933.25674782659
0.43651583	1.2022644e-10	0.02	20.762127	214.38995	-0.006503215	-0.0085276366	-0.0085272584	-0.028771347	0.070832805	0	933.294916191937
0.43651583	1.3182567e-10	0.02	18.971743	196.81715	-0.0064605624	-0.0086294025	-0.0086289878	-0.026825184	0.064614758	0	933.3330794685979
0.43651583	1.4454398e-10	0.02	17.338886	180.78265	-0.0064179092	-0.0087316339	-0.0087311792	-0.025046689	0.05894373	0	933.3712346274145
0.43651583	1.5848932e-10	0.02	15.849693	166.15101	-0.0063752571	-0.0088343659	-0.0088338673	-0.02342111	0.053771547	0	933.4093794190669
0.43651583	1.7378008e-10	0.02	14.491521	152.79875	-0.0063326065	-0.0089376304	-0.0089370837	-0.021934992	0.049054296	0	933.4475128739238
0.43651583	1.9054607e-10	0.02	13.252844	140.61332	-0.0062899566	-0.0090414493	-0.0090408499	-0.020576066	0.044751952	0	933.4856353396244
0.43651583	2.0892961e-10	0.02	12.123148	129.49211	-0.0062473052	-0.0091458301	-0.0091451729	-0.019333141	0.040828035	0	933.5237487516732
0.43651583	2.2908677e-10	0.02	11.092847	119.34156	-0.0062046498	-0.0092507633	-0.0092500426	-0.018196011	0.037249287	0	933.5618556487758
0.43651583	2.5118864e-10	0.02	10.153198	110.07638	-0.0061619878	-0.0093562242	-0.009355434	-0.017155368	0.033985386	0	933.599958943585
0.43651583	2.7542287e-10	0.02	9.2962273	101.61874	-0.006119317	-0.0094621768	-0.0094613104	-0.016202722	0.031008671	0	933.6380613927853
0.43651583	3.0199517e-10	0.02	8.5146615	93.897665	-0.0060766362	-0.0095685783	-0.0095676283	-0.01533033	0.028293903	0	933.6761649412771
0.43651583	3.3113112e-10	0.02	7.8018672	86.848388	-0.0060339452	-0.0096753841	-0.0096743424	-0.01453113	0.025818055	0	933.7142706282195
0.43651583	3.6307805e-10	0.02	7.1517934	80.411805	-0.0059912444	-0.0097825514	-0.0097814093	-0.013798683	0.023560108	0	933.7523788933295
0.43651583	3.9810717e-10	0.02	6.5589213	74.534	-0.0059485349	-0.0098900423	-0.0098887899	-0.013127114	0.021500888	0	933.7904894378248
0.43651583	4.3651583e-10	0.02	6.018217	69.165783	-0.0059058181	-0.0099978245	-0.0099964513	-0.012511067	0.019622897	0	933.8286015645483
0.43651583	4.7863009e-10	0.02	5.5250893	64.262281	-0.0058630956	-0.010105873	-0.010104367	-0.011945657	0.017910173	0	933.8667142681649
0.43651583	5.2480746e-10	0.02	5.075351	59.782564	-0.0058203691	-0.01021417	-0.010212519	-0.011426427	0.016348156	0	933.9048262896569
0.43651583	5.7543994e-10	0.02	4.6651829	55.689305	-0.0057776401	-0.010322704	-0.010320893	-0.010949314	0.014923568	0	933.9429364883922
0.43651583	6.3095734e-10	0.02	4.2911022	51.948461	-0.0057349099	-0.010431469	-0.010429484	-0.010510614	0.013624297	0	933.9810437368924
0.43651583	6.9183097e-10	0.02	3.9499329	48.52899	-0.0056921798	-0.010540467	-0.01053829	-0.010106946	0.012439301	0	934.019146851305
0.43651583	7.5857758e-10	0.02	3.638778	45.402588	-0.0056494504	-0.010649701	-0.010647314	-0.0097352279	0.011358514	0	934.0572452115169
0.43651583	8.3176377e-10	0.02	3.3549964	42.543452	-0.0056067221	-0.010759179	-0.010756563	-0.0093926496	0.010372756	0	934.0953383101629
0.43651583	9.1201084e-10	0.02	3.0961794	39.928059	-0.005563995	-0.010868911	-0.010866042	-0.0090766474	0.009473664	0	934.1334259593298
0.43651583	1.e-9	0.02	2.8601305	37.534969	-0.0055212686	-0.010978905	-0.010975759	-0.0087848834	0.0086536145	0	934.17150847847
0.43651583	1.0964782e-9	0.02	2.6448472	35.34464	-0.005478542	-0.011089169	-0.011085719	-0.0085152252	0.0079056601	0	934.2095866192357
0.43651583	1.2022644e-9	0.02	2.4485032	33.339258	-0.0054358141	-0.011199705	-0.011195923	-0.0082657283	0.0072234699	0	934.2476613963571
0.43651583	1.3182567e-9	0.02	2.2694333	31.502582	-0.0053930839	-0.011310512	-0.011306365	-0.0080346188	0.0066012721	0	934.285733862148
0.43651583	1.4454398e-9	0.02	2.1061186	29.819803	-0.0053503501	-0.011421584	-0.011417037	-0.0078202791	0.0060338039	0	934.3238053883737
0.43651583	1.5848932e-9	0.02	1.957174	28.277411	-0.005307612	-0.011532907	-0.011527922	-0.0076212336	0.0055162642	0	934.3618769521817
0.43651583	1.7378008e-9	0.02	1.8213359	26.86308	-0.0052648687	-0.011644465	-0.011638999	-0.0074361365	0.0050442724	0	934.3999497937988
0.43651583	1.9054607e-9	0.02	1.697452	25.565561	-0.0052221202	-0.011756238	-0.011750244	-0.0072637604	0.0046138296	0	934.4380243642161
0.43651583	2.0892961e-9	0.02	1.5844708	24.374588	-0.0051793662	-0.011868204	-0.011861632	-0.0071029858	0.0042212861	0	934.4761014150857
0.43651583	2.2908677e-9	0.02	1.4814332	23.280792	-0.0051366071	-0.011980341	-0.011973135	-0.0069527916	0.00386331	0	934.5141810967385
0.43651583	2.5118864e-9	0.02	1.3874645	22.275624	-0.0050938433	-0.012092627	-0.012084725	-0.0068122467	0.0035368606	0	934.5522635595047
0.43651583	2.7542287e-9	0.02	1.3017668	21.351284	-0.0050510752	-0.012205042	-0.012196378	-0.0066805016	0.0032391633	0	934.5903488785495
0.43651583	3.0199517e-9	0.02	1.2236122	20.500655	-0.0050083033	-0.012317567	-0.012308068	-0.0065567819	0.0029676865	0	934.6284370726644
0.43651583	3.3113112e-9	0.02	1.152337	19.717246	-0.0049655283	-0.012430188	-0.012419772	-0.0064403812	0.0027201208	0	934.6665279163536
0.43651583	3.6307805e-9	0.02	1.0873358	18.995139	-0.0049227505	-0.01254289	-0.012531469	-0.0063306551	0.0024943605	0	934.7046215223647
0.43651583	3.9810717e-9	0.02	1.0280566	18.328933	-0.0048799704	-0.012655661	-0.012643138	-0.0062270163	0.0022884847	0	934.742717815533
0.43651583	4.3651583e-9	0.02	0.97399584	17.713707	-0.0048371883	-0.012768492	-0.012754762	-0.0061289287	0.0021007421	0	934.7808168334406
0.43651583	4.7863009e-9	0.02	0.92469448	17.14497	-0.0047944047	-0.012881376	-0.012866321	-0.0060359037	0.0019295359	0	934.8189184821313
0.43651583	5.2480746e-9	0.02	0.87973379	16.61863	-0.0047516197	-0.012994305	-0.012977798	-0.0059474956	0.0017734099	0	934.8570229871005
0.43651583	5.7543994e-9	0.02	0.83873195	16.130954	-0.0047088336	-0.013107274	-0.013089175	-0.0058632979	0.0016310365	0	934.8951304047225
0.43651583	6.3095734e-9	0.02	0.80134077	15.678539	-0.0046660465	-0.013220279	-0.013200435	-0.0057829398	0.0015012053	0	934.9332409604926
0.43651583	6.9183097e-9	0.02	0.76724276	15.25828	-0.0046232587	-0.013333316	-0.013311558	-0.0057060832	0.0013828127	0	934.9713547483676
0.43651583	7.5857758e-9	0.02	0.73614838	14.867349	-0.0045804702	-0.013446383	-0.013422527	-0.0056324196	0.0012748523	0	935.0094720877997
0.43651583	8.3176377e-9	0.02	0.7077936	14.503165	-0.0045376812	-0.013559477	-0.013533322	-0.0055616678	0.0011764066	0	935.0475931667016
0.43651583	9.1201084e-9	0.02	0.68193768	14.163376	-0.0044948916	-0.013672597	-0.01364392	-0.0054935713	0.0010866393	0	935.0857185112304
0.43651583	1.e-8	0.02	0.65836111	13.845835	-0.0044521017	-0.013785741	-0.013754301	-0.0054278959	0.0010047875	0	935.1238482153425
0.43651583	1.0964782e-8	0.02	0.6368637	13.548588	-0.0044093114	-0.013898909	-0.013864439	-0.0053644282	0.00093015583	0	935.1619828615682
0.43651583	1.2022644e-8	0.02	0.61726295	13.269849	-0.0043665207	-0.0140121	-0.013974309	-0.0053029734	0.00086211043	0	935.2001229196903
0.43651583	1.3182567e-8	0.02	0.59939246	13.007993	-0.0043237297	-0.014125312	-0.014083882	-0.0052433539	0.00080007325	0	935.2382688407004
0.43651583	1.4454398e-8	0.02	0.58310051	12.761536	-0.0042809385	-0.014238547	-0.014193129	-0.0051854077	0.0007435174	0	935.2764210755895
0.43651583	1.5848932e-8	0.02	0.56824879	12.529127	-0.004238147	-0.014351804	-0.014302015	-0.0051289869	0.00069196251	0	935.3145803760099
0.43651583	1.7378008e-8	0.02	0.55471121	12.309533	-0.0041953552	-0.014465082	-0.014410504	-0.0050739566	0.00064497075	0	935.3527474184489
0.43651583	1.9054607e-8	0.02	0.54237284	12.101629	-0.0041525631	-0.014578383	-0.014518559	-0.0050201936	0.00060214302	0	935.3909228981847
0.43651583	2.0892961e-8	0.02	0.53112893	11.904391	-0.0041097708	-0.014691705	-0.014626136	-0.0049675857	0.00056311558	0	935.4291075480785
0.43651583	2.2908677e-8	0.02	0.520884	11.716885	-0.0040669783	-0.01480505	-0.014733189	-0.0049160303	0.00052755696	0	935.4673022325301
0.43651583	2.5118864e-8	0.02	0.51155107	11.53826	-0.0040241855	-0.014918418	-0.014839669	-0.0048654339	0.0004951651	0	935.5055079662701
0.43651583	2.7542287e-8	0.02	0.50305086	11.367738	-0.0039813923	-0.01503181	-0.014945521	-0.0048157108	0.0004656648	0	935.5437258767772
0.43651583	3.0199517e-8	0.02	0.49531115	11.204612	-0.0039385989	-0.015145225	-0.015050689	-0.0047667832	0.00043880536	0	935.5819568284513
0.43651583	3.3113112e-8	0.02	0.48826616	11.048238	-0.0038958052	-0.015258665	-0.015155109	-0.0047185797	0.00041435842	0	935.6202021178927
0.43651583	3.6307805e-8	0.02	0.48185597	10.898027	-0.0038530111	-0.01537213	-0.015258716	-0.0046710353	0.000392116	0	935.6584630604927
0.43651583	3.9810717e-8	0.02	0.47602604	10.753444	-0.0038102166	-0.015485621	-0.015361439	-0.0046240903	0.00037188869	0	935.6967409904344
0.43651583	4.3651583e-8	0.02	0.47072666	10.614001	-0.0037674217	-0.015599139	-0.015463202	-0.0045776905	0.00035350403	0	935.7350373358569
0.43651583	4.7863009e-8	0.02	0.4659126	10.479252	-0.0037246265	-0.015712684	-0.015563927	-0.004531786	0.00033680496	0	935.7733534685256
0.43651583	5.2480746e-8	0.02	0.46154265	10.348791	-0.0036818307	-0.015826257	-0.015663534	-0.0044863313	0.00032164847	0	935.8116911736148
0.43651583	5.7543994e-8	0.02	0.45757929	10.222249	-0.0036390344	-0.015939859	-0.015761936	-0.0044412848	0.00030790425	0	935.8500519920116
0.43651583	6.3095734e-8	0.02	0.45398831	10.099287	-0.0035962376	-0.016053492	-0.01585905	-0.0043966083	0.00029545355	0	935.8884374833943
0.43651583	6.9183097e-8	0.02	0.45073852	9.9795975	-0.0035534402	-0.016167156	-0.015954789	-0.0043522668	0.00028418804	0	935.9268493765636
0.43651583	7.5857758e-8	0.02	0.44780147	9.8628984	-0.0035106421	-0.016280851	-0.01604907	-0.0043082284	0.00027400882	0	935.9652893251543
0.43651583	8.3176377e-8	0.02	0.44515111	9.7489316	-0.0034678433	-0.01639458	-0.016141812	-0.0042644636	0.00026482542	0	936.003758851262
0.43651583	9.1201084e-8	0.02	0.44276362	9.6374609	-0.0034250437	-0.016508344	-0.016232942	-0.0042209455	0.0002565549	0	936.042259420609
0.43651583	1.e-7	0.02	0.44061711	9.528269	-0.0033822433	-0.016622143	-0.016322392	-0.0041776495	0.00024912106	0	936.0807923110038
0.43651583	1.0964782e-7	0.02	0.43869143	9.421156	-0.0033394419	-0.01673598	-0.016410109	-0.004134553	0.00024245367	0	936.1193587062993
0.43651583	1.2022644e-7	0.02	0.43696798	9.3159377	-0.0032966396	-0.016849855	-0.016496048	-0.0040916351	0.00023648775	0	936.1579593581473
0.43651583	1.3182567e-7	0.02	0.43542954	9.2124433	-0.0032538362	-0.01696377	-0.016580183	-0.004048877	0.00023116304	0	936.1965949430352
0.43651583	1.4454398e-7	0.02	0.43406011	9.1105148	-0.0032110316	-0.017077727	-0.016662501	-0.0040062613	0.00022642343	0	936.235265799206
0.43651583	1.5848932e-7	0.02	0.43284479	9.0100054	-0.0031682259	-0.017191728	-0.016743006	-0.0039637722	0.00022221659	0	936.2739717575384
0.43651583	1.7378008e-7	0.02	0.43176973	8.9107788	-0.0031254189	-0.017305775	-0.016821718	-0.0039213952	0.00021849352	0	936.3127126301194
0.43651583	1.9054607e-7	0.02	0.43082199	8.812708	-0.0030826105	-0.017419871	-0.016898673	-0.0038791173	0.00021520845	0	936.3514878344181
0.43651583	2.0892961e-7	0.02	0.42998953	8.7156752	-0.0030398009	-0.017534017	-0.016973917	-0.0038369265	0.00021231842	0	936.3902963181216
0.43651583	2.2908677e-7	0.02	0.42926113	8.6195706	-0.0029969899	-0.017648219	-0.017047507	-0.0037948121	0.00020978322	0	936.4291371980383
0.43651583	2.5118864e-7	0.02	0.42862639	8.5242919	-0.0029541779	-0.01776248	-0.017119507	-0.0037527645	0.00020756501	0	936.4680088956985
0.43651583	2.7542287e-7	0.02	0.42807561	8.4297435	-0.002911365	-0.017876806	-0.017189984	-0.0037107749	0.00020562808	0	936.5069100581281
0.43651583	3.0199517e-7	0.02	0.42759974	8.3358351	-0.0028685517	-0.017991204	-0.017259005	-0.0036688355	0.00020393821	0	936.5458389565268
0.43651583	3.3113112e-7	0.02	0.42719024	8.24248	-0.0028257388	-0.018105683	-0.017326638	-0.0036269395	0.00020246205	0	936.5847935614335
0.43651583	3.6307805e-7	0.02	0.42683895	8.1495923	-0.0027829277	-0.018220259	-0.017392947	-0.0035850807	0.00020116588	0	936.623771354813
0.43651583	3.9810717e-7	0.02	0.42653774	8.057084	-0.0027401204	-0.018334948	-0.017457997	-0.0035432538	0.00020001401	0	936.6627692360997
0.43651583	4.3651583e-7	0.02	0.42627814	7.9648579	-0.0026973202	-0.018449779	-0.017521848	-0.0035014543	0.00019896584	0	936.7017829772495
0.43651583	4.7863009e-7	0.02	0.42605027	7.8727925	-0.0026545327	-0.018564789	-0.017584564	-0.0034596787	0.00019796854	0	936.7408061140528
0.43651583	5.2480746e-7	0.02	0.42583872	7.7806816	-0.0026117707	-0.018680022	-0.017646208	-0.0034179244	0.00019692873	0	936.7798254362208
0.43651583	5.7543994e-7	0.02	0.42560301	7.6879413	-0.0025690765	-0.018795507	-0.017706816	-0.0033761914	0.00019557518	0	936.818800523652
0.43651583	6.3095734e-7	0.02	0.42517754	7.5921035	-0.0025266374	-0.018911114	-0.017766256	-0.0033344883	0.00019275266	0	936.8575578762092
0.43651583	6.9183097e-7	0.02	0.42386601	7.4826702	-0.0024852526	-0.019026236	-0.017823913	-0.0032928607	0.00018353827	0	936.8953581499181
0.43651583	7.5857758e-7	0.02	0.42063354	7.3440328	-0.0024461181	-0.019143497	-0.017882395	-0.0032514555	0.00016053349	0	936.9310286168919
0.43651583	8.3176377e-7	0.02	0.41803818	7.2154059	-0.0024062885	-0.019278952	-0.017957732	-0.0032103703	0.00014185942	0	936.9670354482607
0.43651583	9.1201084e-7	0.02	0.41752275	7.1186434	-0.0023640715	-0.019431472	-0.018048766	-0.0031694254	0.00013784914	0	937.0049904308003
0.43651583	1.e-6	0.02	0.41753585	7.0297823	-0.0023212616	-0.019587754	-0.018142158	-0.0031284973	0.00013749295	0	937.0434581717338
0.43651583	1.0964782e-6	0.02	0.41763378	6.9419794	-0.0022783732	-0.01974457	-0.01823464	-0.0030875628	0.00013763487	0	937.0820167686368
0.43651583	1.2022644e-6	0.02	0.41776327	6.8544113	-0.0022354665	-0.019901545	-0.018325792	-0.003046617	0.00013789708	0	937.120617552024
0.43651583	1.3182567e-6	0.02	0.41791797	6.7669765	-0.0021925474	-0.020058641	-0.018415526	-0.0030056572	0.0001382352	0	937.159256632095
0.43651583	1.4454398e-6	0.02	0.41809682	6.6796547	-0.0021496157	-0.020215858	-0.018503791	-0.0029646811	0.00013864218	0	937.1979351551191
0.43651583	1.5848932e-6	0.02	0.41829959	6.5924363	-0.0021066702	-0.020373203	-0.018590535	-0.0029236863	0.00013911589	0	937.2366552257231
0.43651583	1.7378008e-6	0.02	0.41852626	6.505314	-0.0020637097	-0.020530682	-0.018675705	-0.0028826705	0.00013965527	0	937.2754189673246
0.43651583	1.9054607e-6	0.02	0.41877699	6.4182814	-0.0020207327	-0.020688301	-0.018759247	-0.0028416312	0.00014025977	0	937.3142288040023
0.43651583	2.0892961e-6	0.02	0.41905211	6.3313333	-0.0019777378	-0.020846071	-0.018841104	-0.0028005662	0.00014092926	0	937.3530871222517
0.43651583	2.2908677e-6	0.02	0.41935206	6.244465	-0.0019347231	-0.021003998	-0.018921216	-0.002759473	0.00014166402	0	937.391996834726
0.43651583	2.5118864e-6	0.02	0.41967744	6.1576725	-0.0018916868	-0.021162094	-0.018999523	-0.0027183492	0.00014246467	0	937.4309607601211
0.43651583	2.7542287e-6	0.02	0.42002901	6.0709525	-0.0018486268	-0.021320367	-0.019075962	-0.0026771921	0.00014333217	0	937.4699820553761
0.43651583	3.0199517e-6	0.02	0.42040764	5.9843023	-0.0018055409	-0.021478831	-0.019150468	-0.0026359993	0.00014426782	0	937.5090640089705
0.43651583	3.3113112e-6	0.02	0.42081436	5.8977193	-0.0017624266	-0.021637495	-0.019222978	-0.0025947681	0.00014527322	0	937.5482101536694
0.43651583	3.6307805e-6	0.02	0.42125036	5.8112017	-0.001719281	-0.021796375	-0.019293424	-0.0025534955	0.00014635032	0	937.5874244920215
0.43651583	3.9810717e-6	0.02	0.42171698	5.7247481	-0.0016761013	-0.021955483	-0.019361737	-0.0025121787	0.00014750137	0	937.6267109514097
0.43651583	4.3651583e-6	0.02	0.42221571	5.6383575	-0.0016328842	-0.022114836	-0.019427848	-0.0024708146	0.00014872894	0	937.6660739290002
0.43651583	4.7863009e-6	0.02	0.42274823	5.552029	-0.001589626	-0.022274451	-0.019491686	-0.0024293999	0.00015003594	0	937.7055182353673
0.43651583	5.2480746e-6	0.02	0.4233164	5.4657625	-0.0015463228	-0.022434345	-0.019553181	-0.0023879314	0.00015142566	0	937.7450488502075
0.43651583	5.7543994e-6	0.02	0.42392228	5.3795579	-0.0015029703	-0.022594538	-0.019612258	-0.0023464053	0.0001529017	0	937.7846712229996
0.43651583	6.3095734e-6	0.02	0.42456813	5.2934158	-0.0014595638	-0.022755051	-0.019668845	-0.0023048178	0.00015446806	0	937.8243911226753
0.43651583	6.9183097e-6	0.02	0.42525644	5.2073368	-0.0014160979	-0.022915908	-0.019722867	-0.002263165	0.00015612916	0	937.864215032235
0.43651583	7.5857758e-6	0.02	0.42598995	5.1213223	-0.0013725672	-0.023077133	-0.019774247	-0.0022214425	0.00015788984	0	937.9041494722626
0.43651583	8.3176377e-6	0.02	0.42677166	5.0353737	-0.0013289652	-0.023238754	-0.01982291	-0.0021796458	0.00015975539	0	937.9442019592808
0.43651583	9.1201084e-6	0.02	0.42760485	4.9494929	-0.0012852852	-0.0234008	-0.019868779	-0.00213777	0.0001617316	0	937.984380235308
0.43651583	0.00001	0.02	0.42849312	4.8636825	-0.0012415197	-0.023563304	-0.019911777	-0.0020958098	0.00016382481	0	938.0246927940151
0.43651583	0.000010964782	0.02	0.4294404	4.7779451	-0.0011976604	-0.023726299	-0.019951825	-0.0020537597	0.00016604191	0	938.0651489183075
0.43651583	0.000012022644	0.02	0.42829567	4.692227	-0.0011586475	-0.023871781	-0.019970801	-0.002013908	0.00016606953	0	938.1014475035088
0.43651583	0.000013182567	0.02	0.42916641	4.6066407	-0.0011150502	-0.024034138	-0.020002977	-0.0019718809	0.00016833378	0	938.1418053868484
0.43651583	0.000014454398	0.02	0.43009023	4.5211383	-0.0010713754	-0.024196944	-0.020031802	-0.0019297659	0.00017072494	0	938.1822990561724
0.43651583	0.000015848932	0.02	0.43107081	4.4357246	-0.0010276158	-0.024360231	-0.020057182	-0.0018875576	0.00017325063	0	938.2229371366906
0.43651583	0.000017378008	0.02	0.43211214	4.350405	-0.00098376333	-0.024524033	-0.020079022	-0.0018452502	0.00017591913	0	938.2637289958695
0.43651583	0.000019054607	0.02	0.43321857	4.2651856	-0.00093980902	-0.02468839	-0.020097226	-0.0018028376	0.0001787394	0	938.3046848655761
0.43651583	0.000020892961	0.02	0.43439483	4.1800732	-0.00089574319	-0.024853342	-0.020111699	-0.0017603131	0.0001817212	0	938.3458156259769
0.43651583	0.000022908677	0.02	0.43564606	4.0950752	-0.00085155518	-0.025018934	-0.020122343	-0.0017176697	0.0001848751	0	938.3871331343867
0.43651583	0.000025118864	0.02	0.43697789	4.0101999	-0.00080723338	-0.025185215	-0.02012906	-0.0016748997	0.00018821257	0	938.4286501407071
0.43651583	0.000027542287	0.02	0.43839641	3.9254565	-0.00076276504	-0.025352237	-0.020131753	-0.001631995	0.00019174606	0	938.4703804471535
0.43651583	0.000030199517	0.02	0.43990826	3.8408551	-0.00071813622	-0.025520059	-0.020130325	-0.0015889467	0.0001954891	0	938.5123389740231
0.43651583	0.000033113112	0.02	0.44152065	3.7564068	-0.0006733317	-0.025688742	-0.020124678	-0.0015457454	0.00019945633	0	938.5545418630493
0.43651583	0.000036307805	0.02	0.44324145	3.6721238	-0.00062833482	-0.025858354	-0.020114715	-0.0015023807	0.00020366368	0	938.597006590147
0.43651583	0.000039810717	0.02	0.44507918	3.5880195	-0.00058312737	-0.026028968	-0.02010034	-0.0014588417	0.0002081284	0	938.6397520687669
0.43651583	0.000043651583	0.02	0.44704314	3.5041086	-0.00053768945	-0.026200663	-0.020081458	-0.0014151164	0.00021286922	0	938.6827987814338
0.43651583	0.000047863009	0.02	0.4491434	3.4204071	-0.00049199935	-0.026373526	-0.020057976	-0.001371192	0.00021790642	0	938.7261688737027
0.43651583	0.000052480746	0.02	0.45139092	3.3369324	-0.00044603332	-0.026547652	-0.020029804	-0.0013270547	0.00022326204	0	938.7698863514687
0.43651583	0.000057543994	0.02	0.45379761	3.2537037	-0.00039976547	-0.026723141	-0.019996851	-0.0012826892	0.00022895995	0	938.8139772500872
0.43651583	0.000063095734	0.02	0.45637638	3.1707418	-0.00035316753	-0.026900104	-0.019959033	-0.0012380796	0.00023502604	0	938.8584697095408
0.43651583	0.000069183097	0.02	0.45914126	3.0880691	-0.0003062087	-0.027078662	-0.019916266	-0.0011932081	0.00024148833	0	938.9033942469117
0.43651583	0.000075857758	0.02	0.46210744	3.0057103	-0.00025885537	-0.027258945	-0.019868473	-0.0011480559	0.0002483772	0	938.9487838879223
0.43651583	0.000083176377	0.02	0.4652914	2.923692	-0.00021107097	-0.027441093	-0.019815579	-0.0011026024	0.00025572553	0	938.9946744018254
0.43651583	0.000091201084	0.02	0.46871098	2.8420428	-0.00016281563	-0.027625261	-0.019757517	-0.0010568253	0.0002635689	0	939.0411045081089
0.43651583	0.0001	0.02	0.47238551	2.7607939	-0.00011404603	-0.027811614	-0.019694224	-0.0010107008	0.0002719458	0	939.0881160925962
0.43651583	0.00010964782	0.02	0.47633587	2.679979	-0.000064715035	-0.028000333	-0.019625644	-0.00096420264	0.00028089782	0	939.1357544940132
0.43651583	0.00012022644	0.02	0.48058463	2.599634	-0.000014771432	-0.028191612	-0.019551731	-0.00091730281	0.0002904699	0	939.1840686947205
0.43651583	0.00013182567	0.02	0.48515615	2.5197979	0.000035840321	-0.028385662	-0.019472445	-0.0008699709	0.00030071049	0	939.2331116317088
0.43651583	0.00014454398	0.02	0.49007667	2.4405122	0.000087180514	-0.028582711	-0.019387756	-0.00082217396	0.00031167185	0	939.2829405151124
0.43651583	0.00015848932	0.02	0.49537449	2.3618217	0.00013931442	-0.028783007	-0.019297646	-0.00077387642	0.00032341027	0	939.3336170114238
0.43651583	0.00017378008	0.02	0.50107999	2.2837737	0.00019231271	-0.028986813	-0.019202106	-0.00072503982	0.0003359863	0	939.385207689788
0.43651583	0.00019054607	0.02	0.50722581	2.2064189	0.00024625176	-0.029194419	-0.019101141	-0.00067562262	0.00034946497	0	939.4377842164911
0.43651583	0.00020892961	0.02	0.51384695	2.1298109	0.000301214	-0.029406131	-0.01899477	-0.00062557997	0.00036391606	0	939.4914236828705
0.43651583	0.00022908677	0.02	0.52098084	2.0540065	0.00035728837	-0.029622284	-0.018883024	-0.00057486344	0.00037941436	0	939.5462090713376
0.43651583	0.00025118864	0.02	0.52866745	1.9790653	0.00041457056	-0.029843233	-0.018765952	-0.00052342083	0.00039603978	0	939.6022293681268
0.43651583	0.00027542287	0.02	0.53694939	1.9050499	0.00047316345	-0.030069361	-0.018643617	-0.0004711959	0.00041387766	0	939.6595800518689
0.43651583	0.00030199517	0.02	0.54587196	1.8320257	0.00053317743	-0.030301079	-0.018516102	-0.0004181281	0.00043301891	0	939.7183632815046
0.43651583	0.00033113112	0.02	0.55548322	1.7600606	0.00059473079	-0.030538825	-0.018383505	-0.00036415229	0.00045356018	0	939.7786883566711
0.43651583	0.00036307805	0.02	0.565834	1.6892244	0.00065794999	-0.030783066	-0.018245947	-0.00030919848	0.00047560399	0	939.840671821054
0.43651583	0.00039810717	0.02	0.57697796	1.6195891	0.00072296997	-0.031034301	-0.018103564	-0.0002531916	0.00049925877	0	939.9044379039843
0.43651583	0.00043651583	0.02	0.58897154	1.5512277	0.00078993451	-0.031293059	-0.017956515	-0.00019605111	0.000524639	0	939.97011870835
0.43651583	0.00047863009	0.02	0.60187395	1.484214	0.00085899633	-0.031559901	-0.017804978	-0.00013769089	0.00055186511	0	940.037854379719
0.43651583	0.00052480746	0.02	0.61574711	1.4186219	0.00093031746	-0.031835422	-0.017649155	-0.000078018791	0.00058106353	0	940.1077933600203
0.43651583	0.00057543994	0.02	0.63065557	1.3545243	0.0010040693	-0.032120248	-0.017489264	-0.000016936545	0.00061236647	0	940.1800925942506
0.43651583	0.00063095734	0.02	0.64666643	1.2919927	0.0010804328	-0.032415039	-0.017325547	0.000045660619	0.00064591187	0	940.2549175492636
0.43651583	0.00069183097	0.02	0.66384919	1.2310959	0.0011595987	-0.03272049	-0.017158265	0.00010988416	0.00068184315	0	940.3324425332227
0.43651583	0.00075857758	0.02	0.68227566	1.171899	0.0012417674	-0.033037326	-0.0169877	0.00017585245	0.00072030895	0	940.4128505358757
0.43651583	0.00083176377	0.02	0.70201985	1.1144625	0.0013271492	-0.033366309	-0.016814153	0.000243691	0.00076146287	0	940.4963334916323
0.43651583	0.00091201084	0.02	0.72315785	1.0588409	0.0014159643	-0.033708232	-0.016637942	0.00031353273	0.00080546321	0	940.5830923171468
0.43651583	0.001	0.02	0.74576781	1.0050822	0.0015084433	-0.034063921	-0.016459408	0.00038551806	0.00085247259	0	940.6733372683535
0.43651583	0.0010964782	0.02	0.76992994	0.95322625	0.0016048266	-0.034434238	-0.016278906	0.0004597952	0.0009026578	0	940.7672875458481
0.43651583	0.0012022644	0.02	0.79572658	0.90330425	0.0017053658	-0.034820075	-0.01609681	0.00053652035	0.00095618951	0	940.8651725163243
0.43651583	0.0013182567	0.02	0.82324244	0.85533799	0.0018103231	-0.03522236	-0.015913513	0.00061585783	0.0010132422	0	940.967231148833
0.43651583	0.0014454398	0.02	0.85256496	0.80933926	0.0019199726	-0.035642056	-0.015729427	0.00069798045	0.0010739941	0	941.0737132362185
0.43651583	0.0015848932	0.02	0.8837848	0.76530967	0.002034601	-0.036080166	-0.015544984	0.00078306974	0.0011386275	0	941.1848800340213
0.43651583	0.0017378008	0.02	0.91699653	0.72324074	0.0021545085	-0.036537727	-0.015360634	0.00087131628	0.0012073291	0	941.3010051436719
0.43651583	0.0019054607	0.02	0.95229949	0.68311449	0.0022800105	-0.03701582	-0.015176855	0.00096292014	0.0012802906	0	941.4223759218366
0.43651583	0.0020892961	0.02	0.98979852	0.64490477	0.0024114385	-0.037515561	-0.014994138	0.0010580914	0.0013577099	0	941.5492946078975
0.43651583	0.0022908677	0.02	1.0296043	0.60857998	0.0025491407	-0.038038089	-0.014812978	0.0011570508	0.001439793	0	941.6820790568124
0.43651583	0.0025118864	0.02	1.0718312	0.57410869	0.0026934799	-0.038584512	-0.01463382	0.00126003	0.0015267571	0	941.8210617807587
0.43651583	0.0027542287	0.02	1.1165893	0.54147181	0.00284482	-0.039155738	-0.014456888	0.0013672718	0.001618836	0	941.9665804783143
0.43651583	0.0030199517	0.02	1.1639547	0.51068795	0.0030034852	-0.039751996	-0.014281707	0.0014790286	0.0017162908	0	942.1189486824368
0.43651583	0.0033113112	0.02	1.2138925	0.48185375	0.0031696462	-0.040371642	-0.014105904	0.0015955556	0.0018194217	0	942.2783713687024
0.43651583	0.0036307805	0.02	1.2661405	0.45512141	0.0033431545	-0.041009897	-0.013923952	0.0017170943	0.0019285407	0	942.4448128712112
0.43651583	0.0039810717	0.02	1.3205854	0.43026189	0.0035241067	-0.041667687	-0.013736001	0.0018438588	0.0020437556	0	942.6183611332794
0.43651583	0.0043651583	0.02	1.3787727	0.40622922	0.0037150571	-0.042377488	-0.013573733	0.0019761244	0.0021648558	0	942.8008207404924
0.43651583	0.0047863009	0.02	1.4419861	0.38289993	0.0039181526	-0.043156652	-0.013453677	0.0021143415	0.0022922343	0	942.9938982441865
0.43651583	0.0052480746	0.02	1.5097213	0.36076428	0.004132928	-0.043986107	-0.013355912	0.0022589802	0.0024265889	0	943.1975309001878
0.43651583	0.0057543994	0.02	1.5819392	0.33986904	0.0043596381	-0.044859733	-0.013273446	0.0024104766	0.0025683776	0	943.4120894985657
0.43651583	0.0063095734	0.02	1.6589572	0.32015237	0.004599087	-0.045779047	-0.013206893	0.0025692846	0.0027180253	0	943.6383180059562
0.43651583	0.0069183097	0.02	1.7411829	0.30155018	0.0048522374	-0.046746927	-0.013158202	0.0027358942	0.0028759924	0	943.8770843176641
0.43651583	0.0075857758	0.02	1.8290656	0.28400159	0.0051201446	-0.047766574	-0.013129617	0.0029108376	0.0030427829	0	944.1293377893101
0.43651583	0.0083176377	0.02	1.9230846	0.26744846	0.0054039442	-0.048841351	-0.013123512	0.0030946928	0.0032189475	0	944.3961007807432
0.43651583	0.0091201084	0.02	2.0237379	0.2518352	0.0057048405	-0.04997471	-0.01314232	0.0032880855	0.0034050864	0	944.6784590912644
0.43651583	0.01	0.02	2.1315243	0.23710886	0.0060240871	-0.051170087	-0.013188426	0.0034916905	0.0036018497	0	944.977545742729
0.43651583	0.010964782	0.02	2.2469171	0.22321901	0.0063629542	-0.05243075	-0.013264015	0.0037062308	0.0038099369	0	945.2945131120395
0.43651583	0.012022644	0.02	2.3703263	0.2101178	0.0067226802	-0.05375959	-0.013370863	0.0039324727	0.004030092	0	945.6304913835631
0.43651583	0.013182567	0.02	2.5020472	0.19775983	0.0071044024	-0.05515884	-0.013510048	0.0041712177	0.0042630956	0	945.986528867944
0.43651583	0.014454398	0.02	2.6421923	0.18610209	0.0075090629	-0.056629704	-0.013681587	0.004423288	0.0045097498	0	946.3635104102462
0.43651583	0.015848932	0.02	2.790605	0.17510389	0.0079372859	-0.058171907	-0.013883981	0.0046895042	0.0047708563	0	946.7620506553303
0.43651583	0.017378008	0.02	2.9467545	0.16472679	0.0083892229	-0.059783141	-0.014113659	0.0049706544	0.0050471853	0	947.1823590511042
0.43651583	0.019054607	0.02	3.1096136	0.15493445	0.0088643684	-0.061458454	-0.014364366	0.0052674511	0.0053394326	0	947.6240781869086
0.43651583	0.020892961	0.02	3.2775249	0.1456926	0.0093613483	-0.063189589	-0.014626503	0.0055804766	0.0056481644	0	948.0860973837518
0.43651583	0.022908677	0.02	3.4480665	0.1369689	0.0098776968	-0.06496435	-0.014886489	0.0059101143	0.0059737491	0	948.5663550661347
0.43651583	0.025118864	0.02	3.6179377	0.12873286	0.010409643	-0.066766098	-0.015126256	0.0062564676	0.0063162761	0	949.0616477484134
0.43651583	0.027542287	0.02	3.7828914	0.12095578	0.010951945	-0.068573504	-0.015323003	0.0066192707	0.0066754659	0	949.5674787835708
0.43651583	0.030199517	0.02	3.9377553	0.1136106	0.011497822	-0.07036075	-0.015449396	0.0069977949	0.0070505776	0	950.077990808467
0.43651583	0.033113112	0.02	4.0765899	0.10667184	0.012039058	-0.072098383	-0.015474414	0.0073907653	0.0074403243	0	950.5860472793212
0.43651583	0.036307805	0.02	4.1930467	0.10011553	0.012566354	-0.073755025	-0.015365065	0.0077963007	0.0078428137	0	951.0835311407441
0.43651583	0.039810717	0.02	4.2809871	0.093919277	0.013070033	-0.075300121	-0.015089131	0.0082119015	0.0082555358	0	951.5619556371723
0.43651583	0.043651583	0.02	4.1571315	0.089420718	0.013364425	-0.07752827	-0.015439491	0.0086311094	0.0086726537	0	951.8319724373689
0.43651583	0.047863009	0.02	3.8668505	0.086556827	0.013465776	-0.080509716	-0.016484622	0.0090205097	0.0090607234	0	951.9075589476806
0.43651583	0.052480746	0.02	3.602111	0.083944927	0.013558209	-0.083459554	-0.017437794	0.009375647	0.0094146473	0	951.9764944440013
0.43651583	0.057543994	0.02	3.4279988	0.079999958	0.013741424	-0.087265952	-0.01918529	0.0097092238	0.0097463912	0	952.1157991757842
0.43651583	0.063095734	0.02	3.3586441	0.074321695	0.01405722	-0.092247862	-0.022044123	0.010041659	0.010076188	0	952.3587889464882
0.43651583	0.069183097	0.02	3.3333018	0.068958977	0.014414226	-0.097262587	-0.024869596	0.010369128	0.010401166	0	952.6411250832671
0.43651583	0.075857758	0.02	3.3981346	0.063899147	0.014867533	-0.10228659	-0.027636103	0.010698102	0.010727789	0	953.0150503510249
0.43651583	0.083176377	0.02	3.6127018	0.05913032	0.015491859	-0.10730594	-0.030327595	0.011040229	0.0110677	0	953.5510687752688
0.43651583	0.091201084	0.02	4.0497312	0.054641368	0.016382733	-0.11232212	-0.032943348	0.011413648	0.011439034	0	954.3389496992255
0.43651583	0.1	0.02	4.7936323	0.05042192	0.017656271	-0.1173583	-0.035504281	0.011844218	0.011867643	0	955.4873985977245
0.43651583	0.10964782	0.02	5.9378989	0.046462385	0.019447551	-0.12246512	-0.038058693	0.012366541	0.012388127	0	957.1224224777761
0.43651583	0.12022644	0.02	7.5820763	0.042753981	0.021908194	-0.1277243	-0.040685903	0.013024706	0.013044569	0	959.3849886696328
0.43651583	0.13182567	0.02	9.8294495	0.03928877	0.025204378	-0.13324867	-0.043496257	0.013872754	0.013891007	0	962.4291587184644
0.43651583	0.14454398	0.02	12.78665	0.036059663	0.029516658	-0.13917779	-0.046626757	0.01497501	0.014991764	0	966.4220013993987
0.43651583	0.15848932	0.02	16.565713	0.033060386	0.035042396	-0.14566963	-0.050232739	0.01640649	0.01642185	0	971.5460322425786
0.43651583	0.17378008	0.02	21.287855	0.030285367	0.042000281	-0.15288978	-0.05447706	0.018253609	0.018267679	0	978.0036635589458
0.43651583	0.19054607	0.02	27.086974	0.02772953	0.050634892	-0.16099971	-0.059518403	0.020615264	0.020628147	0	986.0217114412693
0.43651583	0.20892961	0.02	34.110116	0.025387949	0.061218282	-0.17014534	-0.065499778	0.023604141	0.023615936	0	995.8531001168989
0.43651583	0.22908677	0.02	42.512363	0.023255376	0.074045395	-0.18044611	-0.072537655	0.027347802	0.027358606	0	1007.7727601248981
0.43651583	0.25118864	0.02	52.444745	0.021325664	0.089421272	-0.19198507	-0.080712009	0.03198894	0.031998847	0	1022.0657945844195
0.43651583	0.27542287	0.02	64.035909	0.019591164	0.10764011	-0.20480068	-0.090058109	0.037684124	0.037693226	0	1039.0079580521299
0.43651583	0.30199517	0.02	77.370884	0.018042241	0.12895933	-0.21888187	-0.10056165	0.044600571	0.044608954	0	1058.8413831896391
0.43651583	0.33113112	0.02	92.472398	0.01666706	0.15357448	-0.23416837	-0.11215895	0.052910904	0.052918647	0	1081.7509967900203
0.43651583	0.36307805	0.02	109.29053	0.015451744	0.18160162	-0.25055689	-0.12474326	0.06278645	0.062793629	0	1107.8478507610262
0.43651583	0.39810717	0.02	127.70422	0.014380896	0.21307202	-0.26791268	-0.13817625	0.074390097	0.074396778	0	1137.1639247126482
0.43651583	0.43651583	0.02	147.53425	0.013438375	0.24793985	-0.28608388	-0.15230236	0.087869867	0.08787611	0	1169.659081540613
0.43651583	0.47863009	0.02	168.56365	0.012608128	0.28609943	-0.30491569	-0.16696296	0.10335418	0.10336004	0	1205.237008843762
0.43651583	0.52480746	0.02	190.56017	0.011874904	0.32740679	-0.3242619	-0.18200794	0.12094927	0.12095478	0	1243.7652581617488
0.43651583	0.57543994	0.02	213.29598	0.011224764	0.37170031	-0.34399271	-0.19730342	0.14073866	0.14074387	0	1285.0944927228886
0.43651583	0.63095734	0.02	236.56224	0.010645343	0.41881749	-0.3639989	-0.21273599	0.16278439	0.16278933	0	1329.0741642799323
0.43651583	0.69183097	0.02	260.17785	0.01012593	0.4686066	-0.38419313	-0.22821403	0.18712933	0.18713403	0	1375.5634342418728
0.43651583	0.75857758	0.02	283.99323	0.0096573969	0.5209337	-0.40450952	-0.2436672	0.21380014	0.21380462	0	1424.4377790062647
0.43651583	0.83176377	0.02	307.89049	0.0092320552	0.57568586	-0.42490211	-0.25904495	0.24281036	0.24281465	0	1475.5920433587014
0.43651583	0.91201084	0.02	331.7814	0.0088434768	0.63277199	-0.44534288	-0.27431454	0.27416348	0.27416758	0	1528.9412575188428
0.43651583	1.	0.02	355.6041	0.0084863092	0.69212205	-0.46581969	-0.28945895	0.30785562	0.30785957	0	1584.4199341576198
0.43651583	1.0964782	0.02	379.31937	0.0081561038	0.75368545	-0.48633414	-0.30447475	0.34387803	0.34388182	0	1641.980605118159
0.43651583	1.2022644	0.02	402.90694	0.0078491638	0.81742912	-0.50689952	-0.31937006	0.38221903	0.38222267	0	1701.5920463889233
0.43651583	1.3182567	0.02	426.36208	0.0075624144	0.8833355	-0.52753885	-0.33416255	0.42286575	0.42286926	0	1763.237427159972
0.43651583	1.4454398	0.02	449.69257	0.007293294	0.95140072	-0.54828297	-0.34887754	0.46580551	0.46580889	0	1826.9126355175072
0.43651583	1.5848932	0.02	472.91615	0.0070396641	1.0216328	-0.56916878	-0.36354627	0.51102688	0.51103015	0	1892.624619735205
0.43651583	1.7378008	0.02	496.0583	0.0067997355	1.0940504	-0.59023762	-0.37820418	0.55852058	0.55852374	0	1960.3902461385765
0.43651583	1.9054607	0.02	519.15049	0.0065720075	1.1686812	-0.61153381	-0.39288959	0.60828012	0.60828317	0	2030.2348018136256
0.43651583	2.0892961	0.02	542.22868	0.0063552176	1.2455611	-0.63310347	-0.40764236	0.66030234	0.6603053	0	2102.1912681349204
0.43651583	2.2908677	0.02	565.33216	0.006148301	1.3247333	-0.65499348	-0.42250296	0.71458777	0.71459063	0	2176.2994738413863
0.43651583	2.5118864	0.02	588.50261	0.005950356	1.4062474	-0.67725072	-0.43751163	0.77114092	0.77114369	0	2252.6052652121894
0.43651583	2.7542287	0.02	611.78331	0.0057606165	1.490159	-0.69992149	-0.45270784	0.82997046	0.82997314	0	2331.1601403879035
0.43651583	3.0199517	0.02	635.21858	0.0055784288	1.576529	-0.72305113	-0.46812989	0.89108936	0.89109195	0	2412.0205991912835
0.43651583	3.3113112	0.02	658.85331	0.0054032319	1.6654233	-0.74668377	-0.48381465	0.95451497	0.95451748	0	2495.2478661434075
0.43651583	3.6307805	0.02	682.73261	0.0052345424	1.7569123	-0.77086225	-0.49979746	1.0202691	1.0202715	0	2580.9074225601244
0.43651583	3.9810717	0.02	706.90156	0.005071941	1.8510709	-0.79562808	-0.5161121	1.0883778	1.0883802	0	2669.0690071158
0.43651583	4.3651583	0.02	731.40501	0.0049150614	1.947978	-0.82102151	-0.53279086	1.1588718	1.1588741	0	2759.806144745246
0.43651583	4.7863009	0.02	756.28744	0.004763582	2.0477167	-0.84708162	-0.5498646	1.2317861	1.2317883	0	2853.1963334293123
0.43651583	5.2480746	0.02	781.59292	0.004617218	2.1503736	-0.87384649	-0.56736293	1.3071598	1.307162	0	2949.3203831167107
0.43651583	5.7543994	0.02	807.36501	0.0044757156	2.2560393	-0.90135332	-0.58531433	1.3850368	1.3850389	0	3048.2628832517253
0.43651583	6.3095734	0.02	833.64678	0.0043388469	2.3648082	-0.92963862	-0.60374629	1.4654647	1.4654667	0	3150.1120122303687
0.43651583	6.9183097	0.02	860.48083	0.0042064059	2.4767781	-0.95873837	-0.62268549	1.5484957	1.5484977	0	3254.9591581917994
0.43651583	7.5857758	0.02	887.90929	0.0040782047	2.5920505	-0.98868817	-0.64215798	1.634186	1.6341879	0	3362.899197505495
0.43651583	8.3176377	0.02	915.97387	0.0039540714	2.7107307	-1.0195234	-0.66218925	1.7225959	1.7225977	0	3474.030587412395
0.43651583	9.1201084	0.02	944.71593	0.0038338472	2.8329277	-1.0512794	-0.68280444	1.8137897	1.8137915	0	3588.4552681221917
0.43651583	10.	0.02	974.17654	0.0037173848	2.958754	-1.0839915	-0.70402843	1.907836	1.9078377	0	3706.2784732090417