0.27542287	1.e-12	0.41	327.77151	5328.9554	-0.0068789649	-0.007415913	-0.0074156993	-0.35877381	1.2033487	0	930.2454239516912
0.27542287	1.0964782e-12	0.41	298.93154	4860.1083	-0.0068763641	-0.0074212666	-0.0074210323	-0.32807838	1.0966069	0	930.2458131854287
0.27542287	1.2022644e-12	0.41	272.62918	4432.5142	-0.0068742319	-0.0074254882	-0.0074252313	-0.30008379	0.99925721	0	930.246198980357
0.27542287	1.3182567e-12	0.41	248.64113	4042.5433	-0.0068725355	-0.0074286567	-0.007428375	-0.27455238	0.91047312	0	930.2465818372646
0.27542287	1.4454398e-12	0.41	226.76377	3686.8853	-0.0068712432	-0.0074308485	-0.0074305397	-0.25126741	0.82950099	0	930.2469621479501
0.27542287	1.5848932e-12	0.41	206.81137	3362.5211	-0.0068703257	-0.007432134	-0.0074317953	-0.23003124	0.75565349	0	930.2473405146745
0.27542287	1.7378008e-12	0.41	188.61458	3066.6972	-0.0068697548	-0.0074325814	-0.00743221	-0.21066359	0.68830372	0	930.2477171610553
0.27542287	1.9054607e-12	0.41	172.0189	2796.9023	-0.0068695036	-0.0074322555	-0.0074318483	-0.19300005	0.62687997	0	930.2480925145938
0.27542287	2.0892961e-12	0.41	156.88346	2550.8461	-0.006869547	-0.007431217	-0.0074307706	-0.17689066	0.57086079	0	930.2484668909846
0.27542287	2.2908677e-12	0.41	143.07977	2326.4401	-0.0068698621	-0.0074295217	-0.0074290322	-0.1621987	0.51977068	0	930.2488405035085
0.27542287	2.5118864e-12	0.41	130.49066	2121.779	-0.006870426	-0.0074272247	-0.0074266879	-0.14879943	0.4731759	0	930.2492137580582
0.27542287	2.7542287e-12	0.41	119.00925	1935.1258	-0.0068712189	-0.0074243743	-0.0074237858	-0.13657912	0.43068095	0	930.249586728859
0.27542287	3.0199517e-12	0.41	108.53808	1764.8959	-0.0068722212	-0.0074210184	-0.0074203731	-0.12543403	0.39192508	0	930.2499596489236
0.27542287	3.3113112e-12	0.41	98.988264	1609.6442	-0.0068734148	-0.0074172005	-0.0074164929	-0.11526956	0.35657929	0	930.2503329213247
0.27542287	3.6307805e-12	0.41	90.278727	1468.0528	-0.0068747831	-0.0074129614	-0.0074121856	-0.10599941	0.32434353	0	930.2507065798875
0.27542287	3.9810717e-12	0.41	82.335535	1338.9197	-0.0068763101	-0.00740834	-0.0074074893	-0.097544895	0.29494415	0	930.2510809807069
0.27542287	4.3651583e-12	0.41	75.091259	1221.1488	-0.0068779818	-0.0074033702	-0.0074024374	-0.089834255	0.26813159	0	930.2514564112898
0.27542287	4.7863009e-12	0.41	68.484402	1113.7403	-0.0068797845	-0.0073980858	-0.007397063	-0.082802031	0.24367824	0	930.2518329928404
0.27542287	5.2480746e-12	0.41	62.458878	1015.7825	-0.0068817057	-0.007392517	-0.0073913956	-0.076388531	0.22137651	0	930.2522111058825
0.27542287	5.7543994e-12	0.41	56.963537	926.44371	-0.0068837341	-0.0073866917	-0.0073854621	-0.070539315	0.2010371	0	930.2525910050383
0.27542287	6.3095734e-12	0.41	51.951728	844.96566	-0.0068858587	-0.0073806366	-0.0073792883	-0.06520473	0.18248732	0	930.2529730868043
0.27542287	6.9183097e-12	0.41	47.380906	770.65667	-0.0068880698	-0.0073743756	-0.0073728973	-0.060339495	0.16556972	0	930.2533575663413
0.27542287	7.5857758e-12	0.41	43.21227	702.88595	-0.0068903585	-0.0073679306	-0.0073663096	-0.055902312	0.15014069	0	930.2537449087339
0.27542287	8.3176377e-12	0.41	39.410432	641.0782	-0.0068927166	-0.0073613214	-0.0073595441	-0.051855517	0.13606925	0	930.2541355377259
0.27542287	9.1201084e-12	0.41	35.943118	584.70876	-0.006895136	-0.0073545682	-0.0073526194	-0.048164758	0.12323595	0	930.2545298986715
0.27542287	1.e-11	0.41	32.780894	533.29912	-0.0068976102	-0.0073476867	-0.0073455499	-0.04479871	0.11153185	0	930.2549285515518
0.27542287	1.0964782e-11	0.41	29.896917	486.41286	-0.0069001323	-0.007340694	-0.007338351	-0.0417288	0.10085759	0	930.2553320469517
0.27542287	1.2022644e-11	0.41	27.266702	443.652	-0.0069026962	-0.007333605	-0.007331036	-0.03892897	0.091122555	0	930.2557409927703
0.27542287	1.3182567e-11	0.41	24.867925	404.65354	-0.0069052971	-0.0073264318	-0.007323615	-0.036375457	0.082244116	0	930.256156008181
0.27542287	1.4454398e-11	0.41	22.68022	369.08646	-0.0069079301	-0.0073191864	-0.0073160979	-0.034046586	0.074146902	0	930.2565778833584
0.27542287	1.5848932e-11	0.41	20.685017	336.64882	-0.0069105898	-0.0073118819	-0.0073084954	-0.03192259	0.066762174	0	930.257007570082
0.27542287	1.7378008e-11	0.41	18.865378	307.06529	-0.0069132731	-0.0073045263	-0.0073008131	-0.029985442	0.060027247	0	930.2574458237627
0.27542287	1.9054607e-11	0.41	17.205857	280.08474	-0.0069159759	-0.0072971297	-0.0072930582	-0.028218701	0.053884949	0	930.257893723021
0.27542287	2.0892961e-11	0.41	15.692367	255.47816	-0.0069186949	-0.0072897002	-0.0072852359	-0.026607372	0.048283139	0	930.2583523652697
0.27542287	2.2908677e-11	0.41	14.312058	233.03667	-0.0069214269	-0.0072822458	-0.0072773508	-0.025137778	0.043174266	0	930.2588229850975
0.27542287	2.5118864e-11	0.41	13.053215	212.56979	-0.0069241695	-0.0072747727	-0.0072694055	-0.023797448	0.038514962	0	930.2593068358844
0.27542287	2.7542287e-11	0.41	11.90515	193.90378	-0.0069269198	-0.007267288	-0.007261403	-0.022575007	0.034265674	0	930.2598054867047
0.27542287	3.0199517e-11	0.41	10.858118	176.8802	-0.0069296758	-0.0072597968	-0.0072533441	-0.02146008	0.030390334	0	930.2603205085118
0.27542287	3.3113112e-11	0.41	9.9032307	161.35456	-0.0069324354	-0.0072523043	-0.0072452292	-0.020443205	0.026856044	0	930.2608537203041
0.27542287	3.6307805e-11	0.41	9.0323825	147.19507	-0.0069351966	-0.0072448156	-0.007237058	-0.019515753	0.023632803	0	930.2614071167789
0.27542287	3.9810717e-11	0.41	8.2381809	134.28155	-0.0069379583	-0.0072373339	-0.007228828	-0.018669854	0.020693253	0	930.2619826945121
0.27542287	4.3651583e-11	0.41	7.5138838	122.5044	-0.0069407187	-0.0072298633	-0.007220537	-0.01789833	0.018012439	0	930.2625829922099
0.27542287	4.7863009e-11	0.41	6.8533431	111.76365	-0.0069434767	-0.0072224071	-0.0072121813	-0.017194634	0.015567607	0	930.2632104687145
0.27542287	5.2480746e-11	0.41	6.2509517	101.96815	-0.0069462315	-0.0072149673	-0.0072037554	-0.016552796	0.013338004	0	930.2638679943982
0.27542287	5.7543994e-11	0.41	5.7015959	93.034743	-0.0069489816	-0.0072075479	-0.0071952547	-0.01596737	0.011304705	0	930.2645587506291
0.27542287	6.3095734e-11	0.41	5.2006124	84.887621	-0.0069517266	-0.0072001498	-0.0071866713	-0.015433388	0.0094504506	0	930.2652861564857
0.27542287	6.9183097e-11	0.41	4.7437487	77.457634	-0.0069544655	-0.007192776	-0.0071779979	-0.01494632	0.0077595021	0	930.2660539636523
0.27542287	7.5857758e-11	0.41	4.3271266	70.681727	-0.0069571979	-0.0071854275	-0.0071692248	-0.014502036	0.0062175068	0	930.2668662846065
0.27542287	8.3176377e-11	0.41	3.9472096	64.502394	-0.0069599235	-0.0071781056	-0.0071603412	-0.014096765	0.0048113765	0	930.2677275616134
0.27542287	9.1201084e-11	0.41	3.6007728	58.867194	-0.0069626419	-0.0071708112	-0.0071513348	-0.013727071	0.0035291762	0	930.2686429087269
0.27542287	1.e-10	0.41	3.2848755	53.728304	-0.0069653528	-0.0071635454	-0.0071421926	-0.013389817	0.0023600232	0	930.2696176157001
0.27542287	1.0964782e-10	0.41	2.9968361	49.042115	-0.0069680554	-0.0071563105	-0.007132901	-0.013082143	0.0012939936	0	930.2706576732016
0.27542287	1.2022644e-10	0.41	2.7342098	44.76886	-0.0069707502	-0.0071491053	-0.0071234418	-0.012801441	0.00032204011	0	930.2717696224855
0.27542287	1.3182567e-10	0.41	2.4947672	40.872277	-0.0069734372	-0.0071419307	-0.007113797	-0.012545329	-0.00056408719	0	930.2729603975441
0.27542287	1.4454398e-10	0.41	2.2764758	37.319302	-0.006976116	-0.0071347873	-0.0071039471	-0.012311637	-0.0013719093	0	930.2742378860282
0.27542287	1.5848932e-10	0.41	2.0774826	34.079787	-0.0069787871	-0.0071276746	-0.0070938691	-0.012098384	-0.0021082826	0	930.2756104782568
0.27542287	1.7378008e-10	0.41	1.8960983	31.126243	-0.0069814503	-0.0071205933	-0.0070835397	-0.011903761	-0.0027794574	0	930.2770873378104
0.27542287	1.9054607e-10	0.41	1.7307832	28.433607	-0.006984106	-0.0071135429	-0.0070729319	-0.011726119	-0.003391131	0	930.2786784898517
0.27542287	2.0892961e-10	0.41	1.5801336	25.97903	-0.0069867542	-0.0071065236	-0.0070620177	-0.011563952	-0.0039484958	0	930.2803947205903
0.27542287	2.2908677e-10	0.41	1.4428704	23.741683	-0.0069893953	-0.0070995348	-0.0070507654	-0.011415888	-0.0044562839	0	930.2822478657315
0.27542287	2.5118864e-10	0.41	1.3178279	21.702578	-0.0069920297	-0.0070925759	-0.0070391412	-0.011280671	-0.0049188073	0	930.2842505699454
0.27542287	2.7542287e-10	0.41	1.2039437	19.844404	-0.0069946573	-0.0070856473	-0.0070271096	-0.011157156	-0.005339995	0	930.2864166025623
0.27542287	3.0199517e-10	0.41	1.1002502	18.151386	-0.0069972793	-0.0070787468	-0.0070146301	-0.011044298	-0.0057234263	0	930.2887604375866
0.27542287	3.3113112e-10	0.41	1.0058656	16.609141	-0.0069998956	-0.007071875	-0.0070016622	-0.010941142	-0.0060723616	0	930.2912977704573
0.27542287	3.6307805e-10	0.41	0.9199866	15.204561	-0.0070025067	-0.0070650313	-0.0069881619	-0.010846815	-0.0063897711	0	930.2940450811508
0.27542287	3.9810717e-10	0.41	0.84188155	13.925699	-0.0070051132	-0.007058214	-0.0069740817	-0.01076052	-0.0066783599	0	930.297020103963
0.27542287	4.3651583e-10	0.41	0.77088388	12.76166	-0.0070077153	-0.0070514236	-0.0069593743	-0.010681527	-0.0069405922	0	930.3002408719715
0.27542287	4.7863009e-10	0.41	0.70638629	11.702513	-0.007010314	-0.0070446583	-0.006943988	-0.010609171	-0.0071787131	0	930.3037263615777
0.27542287	5.2480746e-10	0.41	0.64783532	10.739199	-0.0070129096	-0.0070379173	-0.0069278718	-0.010542842	-0.0073947685	0	930.3074959372236
0.27542287	5.7543994e-10	0.41	0.59472636	9.8634495	-0.0070155027	-0.0070311997	-0.0069109734	-0.010481982	-0.0075906243	0	930.3115691822697
0.27542287	6.3095734e-10	0.41	0.54659897	9.0677147	-0.0070180941	-0.0070245047	-0.0068932414	-0.01042608	-0.0077679831	0	930.3159651454641
0.27542287	6.9183097e-10	0.41	0.50303264	8.3450926	-0.0070206844	-0.0070178306	-0.0068746254	-0.010374669	-0.0079284007	0	930.3207026782458
0.27542287	7.5857758e-10	0.41	0.46364275	7.6892656	-0.0070232739	-0.0070111776	-0.0068550795	-0.010327322	-0.0080733011	0	930.3257991804255
0.27542287	8.3176377e-10	0.41	0.42807692	7.0944424	-0.0070258638	-0.0070045432	-0.0068345596	-0.010283645	-0.00820399	0	930.331270512806
0.27542287	9.1201084e-10	0.41	0.39601161	6.5553037	-0.0070284545	-0.006997927	-0.0068130296	-0.010243281	-0.008321668	0	930.3371302060679
0.27542287	1.e-9	0.41	0.36714905	6.0669537	-0.0070310469	-0.0069913278	-0.0067904596	-0.0102059	-0.0084274418	0	930.3433889327339
0.27542287	1.0964782e-9	0.41	0.3412145	5.624877	-0.0070336413	-0.006984745	-0.0067668292	-0.010171203	-0.0085223347	0	930.350054269459
0.27542287	1.2022644e-9	0.41	0.31795385	5.2249012	-0.0070362391	-0.0069781759	-0.0067421255	-0.010138916	-0.0086072956	0	930.3571298702127
0.27542287	1.3182567e-9	0.41	0.29713157	4.8631636	-0.0070388406	-0.0069716206	-0.0067163485	-0.010108787	-0.0086832061	0	930.3646154531258
0.27542287	1.4454398e-9	0.41	0.27852912	4.5360866	-0.0070414469	-0.0069650768	-0.006689506	-0.010080589	-0.008750887	0	930.3725069799461
0.27542287	1.5848932e-9	0.41	0.26194359	4.240355	-0.0070440588	-0.0069585439	-0.0066616171	-0.010054114	-0.0088111024	0	930.3807963412852
0.27542287	1.7378008e-9	0.41	0.24718679	3.9729013	-0.0070466769	-0.0069520204	-0.0066327089	-0.010029174	-0.0088645632	0	930.3894725338932
0.27542287	1.9054607e-9	0.41	0.23408449	3.7308925	-0.0070493022	-0.0069455052	-0.0066028155	-0.010005598	-0.0089119292	0	930.3985214821416
0.27542287	2.0892961e-9	0.41	0.22247599	3.5117211	-0.0070519355	-0.0069389966	-0.0065719756	-0.0099832315	-0.0089538105	0	930.4079275262949
0.27542287	2.2908677e-9	0.41	0.21221364	3.3129967	-0.007054578	-0.0069324929	-0.0065402306	-0.0099619362	-0.008990769	0	930.4176735906922
0.27542287	2.5118864e-9	0.41	0.20316254	3.1325388	-0.0070572303	-0.0069259935	-0.0065076239	-0.0099415864	-0.0090233183	0	930.4277423929684
0.27542287	2.7542287e-9	0.41	0.19520008	2.9683685	-0.0070598932	-0.0069194967	-0.0064741965	-0.0099220695	-0.0090519261	0	930.438117387378
0.27542287	3.0199517e-9	0.41	0.18821554	2.8186996	-0.007062568	-0.0069130009	-0.0064399865	-0.0099032844	-0.0090770148	0	930.4487826755354
0.27542287	3.3113112e-9	0.41	0.1821095	2.6819282	-0.0070652556	-0.0069065046	-0.0064050279	-0.0098851402	-0.0090989635	0	930.4597243142911
0.27542287	3.6307805e-9	0.41	0.17679321	2.5566213	-0.0070679567	-0.0069000067	-0.0063693499	-0.0098675551	-0.0091181107	0	930.4709303974726
0.27542287	3.9810717e-9	0.41	0.17218788	2.4415047	-0.0070706725	-0.0068935057	-0.0063329752	-0.0098504557	-0.0091347564	0	930.4823910530671
0.27542287	4.3651583e-9	0.41	0.16822391	2.3354493	-0.0070734041	-0.0068869997	-0.0062959201	-0.0098337758	-0.0091491654	0	930.4940989684374
0.27542287	4.7863009e-9	0.41	0.16484011	2.2374586	-0.0070761524	-0.0068804877	-0.0062581957	-0.0098174555	-0.00916157	0	930.5060490220127
0.27542287	5.2480746e-9	0.41	0.16198289	2.1466553	-0.0070789185	-0.0068739679	-0.0062198057	-0.0098014408	-0.0091721733	0	930.5182387549505
0.27542287	5.7543994e-9	0.41	0.15960553	2.0622685	-0.0070817037	-0.0068674382	-0.0061807485	-0.0097856823	-0.0091811518	0	930.5306675621707
0.27542287	6.3095734e-9	0.41	0.15766736	1.9836221	-0.0070845088	-0.006860898	-0.0061410178	-0.009770135	-0.0091886587	0	930.5433371189185
0.27542287	6.9183097e-9	0.41	0.15613316	1.9101241	-0.007087335	-0.0068543454	-0.0061006014	-0.0097547576	-0.0091948265	0	930.5562509974211
0.27542287	7.5857758e-9	0.41	0.15497248	1.8412555	-0.0070901834	-0.0068477791	-0.006059483	-0.009739512	-0.0091997689	0	930.569414443272
0.27542287	8.3176377e-9	0.41	0.15415906	1.7765624	-0.0070930555	-0.0068411965	-0.0060176407	-0.009724363	-0.009203584	0	930.5828344834806
0.27542287	9.1201084e-9	0.41	0.15367031	1.7156466	-0.0070959521	-0.0068345968	-0.005975051	-0.0097092777	-0.0092063555	0	930.5965194191062
0.27542287	1.e-8	0.41	0.15348685	1.6581592	-0.0070988746	-0.0068279784	-0.0059316858	-0.0096942251	-0.0092081547	0	930.6104787594904
0.27542287	1.0964782e-8	0.41	0.15359209	1.603794	-0.0071018242	-0.0068213392	-0.005887514	-0.0096791763	-0.0092090424	0	930.6247233575522
0.27542287	1.2022644e-8	0.41	0.15397188	1.5522814	-0.0071048022	-0.0068146777	-0.0058425018	-0.0096641036	-0.00920907	0	930.6392650123532
0.27542287	1.3182567e-8	0.41	0.15461417	1.5033843	-0.0071078099	-0.0068079924	-0.0057966136	-0.0096489807	-0.0092082808	0	930.6541162163544
0.27542287	1.4454398e-8	0.41	0.15550874	1.456893	-0.0071108489	-0.0068012809	-0.0057498102	-0.0096337825	-0.0092067109	0	930.6692905669458
0.27542287	1.5848932e-8	0.41	0.15664696	1.4126218	-0.0071139199	-0.0067945426	-0.005702053	-0.0096184845	-0.0092043905	0	930.6848022759925
0.27542287	1.7378008e-8	0.41	0.15802157	1.3704059	-0.0071170247	-0.0067877754	-0.0056532994	-0.0096030633	-0.0092013444	0	930.7006660627255
0.27542287	1.9054607e-8	0.41	0.15962653	1.3300986	-0.0071201645	-0.0067809773	-0.0056035059	-0.009587496	-0.0091975927	0	930.716897556814
0.27542287	2.0892961e-8	0.41	0.16145683	1.2915685	-0.0071233407	-0.0067741472	-0.0055526281	-0.0095717603	-0.0091931517	0	930.7335125467148
0.27542287	2.2908677e-8	0.41	0.16350838	1.2546979	-0.0071265551	-0.0067672823	-0.0055006187	-0.0095558343	-0.0091880339	0	930.7505275622005
0.27542287	2.5118864e-8	0.41	0.16577789	1.2193807	-0.0071298088	-0.0067603816	-0.0054474308	-0.0095396964	-0.0091822489	0	930.7679596366518
0.27542287	2.7542287e-8	0.41	0.16826278	1.1855212	-0.0071331035	-0.0067534429	-0.0053930153	-0.0095233256	-0.0091758036	0	930.7858260871974
0.27542287	3.0199517e-8	0.41	0.17096112	1.1530322	-0.0071364405	-0.0067464653	-0.0053373231	-0.0095067007	-0.0091687024	0	930.8041446067925
0.27542287	3.3113112e-8	0.41	0.17387153	1.1218346	-0.0071398215	-0.0067394463	-0.0052803025	-0.0094898008	-0.0091609478	0	930.8229335141424
0.27542287	3.6307805e-8	0.41	0.17699315	1.0918559	-0.0071432482	-0.0067323841	-0.005221901	-0.0094726053	-0.0091525402	0	930.8422114361308
0.27542287	3.9810717e-8	0.41	0.18032558	1.0630295	-0.0071467218	-0.0067252778	-0.0051620663	-0.0094550935	-0.0091434785	0	930.8619973923786
0.27542287	4.3651583e-8	0.41	0.18386889	1.0352944	-0.0071502441	-0.0067181253	-0.0051007435	-0.0094372446	-0.0091337599	0	930.8823108403446
0.27542287	4.7863009e-8	0.41	0.18762351	1.0085937	-0.0071538167	-0.0067109251	-0.0050378771	-0.0094190381	-0.0091233803	0	930.9031716565339
0.27542287	5.2480746e-8	0.41	0.1915903	0.98287521	-0.0071574413	-0.006703675	-0.0049734099	-0.0094004531	-0.0091123345	0	930.9246002783725
0.27542287	5.7543994e-8	0.41	0.19577045	0.95809	-0.0071611195	-0.006696374	-0.0049072842	-0.0093814688	-0.0091006157	0	930.9466174298525
0.27542287	6.3095734e-8	0.41	0.20016552	0.93419262	-0.0071648528	-0.006689021	-0.0048394413	-0.0093620642	-0.0090882163	0	930.9692443141455
0.27542287	6.9183097e-8	0.41	0.20477741	0.91114071	-0.0071686432	-0.0066816132	-0.0047698193	-0.0093422182	-0.0090751277	0	930.99250289735
0.27542287	7.5857758e-8	0.41	0.20960834	0.88889441	-0.0071724922	-0.0066741504	-0.0046983572	-0.0093219094	-0.0090613401	0	931.0164152686472
0.27542287	8.3176377e-8	0.41	0.21466087	0.86741643	-0.0071764011	-0.0066666317	-0.0046249921	-0.0093011161	-0.0090468429	0	931.0410044370528
0.27542287	9.1201084e-8	0.41	0.21993787	0.84667176	-0.0071803721	-0.0066590549	-0.0045496583	-0.0092798166	-0.0090316245	0	931.0662936445951
0.27542287	1.e-7	0.41	0.22544253	0.8266274	-0.0071844065	-0.0066514194	-0.0044722896	-0.0092579887	-0.0090156723	0	931.092307171522
0.27542287	1.0964782e-7	0.41	0.23117837	0.80725223	-0.007188506	-0.0066437247	-0.0043928187	-0.0092356099	-0.0089989731	0	931.1190693459985
0.27542287	1.2022644e-7	0.41	0.23714919	0.78851694	-0.0071926722	-0.0066359696	-0.0043111755	-0.0092126573	-0.0089815125	0	931.1466056687684
0.27542287	1.3182567e-7	0.41	0.24335915	0.77039385	-0.0071969069	-0.0066281535	-0.0042272887	-0.0091891077	-0.0089632755	0	931.174941914928
0.27542287	1.4454398e-7	0.41	0.24981266	0.75285665	-0.0072012109	-0.0066202773	-0.0041410864	-0.0091649375	-0.0089442461	0	931.2041050302712
0.27542287	1.5848932e-7	0.41	0.25651449	0.73588059	-0.0072055861	-0.0066123405	-0.0040524937	-0.0091401225	-0.0089244075	0	931.2341220827368
0.27542287	1.7378008e-7	0.41	0.26346971	0.71944216	-0.0072100337	-0.0066043434	-0.0039614339	-0.0091146381	-0.0089037419	0	931.2650214913581
0.27542287	1.9054607e-7	0.41	0.27068371	0.70351908	-0.007214555	-0.0065962867	-0.0038678288	-0.0090884594	-0.0088822308	0	931.2968321590438
0.27542287	2.0892961e-7	0.41	0.27816215	0.68809016	-0.0072191508	-0.0065881723	-0.0037715992	-0.0090615605	-0.0088598547	0	931.329583843708
0.27542287	2.2908677e-7	0.41	0.28591108	0.67313535	-0.0072238223	-0.0065800014	-0.0036726626	-0.0090339154	-0.0088365934	0	931.3633071986703
0.27542287	2.5118864e-7	0.41	0.2939368	0.65863553	-0.0072285701	-0.0065717766	-0.0035709356	-0.0090054971	-0.0088124256	0	931.398033787689
0.27542287	2.7542287e-7	0.41	0.30224597	0.64457253	-0.0072333947	-0.0065635013	-0.003466333	-0.0089762782	-0.0087873291	0	931.4337959618782
0.27542287	3.0199517e-7	0.41	0.31084554	0.63092904	-0.0072382964	-0.0065551789	-0.0033587672	-0.0089462307	-0.008761281	0	931.4706271847974
0.27542287	3.3113112e-7	0.41	0.31974282	0.61768859	-0.0072432753	-0.0065468142	-0.0032481488	-0.0089153256	-0.0087342572	0	931.5085618013184
0.27542287	3.6307805e-7	0.41	0.32894541	0.60483539	-0.0072483306	-0.0065384134	-0.0031343876	-0.0088835334	-0.0087062328	0	931.5476353100992
0.27542287	3.9810717e-7	0.41	0.33846126	0.59235443	-0.007253462	-0.006529983	-0.0030173905	-0.0088508238	-0.0086771819	0	931.5878838571584
0.27542287	4.3651583e-7	0.41	0.34829866	0.58023132	-0.007258668	-0.0065215313	-0.0028970631	-0.0088171657	-0.0086470775	0	931.6293452167815
0.27542287	4.7863009e-7	0.41	0.35846622	0.56845224	-0.0072639467	-0.0065130685	-0.00277331	-0.0087825272	-0.0086158919	0	931.6720579243017
0.27542287	5.2480746e-7	0.41	0.36897289	0.55700394	-0.0072692956	-0.0065046062	-0.0026460339	-0.0087468754	-0.0085835961	0	931.7160618107127
0.27542287	5.7543994e-7	0.41	0.37982798	0.54587371	-0.0072747117	-0.0064961577	-0.002515136	-0.0087101767	-0.0085501601	0	931.7613977546239
0.27542287	6.3095734e-7	0.41	0.39104113	0.53504922	-0.0072801906	-0.0064877399	-0.0023805175	-0.0086723964	-0.0085155528	0	931.8081079500362
0.27542287	6.9183097e-7	0.41	0.40262237	0.5245187	-0.0072857277	-0.0064793701	-0.0022420768	-0.008633499	-0.0084797423	0	931.8562358574841
0.27542287	7.5857758e-7	0.41	0.41458205	0.51427061	-0.0072913166	-0.0064710706	-0.0020997133	-0.0085934478	-0.0084426952	0	931.9058262434983
0.27542287	8.3176377e-7	0.41	0.42693092	0.50429382	-0.0072969497	-0.0064628667	-0.0019533258	-0.0085522053	-0.0084043773	0	931.9569252332212
0.27542287	9.1201084e-7	0.41	0.43968007	0.4945775	-0.0073026184	-0.0064547868	-0.0018028124	-0.0085097326	-0.0083647529	0	932.0095801610155
0.27542287	1.e-6	0.41	0.45284103	0.4851111	-0.0073083122	-0.0064468635	-0.0016480715	-0.0084659902	-0.0083237854	0	932.0638400308516
0.27542287	1.0964782e-6	0.41	0.46642565	0.47588425	-0.0073140186	-0.0064391353	-0.0014890029	-0.0084209369	-0.0082814368	0	932.1197551865198
0.27542287	1.2022644e-6	0.41	0.48044624	0.46688684	-0.0073197232	-0.0064316454	-0.0013255073	-0.0083745307	-0.0082376681	0	932.1773774102855
0.27542287	1.3182567e-6	0.41	0.49491549	0.45810897	-0.0073254096	-0.0064244424	-0.0011574859	-0.0083267282	-0.0081924388	0	932.2367601709336
0.27542287	1.4454398e-6	0.41	0.50984655	0.44954093	-0.0073310583	-0.006417582	-0.00098484286	-0.0082774848	-0.008145707	0	932.2979587096453
0.27542287	1.5848932e-6	0.41	0.52525296	0.44117317	-0.0073366474	-0.0064111273	-0.00080748502	-0.0082267545	-0.0080974296	0	932.3610294901637
0.27542287	1.7378008e-6	0.41	0.54114878	0.43299646	-0.0073421522	-0.0064051475	-0.00062532039	-0.0081744901	-0.0080475621	0	932.426031156306
0.27542287	1.9054607e-6	0.41	0.55754853	0.42500182	-0.0073475448	-0.0063997207	-0.00043826096	-0.0081206429	-0.0079960585	0	932.4930238253152
0.27542287	2.0892961e-6	0.41	0.57446722	0.41718059	-0.0073527937	-0.0063949336	-0.00024622211	-0.0080651628	-0.0079428711	0	932.5620696909682
0.27542287	2.2908677e-6	0.41	0.59192045	0.4095247	-0.0073578649	-0.006390879	-0.000049120196	-0.0080079981	-0.0078879506	0	932.6332329199786
0.27542287	2.5118864e-6	0.41	0.60992434	0.40202656	-0.0073627206	-0.0063876598	0.00015312398	-0.0079490956	-0.0078312461	0	932.7065795367123
0.27542287	2.7542287e-6	0.41	0.62849565	0.39467939	-0.0073673205	-0.0063853848	0.00036058916	-0.0078884006	-0.0077727049	0	932.7821777387873
0.27542287	3.0199517e-6	0.41	0.64765179	0.38747735	-0.0073716219	-0.0063841685	0.00057335439	-0.0078258566	-0.007712272	0	932.8600980958856
0.27542287	3.3113112e-6	0.41	0.66741082	0.38041562	-0.0073755796	-0.0063841317	0.00079149827	-0.0077614053	-0.0076498908	0	932.9404133547946
0.27542287	3.6307805e-6	0.41	0.68779156	0.37349075	-0.0073791486	-0.0063853949	0.0010151059	-0.0076949868	-0.0075855023	0	933.0231985783294
0.27542287	3.9810717e-6	0.41	0.70881355	0.36670055	-0.007382283	-0.00638808	0.0012442674	-0.0076265392	-0.0075190451	0	933.1085316087276
0.27542287	4.3651583e-6	0.41	0.73049711	0.36004432	-0.0073849387	-0.0063923048	0.0014790835	-0.0075559985	-0.0074504556	0	933.1964926842122
0.27542287	4.7863009e-6	0.41	0.75286336	0.35352278	-0.0073870749	-0.0063981784	0.0017196704	-0.007483299	-0.0073796678	0	933.2871649018222
0.27542287	5.2480746e-6	0.41	0.77593419	0.34713785	-0.0073886546	-0.0064058009	0.0019661605	-0.0074083726	-0.0073066131	0	933.3806340288406
0.27542287	5.7543994e-6	0.41	0.79973231	0.34089257	-0.0073896479	-0.0064152549	0.0022187107	-0.0073311492	-0.0072312204	0	933.4769885995715
0.27542287	6.3095734e-6	0.41	0.82428109	0.33479057	-0.007390031	-0.0064266079	0.0024775003	-0.0072515563	-0.0071534163	0	933.5763200459369
0.27542287	6.9183097e-6	0.41	0.84960472	0.32883582	-0.0073897892	-0.0064399051	0.0027427389	-0.0071695192	-0.0070731247	0	933.6787229220361
0.27542287	7.5857758e-6	0.41	0.87572805	0.3230321	-0.0073889166	-0.0064551709	0.0030146648	-0.0070849606	-0.0069902674	0	933.7842945696575
0.27542287	8.3176377e-6	0.41	0.90267661	0.31738259	-0.007387416	-0.0064724087	0.0032935451	-0.006997801	-0.0069047639	0	933.8931352507595
0.27542287	9.1201084e-6	0.41	0.93047654	0.31188948	-0.007385298	-0.0064916035	0.003579674	-0.0069079582	-0.0068165314	0	934.005348338201
0.27542287	0.00001	0.41	0.95915467	0.30655377	-0.0073825812	-0.0065127212	0.0038733734	-0.0068153474	-0.0067254847	0	934.1210403589616
0.27542287	0.000010964782	0.41	0.98873853	0.30137511	-0.0073792898	-0.0065357151	0.0041749869	-0.0067198812	-0.0066315365	0	934.2403209377686
0.27542287	0.000012022644	0.41	1.0192562	0.29635172	-0.0073754515	-0.0065605306	0.004484875	-0.0066214694	-0.0065345973	0	934.3633029211179
0.27542287	0.000013182567	0.41	1.0507367	0.2914806	-0.007371097	-0.0065871063	0.0048034145	-0.0065200191	-0.0064345749	0	934.4901026159249
0.27542287	0.000014454398	0.41	1.0832096	0.2867576	-0.0073662578	-0.0066153804	0.0051309928	-0.0064154345	-0.0063313748	0	934.6208396608044
0.27542287	0.000015848932	0.41	1.1167054	0.28217771	-0.007360965	-0.0066452922	0.0054680058	-0.0063076167	-0.0062248995	0	934.7556373445816
0.27542287	0.000017378008	0.41	1.1512556	0.27773527	-0.0073552476	-0.006676787	0.0058148541	-0.006196464	-0.006115049	0	934.8946227397121
0.27542287	0.000019054607	0.41	1.1868925	0.27342422	-0.0073491325	-0.0067098158	0.0061719435	-0.0060818714	-0.0060017202	0	935.0379268948918
0.27542287	0.000020892961	0.41	1.2236494	0.26923829	-0.0073426428	-0.0067443399	0.0065396803	-0.0059637308	-0.0058848066	0	935.1856846217756
0.27542287	0.000022908677	0.41	1.2615607	0.26517122	-0.0073357993	-0.0067803265	0.0069184765	-0.0058419307	-0.0057641987	0	935.3380350887835
0.27542287	0.000025118864	0.41	1.3006619	0.26121691	-0.0073286188	-0.0068177535	0.0073087453	-0.0057163562	-0.0056397834	0	935.4951216848622
0.27542287	0.000027542287	0.41	1.3409897	0.25736945	-0.0073211142	-0.006856608	0.0077109026	-0.0055868889	-0.0055114439	0	935.6570925033627
0.27542287	0.000030199517	0.41	1.3825819	0.2536233	-0.0073132963	-0.006896884	0.0081253702	-0.0054534066	-0.0053790599	0	935.8240998835322
0.27542287	0.000033113112	0.41	1.4254775	0.24997327	-0.0073051719	-0.006938585	0.0085525733	-0.0053157837	-0.0052425069	0	935.9963012326325
0.27542287	0.000036307805	0.41	1.4697169	0.24641455	-0.0072967458	-0.0069817198	0.008992945	-0.0051738903	-0.0051016567	0	936.1738588803089
0.27542287	0.000039810717	0.41	1.5153418	0.24294274	-0.0072880202	-0.0070263052	0.0094469244	-0.0050275926	-0.0049563767	0	936.3569399104069
0.27542287	0.000043651583	0.41	1.5623951	0.23955381	-0.0072789952	-0.0070723621	0.0099149605	-0.0048767527	-0.0048065303	0	936.5457171935552
0.27542287	0.000047863009	0.41	1.6109213	0.23624413	-0.0072696687	-0.0071199186	0.01039751	-0.0047212286	-0.0046519763	0	936.7403686336347
0.27542287	0.000052480746	0.41	1.6609662	0.23301039	-0.007260038	-0.0071690045	0.010895042	-0.0045608734	-0.0044925691	0	936.9410774750146
0.27542287	0.000057543994	0.41	1.712577	0.22984962	-0.0072500982	-0.0072196551	0.011408038	-0.0043955361	-0.0043281583	0	937.1480338058589
0.27542287	0.000063095734	0.41	1.7658027	0.22675913	-0.0072398439	-0.0072719083	0.01193699	-0.0042250607	-0.0041585889	0	937.3614322289427
0.27542287	0.000069183097	0.41	1.8206936	0.22373652	-0.007229268	-0.0073258062	0.012482404	-0.0040492866	-0.0039837008	0	937.5814743374078
0.27542287	0.000075857758	0.41	1.8773017	0.22077962	-0.0072183629	-0.0073813931	0.013044801	-0.0038680479	-0.0038033289	0	937.808367972505
0.27542287	0.000083176377	0.41	1.9356806	0.21788647	-0.0072071211	-0.0074387136	0.013624719	-0.0036811737	-0.0036173028	0	938.0423274302997
0.27542287	0.000091201084	0.41	1.9958858	0.21505534	-0.0071955329	-0.0074978179	0.014222708	-0.0034884877	-0.0034254467	0	938.2835736965619
0.27542287	0.0001	0.41	2.0579744	0.21228465	-0.0071835898	-0.0075587549	0.014839339	-0.0032898081	-0.0032275793	0	938.5323347192411
0.27542287	0.00010964782	0.41	2.1220052	0.209573	-0.0071712815	-0.0076215778	0.015475197	-0.0030849474	-0.0030235134	0	938.7888455306098
0.27542287	0.00012022644	0.41	2.1880392	0.20691915	-0.007158598	-0.0076863403	0.016130888	-0.0028737122	-0.0028130562	0	939.0533489707284
0.27542287	0.00013182567	0.41	2.2561391	0.20432199	-0.0071455287	-0.0077530979	0.016807034	-0.0026559031	-0.0025960085	0	939.326094606945
0.27542287	0.00014454398	0.41	2.3263696	0.20178057	-0.0071320629	-0.0078219072	0.017504279	-0.0024313144	-0.0023721648	0	939.6073405754439
0.27542287	0.00015848932	0.41	2.3987974	0.19929405	-0.007118189	-0.0078928283	0.018223287	-0.0021997341	-0.0021413134	0	939.8973535624541
0.27542287	0.00017378008	0.41	2.4734917	0.19686174	-0.007103896	-0.00796592	0.018964741	-0.0019609433	-0.0019032356	0	940.1964070096794
0.27542287	0.00019054607	0.41	2.5505233	0.19448307	-0.0070891717	-0.0080412446	0.019729349	-0.0017147165	-0.001657706	0	940.504785116847
0.27542287	0.00020892961	0.41	2.6299656	0.19215762	-0.0070740044	-0.0081188649	0.020517838	-0.0014608209	-0.001404492	0	940.8227789331149
0.27542287	0.00022908677	0.41	2.7118943	0.18988508	-0.0070583816	-0.0081988461	0.02133096	-0.0011990165	-0.0011433538	0	941.1506898898391
0.27542287	0.00025118864	0.41	2.7963874	0.18766531	-0.0070422911	-0.0082812534	0.022169492	-0.00092905569	-0.00087404375	0	941.4888287670504
0.27542287	0.00027542287	0.41	2.8835253	0.18549828	-0.00702572	-0.008366155	0.023034234	-0.00065068334	-0.00059630663	0	941.8375158625768
0.27542287	0.00030199517	0.41	2.973391	0.18338415	-0.0070086555	-0.0084536191	0.023926012	-0.00036363602	-0.00030987905	0	942.1970813960556
0.27542287	0.00033113112	0.41	3.0660702	0.1813232	-0.0069910849	-0.008543716	0.024845679	-0.000067642116	-0.000014489287	0	942.567865894157
0.27542287	0.00036307805	0.41	3.1616508	0.17931586	-0.0069729947	-0.0086365183	0.025794115	0.00023757826	0.00029014266	0	942.9502210361917
0.27542287	0.00039810717	0.41	3.2602239	0.17736274	-0.0069543719	-0.0087320985	0.026772229	0.00055231416	0.00060430603	0	943.3445092031191
0.27542287	0.00043651583	0.41	3.3618829	0.17546457	-0.0069352034	-0.0088305313	0.027780957	0.00087686346	0.0009282989	0	943.7511032708443
0.27542287	0.00047863009	0.41	3.4667243	0.17362235	-0.0069154766	-0.0089318918	0.028821269	0.0012115333	0.0012624287	0	944.1703887430301
0.27542287	0.00052480746	0.41	3.5748461	0.17183801	-0.0068951907	-0.0090362305	0.029894191	0.0015566405	0.0016070128	0	944.6027616088893
0.27542287	0.00057543994	0.41	3.6863381	0.17012117	-0.0068745002	-0.0091432518	0.031001126	0.0019125111	0.0019623802	0	945.0486171717514
0.27542287	0.00063095734	0.41	3.8011365	0.16853264	-0.0068556965	-0.0092478716	0.032148305	0.0022794758	0.0023288792	0	945.5082028285688
0.27542287	0.00069183097	0.41	3.9180939	0.16707118	-0.0068556892	-0.0093123168	0.03337468	0.0026578164	0.0027067914	0	945.9806360643993
0.27542287	0.00075857758	0.41	4.0360875	0.16460267	-0.0068913948	-0.0092991311	0.034718924	0.0030476676	0.003095919	0	946.46492040442
0.27542287	0.00083176377	0.41	4.1569663	0.16047235	-0.0069480831	-0.0092402609	0.036150345	0.003449208	0.0034962487	0	946.9630726068632
0.27542287	0.00091201084	0.41	4.2824387	0.15579009	-0.0070155807	-0.0091564585	0.037649485	0.0038628148	0.0039084829	0	947.4771556002027
0.27542287	0.001	0.41	4.4128949	0.15177068	-0.0070905562	-0.0090550033	0.039210399	0.0042889668	0.0043334566	0	948.008009308883
0.27542287	0.0010964782	0.41	4.5479137	0.14883949	-0.0071719897	-0.0089396998	0.040830658	0.0047281355	0.0047717661	0	948.5556562918682
0.27542287	0.0012022644	0.41	4.6868324	0.14683039	-0.0072596374	-0.0088132701	0.042508958	0.0051807369	0.0052237785	0	949.119823285972
0.27542287	0.0013182567	0.41	4.8289918	0.14526251	-0.0073528731	-0.008679562	0.044242915	0.0056471198	0.0056897019	0	949.7001802782609
0.27542287	0.0014454398	0.41	4.9740227	0.14333029	-0.0074491464	-0.0085465449	0.046026067	0.0061275795	0.0061695951	0	950.2966342329739
0.27542287	0.0015848932	0.41	5.1224761	0.14017069	-0.0075445134	-0.0084232342	0.047850954	0.0066224141	0.0066635036	0	950.9100169473154
0.27542287	0.0017378008	0.41	5.2757122	0.13590639	-0.0076374177	-0.00831052	0.049718291	0.0071320256	0.007171865	0	951.5420661943782
0.27542287	0.0019054607	0.41	5.434394	0.13144956	-0.0077294021	-0.0082033248	0.051634809	0.007656925	0.007695458	0	952.1939253406327
0.27542287	0.0020892961	0.41	5.5982478	0.12716089	-0.0078223627	-0.008098163	0.0536057	0.008197636	0.0082349118	0	952.8658129477706
0.27542287	0.0022908677	0.41	5.7672057	0.12287478	-0.0079160781	-0.0079962939	0.055631461	0.0087546574	0.0087906767	0	953.5581284907915
0.27542287	0.0025118864	0.41	5.9417866	0.11865705	-0.0080049033	-0.0079106771	0.057700948	0.0093285114	0.0093632943	0	954.2718829044296
0.27542287	0.0027542287	0.41	6.1224563	0.11463387	-0.008076165	-0.0078714768	0.059785866	0.0099197756	0.0099533793	0	955.0080837315879
0.27542287	0.0030199517	0.41	6.3094788	0.11034664	-0.0081168662	-0.0079101514	0.061856685	0.010529058	0.010561405	0	955.7675669035584
0.27542287	0.0033113112	0.41	6.5038832	0.10576214	-0.0081186308	-0.0080448262	0.063897269	0.011157024	0.011188027	0	956.5519863748092
0.27542287	0.0036307805	0.41	6.7065427	0.10191961	-0.0080889069	-0.008255221	0.065929948	0.011804451	0.011834328	0	957.3629461713058
0.27542287	0.0039810717	0.41	6.9169614	0.099008029	-0.0080445595	-0.0085016749	0.067996497	0.012472131	0.012501154	0	958.2006931638441
0.27542287	0.0043651583	0.41	7.1347139	0.096664945	-0.0079942151	-0.0087646382	0.070118646	0.013160798	0.013189134	0	959.065493061505
0.27542287	0.0047863009	0.41	7.3597748	0.09465719	-0.0079405705	-0.0090381008	0.072304655	0.013871168	0.013898916	0	959.9579939764667
0.27542287	0.0052480746	0.41	7.592289	0.092873781	-0.0078844878	-0.0093201419	0.074558761	0.014603965	0.014631189	0	960.8790180941802
0.27542287	0.0057543994	0.41	7.8324655	0.091256033	-0.0078262977	-0.0096099961	0.076884121	0.015359927	0.015386678	0	961.8294708455862
0.27542287	0.0063095734	0.41	8.0805465	0.089767652	-0.0077661492	-0.0099072744	0.079283589	0.01613982	0.016166134	0	962.8103116584467
0.27542287	0.0069183097	0.41	8.3367949	0.088383623	-0.0077041119	-0.010211748	0.081759936	0.016944429	0.016970337	0	963.8225425886027
0.27542287	0.0075857758	0.41	8.6013694	0.08710485	-0.0076406587	-0.010522488	0.084316713	0.017774568	0.017800101	0	964.8670872381887
0.27542287	0.0083176377	0.41	8.8263336	0.083354961	-0.0077880227	-0.010450664	0.087345452	0.018629552	0.018653987	0	965.8953653995748
0.27542287	0.0091201084	0.41	8.9701725	0.06745209	-0.0077291515	-0.011151166	0.089694051	0.019498258	0.019518031	0	966.8554102582
0.27542287	0.01	0.41	9.2560952	0.066514139	-0.0076052269	-0.011676679	0.092312699	0.020391515	0.020411013	0	967.9806057974779
0.27542287	0.010964782	0.41	9.5519234	0.065523678	-0.0074822496	-0.012202642	0.095028921	0.021313287	0.021332494	0	969.1424989177784
0.27542287	0.012022644	0.41	9.8579283	0.064126237	-0.0073581393	-0.012734095	0.097840733	0.022264552	0.02228335	0	970.3422799168613
0.27542287	0.013182567	0.41	10.174796	0.062279701	-0.0072311935	-0.013274049	0.10074828	0.023246341	0.023264598	0	971.5816042618951
0.27542287	0.014454398	0.41	10.503233	0.060307188	-0.0071004532	-0.013823576	0.10375373	0.024259754	0.024277432	0	972.8622081568982
0.27542287	0.015848932	0.41	10.843706	0.058538404	-0.0069658697	-0.014382104	0.10686101	0.02530595	0.02532311	0	974.1856501246866
0.27542287	0.017378008	0.41	11.196536	0.057076806	-0.0068278466	-0.014948358	0.11007485	0.026386124	0.026402856	0	975.5533730557682
0.27542287	0.019054607	0.41	11.562065	0.055873321	-0.0066867522	-0.015521121	0.11340004	0.027501505	0.027517883	0	976.9668761206156
0.27542287	0.020892961	0.41	11.940693	0.054860986	-0.0065428088	-0.016099398	0.11684124	0.028653357	0.028669439	0	978.4277455874088
0.27542287	0.022908677	0.41	12.30651	0.054668225	-0.0064311503	-0.016666383	0.12041904	0.029842568	0.029858593	0	979.9109025778262
0.27542287	0.025118864	0.41	12.699722	0.052291707	-0.006624312	-0.016460491	0.12489894	0.031067661	0.03108299	0	981.4551696502597
0.27542287	0.027542287	0.41	13.112579	0.052583635	-0.0068366425	-0.016192122	0.12957457	0.032332927	0.032348341	0	983.056825844054
0.27542287	0.030199517	0.41	13.496966	0.046808001	-0.0071785103	-0.015725757	0.1345856	0.03363647	0.033650191	0	984.6659766687754
0.27542287	0.033113112	0.41	13.946623	0.045035826	-0.0076272151	-0.014870163	0.14012755	0.034981383	0.034994585	0	986.3792691048043
0.27542287	0.036307805	0.41	14.413213	0.044160652	-0.0079904282	-0.014215381	0.14561479	0.036371338	0.036384283	0	988.151811095543
0.27542287	0.039810717	0.41	14.899462	0.042993226	-0.0081564769	-0.014027547	0.15078575	0.037807855	0.037820458	0	989.9877639759271
0.27542287	0.043651583	0.41	15.407091	0.042270093	-0.0082941756	-0.013889784	0.15606199	0.039293135	0.039305526	0	991.8909096844036
0.27542287	0.047863009	0.41	15.93476	0.041565408	-0.0084242915	-0.013754948	0.16149551	0.040829152	0.040841336	0	993.8617676126977
0.27542287	0.052480746	0.41	16.483444	0.040857271	-0.0085454865	-0.013623862	0.16709047	0.042417917	0.042429893	0	995.9031975158653
0.27542287	0.057543994	0.41	17.054223	0.040145635	-0.0086552016	-0.013499959	0.1728486	0.044061542	0.04407331	0	998.0182701753397
0.27542287	0.063095734	0.41	17.648248	0.039415936	-0.0087494866	-0.013389784	0.17876866	0.045762247	0.045773802	0	1000.2102193871424
0.27542287	0.069183097	0.41	17.296285	0.040398818	-0.0095990449	-0.013894843	0.18425462	0.047536534	0.047548377	0	1001.5253151959269
0.27542287	0.075857758	0.41	16.067646	0.042953112	-0.011110704	-0.015468599	0.18885867	0.049220202	0.049232793	0	1001.8785930829181
0.27542287	0.083176377	0.41	14.947113	0.045282657	-0.012489354	-0.017640067	0.19305761	0.050755725	0.050768999	0	1002.2007845107396
0.27542287	0.091201084	0.41	14.019406	0.047156981	-0.013685513	-0.020280757	0.19698594	0.05215756	0.052171384	0	1002.5901932893089
0.27542287	0.1	0.41	15.287729	0.043640104	-0.013362144	-0.021051726	0.20298879	0.053592194	0.053604987	0	1005.2064482400845
0.27542287	0.10964782	0.41	16.797562	0.040336303	-0.012724013	-0.021843305	0.20918222	0.055162683	0.055174507	0	1008.191858228962
0.27542287	0.12022644	0.41	18.59215	0.03723708	-0.011695065	-0.022672608	0.2155557	0.056894737	0.056905653	0	1011.6138255131501
0.27542287	0.13182567	0.41	20.727189	0.034334989	-0.010180062	-0.023559691	0.22209596	0.058818879	0.058828944	0	1015.5567205242526
0.27542287	0.14454398	0.41	23.275883	0.031623653	-0.0080580801	-0.02452671	0.22878785	0.060971904	0.060981175	0	1020.1283230585245
0.27542287	0.15848932	0.41	26.335048	0.029097753	-0.0051744348	-0.025596901	0.23561535	0.063398888	0.063407418	0	1025.467798059216
0.27542287	0.17378008	0.41	30.031672	0.026753	-0.001331564	-0.026793355	0.24256281	0.066155821	0.066163664	0	1031.7547393088923
0.27542287	0.19054607	0.41	34.528709	0.024586027	0.0037197759	-0.028137511	0.24961648	0.069312869	0.069320076	0	1039.218030658162
0.27542287	0.20892961	0.41	40.027992	0.022594179	0.010286533	-0.029647274	0.25676636	0.072958068	0.072964692	0	1048.1422176880983
0.27542287	0.22908677	0.41	46.767154	0.020775126	0.018732861	-0.031334709	0.26400855	0.077201058	0.077207148	0	1058.8679442323007
0.27542287	0.25118864	0.41	55.006978	0.019126271	0.029468599	-0.033203505	0.27134778	0.082176055	0.082181661	0	1071.782103007288
0.27542287	0.27542287	0.41	65.006576	0.017643957	0.042923078	-0.03524673	0.27879966	0.088043012	0.088048184	0	1087.2940918565375
0.27542287	0.30199517	0.41	76.987334	0.016322614	0.059504454	-0.037445772	0.28639175	0.094985764	0.094990548	0	1105.7980167276726
0.27542287	0.33113112	0.41	91.092459	0.015154048	0.079551403	-0.039771414	0.29416251	0.10320633	0.10321077	0	1127.6269014853478
0.27542287	0.36307805	0.41	107.3543	0.014127192	0.10329042	-0.042187407	0.30215769	0.11291554	0.11291968	0	1153.011176880564
0.27542287	0.39810717	0.41	125.68177	0.013228467	0.13081293	-0.04465583	0.31042503	0.12432133	0.12432521	0	1182.0551331638667
0.27542287	0.43651583	0.41	145.87312	0.01244269	0.16207948	-0.047142579	0.31900876	0.13761711	0.13762076	0	1214.738740023429
0.27542287	0.47863009	0.41	167.64881	0.011754243	0.19694695	-0.049621349	0.32794561	0.15297235	0.15297579	0	1250.941676062834
0.27542287	0.52480746	0.41	190.69241	0.011148155	0.23520717	-0.052075265	0.33726323	0.17052698	0.17053025	0	1290.4790033457625
0.27542287	0.57543994	0.41	214.68785	0.010610869	0.27662462	-0.05449642	0.34698061	0.19038968	0.19039279	0	1333.136750802841
0.27542287	0.63095734	0.41	239.34605	0.010130628	0.3209655	-0.056884154	0.35710985	0.21263929	0.21264226	0	1378.699909238941
0.27542287	0.69183097	0.41	264.41997	0.0096975609	0.36801636	-0.059242933	0.3676583	0.23732829	0.23733113	0	1426.970759810287
0.27542287	0.75857758	0.41	289.70997	0.0093035569	0.41759343	-0.061580406	0.37863046	0.26448725	0.26448998	0	1477.7783720905804
0.27542287	0.83176377	0.41	315.06283	0.0089420494	0.46954563	-0.063905878	0.39002958	0.29412948	0.2941321	0	1530.9820485175721
0.27542287	0.91201084	0.41	340.36728	0.0086077652	0.52375367	-0.066229254	0.40185869	0.32625538	0.3262579	0	1586.4708755626953
0.27542287	1.	0.41	365.54801	0.0082964862	0.58012726	-0.068560368	0.41412131	0.36085623	0.36085866	0	1644.1613758512103
0.27542287	1.0964782	0.41	390.55945	0.0080048401	0.63860151	-0.070908597	0.42682179	0.39791746	0.39791981	0	1703.9942567023588
0.27542287	1.2022644	0.41	415.38004	0.0077301254	0.69913343	-0.073282683	0.4399656	0.43742124	0.43742351	0	1765.931233364954
0.27542287	1.3182567	0.41	440.00717	0.0074701699	0.76169856	-0.075690664	0.45355932	0.4793486	0.47935079	0	1829.9518588299366
0.27542287	1.4454398	0.41	464.45294	0.0072232178	0.82628814	-0.078139891	0.46761068	0.52368106	0.52368318	0	1896.0508802693034
0.27542287	1.5848932	0.41	488.74071	0.0069878411	0.89290667	-0.080637081	0.48212852	0.57040191	0.57040396	0	1964.235931087785
0.27542287	1.7378008	0.41	512.90224	0.0067628701	0.96156994	-0.083188381	0.49712273	0.61949716	0.61949914	0	2034.5256568657953
0.27542287	1.9054607	0.41	536.97552	0.0065473393	1.0323034	-0.085799451	0.51260419	0.67095625	0.67095817	0	2106.948160754605
0.27542287	2.0892961	0.41	561.00297	0.0063404451	1.1051406	-0.088475534	0.52858472	0.72477258	0.72477444	0	2181.5395184933054
0.27542287	2.2908677	0.41	585.03008	0.0061415129	1.1801226	-0.091221526	0.545077	0.78094387	0.78094567	0	2258.3431932475096
0.27542287	2.5118864	0.41	609.10436	0.0059499713	1.2572968	-0.094042038	0.56209455	0.83947239	0.83947414	0	2337.4089286134554
0.27542287	2.7542287	0.41	633.27451	0.0057653318	1.3367159	-0.096941455	0.5796517	0.90036516	0.90036685	0	2418.7917599133884
0.27542287	3.0199517	0.41	657.58983	0.0055871725	1.4184382	-0.099923975	0.59776352	0.96363399	0.96363563	0	2502.5522690996427
0.27542287	3.3113112	0.41	682.09976	0.0054151263	1.5025265	-0.10299366	0.61644584	1.0292955	1.0292971	0	2588.755558937189
0.27542287	3.6307805	0.41	706.85356	0.0052488702	1.5890478	-0.10615448	0.6357152	1.0973713	1.0973728	0	2677.470951872941
0.27542287	3.9810717	0.41	731.90004	0.0050881175	1.6780733	-0.10941031	0.65558885	1.1678875	1.167889	0	2768.771990035758
0.27542287	4.3651583	0.41	757.28746	0.0049326118	1.7696782	-0.112765	0.67608476	1.2408753	1.2408768	0	2862.7362511755873
0.27542287	4.7863009	0.41	783.06341	0.0047821215	1.8639412	-0.11622238	0.69722158	1.3163705	1.3163719	0	2959.444863471924
0.27542287	5.2480746	0.41	809.27477	0.0046364359	1.9609445	-0.11978625	0.71901869	1.3944133	1.3944147	0	3058.9825247948957
0.27542287	5.7543994	0.41	835.96768	0.0044953617	2.0607742	-0.12346047	0.74149613	1.4750488	1.4750502	0	3161.437851565879
0.27542287	6.3095734	0.41	863.1876	0.0043587208	2.1635193	-0.1272489	0.7646747	1.5583265	1.5583277	0	3266.9024777143295
0.27542287	6.9183097	0.41	890.97929	0.0042263476	2.2692727	-0.13115547	0.78857589	1.6443001	1.6443013	0	3375.4719672776037
0.27542287	7.5857758	0.41	919.38694	0.0040980874	2.3781305	-0.13518414	0.81322194	1.7330278	1.733029	0	3487.2451798185243
0.27542287	8.3176377	0.41	948.45417	0.0039737951	2.4901922	-0.13933898	0.83863582	1.8245723	1.8245735	0	3602.3244506340134
0.27542287	9.1201084	0.41	978.22412	0.0038533338	2.6055608	-0.14362412	0.86484129	1.9190003	1.9190014	0	3720.815707824934
0.27542287	10.	0.41	1008.7396	0.003736574	2.7243427	-0.14804376	0.89186285	2.0163828	2.0163839	0	3842.828359078466