0.52480746	1.e-12	0.37	5329.9474	42635.67	-0.010894006	-0.0016833745	-0.0016833366	-5.6842968	18.130457	0	928.7445256852616
0.52480746	1.0964782e-12	0.37	4861.0114	38885.883	-0.01084661	-0.0016863738	-0.0016863322	-5.1851516	16.535106	0	928.7880159366641
0.52480746	1.2022644e-12	0.37	4433.3356	35465.991	-0.010800115	-0.001690093	-0.0016900474	-4.7299217	15.080107	0	928.8304094785326
0.52480746	1.3182567e-12	0.37	4043.2894	32346.961	-0.010754633	-0.0016946499	-0.0016945999	-4.3147432	13.753108	0	928.8715601624165
0.52480746	1.4454398e-12	0.37	3687.5617	29502.317	-0.010710253	-0.0017001622	-0.0017001074	-3.9360921	12.542843	0	928.9113434498686
0.52480746	1.5848932e-12	0.37	3363.1329	26907.913	-0.010667038	-0.0017067424	-0.0017066823	-3.5907546	11.439039	0	928.9496610736276
0.52480746	1.7378008e-12	0.37	3067.2488	24541.727	-0.010625014	-0.0017144939	-0.001714428	-3.2757995	10.432328	0	928.9864526591032
0.52480746	1.9054607e-12	0.37	2797.3978	22383.679	-0.010584171	-0.0017235087	-0.0017234364	-2.9885536	9.5141656	0	929.0216956539086
0.52480746	2.0892961e-12	0.37	2551.2893	20415.456	-0.010544461	-0.0017338664	-0.0017337872	-2.7265791	8.6767614	0	929.0554074503382
0.52480746	2.2908677e-12	0.37	2326.8343	18620.357	-0.010505806	-0.001745636	-0.0017455492	-2.4876524	7.9130105	0	929.0876374169131
0.52480746	2.5118864e-12	0.37	2122.1275	16983.152	-0.010468101	-0.0017588776	-0.0017587823	-2.2697457	7.2164334	0	929.1184633844085
0.52480746	2.7542287e-12	0.37	1935.4315	15489.953	-0.010431227	-0.0017736447	-0.0017735403	-2.0710096	6.5811218	0	929.1479784581134
0.52480746	3.0199517e-12	0.37	1765.1615	14128.091	-0.010395051	-0.0017899876	-0.0017898731	-1.8897574	6.0016868	0	929.1762902530239
0.52480746	3.3113112e-12	0.37	1609.8724	12886.015	-0.010359439	-0.0018079545	-0.001807829	-1.7244509	5.4732142	0	929.2035078799249
0.52480746	3.6307805e-12	0.37	1468.2462	11753.189	-0.010324254	-0.0018275936	-0.0018274559	-1.573687	4.9912221	0	929.2297434073525
0.52480746	3.9810717e-12	0.37	1339.0806	10720.003	-0.010289363	-0.0018489537	-0.0018488027	-1.4361863	4.5516226	0	929.2551047979425
0.52480746	4.3651583e-12	0.37	1221.2795	9777.696	-0.01025464	-0.0018720846	-0.0018719191	-1.3107819	4.150688	0	929.2796931592616
0.52480746	4.7863009e-12	0.37	1113.843	8918.2734	-0.010219964	-0.0018970368	-0.0018968553	-1.1964094	3.7850179	0	929.3036047272303
0.52480746	5.2480746e-12	0.37	1015.8592	8134.4458	-0.010185223	-0.0019238612	-0.0019236623	-1.0920982	3.4515111	0	929.3269270035698
0.52480746	5.7543994e-12	0.37	926.49638	7419.5646	-0.010150311	-0.0019526078	-0.0019523896	-0.99696311	3.1473392	0	929.3497423740678
0.52480746	6.3095734e-12	0.37	844.99612	6767.5661	-0.010115132	-0.0019833246	-0.0019830854	-0.91019677	2.8699226	0	929.3721242807894
0.52480746	6.9183097e-12	0.37	770.66665	6172.9198	-0.010079599	-0.0020160565	-0.0020157942	-0.83106286	2.6169084	0	929.3941389959764
0.52480746	7.5857758e-12	0.37	702.87708	5630.5813	-0.010043633	-0.0020508437	-0.0020505561	-0.75888983	2.3861507	0	929.4158468049607
0.52480746	8.3176377e-12	0.37	641.05201	5135.9501	-0.010007164	-0.0020877202	-0.0020874048	-0.69306521	2.1756921	0	929.4373017618761
0.52480746	9.1201084e-12	0.37	584.66668	4684.8304	-0.009970131	-0.0021267119	-0.0021263661	-0.63303046	1.9837475	0	929.4585522111186
0.52480746	1.e-11	0.37	533.2425	4273.3949	-0.0099324818	-0.0021678358	-0.0021674567	-0.57827612	1.8086888	0	929.4796413924246
0.52480746	1.0964782e-11	0.37	486.34296	3898.1534	-0.0098941741	-0.0022110984	-0.0022106827	-0.52833761	1.6490309	0	929.5006069288097
0.52480746	1.2022644e-11	0.37	443.57	3555.9224	-0.0098551748	-0.0022564944	-0.0022560386	-0.48279119	1.5034194	0	929.5214818319025
0.52480746	1.3182567e-11	0.37	404.56053	3243.7982	-0.0098154601	-0.0023040062	-0.0023035064	-0.4412504	1.3706188	0	929.5422947208634
0.52480746	1.4454398e-11	0.37	368.98343	2959.1328	-0.0097750151	-0.0023536036	-0.0023530555	-0.40336281	1.2495025	0	929.5630702329752
0.52480746	1.5848932e-11	0.37	336.53672	2699.5107	-0.0097338341	-0.0024052432	-0.0024046423	-0.36880697	1.1390428	0	929.5838288808286
0.52480746	1.7378008e-11	0.37	306.94497	2462.7291	-0.0096919195	-0.0024588696	-0.0024582107	-0.33728972	1.0383023	0	929.6045879120245
0.52480746	1.9054607e-11	0.37	279.95699	2246.7786	-0.0096492816	-0.0025144155	-0.0025136931	-0.30854371	0.94642614	0	929.6253611494486
0.52480746	2.0892961e-11	0.37	255.34367	2049.8268	-0.0096059377	-0.0025718033	-0.0025710112	-0.28232508	0.86263455	0	929.646159558768
0.52480746	2.2908677e-11	0.37	232.8961	1870.2023	-0.009561911	-0.0026309464	-0.0026300778	-0.25841147	0.78621636	0	929.6669916562029
0.52480746	2.5118864e-11	0.37	212.42371	1706.3806	-0.0095172301	-0.0026917509	-0.0026907985	-0.23660004	0.71652289	0	929.6878633873231
0.52480746	2.7542287e-11	0.37	193.75271	1556.9714	-0.0094719276	-0.0027541177	-0.0027530734	-0.21670582	0.65296251	0	929.708778851452
0.52480746	3.0199517e-11	0.37	176.72459	1420.7067	-0.009426039	-0.0028179441	-0.002816799	-0.19856011	0.59499563	0	929.7297406746749
0.52480746	3.3113112e-11	0.37	161.19482	1296.4299	-0.0093796021	-0.0028831255	-0.0028818701	-0.18200907	0.5421301	0	929.7507499130631
0.52480746	3.6307805e-11	0.37	147.03154	1183.0861	-0.0093326557	-0.0029495581	-0.0029481815	-0.16691237	0.49391704	0	929.7718066831229
0.52480746	3.9810717e-11	0.37	134.11452	1079.7134	-0.0092852389	-0.003017139	-0.0030156296	-0.15314204	0.44994708	0	929.7929102632679
0.52480746	4.3651583e-11	0.37	122.3341	985.43427	-0.0092373905	-0.0030857688	-0.0030841138	-0.14058137	0.40984682	0	929.8140591708641
0.52480746	4.7863009e-11	0.37	111.59027	899.44857	-0.0091891482	-0.0031553519	-0.0031535372	-0.12912393	0.37327574	0	929.8352516705343
0.52480746	5.2480746e-11	0.37	101.79182	821.02644	-0.0091405482	-0.0032257975	-0.0032238077	-0.11867262	0.33992326	0	929.8564857675813
0.52480746	5.7543994e-11	0.37	92.855568	749.50231	-0.0090916248	-0.0032970205	-0.0032948387	-0.10913893	0.30950614	0	929.8777593404664
0.52480746	6.3095734e-11	0.37	84.705642	684.26906	-0.0090424104	-0.0033689415	-0.0033665493	-0.10044211	0.28176602	0	929.899070071282
0.52480746	6.9183097e-11	0.37	77.272857	624.77313	-0.008992935	-0.0034414872	-0.0034388641	-0.092508511	0.25646732	0	929.9204159850617
0.52480746	7.5857758e-11	0.37	70.494107	570.50956	-0.0089432263	-0.0035145901	-0.0035117139	-0.085270985	0.23339517	0	929.9417951124765
0.52480746	8.3176377e-11	0.37	64.311845	521.0179	-0.0088933098	-0.0035881888	-0.0035850352	-0.07866828	0.21235361	0	929.963205569698
0.52480746	9.1201084e-11	0.37	58.673582	475.87817	-0.0088432086	-0.0036622278	-0.0036587699	-0.072644534	0.19316392	0	929.9846458506026
0.52480746	1.e-10	0.37	53.531453	434.70737	-0.0087929436	-0.0037366567	-0.0037328652	-0.067148803	0.17566312	0	930.0061146736236
0.52480746	1.0964782e-10	0.37	48.841802	397.15621	-0.0087425337	-0.0038114303	-0.003807273	-0.062134625	0.15970257	0	930.0276110024201
0.52480746	1.2022644e-10	0.37	44.564814	362.90613	-0.0086919959	-0.0038865081	-0.0038819498	-0.057559626	0.14514671	0	930.0491339866858
0.52480746	1.3182567e-10	0.37	40.66418	331.66663	-0.0086413455	-0.0039618542	-0.003956856	-0.053385161	0.13187191	0	930.070683017582
0.52480746	1.4454398e-10	0.37	37.106785	303.17275	-0.0085905958	-0.0040374362	-0.0040319559	-0.049575984	0.11976543	0	930.0922580096083
0.52480746	1.5848932e-10	0.37	33.862426	277.18286	-0.008539759	-0.0041132259	-0.0041072168	-0.046099952	0.10872444	0	930.1138588678687
0.52480746	1.7378008e-10	0.37	30.90356	253.47659	-0.0084888462	-0.0041891976	-0.0041826088	-0.042927748	0.098655172	0	930.1354855575993
0.52480746	1.9054607e-10	0.37	28.205067	231.85293	-0.0084378687	-0.0042653274	-0.004258103	-0.040032638	0.089472083	0	930.1571375084841
0.52480746	2.0892961e-10	0.37	25.744031	212.12843	-0.0083868442	-0.0043415883	-0.0043336669	-0.037390237	0.081097085	0	930.1788093884892
0.52480746	2.2908677e-10	0.37	23.499532	194.1351	-0.008335823	-0.0044179278	-0.0044092421	-0.03497831	0.073458586	0	930.200474239606
0.52480746	2.5118864e-10	0.37	21.452395	177.71673	-0.0082850091	-0.0044941671	-0.0044846435	-0.032776581	0.0664896	0	930.2220047385152
0.52480746	2.7542287e-10	0.37	19.58474	162.71867	-0.0082352276	-0.004569613	-0.0045591707	-0.030766589	0.060122217	0	930.242869136328
0.52480746	3.0199517e-10	0.37	17.879325	148.97077	-0.0081888001	-0.0046423404	-0.0046308908	-0.028931588	0.054278134	0	930.2615580898973
0.52480746	3.3113112e-10	0.37	16.320315	136.31473	-0.0081481931	-0.0047104172	-0.004697863	-0.027256472	0.048884041	0	930.2764288594074
0.52480746	3.6307805e-10	0.37	14.89517	124.66584	-0.0081127227	-0.0047747162	-0.0047609509	-0.02572753	0.043906331	0	930.2878237924058
0.52480746	3.9810717e-10	0.37	13.593349	113.97469	-0.0080802351	-0.0048373376	-0.0048222446	-0.024332165	0.039330005	0	930.297039924094
0.52480746	4.3651583e-10	0.37	12.404885	104.18487	-0.0080492011	-0.0048997544	-0.0048832055	-0.023058778	0.035135148	0	930.3050059979082
0.52480746	4.7863009e-10	0.37	11.320298	95.232611	-0.0080187663	-0.0049627925	-0.0049446473	-0.021896727	0.031296789	0	930.3122419044835
0.52480746	5.2480746e-10	0.37	10.330726	87.0529	-0.0079884542	-0.0050269128	-0.0050070175	-0.020836269	0.027788354	0	930.3190397781757
0.52480746	5.7543994e-10	0.37	9.4279745	79.582862	-0.0079579867	-0.0050923831	-0.005070569	-0.019868497	0.024583632	0	930.3255729941609
0.52480746	6.3095734e-10	0.37	8.6045071	72.763215	-0.0079271934	-0.0051593654	-0.0051354475	-0.018985275	0.021657644	0	930.3319510033459
0.52480746	6.9183097e-10	0.37	7.8534184	66.53879	-0.0078959647	-0.005227962	-0.0052017376	-0.018179173	0.018987006	0	930.3382473718185
0.52480746	7.5857758e-10	0.37	7.1683894	60.85861	-0.0078642273	-0.005298241	-0.005269488	-0.017443412	0.016550022	0	930.3445140396908
0.52480746	8.3176377e-10	0.37	6.5436446	55.675764	-0.0078319295	-0.0053702516	-0.0053387265	-0.016771803	0.01432668	0	930.3507899181222
0.52480746	9.1201084e-10	0.37	5.973909	50.947207	-0.0077990326	-0.005444033	-0.005409469	-0.016158698	0.012298582	0	930.3571058408288
0.52480746	1.e-9	0.37	5.4543668	46.633506	-0.0077655063	-0.0055196194	-0.005481724	-0.015598946	0.010448855	0	930.3634873217078
0.52480746	1.0964782e-9	0.37	4.980623	42.698576	-0.0077313247	-0.0055970432	-0.0055554962	-0.015087845	0.0087620464	0	930.3699570615975
0.52480746	1.2022644e-9	0.37	4.5486676	39.109429	-0.0076964662	-0.005676335	-0.0056307854	-0.014621103	0.0072240192	0	930.3765354246373
0.52480746	1.3182567e-9	0.37	4.1548422	35.835921	-0.0076609115	-0.0057575237	-0.0057075871	-0.014194808	0.0058218503	0	930.3832421088146
0.52480746	1.4454398e-9	0.37	3.7958099	32.850516	-0.007624645	-0.0058406336	-0.0057858894	-0.013805388	0.0045437306	0	930.3900959082554
0.52480746	1.5848932e-9	0.37	3.4685272	30.128065	-0.0075876549	-0.005925683	-0.0058656703	-0.013449582	0.0033788724	0	930.3971155578927
0.52480746	1.7378008e-9	0.37	3.1702182	27.645599	-0.0075499345	-0.0060126795	-0.0059468944	-0.013124418	0.002317421	0	930.4043196592413
0.52480746	1.9054607e-9	0.37	2.8983514	25.382145	-0.0075114833	-0.0061016176	-0.0060295086	-0.01282718	0.0013503743	0	930.4117271417242
0.52480746	2.0892961e-9	0.37	2.6506184	23.318541	-0.007472309	-0.0061924742	-0.0061134383	-0.012555392	0.00046950715	0	930.4193567045709
0.52480746	2.2908677e-9	0.37	2.4249137	21.437282	-0.0074324278	-0.0062852061	-0.0061985848	-0.012306793	-0.00033269723	0	930.4272274388102
0.52480746	2.5118864e-9	0.37	2.2193174	19.72237	-0.0073918667	-0.0063797464	-0.0062848201	-0.012079318	-0.0010631109	0	930.435358473992
0.52480746	2.7542287e-9	0.37	2.0320786	18.15918	-0.0073506632	-0.0064760032	-0.0063719871	-0.011871084	-0.0017280185	0	930.4437691905314
0.52480746	3.0199517e-9	0.37	1.8616007	16.734339	-0.0073088668	-0.0065738576	-0.0064598961	-0.011680371	-0.0023331698	0	930.4524790270954
0.52480746	3.3113112e-9	0.37	1.7064277	15.435614	-0.0072665394	-0.006673162	-0.0065483237	-0.011505608	-0.0028838281	0	930.4615074871817
0.52480746	3.6307805e-9	0.37	1.5652314	14.251806	-0.007223755	-0.0067737413	-0.0066370133	-0.01134536	-0.0033848131	0	930.470874247168
0.52480746	3.9810717e-9	0.37	1.4368008	13.172663	-0.0071806007	-0.0068753907	-0.0067256736	-0.011198319	-0.0038405419	0	930.4805987382055
0.52480746	4.3651583e-9	0.37	1.3200311	12.188793	-0.0071371761	-0.0069778768	-0.0068139795	-0.011063287	-0.0042550644	0	930.490700397082
0.52480746	4.7863009e-9	0.37	1.2139144	11.291586	-0.0070935939	-0.0070809376	-0.0069015726	-0.010939171	-0.0046320971	0	930.5011979286651
0.52480746	5.2480746e-9	0.37	1.1175307	10.473143	-0.0070499786	-0.0071842838	-0.0069880628	-0.010824974	-0.0049750525	0	930.512109971112
0.52480746	5.7543994e-9	0.37	1.0300406	9.7262228	-0.0070064664	-0.007287601	-0.007073032	-0.010719783	-0.0052870642	0	930.5234539035634
0.52480746	6.3095734e-9	0.37	0.95067756	9.044183	-0.0069632014	-0.0073905565	-0.0071560417	-0.010622764	-0.005571008	0	930.5352467744327
0.52480746	6.9183097e-9	0.37	0.87874202	8.4209453	-0.0069203325	-0.0074928082	-0.0072366435	-0.010533155	-0.0058295174	0	930.547504563847
0.52480746	7.5857758e-9	0.37	0.81359555	7.8509651	-0.0068780053	-0.0075940212	-0.0073143977	-0.01045026	-0.0060649929	0	930.560243328039
0.52480746	8.3176377e-9	0.37	0.75465602	7.3292103	-0.0068363546	-0.0076938863	-0.0073888942	-0.010373442	-0.0062796087	0	930.5734789804264
0.52480746	9.1201084e-9	0.37	0.70139315	6.8511457	-0.0067954943	-0.0077921429	-0.007459778	-0.01030212	-0.0064753163	0	930.5872279164253
0.52480746	1.e-8	0.37	0.65332416	6.4127143	-0.006755507	-0.0078886016	-0.0075267746	-0.010235761	-0.006653849	0	930.601507954892
0.52480746	1.0964782e-8	0.37	0.61000958	6.0103114	-0.0067164389	-0.0079831586	-0.0075897074	-0.010173877	-0.0068167331	0	930.6163370809868
0.52480746	1.2022644e-8	0.37	0.57104882	5.640748	-0.0066782945	-0.0080758055	-0.0076485101	-0.010116023	-0.0069653037	0	930.6317341151429
0.52480746	1.3182567e-8	0.37	0.53607572	5.3012015	-0.0066410395	-0.0081666247	-0.0077032246	-0.01006179	-0.007100729	0	930.6477167183705
0.52480746	1.4454398e-8	0.37	0.50475426	4.9891625	-0.0066046046	-0.0082557808	-0.0077539935	-0.010010803	-0.0072240362	0	930.6643004292009
0.52480746	1.5848932e-8	0.37	0.47677468	4.7023797	-0.0065688929	-0.0083435026	-0.0078010436	-0.0099627208	-0.0073361404	0	930.6814974469513
0.52480746	1.7378008e-8	0.37	0.45185017	4.4388114	-0.0065337882	-0.0084300661	-0.0078446675	-0.0099172292	-0.0074378686	0	930.6993152298908
0.52480746	1.9054607e-8	0.37	0.42971442	4.1965849	-0.0064991621	-0.0085157756	-0.0078852041	-0.0098740421	-0.0075299804	0	930.7177566032927
0.52480746	2.0892961e-8	0.37	0.41011977	3.9739674	-0.0064648816	-0.0086009479	-0.0079230198	-0.0098328984	-0.0076131829	0	930.7368191543533
0.52480746	2.2908677e-8	0.37	0.39283615	3.7693456	-0.0064308138	-0.0086859008	-0.0079584932	-0.0097935604	-0.0076881394	0	930.7564961351137
0.52480746	2.5118864e-8	0.37	0.37765032	3.5812132	-0.0063968304	-0.0087709418	-0.0079920007	-0.0097558122	-0.0077554752	0	930.7767772404218
0.52480746	2.7542287e-8	0.37	0.36436547	3.408163	-0.0063628113	-0.00885636	-0.008023904	-0.0097194579	-0.0078157804	0	930.7976495709847
0.52480746	3.0199517e-8	0.37	0.35280086	3.2488827	-0.0063286469	-0.0089424193	-0.0080545395	-0.0096843202	-0.007869611	0	930.8190991573447
0.52480746	3.3113112e-8	0.37	0.34279146	3.102151	-0.0062942407	-0.0090293532	-0.0080842093	-0.0096502386	-0.0079174885	0	930.8411116457621
0.52480746	3.6307805e-8	0.37	0.33418743	2.966834	-0.0062595115	-0.009117358	-0.0081131722	-0.0096170682	-0.0079599013	0	930.8636733599233
0.52480746	3.9810717e-8	0.37	0.32685341	2.8418818	-0.0062243949	-0.0092065888	-0.0081416372	-0.0095846779	-0.0079973048	0	930.8867721512486
0.52480746	4.3651583e-8	0.37	0.32066778	2.7263226	-0.006188846	-0.0092971534	-0.0081697558	-0.0095529493	-0.0080301234	0	930.9103975388864
0.52480746	4.7863009e-8	0.37	0.31552164	2.6192579	-0.0061528405	-0.0093891073	-0.0081976168	-0.0095217754	-0.008058752	0	930.934541483916
0.52480746	5.2480746e-8	0.37	0.31131783	2.5198566	-0.0061163764	-0.0094824518	-0.0082252435	-0.0094910589	-0.0080835575	0	930.9591977654745
0.52480746	5.7543994e-8	0.37	0.3079699	2.4273495	-0.0060794743	-0.00957713	-0.0082525903	-0.0094607119	-0.0081048816	0	930.9843628808628
0.52480746	6.3095734e-8	0.37	0.30540109	2.341024	-0.0060421783	-0.0096730274	-0.0082795431	-0.0094306543	-0.0081230423	0	931.0100350608793
0.52480746	6.9183097e-8	0.37	0.30354338	2.2602202	-0.0060045539	-0.0097699737	-0.0083059225	-0.0094008131	-0.0081383353	0	931.0362151304621
0.52480746	7.5857758e-8	0.37	0.30233666	2.1843285	-0.0059666868	-0.0098677493	-0.0083314903	-0.0093711217	-0.0081510342	0	931.0629053765133
0.52480746	8.3176377e-8	0.37	0.30172796	2.1127876	-0.0059286789	-0.0099660919	-0.0083559575	-0.0093415189	-0.0081613916	0	931.090110525047
0.52480746	9.1201084e-8	0.37	0.30167087	2.0450847	-0.0058906441	-0.01006471	-0.0083789981	-0.0093119483	-0.0081696374	0	931.117836889942
0.52480746	1.e-7	0.37	0.30212499	1.9807555	-0.0058527029	-0.010163294	-0.0084002616	-0.009282358	-0.0081759791	0	931.1460931011061
0.52480746	1.0964782e-7	0.37	0.3030555	1.9193859	-0.0058149766	-0.010261535	-0.00841939	-0.0092526995	-0.0081805995	0	931.1748896440888
0.52480746	1.2022644e-7	0.37	0.30443277	1.8606128	-0.0057775808	-0.010359135	-0.0084360337	-0.0092229278	-0.0081836563	0	931.2042394397923
0.52480746	1.3182567e-7	0.37	0.30623206	1.8041249	-0.0057406201	-0.010455826	-0.008449866	-0.0091930001	-0.0081852807	0	931.2341577834015
0.52480746	1.4454398e-7	0.37	0.30843307	1.7496616	-0.0057041837	-0.010551381	-0.0084605957	-0.0091628762	-0.008185578	0	931.2646620982159
0.52480746	1.5848932e-7	0.37	0.31101968	1.6970112	-0.0056683415	-0.01064562	-0.0084679756	-0.0091325175	-0.008184628	0	931.295772645023
0.52480746	1.7378008e-7	0.37	0.31397947	1.6460073	-0.0056331425	-0.010738416	-0.0084718085	-0.0091018869	-0.0081824863	0	931.3275119395664
0.52480746	1.9054607e-7	0.37	0.31730333	1.596524	-0.0055986146	-0.010829699	-0.0084719481	-0.0090709483	-0.0081791873	0	931.3599046275853
0.52480746	2.0892961e-7	0.37	0.32098502	1.54847	-0.0055647649	-0.01091945	-0.0084682971	-0.0090396662	-0.0081747464	0	931.3929778634575
0.52480746	2.2908677e-7	0.37	0.32502076	1.5017823	-0.0055315824	-0.011007697	-0.0084608021	-0.0090080059	-0.0081691642	0	931.4267605463343
0.52480746	2.5118864e-7	0.37	0.32940878	1.4564197	-0.0054990399	-0.011094511	-0.008449448	-0.0089759327	-0.0081624289	0	931.4612834817447
0.52480746	2.7542287e-7	0.37	0.33414899	1.4123577	-0.0054670968	-0.011179997	-0.0084342516	-0.008943412	-0.0081545197	0	931.4965789757035
0.52480746	3.0199517e-7	0.37	0.33924266	1.3695823	-0.0054357024	-0.011264286	-0.0084152531	-0.0089104094	-0.0081454099	0	931.5326806890793
0.52480746	3.3113112e-7	0.37	0.34469214	1.3280868	-0.0054047972	-0.011347532	-0.008392512	-0.0088768901	-0.0081350685	0	931.569623841479
0.52480746	3.6307805e-7	0.37	0.35050065	1.2878676	-0.0053743163	-0.011429906	-0.0083661003	-0.0088428189	-0.0081234623	0	931.6074443806731
0.52480746	3.9810717e-7	0.37	0.35667213	1.2489222	-0.0053441904	-0.011511586	-0.0083360982	-0.0088081607	-0.0081105576	0	931.646179537878
0.52480746	4.3651583e-7	0.37	0.3632111	1.2112471	-0.0053143471	-0.011592764	-0.0083025914	-0.0087728794	-0.0080963203	0	931.6858675449473
0.52480746	4.7863009e-7	0.37	0.3701226	1.174837	-0.0052847124	-0.011673633	-0.0082656678	-0.0087369391	-0.0080807173	0	931.726547372233
0.52480746	5.2480746e-7	0.37	0.37741209	1.1396841	-0.0052552101	-0.011754393	-0.0082254177	-0.0087003026	-0.008063716	0	931.7682592227973
0.52480746	5.7543994e-7	0.37	0.38508544	1.1057773	-0.0052257642	-0.011835247	-0.0081819292	-0.0086629328	-0.0080452854	0	931.8110438765943
0.52480746	6.3095734e-7	0.37	0.39314891	1.0731028	-0.0051962972	-0.011916398	-0.0081352907	-0.0086247918	-0.0080253951	0	931.8549434186359
0.52480746	6.9183097e-7	0.37	0.40160913	1.0416441	-0.0051667316	-0.011998053	-0.008085589	-0.0085858409	-0.0080040159	0	931.9000004901557
0.52480746	7.5857758e-7	0.37	0.41047308	1.0113819	-0.0051369891	-0.012080421	-0.0080329092	-0.0085460409	-0.0079811193	0	931.9462590750263
0.52480746	8.3176377e-7	0.37	0.41974815	0.98229476	-0.0051069914	-0.012163711	-0.0079773338	-0.008505352	-0.0079566774	0	931.9937640609824
0.52480746	9.1201084e-7	0.37	0.42944208	0.95435933	-0.0050766596	-0.012248134	-0.0079189437	-0.0084637335	-0.0079306626	0	932.0425614557204
0.52480746	1.e-6	0.37	0.43956302	0.92755086	-0.0050459144	-0.012333904	-0.0078578182	-0.0084211437	-0.0079030471	0	932.0926981989858
0.52480746	1.0964782e-6	0.37	0.4501195	0.90184295	-0.0050146773	-0.012421232	-0.0077940301	-0.0083775405	-0.0078738034	0	932.1442227385261
0.52480746	1.2022644e-6	0.37	0.46112046	0.87720825	-0.0049828706	-0.012510329	-0.0077276476	-0.0083328808	-0.0078429038	0	932.1971843695771
0.52480746	1.3182567e-6	0.37	0.47257528	0.85361843	-0.0049504177	-0.0126014	-0.0076587315	-0.0082871206	-0.00781032	0	932.2516339263824
0.52480746	1.4454398e-6	0.37	0.4844937	0.83104441	-0.0049172443	-0.01269465	-0.007587333	-0.0082402148	-0.0077760232	0	932.3076234195216
0.52480746	1.5848932e-6	0.37	0.49688594	0.80945605	-0.0048832807	-0.012790266	-0.007513487	-0.0081921175	-0.0077399844	0	932.3652062040924
0.52480746	1.7378008e-6	0.37	0.5097626	0.78882234	-0.0048484624	-0.012888427	-0.0074372106	-0.0081427818	-0.007702174	0	932.4244369374294
0.52480746	1.9054607e-6	0.37	0.52313472	0.76911127	-0.0048127321	-0.012989289	-0.0073584968	-0.0080921596	-0.0076625617	0	932.4853718901019
0.52480746	2.0892961e-6	0.37	0.53701376	0.75028968	-0.0047760416	-0.013092987	-0.00727731	-0.0080402019	-0.007621117	0	932.5480687251143
0.52480746	2.2908677e-6	0.37	0.5514116	0.73232308	-0.0047383543	-0.013199623	-0.0071935798	-0.0079868583	-0.0075778089	0	932.6125863043567
0.52480746	2.5118864e-6	0.37	0.56634055	0.71517564	-0.0046996459	-0.013309267	-0.0071071967	-0.0079320773	-0.0075326059	0	932.6789855257572
0.52480746	2.7542287e-6	0.37	0.58181338	0.69881011	-0.0046599068	-0.013421953	-0.0070180078	-0.0078758064	-0.0074854762	0	932.747328563174
0.52480746	3.0199517e-6	0.37	0.59784329	0.68318794	-0.0046191421	-0.013537671	-0.0069258154	-0.0078179915	-0.0074363873	0	932.8176793530893
0.52480746	3.3113112e-6	0.37	0.61444394	0.66826974	-0.0045773707	-0.013656379	-0.0068303798	-0.0077585774	-0.0073853059	0	932.8901034668294
0.52480746	3.6307805e-6	0.37	0.63162954	0.65401497	-0.0045346273	-0.013777991	-0.0067314132	-0.0076975074	-0.0073321981	0	932.9646683520325
0.52480746	3.9810717e-6	0.37	0.6494148	0.64038325	-0.004490957	-0.013902393	-0.0066285946	-0.0076347234	-0.0072770283	0	933.0414432264779
0.52480746	4.3651583e-6	0.37	0.66781502	0.62733425	-0.0044464159	-0.014029443	-0.0065215676	-0.007570166	-0.0072197597	0	933.1204992791531
0.52480746	4.7863009e-6	0.37	0.68684609	0.61482882	-0.0044010653	-0.014158984	-0.0064099553	-0.0075037741	-0.0071603528	0	933.201909939909
0.52480746	5.2480746e-6	0.37	0.70652459	0.60282855	-0.0043549742	-0.014290842	-0.0062933547	-0.007435485	-0.0070987667	0	933.2857504773256
0.52480746	5.7543994e-6	0.37	0.72686774	0.59129746	-0.0043082101	-0.014424844	-0.0061713596	-0.0073652345	-0.007034957	0	933.3720986817764
0.52480746	6.3095734e-6	0.37	0.74789351	0.58020134	-0.0042608419	-0.014560816	-0.0060435541	-0.0072929564	-0.0069688768	0	933.461034400344
0.52480746	6.9183097e-6	0.37	0.76962061	0.5695081	-0.0042129372	-0.014698586	-0.0059095183	-0.0072185831	-0.0069004763	0	933.5526400921017
0.52480746	7.5857758e-6	0.37	0.79206847	0.55918898	-0.0041645556	-0.014838005	-0.0057688465	-0.0071420446	-0.0068297017	0	933.6470007961702
0.52480746	8.3176377e-6	0.37	0.81525737	0.54921652	-0.004115758	-0.01497892	-0.0056211223	-0.0070632696	-0.0067564969	0	933.7442040499736
0.52480746	9.1201084e-6	0.37	0.83920836	0.53956665	-0.0040665957	-0.015121206	-0.0054659477	-0.0069821842	-0.0066808016	0	933.844340014203
0.52480746	0.00001	0.37	0.8639433	0.53021711	-0.0040171166	-0.015264745	-0.0053029251	-0.0068987127	-0.0066025524	0	933.9475019050161
0.52480746	0.000010964782	0.37	0.88948489	0.52114788	-0.0039673635	-0.015409435	-0.0051316631	-0.0068127771	-0.0065216826	0	934.0537855749908
0.52480746	0.000012022644	0.37	0.91585666	0.51234101	-0.0039173735	-0.015555189	-0.0049517769	-0.0067242973	-0.006438122	0	934.1632899378087
0.52480746	0.000013182567	0.37	0.94308304	0.50377992	-0.0038671813	-0.015701927	-0.0047628793	-0.0066331906	-0.0063517972	0	934.2761169964424
0.52480746	0.000014454398	0.37	0.97118928	0.49545011	-0.0038168149	-0.015849587	-0.0045645922	-0.0065393721	-0.0062626314	0	934.3923718854362
0.52480746	0.000015848932	0.37	1.0002015	0.4873383	-0.0037662999	-0.015998114	-0.0043565346	-0.0064427542	-0.0061705445	0	934.5121630024441
0.52480746	0.000017378008	0.37	1.0301469	0.47943227	-0.0037156594	-0.01614746	-0.0041383227	-0.0063432467	-0.0060754531	0	934.635602067424
0.52480746	0.000019054607	0.37	1.0610533	0.4717209	-0.0036649142	-0.016297584	-0.0039095687	-0.0062407569	-0.0059772706	0	934.7628043518902
0.52480746	0.000020892961	0.37	1.0929497	0.46419382	-0.0036140837	-0.01644845	-0.0036698786	-0.0061351892	-0.0058759072	0	934.8938885981115
0.52480746	0.000022908677	0.37	1.125866	0.45684209	-0.0035631826	-0.016600033	-0.0034188607	-0.006026445	-0.0057712694	0	935.0289771647442
0.52480746	0.000025118864	0.37	1.1598332	0.44965624	-0.0035122309	-0.016752296	-0.0031560974	-0.0059144228	-0.005663261	0	935.1681964346026
0.52480746	0.000027542287	0.37	1.1948829	0.44262831	-0.0034612433	-0.016905215	-0.0028811749	-0.0057990181	-0.0055517818	0	935.3116764491683
0.52480746	0.000030199517	0.37	1.2310483	0.43575004	-0.0034102386	-0.017058759	-0.0025936566	-0.0056801232	-0.0054367288	0	935.4595513238786
0.52480746	0.000033113112	0.37	1.2683631	0.42901339	-0.0033592375	-0.017212888	-0.0022930886	-0.005557627	-0.0053179955	0	935.6119594031545
0.52480746	0.000036307805	0.37	1.3068624	0.42241027	-0.0033082645	-0.017367556	-0.0019789956	-0.0054314151	-0.0051954719	0	935.7690429005468
0.52480746	0.000039810717	0.37	1.3465822	0.41593218	-0.0032573499	-0.0175227	-0.0016508728	-0.0053013697	-0.005069045	0	935.9309488354832
0.52480746	0.000043651583	0.37	1.3875594	0.40956958	-0.0032065351	-0.017678229	-0.0013081741	-0.0051673694	-0.0049385986	0	936.097828155714
0.52480746	0.000047863009	0.37	1.4298319	0.40331147	-0.0031558763	-0.017834015	-0.00095030064	-0.005029289	-0.0048040137	0	936.2698362448657
0.52480746	0.000052480746	0.37	1.4734381	0.39714345	-0.0031054574	-0.017989855	-0.00057656694	-0.0048869996	-0.0046651696	0	936.4471325731104
0.52480746	0.000057543994	0.37	1.5184161	0.39104584	-0.0030554038	-0.018145443	-0.00018616601	-0.0047403687	-0.0045219446	0	936.6298798602945
0.52480746	0.000063095734	0.37	1.5648016	0.38498754	-0.0030059215	-0.018300264	0.00022193002	-0.00458926	-0.0043742198	0	936.8182418838392
0.52480746	0.000069183097	0.37	1.6126241	0.37891322	-0.0029573716	-0.018453413	0.0006491587	-0.0044335341	-0.0042218867	0	937.0123791153992
0.52480746	0.000075857758	0.37	1.6618956	0.37271623	-0.002910416	-0.018603229	0.0010977266	-0.0042730491	-0.0040648632	0	937.2124367468537
0.52480746	0.000083176377	0.37	1.7125876	0.366176	-0.0028663356	-0.018746515	0.0015713949	-0.004107664	-0.0039031313	0	937.4185188224749
0.52480746	0.000091201084	0.37	1.7645849	0.35884172	-0.0028275852	-0.018877187	0.0020768304	-0.0039372443	-0.0037368082	0	937.6306365381238
0.52480746	0.0001	0.37	1.817627	0.3498842	-0.0027985217	-0.018984502	0.0026253743	-0.0037616734	-0.0035662407	0	937.8486389469892
0.52480746	0.00010964782	0.37	1.8713297	0.33814694	-0.0027855409	-0.019052671	0.0032334344	-0.0035808674	-0.0033919906	0	938.0722207711352
0.52480746	0.00012022644	0.37	1.9254494	0.3228098	-0.0027953172	-0.019064858	0.0039184838	-0.0033947762	-0.0032144663	0	938.301185309737
0.52480746	0.00013182567	0.37	1.9802386	0.30435451	-0.0028316359	-0.019010633	0.0046916106	-0.0032033514	-0.0030333499	0	938.5358306840614
0.52480746	0.00014454398	0.37	2.0363631	0.28450401	-0.0028940296	-0.01888976	0.0055537277	-0.0030064962	-0.0028475824	0	938.7769134067601
0.52480746	0.00015848932	0.37	2.0944663	0.26511562	-0.0029794172	-0.01870897	0.0064988028	-0.0028040465	-0.0026559625	0	939.0252313088104
0.52480746	0.00017378008	0.37	2.1549402	0.24741785	-0.0030843629	-0.018476561	0.007519259	-0.0025957872	-0.0024575884	0	939.2813785215425
0.52480746	0.00019054607	0.37	2.2179525	0.23197947	-0.00320575	-0.018200561	0.00860781	-0.0023814759	-0.0022519005	0	939.5457503849294
0.52480746	0.00020892961	0.37	2.283513	0.21893249	-0.0033391626	-0.017892968	0.0097532251	-0.0021608623	-0.0020385745	0	939.8185916942668
0.52480746	0.00022908677	0.37	2.3515018	0.20812546	-0.0034744969	-0.017581561	0.010928514	-0.0019337015	-0.0018174501	0	940.1000127441919
0.52480746	0.00025118864	0.37	2.4217647	0.19917608	-0.0035916696	-0.017321257	0.012079576	-0.0016997638	-0.0015885112	0	940.3900755845395
0.52480746	0.00027542287	0.37	2.4944227	0.19166577	-0.003670377	-0.017166812	0.013152492	-0.0014588238	-0.0013517662	0	940.6891124766234
0.52480746	0.00030199517	0.37	2.5698927	0.18541514	-0.0037089353	-0.017121755	0.014144599	-0.0012106267	-0.0011070605	0	940.9977796974447
0.52480746	0.00033113112	0.37	2.6484164	0.18030587	-0.0037193511	-0.017153051	0.015089828	-0.00095488246	-0.00085417007	0	941.3165920066717
0.52480746	0.00036307805	0.37	2.7299652	0.17609787	-0.003713304	-0.017229325	0.016020471	-0.00069129165	-0.0005929297	0	941.6458016212271
0.52480746	0.00039810717	0.37	2.8144385	0.17251547	-0.0036982058	-0.017330997	0.016957058	-0.00041956268	-0.00032320174	0	941.9855817030048
0.52480746	0.00043651583	0.37	2.9017755	0.16933857	-0.0036781573	-0.01744737	0.017911265	-0.00013941243	-0.000044825986	0	942.3361383174774
0.52480746	0.00047863009	0.37	2.9919722	0.16642103	-0.0036553086	-0.017572899	0.018889647	0.00014943933	0.00024239614	0	942.6977300800077
0.52480746	0.00052480746	0.37	3.0850666	0.16367487	-0.0036307374	-0.017704839	0.019895989	0.00044727437	0.00053869727	0	943.0706602353121
0.52480746	0.00057543994	0.37	3.1811236	0.16104992	-0.0036049615	-0.017841902	0.020932651	0.00075437985	0.00084433655	0	943.4552627049159
0.52480746	0.00063095734	0.37	3.2802239	0.15851832	-0.0035782085	-0.01798355	0.022001278	0.0010710501	0.0011595927	0	943.851895510196
0.52480746	0.00069183097	0.37	3.382458	0.15606457	-0.0035505602	-0.018129627	0.023103168	0.0013975877	0.0014847598	0	944.2609330303615
0.52480746	0.00075857758	0.37	3.487923	0.15367978	-0.0035220226	-0.018280169	0.02423946	0.0017343046	0.0018201446	0	944.6827655890461
0.52480746	0.00083176377	0.37	3.5967211	0.15135849	-0.0034925664	-0.018435305	0.025411238	0.0020815225	0.0021660659	0	945.1177975563851
0.52480746	0.00091201084	0.37	3.7089588	0.14909697	-0.0034621441	-0.018595211	0.026619578	0.0024395734	0.0025228536	0	945.5664476214894
0.52480746	0.001	0.37	3.8247466	0.14689233	-0.0034306924	-0.018760105	0.027865551	0.0028087997	0.0028908485	0	946.029147580407
0.52480746	0.0010964782	0.37	3.9441991	0.14474214	-0.003398143	-0.018930214	0.029150259	0.0031895552	0.0032704029	0	946.5063447038274
0.52480746	0.0012022644	0.37	4.0674346	0.14264414	-0.0033644155	-0.019105802	0.030474811	0.0035822047	0.0036618806	0	946.9985000646546
0.52480746	0.0013182567	0.37	4.194576	0.1405962	-0.0033294234	-0.019287144	0.031840345	0.0039871251	0.0040656571	0	947.5060905486777
0.52480746	0.0014454398	0.37	4.3257502	0.13859627	-0.0032930717	-0.019474539	0.033248021	0.0044047055	0.0044821204	0	948.029608676053
0.52480746	0.0015848932	0.37	4.4610888	0.13664228	-0.0032552531	-0.019668314	0.034699014	0.0048353475	0.004911671	0	948.5695637381789
0.52480746	0.0017378008	0.37	4.600728	0.13473222	-0.0032158532	-0.019868818	0.036194527	0.0052794663	0.0053547229	0	949.126481431264
0.52480746	0.0019054607	0.37	4.7448092	0.13286405	-0.0031747415	-0.020076437	0.037735773	0.0057374901	0.0058117031	0	949.7009060549112
0.52480746	0.0020892961	0.37	4.8934784	0.13103575	-0.0031317755	-0.020291589	0.039323982	0.0062098614	0.0062830533	0	950.2933990933738
0.52480746	0.0022908677	0.37	5.0468874	0.12924532	-0.003086798	-0.020514725	0.040960401	0.0066970374	0.0067692292	0	950.9045417523816
0.52480746	0.0025118864	0.37	5.2051936	0.12749078	-0.0030396373	-0.020746334	0.042646296	0.0071994905	0.0072707023	0	951.5349354665065
0.52480746	0.0027542287	0.37	5.3685602	0.12577025	-0.0029901082	-0.020986935	0.044382955	0.0077177089	0.0077879596	0	952.1852020025145
0.52480746	0.0030199517	0.37	5.5371565	0.12408194	-0.0029380059	-0.021237096	0.046171674	0.0082521964	0.0083215042	0	952.8559843237658
0.52480746	0.0033113112	0.37	5.7111585	0.12242429	-0.0028831184	-0.021497398	0.048013795	0.0088034745	0.0088718563	0	953.5479481498936
0.52480746	0.0036307805	0.37	5.890749	0.12079605	-0.0028252265	-0.02176843	0.049910709	0.0093720822	0.0094395545	0	954.2617829997215
0.52480746	0.0039810717	0.37	6.0761179	0.11919644	-0.0027641107	-0.022050779	0.051863872	0.0099585763	0.010025155	0	954.9982012704887
0.52480746	0.0043651583	0.37	6.2674614	0.11762633	-0.0026996687	-0.022344708	0.053875131	0.010563533	0.010629235	0	955.7579411692955
0.52480746	0.0047863009	0.37	6.4649163	0.11613658	-0.0026381684	-0.02263345	0.055963423	0.011187546	0.011252416	0	956.5416968376264
0.52480746	0.0052480746	0.37	6.6680129	0.1150946	-0.0026348946	-0.022769604	0.058278391	0.011831198	0.011895485	0	957.349546362758
0.52480746	0.0057543994	0.37	6.8765453	0.11444066	-0.0026859119	-0.022765264	0.060810252	0.012495024	0.012558946	0	958.1817863560755
0.52480746	0.0063095734	0.37	7.0903431	0.11387336	-0.0027645133	-0.022694047	0.063487772	0.013179555	0.01324316	0	959.0387460600689
0.52480746	0.0069183097	0.37	7.3073211	0.11310393	-0.0028870482	-0.022519047	0.066350312	0.013885225	0.013948401	0	959.9187475707492
0.52480746	0.0075857758	0.37	7.5280505	0.11161389	-0.0030572921	-0.02223018	0.06941049	0.01461232	0.014674663	0	960.8226300703041
0.52480746	0.0083176377	0.37	7.7525048	0.10887353	-0.003250253	-0.021896506	0.07260186	0.015361274	0.015422087	0	961.7507759430403
0.52480746	0.0091201084	0.37	7.9627514	0.10182323	-0.0034638602	-0.02157858	0.075866558	0.016131835	0.01618871	0	962.685014953445
0.52480746	0.01	0.37	8.1493101	0.088239266	-0.003626373	-0.021507666	0.078976099	0.016921294	0.016970581	0	963.6133218394953
0.52480746	0.010964782	0.37	8.3852697	0.084883125	-0.0037202328	-0.021518975	0.082098137	0.017731452	0.017778865	0	964.6104771523451
0.52480746	0.012022644	0.37	8.640126	0.084146907	-0.0038171862	-0.021499768	0.085348364	0.018565832	0.018612834	0	965.649289344609
0.52480746	0.013182567	0.37	8.9065988	0.083229649	-0.0039159936	-0.021473777	0.088706093	0.019425772	0.019472261	0	966.7237314897889
0.52480746	0.014454398	0.37	9.183604	0.082269657	-0.0040194308	-0.021436798	0.09217867	0.020312366	0.020358319	0	967.8337492997985
0.52480746	0.015848932	0.37	9.4684324	0.081239565	-0.0041364359	-0.021373253	0.09578491	0.02122652	0.021271898	0	968.9774856767451
0.52480746	0.017378008	0.37	9.7603413	0.079217655	-0.0042761406	-0.021262067	0.09954923	0.022168929	0.022213177	0	970.1548490975686
0.52480746	0.019054607	0.37	10.061595	0.076392093	-0.0044376049	-0.021100532	0.10347778	0.023140397	0.023183067	0	971.3688607346512
0.52480746	0.020892961	0.37	10.373295	0.073369831	-0.0046015001	-0.020938652	0.1075241	0.024141893	0.024182875	0	972.6215298484943
0.52480746	0.022908677	0.37	10.703345	0.070400475	-0.0046887537	-0.020967521	0.11150077	0.025174727	0.025214051	0	973.9219956852139
0.52480746	0.025118864	0.37	11.055955	0.068847104	-0.0046801761	-0.021224724	0.11537398	0.0262411	0.026279556	0	975.2765344473912
0.52480746	0.027542287	0.37	11.422983	0.067773612	-0.0046572618	-0.021512571	0.1193453	0.027342768	0.027380624	0	976.6786503560227
0.52480746	0.030199517	0.37	11.803788	0.066809002	-0.0046311992	-0.02180302	0.1234468	0.028481087	0.028518404	0	978.1289799666329
0.52480746	0.033113112	0.37	12.198909	0.065891455	-0.0046025409	-0.022093444	0.12768524	0.029657432	0.029694236	0	979.6293541162627
0.52480746	0.036307805	0.37	12.609004	0.064999867	-0.004571128	-0.022382776	0.13206596	0.030873237	0.030909544	0	981.1817784950649
0.52480746	0.039810717	0.37	13.034786	0.064123002	-0.0045366981	-0.022670015	0.13659436	0.032130006	0.032165823	0	982.7883768965568
0.52480746	0.043651583	0.37	13.47702	0.063253079	-0.0044989529	-0.022954049	0.14127609	0.033429314	0.033464645	0	984.451393754446
0.52480746	0.047863009	0.37	13.936524	0.062383829	-0.0044575662	-0.023233621	0.1461171	0.034772813	0.034807658	0	986.1732040080682
0.52480746	0.052480746	0.37	14.414173	0.061509565	-0.0044121806	-0.023507316	0.15112362	0.036162237	0.036196594	0	987.9563092501674
0.52480746	0.057543994	0.37	14.910902	0.06062453	-0.0043624042	-0.023773551	0.15630221	0.037599412	0.037633274	0	989.8033582094222
0.52480746	0.063095734	0.37	15.427717	0.059722311	-0.004307805	-0.024030552	0.16165978	0.039086256	0.039119614	0	991.7171589647937
0.52480746	0.069183097	0.37	15.122517	0.063592771	-0.0051447743	-0.024285666	0.16719427	0.04062188	0.040657401	0	992.8547771740508
0.52480746	0.075857758	0.37	14.055576	0.071677549	-0.0067620209	-0.02505367	0.17239637	0.04206498	0.042105016	0	993.1437220819626
0.52480746	0.083176377	0.37	13.082514	0.079050954	-0.0082369672	-0.026465525	0.17714074	0.043381102	0.043425257	0	993.4072425394163
0.52480746	0.091201084	0.37	12.195071	0.085775579	-0.0095821343	-0.02848676	0.18146766	0.04458142	0.044629331	0	993.6475770608583
0.52480746	0.1	0.37	12.931002	0.082205055	-0.0094955323	-0.029905608	0.18659488	0.045781824	0.045827741	0	995.5113678532152
0.52480746	0.10964782	0.37	14.368229	0.07595838	-0.0087013265	-0.03105758	0.19219305	0.047117681	0.047160109	0	998.2037193291658
0.52480746	0.12022644	0.37	16.096915	0.070098899	-0.0074998937	-0.03226393	0.19794729	0.048608303	0.048647458	0	1001.3329432306452
0.52480746	0.13182567	0.37	18.173964	0.064612615	-0.005791067	-0.033553818	0.20383499	0.050284932	0.050321023	0	1004.9852927842621
0.52480746	0.14454398	0.37	20.673316	0.059487517	-0.0034490869	-0.034959551	0.20983062	0.05218518	0.052218407	0	1009.2700520303974
0.52480746	0.15848932	0.37	23.691961	0.054713573	-0.00031480673	-0.03651509	0.2159072	0.054354983	0.054385544	0	1014.3273703606876
0.52480746	0.17378008	0.37	27.356379	0.050282661	0.0038130779	-0.038254247	0.22203809	0.056851178	0.056879264	0	1020.337125297038
0.52480746	0.19054607	0.37	31.828179	0.046188369	0.0091863923	-0.040208499	0.22819925	0.059744687	0.059770486	0	1027.5275659291021
0.52480746	0.20892961	0.37	37.306797	0.042425588	0.016112958	-0.042404265	0.23437191	0.063124122	0.06314782	0	1036.181385513053
0.52480746	0.22908677	0.37	44.026235	0.038989777	0.024955505	-0.044859588	0.24054591	0.067099403	0.067121181	0	1046.6358605742328
0.52480746	0.25118864	0.37	52.242393	0.035875858	0.036119686	-0.047580482	0.24672337	0.071804609	0.071824648	0	1059.272865328755
0.52480746	0.27542287	0.37	62.20858	0.033076752	0.050027862	-0.050557675	0.25292195	0.077399028	0.077417503	0	1074.4953748453217
0.52480746	0.30199517	0.37	74.1403	0.030581783	0.067079103	-0.053765017	0.25917646	0.084065244	0.084082326	0	1092.6904427879956
0.52480746	0.33113112	0.37	88.176011	0.028375404	0.087602316	-0.057160883	0.26553742	0.092003501	0.09201935	0	1114.1846615086974
0.52480746	0.36307805	0.37	104.34561	0.02643673	0.11181532	-0.06069314	0.27206619	0.10142248	0.10143725	0	1139.204017332453
0.52480746	0.39810717	0.37	122.55841	0.02474022	0.1398034	-0.064306715	0.2788273	0.1125279	0.11254172	0	1167.85107424639
0.52480746	0.43651583	0.37	142.61552	0.023257344	0.17152404	-0.067951504	0.28588065	0.12551106	0.12552405	0	1200.1067092769404
0.52480746	0.47863009	0.37	164.2417	0.021958745	0.20683382	-0.071588241	0.29327559	0.14053974	0.14055201	0	1235.8533259551155
0.52480746	0.52480746	0.37	187.12514	0.020816242	0.24552611	-0.075191094	0.30104835	0.15775261	0.15776423	0	1274.9093768601172
0.52480746	0.57543994	0.37	210.95373	0.019804261	0.28736786	-0.078747246	0.30922246	0.17725748	0.17726854	0	1317.0640762370226
0.52480746	0.63095734	0.37	235.44142	0.01890058	0.33212806	-0.082254572	0.31781111	0.1991327	0.19914326	0	1362.1049604551054
0.52480746	0.69183097	0.37	260.3431	0.018086497	0.37959593	-0.085718658	0.32682012	0.22343051	0.22344061	0	1409.836011189917
0.52480746	0.75857758	0.37	285.46018	0.017346617	0.4295901	-0.089149988	0.33625075	0.25018135	0.25019104	0	1460.0872574992945
0.52480746	0.83176377	0.37	310.63986	0.016668453	0.48196158	-0.092561703	0.346102	0.2793985	0.27940781	0	1512.7183659025623
0.52480746	0.91201084	0.37	335.77085	0.016041966	0.5365929	-0.095968011	0.35637215	0.31108232	0.31109128	0	1567.618367718666
0.52480746	1.	0.37	360.77752	0.015459113	0.59339536	-0.099383158	0.36705986	0.34522407	0.34523271	0	1624.703457664561
0.52480746	1.0964782	0.37	385.61388	0.014913463	0.65230545	-0.10282083	0.37816473	0.38180909	0.38181742	0	1683.9138248891963
0.52480746	1.2022644	0.37	410.25783	0.014399859	0.7132814	-0.10629383	0.38968765	0.42081943	0.42082747	0	1745.2105331467733
0.52480746	1.3182567	0.37	434.70625	0.013914155	0.77629988	-0.10981401	0.40163094	0.46223593	0.4622437	0	1808.572468900572
0.52480746	1.4454398	0.37	458.97072	0.013452999	0.84135311	-0.1133922	0.41399831	0.50603989	0.5060474	0	1873.9936120735251
0.52480746	1.5848932	0.37	483.07409	0.013013667	0.90844656	-0.11703833	0.42679488	0.55221432	0.55222159	0	1941.480882000697
0.52480746	1.7378008	0.37	507.04767	0.012593927	0.97759685	-0.12076151	0.44002704	0.6007449	0.60075193	0	2011.052115672561
0.52480746	1.9054607	0.37	530.92901	0.012191938	1.0488302	-0.1245701	0.4537024	0.6516207	0.65162751	0	2082.734594026751
0.52480746	2.0892961	0.37	554.76013	0.011806172	1.1221811	-0.12847187	0.46782968	0.70483472	0.70484132	0	2156.563754085832
0.52480746	2.2908677	0.37	578.58615	0.011435343	1.1976913	-0.13247408	0.48241863	0.76038422	0.76039061	0	2232.582212185169
0.52480746	2.5118864	0.37	602.45421	0.011078366	1.2754087	-0.13658353	0.49747994	0.818271	0.81827719	0	2310.838689767854
0.52480746	2.7542287	0.37	626.41269	0.010734313	1.355387	-0.14080671	0.51302521	0.87850155	0.87850754	0	2391.3876741076647
0.52480746	3.0199517	0.37	650.51057	0.010402386	1.437685	-0.14514983	0.52906688	0.94108711	0.94109292	0	2474.288736278575
0.52480746	3.3113112	0.37	674.79698	0.010081888	1.5223663	-0.14961887	0.54561816	1.0060438	1.0060494	0	2559.606224950405
0.52480746	3.6307805	0.37	699.32087	0.0097722088	1.6094985	-0.15421967	0.56269303	1.0733924	1.0733979	0	2647.4085147365436
0.52480746	3.9810717	0.37	724.13077	0.0094728075	1.6991537	-0.15895794	0.58030622	1.1431587	1.143164	0	2737.7684690238416
0.52480746	4.3651583	0.37	749.27466	0.0091832004	1.7914074	-0.16383934	0.59847314	1.2153731	1.2153782	0	2830.762382115978
0.52480746	4.7863009	0.37	774.79985	0.0089029514	1.8863393	-0.16886947	0.6172099	1.2900705	1.2900755	0	2926.470737838532
0.52480746	5.2480746	0.37	800.75291	0.0086316641	1.9840322	-0.17405395	0.6365333	1.3672907	1.3672955	0	3024.977172540697
0.52480746	5.7543994	0.37	827.17973	0.0083689757	2.0845729	-0.17939839	0.65646083	1.4470779	1.4470825	0	3126.3693207041038
0.52480746	6.3095734	0.37	854.12546	0.0081145518	2.1880512	-0.18490847	0.67701063	1.5294806	1.5294852	0	3230.737861471898
0.52480746	6.9183097	0.37	881.6346	0.0078680819	2.2945606	-0.19058991	0.69820154	1.6145521	1.6145565	0	3338.1771937264466
0.52480746	7.5857758	0.37	909.75102	0.0076292764	2.404198	-0.19644853	0.72005307	1.7023497	1.7023539	0	3448.7851437905565
0.52480746	8.3176377	0.37	938.51806	0.0073978638	2.5170637	-0.20249026	0.74258543	1.7929349	1.7929391	0	3562.6629758566496
0.52480746	9.1201084	0.37	967.97857	0.0071735881	2.6332614	-0.2087211	0.76581952	1.8863738	1.8863778	0	3679.9153885103733
0.52480746	10.	0.37	998.175	0.0069562071	2.7528984	-0.21514723	0.78977697	1.9827364	1.9827402	0	3800.6507165492358