0.43651583	1.e-12	0.5	2446.2021	23887.118	-0.010041891	-0.0013756461	-0.0013755675	-2.6142762	8.4835205	0	929.48411938813
0.43651583	1.0964782e-12	0.5	2230.9733	21785.864	-0.010030245	-0.0013756495	-0.0013755633	-2.3851918	7.7363761	0	929.4950635392834
0.43651583	1.2022644e-12	0.5	2034.6822	19869.492	-0.010018666	-0.0013756527	-0.0013755581	-2.1762633	7.0549709	0	929.505945209341
0.43651583	1.3182567e-12	0.5	1855.6625	18121.735	-0.010007149	-0.0013756563	-0.0013755526	-1.9857173	6.4335205	0	929.5167687672816
0.43651583	1.4454398e-12	0.5	1692.3946	16527.756	-0.0099956904	-0.0013756597	-0.001375546	-1.8119362	5.8667498	0	929.5275379713668
0.43651583	1.5848932e-12	0.5	1543.4925	15074.026	-0.0099842847	-0.0013756634	-0.0013755388	-1.653445	5.3498476	0	929.5382577543145
0.43651583	1.7378008e-12	0.5	1407.6921	13748.204	-0.0099729288	-0.001375667	-0.0013755303	-1.5088983	4.8784261	0	929.5489313576253
0.43651583	1.9054607e-12	0.5	1283.8406	12539.035	-0.0099616188	-0.001375671	-0.0013755211	-1.3770691	4.4484836	0	929.5595621637344
0.43651583	2.0892961e-12	0.5	1170.8867	11436.256	-0.0099503517	-0.0013756747	-0.0013755104	-1.2568385	4.0563704	0	929.570153367164
0.43651583	2.2908677e-12	0.5	1067.8714	10430.506	-0.0099391243	-0.0013756789	-0.0013754988	-1.1471858	3.698758	0	929.5807076926537
0.43651583	2.5118864e-12	0.5	973.92035	9513.2468	-0.0099279342	-0.0013756828	-0.0013754852	-1.0471805	3.3726109	0	929.5912279119211
0.43651583	2.7542287e-12	0.5	888.23593	8676.6927	-0.0099167781	-0.0013756872	-0.0013754706	-0.9559735	3.0751604	0	929.6017166557492
0.43651583	3.0199517e-12	0.5	810.0908	7913.7428	-0.0099056543	-0.0013756914	-0.0013754539	-0.87279078	2.8038817	0	929.6121760381602
0.43651583	3.3113112e-12	0.5	738.82155	7217.9206	-0.00989456	-0.001375696	-0.0013754356	-0.79692625	2.5564718	0	929.6226084550458
0.43651583	3.6307805e-12	0.5	673.82321	6583.3199	-0.0098834937	-0.0013757003	-0.0013754148	-0.72773602	2.3308308	0	929.6330157385581
0.43651583	3.9810717e-12	0.5	614.54398	6004.5538	-0.0098724528	-0.0013757054	-0.0013753923	-0.66463279	2.1250431	0	929.6433999557411
0.43651583	4.3651583e-12	0.5	560.48068	5476.7098	-0.0098614363	-0.00137571	-0.0013753667	-0.60708099	1.9373621	0	929.6537627038558
0.43651583	4.7863009e-12	0.5	511.17433	4995.3071	-0.009850442	-0.0013757151	-0.0013753387	-0.55459216	1.7661944	0	929.6641057210983
0.43651583	5.2480746e-12	0.5	466.2064	4556.2595	-0.0098394687	-0.0013757199	-0.0013753072	-0.50672081	1.6100872	0	929.6744306517078
0.43651583	5.7543994e-12	0.5	425.19513	4155.8405	-0.0098285146	-0.0013757254	-0.0013752728	-0.46306066	1.4677153	0	929.6847389050322
0.43651583	6.3095734e-12	0.5	387.79241	3790.651	-0.0098175789	-0.0013757305	-0.0013752343	-0.42324116	1.3378702	0	929.695031796463
0.43651583	6.9183097e-12	0.5	353.6807	3457.5914	-0.0098066597	-0.0013757365	-0.0013751924	-0.38692438	1.2194497	0	929.7053107823269
0.43651583	7.5857758e-12	0.5	322.57044	3153.8347	-0.0097957568	-0.0013757416	-0.001375145	-0.35380212	1.1114486	0	929.7155770370803
0.43651583	8.3176377e-12	0.5	294.19753	2876.8025	-0.0097848679	-0.0013757483	-0.0013750942	-0.3235933	1.0129501	0	929.7258317351798
0.43651583	9.1201084e-12	0.5	268.32112	2624.1434	-0.0097739935	-0.0013757538	-0.0013750365	-0.29604157	0.92311808	0	929.7360760510821
0.43651583	1.e-11	0.5	244.72155	2393.713	-0.0097631312	-0.0013757608	-0.0013749744	-0.27091313	0.84119007	0	929.7463110652875
0.43651583	1.0964782e-11	0.5	223.19848	2183.5554	-0.0097522815	-0.0013757666	-0.0013749043	-0.24799477	0.76647059	0	929.7565379992309
0.43651583	1.2022644e-11	0.5	203.56919	1991.8868	-0.0097414425	-0.0013757736	-0.0013748281	-0.22709201	0.69832538	0	929.7667577454994
0.43651583	1.3182567e-11	0.5	185.66707	1817.0804	-0.0097306145	-0.0013757799	-0.0013747431	-0.20802752	0.63617599	0	929.7769712906365
0.43651583	1.4454398e-11	0.5	169.34013	1657.6526	-0.0097197963	-0.0013757863	-0.0013746495	-0.19063954	0.57949489	0	929.7871796681644
0.43651583	1.5848932e-11	0.5	154.44978	1512.2503	-0.0097089876	-0.0013757923	-0.0013745458	-0.17478055	0.52780093	0	929.7973838646262
0.43651583	1.7378008e-11	0.5	140.86962	1379.6394	-0.0096981886	-0.001375796	-0.0013744294	-0.16031603	0.48065531	0	929.8075849135444
0.43651583	1.9054607e-11	0.5	128.48437	1258.6945	-0.0096874034	-0.0013757891	-0.0013742906	-0.14712328	0.43765784	0	929.8177835195925
0.43651583	2.0892961e-11	0.5	117.18888	1148.389	-0.0096766432	-0.0013757483	-0.0013741052	-0.13509039	0.39844353	0	929.8279805283795
0.43651583	2.2908677e-11	0.5	106.88726	1047.7868	-0.0096659478	-0.0013755957	-0.001373794	-0.1241153	0.3626795	0	929.8381757519924
0.43651583	2.5118864e-11	0.5	97.492079	956.03401	-0.0096554529	-0.0013750657	-0.0013730903	-0.11410496	0.33006211	0	929.8483669824524
0.43651583	2.7542287e-11	0.5	88.923557	872.3516	-0.0096456101	-0.0013732768	-0.0013711108	-0.10497446	0.30031431	0	929.8585448710845
0.43651583	3.0199517e-11	0.5	81.10893	796.02824	-0.0096378298	-0.0013674716	-0.0013650966	-0.096646391	0.27318305	0	929.868680338341
0.43651583	3.3113112e-11	0.5	73.981794	726.41348	-0.0096358493	-0.001350333	-0.0013477289	-0.089050159	0.24843673	0	929.8787001920814
0.43651583	3.6307805e-11	0.5	67.481547	662.91243	-0.0096461754	-0.0013090964	-0.0013062411	-0.082121386	0.22586333	0	929.8884883959846
0.43651583	3.9810717e-11	0.5	61.552965	604.98463	-0.0096736236	-0.0012342769	-0.0012311461	-0.075801367	0.20527048	0	929.8979773483238
0.43651583	4.3651583e-11	0.5	56.145787	552.14152	-0.0097171302	-0.0011279193	-0.0011244864	-0.070036566	0.18648473	0	929.9072069336484
0.43651583	4.7863009e-11	0.5	51.214203	503.93875	-0.0097727239	-0.00099781588	-0.00099405177	-0.064778149	0.16934845	0	929.916248948844
0.43651583	5.2480746e-11	0.5	46.71641	459.96993	-0.0098368078	-0.00085106646	-0.0008469392	-0.059981577	0.1537174	0	929.925148873572
0.43651583	5.7543994e-11	0.5	42.614254	419.86323	-0.0099067745	-0.00069285363	-0.00068832818	-0.055606224	0.13945945	0	929.933923295858
0.43651583	6.3095734e-11	0.5	38.872922	383.27879	-0.0099807285	-0.0005269749	-0.00052201287	-0.051615038	0.12645375	0	929.9425707311894
0.43651583	6.9183097e-11	0.5	35.460652	349.9062	-0.010057211	-0.00035637884	-0.00035093809	-0.04797423	0.11458987	0	929.9510783920815
0.43651583	7.5857758e-11	0.5	32.348475	319.4621	-0.010135049	-0.0001834545	-0.00017748885	-0.044652984	0.10376699	0	929.9594279523121
0.43651583	8.3176377e-11	0.5	29.509961	291.68791	-0.010213277	-0.000010189007	-3.6478335e-6	-0.041623199	0.093893071	0	929.9675951318684
0.43651583	9.1201084e-11	0.5	26.921008	266.3477	-0.010291093	0.00016175816	0.00016893038	-0.038859247	0.084884128	0	929.9755561693776
0.43651583	1.e-10	0.5	24.55963	243.22623	-0.010367834	0.0003309959	0.00033886003	-0.036337757	0.076663538	0	929.9832829903921
0.43651583	1.0964782e-10	0.5	22.40578	222.12723	-0.01044295	0.00049636103	0.00050498382	-0.03403742	0.069161419	0	929.9907486780089
0.43651583	1.2022644e-10	0.5	20.441171	202.87173	-0.010515989	0.00065689244	0.00066634707	-0.031938803	0.062314057	0	929.9979294236418
0.43651583	1.3182567e-10	0.5	18.649133	185.29664	-0.010586595	0.00081182252	0.00082218921	-0.030024182	0.056063407	0	930.0048024099467
0.43651583	1.4454398e-10	0.5	17.014467	169.25346	-0.010654509	0.00096059356	0.00097196028	-0.0282774	0.050356634	0	930.0113526226689
0.43651583	1.5848932e-10	0.5	15.523319	154.60707	-0.010719578	0.0011028774	0.0011153406	-0.026683717	0.045145704	0	930.0175736351819
0.43651583	1.7378008e-10	0.5	14.163066	141.23465	-0.01078176	0.0012385895	0.0012522549	-0.025229694	0.040386986	0	930.0234695486879
0.43651583	1.9054607e-10	0.5	12.922203	129.02454	-0.010841119	0.0013678783	0.0013828618	-0.023903072	0.036040873	0	930.0290547479327
0.43651583	2.0892961e-10	0.5	11.79025	117.87527	-0.010897809	0.0014910927	0.0015075214	-0.022692669	0.0320714	0	930.0343537085935
0.43651583	2.2908677e-10	0.5	10.757652	107.69455	-0.01095205	0.0016087255	0.0016267386	-0.021588285	0.028445887	0	930.0393969195663
0.43651583	2.5118864e-10	0.5	9.8157014	98.398326	-0.011004099	0.0017213545	0.0017411048	-0.020580613	0.025134597	0	930.0442207420297
0.43651583	2.7542287e-10	0.5	8.9564573	89.910011	-0.011054229	0.0018295854	0.0018512402	-0.019661163	0.022110433	0	930.0488600338583
0.43651583	3.0199517e-10	0.5	8.1726776	82.15972	-0.011102703	0.0019340103	0.001957753	-0.018822187	0.019348675	0	930.0533534111881
0.43651583	3.3113112e-10	0.5	7.4577561	75.083639	-0.011149767	0.002035176	0.0020612078	-0.018056616	0.016826745	0	930.0577349802413
0.43651583	3.6307805e-10	0.5	6.8056658	68.623466	-0.011195635	0.0021335651	0.0021621063	-0.017358001	0.014524007	0	930.0620393640011
0.43651583	3.9810717e-10	0.5	6.2109083	62.725919	-0.01124049	0.0022295883	0.0022608802	-0.016720456	0.01242159	0	930.0662974271889
0.43651583	4.3651583e-10	0.5	5.6684666	57.342286	-0.011284481	0.0023235806	0.0023578878	-0.01613861	0.010502235	0	930.0705374977006
0.43651583	4.7863009e-10	0.5	5.1737634	52.428033	-0.011327721	0.0024158027	0.0024534149	-0.015607563	0.0087501531	0	930.0747876685394
0.43651583	5.2480746e-10	0.5	4.7226227	47.942448	-0.011370294	0.0025064476	0.0025476821	-0.015122843	0.0071509001	0	930.0790726502746
0.43651583	5.7543994e-10	0.5	4.3112345	43.848311	-0.011412252	0.0025956432	0.0026408474	-0.014680369	0.0056912652	0	930.0834178111706
0.43651583	6.3095734e-10	0.5	3.9361236	40.111604	-0.011453624	0.0026834638	0.002733018	-0.014276418	0.0043591675	0	930.0878462645346
0.43651583	6.9183097e-10	0.5	3.59412	36.701236	-0.011494417	0.0027699361	0.0028242565	-0.01390759	0.0031435613	0	930.0923808418052
0.43651583	7.5857758e-10	0.5	3.2823324	33.588801	-0.011534621	0.0028550476	0.0029145892	-0.013570784	0.0020343499	0	930.0970432939198
0.43651583	8.3176377e-10	0.5	2.9981243	30.748347	-0.011574209	0.002938756	0.0030040166	-0.01326317	0.0010223082	0	930.1018592240342
0.43651583	9.1201084e-10	0.5	2.7390921	28.156179	-0.011613148	0.0030209975	0.0030925207	-0.012982164	0.0000990104	0	930.106851181717
0.43651583	1.e-9	0.5	2.5030441	25.790658	-0.011651397	0.0031016934	0.0031800729	-0.012725406	-0.00074323698	0	930.1120442533631
0.43651583	1.0964782e-9	0.5	2.2879833	23.63204	-0.011688913	0.0031807587	0.0032666422	-0.012490743	-0.0015114538	0	930.1174642770193
0.43651583	1.2022644e-9	0.5	2.0920894	21.662308	-0.011725652	0.0032581077	0.0033522009	-0.012276208	-0.0022120435	0	930.1231395805812
0.43651583	1.3182567e-9	0.5	1.9137043	19.865033	-0.011761574	0.0033336603	0.0034367317	-0.012080006	-0.0028508428	0	930.1290996194225
0.43651583	1.4454398e-9	0.5	1.7513178	18.225236	-0.011796643	0.0034073465	0.0035202312	-0.011900494	-0.0034331697	0	930.1353766206344
0.43651583	1.5848932e-9	0.5	1.6035542	16.729265	-0.011830832	0.0034791099	0.0036027146	-0.011736173	-0.0039638672	0	930.1420030931783
0.43651583	1.7378008e-9	0.5	1.4691612	15.36468	-0.011864119	0.0035489102	0.0036842165	-0.011585671	-0.0044473432	0	930.1490159619725
0.43651583	1.9054607e-9	0.5	1.3469986	14.12015	-0.011896494	0.003616727	0.0037647959	-0.011447736	-0.0048876079	0	930.1564523398481
0.43651583	2.0892961e-9	0.5	1.236028	12.985353	-0.011927953	0.0036825557	0.0038445305	-0.01132122	-0.0052883107	0	930.1643524871804
0.43651583	2.2908677e-9	0.5	1.1353041	11.950882	-0.011958503	0.0037464113	0.0039235203	-0.011205072	-0.0056527711	0	930.1727568052797
0.43651583	2.5118864e-9	0.5	1.0439654	11.008164	-0.011988157	0.0038083246	0.0040018825	-0.011098331	-0.0059840107	0	930.1817081383257
0.43651583	2.7542287e-9	0.5	0.96122664	10.149378	-0.012016936	0.0038683418	0.0040797497	-0.011000116	-0.0062847819	0	930.1912490486288
0.43651583	3.0199517e-9	0.5	0.88637104	9.3673835	-0.012044867	0.0039265197	0.0041572639	-0.010909619	-0.0065575951	0	930.2014208770645
0.43651583	3.3113112e-9	0.5	0.81874354	8.6556504	-0.012071982	0.0039829265	0.0042345746	-0.010826102	-0.0068047439	0	930.2122637900513
0.43651583	3.6307805e-9	0.5	0.75774422	8.0081972	-0.012098317	0.0040376374	0.0043118329	-0.010748884	-0.0070283285	0	930.2238149473991
0.43651583	3.9810717e-9	0.5	0.70282232	7.4195322	-0.012123907	0.004090731	0.0043891854	-0.010677343	-0.0072302779	0	930.2361103344605
0.43651583	4.3651583e-9	0.5	0.65347091	6.884603	-0.012148793	0.004142291	0.004466773	-0.01061091	-0.0074123688	0	930.2491776214351
0.43651583	4.7863009e-9	0.5	0.60922194	6.3987486	-0.012173014	0.0041924013	0.0045447246	-0.01054906	-0.0075762441	0	930.2630407202613
0.43651583	5.2480746e-9	0.5	0.56964195	5.9576587	-0.012196611	0.0042411462	0.0046231546	-0.010491316	-0.0077234273	0	930.2777148518976
0.43651583	5.7543994e-9	0.5	0.53432849	5.5573394	-0.012219622	0.0042886076	0.0047021597	-0.010437239	-0.0078553364	0	930.2932097408454
0.43651583	6.3095734e-9	0.5	0.50290714	5.1940847	-0.012242085	0.0043348657	0.0047818184	-0.010386431	-0.0079732936	0	930.3095265615615
0.43651583	6.9183097e-9	0.5	0.47502929	4.8644542	-0.012264037	0.0043799976	0.0048621906	-0.010338526	-0.0080785329	0	930.3266586901098
0.43651583	7.5857758e-9	0.5	0.45037042	4.5652555	-0.012285514	0.0044240766	0.0049433183	-0.010293194	-0.0081722063	0	930.3445920330105
0.43651583	8.3176377e-9	0.5	0.42862906	4.2935325	-0.012306549	0.0044671745	0.0050252292	-0.010250133	-0.0082553865	0	930.3633085975869
0.43651583	9.1201084e-9	0.5	0.40952594	4.0465548	-0.012327173	0.0045093566	0.0051079361	-0.010209073	-0.00832907	0	930.3827852705315
0.43651583	1.e-8	0.5	0.3928036	3.8218108	-0.012347417	0.0045506849	0.005191442	-0.010169766	-0.0083941778	0	930.4029943346663
0.43651583	1.0964782e-8	0.5	0.37822597	3.6170022	-0.01236731	0.0045912199	0.0052757459	-0.010131991	-0.0084515559	0	930.4239080728137
0.43651583	1.2022644e-8	0.5	0.36557784	3.4300351	-0.012386877	0.0046310148	0.0053608403	-0.010095549	-0.0085019779	0	930.4454994724698
0.43651583	1.3182567e-8	0.5	0.35466439	3.2590137	-0.012406144	0.0046701218	0.0054467198	-0.010060261	-0.0085461449	0	930.4677415681091
0.43651583	1.4454398e-8	0.5	0.34531038	3.10223	-0.012425134	0.0047085892	0.005533381	-0.010025965	-0.0085846892	0	930.4906111524672
0.43651583	1.5848932e-8	0.5	0.33735919	2.9581538	-0.012443869	0.0047464616	0.0056208241	-0.0099925153	-0.0086181767	0	930.5140876490632
0.43651583	1.7378008e-8	0.5	0.33067167	2.8254197	-0.012462369	0.0047837808	0.0057090549	-0.0099597824	-0.0086471111	0	930.5381549913297
0.43651583	1.9054607e-8	0.5	0.32512495	2.7028151	-0.012480653	0.004820586	0.005798086	-0.0099276481	-0.0086719382	0	930.5628012467864
0.43651583	2.0892961e-8	0.5	0.32061104	2.5892664	-0.012498741	0.0048569138	0.0058879364	-0.0098960061	-0.0086930501	0	930.5880165499975
0.43651583	2.2908677e-8	0.5	0.31703543	2.4838256	-0.012516647	0.0048927968	0.0059786305	-0.0098647599	-0.0087107911	0	930.6137992097451
0.43651583	2.5118864e-8	0.5	0.31431583	2.3856574	-0.012534389	0.0049282674	0.006070201	-0.0098338217	-0.0087254611	0	930.6401476757464
0.43651583	2.7542287e-8	0.5	0.31238074	2.2940269	-0.01255198	0.0049633543	0.0061626854	-0.0098031111	-0.0087373214	0	930.6670673505023
0.43651583	3.0199517e-8	0.5	0.31116834	2.2082877	-0.012569435	0.0049980864	0.0062561289	-0.0097725542	-0.0087465983	0	930.6945653747096
0.43651583	3.3113112e-8	0.5	0.31062522	2.1278714	-0.012586767	0.0050324876	0.0063505784	-0.0097420829	-0.008753488	0	930.7226515668257
0.43651583	3.6307805e-8	0.5	0.31070546	2.0522777	-0.012603987	0.0050665816	0.0064460873	-0.0097116341	-0.0087581595	0	930.7513406780271
0.43651583	3.9810717e-8	0.5	0.31136963	1.9810665	-0.012621108	0.0051003911	0.0065427134	-0.0096811484	-0.0087607581	0	930.7806476474025
0.43651583	4.3651583e-8	0.5	0.31258402	1.9138496	-0.01263814	0.0051339388	0.0066405196	-0.0096505704	-0.0087614085	0	930.8105926286289
0.43651583	4.7863009e-8	0.5	0.31431982	1.8502835	-0.012655093	0.0051672399	0.006739566	-0.0096198476	-0.0087602182	0	930.8411944599914
0.43651583	5.2480746e-8	0.5	0.31655262	1.7900649	-0.012671978	0.005200317	0.0068399243	-0.0095889301	-0.0087572778	0	930.8724764896892
0.43651583	5.7543994e-8	0.5	0.31926174	1.7329241	-0.012688803	0.0052331841	0.0069416611	-0.0095577702	-0.0087526652	0	930.9044624887254
0.43651583	6.3095734e-8	0.5	0.3224298	1.6786212	-0.012705578	0.0052658577	0.0070448491	-0.0095263222	-0.0087464459	0	930.9371772146469
0.43651583	6.9183097e-8	0.5	0.32604233	1.6269425	-0.012722309	0.005298353	0.007149563	-0.0094945417	-0.008738675	0	930.9706501228278
0.43651583	7.5857758e-8	0.5	0.3300874	1.5776966	-0.012739006	0.0053306852	0.0072558801	-0.0094623857	-0.0087293983	0	931.0049081318152
0.43651583	8.3176377e-8	0.5	0.33455529	1.5307118	-0.012755677	0.0053628657	0.0073638773	-0.0094298124	-0.0087186539	0	931.0399798513738
0.43651583	9.1201084e-8	0.5	0.33943828	1.4858333	-0.012772327	0.0053949074	0.0074736348	-0.0093967808	-0.0087064725	0	931.0758982602476
0.43651583	1.e-7	0.5	0.3447304	1.4429217	-0.012788963	0.0054268217	0.0075852344	-0.0093632504	-0.0086928785	0	931.112695209702
0.43651583	1.0964782e-7	0.5	0.35042727	1.4018507	-0.012805594	0.00545862	0.0076987603	-0.0093291813	-0.0086778908	0	931.1504017993499
0.43651583	1.2022644e-7	0.5	0.35652591	1.3625053	-0.012822224	0.0054903114	0.0078142966	-0.0092945341	-0.0086615232	0	931.1890537796529
0.43651583	1.3182567e-7	0.5	0.36302462	1.3247811	-0.012838861	0.0055219072	0.0079319324	-0.0092592694	-0.0086437849	0	931.2286854917247
0.43651583	1.4454398e-7	0.5	0.36992288	1.2885826	-0.012855509	0.0055534165	0.0080517564	-0.0092233481	-0.0086246812	0	931.2693348470272
0.43651583	1.5848932e-7	0.5	0.37722122	1.2538221	-0.012872175	0.0055848456	0.0081738575	-0.009186731	-0.0086042135	0	931.3110370322825
0.43651583	1.7378008e-7	0.5	0.38492115	1.2204193	-0.012888863	0.0056162036	0.0082983293	-0.0091493787	-0.00858238	0	931.3538322608878
0.43651583	1.9054607e-7	0.5	0.39302513	1.1883002	-0.01290558	0.005647498	0.0084252667	-0.0091112519	-0.0085591755	0	931.3977585382614
0.43651583	2.0892961e-7	0.5	0.40153644	1.1573965	-0.012922331	0.0056787377	0.0085547684	-0.0090723107	-0.008534592	0	931.4428575341267
0.43651583	2.2908677e-7	0.5	0.41045917	1.1276448	-0.012939119	0.0057099255	0.0086869293	-0.0090325151	-0.0085086188	0	931.4891710121632
0.43651583	2.5118864e-7	0.5	0.4197982	1.0989866	-0.012955951	0.00574107	0.0088218532	-0.0089918245	-0.0084812425	0	931.5367411588554
0.43651583	2.7542287e-7	0.5	0.42955909	1.0713673	-0.012972829	0.0057721753	0.0089596417	-0.0089501977	-0.0084524475	0	931.5856138249924
0.43651583	3.0199517e-7	0.5	0.43974816	1.0447363	-0.012989763	0.0058032526	0.0091004063	-0.0089075931	-0.0084222155	0	931.6358319956888
0.43651583	3.3113112e-7	0.5	0.45037233	1.019046	-0.013006752	0.0058343007	0.0092442493	-0.0088639684	-0.0083905264	0	931.6874446692777
0.43651583	3.6307805e-7	0.5	0.46143922	0.99425225	-0.013023801	0.0058653234	0.0093912808	-0.0088192807	-0.0083573577	0	931.7404988710048
0.43651583	3.9810717e-7	0.5	0.47295708	0.97031363	-0.013040917	0.0058963295	0.0095416188	-0.0087734861	-0.0083226848	0	931.7950434582683
0.43651583	4.3651583e-7	0.5	0.48493475	0.94719121	-0.013058101	0.0059273176	0.0096953745	-0.00872654	-0.0082864812	0	931.8511297313364
0.43651583	4.7863009e-7	0.5	0.49738173	0.92484857	-0.013075359	0.0059582966	0.0098526724	-0.0086783967	-0.0082487182	0	931.90881054076
0.43651583	5.2480746e-7	0.5	0.51030809	0.90325138	-0.013092695	0.0059892699	0.010013635	-0.0086290099	-0.0082093653	0	931.9681396766553
0.43651583	5.7543994e-7	0.5	0.52372448	0.88236719	-0.01311011	0.0060202315	0.010178379	-0.0085783321	-0.0081683901	0	932.0291710230954
0.43651583	6.3095734e-7	0.5	0.53764219	0.86216561	-0.013127609	0.0060511898	0.010347039	-0.0085263146	-0.0081257582	0	932.0919631150011
0.43651583	6.9183097e-7	0.5	0.55207308	0.84261787	-0.013145198	0.0060821484	0.010519747	-0.0084729077	-0.0080814331	0	932.1565723262938
0.43651583	7.5857758e-7	0.5	0.56702961	0.82369677	-0.01316288	0.0061131108	0.010696643	-0.0084180605	-0.0080353764	0	932.2230616078521
0.43651583	8.3176377e-7	0.5	0.58252482	0.80537649	-0.013180655	0.0061440707	0.010877856	-0.0083617209	-0.0079875483	0	932.2914915616404
0.43651583	9.1201084e-7	0.5	0.59857234	0.78763268	-0.013198527	0.0061750316	0.011063531	-0.0083038353	-0.0079379064	0	932.3619265478858
0.43651583	1.e-6	0.5	0.61518644	0.77044215	-0.013216497	0.006205987	0.011253809	-0.0082443491	-0.0078864068	0	932.43443186638
0.43651583	1.0964782e-6	0.5	0.63238197	0.75378304	-0.013234572	0.0062369451	0.011448847	-0.0081832058	-0.0078330032	0	932.5090746960454
0.43651583	1.2022644e-6	0.5	0.65017444	0.73763451	-0.013252755	0.0062679094	0.011648805	-0.0081203477	-0.0077776476	0	932.5859273834141
0.43651583	1.3182567e-6	0.5	0.66857989	0.72197661	-0.013271041	0.0062988585	0.011853818	-0.0080557156	-0.0077202901	0	932.6650580469737
0.43651583	1.4454398e-6	0.5	0.68761513	0.70679061	-0.01328944	0.0063298105	0.012064071	-0.0079892485	-0.0076608782	0	932.7465442008659
0.43651583	1.5848932e-6	0.5	0.70729749	0.69205843	-0.013307947	0.0063607439	0.01227971	-0.0079208839	-0.0075993581	0	932.8304591311877
0.43651583	1.7378008e-6	0.5	0.72764505	0.67776308	-0.013326573	0.0063916767	0.012500928	-0.0078505572	-0.007535673	0	932.9168831707768
0.43651583	1.9054607e-6	0.5	0.7486765	0.66388809	-0.013345306	0.0064225775	0.012727872	-0.0077782028	-0.0074697648	0	933.0058966524705
0.43651583	2.0892961e-6	0.5	0.77041126	0.65041794	-0.013364154	0.0064534543	0.012960736	-0.0077037523	-0.0074015724	0	933.0975831975849
0.43651583	2.2908677e-6	0.5	0.79286943	0.63733777	-0.013383121	0.0064843052	0.013199707	-0.0076271358	-0.0073310329	0	933.1920268972187
0.43651583	2.5118864e-6	0.5	0.81607181	0.62463332	-0.013402199	0.0065151087	0.013444961	-0.0075482816	-0.0072580811	0	933.289317949646
0.43651583	2.7542287e-6	0.5	0.84003995	0.61229092	-0.013421382	0.0065458429	0.013696678	-0.0074671157	-0.0071826494	0	933.38954655314
0.43651583	3.0199517e-6	0.5	0.86479618	0.60029771	-0.013440682	0.0065765257	0.013955083	-0.0073835617	-0.0071046673	0	933.4928071340182
0.43651583	3.3113112e-6	0.5	0.89036356	0.58864117	-0.013460093	0.0066071352	0.014220371	-0.0072975412	-0.0070240625	0	933.5991969372949
0.43651583	3.6307805e-6	0.5	0.91676594	0.57730937	-0.01347961	0.0066376495	0.01449274	-0.0072089738	-0.0069407597	0	933.7088136777659
0.43651583	3.9810717e-6	0.5	0.944028	0.56629086	-0.013499225	0.0066680469	0.014772396	-0.0071177763	-0.0068546813	0	933.8217616471856
0.43651583	4.3651583e-6	0.5	0.97217524	0.55557469	-0.013518932	0.0066983054	0.015059553	-0.0070238632	-0.0067657469	0	933.938147016438
0.43651583	4.7863009e-6	0.5	1.0012341	0.54515045	-0.013538746	0.0067284424	0.015354469	-0.0069271463	-0.006673873	0	934.0580768959734
0.43651583	5.2480746e-6	0.5	1.0312316	0.53500793	-0.01355863	0.0067583769	0.015657314	-0.0068275351	-0.0065789739	0	934.1816659127644
0.43651583	5.7543994e-6	0.5	1.0621961	0.52513748	-0.013578579	0.006788087	0.015968323	-0.0067249362	-0.0064809608	0	934.3090291635663
0.43651583	6.3095734e-6	0.5	1.0941566	0.51552986	-0.013598598	0.00681757	0.016287759	-0.0066192533	-0.0063797416	0	934.4402855033961
0.43651583	6.9183097e-6	0.5	1.127143	0.50617609	-0.013618651	0.0068467452	0.016615814	-0.0065103875	-0.0062752214	0	934.5755589548795
0.43651583	7.5857758e-6	0.5	1.1611865	0.49706765	-0.013638743	0.0068756097	0.016952766	-0.0063982364	-0.0061673021	0	934.714975419774
0.43651583	8.3176377e-6	0.5	1.196319	0.48819629	-0.013658849	0.0069041021	0.017298845	-0.0062826951	-0.0060558823	0	934.8586664372283
0.43651583	9.1201084e-6	0.5	1.2325736	0.4795541	-0.013678954	0.0069321806	0.017654309	-0.006163655	-0.0059408573	0	935.0067673046526
0.43651583	0.00001	0.5	1.2699844	0.47113338	-0.013699005	0.0069597246	0.018019345	-0.0060410047	-0.0058221193	0	935.1594156683711
0.43651583	0.000010964782	0.5	1.3085867	0.46292695	-0.013719026	0.0069867708	0.018394309	-0.0059146288	-0.005699556	0	935.3167562214475
0.43651583	0.000012022644	0.5	1.3484167	0.45492761	-0.013738924	0.00701312	0.018779329	-0.0057844092	-0.0055730528	0	935.4789364756416
0.43651583	0.000013182567	0.5	1.3895121	0.4471287	-0.013758724	0.0070388087	0.019174779	-0.0056502232	-0.0054424902	0	935.6461086405404
0.43651583	0.000014454398	0.5	1.4319116	0.4395236	-0.013778335	0.0070636379	0.019580809	-0.0055119453	-0.0053077455	0	935.8184286839917
0.43651583	0.000015848932	0.5	1.4756551	0.43210609	-0.013797742	0.0070875653	0.019997737	-0.0053694454	-0.0051686918	0	935.9960600903669
0.43651583	0.000017378008	0.5	1.520784	0.4248701	-0.013816892	0.0071104703	0.020425812	-0.0052225899	-0.005025198	0	936.1791696325149
0.43651583	0.000019054607	0.5	1.5673408	0.41780975	-0.013835695	0.007132154	0.020865217	-0.005071241	-0.0048771294	0	936.3679278415472
0.43651583	0.000020892961	0.5	1.6153694	0.41091954	-0.013854155	0.007152613	0.021316343	-0.0049152563	-0.0047243458	0	936.5625146442283
0.43651583	0.000022908677	0.5	1.6649154	0.40419398	-0.013872162	0.0071716095	0.021779357	-0.0047544895	-0.0045667037	0	936.7631118464533
0.43651583	0.000025118864	0.5	1.7160253	0.39762789	-0.013889645	0.0071889829	0.022254518	-0.0045887896	-0.0044040543	0	936.9699078310749
0.43651583	0.000027542287	0.5	1.7687475	0.39121623	-0.013906533	0.0072045733	0.022742097	-0.004418001	-0.0042362445	0	937.1830966183379
0.43651583	0.000030199517	0.5	1.8231318	0.3849542	-0.013922754	0.007218221	0.02324238	-0.004241963	-0.0040631158	0	937.4028802147927
0.43651583	0.000033113112	0.5	1.8792297	0.37883712	-0.013938237	0.0072297653	0.023755664	-0.0040605102	-0.003884505	0	937.6294648550332
0.43651583	0.000036307805	0.5	1.9370942	0.37286052	-0.013952912	0.007239046	0.024282263	-0.0038734721	-0.0037002436	0	937.8630638203942
0.43651583	0.000039810717	0.5	1.99678	0.36702002	-0.013966668	0.0072458244	0.024822424	-0.0036806729	-0.0035101578	0	938.1038974389503
0.43651583	0.000043651583	0.5	2.0583436	0.36131143	-0.013979398	0.0072498616	0.025376413	-0.0034819314	-0.0033140685	0	938.3521912063854
0.43651583	0.000047863009	0.5	2.1218433	0.35573077	-0.013991108	0.0072511537	0.025944743	-0.0032770604	-0.0031117903	0	938.6081804838198
0.43651583	0.000052480746	0.5	2.1873391	0.35027409	-0.01400169	0.007249461	0.02652771	-0.0030658674	-0.0029031324	0	938.8721057999828
0.43651583	0.000057543994	0.5	2.2548931	0.34493762	-0.014011073	0.0072446229	0.027125704	-0.0028481538	-0.002687898	0	939.1442170792575
0.43651583	0.000063095734	0.5	2.3245694	0.33971774	-0.014019268	0.0072366344	0.027739287	-0.0026237143	-0.0024658837	0	939.424768004289
0.43651583	0.000069183097	0.5	2.3964339	0.3346109	-0.014026204	0.0072253339	0.028368886	-0.002392338	-0.00223688	0	939.7140258814186
0.43651583	0.000075857758	0.5	2.4705548	0.32961372	-0.01403189	0.0072107165	0.029015098	-0.0021538068	-0.0020006705	0	940.0122627148155
0.43651583	0.000083176377	0.5	2.5470024	0.32472286	-0.014036284	0.0071926725	0.029678436	-0.0019078964	-0.0017570324	0	940.3197589647368
0.43651583	0.000091201084	0.5	2.6258492	0.31993518	-0.014039448	0.0071713	0.030359643	-0.001654375	-0.0015057352	0	940.6368054266582
0.43651583	0.0001	0.5	2.70717	0.31524756	-0.014041338	0.0071464895	0.031059269	-0.0013930039	-0.0012465419	0	940.9637018219263
0.43651583	0.00010964782	0.5	2.791042	0.31065706	-0.014042018	0.0071183393	0.031778097	-0.0011235367	-0.00097920747	0	941.300755858193
0.43651583	0.00012022644	0.5	2.8775451	0.30616081	-0.014041601	0.0070870519	0.032517032	-0.00084571909	-0.00070347881	0	941.6482865178953
0.43651583	0.00013182567	0.5	2.9667612	0.30175606	-0.014039994	0.0070524122	0.033276587	-0.00055928988	-0.00041909601	0	942.0066221791224
0.43651583	0.00014454398	0.5	3.0587754	0.29744017	-0.014037364	0.0070147268	0.034057815	-0.00026397841	-0.00012578967	0	942.3761006156177
0.43651583	0.00015848932	0.5	3.1536751	0.29321063	-0.014033722	0.006973989	0.034861483	0.000040493641	0.00017671735	0	942.7570718154743
0.43651583	0.00017378008	0.5	3.2515507	0.28906503	-0.014029184	0.0069304014	0.035688589	0.00035441386	0.00048871156	0	943.1498956322212
0.43651583	0.00019054607	0.5	3.3524954	0.28500108	-0.014023709	0.006883853	0.036539842	0.00067807803	0.00081048764	0	943.5549436639541
0.43651583	0.00020892961	0.5	3.4566053	0.28101663	-0.014017361	0.0068344408	0.037416186	0.0010117917	0.0011423501	0	943.9725992533363
0.43651583	0.00022908677	0.5	3.56398	0.27710968	-0.014010308	0.0067824717	0.038318801	0.0013558706	0.0014846139	0	944.4032588969449
0.43651583	0.00025118864	0.5	3.6747217	0.27327833	-0.014002511	0.0067278345	0.039248475	0.0017106393	0.0018376026	0	944.8473294265767
0.43651583	0.00027542287	0.5	3.7889362	0.26952084	-0.013993984	0.0066705224	0.040206129	0.0020764328	0.0022016504	0	945.3052303581607
0.43651583	0.00030199517	0.5	3.9067328	0.26583564	-0.013984842	0.0066107375	0.041192922	0.0024535973	0.0025771028	0	945.7773981198015
0.43651583	0.00033113112	0.5	4.028224	0.26222131	-0.0139751	0.0065484736	0.042209834	0.0028424894	0.0029643157	0	946.2642790050409
0.43651583	0.00036307805	0.5	4.1535262	0.2586766	-0.013964772	0.0064837233	0.043257876	0.0032434767	0.0033636561	0	946.766334810248
0.43651583	0.00039810717	0.5	4.2827594	0.25520048	-0.013953897	0.0064165328	0.044338141	0.0036569388	0.0037755032	0	947.2840423648381
0.43651583	0.00043651583	0.5	4.4160474	0.25179211	-0.01394249	0.0063468955	0.045451707	0.0040832669	0.0042002479	0	947.8178940010547
0.43651583	0.00047863009	0.5	4.5535183	0.24845091	-0.013930592	0.0062748575	0.046599733	0.004522865	0.0046382937	0	948.3683956748384
0.43651583	0.00052480746	0.5	4.6953038	0.24517654	-0.013918217	0.006200412	0.047783363	0.0049761495	0.0050900569	0	948.9360716636552
0.43651583	0.00057543994	0.5	4.8415405	0.24196898	-0.013905433	0.0061236578	0.049003882	0.0054435503	0.0055559675	0	949.5214617477977
0.43651583	0.00063095734	0.5	4.9923687	0.23882856	-0.013892151	0.0060443795	0.050262297	0.0059255099	0.0060364681	0	950.1251226197367
0.43651583	0.00069183097	0.5	5.1479334	0.235756	-0.013878388	0.0059625706	0.051559863	0.0064224853	0.006532016	0	950.7476278841177
0.43651583	0.00075857758	0.5	5.3083845	0.23275252	-0.013864262	0.0058784348	0.052898083	0.0069349491	0.0070430844	0	951.3895727555903
0.43651583	0.00083176377	0.5	5.4738764	0.22981986	-0.01384974	0.0057918611	0.054278188	0.0074633873	0.0075701601	0	952.0515665422838
0.43651583	0.00091201084	0.5	5.6445682	0.22696054	-0.013834889	0.0057029463	0.055701657	0.0080083019	0.0081137463	0	952.7342411018963
0.43651583	0.001	0.5	5.8206228	0.22417836	-0.013820038	0.0056123049	0.057170529	0.0085702103	0.0086743621	0	953.4382452043018
0.43651583	0.0010964782	0.5	6.002199	0.22148147	-0.013808324	0.0055261449	0.058692484	0.0091496463	0.0092525452	0	954.1642393639413
0.43651583	0.0012022644	0.5	6.1893672	0.21889699	-0.013825314	0.0054953303	0.0603199	0.0097471567	0.0098488548	0	954.9128079904626
0.43651583	0.0013182567	0.5	6.381556	0.2165246	-0.013963045	0.0057022131	0.062236693	0.010363272	0.010463868	0	955.683876858203
0.43651583	0.0014454398	0.5	6.5726702	0.21356156	-0.014234251	0.0061582813	0.064455963	0.010998294	0.011097513	0	956.4716356950381
0.43651583	0.0015848932	0.5	6.730844	0.19616388	-0.014513872	0.0065409712	0.066656808	0.011650747	0.011741884	0	957.2428323436661
0.43651583	0.0017378008	0.5	6.8845921	0.16471182	-0.014733483	0.0067666514	0.06875731	0.01231775	0.012394274	0	958.0232729059902
0.43651583	0.0019054607	0.5	7.0804426	0.1483461	-0.014924536	0.0070008263	0.070924742	0.013001964	0.013070885	0	958.8619881300173
0.43651583	0.0020892961	0.5	7.297981	0.14207487	-0.015108092	0.0072467484	0.073164177	0.013706596	0.013772603	0	959.7415730374212
0.43651583	0.0022908677	0.5	7.5260804	0.13898281	-0.015288296	0.007490077	0.075463156	0.01443311	0.01449768	0	960.6522801074786
0.43651583	0.0025118864	0.5	7.7622169	0.13674411	-0.015461267	0.0077174971	0.077810299	0.015182385	0.015245915	0	961.5924096664712
0.43651583	0.0027542287	0.5	8.006062	0.13474292	-0.015608004	0.0078898375	0.080168434	0.015955185	0.016017786	0	962.5623516340196
0.43651583	0.0030199517	0.5	8.2577529	0.13282428	-0.015687402	0.0079246384	0.082457163	0.016752272	0.016813981	0	963.5629572563303
0.43651583	0.0033113112	0.5	8.5175289	0.13094728	-0.015699476	0.007821881	0.084678589	0.017574426	0.017635263	0	964.595200392889
0.43651583	0.0036307805	0.5	8.7856572	0.12910011	-0.015685818	0.0076647364	0.086918077	0.018422452	0.018482431	0	965.6601056397096
0.43651583	0.0039810717	0.5	9.0624201	0.12727918	-0.015663074	0.0074864993	0.089211178	0.019297183	0.019356316	0	966.7587342358553
0.43651583	0.0043651583	0.5	9.3481132	0.12548292	-0.015641649	0.0073080063	0.091581061	0.02019948	0.020257778	0	967.8921943986561
0.43651583	0.0047863009	0.5	9.6430432	0.12371013	-0.015617396	0.0071209925	0.094021861	0.021130232	0.021187707	0	969.0616272302295
0.43651583	0.0052480746	0.5	9.9475296	0.12195968	-0.01559448	0.0069338355	0.096544433	0.022090362	0.022147024	0	970.2682189318302
0.43651583	0.0057543994	0.5	10.261905	0.12023049	-0.015572908	0.006746604	0.099151401	0.023080822	0.023136681	0	971.5131956362397
0.43651583	0.0063095734	0.5	10.586515	0.11852145	-0.015548521	0.0065510577	0.10183716	0.024102598	0.024157662	0	972.7978318638557
0.43651583	0.0069183097	0.5	10.921721	0.11683147	-0.015533791	0.0063722369	0.10462946	0.025156712	0.025210991	0	974.1234458248637
0.43651583	0.0075857758	0.5	11.267899	0.11515944	-0.015512081	0.0061769737	0.10749794	0.026244218	0.026297721	0	975.4914059961961
0.43651583	0.0083176377	0.5	11.625439	0.11350423	-0.015491693	0.0059820138	0.11046223	0.027366214	0.027418947	0	976.9031339402277
0.43651583	0.0091201084	0.5	11.994753	0.11186468	-0.015480926	0.0058041144	0.11354207	0.028523832	0.028575804	0	978.3601057141232
0.43651583	0.01	0.5	12.376266	0.11023961	-0.015463125	0.0056101536	0.11670741	0.029718248	0.029769464	0	979.8638528094029
0.43651583	0.010964782	0.5	12.770425	0.10862776	-0.015454891	0.0054335517	0.11999483	0.030950679	0.031001147	0	981.4159621519434
0.43651583	0.012022644	0.5	13.177697	0.10702786	-0.015439555	0.0052412216	0.12337451	0.032222386	0.032272111	0	983.0180864371949
0.43651583	0.013182567	0.5	13.598569	0.10543853	-0.015425386	0.005049991	0.12686664	0.033534681	0.033583667	0	984.6719413114869
0.43651583	0.014454398	0.5	14.033552	0.10385833	-0.015412326	0.0048600802	0.13047493	0.034888919	0.034937171	0	986.3793241633336
0.43651583	0.015848932	0.5	14.483183	0.10228575	-0.015408624	0.0046883614	0.13421981	0.036286512	0.036334033	0	988.1420821782133
0.43651583	0.017378008	0.5	14.948018	0.10072138	-0.01563955	0.0049857975	0.13855595	0.037728921	0.037775716	0	989.9621555585738
0.43651583	0.019054607	0.5	15.428644	0.099171598	-0.015953198	0.0054490549	0.14318382	0.039217667	0.039263742	0	991.8415559138291
0.43651583	0.020892961	0.5	15.925652	0.097658589	-0.016271936	0.0059233545	0.14795257	0.040754326	0.040799697	0	993.7823568647073
0.43651583	0.022908677	0.5	16.43958	0.096264447	-0.016591559	0.0064006504	0.15285819	0.042340529	0.042385253	0	995.7866254549776
0.43651583	0.025118864	0.5	16.970612	0.095259545	-0.016910313	0.0068770008	0.15790092	0.043977953	0.04402221	0	997.8561224301063
0.43651583	0.027542287	0.5	17.51712	0.095427656	-0.017224171	0.0073398328	0.1630725	0.045668222	0.045712557	0	999.9907510148627
0.43651583	0.030199517	0.5	18.069522	0.097911255	-0.017523169	0.0077466909	0.1683349	0.04741249	0.047457979	0	1002.1820072032633
0.43651583	0.033113112	0.5	18.617115	0.09771931	-0.017792829	0.0080409161	0.17363604	0.049210586	0.049255985	0	1004.4190277407317
0.43651583	0.036307805	0.5	19.199188	0.091334621	-0.018033699	0.0083048792	0.17906301	0.051063691	0.051106125	0	1006.7422111186221
0.43651583	0.039810717	0.5	19.824177	0.086554017	-0.01825901	0.0085867203	0.18466883	0.052976099	0.053016311	0	1009.1640338252166
0.43651583	0.043651583	0.5	20.47858	0.083672558	-0.018474634	0.008871355	0.19044342	0.054951275	0.054990149	0	1011.6742433234166
0.43651583	0.047863009	0.5	21.158758	0.081575579	-0.018681187	0.0091524024	0.19638558	0.056991873	0.057029773	0	1014.271697101756
0.43651583	0.052480746	0.5	21.864725	0.079770065	-0.018877607	0.0094274545	0.20249824	0.059100406	0.059137467	0	1016.9587694418746
0.43651583	0.057543994	0.5	22.597377	0.078056263	-0.019062209	0.0096946843	0.20878507	0.061279441	0.061315705	0	1019.738767613804
0.43651583	0.063095734	0.5	22.146178	0.078498413	-0.019705882	0.0083643005	0.21366195	0.063554432	0.063590902	0	1021.4250684983274
0.43651583	0.069183097	0.5	20.600493	0.080915766	-0.020744731	0.0050757419	0.21677418	0.065716804	0.065754397	0	1021.9110737086608
0.43651583	0.075857758	0.5	19.190812	0.083120418	-0.021692173	0.0013137867	0.21961257	0.067688911	0.067727529	0	1022.354316481219
0.43651583	0.083176377	0.5	18.766178	0.082161572	-0.022404957	-0.0013202628	0.22378464	0.069514109	0.069552281	0	1023.6445755376722
0.43651583	0.091201084	0.5	20.01836	0.076177205	-0.022685109	-0.0013140186	0.2308092	0.07141351	0.071448902	0	1026.6813710132367
0.43651583	0.1	0.5	21.478115	0.070547602	-0.022721534	-0.0013068236	0.23805351	0.073445592	0.073478367	0	1030.0503986756923
0.43651583	0.10964782	0.5	23.178567	0.065257613	-0.022460571	-0.0012984949	0.24552459	0.075632265	0.075662583	0	1033.8053744156634
0.43651583	0.12022644	0.5	25.161672	0.060293747	-0.021835626	-0.0012888092	0.25322968	0.077999096	0.078027108	0	1038.0122688746349
0.43651583	0.13182567	0.5	27.482187	0.055644189	-0.020761915	-0.0012774977	0.26117632	0.080576351	0.080602203	0	1042.7542843226106
0.43651583	0.14454398	0.5	30.212813	0.051298816	-0.019129495	-0.0012642372	0.26937231	0.0834005	0.083424333	0	1048.138383697731
0.43651583	0.15848932	0.5	33.450377	0.0472492	-0.016794634	-0.0012486452	0.27782574	0.086516266	0.086538217	0	1054.3034131487227
0.43651583	0.17378008	0.5	37.322498	0.043488561	-0.013570032	-0.0012302781	0.28654501	0.089979319	0.089999524	0	1061.4292994401105
0.43651583	0.19054607	0.5	41.993537	0.04001161	-0.009215164	-0.0012086397	0.29553882	0.093859602	0.093878191	0	1069.746118636976
0.43651583	0.20892961	0.5	47.667689	0.036814209	-0.0034291933	-0.0011832037	0.30481615	0.098245113	0.098262216	0	1079.540745127069
0.43651583	0.22908677	0.5	54.586074	0.033892765	0.0041497773	-0.0011534597	0.31438623	0.10324574	0.10326148	0	1091.157541073862
0.43651583	0.25118864	0.5	63.014093	0.031243272	0.013934375	-0.0011189876	0.32425848	0.10899633	0.10901085	0	1104.9886220497403
0.43651583	0.27542287	0.5	73.216273	0.028860036	0.026362483	-0.0010795552	0.3344424	0.115658	0.11567141	0	1121.449870872184
0.43651583	0.30199517	0.5	85.419425	0.026734264	0.041856265	-0.0010352235	0.34494749	0.12341624	0.12342867	0	1140.9424008611536
0.43651583	0.33113112	0.5	99.77107	0.024852918	0.060772204	-0.00098642139	0.35578319	0.13247526	0.13248681	0	1163.8055858397647
0.43651583	0.36307805	0.5	116.30572	0.023198292	0.083355663	-0.00093395369	0.36695886	0.14304837	0.14305915	0	1190.2743575468276
0.43651583	0.39810717	0.5	134.93185	0.0217486	0.10971507	-0.00087892201	0.37848388	0.15534609	0.15535619	0	1220.4549977356037
0.43651583	0.43651583	0.5	155.44507	0.020479465	0.13982392	-0.00082257769	0.39036782	0.16956423	0.16957374	0	1254.3270990466904
0.43651583	0.47863009	0.5	177.56201	0.019365824	0.17354722	-0.00076615676	0.40262058	0.18587437	0.18588336	0	1291.7684775832786
0.43651583	0.52480746	0.5	200.96228	0.018383688	0.21068042	-0.00071074537	0.41525257	0.20441814	0.20442668	0	1332.5918356906718
0.43651583	0.57543994	0.5	225.32644	0.017511368	0.25098804	-0.00065720335	0.4282748	0.22530556	0.2253137	0	1376.5810968275039
0.43651583	0.63095734	0.5	250.36307	0.016730098	0.29423399	-0.00060614445	0.44169887	0.24861652	0.24862429	0	1423.5198884893239
0.43651583	0.69183097	0.5	275.82368	0.016024147	0.34020107	-0.00055795591	0.455537	0.27440438	0.27441182	0	1473.2098778263994
0.43651583	0.75857758	0.5	301.50804	0.015380612	0.38870111	-0.00051284084	0.46980199	0.30270049	0.30270763	0	1525.4802800450616
0.43651583	0.83176377	0.5	327.26288	0.014789059	0.43957836	-0.00047085827	0.48450718	0.3335189	0.33352577	0	1580.1910247429325
0.43651583	0.91201084	0.5	352.97726	0.014241119	0.49270898	-0.0004319683	0.49966643	0.36686076	0.36686738	0	1637.2322673349431
0.43651583	1.	0.5	378.57644	0.013730102	0.54799833	-0.00039606404	0.51529411	0.40271818	0.40272456	0	1696.5218381334098
0.43651583	1.0964782	0.5	404.01553	0.013250658	0.6053775	-0.00036299732	0.53140506	0.44107744	0.44108359	0	1758.0019632649603
0.43651583	1.2022644	0.5	429.27372	0.012798505	0.66479978	-0.00033259737	0.5480146	0.48192165	0.4819276	0	1821.635952702678
0.43651583	1.3182567	0.5	454.34913	0.012370196	0.72623733	-0.00030468379	0.56513855	0.52523286	0.5252386	0	1887.4050809091366
0.43651583	1.4454398	0.5	479.25463	0.011962944	0.78967828	-0.00027907518	0.5827932	0.57099366	0.57099922	0	1955.3058480034078
0.43651583	1.5848932	0.5	504.01429	0.011574482	0.8551243	-0.00025559475	0.60099534	0.61918851	0.61919389	0	2025.3477107107396
0.43651583	1.7378008	0.5	528.66058	0.011202947	0.92258855	-0.00023407368	0.61976229	0.66980465	0.66980985	0	2097.5511703470684
0.43651583	1.9054607	0.5	553.23216	0.010846803	0.99209399	-0.00021435297	0.63911186	0.7228328	0.72283784	0	2171.9461661622718
0.43651583	2.0892961	0.5	577.77214	0.010504768	1.0636721	-0.00019628437	0.65906243	0.77826773	0.77827261	0	2248.5709102791348
0.43651583	2.2908677	0.5	602.32664	0.010175764	1.1373616	-0.00017973051	0.67963293	0.83610859	0.83611332	0	2327.4706756540477
0.43651583	2.5118864	0.5	626.94382	0.0098588745	1.2132078	-0.00016456471	0.70084285	0.89635914	0.89636372	0	2408.697190057354
0.43651583	2.7542287	0.5	651.67301	0.0095533168	1.2912617	-0.00015066942	0.7227123	0.95902793	0.95903237	0	2492.3078186514967
0.43651583	3.0199517	0.5	676.56415	0.0092584123	1.3715795	-0.00013794083	0.74526197	1.0241284	1.0241327	0	2578.365084812695
0.43651583	3.3113112	0.5	701.66729	0.008973569	1.4542222	-0.00012627877	0.76851322	1.0916789	1.091683	0	2666.936336585234
0.43651583	3.6307805	0.5	727.03233	0.0086982649	1.539255	-0.0001155941	0.79248803	1.1617026	1.1617066	0	2758.0931594531303
0.43651583	3.9810717	0.5	752.70873	0.0084320361	1.6267475	-0.00010580493	0.81720909	1.2342276	1.2342315	0	2851.9116065336407
0.43651583	4.3651583	0.5	778.7454	0.0081744659	1.7167729	-0.000096836361	0.84269975	1.3092869	1.3092907	0	2948.471423435846
0.43651583	4.7863009	0.5	805.19057	0.0079251778	1.8094081	-0.000088619816	0.8689841	1.3869182	1.3869219	0	3047.856179799802
0.43651583	5.2480746	0.5	832.09179	0.0076838282	1.9047338	-0.000081092553	0.89608699	1.4671637	1.4671673	0	3150.1533726487282
0.43651583	5.7543994	0.5	859.4959	0.0074501017	2.002834	-0.000074197123	0.924034	1.5500706	1.5500741	0	3255.4539425128496
0.43651583	6.3095734	0.5	887.44904	0.0072237065	2.1037962	-0.000067880918	0.95285153	1.6356905	1.6356938	0	3363.852503622913
0.43651583	6.9183097	0.5	915.99671	0.0070043714	2.2077112	-0.000062095744	0.98256678	1.7240792	1.7240825	0	3475.4471466014566
0.43651583	7.5857758	0.5	945.1838	0.0067918424	2.3146733	-0.000056797434	1.0132078	1.8152974	1.8153005	0	3590.33964986502
0.43651583	8.3176377	0.5	975.0547	0.0065858811	2.4247802	-0.0000519455	1.0448035	1.9094099	1.9094129	0	3708.6353903654317
0.43651583	9.1201084	0.5	1005.6533	0.0063862622	2.5381329	-0.000047502818	1.0773837	2.0064859	2.0064888	0	3830.4432731224124
0.43651583	10.	0.5	1037.0233	0.0061927724	2.6548358	-0.000043435336	1.1109792	2.1065988	2.1066017	0	3955.8758580648896