0.14454398	1.e-12	0.59	16.91758	546.03497	-0.015652648	0.011384638	0.011387637	-0.026939693	0.05706305	0	931.1713274981643
0.14454398	1.0964782e-12	0.59	15.431619	498.35131	-0.015666364	0.011412511	0.011415799	-0.025355253	0.051311772	0	931.1740518430618
0.14454398	1.2022644e-12	0.59	14.07642	454.86216	-0.015680083	0.011440386	0.011443991	-0.02390997	0.046066627	0	931.17678999957
0.14454398	1.3182567e-12	0.59	12.840479	415.1985	-0.015693802	0.011468261	0.011472214	-0.022591599	0.041283087	0	931.1795453407284
0.14454398	1.4454398e-12	0.59	11.713305	379.02377	-0.015707524	0.011496138	0.011500473	-0.021388972	0.036920546	0	931.1823178195586
0.14454398	1.5848932e-12	0.59	10.685328	346.03103	-0.015721248	0.011524016	0.011528769	-0.020291903	0.03294197	0	931.18510892997
0.14454398	1.7378008e-12	0.59	9.7478227	315.94037	-0.015734973	0.011551896	0.011557106	-0.019291101	0.029313584	0	931.1879218289018
0.14454398	1.9054607e-12	0.59	8.89283	288.49649	-0.0157487	0.011579776	0.01158549	-0.018378095	0.026004587	0	931.1907589028502
0.14454398	2.0892961e-12	0.59	8.113092	263.46657	-0.015762429	0.011607658	0.011613922	-0.017545156	0.02298689	0	931.1936207061583
0.14454398	2.2908677e-12	0.59	7.4019895	240.63829	-0.01577616	0.011635541	0.01164241	-0.016785238	0.020234875	0	931.1965116735751
0.14454398	2.5118864e-12	0.59	6.7534861	219.818	-0.015789893	0.011663426	0.011670956	-0.016091912	0.01772518	0	931.1994329137874
0.14454398	2.7542287e-12	0.59	6.1620766	200.82911	-0.015803627	0.011691311	0.011699568	-0.015459316	0.0154365	0	931.2023898011091
0.14454398	3.0199517e-12	0.59	5.6227405	183.51057	-0.015817364	0.011719198	0.01172825	-0.014882103	0.013349407	0	931.2053826737838
0.14454398	3.3113112e-12	0.59	5.1308995	167.71552	-0.015831103	0.011747086	0.01175701	-0.014355396	0.011446182	0	931.208416906125
0.14454398	3.6307805e-12	0.59	4.6823783	153.31003	-0.015844844	0.011774975	0.011785855	-0.013874747	0.0097106701	0	931.211496378538
0.14454398	3.9810717e-12	0.59	4.2733694	140.17194	-0.015858587	0.011802865	0.011814793	-0.0134361	0.0081281374	0	931.2146255257709
0.14454398	4.3651583e-12	0.59	3.9004006	128.18989	-0.015872332	0.011830756	0.011843832	-0.013035753	0.0066851492	0	931.2178087825723
0.14454398	4.7863009e-12	0.59	3.5603059	117.2623	-0.015886079	0.011858647	0.011872982	-0.012670331	0.0053694558	0	931.2210516923778
0.14454398	5.2480746e-12	0.59	3.250198	107.29655	-0.015899828	0.011886539	0.011902253	-0.012336757	0.004169887	0	931.2243597986228
0.14454398	5.7543994e-12	0.59	2.9674444	98.208191	-0.01591358	0.011914431	0.011931655	-0.012032219	0.003076259	0	931.227737705178
0.14454398	6.3095734e-12	0.59	2.7096446	89.92021	-0.015927333	0.011942324	0.011961201	-0.011754158	0.0020792862	0	931.2311944976396
0.14454398	6.9183097e-12	0.59	2.4746098	82.362388	-0.015941087	0.011970215	0.011990904	-0.011500235	0.0011705035	0	931.2347373824746
0.14454398	7.5857758e-12	0.59	2.2603446	75.470701	-0.015954844	0.011998106	0.012020778	-0.011268319	0.00034219363	0	931.2383722413615
0.14454398	8.3176377e-12	0.59	2.0650295	69.186778	-0.015968602	0.012025995	0.012050838	-0.011056464	-0.00041267813	0	931.2421092685845
0.14454398	9.1201084e-12	0.59	1.8870059	63.457395	-0.015982361	0.012053883	0.012081099	-0.010862894	-0.0011005245	0	931.2459567792971
0.14454398	1.e-11	0.59	1.7247618	58.234032	-0.015996121	0.012081767	0.01211158	-0.010685991	-0.0017271899	0	931.2499253060269
0.14454398	1.0964782e-11	0.59	1.5769186	53.472453	-0.016009881	0.012109647	0.012142298	-0.010524275	-0.0022980019	0	931.2540252121794
0.14454398	1.2022644e-11	0.59	1.44222	49.132328	-0.016023642	0.012137523	0.012173272	-0.010376398	-0.0028178155	0	931.2582660907171
0.14454398	1.3182567e-11	0.59	1.3195206	45.17689	-0.016037403	0.012165391	0.012204524	-0.010241128	-0.0032910554	0	931.2626610767635
0.14454398	1.4454398e-11	0.59	1.2077762	41.572614	-0.016051162	0.012193252	0.012236074	-0.010117341	-0.0037217548	0	931.2672231363205
0.14454398	1.5848932e-11	0.59	1.1060352	38.288933	-0.016064919	0.012221103	0.012267943	-0.01000401	-0.0041135899	0	931.2719639106026
0.14454398	1.7378008e-11	0.59	1.0134298	35.297966	-0.016078674	0.012248941	0.012300154	-0.0099001984	-0.0044699125	0	931.2768961495119
0.14454398	1.9054607e-11	0.59	0.92916873	32.574277	-0.016092424	0.012276764	0.012332728	-0.0098050493	-0.0047937793	0	931.2820343129588
0.14454398	2.0892961e-11	0.59	0.85253017	30.094653	-0.01610617	0.012304568	0.012365687	-0.0097177809	-0.0050879797	0	931.2873896569363
0.14454398	2.2908677e-11	0.59	0.78285545	27.83789	-0.016119908	0.012332351	0.01239905	-0.0096376788	-0.0053550609	0	931.2929764722336
0.14454398	2.5118864e-11	0.59	0.71954304	25.784611	-0.016133638	0.012360106	0.012432836	-0.00956409	-0.0055973513	0	931.2988052913779
0.14454398	2.7542287e-11	0.59	0.66204322	23.917085	-0.016147357	0.01238783	0.01246706	-0.0094964185	-0.0058169826	0	931.304887248219
0.14454398	3.0199517e-11	0.59	0.60985304	22.219066	-0.016161062	0.012415516	0.012501734	-0.0094341195	-0.006015909	0	931.3112318135752
0.14454398	3.3113112e-11	0.59	0.56251182	20.675652	-0.016174752	0.012443157	0.012536865	-0.0093766953	-0.0061959257	0	931.3178438074171
0.14454398	3.6307805e-11	0.59	0.51959698	19.273146	-0.016188422	0.012470747	0.012572456	-0.0093236915	-0.0063586852	0	931.3247295906019
0.14454398	3.9810717e-11	0.59	0.48072034	17.998941	-0.016202069	0.012498277	0.012608504	-0.0092746936	-0.0065057127	0	931.3318903187953
0.14454398	4.3651583e-11	0.59	0.44552487	16.841416	-0.016215691	0.012525737	0.012644998	-0.0092293234	-0.0066384177	0	931.3393217733485
0.14454398	4.7863009e-11	0.59	0.41368179	15.789845	-0.016229281	0.012553119	0.012681924	-0.0091872366	-0.0067581059	0	931.3470227704095
0.14454398	5.2480746e-11	0.59	0.38488816	14.834327	-0.016242837	0.012580412	0.012719259	-0.0091481193	-0.0068659868	0	931.3549824392067
0.14454398	5.7543994e-11	0.59	0.3588648	13.96572	-0.016256355	0.012607606	0.012756976	-0.0091116865	-0.0069631816	0	931.3631895707258
0.14454398	6.3095734e-11	0.59	0.33535459	13.175596	-0.01626983	0.012634691	0.012795044	-0.0090776798	-0.0070507287	0	931.3716316781436
0.14454398	6.9183097e-11	0.59	0.31412109	12.456202	-0.01628326	0.012661658	0.012833427	-0.0090458642	-0.0071295856	0	931.3802906842221
0.14454398	7.5857758e-11	0.59	0.29494728	11.800428	-0.016296642	0.0126885	0.01287209	-0.0090160274	-0.0072006339	0	931.3891500056334
0.14454398	8.3176377e-11	0.59	0.27763458	11.201781	-0.016309974	0.012715211	0.012910999	-0.0089879774	-0.0072646806	0	931.398192673827
0.14454398	9.1201084e-11	0.59	0.26200184	10.654362	-0.016323258	0.01274179	0.012950121	-0.0089615408	-0.0073224597	0	931.407398516335
0.14454398	1.e-10	0.59	0.24788447	10.152841	-0.016336495	0.012768238	0.012989428	-0.0089365611	-0.0073746347	0	931.4167510719724
0.14454398	1.0964782e-10	0.59	0.23513347	9.6924296	-0.01634969	0.012794562	0.013028899	-0.008912897	-0.0074218008	0	931.4262340016978
0.14454398	1.2022644e-10	0.59	0.22361445	9.2688522	-0.016362849	0.012820773	0.013068517	-0.0088904217	-0.0074644892	0	931.4358322442786
0.14454398	1.3182567e-10	0.59	0.21320665	8.878313	-0.016375983	0.012846886	0.013108277	-0.00886902	-0.0075031686	0	931.4455326927781
0.14454398	1.4454398e-10	0.59	0.20380194	8.5174595	-0.016389102	0.012872924	0.013148177	-0.0088485887	-0.0075382514	0	931.4553248428556
0.14454398	1.5848932e-10	0.59	0.19530373	8.1833428	-0.016402222	0.012898912	0.013188228	-0.0088290339	-0.0075700976	0	931.4651997592453
0.14454398	1.7378008e-10	0.59	0.18762592	7.8733765	-0.016415358	0.012924882	0.013228443	-0.0088102714	-0.0075990207	0	931.4751505549322
0.14454398	1.9054607e-10	0.59	0.18069189	7.5852952	-0.016428527	0.012950865	0.013268843	-0.0087922244	-0.0076252926	0	931.4851728985207
0.14454398	2.0892961e-10	0.59	0.17443352	7.3171119	-0.016441748	0.012976896	0.013309454	-0.0087748237	-0.0076491495	0	931.4952633512014
0.14454398	2.2908677e-10	0.59	0.16879024	7.0670798	-0.016455037	0.01300301	0.013350302	-0.0087580058	-0.0076707969	0	931.5054212928611
0.14454398	2.5118864e-10	0.59	0.16370815	6.8336536	-0.016468412	0.013029239	0.013391418	-0.0087417131	-0.0076904148	0	931.5156469959738
0.14454398	2.7542287e-10	0.59	0.15913924	6.6154551	-0.016481887	0.013055614	0.013432829	-0.0087258932	-0.0077081628	0	931.5259422739007
0.14454398	3.0199517e-10	0.59	0.15504069	6.4112451	-0.016495475	0.013082161	0.01347456	-0.0087104977	-0.0077241833	0	931.5363087708813
0.14454398	3.3113112e-10	0.59	0.15137423	6.2198981	-0.016509186	0.013108899	0.013516634	-0.0086954825	-0.0077386051	0	931.5467498411638
0.14454398	3.6307805e-10	0.59	0.14810562	6.0403814	-0.016523026	0.013135843	0.013559069	-0.008680807	-0.0077515468	0	931.5572698255398
0.14454398	3.9810717e-10	0.59	0.14520418	5.8717421	-0.016536998	0.013163001	0.013601878	-0.0086664336	-0.007763117	0	931.5678731117798
0.14454398	4.3651583e-10	0.59	0.14264243	5.7130936	-0.016551103	0.013190374	0.013645072	-0.0086523278	-0.0077734179	0	931.5785648580975
0.14454398	4.7863009e-10	0.59	0.14039576	5.5636107	-0.016565337	0.01321796	0.013688654	-0.0086384576	-0.0077825444	0	931.589350485785
0.14454398	5.2480746e-10	0.59	0.13844219	5.4225254	-0.016579696	0.013245751	0.013732627	-0.008624793	-0.0077905845	0	931.6002354161344
0.14454398	5.7543994e-10	0.59	0.13676215	5.2891238	-0.016594172	0.013273735	0.013776991	-0.0086113063	-0.0077976205	0	931.6112271656682
0.14454398	6.3095734e-10	0.59	0.13533828	5.162745	-0.016608758	0.013301897	0.013821746	-0.0085979716	-0.0078037281	0	931.6223323113443
0.14454398	6.9183097e-10	0.59	0.13415528	5.0427816	-0.016623445	0.013330224	0.013866889	-0.0085847647	-0.0078089765	0	931.63355764622
0.14454398	7.5857758e-10	0.59	0.13319978	4.9286784	-0.016638223	0.013358697	0.013912421	-0.0085716623	-0.0078134279	0	931.6449131202924
0.14454398	8.3176377e-10	0.59	0.13246017	4.8199294	-0.016653085	0.013387303	0.013958342	-0.008558643	-0.0078171387	0	931.6564053105186
0.14454398	9.1201084e-10	0.59	0.13192647	4.7160785	-0.016668021	0.013416026	0.014004656	-0.0085456861	-0.0078201584	0	931.6680458299268
0.14454398	1.e-9	0.59	0.13159022	4.6167152	-0.016683025	0.013444851	0.014051368	-0.0085327717	-0.0078225301	0	931.6798430876266
0.14454398	1.0964782e-9	0.59	0.13144433	4.5214718	-0.016698089	0.013473767	0.014098486	-0.0085198809	-0.0078242917	0	931.6918090348893
0.14454398	1.2022644e-9	0.59	0.13148295	4.4300211	-0.016713207	0.013502762	0.01414602	-0.0085069953	-0.007825475	0	931.7039548525427
0.14454398	1.3182567e-9	0.59	0.1317014	4.3420716	-0.016728374	0.013531826	0.014193983	-0.0084940971	-0.0078261071	0	931.7162924448795
0.14454398	1.4454398e-9	0.59	0.13209598	4.2573652	-0.016743587	0.01356095	0.014242391	-0.0084811688	-0.0078262101	0	931.7288335000931
0.14454398	1.5848932e-9	0.59	0.13266392	4.175673	-0.01675884	0.013590129	0.014291261	-0.0084681932	-0.0078258022	0	931.7415930794157
0.14454398	1.7378008e-9	0.59	0.13340324	4.0967922	-0.016774131	0.013619354	0.014340613	-0.0084551537	-0.0078248978	0	931.7545841488493
0.14454398	1.9054607e-9	0.59	0.1343127	4.0205434	-0.016789458	0.013648621	0.014390469	-0.0084420333	-0.0078235076	0	931.7678207830827
0.14454398	2.0892961e-9	0.59	0.13539161	3.9467669	-0.016804818	0.013677925	0.014440852	-0.0084288155	-0.0078216396	0	931.7813185507138
0.14454398	2.2908677e-9	0.59	0.13663987	3.8753207	-0.016820209	0.013707262	0.014491787	-0.0084154836	-0.0078192991	0	931.7950931894622
0.14454398	2.5118864e-9	0.59	0.13805778	3.8060783	-0.01683563	0.01373663	0.014543301	-0.008402021	-0.0078164889	0	931.8091606061695
0.14454398	2.7542287e-9	0.59	0.13964602	3.7389251	-0.016851081	0.013766025	0.01459542	-0.008388411	-0.0078132098	0	931.8235352137679
0.14454398	3.0199517e-9	0.59	0.14140558	3.6737583	-0.016866559	0.013795445	0.014648174	-0.0083746369	-0.0078094611	0	931.8382364612602
0.14454398	3.3113112e-9	0.59	0.14333766	3.6104828	-0.016882064	0.013824887	0.014701592	-0.0083606821	-0.0078052406	0	931.8532804246095
0.14454398	3.6307805e-9	0.59	0.1454437	3.5490124	-0.016897596	0.01385435	0.014755704	-0.0083465292	-0.0078005444	0	931.8686837341227
0.14454398	3.9810717e-9	0.59	0.14772521	3.4892655	-0.016913153	0.01388383	0.014810541	-0.0083321612	-0.007795368	0	931.8844654535806
0.14454398	4.3651583e-9	0.59	0.15018384	3.4311653	-0.016928735	0.013913325	0.014866133	-0.0083175611	-0.007789706	0	931.9006422132898
0.14454398	4.7863009e-9	0.59	0.1528213	3.3746382	-0.016944341	0.013942832	0.014922511	-0.0083027111	-0.0077835523	0	931.917232137466
0.14454398	5.2480746e-9	0.59	0.15563931	3.3196127	-0.01695997	0.013972349	0.014979707	-0.0082875937	-0.0077769001	0	931.9342539046684
0.14454398	5.7543994e-9	0.59	0.15863961	3.266018	-0.016975621	0.014001871	0.015037751	-0.0082721912	-0.0077697427	0	931.9517250847691
0.14454398	6.3095734e-9	0.59	0.16182395	3.2137833	-0.016991291	0.014031395	0.015096675	-0.0082564856	-0.0077620729	0	931.9696662354579
0.14454398	6.9183097e-9	0.59	0.16519403	3.1628366	-0.017006979	0.014060913	0.015156508	-0.0082404587	-0.0077538837	0	931.9880943722629
0.14454398	7.5857758e-9	0.59	0.16875153	3.1131035	-0.017022681	0.014090421	0.01521728	-0.0082240923	-0.0077451683	0	932.0070298837529
0.14454398	8.3176377e-9	0.59	0.17249811	3.0645067	-0.017038396	0.01411991	0.015279019	-0.0082073679	-0.0077359201	0	932.0264892311122
0.14454398	9.1201084e-9	0.59	0.17643535	3.0169645	-0.017054117	0.014149371	0.015341753	-0.0081902669	-0.0077261331	0	932.0464945129186
0.14454398	1.e-8	0.59	0.18056484	2.9703902	-0.017069841	0.014178791	0.015405508	-0.0081727705	-0.0077158018	0	932.0670629607998
0.14454398	1.0964782e-8	0.59	0.18488808	2.9246909	-0.017085561	0.014208157	0.015470307	-0.0081548598	-0.0077049214	0	932.0882139016155
0.14454398	1.2022644e-8	0.59	0.18940654	2.8797659	-0.017101268	0.014237453	0.015536173	-0.0081365158	-0.0076934888	0	932.1099685413553
0.14454398	1.3182567e-8	0.59	0.19412168	2.8355081	-0.017116956	0.014266658	0.015603126	-0.0081177192	-0.0076815009	0	932.132343604283
0.14454398	1.4454398e-8	0.59	0.19903494	2.7918016	-0.017132612	0.014295752	0.015671183	-0.0080984507	-0.0076689562	0	932.155360728588
0.14454398	1.5848932e-8	0.59	0.20414772	2.7485224	-0.017148224	0.014324707	0.01574036	-0.0080786909	-0.0076558545	0	932.1790400585519
0.14454398	1.7378008e-8	0.59	0.20946151	2.7055402	-0.01716378	0.014353495	0.015810668	-0.0080584199	-0.0076421961	0	932.2033989667377
0.14454398	1.9054607e-8	0.59	0.21497784	2.6627188	-0.017179263	0.014382084	0.015882119	-0.0080376183	-0.0076279821	0	932.2284600778792
0.14454398	2.0892961e-8	0.59	0.22069839	2.6199203	-0.017194657	0.01441044	0.015954721	-0.0080162657	-0.0076132137	0	932.2542428597703
0.14454398	2.2908677e-8	0.59	0.22662507	2.577008	-0.017209946	0.014438526	0.016028484	-0.0079943424	-0.007597892	0	932.2807678888921
0.14454398	2.5118864e-8	0.59	0.2327601	2.5338526	-0.017225111	0.014466307	0.016103415	-0.0079718279	-0.0075820166	0	932.3080568973916
0.14454398	2.7542287e-8	0.59	0.23910617	2.4903385	-0.017240137	0.014493747	0.016179528	-0.0079487016	-0.0075655847	0	932.3361317395584
0.14454398	3.0199517e-8	0.59	0.24566651	2.4463701	-0.017255008	0.014520814	0.016256836	-0.0079249428	-0.00754859	0	932.3650146549044
0.14454398	3.3113112e-8	0.59	0.25244504	2.4018788	-0.017269712	0.01454748	0.016335364	-0.0079005303	-0.0075310221	0	932.3947307768028
0.14454398	3.6307805e-8	0.59	0.25944648	2.3568288	-0.01728424	0.014573726	0.016415139	-0.0078754423	-0.0075128647	0	932.4253035286179
0.14454398	3.9810717e-8	0.59	0.26667637	2.3112201	-0.017298587	0.014599539	0.016496203	-0.0078496569	-0.0074940957	0	932.4567608906054
0.14454398	4.3651583e-8	0.59	0.27414118	2.2650909	-0.017312754	0.014624915	0.016578605	-0.0078231513	-0.0074746867	0	932.4891290860347
0.14454398	4.7863009e-8	0.59	0.28184825	2.2185157	-0.017326745	0.014649862	0.016662407	-0.0077959022	-0.0074546028	0	932.5224387259448
0.14454398	5.2480746e-8	0.59	0.28980575	2.1716022	-0.017340572	0.014674397	0.016747684	-0.0077678852	-0.0074338031	0	932.5567201113179
0.14454398	5.7543994e-8	0.59	0.29802258	2.1244849	-0.01735425	0.014698547	0.016834519	-0.0077390758	-0.0074122423	0	932.5920051591893
0.14454398	6.3095734e-8	0.59	0.30650835	2.0773199	-0.017367799	0.014722347	0.016923009	-0.0077094475	-0.0073898699	0	932.6283288495769
0.14454398	6.9183097e-8	0.59	0.31527315	2.0302756	-0.017381244	0.014745839	0.017013258	-0.007678974	-0.0073666337	0	932.6657253450767
0.14454398	7.5857758e-8	0.59	0.32432755	1.9835277	-0.017394612	0.014769075	0.01710538	-0.007647627	-0.0073424785	0	932.7042324725896
0.14454398	8.3176377e-8	0.59	0.33368244	1.937252	-0.017407935	0.014792109	0.017199496	-0.007615378	-0.0073173486	0	932.7438872415953
0.14454398	9.1201084e-8	0.59	0.34334901	1.89162	-0.017421246	0.014815002	0.017295734	-0.0075821968	-0.0072911874	0	932.7847296024117
0.14454398	1.e-7	0.59	0.35333865	1.8467954	-0.017434581	0.01483782	0.017394229	-0.0075480521	-0.0072639386	0	932.8268005670672
0.14454398	1.0964782e-7	0.59	0.36366295	1.8029307	-0.017447979	0.01486063	0.017495121	-0.0075129118	-0.0072355465	0	932.8701411006101
0.14454398	1.2022644e-7	0.59	0.37433366	1.7601666	-0.01746148	0.014883505	0.017598557	-0.0074767427	-0.0072059564	0	932.91479510893
0.14454398	1.3182567e-7	0.59	0.38536271	1.7186314	-0.017475126	0.01490652	0.017704688	-0.0074395101	-0.0071751136	0	932.9608068361588
0.14454398	1.4454398e-7	0.59	0.39676219	1.6784409	-0.017488962	0.014929755	0.017813673	-0.0074011781	-0.0071429645	0	933.0082221424814
0.14454398	1.5848932e-7	0.59	0.40854434	1.6396977	-0.017503034	0.01495329	0.017925672	-0.0073617101	-0.0071094568	0	933.0570865028606
0.14454398	1.7378008e-7	0.59	0.42072161	1.6024923	-0.017517389	0.014977208	0.018040854	-0.0073210681	-0.0070745385	0	933.107449441786
0.14454398	1.9054607e-7	0.59	0.43330667	1.5669029	-0.017532075	0.015001596	0.01815939	-0.0072792122	-0.0070381578	0	933.1593606528693
0.14454398	2.0892961e-7	0.59	0.4463123	1.532993	-0.01754714	0.015026537	0.018281453	-0.0072361021	-0.0070002644	0	933.2128709384085
0.14454398	2.2908677e-7	0.59	0.45975145	1.5008099	-0.01756263	0.015052111	0.018407215	-0.007191696	-0.0069608095	0	933.2680324254895
0.14454398	2.5118864e-7	0.59	0.47363719	1.4703814	-0.017578586	0.015078391	0.018536844	-0.0071459508	-0.0069197454	0	933.3248997216506
0.14454398	2.7542287e-7	0.59	0.48798262	1.441711	-0.017595044	0.015105437	0.018670495	-0.0070988219	-0.0068770272	0	933.38352492579
0.14454398	3.0199517e-7	0.59	0.50280084	1.414773	-0.017612027	0.015133289	0.018808313	-0.0070502638	-0.0068326133	0	933.4439668077208
0.14454398	3.3113112e-7	0.59	0.51810489	1.3895101	-0.017629546	0.015161968	0.018950419	-0.0070002292	-0.0067864652	0	933.506282107794
0.14454398	3.6307805e-7	0.59	0.53390774	1.3658309	-0.017647599	0.015191464	0.019096912	-0.0069486702	-0.006738549	0	933.5705275851528
0.14454398	3.9810717e-7	0.59	0.55022241	1.3436142	-0.017666167	0.015221745	0.01924787	-0.0068955371	-0.0066888337	0	933.6367643303361
0.14454398	4.3651583e-7	0.59	0.56706203	1.3227161	-0.01768522	0.015252755	0.019403351	-0.006840779	-0.0066372906	0	933.7050526822309
0.14454398	4.7863009e-7	0.59	0.58444002	1.3029796	-0.017704719	0.015284424	0.019563402	-0.0067843441	-0.0065838919	0	933.7754553380325
0.14454398	5.2480746e-7	0.59	0.60237035	1.2842468	-0.017724622	0.015316674	0.019728067	-0.0067261784	-0.0065286082	0	933.8480361506026
0.14454398	5.7543994e-7	0.59	0.62086757	1.2663675	-0.017744885	0.015349426	0.019897391	-0.0066662275	-0.0064714079	0	933.9228614062763
0.14454398	6.3095734e-7	0.59	0.63994704	1.2492066	-0.01776547	0.015382609	0.020071432	-0.006604435	-0.0064122554	0	933.9999989604635
0.14454398	6.9183097e-7	0.59	0.65962494	1.2326477	-0.017786343	0.015416159	0.02025026	-0.0065407429	-0.0063511107	0	934.0795195624345
0.14454398	7.5857758e-7	0.59	0.67991831	1.2165937	-0.017807476	0.015450025	0.02043396	-0.0064750917	-0.0062879293	0	934.1614966392222
0.14454398	8.3176377e-7	0.59	0.70084501	1.2009652	-0.017828847	0.015484164	0.020622629	-0.0064074206	-0.0062226625	0	934.2460046325887
0.14454398	9.1201084e-7	0.59	0.72242381	1.1856993	-0.017850441	0.015518544	0.020816383	-0.0063376662	-0.0061552566	0	934.3331219398667
0.14454398	1.e-6	0.59	0.74467425	1.170746	-0.017872246	0.015553142	0.021015348	-0.0062657636	-0.0060856545	0	934.422929683129
0.14454398	1.0964782e-6	0.59	0.76761667	1.1560658	-0.017894255	0.015587939	0.021219661	-0.0061916463	-0.0060137956	0	934.5155103844
0.14454398	1.2022644e-6	0.59	0.79127224	1.1416282	-0.017916464	0.015622924	0.021429469	-0.0061152449	-0.0059396153	0	934.6109492904441
0.14454398	1.3182567e-6	0.59	0.81566281	1.1274086	-0.01793887	0.015658089	0.021644931	-0.006036489	-0.005863047	0	934.7093373605824
0.14454398	1.4454398e-6	0.59	0.84081109	1.1133877	-0.017961476	0.015693429	0.021866211	-0.0059553051	-0.0057840201	0	934.8107626884628
0.14454398	1.5848932e-6	0.59	0.86674053	1.0995502	-0.017984282	0.015728943	0.022093482	-0.005871618	-0.0057024617	0	934.9153211755199
0.14454398	1.7378008e-6	0.59	0.89347538	1.0858833	-0.018007291	0.015764629	0.022326926	-0.0057853497	-0.0056182959	0	935.0231108935855
0.14454398	1.9054607e-6	0.59	0.92104064	1.0723767	-0.018030507	0.015800491	0.022566731	-0.0056964202	-0.0055314443	0	935.1342323009862
0.14454398	2.0892961e-6	0.59	0.94946217	1.0590215	-0.018053936	0.015836529	0.02281309	-0.0056047469	-0.0054418256	0	935.2487867486369
0.14454398	2.2908677e-6	0.59	0.97876666	1.0458106	-0.018077583	0.015872749	0.023066206	-0.0055102442	-0.0053493554	0	935.3668820704527
0.14454398	2.5118864e-6	0.59	1.0089816	1.0327371	-0.018101453	0.015909153	0.023326287	-0.0054128246	-0.0052539469	0	935.4886288720661
0.14454398	2.7542287e-6	0.59	1.0401355	1.0197953	-0.018125553	0.015945747	0.02359355	-0.0053123973	-0.0051555106	0	935.6141408690721
0.14454398	3.0199517e-6	0.59	1.0722575	1.00698	-0.01814989	0.015982537	0.023868217	-0.005208869	-0.0050539538	0	935.7435345487822
0.14454398	3.3113112e-6	0.59	1.1053778	0.99428642	-0.018174471	0.016019528	0.024150519	-0.0051021429	-0.0049491806	0	935.876931387601
0.14454398	3.6307805e-6	0.59	1.1395278	0.98171018	-0.018199304	0.016056726	0.024440692	-0.0049921199	-0.0048410923	0	936.0144546940846
0.14454398	3.9810717e-6	0.59	1.1747394	0.96924694	-0.018224397	0.016094139	0.024738983	-0.0048786977	-0.0047295875	0	936.156233874569
0.14454398	4.3651583e-6	0.59	1.2110459	0.95689296	-0.018249757	0.016131773	0.025045643	-0.0047617702	-0.0046145605	0	936.3024014923294
0.14454398	4.7863009e-6	0.59	1.2484814	0.94464426	-0.018275394	0.016169635	0.025360935	-0.0046412288	-0.0044959034	0	936.4530939440674
0.14454398	5.2480746e-6	0.59	1.2870812	0.93249736	-0.018301317	0.016207734	0.025685127	-0.0045169608	-0.0043735042	0	936.6084513377682
0.14454398	5.7543994e-6	0.59	1.3268817	0.92044875	-0.018327534	0.016246077	0.026018496	-0.0043888504	-0.0042472473	0	936.7686197100742
0.14454398	6.3095734e-6	0.59	1.3679203	0.90849492	-0.018354056	0.016284673	0.026361331	-0.0042567782	-0.0041170141	0	936.9337489310541
0.14454398	6.9183097e-6	0.59	1.4102357	0.89663261	-0.018380892	0.01632353	0.026713925	-0.0041206208	-0.0039826816	0	937.103992967282
0.14454398	7.5857758e-6	0.59	1.4538678	0.88485868	-0.018408052	0.016362659	0.027076585	-0.0039802508	-0.003844123	0	937.2795126065764
0.14454398	8.3176377e-6	0.59	1.4988578	0.87316967	-0.018435549	0.016402068	0.027449624	-0.0038355378	-0.0037012083	0	937.4604691441205
0.14454398	9.1201084e-6	0.59	1.545248	0.86156266	-0.018463391	0.016441767	0.027833367	-0.0036863461	-0.0035538021	0	937.6470352250477
0.14454398	0.00001	0.59	1.5930822	0.85003456	-0.018491592	0.016481767	0.02822815	-0.0035325362	-0.0034017657	0	937.8393839548783
0.14454398	0.000010964782	0.59	1.6424054	0.83858206	-0.018520163	0.016522079	0.028634316	-0.0033739649	-0.0032449563	0	938.0376951382327
0.14454398	0.000012022644	0.59	1.6932642	0.82720226	-0.018549117	0.016562714	0.029052223	-0.0032104837	-0.0030832259	0	938.2421550157551
0.14454398	0.000013182567	0.59	1.7457065	0.81589216	-0.018578466	0.016603684	0.029482238	-0.0030419398	-0.0029164218	0	938.4529557567462
0.14454398	0.000014454398	0.59	1.7997818	0.80464876	-0.018608224	0.016645001	0.029924739	-0.0028681754	-0.0027443872	0	938.6702937491558
0.14454398	0.000015848932	0.59	1.8555413	0.79346918	-0.018638405	0.016686678	0.03038012	-0.0026890278	-0.0025669595	0	938.89437425043
0.14454398	0.000017378008	0.59	1.9130373	0.78235035	-0.018669024	0.01672873	0.030848782	-0.0025043298	-0.002383972	0	939.1254054588547
0.14454398	0.000019054607	0.59	1.9723241	0.77128937	-0.018700094	0.01677117	0.031331142	-0.0023139084	-0.0021952523	0	939.3636063213436
0.14454398	0.000020892961	0.59	2.033458	0.76028356	-0.018731633	0.016814014	0.031827631	-0.0021175848	-0.0020006217	0	939.6091988477931
0.14454398	0.000022908677	0.59	2.0964963	0.7493298	-0.018763657	0.016857276	0.032338691	-0.0019151758	-0.0017998979	0	939.8624130250095
0.14454398	0.000025118864	0.59	2.1614988	0.73842541	-0.018796182	0.016900975	0.032864781	-0.0017064914	-0.0015928911	0	940.1234882636398
0.14454398	0.000027542287	0.59	2.2285268	0.72756761	-0.018829225	0.016945127	0.033406372	-0.0014913361	-0.0013794061	0	940.3926696868884
0.14454398	0.000030199517	0.59	2.2976436	0.71675359	-0.018862807	0.01698975	0.03396395	-0.0012695086	-0.0011592422	0	940.6702069748508
0.14454398	0.000033113112	0.59	2.3689145	0.70598075	-0.018896945	0.017034865	0.034538021	-0.0010408004	-0.00093219139	0	940.9563646527558
0.14454398	0.000036307805	0.59	2.442407	0.69524646	-0.01893166	0.01708049	0.035129102	-0.00080499739	-0.00069803975	0	941.2514095853502
0.14454398	0.000039810717	0.59	2.5181905	0.68454809	-0.018966973	0.017126649	0.035737729	-0.00056187877	-0.00045656699	0	941.5556191699076
0.14454398	0.000043651583	0.59	2.5963367	0.67388338	-0.019002906	0.017173363	0.036364455	-0.00031121577	-0.00020754466	0	941.8692792879772
0.14454398	0.000047863009	0.59	2.6769197	0.66324998	-0.019039482	0.017220658	0.037009852	-0.00005277334	0.000049261915	0	942.19268541407
0.14454398	0.000052480746	0.59	2.7600155	0.65264562	-0.019076724	0.017268558	0.037674508	0.00021369064	0.00031409451	0	942.5261418921942
0.14454398	0.000057543994	0.59	2.8457031	0.64206844	-0.019114658	0.017317091	0.038359032	0.00048842707	0.00058720373	0	942.869961888877
0.14454398	0.000063095734	0.59	2.9340636	0.6315165	-0.01915331	0.017366286	0.039064053	0.00077169335	0.00086884668	0	943.224469657516
0.14454398	0.000069183097	0.59	3.0251807	0.62098827	-0.019192707	0.017416174	0.03979022	0.001063756	0.0011592897	0	943.5899995988149
0.14454398	0.000075857758	0.59	3.119141	0.61048233	-0.01923288	0.017466786	0.040538202	0.0013648892	0.0014588066	0	943.9668934420874
0.14454398	0.000083176377	0.59	3.2160336	0.59999762	-0.019273857	0.017518159	0.041308692	0.0016753762	0.0017676807	0	944.3555090395881
0.14454398	0.000091201084	0.59	3.3159505	0.58953328	-0.019315672	0.017570329	0.042102405	0.0019955086	0.0020862032	0	944.7562108017382
0.14454398	0.0001	0.59	3.4189868	0.57908892	-0.019358357	0.017623336	0.04292008	0.002325588	0.0024146758	0	945.1693783223345
0.14454398	0.00010964782	0.59	3.5252405	0.5686644	-0.019401948	0.017677222	0.04376248	0.0026659247	0.0027534088	0	945.5954007411583
0.14454398	0.00012022644	0.59	3.6348124	0.55825993	-0.019446483	0.017732033	0.044630394	0.0030168385	0.0031027219	0	946.0346797317923
0.14454398	0.00013182567	0.59	3.7478073	0.54787634	-0.019492001	0.017787817	0.045524636	0.0033786606	0.0034629466	0	946.4876298868426
0.14454398	0.00014454398	0.59	3.8643328	0.53751472	-0.019538543	0.017844628	0.04644605	0.0037517316	0.0038344235	0	946.9546805500917
0.14454398	0.00015848932	0.59	3.984304	0.52708952	-0.019579535	0.017890604	0.04738359	0.0041362007	0.0042172889	0	947.4358851452256
0.14454398	0.00017378008	0.59	4.1082082	0.51676661	-0.019627609	0.017948462	0.048360814	0.0045328148	0.0046123148	0	947.9324343082468
0.14454398	0.00019054607	0.59	4.2359855	0.50647128	-0.019676783	0.018007411	0.049367795	0.0049417636	0.0050196798	0	948.4444455505939
0.14454398	0.00020892961	0.59	4.3677578	0.49620664	-0.019727103	0.018067508	0.050405486	0.0053634329	0.00543977	0	948.9724039416699
0.14454398	0.00022908677	0.59	4.5036514	0.48597636	-0.019778618	0.018128816	0.051474871	0.0057982209	0.0058729841	0	949.5168089168324
0.14454398	0.00025118864	0.59	4.643796	0.4757845	-0.019831378	0.018191399	0.052576964	0.0062465367	0.006319732	0	950.0781756021802
0.14454398	0.00027542287	0.59	4.7883262	0.46563578	-0.019885437	0.01825533	0.053712818	0.0067088048	0.0067804388	0	950.6570369849492
0.14454398	0.00030199517	0.59	4.9373804	0.45553538	-0.019940853	0.018320685	0.05488352	0.007185462	0.0072555421	0	951.2539411417952
0.14454398	0.00033113112	0.59	5.0911017	0.4454889	-0.019997685	0.018387545	0.056090192	0.0076769576	0.0077454922	0	951.8694546118331
0.14454398	0.00036307805	0.59	5.2496375	0.43550261	-0.020055996	0.018455996	0.057333995	0.0081837564	0.0082507547	0	952.5041617953145
0.14454398	0.00039810717	0.59	5.4131406	0.4255836	-0.020115854	0.018526133	0.058616131	0.0087063393	0.0087718116	0	953.1586651227509
0.14454398	0.00043651583	0.59	5.5817678	0.41573989	-0.020177326	0.018598049	0.059937837	0.0092451993	0.0093091573	0	953.8335873662431
0.14454398	0.00047863009	0.59	5.755681	0.40598154	-0.020240485	0.018671844	0.061300389	0.0098008473	0.0098633041	0	954.5295672798986
0.14454398	0.00052480746	0.59	5.9350461	0.3963224	-0.020305398	0.018747611	0.062705097	0.01037381	0.01043478	0	955.2472681028983
0.14454398	0.00057543994	0.59	6.1200316	0.38678415	-0.02037212	0.018825412	0.064153275	0.010964628	0.011024131	0	955.9873665665805
0.14454398	0.00063095734	0.59	6.310804	0.37740481	-0.020440663	0.018905225	0.065646192	0.011573863	0.011631924	0	956.7505548581347
0.14454398	0.00069183097	0.59	6.5075143	0.36825419	-0.020510912	0.01898677	0.067184902	0.012202089	0.012258742	0	957.5375253056848
0.14454398	0.00075857758	0.59	6.7102637	0.3594547	-0.020582408	0.019069072	0.068769801	0.012849894	0.012905193	0	958.3489286897745
0.14454398	0.00083176377	0.59	6.919027	0.35117172	-0.020653842	0.019149457	0.070399632	0.013517869	0.013571894	0	959.1852980915967
0.14454398	0.00091201084	0.59	7.1335567	0.34345059	-0.020722333	0.019222116	0.072070049	0.014206595	0.014259432	0	960.0469312218277
0.14454398	0.001	0.59	7.353498	0.33585074	-0.020783785	0.019278886	0.073774392	0.014916617	0.014968285	0	960.9339846120554
0.14454398	0.0010964782	0.59	7.5788853	0.32748119	-0.02083564	0.019314836	0.075509285	0.015648465	0.015698845	0	961.8469902065981
0.14454398	0.0012022644	0.59	7.810347	0.31776087	-0.020878663	0.019331745	0.077278107	0.016402697	0.016451582	0	962.7871023648406
0.14454398	0.0013182567	0.59	8.0486979	0.30678711	-0.02091542	0.019334858	0.079087755	0.01717995	0.017227146	0	963.7557334696037
0.14454398	0.0014454398	0.59	8.2945531	0.29508396	-0.020949078	0.01933015	0.080945907	0.017980932	0.018026328	0	964.7541641672508
0.14454398	0.0015848932	0.59	8.548127	0.2831816	-0.020984999	0.01932661	0.082863309	0.018806395	0.01884996	0	965.783313484234
0.14454398	0.0017378008	0.59	8.809677	0.27084054	-0.021031133	0.019337659	0.084855191	0.019657097	0.019698763	0	966.8441545283852
0.14454398	0.0019054607	0.59	9.0802405	0.25817437	-0.021089075	0.019367424	0.086927549	0.020533879	0.020573597	0	967.9385125369369
0.14454398	0.0020892961	0.59	9.3417731	0.24121229	-0.0212225	0.019489453	0.089155855	0.0214368	0.021473909	0	969.0483981031232
0.14454398	0.0022908677	0.59	9.6268225	0.2354591	-0.021412752	0.019729768	0.091568117	0.022366398	0.022402622	0	970.2068658124449
0.14454398	0.0025118864	0.59	9.9232324	0.23127774	-0.021609197	0.01998174	0.094059753	0.023324543	0.023360123	0	971.4035152590077
0.14454398	0.0027542287	0.59	10.229219	0.22602148	-0.021811011	0.020240302	0.096627807	0.024312212	0.024346984	0	972.6374820051067
0.14454398	0.0030199517	0.59	10.54516	0.21969105	-0.022018193	0.020505573	0.099274575	0.025330362	0.02536416	0	973.9100397631134
0.14454398	0.0033113112	0.59	10.87154	0.21256968	-0.022230761	0.020777908	0.10200266	0.026379989	0.026412691	0	975.222614577129
0.14454398	0.0036307805	0.59	11.208831	0.20494402	-0.022448736	0.021057651	0.10481472	0.027462142	0.027493671	0	976.5766601614541
0.14454398	0.0039810717	0.59	11.557479	0.19705909	-0.022672134	0.021345101	0.10771343	0.028577911	0.028608227	0	977.9736443520569
0.14454398	0.0043651583	0.59	11.917915	0.18911177	-0.02290097	0.021640519	0.11070153	0.029728433	0.029757526	0	979.4150719568017
0.14454398	0.0047863009	0.59	12.290559	0.18125499	-0.023135259	0.02194414	0.11378178	0.030914881	0.030942765	0	980.9024588704249
0.14454398	0.0052480746	0.59	12.675827	0.17360526	-0.02337501	0.022256185	0.11695703	0.032138475	0.032165182	0	982.4373765159737
0.14454398	0.0057543994	0.59	13.074139	0.1662501	-0.023620233	0.022576854	0.12023016	0.033400471	0.033426047	0	984.0214120072374
0.14454398	0.0063095734	0.59	13.485916	0.15925442	-0.023870934	0.02290634	0.12360417	0.03470217	0.03472667	0	985.6562227374936
0.14454398	0.0069183097	0.59	13.911593	0.15266527	-0.024127118	0.023244834	0.12708211	0.036044911	0.036068397	0	987.343494756763
0.14454398	0.0075857758	0.59	14.351614	0.14651542	-0.024388781	0.023592523	0.13066712	0.037430081	0.037452621	0	989.0849724620739
0.14454398	0.0083176377	0.59	14.806437	0.1408258	-0.02465591	0.023949577	0.13436242	0.038859105	0.03888077	0	990.8824530540282
0.14454398	0.0091201084	0.59	15.276538	0.13560735	-0.024928469	0.024316148	0.13817133	0.04033346	0.040354322	0	992.7378107775859
0.14454398	0.01	0.59	15.762409	0.13086225	-0.025206389	0.02469234	0.14209718	0.041854667	0.041874799	0	994.6529564267994
0.14454398	0.010964782	0.59	16.264563	0.12658478	-0.025489545	0.02507818	0.14614334	0.043424297	0.043443771	0	996.6298755851228
0.14454398	0.012022644	0.59	16.783529	0.12276191	-0.025777737	0.025473588	0.1503132	0.045043971	0.045062857	0	998.670635390283
0.14454398	0.013182567	0.59	17.319856	0.11937331	-0.026070675	0.025878339	0.15461007	0.046715365	0.046733729	0	1000.7773431934027
0.14454398	0.014454398	0.59	17.874111	0.11639128	-0.026367965	0.026292053	0.15903726	0.048440207	0.048458113	0	1002.9522040604024
0.14454398	0.015848932	0.59	18.446879	0.11378046	-0.026669111	0.026714185	0.16359799	0.050220285	0.050237789	0	1005.1974690019475
0.14454398	0.017378008	0.59	19.038757	0.11149786	-0.026973517	0.02714403	0.16829547	0.052057441	0.052074594	0	1007.515477441803
0.14454398	0.019054607	0.59	19.650363	0.10949383	-0.027280501	0.027580744	0.17313287	0.05395358	0.053970424	0	1009.9086274326118
0.14454398	0.020892961	0.59	20.282329	0.10771593	-0.0275893	0.028023365	0.17811338	0.055910666	0.055927237	0	1012.379404218681
0.14454398	0.022908677	0.59	20.935285	0.10613922	-0.027899063	0.028470738	0.18324012	0.057930725	0.057947053	0	1014.9303369220197
0.14454398	0.025118864	0.59	21.609625	0.10501879	-0.028208634	0.028920736	0.18851538	0.060015841	0.060031997	0	1017.5637811269171
0.14454398	0.027542287	0.59	22.302523	0.10609154	-0.028513954	0.029360253	0.19393059	0.062168032	0.062184354	0	1020.2787998048493
0.14454398	0.030199517	0.59	22.996051	0.10618273	-0.028790469	0.029712435	0.1994136	0.064388358	0.064404693	0	1023.0584671558191
0.14454398	0.033113112	0.59	23.711474	0.096176056	-0.029009287	0.029962626	0.20495459	0.06667728	0.066692076	0	1025.9244854481938
0.14454398	0.036307805	0.59	24.465768	0.090973137	-0.029207457	0.030205333	0.21065304	0.069038386	0.069052381	0	1028.8971908223216
0.14454398	0.039810717	0.59	25.248077	0.086571423	-0.029400135	0.030446862	0.21652042	0.07147483	0.071488148	0	1031.9687015463514
0.14454398	0.043651583	0.59	26.058085	0.08158927	-0.029587739	0.030686627	0.22256143	0.073989312	0.074001863	0	1035.1412302966821
0.14454398	0.047863009	0.59	26.896832	0.075942807	-0.029769437	0.03092431	0.22878122	0.076584596	0.076596279	0	1038.418413661001
0.14454398	0.052480746	0.59	26.396992	0.065122649	-0.029720614	0.028307835	0.23233336	0.079261172	0.079271191	0	1040.4333919808698
0.14454398	0.057543994	0.59	24.660018	0.050644435	-0.029464591	0.022644379	0.23303085	0.08177741	0.081785201	0	1041.0605914076962
0.14454398	0.063095734	0.59	23.075879	0.037440147	-0.029231096	0.016721235	0.23366696	0.084072245	0.084078005	0	1041.6325986988197
0.14454398	0.069183097	0.59	23.267909	0.031871727	-0.029967757	0.015313998	0.23902348	0.08629155	0.086296453	0	1043.9098098957866
0.14454398	0.075857758	0.59	24.371033	0.029631932	-0.031037621	0.016098107	0.24678222	0.088625263	0.088629821	0	1047.205610277733
0.14454398	0.083176377	0.59	25.639261	0.027521522	-0.031940001	0.0168754	0.2547516	0.091075013	0.091079247	0	1050.7755397495
0.14454398	0.091201084	0.59	27.097735	0.025534344	-0.032638203	0.017651738	0.26294425	0.093658189	0.093662117	0	1054.661076081159
0.14454398	0.1	0.59	28.775678	0.023664803	-0.033091051	0.018437024	0.27137707	0.096394834	0.096398474	0	1058.9102752216666
0.14454398	0.10964782	0.59	30.708194	0.021907854	-0.033250462	0.019245161	0.28007117	0.099308124	0.099311494	0	1063.5800164842244
0.14454398	0.12022644	0.59	32.939003	0.020259007	-0.033057629	0.0200937	0.28905153	0.10242507	0.10242819	0	1068.7394003904112
0.14454398	0.13182567	0.59	35.524302	0.018714327	-0.032437535	0.021003224	0.29834641	0.10577756	0.10578043	0	1074.4745760629949
0.14454398	0.14454398	0.59	38.537822	0.01727044	-0.031291617	0.02199652	0.3079865	0.10940377	0.10940643	0	1080.8951626853163
0.14454398	0.15848932	0.59	42.076924	0.015924532	-0.02948868	0.023097571	0.31800392	0.11335024	0.11335269	0	1088.1422320485033
0.14454398	0.17378008	0.59	46.269151	0.014674326	-0.026854568	0.024330329	0.32843104	0.11767448	0.11767673	0	1096.397359196575
0.14454398	0.19054607	0.59	51.278002	0.013518035	-0.023161869	0.025717197	0.33929893	0.1224482	0.12245028	0	1105.8914360192055
0.14454398	0.20892961	0.59	57.305805	0.012454243	-0.018122026	0.027277095	0.35063544	0.12776106	0.12776297	0	1116.9110191431432
0.14454398	0.22908677	0.59	64.590597	0.011481703	-0.011383533	0.029023078	0.36246284	0.13372435	0.13372612	0	1129.798716657309
0.14454398	0.25118864	0.59	73.393424	0.010599029	-0.0025409112	0.030959653	0.37479514	0.14047399	0.14047562	0	1144.9432687455683
0.14454398	0.27542287	0.59	83.973483	0.0098042777	0.0088414063	0.033080351	0.38763568	0.14817164	0.14817315	0	1162.7557704822475
0.14454398	0.30199517	0.59	96.552088	0.0090945001	0.023189576	0.035366479	0.40097587	0.15700283	0.15700423	0	1183.6318619372732
0.14454398	0.33113112	0.59	111.2723	0.0084653729	0.040871127	0.037788049	0.41479613	0.16717129	0.1671726	0	1207.9060066712857
0.14454398	0.36307805	0.59	128.1664	0.0079110678	0.062148855	0.040307327	0.42906948	0.17888953	0.17889075	0	1235.8101622289798
0.14454398	0.39810717	0.59	147.14348	0.007424442	0.087152684	0.042884325	0.44376701	0.19236719	0.19236833	0	1267.4503746266705
0.14454398	0.43651583	0.59	168.00225	0.006997516	0.11587829	0.045482555	0.45886366	0.20779937	0.20780045	0	1302.8086893342584
0.14454398	0.47863009	0.59	190.46395	0.0066220851	0.14821023	0.048073314	0.47434251	0.22535735	0.22535836	0	1341.7672606160672
0.14454398	0.52480746	0.59	214.21317	0.0062902859	0.18395865	0.050637579	0.49019667	0.24518292	0.24518388	0	1384.1438888050345
0.14454398	0.57543994	0.59	238.93492	0.0059949966	0.22289727	0.053165701	0.50642904	0.26738673	0.26738765	0	1429.727576650075
0.14454398	0.63095734	0.59	264.34126	0.0057300409	0.26479406	0.055655741	0.52305059	0.29204971	0.29205059	0	1478.3063979518445
0.14454398	0.69183097	0.59	290.18623	0.0054902295	0.30943192	0.058111328	0.54007826	0.31922653	0.31922737	0	1529.6857636527036
0.14454398	0.75857758	0.59	316.27123	0.0052712975	0.35662001	0.060539641	0.55753298	0.34895006	0.34895087	0	1583.6979695118966
0.14454398	0.83176377	0.59	342.44404	0.0050697889	0.40619827	0.062949808	0.57543804	0.38123601	0.38123679	0	1640.2055393609337
0.14454398	0.91201084	0.59	368.5943	0.004882926	0.45803766	0.065351766	0.59381797	0.41608727	0.41608802	0	1699.100829734491
0.14454398	1.	0.59	394.6476	0.0047084848	0.51203805	0.067755525	0.61269786	0.4534977	0.45349842	0	1760.3036704339065
0.14454398	1.0964782	0.59	420.55928	0.0045446851	0.56812515	0.070170731	0.63210287	0.49345539	0.49345608	0	1823.7582084332093
0.14454398	1.2022644	0.59	446.30865	0.0043900989	0.62624707	0.072606446	0.6520581	0.53594527	0.53594594	0	1889.4296037096574
0.14454398	1.3182567	0.59	471.89399	0.0042435761	0.68637116	0.075071057	0.67258842	0.58095121	0.58095186	0	1957.3009659788218
0.14454398	1.4454398	0.59	497.32831	0.0041041854	0.74848112	0.077572269	0.69371859	0.62845766	0.62845829	0	2027.3707058719572
0.14454398	1.5848932	0.59	522.63589	0.0039711677	0.81257456	0.080117144	0.71547322	0.67845093	0.67845154	0	2099.650220222803
0.14454398	1.7378008	0.59	547.84944	0.0038439	0.87866094	0.082712168	0.73787691	0.73092014	0.73092073	0	2174.1620341710595
0.14454398	1.9054607	0.59	573.00793	0.0037218666	0.94675981	0.085363316	0.7609543	0.78585793	0.78585851	0	2250.9381752445515
0.14454398	2.0892961	0.59	598.15479	0.0036046369	1.0168995	0.088076129	0.78473019	0.84326102	0.84326158	0	2330.0190090498454
0.14454398	2.2908677	0.59	623.33654	0.0034918487	1.0891158	0.090855778	0.80922961	0.90313052	0.90313105	0	2411.452037850038
0.14454398	2.5118864	0.59	648.60176	0.0033831939	1.1634513	0.093707131	0.8344779	0.96547221	0.96547273	0	2495.2913247991064
0.14454398	2.7542287	0.59	674.00026	0.0032784081	1.2399545	0.096634806	0.86050078	1.0302967	1.0302972	0	2581.596696532799
0.14454398	3.0199517	0.59	699.58249	0.0031772625	1.3186791	0.099643219	0.88732445	1.0976196	1.0976201	0	2670.433131511591
0.14454398	3.3113112	0.59	725.39907	0.0030795571	1.3996838	0.10273663	0.91497561	1.1674613	1.1674617	0	2761.870583194487
0.14454398	3.6307805	0.59	751.50046	0.0029851151	1.4830315	0.10591919	0.94348155	1.2398472	1.2398477	0	2855.9832782776575
0.14454398	3.9810717	0.59	777.93675	0.0028937793	1.5687896	0.10919493	0.97287021	1.3148079	1.3148083	0	2952.8500318246615
0.14454398	4.3651583	0.59	804.75749	0.0028054085	1.6570291	0.11256787	1.0031702	1.3923785	1.3923789	0	3052.553412744501
0.14454398	4.7863009	0.59	832.01162	0.0027198745	1.7478249	0.11604196	1.0344108	1.472599	1.4725995	0	3155.180025661225
0.14454398	5.2480746	0.59	859.74739	0.0026370606	1.8412554	0.11962116	1.0666222	1.5555145	1.5555149	0	3260.820268130244
0.14454398	5.7543994	0.59	888.01238	0.0025568594	1.9374026	0.12330941	1.0998354	1.6411744	1.6411748	0	3369.56836916051
0.14454398	6.3095734	0.59	916.85351	0.0024791714	2.0363518	0.12711069	1.1340821	1.7296329	1.7296333	0	3481.5220463671185
0.14454398	6.9183097	0.59	946.31709	0.0024039041	2.1381917	0.13102903	1.1693951	1.8209488	1.8209492	0	3596.782821665269
0.14454398	7.5857758	0.59	976.44885	0.0023309708	2.2430145	0.13506849	1.2058079	1.9151853	1.9151856	0	3715.455893489371
0.14454398	8.3176377	0.59	1007.294	0.00226029	2.3509156	0.13923321	1.2433554	2.0124101	2.0124105	0	3837.6502429639395
0.14454398	9.1201084	0.59	1038.8975	0.0021917848	2.4619937	0.14352738	1.2820731	2.1126954	2.1126958	0	3963.4782843852745
0.14454398	10.	0.59	1071.3037	0.002125382	2.576351	0.14795531	1.3219978	2.2161177	2.2161181	0	4093.056441175025