1.9054607	1.e-12	0.53	1.0248257e6	2.1615942e6	-0.044021902	-0.0011286875	-0.0011286839	-1090.7891	3292.9751	0	897.6418459294265
1.9054607	1.0964782e-12	0.53	934652.31	1.9713994e6	-0.043835114	-0.0011286875	-0.0011286835	-994.81538	3003.2292	0	897.8173456612102
1.9054607	1.2022644e-12	0.53	852413.21	1.7979397e6	-0.043648327	-0.0011286875	-0.0011286831	-907.28632	2738.9778	0	897.9928444534285
1.9054607	1.3182567e-12	0.53	777410.25	1.6397425e6	-0.043461539	-0.0011286875	-0.0011286827	-827.45884	2497.9776	0	898.1683441852122
1.9054607	1.4454398e-12	0.53	709006.75	1.4954649e6	-0.043274751	-0.0011286875	-0.0011286822	-754.6553	2278.1829	0	898.3438439667927
1.9054607	1.5848932e-12	0.53	646622.01	1.3638822e6	-0.043087963	-0.0011286874	-0.0011286817	-688.25767	2077.7277	0	898.5193437483736
1.9054607	1.7378008e-12	0.53	589726.44	1.2438774e6	-0.042901175	-0.0011286875	-0.0011286812	-627.70229	1894.9104	0	898.694843529954
1.9054607	1.9054607e-12	0.53	537837.08	1.1344316e6	-0.042714387	-0.0011286874	-0.0011286805	-572.47511	1728.179	0	898.8703434111286
1.9054607	2.0892961e-12	0.53	490513.41	1.0346159e6	-0.042527599	-0.0011286875	-0.0011286799	-522.10731	1576.1182	0	899.0458432425061
1.9054607	2.2908677e-12	0.53	447353.72	943582.89	-0.042340812	-0.0011286874	-0.0011286791	-476.17131	1437.4371	0	899.2213422339123
1.9054607	2.5118864e-12	0.53	407991.61	860559.78	-0.042154024	-0.0011286875	-0.0011286784	-434.27716	1310.9584	0	899.3968421150867
1.9054607	2.7542287e-12	0.53	372092.93	784841.8	-0.041967236	-0.0011286875	-0.0011286775	-396.06923	1195.6085	0	899.5723420958554
1.9054607	3.0199517e-12	0.53	339352.96	715786.17	-0.041780448	-0.0011286874	-0.0011286765	-361.22317	1090.4081	0	899.7478421264208
1.9054607	3.3113112e-12	0.53	309493.74	652806.68	-0.04159366	-0.0011286875	-0.0011286755	-329.44317	994.4642	0	899.9233421569862
1.9054607	3.6307805e-12	0.53	282261.82	595368.7	-0.041406872	-0.0011286874	-0.0011286743	-300.45945	906.96234	0	900.0988422871455
1.9054607	3.9810717e-12	0.53	257426.	542984.62	-0.041220084	-0.0011286875	-0.0011286731	-274.02596	827.15968	0	900.274342417305
1.9054607	4.3651583e-12	0.53	234775.47	495209.77	-0.041033296	-0.0011286874	-0.0011286716	-249.91832	754.3788	0	900.4498426968553
1.9054607	4.7863009e-12	0.53	214117.94	451638.58	-0.040846508	-0.0011286875	-0.0011286702	-227.93187	688.00185	0	900.6253429266084
1.9054607	5.2480746e-12	0.53	195278.05	411901.18	-0.040659721	-0.0011286874	-0.0011286684	-207.87997	627.46535	0	900.8008424159841
1.9054607	5.7543994e-12	0.53	178095.87	375660.23	-0.040472933	-0.0011286875	-0.0011286666	-189.59241	572.2554	0	900.9763428449254
1.9054607	6.3095734e-12	0.53	162425.53	342608.08	-0.040286145	-0.0011286874	-0.0011286646	-172.91394	521.90334	0	901.1518433734605
1.9054607	6.9183097e-12	0.53	148134.01	312464.15	-0.040099357	-0.0011286875	-0.0011286624	-157.70297	475.9817	0	901.3273440015894
1.9054607	7.5857758e-12	0.53	135099.99	284972.55	-0.039912569	-0.0011286874	-0.00112866	-143.8304	434.10068	0	901.5028447293125
1.9054607	8.3176377e-12	0.53	123212.83	259899.91	-0.039725781	-0.0011286875	-0.0011286574	-131.17844	395.90473	0	901.6783455566292
1.9054607	9.1201084e-12	0.53	112371.6	237033.38	-0.039538993	-0.0011286874	-0.0011286544	-119.6397	361.06961	0	901.8538465831339
1.9054607	1.e-11	0.53	102484.28	216178.85	-0.039352205	-0.0011286875	-0.0011286513	-109.11622	329.2996	0	902.0293476594355
1.9054607	1.0964782e-11	0.53	93466.947	197159.29	-0.039165418	-0.0011286874	-0.0011286477	-99.518684	300.32501	0	902.2048480451567
1.9054607	1.2022644e-11	0.53	85243.036	179813.23	-0.03897863	-0.0011286875	-0.0011286439	-90.765609	273.89987	0	902.3803494700371
1.9054607	1.3182567e-11	0.53	77742.74	163993.43	-0.038791842	-0.0011286874	-0.0011286397	-82.782693	249.79985	0	902.5558510941055
1.9054607	1.4454398e-11	0.53	70902.39	149565.59	-0.038605054	-0.0011286875	-0.0011286351	-75.502171	227.82038	0	902.7313529173615
1.9054607	1.5848932e-11	0.53	64663.916	136407.24	-0.038418266	-0.0011286874	-0.0011286301	-68.86224	207.77486	0	902.9068549398055
1.9054607	1.7378008e-11	0.53	58974.36	124406.67	-0.038231478	-0.0011286875	-0.0011286245	-62.806534	189.49313	0	903.0823572610313
1.9054607	1.9054607e-11	0.53	53785.423	113462.01	-0.03804469	-0.0011286874	-0.0011286184	-57.283648	172.81999	0	903.2578598312418
1.9054607	2.0892961e-11	0.53	49053.056	103480.36	-0.037857903	-0.0011286874	-0.0011286118	-52.246699	157.61391	0	903.4333617108718
1.9054607	2.2908677e-11	0.53	44737.087	94376.971	-0.037671115	-0.0011286874	-0.0011286045	-47.652932	143.7458	0	903.608864878646
1.9054607	2.5118864e-11	0.53	40800.875	86074.577	-0.037484327	-0.0011286874	-0.0011285965	-43.463349	131.09793	0	903.784368394999
1.9054607	2.7542287e-11	0.53	37211.008	78502.697	-0.037297539	-0.0011286874	-0.0011285877	-39.642388	119.56294	0	903.9598723097276
1.9054607	3.0199517e-11	0.53	33937.011	71597.051	-0.037110751	-0.0011286874	-0.0011285781	-36.157614	109.0429	0	904.1353766228319
1.9054607	3.3113112e-11	0.53	30951.089	65299.019	-0.036923963	-0.0011286874	-0.0011285675	-32.979445	99.448508	0	904.3108814339058
1.9054607	3.6307805e-11	0.53	28227.897	59555.138	-0.036737175	-0.0011286874	-0.001128556	-30.080905	90.698321	0	904.4863866931524
1.9054607	3.9810717e-11	0.53	25744.315	54316.648	-0.036550388	-0.0011286874	-0.0011285432	-27.437388	82.718057	0	904.6618916601942
1.9054607	4.3651583e-11	0.53	23479.262	49539.08	-0.0363636	-0.0011286874	-0.0011285294	-25.026455	75.439968	0	904.8373980647709
1.9054607	4.7863009e-11	0.53	21413.509	45181.878	-0.036176812	-0.0011286874	-0.0011285141	-22.827642	68.802273	0	905.0129052163021
1.9054607	5.2480746e-11	0.53	19529.52	41208.054	-0.035990024	-0.0011286874	-0.0011284974	-20.822285	62.748623	0	905.188413064991
1.9054607	5.7543994e-11	0.53	17811.302	37583.876	-0.035803236	-0.0011286873	-0.001128479	-18.993361	57.227629	0	905.363921760228
1.9054607	6.3095734e-11	0.53	16244.268	34278.579	-0.035616449	-0.0011286874	-0.001128459	-17.325345	52.192422	0	905.5394303126511
1.9054607	6.9183097e-11	0.53	14815.116	31264.103	-0.035429661	-0.0011286874	-0.0011284369	-15.804081	47.600259	0	905.7149408503758
1.9054607	7.5857758e-11	0.53	13511.714	28514.86	-0.035242873	-0.0011286874	-0.0011284127	-14.416655	43.412156	0	905.8904524338368
1.9054607	8.3176377e-11	0.53	12322.998	26007.514	-0.035056085	-0.0011286873	-0.0011283862	-13.151291	39.592561	0	906.0659651626279
1.9054607	9.1201084e-11	0.53	11238.875	23720.778	-0.034869297	-0.0011286874	-0.0011283572	-11.997248	36.109049	0	906.2414791363432
1.9054607	1.e-10	0.53	10250.144	21635.242	-0.03468251	-0.0011286873	-0.0011283252	-10.944733	32.932048	0	906.4169936644021
1.9054607	1.0964782e-10	0.53	9348.4096	19733.202	-0.034495722	-0.0011286873	-0.0011282904	-9.9848111	30.034589	0	906.5925105263411
1.9054607	1.2022644e-10	0.53	8526.0186	17998.514	-0.034308934	-0.0011286873	-0.001128252	-9.1093355	27.392075	0	906.7680291809709
1.9054607	1.3182567e-10	0.53	7775.989	16416.45	-0.034122146	-0.0011286873	-0.00112821	-8.3108757	24.982074	0	906.9435496282915
1.9054607	1.4454398e-10	0.53	7091.954	14973.584	-0.033935359	-0.0011286872	-0.0011281639	-7.5826554	22.784126	0	907.1190711777222
1.9054607	1.5848932e-10	0.53	6468.1066	13657.666	-0.033748571	-0.0011286873	-0.0011281135	-6.9184942	20.779574	0	907.2945958079875
1.9054607	1.7378008e-10	0.53	5899.151	12457.526	-0.033561783	-0.0011286872	-0.001128058	-6.3127554	18.951401	0	907.4701229778981
1.9054607	1.9054607e-10	0.53	5380.2574	11362.977	-0.033374996	-0.0011286872	-0.0011279973	-5.7602987	17.284088	0	907.6456517976853
1.9054607	2.0892961e-10	0.53	4907.0207	10364.729	-0.033188208	-0.0011286871	-0.0011279307	-5.2564358	15.763479	0	907.821184495059
1.9054607	2.2908677e-10	0.53	4475.4238	9454.3076	-0.03300142	-0.0011286872	-0.0011278578	-4.7968908	14.376668	0	907.9967203296412
1.9054607	2.5118864e-10	0.53	4081.8027	8623.9854	-0.032814633	-0.0011286871	-0.0011277777	-4.3777645	13.111882	0	908.1722588100395
1.9054607	2.7542287e-10	0.53	3722.816	7866.7144	-0.032627845	-0.0011286871	-0.0011276899	-3.9955002	11.958382	0	908.347802064369
1.9054607	3.0199517e-10	0.53	3395.4163	7176.067	-0.032441057	-0.001128687	-0.0011275937	-3.6468547	10.906379	0	908.5233495016439
1.9054607	3.3113112e-10	0.53	3096.8241	6546.1809	-0.03225427	-0.001128687	-0.0011274881	-3.3288697	9.9469399	0	908.6989006802678
1.9054607	3.6307805e-10	0.53	2824.5049	5971.7099	-0.032067482	-0.0011286869	-0.0011273724	-3.0388475	9.0719214	0	908.8744578279504
1.9054607	3.9810717e-10	0.53	2576.1468	5447.7781	-0.031880695	-0.0011286868	-0.0011272455	-2.7743277	8.273895	0	909.0500196133278
1.9054607	4.3651583e-10	0.53	2349.6415	4969.9384	-0.031693907	-0.0011286869	-0.0011271065	-2.5330663	7.5460863	0	909.225588363703
1.9054607	4.7863009e-10	0.53	2143.0663	4534.1354	-0.03150712	-0.0011286868	-0.0011269539	-2.3130168	6.8823169	0	909.4011629468996
1.9054607	5.2480746e-10	0.53	1954.6674	4136.6702	-0.031320333	-0.0011286867	-0.0011267867	-2.1123129	6.276952	0	909.5767448004531
1.9054607	5.7543994e-10	0.53	1782.8456	3774.1696	-0.031133546	-0.0011286867	-0.0011266033	-1.9292523	5.7248527	0	909.7523347211147
1.9054607	6.3095734e-10	0.53	1626.1423	3443.5569	-0.030946758	-0.0011286866	-0.0011264022	-1.7622826	5.2213321	0	909.9279343954042
1.9054607	6.9183097e-10	0.53	1483.2272	3142.0265	-0.030759971	-0.0011286865	-0.0011261817	-1.609988	4.762116	0	910.1035427907393
1.9054607	7.5857758e-10	0.53	1352.887	2867.0194	-0.030573184	-0.0011286864	-0.00112594	-1.4710772	4.3433059	0	910.2791617430307
1.9054607	8.3176377e-10	0.53	1234.0154	2616.2019	-0.030386397	-0.0011286863	-0.0011256749	-1.3443727	3.9613466	0	910.4547923478115
1.9054607	9.1201084e-10	0.53	1125.6032	2387.4455	-0.03019961	-0.0011286861	-0.0011253842	-1.2288003	3.6129957	0	910.630435700615
1.9054607	1.e-9	0.53	1026.7302	2178.8091	-0.030012823	-0.0011286861	-0.0011250656	-1.1233805	3.2952958	0	910.8060929467713
1.9054607	1.0964782e-9	0.53	936.55685	1988.5224	-0.029826037	-0.0011286859	-0.0011247161	-1.0272201	3.0055502	0	910.9817646406241
1.9054607	1.2022644e-9	0.53	854.31784	1814.9707	-0.02963925	-0.0011286858	-0.001124333	-0.93950436	2.7412991	0	911.1574540058218
1.9054607	1.3182567e-9	0.53	779.31499	1656.6816	-0.029452463	-0.0011286856	-0.0011239129	-0.85949017	2.5002993	0	911.3331617958961
1.9054607	1.4454398e-9	0.53	710.9116	1512.3122	-0.029265677	-0.0011286854	-0.0011234523	-0.78649991	2.2805049	0	911.5088888141754
1.9054607	1.5848932e-9	0.53	648.52698	1380.6376	-0.029078891	-0.0011286852	-0.0011229472	-0.71991554	2.0800501	0	911.6846379921033
1.9054607	1.7378008e-9	0.53	591.63156	1260.5409	-0.028892105	-0.001128685	-0.0011223934	-0.65917341	1.8972332	0	911.8604114211527
1.9054607	1.9054607e-9	0.53	539.74234	1151.0033	-0.028705319	-0.0011286848	-0.0011217861	-0.60375947	1.7305024	0	912.0362114915774
1.9054607	2.0892961e-9	0.53	492.41884	1051.0957	-0.028518533	-0.0011286845	-0.0011211203	-0.5532049	1.5784421	0	912.2120406932257
1.9054607	2.2908677e-9	0.53	449.25932	959.97089	-0.028331748	-0.0011286842	-0.0011203902	-0.5070821	1.4397615	0	912.3879009747563
1.9054607	2.5118864e-9	0.53	409.89741	876.85598	-0.028144962	-0.0011286839	-0.0011195897	-0.46500115	1.3132835	0	912.5637972529148
1.9054607	2.7542287e-9	0.53	373.99896	801.04623	-0.027958177	-0.0011286836	-0.001118712	-0.42660639	1.1979343	0	912.7397310347635
1.9054607	3.0199517e-9	0.53	341.25922	731.89884	-0.027771393	-0.0011286832	-0.0011177496	-0.39157347	1.0927347	0	912.9157060550751
1.9054607	3.3113112e-9	0.53	311.40027	668.82761	-0.027584608	-0.0011286828	-0.0011166943	-0.35960659	0.99679161	0	913.0917282763313
1.9054607	3.6307805e-9	0.53	284.16863	611.29792	-0.027397824	-0.0011286824	-0.0011155373	-0.33043596	0.90929067	0	913.2678002015339
1.9054607	3.9810717e-9	0.53	259.33313	558.82217	-0.02721104	-0.0011286819	-0.0011142686	-0.30381554	0.82948902	0	913.4439277499448
1.9054607	4.3651583e-9	0.53	236.68294	510.95567	-0.027024257	-0.0011286813	-0.0011128775	-0.27952093	0.75670925	0	913.6201153102738
1.9054607	4.7863009e-9	0.53	216.02579	467.29287	-0.026837474	-0.0011286808	-0.0011113522	-0.25734747	0.69033351	0	913.796369698128
1.9054607	5.2480746e-9	0.53	197.18631	427.4639	-0.026650692	-0.0011286801	-0.0011096797	-0.23710854	0.62979835	0	913.972696447547
1.9054607	5.7543994e-9	0.53	180.00458	391.13141	-0.02646391	-0.0011286794	-0.001107846	-0.21863389	0.57458986	0	914.1491034696712
1.9054607	6.3095734e-9	0.53	164.33474	357.98778	-0.026277129	-0.0011286787	-0.0011058353	-0.20176829	0.52423939	0	914.3255976928558
1.9054607	6.9183097e-9	0.53	150.04377	327.75243	-0.026090348	-0.0011286778	-0.0011036306	-0.18637015	0.47831952	0	914.5021885221495
1.9054607	7.5857758e-9	0.53	137.01035	300.16945	-0.025903568	-0.0011286769	-0.0011012132	-0.17231033	0.43644041	0	914.6788843300194
1.9054607	8.3176377e-9	0.53	125.12383	275.0055	-0.025716789	-0.0011286758	-0.0010985627	-0.15947107	0.39824657	0	914.855695275046
1.9054607	9.1201084e-9	0.53	114.28333	252.04772	-0.02553001	-0.0011286747	-0.0010956564	-0.14774496	0.36341377	0	915.0326336007051
1.9054607	1.e-8	0.53	104.3968	231.10202	-0.025343233	-0.0011286735	-0.0010924699	-0.13703405	0.3316463	0	915.2097095783258
1.9054607	1.0964782e-8	0.53	95.380328	211.99136	-0.025156456	-0.0011286721	-0.0010889759	-0.12724899	0.30267449	0	915.3869386816091
1.9054607	1.2022644e-8	0.53	87.157365	194.55429	-0.024969681	-0.0011286706	-0.001085145	-0.1183083	0.2762524	0	915.564333671732
1.9054607	1.3182567e-8	0.53	79.658109	178.64358	-0.024782907	-0.001128669	-0.0010809445	-0.11013768	0.25215573	0	915.7419117718669
1.9054607	1.4454398e-8	0.53	72.818898	164.12494	-0.024596134	-0.0011286672	-0.0010763389	-0.10266934	0.23017992	0	915.9196906599354
1.9054607	1.5848932e-8	0.53	66.581673	150.87591	-0.024409363	-0.0011286652	-0.0010712892	-0.095841481	0.21013842	0	916.0976888171889
1.9054607	1.7378008e-8	0.53	60.893487	138.78478	-0.024222593	-0.0011286631	-0.0010657526	-0.089597715	0.1918611	0	916.2759284962923
1.9054607	1.9054607e-8	0.53	55.706052	127.74971	-0.024035825	-0.0011286608	-0.0010596822	-0.083886629	0.1751928	0	916.4544321124564
1.9054607	2.0892961e-8	0.53	50.975332	117.67779	-0.023849059	-0.0011286582	-0.0010530265	-0.078661327	0.15999201	0	916.6332253111175
1.9054607	2.2908677e-8	0.53	46.661168	108.48431	-0.023662295	-0.0011286554	-0.0010457293	-0.073879036	0.14612971	0	916.8123360781691
1.9054607	2.5118864e-8	0.53	42.726936	100.09201	-0.023475533	-0.0011286523	-0.0010377287	-0.069500744	0.13348821	0	916.9917952379316
1.9054607	2.7542287e-8	0.53	39.139238	92.43042	-0.023288774	-0.0011286489	-0.0010289573	-0.065490871	0.1219602	0	917.171635413993
1.9054607	3.0199517e-8	0.53	35.867619	85.435288	-0.023102018	-0.0011286452	-0.0010193411	-0.061816962	0.11144782	0	917.3518934561066
1.9054607	3.3113112e-8	0.53	32.884305	79.048012	-0.022915265	-0.0011286412	-0.0010087987	-0.058449415	0.10186182	0	917.5326098990004
1.9054607	3.6307805e-8	0.53	30.16397	73.215153	-0.022728515	-0.0011286367	-0.0009972415	-0.055361228	0.093120832	0	917.7138288627843
1.9054607	3.9810717e-8	0.53	27.683522	67.887976	-0.022541769	-0.0011286318	-0.00098457235	-0.052527771	0.085150648	0	917.895597785643
1.9054607	4.3651583e-8	0.53	25.421902	63.02204	-0.022355027	-0.0011286264	-0.00097068488	-0.049926577	0.07788361	0	918.0779696366064
1.9054607	4.7863009e-8	0.53	23.359911	58.576819	-0.022168289	-0.0011286205	-0.00095546281	-0.04753715	0.071258022	0	918.2610023195843
1.9054607	5.2480746e-8	0.53	21.480045	54.515357	-0.021981556	-0.001128614	-0.00093877891	-0.045340792	0.06521764	0	918.4447582516875
1.9054607	5.7543994e-8	0.53	19.766344	50.803958	-0.021794829	-0.0011286069	-0.00092049455	-0.043320444	0.059711183	0	918.6293055268816
1.9054607	6.3095734e-8	0.53	18.204259	47.411895	-0.021608107	-0.0011285991	-0.00090045801	-0.041460542	0.054691902	0	918.8147206366847
1.9054607	6.9183097e-8	0.53	16.780528	44.311152	-0.021421392	-0.0011285905	-0.00087850406	-0.039746883	0.050117181	0	919.0010839814894
1.9054607	7.5857758e-8	0.53	15.483061	41.476185	-0.021234684	-0.0011285812	-0.00085445275	-0.038166505	0.045948178	0	919.1884851709312
1.9054607	8.3176377e-8	0.53	14.300842	38.883706	-0.021047984	-0.0011285708	-0.00082810797	-0.036707581	0.042149494	0	919.37702092227
1.9054607	9.1201084e-8	0.53	13.223831	36.512483	-0.020861292	-0.0011285595	-0.00079925711	-0.035359312	0.038688866	0	919.5667971088303
1.9054607	1.e-7	0.53	12.24288	34.34316	-0.02067461	-0.0011285471	-0.00076766953	-0.03411184	0.0355369	0	919.7579267031979
1.9054607	1.0964782e-7	0.53	11.349653	32.358095	-0.020487939	-0.0011285334	-0.00073309553	-0.032956164	0.032666817	0	919.9505331088255
1.9054607	1.2022644e-7	0.53	10.536561	30.541205	-0.020301279	-0.0011285183	-0.00069526616	-0.031884062	0.030054222	0	920.1447502546466
1.9054607	1.3182567e-7	0.53	9.7966874	28.877831	-0.020114631	-0.0011285019	-0.00065389197	-0.030888023	0.0276769	0	920.3407213384069
1.9054607	1.4454398e-7	0.53	9.1237372	27.354613	-0.019927998	-0.0011284836	-0.00060866296	-0.029961183	0.025514618	0	920.5385979119972
1.9054607	1.5848932e-7	0.53	8.5119775	25.959374	-0.019741381	-0.0011284636	-0.00055924897	-0.029097267	0.023548956	0	920.7385434455068
1.9054607	1.7378008e-7	0.53	7.9561892	24.681015	-0.019554781	-0.0011284416	-0.00050529993	-0.028290536	0.021763145	0	920.9407313236013
1.9054607	1.9054607e-7	0.53	7.4516211	23.509419	-0.0193682	-0.0011284172	-0.00044644728	-0.02753574	0.020141916	0	921.1453431988384
1.9054607	2.0892961e-7	0.53	6.9939472	22.435362	-0.01918164	-0.0011283905	-0.00038230682	-0.026828074	0.018671369	0	921.3525685120214
1.9054607	2.2908677e-7	0.53	6.5792283	21.450431	-0.018995105	-0.0011283608	-0.00031248097	-0.026163137	0.017338845	0	921.5626014876566
1.9054607	2.5118864e-7	0.53	6.2038751	20.546952	-0.018808596	-0.001128328	-0.00023656419	-0.025536895	0.016132808	0	921.7756431327848
1.9054607	2.7542287e-7	0.53	5.8646151	19.717914	-0.018622117	-0.0011282917	-0.00015414846	-0.024945655	0.015042741	0	921.9918928707148
1.9054607	3.0199517e-7	0.53	5.5584606	18.956912	-0.018435673	-0.0011282514	-0.000064830423	-0.024386025	0.014059041	0	922.2115468631588
1.9054607	3.3113112e-7	0.53	5.28268	18.258082	-0.018249267	-0.0011282065	0.000031779386	-0.023854896	0.013172925	0	922.4347962331644
1.9054607	3.6307805e-7	0.53	5.0347699	17.616047	-0.018062906	-0.0011281566	0.00013604712	-0.023349417	0.012376343	0	922.66181673685
1.9054607	3.9810717e-7	0.53	4.81243	17.025869	-0.017876594	-0.0011281007	0.00024830477	-0.022866968	0.011661897	0	922.8927699373919
1.9054607	4.3651583e-7	0.53	4.6135397	16.482998	-0.017690341	-0.001128038	0.00036883914	-0.022405148	0.011022761	0	923.1277892588196
1.9054607	4.7863009e-7	0.53	4.4361372	15.983233	-0.017504156	-0.0011279675	0.00049788154	-0.021961756	0.010452617	0	923.3669814304014
1.9054607	5.2480746e-7	0.53	4.2784008	15.522685	-0.017318049	-0.0011278877	0.00063559934	-0.021534777	0.009945595	0	923.6104204016616
1.9054607	5.7543994e-7	0.53	4.1386334	15.097745	-0.017132035	-0.0011277973	0.00078208923	-0.021122366	0.0094962172	0	923.8581402278043
1.9054607	6.3095734e-7	0.53	4.0152495	14.705055	-0.016946131	-0.001127694	0.0009373752	-0.020722841	0.0090993588	0	924.1101368825099
1.9054607	6.9183097e-7	0.53	3.906765	14.34149	-0.016760359	-0.0011275755	0.0011014091	-0.020334668	0.0087502123	0	924.3663657181028
1.9054607	7.5857758e-7	0.53	3.8117903	14.004136	-0.016574746	-0.001127439	0.0012740768	-0.019956457	0.0084442619	0	924.6267445330438
1.9054607	8.3176377e-7	0.53	3.729025	13.69028	-0.016389325	-0.0011272803	0.0014552077	-0.019586947	0.0081772635	0	924.891157368057
1.9054607	9.1201084e-7	0.53	3.6572541	13.397394	-0.016204138	-0.0011270947	0.0016445869	-0.019225003	0.0079452291	0	925.1594577477227
1.9054607	1.e-6	0.53	3.5953457	13.123128	-0.01601924	-0.0011268763	0.0018419701	-0.018869601	0.0077444122	0	925.4314723419649
1.9054607	1.0964782e-6	0.53	3.5422478	12.865294	-0.015834698	-0.0011266175	0.0020470989	-0.018519828	0.0075712923	0	925.707009524551
1.9054607	1.2022644e-6	0.53	3.4969854	12.621857	-0.0156506	-0.0011263083	0.0022597161	-0.018174869	0.0074225551	0	925.9858585359405
1.9054607	1.3182567e-6	0.53	3.4586553	12.390914	-0.015467053	-0.0011259369	0.0024795786	-0.017833999	0.0072950664	0	926.267797786222
1.9054607	1.4454398e-6	0.53	3.4264204	12.170677	-0.015284196	-0.0011254876	0.0027064688	-0.017496582	0.0071858399	0	926.5525883176196
1.9054607	1.5848932e-6	0.53	3.399502	11.959454	-0.015102201	-0.0011249411	0.0029402037	-0.017162057	0.0070919971	0	926.8399773964493
1.9054607	1.7378008e-6	0.53	3.3771709	11.755614	-0.014921284	-0.0011242732	0.0031806414	-0.016829941	0.0070107225	0	927.1296914147049
1.9054607	1.9054607e-6	0.53	3.3587379	11.557574	-0.014741712	-0.0011234536	0.0034276854	-0.016499818	0.0069392148	0	927.4214314543674
1.9054607	2.0892961e-6	0.53	3.343544	11.363762	-0.014563811	-0.0011224452	0.0036812863	-0.016171337	0.0068746416	0	927.7148666174332
1.9054607	2.2908677e-6	0.53	3.3309526	11.172609	-0.014387972	-0.0011212029	0.0039414436	-0.015844213	0.0068141026	0	928.0096292848656
1.9054607	2.5118864e-6	0.53	3.3203443	10.982532	-0.014214654	-0.0011196729	0.0042082043	-0.015518221	0.0067546141	0	928.3053116007416
1.9054607	2.7542287e-6	0.53	3.3111164	10.791946	-0.014044383	-0.0011177922	0.0044816615	-0.015193197	0.0066931245	0	928.6014657146602
1.9054607	3.0199517e-6	0.53	3.3026898	10.599289	-0.013877742	-0.0011154886	0.0047619522	-0.014869033	0.0066265749	0	928.8976120818627
1.9054607	3.3113112e-6	0.53	3.2945222	10.403079	-0.01371535	-0.0011126822	0.0050492526	-0.014545678	0.0065520111	0	929.1932568536469
1.9054607	3.6307805e-6	0.53	3.2861302	10.20199	-0.013557831	-0.0011092866	0.0053437745	-0.014223132	0.0064667444	0	929.4879192112035
1.9054607	3.9810717e-6	0.53	3.2771149	9.9949433	-0.013405782	-0.0011052123	0.0056457592	-0.013901435	0.006368546	0	929.7811583940911
1.9054607	4.3651583e-6	0.53	3.2671883	9.7812018	-0.013259726	-0.001100369	0.005955473	-0.013580666	0.0062558428	0	930.072615618946
1.9054607	4.7863009e-6	0.53	3.256194	9.560438	-0.013120079	-0.0010946692	0.0062732012	-0.013260921	0.0061278736	0	930.3620420973195
1.9054607	5.2480746e-6	0.53	3.2441164	9.33277	-0.012987123	-0.0010880294	0.0065992451	-0.012942307	0.0059847712	0	930.649322910034
1.9054607	5.7543994e-6	0.53	3.2310771	9.0987477	-0.012860996	-0.0010803726	0.0069339178	-0.012624926	0.0058275495	0	930.9344843113643
1.9054607	6.3095734e-6	0.53	3.2173175	8.8592951	-0.012741697	-0.0010716278	0.0072775434	-0.012308861	0.0056579992	0	931.2176886328344
1.9054607	6.9183097e-6	0.53	3.2031722	8.6156209	-0.012629102	-0.0010617285	0.0076304571	-0.011994166	0.0054785167	0	931.4992192999696
1.9054607	7.5857758e-6	0.53	3.189038	8.3691138	-0.012522991	-0.0010506117	0.0079930056	-0.011680861	0.0052918993	0	931.7794556632196
1.9054607	8.3176377e-6	0.53	3.1753434	8.1212399	-0.012423077	-0.0010382158	0.0083655478	-0.011368924	0.0051011425	0	932.0588460991419
1.9054607	9.1201084e-6	0.53	3.1625227	7.8734547	-0.01232903	-0.0010244778	0.0087484577	-0.01105829	0.0049092626	0	932.3378869049457
1.9054607	0.00001	0.53	3.1509944	7.6271348	-0.012240505	-0.0010093332	0.0091421235	-0.010748852	0.0047191575	0	932.6170955424892
1.9054607	0.000010964782	0.53	3.1411482	7.3835314	-0.012157157	-0.00099271205	0.0095469513	-0.010440465	0.0045335108	0	932.8969983872873
1.9054607	0.000012022644	0.53	3.1333356	7.143743	-0.012078652	-0.00097454003	0.009963364	-0.010132947	0.004354733	0	933.1781198455255
1.9054607	0.000013182567	0.53	3.1278661	6.9087043	-0.012004681	-0.00095473606	0.010391803	-0.0098260814	0.0041849341	0	933.4609700466945
1.9054607	0.000014454398	0.53	3.1250067	6.6791857	-0.01193496	-0.00093321206	0.010832729	-0.0095196265	0.0040259198	0	933.7460452419641
1.9054607	0.000015848932	0.53	3.1249836	6.4558013	-0.011869236	-0.00090987187	0.011286624	-0.0092133145	0.003879203	0	934.0338231627329
1.9054607	0.000017378008	0.53	3.1279849	6.2390215	-0.011807288	-0.00088461158	0.011753986	-0.0089068579	0.0037460252	0	934.3247594418212
1.9054607	0.000019054607	0.53	3.1341653	6.0291881	-0.011748922	-0.00085731772	0.012235341	-0.0085999524	0.0036273834	0	934.6192982869354
1.9054607	0.000020892961	0.53	3.1436493	5.8265293	-0.011693977	-0.00082786786	0.01273123	-0.00829228	0.0035240591	0	934.9178603696698
1.9054607	0.000022908677	0.53	3.156536	5.6311762	-0.011642318	-0.00079613131	0.013242219	-0.007983512	0.0034366463	0	935.2208543821598
1.9054607	0.000025118864	0.53	3.1729027	5.4431767	-0.011593837	-0.00076196481	0.013768898	-0.0076733106	0.0033655803	0	935.5286755995487
1.9054607	0.000027542287	0.53	3.1928085	5.2625091	-0.011548452	-0.00072521664	0.01431188	-0.0073613318	0.0033111609	0	935.8417063215816
1.9054607	0.000030199517	0.53	3.2168725	5.0969087	-0.011506865	-0.00068673511	0.014870789	-0.0070491348	0.0032875164	0	936.1590997367996
1.9054607	0.000033113112	0.53	3.2439826	4.9304633	-0.011467383	-0.00064446005	0.015448174	-0.0067324931	0.003266603	0	936.4837158539415
1.9054607	0.000036307805	0.53	3.2747245	4.7709607	-0.011430888	-0.00059909111	0.016043836	-0.006413016	0.003262605	0	936.814626880411
1.9054607	0.000039810717	0.53	3.3091119	4.6182047	-0.011397388	-0.00055042783	0.016658493	-0.0060903466	0.0032754815	0	937.1521828418834
1.9054607	0.000043651583	0.53	3.3471503	4.4719714	-0.011366914	-0.00049825725	0.01729289	-0.0057641275	0.0033051361	0	937.4967255992117
1.9054607	0.000047863009	0.53	3.3888386	4.3320129	-0.011339522	-0.00044234782	0.017947805	-0.0054340006	0.0033514239	0	937.8485899571123
1.9054607	0.000052480746	0.53	3.434168	4.1980571	-0.011315296	-0.00038244862	0.018624052	-0.0050996087	0.0034141503	0	938.2081023393794
1.9054607	0.000057543994	0.53	3.4831199	4.0698042	-0.011294355	-0.00031827981	0.019322492	-0.0047605953	0.0034930637	0	938.5755796895924
1.9054607	0.000063095734	0.53	3.5356613	3.9469155	-0.011276866	-0.00024952333	0.020044039	-0.0044166071	0.0035878308	0	938.9513202445847
1.9054607	0.000069183097	0.53	3.591735	3.8289905	-0.01126307	-0.00017579405	0.020789694	-0.0040672946	0.0036979887	0	939.3355960367119
1.9054607	0.000075857758	0.53	3.6512406	3.7155186	-0.011253334	-0.000096588199	0.021560591	-0.003712316	0.0038228436	0	939.7286269430577
1.9054607	0.000083176377	0.53	3.7139992	3.6057866	-0.011248254	-0.000011171972	0.022358117	-0.003351343	0.0039612775	0	940.1305436665574
1.9054607	0.000091201084	0.53	3.7796867	3.498705	-0.011248862	0.000081653321	0.023184142	-0.0029840707	0.0041113857	0	940.5413077789885
1.9054607	0.0001	0.53	3.8477256	3.3925215	-0.011256998	0.00018400256	0.02404147	-0.0026102379	0.0042698758	0	940.9605867869649
1.9054607	0.00010964782	0.53	3.917173	3.2845243	-0.011275825	0.00029959225	0.024934529	-0.0022296572	0.0044314358	0	941.3876138548304
1.9054607	0.00012022644	0.53	3.9868172	3.1713064	-0.011309898	0.00043400319	0.025869634	-0.001842249	0.0045892354	0	941.8212539406641
1.9054607	0.00013182567	0.53	4.0557899	3.0504249	-0.011363579	0.00059290889	0.026853211	-0.0014480435	0.0047382902	0	942.2606086132869
1.9054607	0.00014454398	0.53	4.1243074	2.9223908	-0.011438318	0.00077857942	0.027888308	-0.0010471059	0.0048795717	0	942.7058333143905
1.9054607	0.00015848932	0.53	4.193548	2.7902949	-0.011532056	0.00098871059	0.028973422	-0.00063942756	0.0050193565	0	943.158114160668
1.9054607	0.00017378008	0.53	4.2648979	2.6577216	-0.011641111	0.00121858	0.030104654	-0.00022486911	0.005165053	0	943.6189690481297
1.9054607	0.00019054607	0.53	4.339473	2.5274391	-0.011761904	0.0014633232	0.031277989	0.00019683427	0.0053225405	0	944.0897613330765
1.9054607	0.00020892961	0.53	4.4180446	2.4012138	-0.011891565	0.0017188726	0.032490236	0.00062603886	0.0054957571	0	944.5715985469562
1.9054607	0.00022908677	0.53	4.5011215	2.2800515	-0.012027949	0.0019820913	0.033739159	0.0010631628	0.005687161	0	945.0653825973393
1.9054607	0.00025118864	0.53	4.5890433	2.1644648	-0.012169495	0.0022506502	0.035023358	0.001508666	0.0058982517	0	945.5718829882477
1.9054607	0.00027542287	0.53	4.6820463	2.0546643	-0.012315073	0.0025228588	0.0363421	0.0019630356	0.0061299434	0	946.091796416784
1.9054607	0.00030199517	0.53	4.7803056	1.9506804	-0.012463881	0.002797521	0.037695175	0.0024267779	0.0063828038	0	946.6257718407353
1.9054607	0.00033113112	0.53	4.8839621	1.8524365	-0.012615356	0.0030738301	0.039082793	0.0029004163	0.0066572012	0	947.1744428090174
1.9054607	0.00036307805	0.53	4.9931355	1.7597915	-0.012769114	0.0033512619	0.040505478	0.0033844852	0.0069533839	0	947.7384310508132
1.9054607	0.00039810717	0.53	5.1079346	1.6725659	-0.012924903	0.0036295097	0.041964001	0.0038795312	0.0072715342	0	948.3183572711805
1.9054607	0.00043651583	0.53	5.2284614	1.5905552	-0.013082562	0.0039084153	0.043459318	0.0043861101	0.0076117936	0	948.9148487991118
1.9054607	0.00047863009	0.53	5.3548151	1.5135402	-0.013242002	0.0041879302	0.044992526	0.0049047892	0.0079742846	0	949.5285355286134
1.9054607	0.00052480746	0.53	5.4870934	1.4412916	-0.013403177	0.0044680685	0.046564821	0.0054361441	0.0083591176	0	950.1600562513756
1.9054607	0.00057543994	0.53	5.6253941	1.373574	-0.013566071	0.0047488825	0.048177474	0.0059807602	0.0087664008	0	950.8100589198509
1.9054607	0.00063095734	0.53	5.7698164	1.3101492	-0.013730685	0.0050304424	0.049831811	0.0065392328	0.0091962463	0	951.4792029022101
1.9054607	0.00069183097	0.53	5.9204618	1.2507785	-0.013897033	0.005312825	0.051529201	0.0071121668	0.0096487751	0	952.1681567649696
1.9054607	0.00075857758	0.53	6.0774351	1.1952252	-0.014065134	0.0055961056	0.053271055	0.0077001773	0.010124122	0	952.8776052915434
1.9054607	0.00083176377	0.53	6.2408448	1.1432567	-0.014235019	0.0058803631	0.055058826	0.0083038904	0.010622442	0	953.6082429052863
1.9054607	0.00091201084	0.53	6.4108038	1.094647	-0.014406726	0.0061656805	0.056894014	0.0089239427	0.011143913	0	954.3607808571678
1.9054607	0.001	0.53	6.5874286	1.0491781	-0.014580309	0.0064521553	0.058778177	0.0095609806	0.011688739	0	955.1359442473513
1.9054607	0.0010964782	0.53	6.7708398	1.0066433	-0.014755854	0.0067399301	0.060712965	0.010215665	0.012257161	0	955.9344739231153
1.9054607	0.0012022644	0.53	6.9611586	0.96684889	-0.014933494	0.0070292141	0.062700139	0.010888666	0.012849458	0	956.7571218467964
1.9054607	0.0013182567	0.53	7.158502	0.92961737	-0.015113444	0.007320334	0.064741627	0.011580667	0.013465953	0	957.6046460973014
1.9054607	0.0014454398	0.53	7.3629725	0.89479104	-0.015296053	0.0076138109	0.066839598	0.012292361	0.014107019	0	958.4777988624629
1.9054607	0.0015848932	0.53	7.5746412	0.8622372	-0.015481901	0.0079105132	0.068996623	0.013024452	0.01477309	0	959.3773154743105
1.9054607	0.0017378008	0.53	7.793516	0.83185354	-0.015671959	0.0082118624	0.071215877	0.013777646	0.015464665	0	960.3038646684822
1.9054607	0.0019054607	0.53	8.0194977	0.80357298	-0.015867809	0.0085201652	0.073501474	0.014552645	0.01618231	0	961.2580086996745
1.9054607	0.0020892961	0.53	8.2523288	0.77736021	-0.0160719	0.0088389539	0.075858811	0.015350135	0.01692664	0	962.2401341144683
1.9054607	0.0022908677	0.53	8.4915762	0.75318653	-0.016287572	0.009172968	0.078294548	0.016170768	0.017698248	0	963.2504192423671
1.9054607	0.0025118864	0.53	8.7367179	0.73096723	-0.016518345	0.0095269587	0.080815418	0.017015147	0.018497565	0	964.2889096428944
1.9054607	0.0027542287	0.53	8.9873647	0.7104656	-0.016766079	0.0099026603	0.083425198	0.017883827	0.019324668	0	965.3557385558126
1.9054607	0.0030199517	0.53	9.2434782	0.69120085	-0.017028567	0.010294737	0.086120658	0.018777345	0.020179117	0	966.4513711599267
1.9054607	0.0033113112	0.53	9.5054325	0.67242704	-0.017298445	0.010688911	0.088889692	0.019696251	0.021059949	0	967.5766979940665
1.9054607	0.0036307805	0.53	9.7740454	0.65327835	-0.017564961	0.011065447	0.091714802	0.020641154	0.021966018	0	968.7331077921933
1.9054607	0.0039810717	0.53	10.050716	0.63313091	-0.017818204	0.0114075	0.094581452	0.021612768	0.022896772	0	969.9226740998694
1.9054607	0.0043651583	0.53	10.337322	0.61195313	-0.018053087	0.011708519	0.09748547	0.022611974	0.02385303	0	971.1480989567108
1.9054607	0.0047863009	0.53	10.63565	0.5902761	-0.018270159	0.011972691	0.1004335	0.023639839	0.024836933	0	972.4121750515985
1.9054607	0.0052480746	0.53	10.946878	0.56882947	-0.018473562	0.012209946	0.10343799	0.024697573	0.025851172	0	973.7172094308758
1.9054607	0.0057543994	0.53	11.271524	0.54821639	-0.018668624	0.012431217	0.1065125	0.025786472	0.026898267	0	975.0649485586155
1.9054607	0.0063095734	0.53	11.609708	0.52880372	-0.018860508	0.012646291	0.1096695	0.026907858	0.027980284	0	976.4567511402693
1.9054607	0.0069183097	0.53	11.961428	0.51075853	-0.019053837	0.012863618	0.1129202	0.02806306	0.02909889	0	977.8938558048392
1.9054607	0.0075857758	0.53	12.326718	0.49412333	-0.01925276	0.013090739	0.11627502	0.029253403	0.030255497	0	979.3775531392891
1.9054607	0.0083176377	0.53	12.705711	0.4788778	-0.019461122	0.013334754	0.11974399	0.030480226	0.031451402	0	980.9092251502929
1.9054607	0.0091201084	0.53	13.098644	0.46497472	-0.019682539	0.013602468	0.12333697	0.031744881	0.032687861	0	982.4903843501509
1.9054607	0.01	0.53	13.505842	0.45235524	-0.019920315	0.013900247	0.12706345	0.033048752	0.033966139	0	984.1226521467872
1.9054607	0.010964782	0.53	13.927686	0.44094955	-0.020177175	0.014233435	0.13093202	0.034393252	0.035287509	0	985.8077457837924
1.9054607	0.012022644	0.53	14.364597	0.43067119	-0.020454897	0.014605649	0.13494961	0.035779841	0.036653253	0	987.5474456435481
1.9054607	0.013182567	0.53	14.817016	0.42141145	-0.020753985	0.015018115	0.1391209	0.037210016	0.038064648	0	989.343608683012
1.9054607	0.014454398	0.53	15.285396	0.41304021	-0.021073611	0.015469548	0.14344813	0.038685317	0.039522973	0	991.1981283142777
1.9054607	0.015848932	0.53	15.770211	0.40541496	-0.021411896	0.015956696	0.14793172	0.040207335	0.041029526	0	993.1129791278845
1.9054607	0.017378008	0.53	16.271966	0.39839391	-0.02176639	0.016475273	0.15257114	0.041777705	0.042585657	0	995.0901991350329
1.9054607	0.019054607	0.53	16.791205	0.39184784	-0.022134569	0.017020902	0.1573659	0.043398113	0.04419279	0	997.1319157935452
1.9054607	0.020892961	0.53	17.328519	0.38566674	-0.022514151	0.017589749	0.16231618	0.045070301	0.045852442	0	999.2403628260846
1.9054607	0.022908677	0.53	17.884555	0.37976178	-0.022903256	0.018178839	0.16742312	0.046796073	0.047566239	0	1001.4178743008931
1.9054607	0.025118864	0.53	18.460011	0.37406338	-0.023300397	0.018786036	0.17268885	0.048577298	0.049335908	0	1003.6669080269703
1.9054607	0.027542287	0.53	19.055638	0.36851809	-0.023704413	0.019409924	0.17811634	0.050415916	0.05116328	0	1005.9900338095043
1.9054607	0.030199517	0.53	19.672243	0.36308521	-0.024114368	0.020049637	0.18370927	0.052313944	0.053050289	0	1008.3899636099222
1.9054607	0.033113112	0.53	20.310685	0.3577337	-0.024529438	0.020704633	0.18947174	0.054273479	0.054998971	0	1010.8695133055774
1.9054607	0.036307805	0.53	20.97188	0.35243958	-0.02494878	0.021374467	0.19540814	0.056296704	0.05701146	0	1013.43166103676
1.9054607	0.039810717	0.53	21.656801	0.34718411	-0.025371408	0.022058572	0.20152286	0.058385901	0.059089999	0	1016.0795193016046
1.9054607	0.043651583	0.53	22.366482	0.34195186	-0.025796025	0.022755938	0.20782002	0.060543445	0.061236932	0	1018.816358351269
1.9054607	0.047863009	0.53	23.102017	0.33672923	-0.026220874	0.023464844	0.21430315	0.062771815	0.063454709	0	1021.645586834886
1.9054607	0.052480746	0.53	23.864569	0.33150252	-0.026643601	0.024182633	0.22097507	0.065073601	0.065745896	0	1024.5708207636617
1.9054607	0.057543994	0.53	24.655374	0.32625535	-0.027061205	0.024905627	0.22783769	0.067451514	0.068113168	0	1027.5958308952152
1.9054607	0.063095734	0.53	22.975296	0.34854691	-0.026271768	0.018225431	0.22748841	0.069843977	0.070550838	0	1028.1636277121356
1.9054607	0.069183097	0.53	21.443048	0.36887706	-0.025551793	0.011378709	0.22716986	0.072025929	0.07277402	0	1028.6814630476135
1.9054607	0.075857758	0.53	20.085457	0.38664548	-0.024917312	0.0044805047	0.22700325	0.074017016	0.074801142	0	1029.1946326894763
1.9054607	0.083176377	0.53	21.205834	0.35918246	-0.025519522	0.0047412294	0.23420532	0.076039461	0.076767891	0	1032.2152292127982
1.9054607	0.091201084	0.53	22.509772	0.33327374	-0.025922558	0.0050022828	0.24162401	0.078180526	0.078856413	0	1035.530832907583
1.9054607	0.1	0.53	24.024641	0.30885969	-0.026083391	0.0052671054	0.24926953	0.080459508	0.081085883	0	1039.1869566012545
1.9054607	0.10964782	0.53	25.783774	0.28588519	-0.025950514	0.0055404772	0.2571536	0.082898658	0.08347844	0	1043.2378306904227
1.9054607	0.12022644	0.53	27.829313	0.26430021	-0.025460136	0.0058284013	0.2652894	0.085523899	0.086059907	0	1047.7499542281262
1.9054607	0.13182567	0.53	30.216163	0.24406029	-0.024530819	0.0061379041	0.27369136	0.088365876	0.088860837	0	1052.8070292391776
1.9054607	0.14454398	0.53	33.017129	0.225127	-0.023056387	0.0064767679	0.28237488	0.091461445	0.091918008	0	1058.5164837465657
1.9054607	0.15848932	0.53	36.329091	0.20746817	-0.020897131	0.0068532025	0.29135604	0.094855725	0.095276475	0	1065.0175908375124
1.9054607	0.17378008	0.53	40.279658	0.19105791	-0.017869828	0.0072754436	0.3006512	0.098604784	0.098992254	0	1072.4906472773778
1.9054607	0.19054607	0.53	45.033098	0.17587608	-0.01373785	0.0077512431	0.31027645	0.10277896	0.10313564	0	1081.1659928672364
1.9054607	0.20892961	0.53	50.793418	0.16190697	-0.0082037631	0.0082872081	0.32024705	0.10746662	0.10779497	0	1091.3306852100818
1.9054607	0.22908677	0.53	57.801437	0.14913675	-0.00090818681	0.0088879668	0.3305765	0.11277802	0.11308047	0	1103.3291083518625
1.9054607	0.25118864	0.53	66.322142	0.13754938	0.0085603336	0.0095552176	0.34127567	0.11884833	0.11912728	0	1117.553263829919
1.9054607	0.27542287	0.53	76.619578	0.12712112	0.020640308	0.010286843	0.35235192	0.12583893	0.12609673	0	1134.4188253802529
1.9054607	0.30199517	0.53	88.920098	0.11781449	0.035756623	0.011076425	0.36380856	0.13393555	0.13417448	0	1154.3266500187929
1.9054607	0.33113112	0.53	103.37091	0.1095733	0.054270539	0.011913524	0.37564521	0.14334258	0.14356479	0	1177.6159762712446
1.9054607	0.36307805	0.53	120.00647	0.10232086	0.076433738	0.012784893	0.387859	0.1542735	0.15448101	0	1204.5218466511728
1.9054607	0.39810717	0.53	138.73549	0.095962564	0.1023616	0.013676404	0.4004465	0.16693902	0.16713363	0	1235.1509601728108
1.9054607	0.43651583	0.53	159.35407	0.090392426	0.13203415	0.014575092	0.41340575	0.18153516	0.18171848	0	1269.4835729978065
1.9054607	0.47863009	0.53	181.57943	0.085501362	0.16532168	0.015470678	0.42673784	0.19823378	0.19840717	0	1307.3983587706452
1.9054607	0.52480746	0.53	205.09176	0.08118488	0.20202325	0.016356267	0.44044762	0.21717683	0.21734147	0	1348.7089363826296
1.9054607	0.57543994	0.53	229.57214	0.07734846	0.24190529	0.017228254	0.45454356	0.23847471	0.23863158	0	1393.2000693577738
1.9054607	0.63095734	0.53	254.72951	0.073910271	0.28473222	0.018085753	0.46903724	0.26220775	0.26235764	0	1440.656181379303
1.9054607	0.69183097	0.53	280.31568	0.070801683	0.33028631	0.018929849	0.48394259	0.28842975	0.28857334	0	1490.8796376005844
1.9054607	0.75857758	0.53	306.13057	0.067966388	0.37837817	0.01976289	0.49927523	0.31717256	0.31731039	0	1543.700272025688
1.9054607	0.83176377	0.53	332.02106	0.065358835	0.4288505	0.020587938	0.51505188	0.34845071	0.34858326	0	1598.9786170773648
1.9054607	0.91201084	0.53	357.87628	0.062942467	0.48157774	0.021408359	0.53129	0.38226587	0.38239352	0	1656.605395480104
1.9054607	1.	0.53	383.62156	0.060688053	0.53646348	0.022227567	0.54800754	0.41861064	0.41873372	0	1716.4989622934697
1.9054607	1.0964782	0.53	409.21209	0.058572222	0.59343717	0.023048866	0.56522279	0.45747184	0.45759063	0	1778.6021390466526
1.9054607	1.2022644	0.53	434.62712	0.056576247	0.65245049	0.023875373	0.58295432	0.49883311	0.49894784	0	1842.8787732380717
1.9054607	1.3182567	0.53	459.86487	0.054685058	0.71347416	0.024709982	0.60122096	0.542677	0.54278791	0	1909.3107311625158
1.9054607	1.4454398	0.53	484.93829	0.052886465	0.77649499	0.025555355	0.6200418	0.58898669	0.58909394	0	1977.8951261933603
1.9054607	1.5848932	0.53	509.87154	0.051170539	0.84151342	0.026413939	0.63943623	0.63774716	0.63785093	0	2048.642027370591
1.9054607	1.7378008	0.53	534.69724	0.049529136	0.9085415	0.027287984	0.65942398	0.68894621	0.68904666	0	2121.572581397584
1.9054607	1.9054607	0.53	559.45418	0.047955521	0.97760118	0.028179562	0.68002513	0.74257516	0.74267241	0	2196.7174109640528
1.9054607	2.0892961	0.53	584.18557	0.046444079	1.048723	0.029090597	0.7012602	0.79862935	0.79872354	0	2274.115428732707
1.9054607	2.2908677	0.53	608.93771	0.044990082	1.1219447	0.030022885	0.72315013	0.85710854	0.85719978	0	2353.812521384023
1.9054607	2.5118864	0.53	633.75892	0.043589517	1.1973109	0.030978112	0.74571636	0.9180171	0.9181055	0	2435.861288792901
1.9054607	2.7542287	0.53	658.6987	0.042238944	1.2748718	0.03195788	0.76898087	0.98136423	0.9814499	0	2520.319842512503
1.9054607	3.0199517	0.53	683.80715	0.040935385	1.3546829	0.032963713	0.79296618	1.047164	1.047247	0	2607.2515426959426
1.9054607	3.3113112	0.53	709.13455	0.03967624	1.4368043	0.033997083	0.81769544	1.1154354	1.1155159	0	2696.724385217817
1.9054607	3.6307805	0.53	734.73096	0.038459215	1.5213007	0.035059418	0.8431924	1.1862024	1.1862804	0	2788.8109867351154
1.9054607	3.9810717	0.53	760.64607	0.037282269	1.6082409	0.03615211	0.86948149	1.2594938	1.2595694	0	2883.588154742112
1.9054607	4.3651583	0.53	786.92898	0.036143568	1.6976974	0.03727653	0.89658784	1.3353432	1.3354165	0	2981.1365217036223
1.9054607	4.7863009	0.53	813.62817	0.035041456	1.7897466	0.038434031	0.92453728	1.413789	1.4138601	0	3081.540732968071
1.9054607	5.2480746	0.53	840.79142	0.033974419	1.8844683	0.039625963	0.95335642	1.4948745	1.4949434	0	3184.8890168223897
1.9054607	5.7543994	0.53	868.4658	0.032941067	1.9819461	0.040853671	0.98307266	1.5786474	1.5787142	0	3291.273565297851
1.9054607	6.3095734	0.53	896.6977	0.031940114	2.0822666	0.042118509	1.0137142	1.6651601	1.6652248	0	3400.789787497484
1.9054607	6.9183097	0.53	925.53287	0.030970363	2.1855201	0.043421837	1.0453101	1.7544695	1.7545323	0	3513.536997170004
1.9054607	7.5857758	0.53	955.01649	0.030030695	2.2918001	0.044765032	1.0778902	1.8466369	1.8466978	0	3629.617903089557
1.9054607	8.3176377	0.53	985.19321	0.029120058	2.4012036	0.04614949	1.1114855	1.9417282	1.9417872	0	3749.1390801537955
1.9054607	9.1201084	0.53	1016.1072	0.028237456	2.5138309	0.047576629	1.1461277	2.0398134	2.0398707	0	3872.2105524047684
1.9054607	10.	0.53	1047.8024	0.027381948	2.6297858	0.049047892	1.1818495	2.140967	2.1410225	0	3998.9461303328867