1.9054607	1.e-12	0.07	1.0248257e6	2.1615938e6	-0.042637874	-0.0066182101	-0.0066182096	-1090.7876	3292.9757	0	899.0690041625902
1.9054607	1.0964782e-12	0.07	934652.31	1.971399e6	-0.042451086	-0.0066182101	-0.0066182096	-994.81386	3003.2298	0	899.244503695186
1.9054607	1.2022644e-12	0.07	852413.22	1.7979392e6	-0.042264298	-0.0066182101	-0.0066182095	-907.2848	2738.9784	0	899.4200032343588
1.9054607	1.3182567e-12	0.07	777410.26	1.639742e6	-0.04207751	-0.0066182101	-0.0066182094	-827.45733	2497.9783	0	899.5955027735314
1.9054607	1.4454398e-12	0.07	709006.75	1.4954645e6	-0.041890722	-0.0066182101	-0.0066182094	-754.65378	2278.1835	0	899.7710023061273
1.9054607	1.5848932e-12	0.07	646622.01	1.3638818e6	-0.041703934	-0.0066182101	-0.0066182093	-688.25615	2077.7283	0	899.9465018453
1.9054607	1.7378008e-12	0.07	589726.45	1.2438769e6	-0.041517147	-0.0066182101	-0.0066182093	-627.70077	1894.911	0	900.1220004383306
1.9054607	1.9054607e-12	0.07	537837.08	1.1344312e6	-0.041330359	-0.0066182101	-0.0066182092	-572.47359	1728.1796	0	900.2974999775033
1.9054607	2.0892961e-12	0.07	490513.42	1.0346155e6	-0.041143571	-0.0066182101	-0.0066182091	-522.10579	1576.1188	0	900.472999516676
1.9054607	2.2908677e-12	0.07	447353.72	943582.46	-0.040956783	-0.0066182101	-0.006618209	-476.1698	1437.4377	0	900.6484990558488
1.9054607	2.5118864e-12	0.07	407991.61	860559.34	-0.040769995	-0.0066182101	-0.0066182089	-434.27565	1310.959	0	900.8239985950215
1.9054607	2.7542287e-12	0.07	372092.94	784841.36	-0.040583207	-0.0066182101	-0.0066182088	-396.06772	1195.6091	0	900.9994981341944
1.9054607	3.0199517e-12	0.07	339352.96	715785.73	-0.040396419	-0.0066182101	-0.0066182087	-361.22165	1090.4087	0	901.1749976733671
1.9054607	3.3113112e-12	0.07	309493.74	652806.24	-0.040209631	-0.0066182101	-0.0066182086	-329.44165	994.46483	0	901.3504972125398
1.9054607	3.6307805e-12	0.07	282261.82	595368.26	-0.040022843	-0.0066182101	-0.0066182084	-300.45793	906.96297	0	901.5259967582895
1.9054607	3.9810717e-12	0.07	257426.01	542984.19	-0.039836056	-0.0066182101	-0.0066182082	-274.02444	827.16033	0	901.701495364474
1.9054607	4.3651583e-12	0.07	234775.47	495209.34	-0.039649268	-0.0066182102	-0.0066182081	-249.9168	754.37944	0	901.8769949036466
1.9054607	4.7863009e-12	0.07	214117.94	451638.15	-0.03946248	-0.0066182102	-0.0066182079	-227.93035	688.00248	0	902.0524944493964
1.9054607	5.2480746e-12	0.07	195278.05	411900.74	-0.039275692	-0.0066182102	-0.0066182077	-207.87845	627.46598	0	902.2279939951461
1.9054607	5.7543994e-12	0.07	178095.87	375659.79	-0.039088904	-0.0066182102	-0.0066182074	-189.59089	572.25603	0	902.4034935474727
1.9054607	6.3095734e-12	0.07	162425.53	342607.64	-0.038902116	-0.0066182102	-0.0066182072	-172.91242	521.90397	0	902.5789930932225
1.9054607	6.9183097e-12	0.07	148134.01	312463.72	-0.038715328	-0.0066182102	-0.0066182069	-157.70146	475.98234	0	902.7544926455491
1.9054607	7.5857758e-12	0.07	135099.99	284972.12	-0.03852854	-0.0066182102	-0.0066182066	-143.82888	434.10131	0	902.9299921978758
1.9054607	8.3176377e-12	0.07	123212.83	259899.47	-0.038341753	-0.0066182102	-0.0066182063	-131.17692	395.90536	0	903.1054908106372
1.9054607	9.1201084e-12	0.07	112371.6	237032.95	-0.038154965	-0.0066182103	-0.0066182059	-119.63818	361.07024	0	903.2809903695407
1.9054607	1.e-11	0.07	102484.28	216178.41	-0.037968177	-0.0066182103	-0.0066182055	-109.1147	329.30023	0	903.4564899284444
1.9054607	1.0964782e-11	0.07	93466.947	197158.85	-0.037781389	-0.0066182103	-0.006618205	-99.517166	300.32564	0	903.631989493925
1.9054607	1.2022644e-11	0.07	85243.036	179812.79	-0.037594601	-0.0066182103	-0.0066182045	-90.764091	273.9005	0	903.8074890594055
1.9054607	1.3182567e-11	0.07	77742.74	163992.99	-0.037407813	-0.0066182103	-0.006618204	-82.781174	249.80048	0	903.9829886248862
1.9054607	1.4454398e-11	0.07	70902.39	149565.15	-0.037221025	-0.0066182103	-0.0066182034	-75.500653	227.82101	0	904.1584881969437
1.9054607	1.5848932e-11	0.07	64663.915	136406.8	-0.037034237	-0.0066182104	-0.0066182028	-68.86072	207.77549	0	904.3339877690012
1.9054607	1.7378008e-11	0.07	58974.36	124406.23	-0.03684745	-0.0066182104	-0.0066182021	-62.805015	189.49376	0	904.5094864080705
1.9054607	1.9054607e-11	0.07	53785.423	113461.57	-0.036660662	-0.0066182104	-0.0066182013	-57.282129	172.82062	0	904.684985993282
1.9054607	2.0892961e-11	0.07	49053.056	103479.92	-0.036473874	-0.0066182105	-0.0066182005	-52.245181	157.61454	0	904.8604855784932
1.9054607	2.2908677e-11	0.07	44737.086	94376.534	-0.036287086	-0.0066182105	-0.0066181996	-47.651412	143.74643	0	905.0359851702818
1.9054607	2.5118864e-11	0.07	40800.876	86074.141	-0.036100298	-0.0066182106	-0.0066181986	-43.46183	131.09856	0	905.2114847686471
1.9054607	2.7542287e-11	0.07	37211.009	78502.26	-0.03591351	-0.0066182106	-0.0066181974	-39.640869	119.56357	0	905.3869843801664
1.9054607	3.0199517e-11	0.07	33937.011	71596.614	-0.035726722	-0.0066182107	-0.0066181962	-36.156095	109.04353	0	905.5624839916857
1.9054607	3.3113112e-11	0.07	30951.09	65298.583	-0.035539934	-0.0066182107	-0.0066181949	-32.977926	99.449142	0	905.7379836097818
1.9054607	3.6307805e-11	0.07	28227.897	59554.702	-0.035353147	-0.0066182108	-0.0066181934	-30.079386	90.698956	0	905.9134823014668
1.9054607	3.9810717e-11	0.07	25744.315	54316.211	-0.035166359	-0.0066182109	-0.0066181918	-27.435869	82.71869	0	906.088981939294
1.9054607	4.3651583e-11	0.07	23479.262	49538.643	-0.034979571	-0.006618211	-0.0066181901	-25.024936	75.440601	0	906.264481583698
1.9054607	4.7863009e-11	0.07	21413.509	45181.441	-0.034792783	-0.006618211	-0.0066181881	-22.826124	68.802906	0	906.439981247833
1.9054607	5.2480746e-11	0.07	19529.52	41207.618	-0.034605995	-0.0066182111	-0.006618186	-20.820766	62.749256	0	906.6154809185449
1.9054607	5.7543994e-11	0.07	17811.302	37583.439	-0.034419207	-0.0066182112	-0.0066181837	-18.991842	57.228261	0	906.7909806024105
1.9054607	6.3095734e-11	0.07	16244.268	34278.142	-0.034232419	-0.0066182113	-0.0066181812	-17.323826	52.193055	0	906.9664802994304
1.9054607	6.9183097e-11	0.07	14815.116	31263.666	-0.034045631	-0.0066182114	-0.0066181784	-15.802562	47.600892	0	907.1419800161809
1.9054607	7.5857758e-11	0.07	13511.714	28514.424	-0.033858844	-0.0066182116	-0.0066181753	-14.415136	43.412789	0	907.3174788130972
1.9054607	8.3176377e-11	0.07	12322.997	26007.076	-0.033672056	-0.0066182117	-0.006618172	-13.149772	39.593194	0	907.4929785627326
1.9054607	9.1201084e-11	0.07	11238.875	23720.341	-0.033485268	-0.0066182119	-0.0066181683	-11.99573	36.109682	0	907.6684783386758
1.9054607	1.e-10	0.07	10250.143	21634.805	-0.03329848	-0.0066182121	-0.0066181643	-10.943214	32.932681	0	907.8439781343499
1.9054607	1.0964782e-10	0.07	9348.4096	19732.765	-0.033111692	-0.0066182123	-0.0066181598	-9.9832923	30.035222	0	908.0194779629087
1.9054607	1.2022644e-10	0.07	8526.0186	17998.077	-0.032924904	-0.0066182125	-0.006618155	-9.1078167	27.392708	0	908.1949778111983
1.9054607	1.3182567e-10	0.07	7775.9889	16416.014	-0.032738116	-0.0066182127	-0.0066181497	-8.3093569	24.982706	0	908.370477692373
1.9054607	1.4454398e-10	0.07	7091.9538	14973.147	-0.032551328	-0.006618213	-0.0066181439	-7.5811366	22.784759	0	908.5459776064324
1.9054607	1.5848932e-10	0.07	6468.1064	13657.229	-0.032364541	-0.0066182133	-0.0066181375	-6.9169753	20.780207	0	908.7214766203882
1.9054607	1.7378008e-10	0.07	5899.1509	12457.089	-0.032177753	-0.0066182136	-0.0066181305	-6.3112367	18.952034	0	908.896976613371
1.9054607	1.9054607e-10	0.07	5380.2572	11362.54	-0.031990965	-0.0066182139	-0.0066181228	-5.7587799	17.28472	0	909.0724766523924
1.9054607	2.0892961e-10	0.07	4907.0206	10364.292	-0.031804177	-0.0066182142	-0.0066181143	-5.2549171	15.764112	0	909.2479767440296
1.9054607	2.2908677e-10	0.07	4475.4236	9453.8706	-0.031617389	-0.0066182147	-0.0066181051	-4.7953721	14.377301	0	909.4234768817055
1.9054607	2.5118864e-10	0.07	4081.8025	8623.5484	-0.031430601	-0.0066182151	-0.006618095	-4.3762458	13.112514	0	909.5989770785739
1.9054607	2.7542287e-10	0.07	3722.8158	7866.2774	-0.031243813	-0.0066182156	-0.0066180839	-3.9939815	11.959015	0	909.7744773412121
1.9054607	3.0199517e-10	0.07	3395.416	7175.63	-0.031057026	-0.0066182161	-0.0066180717	-3.645336	10.907011	0	909.9499767366314
1.9054607	3.3113112e-10	0.07	3096.8239	6545.7439	-0.030870238	-0.0066182167	-0.0066180584	-3.327351	9.9475722	0	910.1254771439625
1.9054607	3.6307805e-10	0.07	2824.5046	5971.2728	-0.03068345	-0.0066182174	-0.0066180438	-3.0373289	9.0725535	0	910.3009776367942
1.9054607	3.9810717e-10	0.07	2576.1465	5447.341	-0.030496662	-0.0066182181	-0.0066180277	-2.7728091	8.2745271	0	910.47647822828
1.9054607	4.3651583e-10	0.07	2349.6412	4969.5013	-0.030309874	-0.0066182188	-0.0066180101	-2.5315477	7.5467183	0	910.6519789184204
1.9054607	4.7863009e-10	0.07	2143.0658	4533.6982	-0.030123086	-0.0066182197	-0.0066179908	-2.3114983	6.8829486	0	910.8274797203688
1.9054607	5.2480746e-10	0.07	1954.6669	4136.2329	-0.029936299	-0.0066182206	-0.0066179697	-2.1107945	6.2775837	0	911.0029797011373
1.9054607	5.7543994e-10	0.07	1782.8451	3773.7322	-0.029749511	-0.0066182217	-0.0066179465	-1.9277339	5.7254842	0	911.1784807595873
1.9054607	6.3095734e-10	0.07	1626.1417	3443.1196	-0.029562723	-0.0066182227	-0.006617921	-1.7607643	5.2219636	0	911.3539819693073
1.9054607	6.9183097e-10	0.07	1483.2265	3141.5891	-0.029375935	-0.006618224	-0.0066178931	-1.6084697	4.7627472	0	911.5294833368741
1.9054607	7.5857758e-10	0.07	1352.8863	2866.582	-0.029189147	-0.0066182253	-0.0066178626	-1.469559	4.343937	0	911.704984875442
1.9054607	8.3176377e-10	0.07	1234.0147	2615.7644	-0.02900236	-0.0066182268	-0.0066178291	-1.3428545	3.9619775	0	911.8804856717531
1.9054607	9.1201084e-10	0.07	1125.6024	2387.0079	-0.028815572	-0.0066182284	-0.0066177923	-1.2272821	3.6136262	0	912.0559876246695
1.9054607	1.e-9	0.07	1026.7293	2178.3714	-0.028628784	-0.0066182302	-0.006617752	-1.1218625	3.2959262	0	912.231489807779
1.9054607	1.0964782e-9	0.07	936.55589	1988.0846	-0.028441996	-0.0066182321	-0.0066177078	-1.0257022	3.0061803	0	912.4069922473899
1.9054607	1.2022644e-9	0.07	854.31678	1814.5328	-0.028255208	-0.0066182342	-0.0066176593	-0.93798653	2.7419289	0	912.5824949698101
1.9054607	1.3182567e-9	0.07	779.31383	1656.2436	-0.028068421	-0.0066182366	-0.0066176062	-0.85797245	2.5009288	0	912.757997055205
1.9054607	1.4454398e-9	0.07	710.91032	1511.8741	-0.027881633	-0.0066182391	-0.006617548	-0.7849823	2.281134	0	912.9335004155901
1.9054607	1.5848932e-9	0.07	648.52558	1380.1993	-0.027694845	-0.0066182419	-0.0066174841	-0.71839807	2.0806788	0	913.1090041508617
1.9054607	1.7378008e-9	0.07	591.63002	1260.1025	-0.027508057	-0.006618245	-0.006617414	-0.65765608	1.8978615	0	913.2845082939045
1.9054607	1.9054607e-9	0.07	539.74066	1150.5647	-0.02732127	-0.0066182484	-0.0066173372	-0.6022423	1.7311301	0	913.4600119380384
1.9054607	2.0892961e-9	0.07	492.417	1050.657	-0.027134482	-0.0066182521	-0.006617253	-0.5516879	1.5790694	0	913.6355170084323
1.9054607	2.2908677e-9	0.07	449.25731	959.53199	-0.026947694	-0.0066182561	-0.0066171607	-0.5055653	1.4403882	0	913.8110226115599
1.9054607	2.5118864e-9	0.07	409.8952	876.41688	-0.026760907	-0.0066182606	-0.0066170594	-0.46348455	1.3139096	0	913.9865278670482
1.9054607	2.7542287e-9	0.07	373.99653	800.60688	-0.026574119	-0.0066182655	-0.0066169484	-0.42509001	1.1985597	0	914.162034700067
1.9054607	3.0199517e-9	0.07	341.25655	731.45924	-0.026387332	-0.0066182708	-0.0066168267	-0.39005734	1.0933593	0	914.3375412972545
1.9054607	3.3113112e-9	0.07	311.39735	668.38775	-0.026200544	-0.0066182767	-0.0066166933	-0.35809074	0.99741541	0	914.5130496035115
1.9054607	3.6307805e-9	0.07	284.16543	610.85776	-0.026013756	-0.0066182831	-0.0066165469	-0.32892041	0.90991356	0	914.688558764773
1.9054607	3.9810717e-9	0.07	259.32962	558.38168	-0.025826969	-0.0066182901	-0.0066163865	-0.30230031	0.83011093	0	914.8640679072432
1.9054607	4.3651583e-9	0.07	236.67909	510.51483	-0.025640182	-0.0066182978	-0.0066162105	-0.27800607	0.75733007	0	915.0395780757187
1.9054607	4.7863009e-9	0.07	216.02157	466.85163	-0.025453394	-0.0066183063	-0.0066160176	-0.25583301	0.69095313	0	915.2150902952654
1.9054607	5.2480746e-9	0.07	197.18169	427.02222	-0.025266607	-0.0066183156	-0.0066158061	-0.23559451	0.63041665	0	915.390602798561
1.9054607	5.7543994e-9	0.07	179.99951	390.68927	-0.025079819	-0.0066183258	-0.0066155742	-0.21712033	0.57520673	0	915.566117583121
1.9054607	6.3095734e-9	0.07	164.32918	357.54512	-0.024893032	-0.006618337	-0.0066153199	-0.20025525	0.52485469	0	915.7416329013543
1.9054607	6.9183097e-9	0.07	150.03767	327.30919	-0.024706245	-0.0066183492	-0.0066150411	-0.18485768	0.47893308	0	915.9171498309422
1.9054607	7.5857758e-9	0.07	137.00366	299.72559	-0.024519458	-0.0066183627	-0.0066147354	-0.17079849	0.43705208	0	916.0926685297314
1.9054607	8.3176377e-9	0.07	125.1165	274.56095	-0.024332671	-0.0066183774	-0.0066144001	-0.15795991	0.39885617	0	916.2681891753002
1.9054607	9.1201084e-9	0.07	114.27529	251.60242	-0.024145884	-0.0066183936	-0.0066140325	-0.14623456	0.36402109	0	916.4437119452264
1.9054607	1.e-8	0.07	104.38799	230.65589	-0.023959097	-0.0066184113	-0.0066136295	-0.13552447	0.33225112	0	916.6192370433954
1.9054607	1.0964782e-8	0.07	95.370661	211.54433	-0.02377231	-0.0066184307	-0.0066131876	-0.12574032	0.30327658	0	916.7947647000008
1.9054607	1.2022644e-8	0.07	87.146766	194.10628	-0.023585523	-0.006618452	-0.0066127031	-0.11680063	0.27685149	0	916.9702951583901
1.9054607	1.3182567e-8	0.07	79.646488	178.19448	-0.023398736	-0.0066184754	-0.0066121718	-0.10863109	0.25275153	0	917.1458286947955
1.9054607	1.4454398e-8	0.07	72.806156	163.67465	-0.02321195	-0.006618501	-0.0066115892	-0.10116395	0.23077211	0	917.3213646656146
1.9054607	1.5848932e-8	0.07	66.567701	150.42431	-0.023025163	-0.0066185291	-0.0066109505	-0.094337394	0.21072666	0	917.4969052656722
1.9054607	1.7378008e-8	0.07	60.878168	138.33175	-0.022838377	-0.0066185599	-0.0066102501	-0.088095064	0.192445	0	917.6724489841474
1.9054607	1.9054607e-8	0.07	55.689256	127.29511	-0.022651591	-0.0066185936	-0.0066094822	-0.082385551	0.17577194	0	917.8479971420688
1.9054607	2.0892961e-8	0.07	50.956916	117.22147	-0.022464805	-0.0066186307	-0.0066086402	-0.077161973	0.16056595	0	918.0235501735154
1.9054607	2.2908677e-8	0.07	46.640976	108.02611	-0.02227802	-0.0066186713	-0.006607717	-0.072381573	0.14669793	0	918.1991076058865
1.9054607	2.5118864e-8	0.07	42.704797	99.631738	-0.022091234	-0.0066187159	-0.0066067047	-0.068005355	0.13405016	0	918.3746718378918
1.9054607	2.7542287e-8	0.07	39.114965	91.967883	-0.021904449	-0.0066187648	-0.0066055947	-0.063997755	0.12251528	0	918.5502415560194
1.9054607	3.0199517e-8	0.07	35.841006	84.970267	-0.021717664	-0.0066188183	-0.0066043777	-0.060326338	0.11199537	0	918.7258183114913
1.9054607	3.3113112e-8	0.07	32.855127	78.58027	-0.021530879	-0.0066188771	-0.0066030433	-0.056961524	0.10240112	0	918.9014027883112
1.9054607	3.6307805e-8	0.07	30.131981	72.744427	-0.021344095	-0.0066189415	-0.0066015801	-0.053876333	0.093651084	0	919.076994796687
1.9054607	3.9810717e-8	0.07	27.64845	67.41398	-0.02115731	-0.0066190122	-0.0065999759	-0.051046161	0.085670983	0	919.2525970181382
1.9054607	4.3651583e-8	0.07	25.383453	62.54446	-0.020970527	-0.0066190898	-0.0065982168	-0.048448568	0.078393075	0	919.4282075481657
1.9054607	4.7863009e-8	0.07	23.317761	58.095312	-0.020783743	-0.0066191748	-0.0065962882	-0.046063088	0.071755577	0	919.6038301657014
1.9054607	5.2480746e-8	0.07	21.433839	54.029549	-0.02059696	-0.0066192681	-0.0065941735	-0.043871058	0.065702144	0	919.7794640833898
1.9054607	5.7543994e-8	0.07	19.715695	50.313438	-0.020410178	-0.0066193704	-0.0065918548	-0.041855454	0.060181387	0	919.9551104785058
1.9054607	6.3095734e-8	0.07	18.148742	46.916215	-0.020223396	-0.0066194827	-0.0065893125	-0.040000752	0.055146441	0	920.1307715796987
1.9054607	6.9183097e-8	0.07	16.719678	43.809823	-0.020036615	-0.0066196058	-0.006586525	-0.038292792	0.050554563	0	920.3064478680261
1.9054607	7.5857758e-8	0.07	15.416373	40.968672	-0.019849834	-0.0066197409	-0.0065834687	-0.036718661	0.046366774	0	920.482141835215
1.9054607	8.3176377e-8	0.07	14.227763	38.369427	-0.019663054	-0.0066198891	-0.0065801177	-0.035266583	0.042547522	0	920.6578542451321
1.9054607	9.1201084e-8	0.07	13.143757	35.990805	-0.019476275	-0.0066200517	-0.0065764435	-0.033925815	0.039064387	0	920.8335869722104
1.9054607	1.e-7	0.07	12.155154	33.813394	-0.019289497	-0.0066202301	-0.0065724152	-0.032686562	0.035887799	0	921.0093420487295
1.9054607	1.0964782e-7	0.07	11.25356	31.819493	-0.019102719	-0.0066204259	-0.0065679985	-0.03153989	0.032990793	0	921.1851226701516
1.9054607	1.2022644e-7	0.07	10.431323	29.992956	-0.018915943	-0.0066206408	-0.0065631561	-0.030477649	0.030348774	0	921.3609294105507
1.9054607	1.3182567e-7	0.07	9.6814618	28.319061	-0.018729168	-0.0066208767	-0.006557847	-0.029492409	0.027939316	0	921.5367659060449
1.9054607	1.4454398e-7	0.07	8.9976115	26.78438	-0.018542394	-0.0066211357	-0.0065520264	-0.028577391	0.025741965	0	921.7126351031113
1.9054607	1.5848932e-7	0.07	8.3739666	25.376666	-0.018355621	-0.00662142	-0.006545645	-0.027726413	0.023738065	0	921.8885402441896
1.9054607	1.7378008e-7	0.07	7.8052329	24.084751	-0.01816885	-0.0066217324	-0.0065386491	-0.026933836	0.021910608	0	922.0644839215406
1.9054607	1.9054607e-7	0.07	7.2865824	22.89845	-0.017982081	-0.0066220755	-0.0065309797	-0.026194519	0.020244078	0	922.2404700155695
1.9054607	2.0892961e-7	0.07	6.8136123	21.808473	-0.017795313	-0.0066224525	-0.0065225721	-0.02550377	0.018724328	0	922.4165037211328
1.9054607	2.2908677e-7	0.07	6.3823075	20.806351	-0.017608548	-0.006622867	-0.0065133558	-0.024857313	0.017338458	0	922.5925877958549
1.9054607	2.5118864e-7	0.07	5.9890065	19.884357	-0.017421785	-0.0066233227	-0.0065032534	-0.024251244	0.016074702	0	922.7687282698664
1.9054607	2.7542287e-7	0.07	5.6303703	19.035446	-0.017235024	-0.0066238242	-0.0064921803	-0.023682004	0.014922331	0	922.9449307072732
1.9054607	3.0199517e-7	0.07	5.3033546	18.253194	-0.017048267	-0.0066243762	-0.0064800441	-0.023146346	0.013871562	0	923.1211993060533
1.9054607	3.3113112e-7	0.07	5.005183	17.531741	-0.016861512	-0.0066249842	-0.0064667438	-0.02264131	0.012913475	0	923.2975425880643
1.9054607	3.6307805e-7	0.07	4.7333242	16.865745	-0.016674761	-0.0066256546	-0.0064521693	-0.022164194	0.012039935	0	923.4739659154056
1.9054607	3.9810717e-7	0.07	4.4854701	16.250333	-0.016488015	-0.0066263942	-0.0064362	-0.021712533	0.011243526	0	923.6504762803228
1.9054607	4.3651583e-7	0.07	4.2595163	15.681062	-0.016301272	-0.0066272111	-0.0064187052	-0.021284078	0.010517485	0	923.8270841580297
1.9054607	4.7863009e-7	0.07	4.0535443	15.15388	-0.016114535	-0.0066281144	-0.0063995422	-0.020876779	0.0098556467	0	924.0037961151488
1.9054607	5.2480746e-7	0.07	3.8658051	14.665092	-0.015927804	-0.0066291149	-0.006378556	-0.020488764	0.0092523898	0	924.180622345964
1.9054607	5.7543994e-7	0.07	3.694704	14.21133	-0.015741079	-0.0066302247	-0.0063555787	-0.020118324	0.0087025895	0	924.357573893187
1.9054607	6.3095734e-7	0.07	3.5387879	13.789521	-0.015554362	-0.0066314582	-0.0063304285	-0.019763901	0.0082015738	0	924.5346608345955
1.9054607	6.9183097e-7	0.07	3.3967317	13.396864	-0.015367653	-0.0066328323	-0.0063029093	-0.019424073	0.0077450832	0	924.7118960676033
1.9054607	7.5857758e-7	0.07	3.267328	13.030802	-0.015180955	-0.0066343669	-0.0062728099	-0.01909754	0.0073292346	0	924.8892906640482
1.9054607	8.3176377e-7	0.07	3.1494761	12.689007	-0.014994268	-0.006636086	-0.0062399046	-0.018783118	0.0069504871	0	925.0668594681235
1.9054607	9.1201084e-7	0.07	3.042173	12.369351	-0.014807596	-0.0066380182	-0.0062039526	-0.018479724	0.0066056115	0	925.2446145588812
1.9054607	1.e-6	0.07	2.9445042	12.069895	-0.01462094	-0.0066401982	-0.006164699	-0.018186369	0.0062916624	0	925.4225717614203
1.9054607	1.0964782e-6	0.07	2.855636	11.788868	-0.014434303	-0.0066426684	-0.0061218758	-0.017902151	0.006005951	0	925.600745883291
1.9054607	1.2022644e-6	0.07	2.7748081	11.524652	-0.01424769	-0.0066454808	-0.0060752046	-0.017626244	0.0057460216	0	925.779150536916
1.9054607	1.3182567e-6	0.07	2.7013266	11.275768	-0.014061106	-0.0066486994	-0.0060243991	-0.017357895	0.0055096283	0	925.9577998542975
1.9054607	1.4454398e-6	0.07	2.634558	11.040862	-0.013874555	-0.0066524037	-0.0059691704	-0.017096415	0.0052947133	0	926.1367090780047
1.9054607	1.5848932e-6	0.07	2.5739227	10.818692	-0.013688047	-0.0066566926	-0.0059092329	-0.016841175	0.0050993868	0	926.315887596174
1.9054607	1.7378008e-6	0.07	2.5188899	10.608115	-0.013501589	-0.0066616899	-0.005844313	-0.016591601	0.0049219064	0	926.495346826404
1.9054607	1.9054607e-6	0.07	2.468972	10.408076	-0.013315194	-0.0066675501	-0.0057741598	-0.016347166	0.0047606582	0	926.6750910559309
1.9054607	2.0892961e-6	0.07	2.423719	10.217598	-0.013128877	-0.0066744667	-0.0056985592	-0.016107393	0.0046141371	0	926.8551202725408
1.9054607	2.2908677e-6	0.07	2.3827145	10.035767	-0.012942655	-0.0066826819	-0.0056173508	-0.015871845	0.004480928	0	927.0354290530623
1.9054607	2.5118864e-6	0.07	2.34557	9.8617241	-0.01275655	-0.0066924975	-0.0055304477	-0.015640123	0.0043596862	0	927.2160024424339
1.9054607	2.7542287e-6	0.07	2.3119207	9.6946544	-0.012570591	-0.006704288	-0.0054378595	-0.015411869	0.0042491193	0	927.3968125618723
1.9054607	3.0199517e-6	0.07	2.2814212	9.5337773	-0.012384809	-0.0067185145	-0.005339717	-0.015186756	0.0041479697	0	927.5778216821914
1.9054607	3.3113112e-6	0.07	2.253742	9.3783381	-0.012199244	-0.0067357393	-0.0052362975	-0.014964492	0.0040549993	0	927.758973982874
1.9054607	3.6307805e-6	0.07	2.2285663	9.2276021	-0.012013941	-0.0067566378	-0.0051280474	-0.014744816	0.0039689791	0	927.9401978239418
1.9054607	3.9810717e-6	0.07	2.2055886	9.0808526	-0.011828949	-0.0067820074	-0.0050155996	-0.014527498	0.0038886858	0	928.1214055411285
1.9054607	4.3651583e-6	0.07	2.1845144	8.9373932	-0.011644325	-0.0068127678	-0.00489978	-0.014312336	0.0038129081	0	928.3024892601175
1.9054607	4.7863009e-6	0.07	2.1650631	8.7965572	-0.011460123	-0.0068499503	-0.0047815996	-0.014099159	0.0037404668	0	928.4833317513405
1.9054607	5.2480746e-6	0.07	2.1469719	8.6577241	-0.011276395	-0.0068946703	-0.0046622256	-0.01388782	0.0036702494	0	928.6638073911516
1.9054607	5.7543994e-6	0.07	2.1300027	8.5203424	-0.011093183	-0.0069480849	-0.0045429336	-0.013678197	0.0036012585	0	928.8437928221372
1.9054607	6.3095734e-6	0.07	2.1139504	8.3839558	-0.010910515	-0.0070113331	-0.0044250383	-0.013470191	0.003532669	0	929.0231752692075
1.9054607	6.9183097e-6	0.07	2.09865	8.2482293	-0.010728395	-0.0070854674	-0.0043098126	-0.013263721	0.0034638827	0	929.20186725601
1.9054607	7.5857758e-6	0.07	2.0839831	8.1129676	-0.010546802	-0.0071713854	-0.0041984047	-0.013058719	0.0033945709	0	929.3798129967913
1.9054607	8.3176377e-6	0.07	2.0698791	7.9781208	-0.010365686	-0.0072697725	-0.0040917663	-0.012855127	0.0033246906	0	929.5569968769154
1.9054607	9.1201084e-6	0.07	2.0563132	7.8437751	-0.010184969	-0.0073810653	-0.0039906009	-0.012652891	0.0032544704	0	929.7334459135835
1.9054607	0.00001	0.07	2.0432991	7.7101289	-0.010004556	-0.0075054401	-0.0038953396	-0.012451958	0.0031843658	0	929.9092210122402
1.9054607	0.000010964782	0.07	2.030879	7.5774587	-0.0098243326	-0.0076428252	-0.0038061431	-0.012252272	0.0031149935	0	930.0844190899913
1.9054607	0.000012022644	0.07	2.0172516	7.4484385	-0.0096489675	-0.0077926432	-0.0037226358	-0.012056557	0.0030490522	0	930.2546783011394
1.9054607	0.000013182567	0.07	2.0060845	7.3188596	-0.0094691597	-0.0079539758	-0.0036440648	-0.011859364	0.0029834561	0	930.4287870609171
1.9054607	0.000014454398	0.07	1.9956791	7.1911609	-0.0092892425	-0.0081268545	-0.0035705876	-0.011663229	0.0029206156	0	930.6026635920856
1.9054607	0.000015848932	0.07	1.9860863	7.0655877	-0.0091091264	-0.0083105938	-0.003501604	-0.011468074	0.0028611049	0	930.7764314606421
1.9054607	0.000017378008	0.07	1.977344	6.942328	-0.008928738	-0.0085044556	-0.003436421	-0.011273818	0.0028053871	0	930.9502052089987
1.9054607	0.000019054607	0.07	1.9694755	6.8215082	-0.0087480205	-0.0087076796	-0.0033742844	-0.011080376	0.0027538034	0	931.1240878078803
1.9054607	0.000020892961	0.07	1.9624897	6.703195	-0.0085669338	-0.0089195074	-0.0033144047	-0.010887663	0.0027065749	0	931.2981688589364
1.9054607	0.000022908677	0.07	1.956382	6.5874008	-0.0083854524	-0.0091392005	-0.003255978	-0.010695591	0.0026638133	0	931.4725251932441
1.9054607	0.000025118864	0.07	1.9511366	6.4740915	-0.0082035641	-0.0093660528	-0.0031982014	-0.010504076	0.0026255348	0	931.6472210798927
1.9054607	0.000027542287	0.07	1.9467285	6.3631957	-0.0080212673	-0.0095993993	-0.0031402838	-0.010313033	0.0025916782	0	931.8223100524966
1.9054607	0.000030199517	0.07	1.943126	6.2546135	-0.0078385693	-0.0098386217	-0.0030814545	-0.010122383	0.0025621212	0	931.9978359408399
1.9054607	0.000033113112	0.07	1.9402927	6.1482247	-0.0076554838	-0.010083151	-0.0030209682	-0.0099320476	0.0025366972	0	932.1738348909415
1.9054607	0.000036307805	0.07	1.9381894	6.0438956	-0.0074720292	-0.010332469	-0.0029581083	-0.0097419542	0.0025152089	0	932.3503367452756
1.9054607	0.000039810717	0.07	1.9367755	5.9414857	-0.0072882269	-0.010586108	-0.0028921892	-0.0095520327	0.0024974406	0	932.5273664887645
1.9054607	0.000043651583	0.07	1.9360104	5.8408517	-0.0071041005	-0.01084365	-0.0028225569	-0.0093622178	0.0024831674	0	932.7049449609672
1.9054607	0.000047863009	0.07	1.9358542	5.7418515	-0.0069196744	-0.011104728	-0.0027485888	-0.0091724477	0.0024721628	0	932.8830901846266
1.9054607	0.000052480746	0.07	1.9362681	5.6443466	-0.0067349734	-0.011369018	-0.0026696945	-0.0089826646	0.0024642037	0	933.0618176888783
1.9054607	0.000057543994	0.07	1.9372152	5.5482039	-0.0065500218	-0.011636247	-0.0025853157	-0.0087928145	0.002459074	0	933.2411413614382
1.9054607	0.000063095734	0.07	1.9386595	5.4532956	-0.0063648442	-0.011906187	-0.0024949271	-0.008602847	0.0024565653	0	933.421072637756
1.9054607	0.000069183097	0.07	1.9405664	5.359499	-0.0061794647	-0.012178661	-0.0023980402	-0.0084127148	0.0024564758	0	933.6016210027439
1.9054607	0.000075857758	0.07	1.9429003	5.2666935	-0.0059939083	-0.012453549	-0.0022942116	-0.0082223746	0.0024586043	0	933.7827921294976
1.9054607	0.000083176377	0.07	1.9456221	5.1747517	-0.0058082032	-0.012730814	-0.0021830676	-0.0080317862	0.0024627326	0	933.9645841003642
1.9054607	0.000091201084	0.07	1.9486774	5.0835101	-0.0056223873	-0.013010578	-0.002064381	-0.007840914	0.0024685646	0	934.146976248664
1.9054607	0.0001	0.07	1.9519544	4.9926488	-0.0054365354	-0.013293432	-0.0019383825	-0.0076497301	0.0024754795	0	934.3298831218683
1.9054607	0.00010964782	0.07	1.9550931	4.9011383	-0.0052508766	-0.013581842	-0.001807164	-0.0074582265	0.0024813978	0	934.5129518821825
1.9054607	0.00012022644	0.07	1.9567474	4.8050711	-0.0050662417	-0.01388573	-0.0016802655	-0.0072664695	0.0024783283	0	934.6947744969727
1.9054607	0.00013182567	0.07	1.9539169	4.6956796	-0.0048844583	-0.014229098	-0.0015812888	-0.0070747452	0.0024482041	0	934.8720815362625
1.9054607	0.00014454398	0.07	1.9459999	4.571308	-0.0047058816	-0.014623737	-0.0015216178	-0.0068835652	0.0023871554	0	935.0437905521799
1.9054607	0.00015848932	0.07	1.9361527	4.4413505	-0.0045285776	-0.015054753	-0.0014859347	-0.0066932828	0.0023138809	0	935.2127261092999
1.9054607	0.00017378008	0.07	1.9267868	4.3128866	-0.0043510557	-0.015508019	-0.0014596804	-0.0065039548	0.002242681	0	935.3812462695458
1.9054607	0.00019054607	0.07	1.9189226	4.1888396	-0.0041726741	-0.015976138	-0.0014350092	-0.0063154761	0.0021795896	0	935.5504700543099
1.9054607	0.00020892961	0.07	1.9128758	4.0700671	-0.0039932343	-0.016455222	-0.0014075732	-0.0061276801	0.0021265122	0	935.7208699268468
1.9054607	0.00022908677	0.07	1.9086377	3.9565145	-0.0038127594	-0.016942988	-0.0013746144	-0.0059403873	0.0020835175	0	935.8926055756834
1.9054607	0.00025118864	0.07	1.9060325	3.8477063	-0.0036314052	-0.017437941	-0.0013341513	-0.005753428	0.0020498112	0	936.0656609389504
1.9054607	0.00027542287	0.07	1.9047742	3.7429473	-0.0034494398	-0.017939009	-0.001284608	-0.0055666553	0.0020241303	0	936.2398877654498
1.9054607	0.00030199517	0.07	1.9044461	3.6413551	-0.0032672951	-0.018445257	-0.0012245341	-0.0053799562	0.0020047979	0	936.4149756490974
1.9054607	0.00033113112	0.07	1.9043077	3.5416194	-0.0030858412	-0.018955198	-0.0011519093	-0.0051932713	0.0019892166	0	936.5902399483539
1.9054607	0.00036307805	0.07	1.9024711	3.4408585	-0.0029075147	-0.019464101	-0.0010614562	-0.0050066584	0.0019714839	0	936.7637384106399
1.9054607	0.00039810717	0.07	1.8938974	3.3317933	-0.002739085	-0.01995788	-0.00093852461	-0.0048204982	0.0019364573	0	936.9300742790379
1.9054607	0.00043651583	0.07	1.8732099	3.2067499	-0.0025880552	-0.020425586	-0.00077158522	-0.0046357645	0.0018676	0	937.0829561785827
1.9054607	0.00047863009	0.07	1.8487625	3.0775408	-0.002443285	-0.020913135	-0.00060595603	-0.0044533804	0.001787945	0	937.2298706035663
1.9054607	0.00052480746	0.07	1.836783	2.9670608	-0.0022818584	-0.021495032	-0.00051552828	-0.0042728738	0.0017443957	0	937.3874888381351
1.9054607	0.00057543994	0.07	1.8382543	2.8767001	-0.0021020833	-0.022160804	-0.00048919541	-0.0040928214	0.0017411944	0	937.5581311945432
1.9054607	0.00063095734	0.07	1.8456901	2.7956499	-0.0019145667	-0.022860014	-0.00047586835	-0.0039122859	0.0017573582	0	937.7351918095186
1.9054607	0.00069183097	0.07	1.8556811	2.7187145	-0.001724052	-0.023571908	-0.00045412332	-0.0037308827	0.0017827345	0	937.9156229816747
1.9054607	0.00075857758	0.07	1.8672421	2.6441852	-0.0015318187	-0.024291127	-0.00041790837	-0.003548419	0.0018140511	0	938.098620571323
1.9054607	0.00083176377	0.07	1.8800398	2.5713526	-0.0013382423	-0.025016155	-0.00036499664	-0.0033647597	0.0018500041	0	938.2839782313089
1.9054607	0.00091201084	0.07	1.8939312	2.4998296	-0.0011434482	-0.025746491	-0.00029415409	-0.0031797915	0.001889922	0	938.4716593024232
1.9054607	0.001	0.07	1.9088491	2.4293729	-0.00094746667	-0.026481999	-0.00020449012	-0.0029934109	0.0019334147	0	938.6616939184062
1.9054607	0.0010964782	0.07	1.9247672	2.3598206	-0.00075027744	-0.027222731	-0.00009527797	-0.0028055188	0.0019802531	0	938.8541489229432
1.9054607	0.0012022644	0.07	1.9416862	2.291064	-0.0005518258	-0.02796886	0.000034109708	-0.0026160173	0.0020303146	0	939.0491169800654
1.9054607	0.0013182567	0.07	1.9596264	2.223031	-0.00035203025	-0.028720653	0.00018422996	-0.0024248075	0.002083552	0	939.2467113010274
1.9054607	0.0014454398	0.07	1.9786237	2.1556763	-0.00015078593	-0.02947846	0.00035558462	-0.0022317876	0.0021399749	0	939.4470634140605
1.9054607	0.0015848932	0.07	1.9987271	2.088974	0.000052033606	-0.030242702	0.00054862707	-0.0020368516	0.002199637	0	939.650321942186
1.9054607	0.0017378008	0.07	2.0199978	2.0229135	0.00025657578	-0.03101387	0.00076376915	-0.0018398883	0.002262628	0	939.8566524845488
1.9054607	0.0019054607	0.07	2.0425078	1.9574957	0.00046300959	-0.031792526	0.0010013784	-0.0016407797	0.0023290679	0	940.0662379987631
1.9054607	0.0020892961	0.07	2.0663405	1.8927314	0.00067152629	-0.032579302	0.0012617812	-0.0014394005	0.0023991035	0	940.279279646334
1.9054607	0.0022908677	0.07	2.0915903	1.8286388	0.00088234093	-0.033374902	0.0015452595	-0.0012356164	0.0024729063	0	940.4959980245218
1.9054607	0.0025118864	0.07	2.1183633	1.7652429	0.0010956937	-0.034180108	0.0018520498	-0.0010292833	0.0025506709	0	940.716634362032
1.9054607	0.0027542287	0.07	2.1467772	1.702574	0.0013118517	-0.034995777	0.0021823425	-0.00082024632	0.0026326139	0	940.9414521392968
1.9054607	0.0030199517	0.07	2.1769623	1.6406671	0.0015311107	-0.035822845	0.0025362812	-0.00060833829	0.0027189734	0	941.1707386960705
1.9054607	0.0033113112	0.07	2.2090616	1.5795612	0.0017537964	-0.036662327	0.0029139647	-0.0003933787	0.0028100087	0	941.4048065468218
1.9054607	0.0036307805	0.07	2.2432307	1.5192977	0.0019802659	-0.037515315	0.0033154489	-0.00017517233	0.0029059994	0	941.6439948868559
1.9054607	0.0039810717	0.07	2.2796382	1.4599201	0.0022109081	-0.038382972	0.0037407516	0.000046491804	0.0030072442	0	941.8886702838365
1.9054607	0.0043651583	0.07	2.3184649	1.4014718	0.0024461452	-0.039266538	0.0041898538	0.00027184193	0.0031140598	0	942.139228172632
1.9054607	0.0047863009	0.07	2.3599043	1.3439952	0.0026864342	-0.040167335	0.0046626886	0.00050112459	0.0032267787	0	942.3960935346229
1.9054607	0.0052480746	0.07	2.4041642	1.2875298	0.0029322734	-0.04108681	0.0051591032	0.00073460591	0.0033457467	0	942.6597245056321
1.9054607	0.0057543994	0.07	2.4514728	1.2321107	0.0031842169	-0.042026642	0.0056787536	0.0009725734	0.0034713229	0	942.9306190740867
1.9054607	0.0063095734	0.07	2.5020927	1.1777696	0.0034429086	-0.042988963	0.0062208844	0.0012153384	0.0036038829	0	943.2093325437787
1.9054607	0.0069183097	0.07	2.5563507	1.1245392	0.0037091462	-0.043976762	0.0067839238	0.0014632408	0.0037438329	0	943.4965110293706
1.9054607	0.0075857758	0.07	2.6146845	1.0724639	0.0039839815	-0.044994485	0.0073648889	0.0017166576	0.0038916398	0	943.7929465816337
1.9054607	0.0083176377	0.07	2.6777002	1.0216166	0.0042688369	-0.046048638	0.0079587788	0.0019760165	0.0040478791	0	944.0996467312568
1.9054607	0.0091201084	0.07	2.7462	0.9721128	0.0045655592	-0.047147859	0.0085585103	0.0022418141	0.0042132818	0	944.4178808084786
1.9054607	0.01	0.07	2.8211225	0.92410229	0.0048762869	-0.048301701	0.0091561308	0.0025146335	0.0043887348	0	944.7491350346812
1.9054607	0.010964782	0.07	2.9033786	0.87772618	0.0052031124	-0.049518211	0.0097452463	0.0027951501	0.0045751995	0	945.0949548257439
1.9054607	0.012022644	0.07	2.9936962	0.83306536	0.0055477787	-0.050802118	0.010322827	0.00308412	0.0047735963	0	945.456778575415
1.9054607	0.013182567	0.07	3.0926061	0.79012876	0.0059116775	-0.052155307	0.010888745	0.0033823611	0.0049847609	0	945.8359054648637
1.9054607	0.014454398	0.07	3.200532	0.74888339	0.0062960562	-0.053578631	0.011443955	0.0036907367	0.0052094899	0	946.2335702981198
1.9054607	0.015848932	0.07	3.3178529	0.70928781	0.0067021595	-0.055073075	0.011989339	0.0040101496	0.005448602	0	946.6510005609397
1.9054607	0.017378008	0.07	3.4448841	0.67130726	0.0071312023	-0.056639738	0.012525718	0.0043415369	0.0057029639	0	947.0893917280873
1.9054607	0.019054607	0.07	3.5817991	0.63491426	0.0075842294	-0.058279145	0.013054551	0.0046858607	0.0059734818	0	947.5498214152497
1.9054607	0.020892961	0.07	3.7285196	0.60008449	0.0080619136	-0.059990318	0.01357886	0.0050440886	0.0062610741	0	948.0331205176487
1.9054607	0.022908677	0.07	3.8845841	0.56679253	0.0085643179	-0.061769824	0.014104184	0.0054171628	0.0065666315	0	948.5397125255743
1.9054607	0.025118864	0.07	4.048999	0.53500929	0.0090906244	-0.063610794	0.014639566	0.0058059556	0.0068909671	0	949.0694237227892
1.9054607	0.027542287	0.07	4.2200768	0.50470132	0.0096388348	-0.065501974	0.015198498	0.0062112094	0.0072347556	0	949.6212639389532
1.9054607	0.030199517	0.07	4.3952713	0.47583241	0.010205457	-0.067426852	0.015799805	0.0066334599	0.0075984593	0	950.1931902301479
1.9054607	0.033113112	0.07	4.5710253	0.44836948	0.010785205	-0.069362968	0.016468325	0.0070729453	0.0079822492	0	950.7818696386242
1.9054607	0.036307805	0.07	4.7426274	0.42230198	0.011370705	-0.07128145	0.017235387	0.0075294996	0.008385938	0	951.3824344924044
1.9054607	0.039810717	0.07	4.6267332	0.40094755	0.011653125	-0.073049011	0.018236809	0.0080053681	0.0088184992	0	951.7136496373864
1.9054607	0.043651583	0.07	4.256524	0.38440349	0.011635378	-0.074841366	0.019299486	0.0084560302	0.0092356096	0	951.766866985241
1.9054607	0.047863009	0.07	3.9188891	0.36931513	0.011619192	-0.076815965	0.020268659	0.008867039	0.0096160188	0	951.8154012763126
1.9054607	0.052480746	0.07	3.6109625	0.35555438	0.011604431	-0.078967356	0.021152556	0.0092418834	0.0099629561	0	951.8596658817733
1.9054607	0.057543994	0.07	3.3301301	0.34300443	0.011590969	-0.081290897	0.021958679	0.0095837456	0.010279367	0	951.9000358197362
1.9054607	0.063095734	0.07	3.0740079	0.33155874	0.011578691	-0.083782694	0.022693872	0.0098955276	0.010567937	0	951.9368531671541
1.9054607	0.069183097	0.07	2.8404216	0.32112014	0.011567493	-0.086439549	0.023364376	0.010179876	0.010831115	0	951.9704306771455
1.9054607	0.075857758	0.07	2.7793547	0.30571148	0.011768126	-0.089856335	0.023378454	0.01044649	0.01106648	0	952.1598643960817
1.9054607	0.083176377	0.07	3.036687	0.28383854	0.012372863	-0.094069467	0.022702925	0.010730055	0.011305686	0	952.6836250722523
1.9054607	0.091201084	0.07	3.5113718	0.26309116	0.013235732	-0.098270933	0.022149135	0.011048941	0.011582496	0	953.4579243535791
1.9054607	0.1	0.07	4.2758236	0.24344506	0.014460206	-0.10248718	0.021694077	0.011427939	0.011921651	0	954.5784687249225
1.9054607	0.10964782	0.07	5.4095869	0.22487984	0.016166471	-0.10676847	0.021291031	0.011899301	0.012355362	0	956.155108032916
1.9054607	0.12022644	0.07	6.9977295	0.20737857	0.018490439	-0.1111905	0.020867959	0.012503359	0.012923928	0	958.310802574802
1.9054607	0.13182567	0.07	9.1303969	0.19092725	0.021583693	-0.11585308	0.020328822	0.013289029	0.013676234	0	961.1816580408638
1.9054607	0.14454398	0.07	11.904261	0.17551427	0.025615268	-0.12087569	0.019558024	0.014314363	0.01467031	0	964.9188911603044
1.9054607	0.15848932	0.07	15.425933	0.16112969	0.030775584	-0.1263905	0.018427402	0.015647343	0.015974117	0	969.6929847410947
1.9054607	0.17378008	0.07	19.81643	0.14776445	0.037281794	-0.13253379	0.016804809	0.017367069	0.017666739	0	975.6992769657217
1.9054607	0.19054607	0.07	25.214836	0.13540941	0.045382637	-0.13943664	0.014563427	0.019565373	0.019839987	0	983.1631336138796
1.9054607	0.20892961	0.07	31.778722	0.12405387	0.055360035	-0.14721533	0.011591379	0.022348641	0.022600225	0	992.3420807254855
1.9054607	0.22908677	0.07	39.678877	0.11368381	0.067524419	-0.15596157	0.0078014746	0.025839424	0.026069977	0	1003.522054036196
1.9054607	0.25118864	0.07	49.086782	0.1042794	0.082201468	-0.16573297	0.0031407681	0.030177183	0.030388665	0	1017.005568033474
1.9054607	0.27542287	0.07	60.15512	0.095812327	0.099709948	-0.17654482	-0.0024011864	0.035517452	0.035711762	0	1033.0914371832787
1.9054607	0.30199517	0.07	72.99433	0.088243456	0.12033343	-0.18836497	-0.0087872993	0.042028852	0.042207812	0	1052.0485343386854
1.9054607	0.33113112	0.07	87.65083	0.081521492	0.14429188	-0.20111429	-0.015933298	0.049887848	0.050053176	0	1074.089074504516
1.9054607	0.36307805	0.07	104.09344	0.075583507	0.17172067	-0.21467354	-0.023714681	0.059271715	0.059425001	0	1099.3484369320113
1.9054607	0.39810717	0.07	122.21254	0.070357362	0.20266284	-0.22889628	-0.031979538	0.070350778	0.070493464	0	1127.8770515896274
1.9054607	0.43651583	0.07	141.83233	0.065765588	0.237076	-0.24362481	-0.040564569	0.083281223	0.083414597	0	1159.6458304736939
1.9054607	0.47863009	0.07	162.73207	0.061729749	0.27485068	-0.25870593	-0.049310777	0.098199609	0.098324798	0	1194.5623765303837
1.9054607	0.52480746	0.07	184.67052	0.058174359	0.31583386	-0.27400343	-0.058075978	0.11521965	0.11533763	0	1232.4922688510196
1.9054607	0.57543994	0.07	207.4078	0.055029754	0.359852	-0.28940599	-0.066742706	0.13443133	0.13454294	0	1273.2801809536015
1.9054607	0.63095734	0.07	230.72188	0.052233746	0.40672975	-0.30483061	-0.075221602	0.15590188	0.15600781	0	1316.767237157414
1.9054607	0.69183097	0.07	254.41868	0.04973222	0.45630303	-0.32022237	-0.083451204	0.17967806	0.17977892	0	1362.8033159094177
1.9054607	0.75857758	0.07	278.33677	0.047478973	0.50842682	-0.33555187	-0.091395355	0.20578922	0.2058855	0	1411.2545394730603
1.9054607	0.83176377	0.07	302.34798	0.045435098	0.56297882	-0.35081135	-0.09903933	0.23425048	0.23434263	0	1462.0069674630217
1.9054607	0.91201084	0.07	326.35549	0.043568141	0.6198603	-0.36601035	-0.1063855	0.265066	0.26515436	0	1514.9676806526352
1.9054607	1.	0.07	350.29058	0.041851214	0.67899521	-0.3811715	-0.11344909	0.29823183	0.2983167	0	1570.064223755261
1.9054607	1.0964782	0.07	374.10875	0.040262129	0.74032845	-0.39632672	-0.12025439	0.3337385	0.33382015	0	1627.2432291771502
1.9054607	1.2022644	0.07	397.78587	0.038782622	0.80382365	-0.411514	-0.1268315	0.37157322	0.37165187	0	1686.4685452623305
1.9054607	1.3182567	0.07	421.3146	0.037397672	0.86946101	-0.4267748	-0.1332138	0.41172168	0.41179753	0	1747.7193732284754
1.9054607	1.4454398	0.07	444.70109	0.036094922	0.93723517	-0.44215215	-0.13943592	0.45416954	0.45424274	0	1810.9883994049433
1.9054607	1.5848932	0.07	467.96226	0.034864193	1.0071534	-0.4576892	-0.14553239	0.4989036	0.49897431	0	1876.2801834084216
1.9054607	1.7378008	0.07	491.12341	0.033697085	1.0792337	-0.47342826	-0.15153661	0.54591277	0.5459811	0	1943.6094407114224
1.9054607	1.9054607	0.07	514.21627	0.032586642	1.153504	-0.48941019	-0.15748028	0.59518874	0.59525482	0	2013.000328478659
1.9054607	2.0892961	0.07	537.2774	0.03152708	1.2300002	-0.5056741	-0.16339305	0.64672657	0.64679051	0	2084.4846270383127
1.9054607	2.2908677	0.07	560.34686	0.030513575	1.3087657	-0.52225719	-0.16930235	0.70052511	0.70058699	0	2158.101309467145
1.9054607	2.5118864	0.07	583.46723	0.029542073	1.3898505	-0.53919479	-0.17523345	0.75658723	0.75664714	0	2233.895692035508
1.9054607	2.7542287	0.07	606.68272	0.028609155	1.4733105	-0.55652044	-0.18120952	0.81492009	0.81497811	0	2311.9187725654256
1.9054607	3.0199517	0.07	630.0386	0.027711912	1.5592067	-0.57426602	-0.18725174	0.87553521	0.87559141	0	2392.2264715436604
1.9054607	3.3113112	0.07	653.58065	0.026847858	1.6476054	-0.592462	-0.19337954	0.9384486	0.93850305	0	2474.879804250084
1.9054607	3.6307805	0.07	677.35479	0.026014848	1.7385771	-0.61113756	-0.19961075	1.0036808	1.0037335	0	2559.9438373703592
1.9054607	3.9810717	0.07	701.40687	0.025211017	1.8321967	-0.63032087	-0.20596177	1.0712567	1.0713078	0	2647.4878657281774
1.9054607	4.3651583	0.07	725.7824	0.024434734	1.9285434	-0.6500392	-0.21244781	1.1412059	1.1412555	0	2737.585302544033
1.9054607	4.7863009	0.07	750.52645	0.023684556	2.0276998	-0.67031915	-0.21908297	1.2135623	1.2136103	0	2830.312828564834
1.9054607	5.2480746	0.07	775.6836	0.022959201	2.1297528	-0.69118681	-0.2258805	1.2883641	1.2884107	0	2925.7512205726325
1.9054607	5.7543994	0.07	801.29782	0.022257516	2.2347927	-0.7126679	-0.23285283	1.3656541	1.3656993	0	3023.984503802724
1.9054607	6.3095734	0.07	827.41256	0.02157846	2.3429134	-0.73478791	-0.2400118	1.4454792	1.445523	0	3125.100124729711
1.9054607	6.9183097	0.07	854.07069	0.020921084	2.4542125	-0.75757224	-0.24736871	1.5278905	1.527933	0	3229.189041735561
1.9054607	7.5857758	0.07	881.31456	0.020284517	2.5687913	-0.78104632	-0.25493441	1.6129435	1.6129846	0	3336.345719190346
1.9054607	8.3176377	0.07	909.18607	0.019667955	2.6867545	-0.80523566	-0.26271947	1.7006975	1.7007374	0	3446.667834401809
1.9054607	9.1201084	0.07	937.72668	0.01907065	2.8082106	-0.83016603	-0.27073414	1.7912161	1.7912548	0	3560.256656072286
1.9054607	10.	0.07	966.97753	0.018491906	2.9332716	-0.85586347	-0.27898855	1.884567	1.8846045	0	3677.216749275188