1.	1.e-12	0.35	75891.896	308462.87	-0.021726717	-0.0020331835	-0.0020331746	-80.795847	247.50795	0	918.483074395913
1.	1.0964782e-12	0.35	69214.319	281323.42	-0.021628689	-0.0020331835	-0.0020331737	-73.688658	225.73003	0	918.5751784040059
1.	1.2022644e-12	0.35	63124.297	256571.94	-0.021530661	-0.0020331835	-0.0020331728	-67.206815	205.86833	0	918.6672824120988
1.	1.3182567e-12	0.35	57570.131	233998.32	-0.021432634	-0.0020331835	-0.0020331718	-61.295297	187.75425	0	918.7593855135111
1.	1.4454398e-12	0.35	52504.672	213410.93	-0.021334606	-0.0020331835	-0.0020331706	-55.90392	171.23401	0	918.8514896202582
1.	1.5848932e-12	0.35	47884.917	194634.99	-0.021236578	-0.0020331835	-0.0020331694	-50.986916	156.16737	0	918.9435937270055
1.	1.7378008e-12	0.35	43671.652	177511.12	-0.021138551	-0.0020331835	-0.002033168	-46.502547	142.42643	0	919.0356969599571
1.	1.9054607e-12	0.35	39829.108	161893.96	-0.021040523	-0.0020331835	-0.0020331665	-42.412745	129.89455	0	919.1278011653587
1.	2.0892961e-12	0.35	36324.666	147650.93	-0.020942495	-0.0020331836	-0.0020331649	-38.682793	118.46533	0	919.219905403645
1.	2.2908677e-12	0.35	33128.577	134661.13	-0.020844468	-0.0020331836	-0.0020331631	-35.281027	108.04177	0	919.3120087681357
1.	2.5118864e-12	0.35	30213.71	122814.28	-0.02074644	-0.0020331836	-0.0020331611	-32.178572	98.535361	0	919.4041131379612
1.	2.7542287e-12	0.35	27555.318	112009.82	-0.020648412	-0.0020331836	-0.002033159	-29.34909	89.865415	0	919.4962175406715
1.	3.0199517e-12	0.35	25130.837	102156.02	-0.020550385	-0.0020331836	-0.0020331566	-26.768563	81.958331	0	919.5883211024709
1.	3.3113112e-12	0.35	22919.684	93169.245	-0.020452357	-0.0020331836	-0.002033154	-24.415086	74.746985	0	919.6804256696053
1.	3.6307805e-12	0.35	20903.088	84973.2	-0.020354329	-0.0020331836	-0.0020331512	-22.268681	68.170159	0	919.772530302509
1.	3.9810717e-12	0.35	19063.931	77498.31	-0.020256302	-0.0020331836	-0.002033148	-20.311128	62.172023	0	919.8646341273867
1.	4.3651583e-12	0.35	17386.6	70681.12	-0.020158274	-0.0020331836	-0.0020331446	-18.525809	56.701657	0	919.9567389575993
1.	4.7863009e-12	0.35	15856.855	64463.76	-0.020060246	-0.0020331836	-0.0020331409	-16.897571	51.712623	0	920.0488438864661
1.	5.2480746e-12	0.35	14461.712	58793.454	-0.019962219	-0.0020331836	-0.0020331368	-15.412591	47.162571	0	920.1409480073069
1.	5.7543994e-12	0.35	13189.326	53622.065	-0.019864191	-0.0020331836	-0.0020331323	-14.058265	43.012875	0	920.233053199252
1.	6.3095734e-12	0.35	12028.896	48905.693	-0.019766163	-0.0020331837	-0.0020331273	-12.823096	39.228306	0	920.3251585556212
1.	6.9183097e-12	0.35	10970.572	44604.304	-0.019668136	-0.0020331837	-0.0020331219	-11.6966	35.776739	0	920.4172631039644
1.	7.5857758e-12	0.35	10005.368	40681.382	-0.019570108	-0.0020331837	-0.0020331159	-10.669215	32.628872	0	920.5093687891813
1.	8.3176377e-12	0.35	9125.0924	37103.626	-0.01947208	-0.0020331837	-0.0020331094	-9.7322196	29.757983	0	920.6014746388222
1.	9.1201084e-12	0.35	8322.2713	33840.666	-0.019374053	-0.0020331837	-0.0020331023	-8.8776614	27.139701	0	920.6935797462068
1.	1.e-11	0.35	7590.0896	30864.803	-0.019276025	-0.0020331838	-0.0020330944	-8.0982864	24.7518	0	920.7856860562345
1.	1.0964782e-11	0.35	6922.3319	28150.775	-0.019177997	-0.0020331838	-0.0020330859	-7.3874792	22.574008	0	920.8777925635713
1.	1.2022644e-11	0.35	6313.3297	25675.545	-0.01907997	-0.0020331838	-0.0020330764	-6.7392068	20.587838	0	920.9698984601906
1.	1.3182567e-11	0.35	5757.9132	23418.1	-0.018981942	-0.0020331838	-0.0020330661	-6.1479668	18.77643	0	921.0620055594534
1.	1.4454398e-11	0.35	5251.3672	21359.277	-0.018883915	-0.0020331839	-0.0020330548	-5.6087408	17.124406	0	921.1541120479988
1.	1.5848932e-11	0.35	4789.3918	19481.6	-0.018785887	-0.0020331839	-0.0020330424	-5.1169522	15.617742	0	921.2462198378423
1.	1.7378008e-11	0.35	4368.0652	17769.131	-0.018687859	-0.002033184	-0.0020330288	-4.668427	14.243648	0	921.3383280223029
1.	1.9054607e-11	0.35	3983.8109	16207.332	-0.018589832	-0.002033184	-0.0020330138	-4.2593586	12.99046	0	921.4304357275856
1.	2.0892961e-11	0.35	3633.3666	14782.946	-0.018491804	-0.0020331841	-0.0020329975	-3.8862751	11.847539	0	921.5225447999358
1.	2.2908677e-11	0.35	3313.7577	13483.883	-0.018393776	-0.0020331841	-0.0020329795	-3.5460103	10.805182	0	921.6146544313272
1.	2.5118864e-11	0.35	3022.271	12299.115	-0.018295749	-0.0020331842	-0.0020329598	-3.2356766	9.8545414	0	921.7067636821948
1.	2.7542287e-11	0.35	2756.4319	11218.586	-0.018197721	-0.0020331842	-0.0020329383	-2.9526401	8.9875468	0	921.7988744645538
1.	3.0199517e-11	0.35	2513.9838	10233.124	-0.018099694	-0.0020331843	-0.0020329146	-2.6944993	8.1968385	0	921.8909850308128
1.	3.3113112e-11	0.35	2292.8684	9334.3629	-0.018001666	-0.0020331844	-0.0020328886	-2.4590633	7.4757038	0	921.9830972929874
1.	3.6307805e-11	0.35	2091.2089	8514.6755	-0.017903639	-0.0020331845	-0.0020328602	-2.2443346	6.8180212	0	922.0752094048314
1.	3.9810717e-11	0.35	1907.2931	7767.1034	-0.017805611	-0.0020331846	-0.002032829	-2.048491	6.2182075	0	922.1673233770148
1.	4.3651583e-11	0.35	1739.56	7085.3017	-0.017707583	-0.0020331847	-0.0020327948	-1.869871	5.671171	0	922.259438335742
1.	4.7863009e-11	0.35	1586.5856	6463.4829	-0.017609556	-0.0020331848	-0.0020327573	-1.7069589	5.1722677	0	922.3515534401015
1.	5.2480746e-11	0.35	1447.0713	5896.3693	-0.017511528	-0.0020331849	-0.0020327162	-1.5583727	4.7172625	0	922.4436706678789
1.	5.7543994e-11	0.35	1319.8327	5379.1476	-0.017413501	-0.0020331851	-0.0020326711	-1.4228518	4.3022929	0	922.5357882714824
1.	6.3095734e-11	0.35	1203.7897	4907.4275	-0.017315473	-0.0020331852	-0.0020326217	-1.2992467	3.923836	0	922.6279082286969
1.	6.9183097e-11	0.35	1097.9573	4477.2057	-0.017217446	-0.0020331854	-0.0020325675	-1.1865089	3.5786793	0	922.7200288248162
1.	7.5857758e-11	0.35	1001.437	4084.8306	-0.017119418	-0.0020331855	-0.002032508	-1.0836821	3.2638927	0	922.8121521033944
1.	8.3176377e-11	0.35	913.40936	3726.9721	-0.017021391	-0.0020331858	-0.0020324429	-0.98989436	2.9768038	0	922.9042762839554
1.	9.1201084e-11	0.35	833.12726	3400.5933	-0.016923364	-0.002033186	-0.0020323714	-0.9043503	2.7149757	0	922.9964025691427
1.	1.e-10	0.35	759.90909	3102.9241	-0.016825336	-0.0020331862	-0.0020322931	-0.82632455	2.4761856	0	923.0885320300608
1.	1.0964782e-10	0.35	693.13335	2831.4385	-0.016727309	-0.0020331865	-0.0020322072	-0.75515561	2.2584065	0	923.1806630506576
1.	1.2022644e-10	0.35	632.23315	2583.8326	-0.016629281	-0.0020331868	-0.002032113	-0.69024013	2.0597896	0	923.2727977402569
1.	1.3182567e-10	0.35	576.69151	2358.0052	-0.016531254	-0.0020331871	-0.0020320097	-0.63102788	1.8786488	0	923.3649344828068
1.	1.4454398e-10	0.35	526.03693	2152.0401	-0.016433227	-0.0020331875	-0.0020318965	-0.57701702	1.7134464	0	923.4570744809503
1.	1.5848932e-10	0.35	479.83941	1964.1896	-0.0163352	-0.0020331878	-0.0020317723	-0.52774992	1.5627801	0	923.5492180964206
1.	1.7378008e-10	0.35	437.70677	1792.8598	-0.016237172	-0.0020331883	-0.0020316362	-0.48280916	1.4253708	0	923.6413665647458
1.	1.9054607e-10	0.35	399.28135	1636.597	-0.016139145	-0.0020331887	-0.0020314869	-0.44181407	1.300052	0	923.7335184342976
1.	2.0892961e-10	0.35	364.23697	1494.0756	-0.016041118	-0.0020331892	-0.0020313232	-0.40441747	1.18576	0	923.8256750392588
1.	2.2908677e-10	0.35	332.2761	1364.0865	-0.015943091	-0.0020331898	-0.0020311438	-0.37030274	1.0815244	0	923.9178368071316
1.	2.5118864e-10	0.35	303.12746	1245.5269	-0.015845064	-0.0020331905	-0.002030947	-0.3391811	0.98646046	0	924.0100042969573
1.	2.7542287e-10	0.35	276.54358	1137.3911	-0.015747037	-0.0020331912	-0.0020307313	-0.31078919	0.89976111	0	924.1021780020078
1.	3.0199517e-10	0.35	252.29881	1038.7621	-0.015649011	-0.002033192	-0.0020304947	-0.28488684	0.8206904	0	924.1943576404135
1.	3.3113112e-10	0.35	230.18732	948.8032	-0.015550984	-0.0020331929	-0.0020302354	-0.26125498	0.74857707	0	924.2865456832313
1.	3.6307805e-10	0.35	210.02141	866.75166	-0.015452957	-0.0020331939	-0.0020299511	-0.23969383	0.68280896	0	924.378741947246
1.	3.9810717e-10	0.35	191.62989	791.91167	-0.015354931	-0.002033195	-0.0020296393	-0.2200212	0.62282776	0	924.4709463150118
1.	4.3651583e-10	0.35	174.85663	723.6487	-0.015256905	-0.0020331962	-0.0020292975	-0.2020709	0.56812428	0	924.5631605482138
1.	4.7863009e-10	0.35	159.55925	661.38405	-0.015158879	-0.0020331977	-0.0020289228	-0.18569141	0.51823414	0	924.6553856005105
1.	5.2480746e-10	0.35	145.60788	604.58994	-0.015060853	-0.0020331993	-0.002028512	-0.17074449	0.47273384	0	924.7476225242157
1.	5.7543994e-10	0.35	132.88409	552.78501	-0.014962827	-0.0020332012	-0.0020280617	-0.1571041	0.4312371	0	924.8398724374119
1.	6.3095734e-10	0.35	121.27987	505.53027	-0.014864802	-0.0020332034	-0.002027568	-0.14465528	0.39339167	0	924.9321356830402
1.	6.9183097e-10	0.35	110.69672	462.42536	-0.014766777	-0.0020332059	-0.0020270269	-0.13329318	0.35887627	0	925.0244145160577
1.	7.5857758e-10	0.35	101.04478	423.10515	-0.014668753	-0.0020332088	-0.0020264337	-0.12292218	0.32739791	0	925.116709542484
1.	8.3176377e-10	0.35	92.242124	387.23661	-0.01457073	-0.0020332123	-0.0020257835	-0.11345507	0.29868935	0	925.2090223736739
1.	9.1201084e-10	0.35	84.214025	354.51604	-0.014472707	-0.0020332165	-0.002025071	-0.10481232	0.27250688	0	925.3013556920861
1.	1.e-9	0.35	76.892333	324.66646	-0.014374685	-0.0020332215	-0.0020242901	-0.096921382	0.24862825	0	925.3937105641273
1.	1.0964782e-9	0.35	70.214893	297.43526	-0.014276664	-0.0020332275	-0.0020234345	-0.089716116	0.22685075	0	925.4860890615394
1.	1.2022644e-9	0.35	64.12502	272.59204	-0.014178645	-0.0020332349	-0.0020224971	-0.083136184	0.2069895	0	925.5784925795767
1.	1.3182567e-9	0.35	58.571016	249.92668	-0.014080628	-0.0020332441	-0.0020214703	-0.077126559	0.18887589	0	925.6709236174833
1.	1.4454398e-9	0.35	53.505732	229.24757	-0.013982613	-0.0020332554	-0.0020203458	-0.071637058	0.17235615	0	925.763384904696
1.	1.5848932e-9	0.35	48.886169	210.37992	-0.013884602	-0.0020332696	-0.0020191145	-0.066621914	0.15729005	0	925.8558775546005
1.	1.7378008e-9	0.35	44.673111	193.16435	-0.013786595	-0.0020332874	-0.0020177667	-0.062039385	0.14354967	0	925.9484047570204
1.	1.9054607e-9	0.35	40.83079	177.45547	-0.013688593	-0.00203331	-0.002016292	-0.057851401	0.13101835	0	926.0409689924087
1.	2.0892961e-9	0.35	37.326589	163.12072	-0.013590599	-0.0020333388	-0.002014679	-0.054023244	0.11958971	0	926.1335711909348
1.	2.2908677e-9	0.35	34.130759	150.03915	-0.013492614	-0.0020333756	-0.0020129157	-0.05052325	0.10916671	0	926.2262143592083
1.	2.5118864e-9	0.35	31.216168	138.10049	-0.013394642	-0.0020334229	-0.0020109892	-0.04732254	0.099660842	0	926.3188989811049
1.	2.7542287e-9	0.35	28.55807	127.20413	-0.013296685	-0.002033484	-0.0020088862	-0.044394775	0.090991369	0	926.4116275511706
1.	3.0199517e-9	0.35	26.133897	117.25831	-0.013198749	-0.002033563	-0.0020065923	-0.041715936	0.083084655	0	926.5043991674229
1.	3.3113112e-9	0.35	23.923065	108.17933	-0.01310084	-0.0020336654	-0.0020040931	-0.039264115	0.075873518	0	926.597212927879
1.	3.6307805e-9	0.35	21.9068	99.890829	-0.013002967	-0.0020337986	-0.0020013737	-0.037019335	0.069296665	0	926.6900652762839
1.	3.9810717e-9	0.35	20.067976	92.323132	-0.012905141	-0.0020339721	-0.0019984196	-0.034963374	0.06329816	0	926.7829506457133
1.	4.3651583e-9	0.35	18.390971	85.412654	-0.012807376	-0.0020341983	-0.0019952167	-0.033079615	0.057826946	0	926.8758605190069
1.	4.7863009e-9	0.35	16.861535	79.101356	-0.01270969	-0.0020344937	-0.0019917524	-0.031352905	0.052836403	0	926.9687821274717
1.	5.2480746e-9	0.35	15.466664	73.336234	-0.01261211	-0.0020348794	-0.0019880161	-0.029769425	0.048283936	0	927.0616935886308
1.	5.7543994e-9	0.35	14.194492	68.068856	-0.012514665	-0.0020353832	-0.0019840008	-0.028316575	0.044130601	0	927.1545699570239
1.	6.3095734e-9	0.35	13.034186	63.254946	-0.012417399	-0.0020360411	-0.0019797042	-0.026982865	0.040340761	0	927.247370648126
1.	6.9183097e-9	0.35	11.975854	58.853974	-0.012320362	-0.0020368995	-0.0019751309	-0.025757822	0.036881754	0	927.3400471709692
1.	7.5857758e-9	0.35	11.010459	54.828805	-0.012223623	-0.0020380177	-0.0019702946	-0.024631899	0.0337236	0	927.4325301903287
1.	8.3176377e-9	0.35	10.129739	51.145349	-0.012127266	-0.0020394714	-0.0019652209	-0.023596397	0.03083872	0	927.5247323642093
1.	9.1201084e-9	0.35	9.326136	47.772267	-0.012031397	-0.0020413555	-0.00195995	-0.02264339	0.028201681	0	927.6165408789997
1.	1.e-8	0.35	8.5927315	44.680684	-0.011936143	-0.0020437882	-0.0019545398	-0.021765665	0.025788967	0	927.7078173696083
1.	1.0964782e-8	0.35	7.9231857	41.843949	-0.011841659	-0.0020469131	-0.0019490689	-0.020956653	0.023578779	0	927.7983903559634
1.	1.2022644e-8	0.35	7.3116881	39.237443	-0.011748122	-0.0020509024	-0.0019436375	-0.020210386	0.021550885	0	927.8880605844411
1.	1.3182567e-8	0.35	6.7529136	36.838434	-0.011655733	-0.002055956	-0.0019383677	-0.019521436	0.019686518	0	927.9765990500807
1.	1.4454398e-8	0.35	6.2419874	34.625996	-0.011564703	-0.0020623003	-0.0019334006	-0.018884878	0.017968329	0	928.0637611041586
1.	1.5848932e-8	0.35	5.7744583	32.580985	-0.011475249	-0.0020701819	-0.0019288901	-0.018296243	0.016380414	0	928.1492922513066
1.	1.7378008e-8	0.35	5.346279	30.686079	-0.011387569	-0.0020798598	-0.0019249941	-0.017751479	0.014908388	0	928.2329545325058
1.	1.9054607e-8	0.35	4.9537898	28.925823	-0.011301831	-0.0020915942	-0.0019218632	-0.017246911	0.013539478	0	928.314540576288
1.	2.0892961e-8	0.35	4.5937046	27.286676	-0.011218153	-0.0021056356	-0.001919629	-0.016779203	0.012262604	0	928.3938962375621
1.	2.2908677e-8	0.35	4.2630923	25.756993	-0.011136587	-0.0021222148	-0.0019183937	-0.016345328	0.011068405	0	928.4709390506772
1.	2.5118864e-8	0.35	3.9593536	24.32694	-0.011057118	-0.0021415373	-0.0019182238	-0.015942524	0.0099491719	0	928.5456612407298
1.	2.7542287e-8	0.35	3.6801912	22.988319	-0.010979663	-0.0021637798	-0.001919147	-0.015568272	0.0088987001	0	928.6181316825581
1.	3.0199517e-8	0.35	3.4235759	21.734338	-0.010904075	-0.0021890927	-0.0019211538	-0.015220266	0.0079120669	0	928.6884916163234
1.	3.3113112e-8	0.35	3.1877106	20.559345	-0.010830163	-0.0022176037	-0.0019242013	-0.014896384	0.0069853775	0	928.7569346065814
1.	3.6307805e-8	0.35	2.9709955	19.45857	-0.0107577	-0.0022494232	-0.0019282195	-0.014594673	0.0061155101	0	928.8236969540169
1.	3.9810717e-8	0.35	2.7719972	18.427896	-0.010686438	-0.00228465	-0.0019331169	-0.014313326	0.0052998879	0	928.8890417604177
1.	4.3651583e-8	0.35	2.5894217	17.463668	-0.010616118	-0.0023233755	-0.0019387863	-0.014050671	0.0045362937	0	928.9532476257016
1.	4.7863009e-8	0.35	2.4220924	16.562553	-0.010546483	-0.0023656875	-0.0019451101	-0.013805158	0.00382273	0	929.0165946906727
1.	5.2480746e-8	0.35	2.2689326	15.721432	-0.010477282	-0.0024116713	-0.001951964	-0.013575344	0.0031573203	0	929.0793596620248
1.	5.7543994e-8	0.35	2.1289514	14.937337	-0.010408274	-0.002461411	-0.001959221	-0.013359891	0.0025382444	0	929.1418107386867
1.	6.3095734e-8	0.35	2.0012319	14.207403	-0.010339232	-0.0025149885	-0.0019667542	-0.013157551	0.0019636988	0	929.2042029327882
1.	6.9183097e-8	0.35	1.8849226	13.52884	-0.010269947	-0.0025724825	-0.0019744404	-0.012967166	0.0014318746	0	929.2667731275455
1.	7.5857758e-8	0.35	1.7792289	12.89892	-0.010200226	-0.002633966	-0.0019821625	-0.012787655	0.00094094774	0	929.3297411671565
1.	8.3176377e-8	0.35	1.683407	12.314968	-0.010129895	-0.002699504	-0.0019898132	-0.012618016	0.0004890748	0	929.3933058213693
1.	9.1201084e-8	0.35	1.5967575	11.774359	-0.010058797	-0.0027691506	-0.0019972972	-0.012457315	0.000074393981	0	929.4576459411459
1.	1.e-7	0.35	1.518621	11.274514	-0.0099867965	-0.0028429462	-0.0020045342	-0.012304685	-0.00030497213	0	929.5229152440753
1.	1.0964782e-7	0.35	1.4483733	10.812904	-0.0099137767	-0.0029209145	-0.0020114605	-0.012159323	-0.00065091211	0	929.5892444189998
1.	1.2022644e-7	0.35	1.3854221	10.38705	-0.00983964	-0.00300306	-0.0020180296	-0.012020485	-0.00096531981	0	929.6567404589239
1.	1.3182567e-7	0.35	1.3292045	9.9945289	-0.0097643082	-0.0030893661	-0.002024212	-0.011887484	-0.0012500876	0	929.7254865388701
1.	1.4454398e-7	0.35	1.2791855	9.6329759	-0.0096877227	-0.0031797931	-0.0020299925	-0.011759685	-0.0015070978	0	929.7955427158556
1.	1.5848932e-7	0.35	1.2348564	9.3000946	-0.0096098437	-0.0032742775	-0.0020353672	-0.011636507	-0.0017382122	0	929.866947667088
1.	1.7378008e-7	0.35	1.1957354	8.9936633	-0.0095306492	-0.003372732	-0.0020403382	-0.011517415	-0.0019452619	0	929.9397213724242
1.	1.9054607e-7	0.35	1.1613675	8.7115437	-0.0094501346	-0.0034750459	-0.002044908	-0.011401921	-0.0021300342	0	930.0138673317456
1.	2.0892961e-7	0.35	1.1313253	8.4516907	-0.0093683111	-0.0035810866	-0.0020490737	-0.011289581	-0.0022942615	0	930.089375975579
1.	2.2908677e-7	0.35	1.1052099	8.21216	-0.0092852041	-0.0036907019	-0.0020528209	-0.011179991	-0.0024396087	0	930.1662281743735
1.	2.5118864e-7	0.35	1.0826512	7.9911154	-0.0092008514	-0.0038037231	-0.0020561199	-0.011072783	-0.0025676635	0	930.244398179341
1.	2.7542287e-7	0.35	1.0633084	7.7868344	-0.0091153011	-0.0039199679	-0.0020589214	-0.010967626	-0.0026799274	0	930.3238570095884
1.	3.0199517e-7	0.35	1.0468697	7.5977117	-0.0090286101	-0.0040392436	-0.0020611544	-0.010864221	-0.0027778095	0	930.4045745520459
1.	3.3113112e-7	0.35	1.0330522	7.4222602	-0.0089408416	-0.0041613518	-0.0020627263	-0.010762296	-0.0028626217	0	930.4865218774967
1.	3.6307805e-7	0.35	1.0216004	7.2591105	-0.0088520633	-0.0042860906	-0.0020635226	-0.010661608	-0.0029355775	0	930.5696730304477
1.	3.9810717e-7	0.35	1.0122852	7.1070085	-0.0087623454	-0.0044132592	-0.0020634093	-0.010561936	-0.002997791	0	930.6540061190263
1.	4.3651583e-7	0.35	1.0049022	6.9648104	-0.0086717593	-0.0045426601	-0.0020622346	-0.010463081	-0.0030502805	0	930.7395039773738
1.	4.7863009e-7	0.35	0.99926992	6.8314756	-0.0085803765	-0.0046741014	-0.0020598313	-0.010364862	-0.003093973	0	930.8261544099317
1.	5.2480746e-7	0.35	0.99522659	6.7060532	-0.0084882683	-0.0048073991	-0.0020560199	-0.010267117	-0.0031297173	0	930.9139494538838
1.	5.7543994e-7	0.35	0.99262499	6.5876408	-0.0083955105	-0.0049423755	-0.0020506078	-0.010169696	-0.0031583252	0	931.0028812262769
1.	6.3095734e-7	0.35	0.99131315	6.4752225	-0.0083022063	-0.0050788473	-0.0020433787	-0.010072465	-0.0031807439	0	931.0929238937615
1.	6.9183097e-7	0.35	0.99105109	6.366925	-0.0082086013	-0.0052165597	-0.0020340288	-0.0099753088	-0.003198851	0	931.1839466030713
1.	7.5857758e-7	0.35	0.99114325	6.2567018	-0.0081156072	-0.0053548715	-0.0020218524	-0.0098781511	-0.0032190061	0	931.2753248204205
1.	8.3176377e-7	0.35	0.98932391	6.1242879	-0.0080264296	-0.0054917563	-0.0020047448	-0.0097810494	-0.0032628355	0	931.3647388012402
1.	9.1201084e-7	0.35	0.98178527	5.9356785	-0.0079467379	-0.0056237621	-0.0019791634	-0.0096843807	-0.0033669079	0	931.4480267502083
1.	1.e-6	0.35	0.96816857	5.6885384	-0.0078776836	-0.0057505728	-0.0019446899	-0.0095887681	-0.003534332	0	931.5242443148895
1.	1.0964782e-6	0.35	0.95164683	5.412468	-0.0078152998	-0.0058752656	-0.0019042891	-0.0094946596	-0.0037340512	0	931.5961436888981
1.	1.2022644e-6	0.35	0.93479616	5.1312517	-0.0077561082	-0.0060004868	-0.0018604853	-0.0094022021	-0.0039408984	0	931.6661628517065
1.	1.3182567e-6	0.35	0.91896187	4.8572233	-0.0076981478	-0.0061277597	-0.001814671	-0.0093113539	-0.0041417046	0	931.7356863703037
1.	1.4454398e-6	0.35	0.90478263	4.5961541	-0.0076403586	-0.0062579245	-0.0017675475	-0.0092219802	-0.0043301926	0	931.8054795629478
1.	1.5848932e-6	0.35	0.89254247	4.3505197	-0.0075821466	-0.0063914521	-0.0017194392	-0.0091339028	-0.0045035494	0	931.8759938532064
1.	1.7378008e-6	0.35	0.88234385	4.1211064	-0.0075231708	-0.0065285988	-0.0016704485	-0.0090469257	-0.0046607418	0	931.9475159588424
1.	1.9054607e-6	0.35	0.87419228	3.9078002	-0.0074632394	-0.0066694819	-0.0016205322	-0.0089608477	-0.0048016903	0	932.0202402947175
1.	2.0892961e-6	0.35	0.86803984	3.7099928	-0.0074022582	-0.0068141163	-0.0015695376	-0.0088754703	-0.0049268436	0	932.0943055829579
1.	2.2908677e-6	0.35	0.86380872	3.5268026	-0.0073402028	-0.0069624328	-0.0015172219	-0.008790601	-0.0050369477	0	932.1698145932214
1.	2.5118864e-6	0.35	0.86140456	3.3572002	-0.0072771033	-0.007114287	-0.0014632604	-0.0087060562	-0.0051329145	0	932.2468458214958
1.	2.7542287e-6	0.35	0.86072449	3.2000839	-0.0072130352	-0.0072694652	-0.0014072532	-0.0086216617	-0.0052157423	0	932.3254598368608
1.	3.0199517e-6	0.35	0.8616624	3.0543283	-0.0071481116	-0.0074276912	-0.0013487312	-0.0085372537	-0.0052864652	0	932.4057046370126
1.	3.3113112e-6	0.35	0.86411288	2.9188189	-0.0070824762	-0.0075886356	-0.0012871665	-0.0084526788	-0.0053461158	0	932.4876188052019
1.	3.6307805e-6	0.35	0.86797477	2.7924818	-0.0070162927	-0.0077519344	-0.0012219898	-0.0083677937	-0.005395694	0	932.5712357476752
1.	3.9810717e-6	0.35	0.87315456	2.67431	-0.0069497319	-0.0079172128	-0.0011526149	-0.0082824647	-0.0054361379	0	932.6565877572934
1.	4.3651583e-6	0.35	0.87956987	2.5633893	-0.0068829562	-0.0080841183	-0.0010784715	-0.0081965667	-0.0054682952	0	932.7437097905854
1.	4.7863009e-6	0.35	0.88715245	2.4589203	-0.0068161026	-0.0082523551	-0.00099903932	-0.0081099822	-0.0054928994	0	932.8326442200691
1.	5.2480746e-6	0.35	0.89585037	2.360233	-0.0067492675	-0.0084217174	-0.00091388162	-0.0080225993	-0.0055105516	0	932.9234440926649
1.	5.7543994e-6	0.35	0.90562879	2.2667915	-0.0066824968	-0.0085921109	-0.00082266625	-0.0079343106	-0.0055217147	0	933.0161755091441
1.	6.3095734e-6	0.35	0.91646916	2.1781865	-0.0066157823	-0.0087635609	-0.00072517351	-0.0078450112	-0.0055267196	0	933.1109184218197
1.	6.9183097e-6	0.35	0.92836691	2.0941169	-0.0065490651	-0.0089362044	-0.00062128854	-0.0077545974	-0.0055257829	0	933.207765942558
1.	7.5857758e-6	0.35	0.94132821	2.0143648	-0.0064822464	-0.0091102683	-0.00051097873	-0.0076629652	-0.0055190326	0	933.3068216241445
1.	8.3176377e-6	0.35	0.95536629	1.9387675	-0.0064152009	-0.0092860372	-0.00039426177	-0.0075700098	-0.005506537	0	933.4081973767986
1.	9.1201084e-6	0.35	0.9704979	1.8671911	-0.0063477931	-0.0094638185	-0.00027117012	-0.0074756248	-0.0054883324	0	933.5120098372233
1.	0.00001	0.35	0.98674039	1.7995076	-0.0062798925	-0.0096439061	-0.00014171506	-0.0073797022	-0.0054644468	0	933.6183779092928
1.	0.000010964782	0.35	1.0041095	1.7355793	-0.0062113867	-0.0098265512	-5.8565222e-6	-0.0072821323	-0.0054349171	0	933.7274203763634
1.	0.000012022644	0.35	1.0226178	1.6752481	-0.0061421919	-0.010011937	0.00013652166	-0.0071828039	-0.0053998007	0	933.8392541751505
1.	0.000013182567	0.35	1.0422746	1.618331	-0.0060722586	-0.010200166	0.00028562627	-0.007081605	-0.0053591799	0	933.9539938144201
1.	0.000014454398	0.35	1.0630852	1.5646205	-0.0060015748	-0.010391249	0.0004417629	-0.0069784227	-0.0053131628	0	934.0717510623014
1.	0.000015848932	0.35	1.0850525	1.5138893	-0.0059301643	-0.010585115	0.00060533066	-0.0068731437	-0.0052618782	0	934.1926348036129
1.	0.000017378008	0.35	1.1081773	1.4658972	-0.0058580812	-0.010781618	0.00077681132	-0.0067656545	-0.005205468	0	934.3167526369095
1.	0.000019054607	0.35	1.1324596	1.4204001	-0.0057854031	-0.010980559	0.00095675134	-0.0066558418	-0.0051440788	0	934.4442113541279
1.	0.000020892961	0.35	1.1579007	1.3771591	-0.0057122207	-0.011181708	0.0011457368	-0.0065435919	-0.0050778513	0	934.5751184678522
1.	0.000022908677	0.35	1.1845034	1.3359488	-0.0056386278	-0.01138483	0.00134437	-0.0064287912	-0.0050069116	0	934.7095839119261
1.	0.000025118864	0.35	1.212274	1.296565	-0.0055647109	-0.011589713	0.0015532431	-0.0063113256	-0.004931363	0	934.847721144503
1.	0.000027542287	0.35	1.2412226	1.2588291	-0.0054905408	-0.011796184	0.001772918	-0.0061910799	-0.0048512806	0	934.9896484239757
1.	0.000030199517	0.35	1.2713637	1.2225913	-0.0054161659	-0.01200413	0.0020039083	-0.0060679383	-0.0047667075	0	935.1354891716485
1.	0.000033113112	0.35	1.3027165	1.1877313	-0.0053416072	-0.012213511	0.0022466691	-0.0059417827	-0.0046776542	0	935.285373315316
1.	0.000036307805	0.35	1.3353048	1.1541562	-0.0052668571	-0.012424359	0.0025015941	-0.0058124934	-0.0045840996	0	935.4394374630822
1.	0.000039810717	0.35	1.3691564	1.1217984	-0.0051918798	-0.012636782	0.0027690146	-0.0056799478	-0.0044859932	0	935.5978241986865
1.	0.000043651583	0.35	1.404303	1.090611	-0.0051166129	-0.012850954	0.0030492078	-0.0055440206	-0.0043832594	0	935.7606833076374
1.	0.000047863009	0.35	1.4407793	1.0605642	-0.0050409718	-0.013067111	0.0033424046	-0.0054045832	-0.0042758015	0	935.9281702081371
1.	0.000052480746	0.35	1.478623	1.0316397	-0.0049648551	-0.013285531	0.003648807	-0.0052615035	-0.0041635068	0	936.1004465993823
1.	0.000057543994	0.35	1.5178733	1.0038272	-0.0048881491	-0.013506525	0.0039685989	-0.0051146453	-0.00404625	0	936.2776797850771
1.	0.000063095734	0.35	1.5585714	0.97712025	-0.0048107347	-0.013730418	0.0043019641	-0.004963869	-0.0039238985	0	936.4600421096936
1.	0.000069183097	0.35	1.6007591	0.95151232	-0.0047324941	-0.013957533	0.0046491048	-0.0048090304	-0.003796315	0	936.64771074707
1.	0.000075857758	0.35	1.6444792	0.92699451	-0.0046533155	-0.014188179	0.005010255	-0.0046499815	-0.003663361	0	936.8408676910146
1.	0.000083176377	0.35	1.6897744	0.90355282	-0.0045731006	-0.014422628	0.0053856985	-0.00448657	-0.0035248989	0	937.0396986278272
1.	0.000091201084	0.35	1.7366871	0.88116599	-0.0044917708	-0.014661104	0.0057757874	-0.0043186394	-0.0033807951	0	937.2443931946805
1.	0.0001	0.35	1.7852588	0.85980435	-0.004409272	-0.01490377	0.0061809515	-0.004146029	-0.0032309204	0	937.4551435608755
1.	0.00010964782	0.35	1.8355286	0.83942759	-0.0043255829	-0.015150706	0.0066017196	-0.0039685744	-0.0030751532	0	937.672143633909
1.	0.00012022644	0.35	1.8875316	0.81998267	-0.0042407233	-0.0154019	0.0070387354	-0.0037861072	-0.0029133816	0	937.8955864897626
1.	0.00013182567	0.35	1.9412946	0.80139922	-0.0041547684	-0.015657213	0.0074927846	-0.0035984562	-0.0027455094	0	938.1256598488958
1.	0.00014454398	0.35	1.9968284	0.78358034	-0.0040678759	-0.015916337	0.0079648458	-0.0034054481	-0.0025714664	0	938.3625373523804
1.	0.00015848932	0.35	2.0539866	0.76661944	-0.0039846989	-0.016167115	0.0084677639	-0.0032070845	-0.0023911546	0	938.6060711267243
1.	0.00017378008	0.35	2.1129388	0.74982426	-0.0038974117	-0.016430659	0.0089811375	-0.0030028607	-0.0022048063	0	938.8569049715004
1.	0.00019054607	0.35	2.1734004	0.73308277	-0.003810827	-0.016694832	0.0095178361	-0.0027927821	-0.002012546	0	939.1147491482442
1.	0.00020892961	0.35	2.2350726	0.71585238	-0.0037262223	-0.016957264	0.010080985	-0.0025767142	-0.0018148168	0	939.3794311104771
1.	0.00022908677	0.35	2.2975462	0.69741616	-0.0036452456	-0.017214984	0.010674333	-0.002354558	-0.0016122827	0	939.6506352394065
1.	0.00025118864	0.35	2.3604726	0.67711888	-0.0035693369	-0.017465571	0.011301103	-0.0021262536	-0.0014055811	0	939.9280684047369
1.	0.00027542287	0.35	2.4238758	0.65482932	-0.0034986894	-0.017709109	0.011962039	-0.0018917598	-0.0011948106	0	940.2117937452598
1.	0.00030199517	0.35	2.4883375	0.63124289	-0.0034316275	-0.017949265	0.012654326	-0.0016510057	-0.00097916001	0	940.5024598899142
1.	0.00033113112	0.35	2.5548048	0.60763403	-0.0033652029	-0.018192038	0.013372844	-0.0014038424	-0.00075712413	0	940.8011532581149
1.	0.00036307805	0.35	2.6241878	0.58526246	-0.0032965282	-0.018443121	0.014112806	-0.0011500269	-0.00052711921	0	941.1090125560872
1.	0.00039810717	0.35	2.6970778	0.56493246	-0.003223768	-0.018705986	0.014871674	-0.00088924132	-0.00028797132	0	941.4269276461747
1.	0.00043651583	0.35	2.7737035	0.54689687	-0.0031463698	-0.018981458	0.015649587	-0.00062112798	-0.000039053649	0	941.7554633480872
1.	0.00047863009	0.35	2.8540369	0.53099467	-0.0030647658	-0.019268333	0.016448741	-0.00034532066	0.00021982861	0	942.0949357316085
1.	0.00052480746	0.35	2.9379303	0.51684749	-0.002979941	-0.019564251	0.017272521	-0.000061462427	0.00048862968	0	942.4455324749172
1.	0.00057543994	0.35	3.0252151	0.50401233	-0.0028931085	-0.019866339	0.018124853	0.00023078709	0.00076721847	0	942.8074048480347
1.	0.00063095734	0.35	3.1157517	0.49206141	-0.0028055701	-0.020171464	0.019009961	0.0005317533	0.001055465	0	943.1807187782019
1.	0.00069183097	0.35	3.209443	0.48060791	-0.0027187078	-0.020476196	0.019932395	0.00084174993	0.0013532715	0	943.5656720439249
1.	0.00075857758	0.35	3.30623	0.46930355	-0.0026340353	-0.020776672	0.020897175	0.0011610829	0.001660573	0	943.9624932414533
1.	0.00083176377	0.35	3.4060836	0.45782856	-0.0025532506	-0.021068461	0.021909927	0.0014900542	0.0019773311	0	944.3714370869535
1.	0.00091201084	0.35	3.5089976	0.44588732	-0.0024782404	-0.021346563	0.022976878	0.0018289638	0.0023035314	0	944.792778638182
1.	0.001	0.35	3.6149924	0.43323675	-0.0024108809	-0.021605963	0.024104312	0.0021781125	0.0026392158	0	945.2268215626594
1.	0.0010964782	0.35	3.7241374	0.41979455	-0.0023523168	-0.021843616	0.02529658	0.0025378052	0.0029846017	0	945.6739211570232
1.	0.0012022644	0.35	3.8365642	0.40573628	-0.0023022183	-0.022060513	0.026554041	0.0029083568	0.0033401908	0	946.1345053463118
1.	0.0013182567	0.35	3.9524165	0.39138719	-0.0022592718	-0.022260418	0.027874319	0.0032900962	0.0037066582	0	946.6090270010241
1.	0.0014454398	0.35	4.0717453	0.37699283	-0.0022225864	-0.022446188	0.029255991	0.003683363	0.0040846047	0	947.097855229408
1.	0.0015848932	0.35	4.1943825	0.36253971	-0.002192995	-0.022616471	0.030701886	0.0040884919	0.0044743509	0	947.6011377781143
1.	0.0017378008	0.35	4.3199906	0.34771436	-0.0021735093	-0.022764336	0.032220459	0.0045057907	0.0048758707	0	948.1188253669407
1.	0.0019054607	0.35	4.4486686	0.3323075	-0.002166869	-0.022882398	0.033820666	0.0049355485	0.0052892307	0	948.6512890302439
1.	0.0020892961	0.35	4.5812296	0.31675072	-0.0021718608	-0.022972305	0.035502477	0.0053781031	0.0057152278	0	949.1996588772267
1.	0.0022908677	0.35	4.7183745	0.3017324	-0.0021847826	-0.023042977	0.037258644	0.0058338734	0.0061550138	0	949.7650297833919
1.	0.0025118864	0.35	4.8603769	0.2876566	-0.0022027326	-0.023102266	0.039083037	0.0063033246	0.0066094838	0	950.3481123420133
1.	0.0027542287	0.35	5.0073346	0.27464908	-0.0022242178	-0.023154539	0.040973063	0.0067869382	0.0070792532	0	950.9494566216251
1.	0.0030199517	0.35	5.1593129	0.26270321	-0.0022486094	-0.023201828	0.042928522	0.0072852033	0.0075648041	0	951.569587651345
1.	0.0033113112	0.35	5.3163686	0.25175933	-0.0022757275	-0.023244949	0.044950486	0.007798615	0.0080665679	0	952.2090269838989
1.	0.0036307805	0.35	5.4785446	0.24173532	-0.0023056561	-0.023284048	0.047040755	0.008327673	0.0085849572	0	952.8682876219676
1.	0.0039810717	0.35	5.6458619	0.23253793	-0.0023386761	-0.023318828	0.049201633	0.0088728809	0.0091203761	0	953.5478633071425
1.	0.0043651583	0.35	5.8183126	0.22406847	-0.0023752447	-0.023348639	0.051435842	0.0094347422	0.0096732232	0	954.2482195940551
1.	0.0047863009	0.35	5.995856	0.21622885	-0.0024159839	-0.023372526	0.053746468	0.010013759	0.010243896	0	954.9697868975913
1.	0.0052480746	0.35	6.1783798	0.20893447	-0.0024616791	-0.023389376	0.056136826	0.010610425	0.010832799	0	955.7129174138236
1.	0.0057543994	0.35	6.364904	0.20214161	-0.002513996	-0.023398365	0.058610009	0.0112252	0.011440344	0	956.4770632352173
1.	0.0063095734	0.35	6.5455473	0.19524835	-0.0025874084	-0.023390393	0.061177457	0.011858132	0.012065939	0	957.2523873004711
1.	0.0069183097	0.35	6.7173352	0.18618935	-0.0027232565	-0.023262015	0.063945029	0.012508096	0.012706262	0	958.0348592970385
1.	0.0075857758	0.35	6.9089668	0.1782933	-0.002896757	-0.022997164	0.066931276	0.013175825	0.013365586	0	958.8538652117404
1.	0.0083176377	0.35	7.1123752	0.17251188	-0.0030794474	-0.02269942	0.070035187	0.013863011	0.014046619	0	959.702930170902
1.	0.0091201084	0.35	7.3192073	0.16815329	-0.0032628797	-0.022418974	0.073209214	0.014570353	0.014749322	0	960.5743555639588
1.	0.01	0.35	7.5266595	0.16452825	-0.0034286716	-0.022219216	0.076392696	0.015297983	0.015473094	0	961.46546452225
1.	0.010964782	0.35	7.7449157	0.16080179	-0.0035475817	-0.022154257	0.079534333	0.016046351	0.016217496	0	962.3868613561424
1.	0.012022644	0.35	7.9814203	0.15741088	-0.0036225159	-0.022191566	0.082669558	0.016817029	0.016984564	0	963.3474678493515
1.	0.013182567	0.35	8.2314455	0.15464239	-0.0036635414	-0.022315256	0.085817248	0.017611587	0.017776177	0	964.3440328708743
1.	0.014454398	0.35	8.4926568	0.15241942	-0.0036684689	-0.022538377	0.088967435	0.018431212	0.018593436	0	965.3753354555392
1.	0.015848932	0.35	8.7640723	0.15044607	-0.0036442537	-0.022844234	0.092139997	0.019276951	0.019437074	0	966.441377482477
1.	0.017378008	0.35	9.045353	0.14834685	-0.0036016468	-0.023203633	0.095367403	0.020149777	0.020307666	0	967.5427350461819
1.	0.019054607	0.35	9.3371472	0.14604089	-0.0035452466	-0.023602008	0.098667603	0.021050684	0.021206118	0	968.6809904686593
1.	0.020892961	0.35	9.6402362	0.14365118	-0.0034781731	-0.024028494	0.10205495	0.021980744	0.022133635	0	969.8579322595319
1.	0.022908677	0.35	9.9551394	0.14130997	-0.0034034755	-0.024473154	0.10554297	0.02294109	0.02309149	0	971.0751434924573
1.	0.025118864	0.35	10.282222	0.13908575	-0.0033234456	-0.024928676	0.10914268	0.0239329	0.024080932	0	972.3340937885785
1.	0.027542287	0.35	10.621847	0.13699605	-0.0032394639	-0.025390371	0.11286261	0.024957384	0.025103192	0	973.6362911502813
1.	0.030199517	0.35	10.97444	0.13503428	-0.0031522727	-0.025855196	0.11670972	0.026015793	0.026159513	0	974.9833269193998
1.	0.033113112	0.35	11.340501	0.133186	-0.0030622757	-0.026320843	0.1206904	0.027109422	0.027251175	0	976.3769231313071
1.	0.036307805	0.35	11.720595	0.13143563	-0.0029697342	-0.026785187	0.12481096	0.028239618	0.028379507	0	977.8189093076526
1.	0.039810717	0.35	12.11535	0.12976849	-0.0028748758	-0.027245972	0.12907798	0.029407786	0.029545901	0	979.3112354223639
1.	0.043651583	0.35	12.525451	0.12817096	-0.0027779531	-0.027700648	0.13349847	0.030615398	0.030751813	0	980.85596936482
1.	0.047863009	0.35	12.951642	0.12663002	-0.0026792676	-0.028146293	0.13807994	0.031863993	0.031998768	0	982.4552975035899
1.	0.052480746	0.35	13.394725	0.12513268	-0.0025791777	-0.028579557	0.14283047	0.033155189	0.03328837	0	984.1115401892623
1.	0.057543994	0.35	13.855566	0.12366545	-0.002478084	-0.028996703	0.14775871	0.034490681	0.034622301	0	985.8271655660551
1.	0.063095734	0.35	14.335101	0.12221386	-0.0023763961	-0.029393649	0.15287376	0.035872257	0.036002332	0	987.6047813036405
1.	0.069183097	0.35	14.049253	0.12796013	-0.0031912654	-0.029543895	0.15840732	0.037298368	0.037434558	0	988.6588577779328
1.	0.075857758	0.35	13.054257	0.14004151	-0.0048077681	-0.029984864	0.16382732	0.038637864	0.038786913	0	988.9224033217813
1.	0.083176377	0.35	12.146809	0.15105986	-0.0062820361	-0.031085429	0.16877043	0.039859499	0.040020275	0	989.162763399401
1.	0.091201084	0.35	11.319207	0.16110872	-0.0076265844	-0.032809325	0.17327859	0.040973643	0.041145114	0	989.3819712302093
1.	0.1	0.35	11.884816	0.15557035	-0.0076273747	-0.034369699	0.17814455	0.042073946	0.042239523	0	990.9813892853831
1.	0.10964782	0.35	13.286222	0.14373817	-0.0067568861	-0.035703291	0.1834376	0.043305457	0.043458441	0	993.5398784430492
1.	0.12022644	0.35	14.983862	0.13263723	-0.0054700703	-0.037099337	0.18887478	0.044688448	0.044829617	0	996.5369310559614
1.	0.13182567	0.35	17.03543	0.12224178	-0.0036642178	-0.038591572	0.19442877	0.04625467	0.046384775	0	1000.0600652875585
1.	0.14454398	0.35	19.515352	0.11252967	-0.0012111478	-0.040217446	0.20006878	0.048042307	0.048162075	0	1004.2195901500618
1.	0.15848932	0.35	22.520743	0.10348236	0.0020504338	-0.042016368	0.20576224	0.050097898	0.050208036	0	1009.1563414157831
1.	0.17378008	0.35	26.177773	0.095084827	0.0063235222	-0.044027616	0.21147694	0.052478874	0.052580075	0	1015.0504541508859
1.	0.19054607	0.35	30.647204	0.08732514	0.011860945	-0.046287807	0.21718355	0.055256695	0.055349637	0	1022.1298312997532
1.	0.20892961	0.35	36.126967	0.080193743	0.018970553	-0.048827742	0.22285876	0.058520398	0.05860575	0	1030.6760533631266
1.	0.22908677	0.35	42.84878	0.07368206	0.028013834	-0.05166861	0.22848915	0.06238014	0.062458562	0	1041.0243486138852
1.	0.25118864	0.35	51.065473	0.067780416	0.039393721	-0.054817785	0.23407531	0.066969979	0.067042119	0	1053.5534929574453
1.	0.27542287	0.35	61.026711	0.062475294	0.053528423	-0.05826508	0.23963568	0.072448844	0.072515338	0	1068.6624850340338
1.	0.30199517	0.35	72.944293	0.057746383	0.070811887	-0.061980877	0.24520835	0.078998601	0.079060062	0	1086.7339896100507
1.	0.33113112	0.35	86.953669	0.053564197	0.091567766	-0.065917659	0.25084961	0.086818433	0.086875443	0	1108.0906106764628
1.	0.36307805	0.35	103.08316	0.049889241	0.11600949	-0.070015589	0.25662831	0.096115742	0.09616884	0	1132.955520841942
1.	0.39810717	0.35	121.24225	0.04667328	0.1442196	-0.074211115	0.26261733	0.10709488	0.10714455	0	1161.4302392029904
1.	0.43651583	0.35	141.23384	0.043862464	0.17615461	-0.078446036	0.26888445	0.11994589	0.11999258	0	1193.496197129596
1.	0.47863009	0.35	162.78539	0.041401359	0.21167163	-0.082674334	0.27548561	0.13483554	0.1348796	0	1229.0375358788856
1.	0.52480746	0.35	185.58798	0.039236699	0.25056549	-0.086865319	0.28246168	0.15190172	0.15194348	0	1267.8749248405472
1.	0.57543994	0.35	209.3321	0.037320086	0.29260491	-0.091003303	0.28983891	0.17125179	0.17129151	0	1309.7996935970878
1.	0.63095734	0.35	233.73361	0.035609404	0.33756066	-0.095085057	0.29763135	0.19296383	0.19300173	0	1354.601085895934
1.	0.69183097	0.35	258.5487	0.034069154	0.3852235	-0.099116428	0.30584437	0.21708997	0.21712624	0	1402.0842729963274
1.	0.75857758	0.35	283.57953	0.032670082	0.43541336	-0.10310911	0.3144778	0.24366068	0.24369546	0	1452.0800114615565
1.	0.83176377	0.35	308.67359	0.031388427	0.48798233	-0.10707804	0.32352862	0.27268928	0.27272269	0	1504.4483370601263
1.	0.91201084	0.35	333.71961	0.030205068	0.5428138	-0.1110395	0.33299281	0.30417618	0.30420833	0	1559.0783651081265
1.	1.	0.35	358.64181	0.029104681	0.59981976	-0.11500995	0.34286657	0.33811271	0.33814369	0	1615.8861548371883
1.	1.0964782	0.35	383.39393	0.028074997	0.65893732	-0.11900524	0.3531471	0.37448424	0.37451412	0	1674.8116962084068
1.	1.2022644	0.35	407.9536	0.027106181	0.72012525	-0.12304026	0.36383297	0.41327283	0.41330168	0	1735.815780689944
1.	1.3182567	0.35	432.31735	0.026190322	0.78336065	-0.1271288	0.37492427	0.45445931	0.45448718	0	1798.8769218315933
1.	1.4454398	0.35	456.49648	0.025321024	0.8486362	-0.1312835	0.38642265	0.49802492	0.49805186	0	1863.988784613982
1.	1.5848932	0.35	480.51354	0.024493088	0.91595773	-0.13551597	0.39833127	0.54395258	0.54397865	0	1931.1578858623786
1.	1.7378008	0.35	504.39958	0.023702257	0.98534225	-0.13983683	0.41065473	0.59222787	0.5922531	0	2000.4017202835994
1.	1.9054607	0.35	528.19189	0.022945024	1.0568163	-0.14425587	0.42339891	0.64283974	0.64286417	0	2071.747157567524
1.	2.0892961	0.35	551.93226	0.02221847	1.1304148	-0.14878217	0.43657093	0.69578102	0.69580466	0	2145.229348733026
1.	2.2908677	0.35	575.6656	0.02152015	1.2061797	-0.1534242	0.45017898	0.75104878	0.75107169	0	2220.890401810615
1.	2.5118864	0.35	599.43887	0.020847996	1.2841593	-0.15818994	0.46423231	0.80864464	0.80866683	0	2298.778739649515
1.	2.7542287	0.35	623.30024	0.020200244	1.3644076	-0.16308694	0.4787411	0.86857485	0.86859635	0	2378.9484464499697
1.	3.0199517	0.35	647.29854	0.019575374	1.4469838	-0.16812245	0.49371638	0.93085046	0.93087129	0	2461.4587716727315
1.	3.3113112	0.35	671.48274	0.018972065	1.5319516	-0.17330345	0.50917004	0.99548727	0.99550746	0	2546.3734756318
1.	3.6307805	0.35	695.90162	0.018389157	1.6193791	-0.17863675	0.52511473	1.0625059	1.0625255	0	2633.760702653097
1.	3.9810717	0.35	720.60359	0.017825624	1.7093386	-0.18412901	0.54156383	1.1319318	1.1319507	0	2723.692783295962
1.	4.3651583	0.35	745.63646	0.017280548	1.8019061	-0.18978681	0.55853146	1.2037949	1.2038133	0	2816.245767858954
1.	4.7863009	0.35	771.04741	0.016753106	1.8971614	-0.19561668	0.57603241	1.2781301	1.2781479	0	2911.499497317038
1.	5.2480746	0.35	796.88288	0.016242545	1.9951879	-0.20162514	0.59408215	1.3549767	1.354994	0	3009.5374186969907
1.	5.7543994	0.35	823.1886	0.01574818	2.0960724	-0.20781872	0.61269682	1.4343786	1.4343954	0	3110.4463938758554
1.	6.3095734	0.35	850.00961	0.015269378	2.1999053	-0.21420403	0.63189322	1.5163841	1.5164004	0	3214.3168842055293
1.	6.9183097	0.35	877.39025	0.014805553	2.3067804	-0.22078771	0.65168881	1.6010458	1.6010616	0	3321.242762599697
1.	7.5857758	0.35	905.37427	0.014356159	2.416795	-0.22757652	0.67210169	1.6884209	1.6884361	0	3431.3214009134044
1.	8.3176377	0.35	934.00486	0.013920682	2.5300496	-0.23457733	0.69315064	1.7785704	1.7785853	0	3544.653401227373
1.	9.1201084	0.35	963.32474	0.01349864	2.6466484	-0.24179713	0.7148551	1.87156	1.8715744	0	3661.3430590537146
1.	10.	0.35	993.37622	0.013089576	2.7666991	-0.24924308	0.7372352	1.9674593	1.9674732	0	3781.4981852882966