1.	1.e-12	0.1	75891.895	308462.55	-0.021380362	-0.0037128809	-0.0037128783	-80.79516	247.50829	0	919.1282535143986
1.	1.0964782e-12	0.1	69214.318	281323.1	-0.021282335	-0.0037128809	-0.0037128781	-73.68797	225.73037	0	919.2203563057544
1.	1.2022644e-12	0.1	63124.297	256571.62	-0.021184307	-0.0037128809	-0.0037128778	-67.206129	205.86868	0	919.3124600460711
1.	1.3182567e-12	0.1	57570.131	233998.	-0.021086279	-0.0037128809	-0.0037128775	-61.294611	187.75459	0	919.4045637863878
1.	1.4454398e-12	0.1	52504.671	213410.6	-0.020988252	-0.0037128809	-0.0037128772	-55.903232	171.23435	0	919.4966665871393
1.	1.5848932e-12	0.1	47884.918	194634.67	-0.020890224	-0.0037128809	-0.0037128769	-50.986229	156.16771	0	919.5887703274561
1.	1.7378008e-12	0.1	43671.652	177510.8	-0.020792196	-0.0037128809	-0.0037128765	-46.50186	142.42678	0	919.6808740771684
1.	1.9054607e-12	0.1	39829.108	161893.64	-0.020694169	-0.0037128809	-0.0037128761	-42.412059	129.89489	0	919.7729768873155
1.	2.0892961e-12	0.1	36324.666	147650.61	-0.020596141	-0.0037128809	-0.0037128756	-38.682106	118.46568	0	919.8650806464236
1.	2.2908677e-12	0.1	33128.577	134660.81	-0.020498113	-0.003712881	-0.0037128751	-35.280341	108.04211	0	919.9571844055316
1.	2.5118864e-12	0.1	30213.71	122813.96	-0.020400086	-0.003712881	-0.0037128746	-32.177885	98.535706	0	920.0492872250744
1.	2.7542287e-12	0.1	27555.319	112009.5	-0.020302058	-0.003712881	-0.003712874	-29.348403	89.86576	0	920.1413909935782
1.	3.0199517e-12	0.1	25130.837	102155.7	-0.02020403	-0.003712881	-0.0037128733	-26.767877	81.958677	0	920.2334947714774
1.	3.3113112e-12	0.1	22919.684	93168.924	-0.020106003	-0.003712881	-0.0037128726	-24.414399	74.747329	0	920.3255976098116
1.	3.6307805e-12	0.1	20903.088	84972.879	-0.020007975	-0.003712881	-0.0037128718	-22.267995	68.170503	0	920.4177013971066
1.	3.9810717e-12	0.1	19063.931	77497.988	-0.019909947	-0.0037128811	-0.0037128709	-20.310441	62.172367	0	920.5098051937972
1.	4.3651583e-12	0.1	17386.6	70680.797	-0.01981192	-0.0037128811	-0.00371287	-18.525122	56.702	0	920.6019080509226
1.	4.7863009e-12	0.1	15856.855	64463.439	-0.019713892	-0.0037128811	-0.0037128689	-16.896884	51.712968	0	920.6940118664045
1.	5.2480746e-12	0.1	14461.712	58793.132	-0.019615864	-0.0037128812	-0.0037128678	-15.411904	47.162915	0	920.7861156818865
1.	5.7543994e-12	0.1	13189.326	53621.743	-0.019517837	-0.0037128812	-0.0037128665	-14.057578	43.013219	0	920.8782185765945
1.	6.3095734e-12	0.1	12028.896	48905.371	-0.019419809	-0.0037128813	-0.0037128652	-12.822409	39.22865	0	920.9703224108678
1.	6.9183097e-12	0.1	10970.572	44603.982	-0.019321781	-0.0037128813	-0.0037128636	-11.695913	35.777083	0	921.062426273328
1.	7.5857758e-12	0.1	10005.368	40681.06	-0.019223754	-0.0037128813	-0.003712862	-10.668528	32.629216	0	921.1545291962229
1.	8.3176377e-12	0.1	9125.0924	37103.304	-0.019125726	-0.0037128814	-0.0037128602	-9.7315329	29.758327	0	921.2466330774745
1.	9.1201084e-12	0.1	8322.2712	33840.344	-0.019027698	-0.0037128814	-0.0037128582	-8.8769748	27.140046	0	921.3387369775173
1.	1.e-11	0.1	7590.0896	30864.481	-0.018929671	-0.0037128815	-0.003712856	-8.0975997	24.752144	0	921.4308399567861
1.	1.0964782e-11	0.1	6922.3319	28150.453	-0.018831643	-0.0037128816	-0.0037128536	-7.3867925	22.574352	0	921.5229438944117
1.	1.2022644e-11	0.1	6313.3297	25675.223	-0.018733615	-0.0037128816	-0.003712851	-6.7385202	20.588183	0	921.6150478508284
1.	1.3182567e-11	0.1	5757.9131	23417.778	-0.018635588	-0.0037128817	-0.0037128481	-6.1472801	18.776774	0	921.7071508958668
1.	1.4454398e-11	0.1	5251.3672	21358.955	-0.01853756	-0.0037128818	-0.0037128449	-5.6080541	17.12475	0	921.7992549086575
1.	1.5848932e-11	0.1	4789.3917	19481.278	-0.018439532	-0.0037128819	-0.0037128415	-5.1162655	15.618086	0	921.8913589402396
1.	1.7378008e-11	0.1	4368.0652	17768.809	-0.018341505	-0.003712882	-0.0037128377	-4.6677404	14.243993	0	921.9834620698389
1.	1.9054607e-11	0.1	3983.8108	16207.01	-0.018243477	-0.0037128822	-0.0037128335	-4.258672	12.990804	0	922.0755661765862
1.	2.0892961e-11	0.1	3633.3666	14782.624	-0.018145449	-0.0037128823	-0.003712829	-3.8855885	11.847883	0	922.1676703115203
1.	2.2908677e-11	0.1	3313.7577	13483.561	-0.018047422	-0.0037128824	-0.003712824	-3.5453237	10.805526	0	922.2597735538675
1.	2.5118864e-11	0.1	3022.2709	12298.793	-0.017949394	-0.0037128826	-0.0037128185	-3.2349899	9.8548853	0	922.3518777827583
1.	2.7542287e-11	0.1	2756.4319	11218.264	-0.017851366	-0.0037128828	-0.0037128125	-2.9519535	8.9878909	0	922.4439820586272
1.	3.0199517e-11	0.1	2513.9837	10232.802	-0.017753339	-0.003712883	-0.0037128059	-2.6938126	8.1971825	0	922.5360854513048
1.	3.3113112e-11	0.1	2292.8684	9334.041	-0.017655311	-0.0037128832	-0.0037127987	-2.4583767	7.4760478	0	922.6281898399218
1.	3.6307805e-11	0.1	2091.2088	8514.3536	-0.017557284	-0.0037128834	-0.0037127908	-2.243648	6.8183652	0	922.7202933547427
1.	3.9810717e-11	0.1	1907.2931	7766.7816	-0.017459256	-0.0037128837	-0.0037127821	-2.0478044	6.2185515	0	922.8123978842943
1.	4.3651583e-11	0.1	1739.56	7084.9797	-0.017361228	-0.0037128839	-0.0037127726	-1.8691843	5.6715149	0	922.9045024890113
1.	4.7863009e-11	0.1	1586.5855	6463.1609	-0.017263201	-0.0037128842	-0.0037127621	-1.7062723	5.1726116	0	922.9966062481193
1.	5.2480746e-11	0.1	1447.0712	5896.0474	-0.017165173	-0.0037128846	-0.0037127507	-1.5576861	4.7176064	0	923.0887110313536
1.	5.7543994e-11	0.1	1319.8326	5378.8255	-0.017067145	-0.003712885	-0.0037127381	-1.4221652	4.3026367	0	923.1808159273359
1.	6.3095734e-11	0.1	1203.7896	4907.1055	-0.016969118	-0.0037128854	-0.0037127243	-1.2985601	3.9241799	0	923.2729199965004
1.	6.9183097e-11	0.1	1097.9572	4476.8836	-0.01687109	-0.0037128858	-0.0037127093	-1.1858223	3.5790231	0	923.3650251179783
1.	7.5857758e-11	0.1	1001.4369	4084.5085	-0.016773062	-0.0037128863	-0.0037126927	-1.0829955	3.2642365	0	923.4571303897866
1.	8.3176377e-11	0.1	913.40925	3726.6501	-0.016675035	-0.0037128868	-0.0037126746	-0.98920779	2.9771476	0	923.5492348629641
1.	9.1201084e-11	0.1	833.12713	3400.2712	-0.016577007	-0.0037128874	-0.0037126547	-0.90366375	2.7153194	0	923.6413404448292
1.	1.e-10	0.1	759.90896	3102.602	-0.01647898	-0.003712888	-0.0037126329	-0.82563801	2.4765293	0	923.733445265646
1.	1.0964782e-10	0.1	693.13321	2831.1164	-0.016380952	-0.0037128887	-0.0037126089	-0.75446908	2.2587501	0	923.8255512327326
1.	1.2022644e-10	0.1	632.23298	2583.5104	-0.016282924	-0.0037128895	-0.0037125827	-0.68955361	2.0601331	0	923.9176574065237
1.	1.3182567e-10	0.1	576.69133	2357.683	-0.016184897	-0.0037128904	-0.003712554	-0.63034138	1.8789923	0	924.0097628756407
1.	1.4454398e-10	0.1	526.03673	2151.7178	-0.016086869	-0.0037128913	-0.0037125224	-0.57633055	1.7137899	0	924.1018695567968
1.	1.5848932e-10	0.1	479.8392	1963.8673	-0.015988842	-0.0037128923	-0.0037124879	-0.52706347	1.5631236	0	924.1939755708619
1.	1.7378008e-10	0.1	437.70654	1792.5374	-0.015890814	-0.0037128934	-0.00371245	-0.48212273	1.4257142	0	924.2860828439444
1.	1.9054607e-10	0.1	399.2811	1636.2747	-0.015792787	-0.0037128947	-0.0037124084	-0.44112766	1.3003953	0	924.3781895251007
1.	2.0892961e-10	0.1	364.23669	1493.7532	-0.015694759	-0.003712896	-0.0037123629	-0.40373109	1.1861032	0	924.4702975122528
1.	2.2908677e-10	0.1	332.2758	1363.764	-0.015596732	-0.0037128975	-0.0037123129	-0.36961638	1.0818675	0	924.562404982644
1.	2.5118864e-10	0.1	303.12712	1245.2043	-0.015498704	-0.0037128992	-0.0037122582	-0.33849477	0.98680349	0	924.6545138341962
1.	2.7542287e-10	0.1	276.54322	1137.0685	-0.015400677	-0.003712901	-0.0037121981	-0.31010291	0.90010405	0	924.7466222535485
1.	3.0199517e-10	0.1	252.29841	1038.4394	-0.015302649	-0.003712903	-0.0037121323	-0.28420059	0.82103321	0	924.8387321480183
1.	3.3113112e-10	0.1	230.18688	948.48043	-0.015204622	-0.0037129052	-0.0037120602	-0.26056877	0.74891975	0	924.9308416948488
1.	3.6307805e-10	0.1	210.02092	866.4288	-0.015106594	-0.0037129076	-0.0037119811	-0.23900767	0.6831515	0	925.0229528389406
1.	3.9810717e-10	0.1	191.62935	791.58872	-0.015008567	-0.0037129103	-0.0037118944	-0.21933508	0.62317015	0	925.1150637575366
1.	4.3651583e-10	0.1	174.85605	723.32565	-0.01491054	-0.0037129133	-0.0037117994	-0.20138484	0.56846651	0	925.2071754559719
1.	4.7863009e-10	0.1	159.55861	661.06088	-0.014812512	-0.0037129167	-0.0037116953	-0.18500541	0.51857619	0	925.299288948977
1.	5.2480746e-10	0.1	145.60718	604.26664	-0.014714485	-0.0037129205	-0.0037115812	-0.17005856	0.47307568	0	925.391402441982
1.	5.7543994e-10	0.1	132.88333	552.46158	-0.014616458	-0.0037129246	-0.0037114562	-0.15641824	0.43157874	0	925.4835169591134
1.	6.3095734e-10	0.1	121.27903	505.2067	-0.014518431	-0.0037129294	-0.0037113193	-0.1439695	0.39373307	0	925.5756325943275
1.	6.9183097e-10	0.1	110.6958	462.10163	-0.014420404	-0.0037129347	-0.0037111692	-0.13260748	0.35921741	0	925.6677494697678
1.	7.5857758e-10	0.1	101.04377	422.78124	-0.014322377	-0.0037129407	-0.003711005	-0.12223658	0.32773877	0	925.7598676699954
1.	8.3176377e-10	0.1	92.241017	386.91252	-0.01422435	-0.0037129476	-0.0037108251	-0.11276957	0.2990299	0	925.8519873453404
1.	9.1201084e-10	0.1	84.212813	354.19175	-0.014126323	-0.0037129555	-0.0037106282	-0.10412693	0.27284711	0	925.9441086179467
1.	1.e-9	0.1	76.891006	324.34195	-0.014028297	-0.0037129646	-0.0037104128	-0.096236122	0.24896813	0	926.0362306891834
1.	1.0964782e-9	0.1	70.21344	297.11051	-0.01393027	-0.0037129753	-0.0037101772	-0.089030992	0.22719024	0	926.1283555979076
1.	1.2022644e-9	0.1	64.12343	272.26704	-0.013832244	-0.0037129877	-0.0037099197	-0.082451209	0.20732857	0	926.2204816247144
1.	1.3182567e-9	0.1	58.569275	249.60142	-0.013734218	-0.0037130024	-0.0037096384	-0.076441746	0.18921452	0	926.3126098876868
1.	1.4454398e-9	0.1	53.503829	228.92202	-0.013636193	-0.0037130199	-0.0037093314	-0.070952424	0.17269431	0	926.4047396257768
1.	1.5848932e-9	0.1	48.884089	210.05409	-0.013538167	-0.003713041	-0.0037089966	-0.065937475	0.1576277	0	926.4968729154239
1.	1.7378008e-9	0.1	44.670838	192.83822	-0.013440143	-0.0037130665	-0.0037086319	-0.061355158	0.14388679	0	926.5890071352404
1.	1.9054607e-9	0.1	40.82831	177.12906	-0.013342119	-0.0037130976	-0.0037082352	-0.057167408	0.13135493	0	926.6811443616662
1.	2.0892961e-9	0.1	37.323885	162.79402	-0.013244096	-0.003713136	-0.0037078045	-0.053339506	0.11992574	0	926.773283843049
1.	2.2908677e-9	0.1	34.127814	149.7122	-0.013146074	-0.0037131836	-0.0037073377	-0.049839788	0.10950218	0	926.8654257766972
1.	2.5118864e-9	0.1	31.212964	137.77331	-0.013048054	-0.0037132432	-0.0037068333	-0.046639379	0.099995778	0	926.9575693639805
1.	2.7542287e-9	0.1	28.554591	126.8768	-0.012950035	-0.0037133181	-0.0037062898	-0.043711942	0.091325815	0	927.0497156853988
1.	3.0199517e-9	0.1	26.130127	116.93092	-0.012852019	-0.0037134129	-0.0037057065	-0.041033457	0.083418688	0	927.1418629275913
1.	3.3113112e-9	0.1	23.918991	107.85203	-0.012754006	-0.0037135336	-0.0037050838	-0.038582021	0.076207264	0	927.2340110529752
1.	3.6307805e-9	0.1	21.902411	99.563831	-0.012655998	-0.003713688	-0.0037044229	-0.036337656	0.069630313	0	927.326158069672
1.	3.9810717e-9	0.1	20.063266	91.99672	-0.012557995	-0.0037138863	-0.0037037274	-0.034282141	0.063631986	0	927.4183036394381
1.	4.3651583e-9	0.1	18.385941	85.087225	-0.012459998	-0.0037141419	-0.0037030029	-0.032398859	0.05816134	0	927.5104462965519
1.	4.7863009e-9	0.1	16.856197	78.777449	-0.012362012	-0.0037144724	-0.0037022587	-0.030672658	0.053171909	0	927.6025804693902
1.	5.2480746e-9	0.1	15.461043	73.014577	-0.012264037	-0.0037149009	-0.0037015089	-0.029089715	0.0486213	0	927.6947048331663
1.	5.7543994e-9	0.1	14.188632	67.750423	-0.012166078	-0.0037154574	-0.0037007734	-0.027637428	0.044470832	0	927.7868128203186
1.	6.3095734e-9	0.1	13.028157	62.941025	-0.012068141	-0.0037161815	-0.0037000809	-0.026304302	0.040685211	0	927.878896096902
1.	6.9183097e-9	0.1	11.969759	58.546262	-0.01197023	-0.0037171247	-0.0036994708	-0.025079854	0.037232217	0	927.9709472027678
1.	7.5857758e-9	0.1	11.004445	54.529514	-0.011872354	-0.003718354	-0.003698997	-0.023954526	0.034082432	0	928.0629526175707
1.	8.3176377e-9	0.1	10.124007	50.857336	-0.011774525	-0.0037199563	-0.003698732	-0.022919601	0.031208977	0	928.1548942546776
1.	9.1201084e-9	0.1	9.3209575	47.499179	-0.011676755	-0.0037220442	-0.0036987723	-0.021967132	0.028587286	0	928.2467517724988
1.	1.e-8	0.1	8.5884593	44.427113	-0.011579063	-0.003724762	-0.0036992451	-0.021089873	0.026194878	0	928.3384953680211
1.	1.0964782e-8	0.1	7.9202703	41.615588	-0.011481469	-0.0037282936	-0.0037003153	-0.020281218	0.024011165	0	928.4300907565054
1.	1.2022644e-8	0.1	7.3106883	39.041204	-0.011384002	-0.0037328713	-0.0037021941	-0.019535147	0.022017262	0	928.5214908469358
1.	1.3182567e-8	0.1	6.7545029	36.682511	-0.011286694	-0.0037387842	-0.003705148	-0.018846174	0.020195827	0	928.612640533805
1.	1.4454398e-8	0.1	6.2469502	34.519828	-0.011189585	-0.0037463868	-0.0037095062	-0.018209302	0.018530908	0	928.7034713040073
1.	1.5848932e-8	0.1	5.7836743	32.535079	-0.011092722	-0.0037561045	-0.0037156667	-0.01761998	0.017007818	0	928.7939016032703
1.	1.7378008e-8	0.1	5.3606913	30.711668	-0.010996154	-0.003768435	-0.0037240972	-0.017074065	0.015613037	0	928.883841449421
1.	1.9054607e-8	0.1	4.9743602	29.034379	-0.010899937	-0.0037839424	-0.0037353288	-0.01656779	0.014334136	0	928.9731883264833
1.	2.0892961e-8	0.1	4.6213571	27.489305	-0.010804121	-0.0038032417	-0.0037499403	-0.016097727	0.013159743	0	929.0618408741477
1.	2.2908677e-8	0.1	4.2986547	26.063817	-0.010708753	-0.0038269727	-0.003768532	-0.015660759	0.012079533	0	929.1496985307348
1.	2.5118864e-8	0.1	4.003505	24.746542	-0.010613865	-0.0038557651	-0.0037916903	-0.015254052	0.011084235	0	929.236676134041
1.	2.7542287e-8	0.1	3.733424	23.527353	-0.010519471	-0.0038901983	-0.0038199471	-0.014875031	0.010165647	0	929.322710554671
1.	3.0199517e-8	0.1	3.4861755	22.397335	-0.010425562	-0.0039307626	-0.0038537407	-0.014521349	0.0093166254	0	929.4077690675628
1.	3.3113112e-8	0.1	3.259754	21.348724	-0.010332101	-0.0039778286	-0.0038933852	-0.014190867	0.0085310475	0	929.4918569248873
1.	3.6307805e-8	0.1	3.0523645	20.374808	-0.010239031	-0.0040316303	-0.0039390523	-0.013881635	0.0078037199	0	929.5750115495324
1.	3.9810717e-8	0.1	2.8624005	19.469786	-0.010146273	-0.0040922621	-0.0039907687	-0.013591866	0.0071302539	0	929.6573046585208
1.	4.3651583e-8	0.1	2.68842	18.628612	-0.010053737	-0.0041596892	-0.0040484253	-0.013319924	0.0065069165	0	929.7388310633927
1.	4.7863009e-8	0.1	2.5291238	17.846841	-0.0099613256	-0.0042337658	-0.0041117957	-0.013064307	0.0059304774	0	929.8197035495722
1.	5.2480746e-8	0.1	2.3833339	17.120483	-0.0098689442	-0.0043142584	-0.0041805579	-0.012823635	0.0053980709	0	929.9000412539457
1.	5.7543994e-8	0.1	2.2499767	16.445886	-0.0097765044	-0.0044008677	-0.004254317	-0.012596636	0.0049070814	0	929.9799643375258
1.	6.3095734e-8	0.1	2.1280678	15.81965	-0.0096839288	-0.0044932503	-0.004332625	-0.012382141	0.00445506	0	930.0595876151986
1.	6.9183097e-8	0.1	2.0167011	15.238566	-0.0095911532	-0.0045910353	-0.0044149978	-0.012179072	0.0040396679	0	930.1390168914178
1.	7.5857758e-8	0.1	1.9150396	14.699577	-0.009498127	-0.0046938386	-0.0045009284	-0.011986438	0.0036586433	0	930.2183473441535
1.	8.3176377e-8	0.1	1.822309	14.199757	-0.0094048134	-0.0048012735	-0.0045898977	-0.011803327	0.0033097864	0	930.2976623222478
1.	9.1201084e-8	0.1	1.737792	13.736308	-0.0093111884	-0.004912959	-0.0046813817	-0.011628897	0.0029909567	0	930.3770336084937
1.	1.e-7	0.1	1.6608245	13.306551	-0.0092172389	-0.0050285257	-0.0047748574	-0.011462377	0.002700077	0	930.4565226504649
1.	1.0964782e-7	0.1	1.5907917	12.907935	-0.0091229614	-0.00514762	-0.0048698074	-0.011303057	0.0024351417	0	930.5361813497511
1.	1.2022644e-7	0.1	1.5271257	12.53804	-0.0090283597	-0.0052699076	-0.0049657225	-0.011150285	0.002194226	0	930.6160539786721
1.	1.3182567e-7	0.1	1.469302	12.19458	-0.0089334439	-0.0053950744	-0.0050621044	-0.011003465	0.0019754943	0	930.6961778661589
1.	1.4454398e-7	0.1	1.4168373	11.875404	-0.008838228	-0.0055228289	-0.0051584676	-0.010862046	0.001777207	0	930.7765854741943
1.	1.5848932e-7	0.1	1.369287	11.5785	-0.0087427293	-0.0056529015	-0.0052543412	-0.010725526	0.0015977256	0	930.8573047924306
1.	1.7378008e-7	0.1	1.3262422	11.301992	-0.0086469669	-0.0057850449	-0.0053492704	-0.010593443	0.0014355149	0	930.938360606601
1.	1.9054607e-7	0.1	1.2873278	11.044137	-0.0085509607	-0.0059190336	-0.005442819	-0.010465374	0.0012891433	0	931.019775203196
1.	2.0892961e-7	0.1	1.2521993	10.803322	-0.008454731	-0.006054663	-0.0055345719	-0.010340931	0.0011572809	0	931.1015685103966
1.	2.2908677e-7	0.1	1.220541	10.578056	-0.0083582977	-0.0061917484	-0.0056241376	-0.01021976	0.0010386966	0	931.1837586148362
1.	2.5118864e-7	0.1	1.192063	10.366964	-0.0082616799	-0.0063301235	-0.0057111521	-0.010101534	0.00093225271	0	931.2663617709944
1.	2.7542287e-7	0.1	1.166499	10.168779	-0.0081648958	-0.0064696397	-0.005795283	-0.0099859545	0.00083690014	0	931.349392109935
1.	3.0199517e-7	0.1	1.1436039	9.9823368	-0.0080679623	-0.0066101639	-0.0058762335	-0.0098727484	0.00075167159	0	931.4328616393028
1.	3.3113112e-7	0.1	1.1231519	9.8065633	-0.0079708952	-0.0067515781	-0.0059537469	-0.0097616651	0.00067567525	0	931.5167796326077
1.	3.6307805e-7	0.1	1.1049342	9.6404703	-0.0078737087	-0.0068937774	-0.0060276104	-0.0096524755	0.00060808848	0	931.6011527419724
1.	3.9810717e-7	0.1	1.0887574	9.4831474	-0.007776416	-0.0070366691	-0.0060976581	-0.0095449701	0.00054815154	0	931.6859841525237
1.	4.3651583e-7	0.1	1.0744418	9.3337551	-0.0076790288	-0.0071801714	-0.0061637721	-0.009438958	0.00049516224	0	931.7712739488222
1.	4.7863009e-7	0.1	1.0618204	9.1915196	-0.0075815578	-0.0073242121	-0.0062258827	-0.0093342648	0.0004484711	0	931.8570186262893
1.	5.2480746e-7	0.1	1.0507378	9.0557277	-0.0074840122	-0.0074687281	-0.0062839656	-0.0092307321	0.00040747749	0	931.9432118240676
1.	5.7543994e-7	0.1	1.0410497	8.925723	-0.0073864007	-0.0076136639	-0.0063380373	-0.0091282164	0.00037162628	0	932.0298438176555
1.	6.3095734e-7	0.1	1.0326218	8.8009018	-0.0072887306	-0.0077589714	-0.0063881498	-0.0090265876	0.00034040517	0	932.1169028624863
1.	6.9183097e-7	0.1	1.0253301	8.6807088	-0.0071910086	-0.0079046104	-0.0064343832	-0.0089257283	0.00031334039	0	932.2043751375538
1.	7.5857758e-7	0.1	1.0190588	8.5646232	-0.0070932418	-0.0080505535	-0.0064768441	-0.0088255328	0.00028998348	0	932.2922439561771
1.	8.3176377e-7	0.1	1.013694	8.4521003	-0.0069954411	-0.0081968169	-0.0065156878	-0.0087259067	0.00026984892	0	932.3804844856443
1.	9.1201084e-7	0.1	1.0090906	8.3422687	-0.0068976431	-0.0083436213	-0.0065512725	-0.0086267676	0.00025209189	0	932.4690286826327
1.	1.e-6	0.1	1.004909	8.2324592	-0.0068000134	-0.008492185	-0.0065849455	-0.0085280546	0.00023393225	0	932.5575943674805
1.	1.0964782e-6	0.1	1.0000781	8.1133778	-0.0067031929	-0.0086474023	-0.0066217169	-0.0084297697	0.00020547621	0	932.6451086411191
1.	1.2022644e-6	0.1	0.99282126	7.9694786	-0.0066083003	-0.0088184288	-0.0066708411	-0.0083320658	0.00015002493	0	932.7296509004337
1.	1.3182567e-6	0.1	0.98313988	7.8015165	-0.006515354	-0.0090075819	-0.0067347148	-0.0082352028	0.000068122235	0	932.8109786717948
1.	1.4454398e-6	0.1	0.9725972	7.6242584	-0.0064233653	-0.0092096803	-0.0068082151	-0.0081393433	-0.000024677868	0	932.890502233397
1.	1.5848932e-6	0.1	0.9623085	7.4481558	-0.0063316044	-0.0094203501	-0.0068870055	-0.008044511	-0.00011727543	0	932.9693147225465
1.	1.7378008e-6	0.1	0.9527785	7.2779668	-0.0062397183	-0.0096371997	-0.0069687108	-0.0079506525	-0.00020455277	0	933.047970971374
1.	1.9054607e-6	0.1	0.94419357	7.1154779	-0.0061475538	-0.0098589303	-0.0070520289	-0.0078576826	-0.00028452344	0	933.1267372620953
1.	2.0892961e-6	0.1	0.936595	6.9611076	-0.0060550497	-0.010084781	-0.0071361764	-0.007765506	-0.00035664652	0	933.2057447016592
1.	2.2908677e-6	0.1	0.9299608	6.8146646	-0.005962186	-0.010314266	-0.007220629	-0.0076740266	-0.00042102962	0	933.2850613427845
1.	2.5118864e-6	0.1	0.92424379	6.6757033	-0.0058689598	-0.010547051	-0.0073049952	-0.0075831522	-0.00047805477	0	933.3647266941935
1.	2.7542287e-6	0.1	0.91938897	6.5436888	-0.0057753745	-0.010782881	-0.0073889521	-0.0074927955	-0.0005282041	0	933.4447678999294
1.	3.0199517e-6	0.1	0.91534075	6.4180691	-0.0056814365	-0.011021552	-0.00747221	-0.0074028747	-0.00057198302	0	933.5252061659824
1.	3.3113112e-6	0.1	0.91204554	6.2983047	-0.0055871541	-0.011262882	-0.0075544933	-0.0073133135	-0.00060988966	0	933.6060595883808
1.	3.6307805e-6	0.1	0.90945251	6.1838787	-0.0054925369	-0.011506709	-0.0076355327	-0.0072240404	-0.00064240271	0	933.6873444497925
1.	3.9810717e-6	0.1	0.90751402	6.0743029	-0.0053975958	-0.011752882	-0.0077150615	-0.0071349891	-0.00066997523	0	933.7690755671626
1.	4.3651583e-6	0.1	0.906186	5.9691221	-0.0053023423	-0.012001263	-0.0077928155	-0.0070460975	-0.00069302995	0	933.8512669588064
1.	4.7863009e-6	0.1	0.90542829	5.8679166	-0.0052067873	-0.012251724	-0.0078685329	-0.0069573078	-0.0007119555	0	933.9339329812824
1.	5.2480746e-6	0.1	0.90520469	5.7703034	-0.0051109414	-0.012504146	-0.0079419535	-0.006868566	-0.00072710555	0	934.0170881226884
1.	5.7543994e-6	0.1	0.90548261	5.6759335	-0.0050148145	-0.01275842	-0.0080128169	-0.0067798212	-0.00073880073	0	934.100747547609
1.	6.3095734e-6	0.1	0.90623256	5.5844878	-0.0049184167	-0.013014438	-0.00808086	-0.0066910258	-0.00074733302	0	934.1849264863986
1.	6.9183097e-6	0.1	0.90742742	5.4956717	-0.0048217586	-0.013272095	-0.0081458147	-0.0066021349	-0.00075297101	0	934.2696401694113
1.	7.5857758e-6	0.1	0.90904196	5.4092111	-0.0047248521	-0.013531289	-0.0082074077	-0.0065131062	-0.00075596421	0	934.3549030941409
1.	8.3176377e-6	0.1	0.91105244	5.3248489	-0.0046277104	-0.013791916	-0.0082653601	-0.0064238995	-0.00075654602	0	934.4407290628021
1.	9.1201084e-6	0.1	0.91343659	5.2423448	-0.0045303478	-0.014053876	-0.008319389	-0.0063344773	-0.00075493473	0	934.5271312199142
1.	0.00001	0.1	0.91617373	5.1614748	-0.0044327791	-0.014317075	-0.0083692096	-0.0062448038	-0.00075133299	0	934.6141224187311
1.	0.000010964782	0.1	0.91924497	5.0820327	-0.0043350192	-0.014581421	-0.0084145375	-0.0061548456	-0.00074592671	0	934.7017153809677
1.	0.000012022644	0.1	0.92263341	5.0038305	-0.0042370826	-0.014846834	-0.0084550901	-0.0060645706	-0.00073888402	0	934.7899230350433
1.	0.000013182567	0.1	0.92632424	4.9266991	-0.0041389824	-0.015113243	-0.0084905889	-0.0059739485	-0.00073035455	0	934.8787592395468
1.	0.000014454398	0.1	0.93030478	4.8504879	-0.0040407306	-0.015380588	-0.0085207591	-0.0058829503	-0.00072046969	0	934.9682385389495
1.	0.000015848932	0.1	0.93281906	4.775126	-0.0039474198	-0.015635309	-0.0085318218	-0.0057934218	-0.00071115045	0	935.0548707204505
1.	0.000017378008	0.1	0.93717967	4.7003589	-0.0038493858	-0.015903071	-0.008549214	-0.005701768	-0.000699073	0	935.1453459591245
1.	0.000019054607	0.1	0.94178646	4.626156	-0.0037512757	-0.016171521	-0.0085603496	-0.0056096747	-0.00068595541	0	935.2364805471784
1.	0.000020892961	0.1	0.9466307	4.5524214	-0.0036531031	-0.016440623	-0.0085649515	-0.005517118	-0.00067187608	0	935.3282877418794
1.	0.000022908677	0.1	0.95170327	4.4790646	-0.0035548826	-0.016710344	-0.0085627393	-0.0054240752	-0.00065690858	0	935.4207801709858
1.	0.000025118864	0.1	0.95699344	4.4059951	-0.0034566326	-0.016980653	-0.0085534263	-0.0053305244	-0.00064112714	0	935.5139674838338
1.	0.000027542287	0.1	0.96248724	4.3331164	-0.0033583771	-0.017251514	-0.0085367147	-0.0052364449	-0.00062461407	0	935.6078551111109
1.	0.000030199517	0.1	0.96816521	4.2603172	-0.003260149	-0.017522883	-0.0085122911	-0.0051418176	-0.00060746853	0	935.7024415870954
1.	0.000033113112	0.1	0.97399946	4.1874611	-0.003161995	-0.017794702	-0.0084798184	-0.0050466258	-0.00058981915	0	935.7977147068335
1.	0.000036307805	0.1	0.97994932	4.1143711	-0.0030639817	-0.018066888	-0.0084389278	-0.004950856	-0.00057184058	0	935.8936465464427
1.	0.000039810717	0.1	0.9859531	4.0408013	-0.0029662089	-0.018339309	-0.0083891931	-0.0048544997	-0.00055378627	0	935.9901833815765
1.	0.000043651583	0.1	0.99190214	3.9663431	-0.0028688495	-0.01861169	-0.0083300357	-0.0047575563	-0.00053609036	0	936.0872171246369
1.	0.000047863009	0.1	0.99753314	3.8900332	-0.0027723162	-0.018883179	-0.008260292	-0.0046600418	-0.00051979418	0	936.1844693448281
1.	0.000052480746	0.1	1.0019837	3.8087229	-0.0026779482	-0.019150533	-0.0081763983	-0.0045620212	-0.00050831383	0	936.2810166091372
1.	0.000057543994	0.1	1.0025199	3.7123915	-0.0025899887	-0.019403024	-0.0080672945	-0.0044637221	-0.00051254244	0	936.3739113225439
1.	0.000063095734	0.1	0.99475712	3.5850292	-0.0025154317	-0.019623778	-0.0079157656	-0.0043657501	-0.00055012491	0	936.4581996267401
1.	0.000069183097	0.1	0.97969445	3.4308767	-0.002453424	-0.019819407	-0.0077280754	-0.0042689418	-0.00061738443	0	936.5340946339388
1.	0.000075857758	0.1	0.96532998	3.2801551	-0.0023917742	-0.020030634	-0.0075445834	-0.0041736544	-0.00068251336	0	936.6092589223736
1.	0.000083176377	0.1	0.96069829	3.1663929	-0.0023150743	-0.02031043	-0.0074178901	-0.0040793555	-0.00070929415	0	936.6932271542377
1.	0.000091201084	0.1	0.96621246	3.0903652	-0.002221776	-0.020659437	-0.0073482545	-0.0039849626	-0.00069581917	0	936.7874297238202
1.	0.0001	0.1	0.97522149	3.0265296	-0.0021229622	-0.021031431	-0.0072890568	-0.0038898175	-0.00066861571	0	936.885833757174
1.	0.00010964782	0.1	0.98513491	2.9649289	-0.0020230411	-0.021408476	-0.007221956	-0.0037937374	-0.00063809861	0	936.9860207191316
1.	0.00012022644	0.1	0.99552441	2.9038581	-0.0019227461	-0.021787606	-0.0071435662	-0.0036966612	-0.00060602143	0	937.0876196598972
1.	0.00013182567	0.1	1.0063343	2.843042	-0.0018221765	-0.02216842	-0.007053057	-0.0035985459	-0.00057263396	0	937.1906153021382
1.	0.00014454398	0.1	1.0175666	2.782427	-0.0017213339	-0.022550914	-0.0069499782	-0.0034993502	-0.00053795213	0	937.2950484417822
1.	0.00015848932	0.1	1.0292342	2.7220003	-0.0016202015	-0.022935157	-0.0068339422	-0.0033990322	-0.00050194766	0	937.4009712810797
1.	0.00017378008	0.1	1.0413533	2.6617587	-0.0015187565	-0.023321241	-0.00670457	-0.0032975486	-0.00046458038	0	937.5084408516477
1.	0.00019054607	0.1	1.0539417	2.6017034	-0.0014169725	-0.023709275	-0.0065614832	-0.003194854	-0.00042580412	0	937.6175175111645
1.	0.00020892961	0.1	1.0670188	2.5418374	-0.0013148202	-0.024099377	-0.0064043009	-0.0030909017	-0.00038556847	0	937.7282645769386
1.	0.00022908677	0.1	1.0806054	2.482166	-0.0012122668	-0.024491679	-0.0062326388	-0.0029856427	-0.00034381898	0	937.8407489742101
1.	0.00025118864	0.1	1.0947239	2.4226962	-0.0011092762	-0.024886328	-0.0060461106	-0.0028790259	-0.00030049722	0	937.9550409166975
1.	0.00027542287	0.1	1.1093982	2.3634366	-0.0010058086	-0.02528348	-0.0058443265	-0.0027709981	-0.00025554069	0	938.0712144233593
1.	0.00030199517	0.1	1.1246537	2.3043975	-0.00090182028	-0.025683309	-0.0056268959	-0.0026615035	-0.00020888271	0	938.1893472714149
1.	0.00033113112	0.1	1.1405178	2.2455908	-0.00079726317	-0.026086004	-0.0053934253	-0.0025504838	-0.00016045225	0	938.3095215976675
1.	0.00036307805	0.1	1.1570196	2.1870302	-0.00069208457	-0.026491772	-0.0051435213	-0.002437878	-0.00011017377	0	938.4318238797116
1.	0.00039810717	0.1	1.1741902	2.128731	-0.0005862267	-0.026900836	-0.0048767895	-0.0023236221	-0.000057966953	0	938.5563454620908
1.	0.00043651583	0.1	1.192063	2.0707103	-0.00047962628	-0.027313439	-0.0045928371	-0.0022076488	-3.7464721e-6	0	938.6831827066271
1.	0.00047863009	0.1	1.2106734	2.0129866	-0.00037221416	-0.027729848	-0.0042912724	-0.0020898876	0.000052578161	0	938.8124373870394
1.	0.00052480746	0.1	1.2300593	1.9555807	-0.00026391474	-0.028150349	-0.0039717063	-0.0019702645	0.00011110292	0	938.944217092956
1.	0.00057543994	0.1	1.2502613	1.8985148	-0.00015464537	-0.028575256	-0.0036337544	-0.0018487013	0.00017192968	0	939.0786355963451
1.	0.00063095734	0.1	1.2713225	1.8418134	-0.000044315839	-0.029004908	-0.0032770372	-0.001725116	0.00023516636	0	939.2158133128413
1.	0.00069183097	0.1	1.2932893	1.7855025	0.00006717222	-0.029439675	-0.0029011823	-0.0015994221	0.00030092732	0	939.3558776540833
1.	0.00075857758	0.1	1.3162109	1.7296104	0.00017992613	-0.029879956	-0.0025058255	-0.0014715285	0.00036933375	0	939.4989636760129
1.	0.00083176377	0.1	1.3401402	1.6741674	0.00029406286	-0.030326185	-0.0020906129	-0.001341339	0.00044051401	0	939.6452145298678
1.	0.00091201084	0.1	1.3651335	1.6192056	0.00040970969	-0.030778832	-0.0016552031	-0.0012087521	0.00051460394	0	939.794781880286
1.	0.001	0.1	1.3912511	1.5647596	0.00052700535	-0.031238408	-0.0011992686	-0.0010736606	0.00059174744	0	939.9478268439342
1.	0.0010964782	0.1	1.4185575	1.5108659	0.00064610059	-0.031705463	-0.00072249802	-0.00093595106	0.00067209664	0	940.104520316475
1.	0.0012022644	0.1	1.4471216	1.457563	0.00076715941	-0.032180596	-0.00022459908	-0.00079550371	0.0007558125	0	940.2650438482415
1.	0.0013182567	0.1	1.477017	1.4048915	0.00089036001	-0.032664452	0.00029469948	-0.00065219164	0.00084306518	0	940.4295903564288
1.	0.0014454398	0.1	1.5083228	1.3528942	0.0010158959	-0.033157729	0.00083564547	-0.00050588054	0.0009340344	0	940.5983649396968
1.	0.0015848932	0.1	1.5411231	1.3016156	0.0011439771	-0.03366118	0.0013984604	-0.00035642806	0.0010289099	0	940.7715857378721
1.	0.0017378008	0.1	1.5755085	1.2511021	0.0012748314	-0.03417562	0.0019833356	-0.00020368332	0.001127892	0	940.9494847512501
1.	0.0019054607	0.1	1.6115756	1.2014016	0.0014087059	-0.034701924	0.0025904306	-0.000047486264	0.0012311918	0	941.1323091353146
1.	0.0020892961	0.1	1.649428	1.1525636	0.0015458684	-0.035241037	0.00321987	0.000112333	0.0013390317	0	941.3203222126504
1.	0.0022908677	0.1	1.6891767	1.1046386	0.0016866087	-0.035793974	0.00387174	0.00027595488	0.001451646	0	941.5138043683495
1.	0.0025118864	0.1	1.7309407	1.0576783	0.0018312405	-0.036361825	0.0045460859	0.00044357098	0.0015692812	0	941.7130546002932
1.	0.0027542287	0.1	1.7748473	1.0117347	0.001980103	-0.036945759	0.0052429104	0.00061538505	0.0016921965	0	941.9183918627305
1.	0.0030199517	0.1	1.8210332	0.9668608	0.0021335622	-0.037547025	0.0059621716	0.00079161374	0.0018206649	0	942.1301560998012
1.	0.0033113112	0.1	1.8696444	0.92310955	0.0022920125	-0.03816695	0.0067037863	0.00097248758	0.0019549733	0	942.3487100588954
1.	0.0036307805	0.1	1.9208369	0.88053458	0.0024558772	-0.038806938	0.0074676347	0.0011582519	0.0020954241	0	942.5744402020327
1.	0.0039810717	0.1	1.974776	0.8391904	0.0026256077	-0.039468456	0.0082535735	0.0013491676	0.0022423364	0	942.807757185041
1.	0.0043651583	0.1	2.0316358	0.79913332	0.0028016807	-0.040153007	0.009061464	0.0015455127	0.0023960478	0	943.0490958669509
1.	0.0047863009	0.1	2.0915956	0.76042318	0.0029845906	-0.040862079	0.0098912244	0.001747582	0.0025569171	0	943.298913083227
1.	0.0052480746	0.1	2.1548342	0.72312594	0.0031748336	-0.041597058	0.01074292	0.0019556883	0.0027253271	0	943.5576811815578
1.	0.0057543994	0.1	2.2215179	0.68731721	0.0033728792	-0.042359065	0.011616923	0.0021701614	0.0029016881	0	943.8258762584976
1.	0.0063095734	0.1	2.2917804	0.65308522	0.0035791213	-0.043148713	0.012514166	0.0023913458	0.0030864387	0	944.103956032702
1.	0.0069183097	0.1	2.3656928	0.62052946	0.0037938079	-0.043965767	0.013436474	0.0026195965	0.0032800396	0	944.3923249870538
1.	0.0075857758	0.1	2.4432317	0.5897448	0.0040169725	-0.044808873	0.014386837	0.0028552711	0.0034829494	0	944.6912955270327
1.	0.0083176377	0.1	2.5242837	0.560774	0.0042484638	-0.045675914	0.015369066	0.0030987199	0.003695564	0	945.0010835647556
1.	0.0091201084	0.1	2.6087789	0.53351714	0.0044883012	-0.046566175	0.016385618	0.0033502825	0.0039181165	0	945.3219381789971
1.	0.01	0.1	2.6970721	0.50763561	0.0047376346	-0.047485683	0.017432264	0.003610308	0.0041505957	0	945.6545424337664
1.	0.010964782	0.1	2.790493	0.48258978	0.0050000787	-0.048454011	0.018491283	0.0038792241	0.004392855	0	946.0006275721775
1.	0.012022644	0.1	2.8913579	0.45797101	0.0052816236	-0.049502199	0.019533548	0.0041576427	0.0046450713	0	946.3630850126384
1.	0.013182567	0.1	3.001552	0.43388594	0.0055869806	-0.05065093	0.020540344	0.0044463974	0.0049081917	0	946.7445829328301
1.	0.014454398	0.1	3.1213375	0.41072207	0.0059167346	-0.051895905	0.021518004	0.004746427	0.0051835675	0	947.1462659112622
1.	0.015848932	0.1	3.2503733	0.38867404	0.0062700917	-0.053225687	0.022480059	0.005058654	0.0054723283	0	947.5686593528782
1.	0.017378008	0.1	3.3886915	0.36774104	0.0066473136	-0.054635665	0.023433281	0.005383983	0.0057753779	0	948.0126454155851
1.	0.019054607	0.1	3.5366436	0.34786781	0.0070495327	-0.056126393	0.024379344	0.0057233398	0.0060935831	0	948.4794453464249
1.	0.020892961	0.1	3.6946426	0.32899752	0.0074781087	-0.057699717	0.025318698	0.0060776893	0.0064278486	0	948.970378952845
1.	0.022908677	0.1	3.8629846	0.31107802	0.0079342176	-0.059356607	0.026252741	0.0064480325	0.0067791196	0	949.4866825149326
1.	0.025118864	0.1	4.0417128	0.29405989	0.0084185609	-0.061095875	0.027185106	0.0068353879	0.0071483623	0	950.0293564818726
1.	0.027542287	0.1	4.2304783	0.27789504	0.0089310804	-0.062913121	0.028122709	0.0072407604	0.0075365302	0	950.5989959743574
1.	0.030199517	0.1	4.4283786	0.26253635	0.0094706304	-0.064799642	0.02907685	0.007665095	0.0079445182	0	951.1955862412113
1.	0.033113112	0.1	4.6337733	0.2479378	0.010034606	-0.066741306	0.030064339	0.0081092136	0.0083730993	0	951.8182592180076
1.	0.036307805	0.1	4.844091	0.23405453	0.010618552	-0.068717512	0.031108539	0.0085737332	0.0088228426	0	952.4650240597255
1.	0.039810717	0.1	5.055659	0.22084292	0.011215805	-0.070700459	0.032240097	0.0090589658	0.0092940137	0	953.1324995525406
1.	0.043651583	0.1	4.6529101	0.21035215	0.011055362	-0.071684212	0.034467885	0.009549956	0.0097738384	0	953.1910681102851
1.	0.047863009	0.1	4.2855986	0.20078445	0.010909036	-0.072964048	0.036499651	0.0099977445	0.010211444	0	953.2444829641719
1.	0.052480746	0.1	3.9506066	0.19205861	0.010775585	-0.074525842	0.038352644	0.010406132	0.010610545	0	953.2931978303083
1.	0.057543994	0.1	3.6450903	0.18410054	0.010653877	-0.076357082	0.040042594	0.010778587	0.010974529	0	953.3376270570137
1.	0.063095734	0.1	3.3664561	0.1768427	0.010542877	-0.078446742	0.041583846	0.011118269	0.011306487	0	953.3781460006455
1.	0.069183097	0.1	3.1123386	0.17022347	0.010441645	-0.080785161	0.042989485	0.011428063	0.011609235	0	953.4151008910353
1.	0.075857758	0.1	2.8805808	0.16418666	0.010349319	-0.083363934	0.044271443	0.011710598	0.011885346	0	953.4488029122265
1.	0.083176377	0.1	2.8097178	0.15701058	0.010442677	-0.086402781	0.045213641	0.011973596	0.012140706	0	953.6250445135358
1.	0.091201084	0.1	3.3313457	0.14520293	0.011269835	-0.090237697	0.045483836	0.012272594	0.012427137	0	954.4276000952855
1.	0.1	0.1	4.1319599	0.13409634	0.0124466	-0.094084885	0.045869695	0.012635834	0.012778555	0	955.5695016890169
1.	0.10964782	0.1	5.2838844	0.12366511	0.014085342	-0.09799383	0.046325722	0.013094161	0.01322578	0	957.152053606593
1.	0.12022644	0.1	6.8650009	0.11388575	0.016313952	-0.10203652	0.046784048	0.013685785	0.013806997	0	959.2890410641169
1.	0.13182567	0.1	8.9591843	0.10473717	0.019276678	-0.1063057	0.047156156	0.014456837	0.014568311	0	962.1076777335867
1.	0.14454398	0.1	11.658554	0.096200765	0.023136786	-0.1109107	0.04733712	0.015462043	0.015564432	0	965.7515042080444
1.	0.15848932	0.1	15.06745	0.088260368	0.028081158	-0.1159711	0.047211839	0.016765724	0.016859662	0	970.3852938480932
1.	0.17378008	0.1	19.307209	0.080902077	0.034326056	-0.12160935	0.046662531	0.018443223	0.018529329	0	976.2011725468496
1.	0.19054607	0.1	24.519974	0.074113764	0.042122228	-0.12794251	0.045576943	0.020582776	0.020661657	0	983.4241875337724
1.	0.20892961	0.1	30.869211	0.067884277	0.051756685	-0.13507354	0.043857044	0.023287612	0.023359863	0	992.3147937464472
1.	0.22908677	0.1	38.534503	0.062202227	0.063548146	-0.14308219	0.041428182	0.026677848	0.026744051	0	1003.1654344704104
1.	0.25118864	0.1	47.698878	0.057054386	0.077833641	-0.1520158	0.038248294	0.030891509	0.030952233	0	1016.2888193218406
1.	0.27542287	0.1	58.528675	0.052423886	0.094945683	-0.16188116	0.034316013	0.036083932	0.036139728	0	1031.9972375553791
1.	0.30199517	0.1	71.148765	0.048288561	0.11518257	-0.17263961	0.029675576	0.04242494	0.042476334	0	1050.5751159910385
1.	0.33113112	0.1	85.618844	0.044619914	0.13877796	-0.18420766	0.024416246	0.050093568	0.050141058	0	1072.2503784315536
1.	0.36307805	0.1	101.91781	0.041383124	0.1658777	-0.19646437	0.018664911	0.059270825	0.05931487	0	1097.1719796213386
1.	0.39810717	0.1	119.94147	0.038538225	0.1965306	-0.20926479	0.012572657	0.070131534	0.070172551	0	1125.3999752621735
1.	0.43651583	0.1	139.51434	0.036042175	0.23069502	-0.22245653	0.0062981997	0.082836667	0.082875027	0	1156.9101542301069
1.	0.47863009	0.1	160.41165	0.03385129	0.26825781	-0.23589566	-8.027708e-6	0.097527369	0.097563398	0	1191.6103388872557
1.	0.52480746	0.1	182.38504	0.031923476	0.30905939	-0.24945894	-0.0062160386	0.11432139	0.11435537	0	1229.3628064878542
1.	0.57543994	0.1	205.18602	0.030219885	0.35291826	-0.26305075	-0.012223295	0.13331195	0.13334412	0	1270.006660033808
1.	0.63095734	0.1	228.58373	0.028705888	0.39965103	-0.27660523	-0.017956781	0.15456867	0.15459922	0	1313.3764529572966
1.	0.69183097	0.1	252.37601	0.027351431	0.44908633	-0.29008459	-0.023371341	0.17813987	0.17816898	0	1359.3154146080021
1.	0.75857758	0.1	276.39455	0.026130956	0.50107305	-0.30347524	-0.028445771	0.20405569	0.2040835	0	1407.683559520254
1.	0.83176377	0.1	300.50575	0.025023039	0.55548414	-0.31678286	-0.033177926	0.23233149	0.23235812	0	1458.3617174531023
1.	0.91201084	0.1	324.60874	0.024009915	0.61221733	-0.33002752	-0.037579776	0.26297115	0.2629967	0	1511.2526743984793
1.	1.	0.1	348.63201	0.023076953	0.67119413	-0.34323917	-0.041672958	0.29597014	0.2959947	0	1566.280650934515
1.	1.0964782	0.1	372.52934	0.022212157	0.73235783	-0.35645403	-0.045485075	0.33131818	0.33134182	0	1623.3897708279753
1.	1.2022644	0.1	396.27567	0.021405713	0.79567112	-0.36971165	-0.049046821	0.36900155	0.36902433	0	1682.5420949937668
1.	1.3182567	0.1	419.86336	0.020649599	0.86111371	-0.38305283	-0.052389862	0.40900495	0.40902692	0	1743.7155844233005
1.	1.4454398	0.1	443.2987	0.019937254	0.92868008	-0.39651818	-0.055545374	0.45131302	0.45133424	0	1806.9021235269088
1.	1.5848932	0.1	466.59901	0.019263298	0.99837747	-0.41014714	-0.058543088	0.4959116	0.4959321	0	1872.1057213359843
1.	1.7378008	0.1	489.79019	0.018623307	1.0702242	-0.42397748	-0.061410743	0.54278867	0.54280849	0	1939.3409844274147
1.	1.9054607	0.1	512.90463	0.018013632	1.1442481	-0.43804499	-0.06417381	0.59193507	0.59195425	0	2008.6316677379866
1.	2.0892961	0.1	535.97961	0.017431245	1.2204855	-0.45238347	-0.066855416	0.64334507	0.64336363	0	2080.0097327440812
1.	2.2908677	0.1	559.05587	0.016873623	1.2989798	-0.46702474	-0.069476401	0.69701678	0.69703474	0	2153.513998527699
1.	2.5118864	0.1	582.17665	0.016338648	1.3797813	-0.48199881	-0.072055445	0.75295242	0.75296981	0	2229.1899701178727
1.	2.7542287	0.1	605.38679	0.015824533	1.4629459	-0.49733405	-0.074609238	0.81115854	0.81117539	0	2307.088601083095
1.	3.0199517	0.1	628.73207	0.015329756	1.5485347	-0.51305743	-0.077152681	0.87164615	0.87166247	0	2387.265898819925
1.	3.3113112	0.1	652.25878	0.014853014	1.636614	-0.52919465	-0.079699076	0.93443075	0.93444656	0	2469.7829067012385
1.	3.6307805	0.1	676.01329	0.014393179	1.7272542	-0.54577042	-0.082260314	0.99953241	0.99954773	0	2554.704652890518
1.	3.9810717	0.1	700.04179	0.01394927	1.8205303	-0.56280862	-0.084847059	1.0669757	1.0669906	0	2642.100602836524
1.	4.3651583	0.1	724.39015	0.013520424	1.916521	-0.58033246	-0.0874689	1.1367898	1.1368042	0	2732.0437993830883
1.	4.7863009	0.1	749.10371	0.013105877	2.0153092	-0.59836466	-0.090134509	1.2090082	1.2090222	0	2824.611317706653
1.	5.2480746	0.1	774.22728	0.012704946	2.1169812	-0.61692758	-0.092851763	1.283669	1.2836825	0	2919.8835022012986
1.	5.7543994	0.1	799.80504	0.012317017	2.2216273	-0.63604335	-0.095627866	1.3608145	1.3608276	0	3017.9445187552506
1.	6.3095734	0.1	825.88061	0.011941531	2.3293411	-0.65573402	-0.098469446	1.4404913	1.440504	0	3118.8816879413557
1.	6.9183097	0.1	852.49699	0.011577978	2.4402199	-0.67602161	-0.10138265	1.5227504	1.5227628	0	3222.7858519173474
1.	7.5857758	0.1	879.69666	0.011225888	2.5543647	-0.69692823	-0.10437321	1.607647	1.6076589	0	3329.751368224717
1.	8.3176377	0.1	907.5216	0.010884827	2.6718799	-0.71847617	-0.10744653	1.6952401	1.6952517	0	3439.8758197448915
1.	9.1201084	0.1	936.01334	0.010554389	2.7928735	-0.74068798	-0.11060774	1.7855932	1.7856044	0	3553.2601975386438
1.	10.	0.1	965.21308	0.010234194	2.9174573	-0.76358651	-0.11386174	1.8787737	1.8787845	0	3670.009084625084