1.9054607	1.e-12	0.03	1.0248257e6	2.1615937e6	-0.042552471	-0.0084219532	-0.008421953	-1090.7873	3292.9758	0	899.3471334349762
1.9054607	1.0964782e-12	0.03	934652.31	1.9713988e6	-0.042365683	-0.0084219533	-0.008421953	-994.81357	3003.2299	0	899.522632967572
1.9054607	1.2022644e-12	0.03	852413.22	1.7979391e6	-0.042178895	-0.0084219532	-0.008421953	-907.28451	2738.9785	0	899.6981325001677
1.9054607	1.3182567e-12	0.03	777410.25	1.6397419e6	-0.041992107	-0.0084219533	-0.008421953	-827.45702	2497.9783	0	899.8736320327636
1.9054607	1.4454398e-12	0.03	709006.75	1.4954644e6	-0.041805319	-0.0084219532	-0.008421953	-754.65349	2278.1836	0	900.0491315653594
1.9054607	1.5848932e-12	0.03	646622.01	1.3638817e6	-0.041618531	-0.0084219533	-0.0084219529	-688.25585	2077.7284	0	900.224631100774
1.9054607	1.7378008e-12	0.03	589726.45	1.2438768e6	-0.041431743	-0.0084219533	-0.0084219529	-627.70047	1894.9111	0	900.4001306333698
1.9054607	1.9054607e-12	0.03	537837.08	1.1344311e6	-0.041244956	-0.0084219533	-0.0084219529	-572.47329	1728.1797	0	900.5756292264002
1.9054607	2.0892961e-12	0.03	490513.42	1.0346154e6	-0.041058168	-0.0084219533	-0.0084219528	-522.1055	1576.1189	0	900.7511287618147
1.9054607	2.2908677e-12	0.03	447353.71	943582.33	-0.04087138	-0.0084219533	-0.0084219528	-476.16949	1437.4378	0	900.9266282944104
1.9054607	2.5118864e-12	0.03	407991.61	860559.23	-0.040684592	-0.0084219533	-0.0084219528	-434.27535	1310.9591	0	901.1021278270063
1.9054607	2.7542287e-12	0.03	372092.94	784841.24	-0.040497804	-0.0084219533	-0.0084219527	-396.06742	1195.6092	0	901.2776273624207
1.9054607	3.0199517e-12	0.03	339352.96	715785.62	-0.040311016	-0.0084219533	-0.0084219527	-361.22136	1090.4088	0	901.4531268950167
1.9054607	3.3113112e-12	0.03	309493.74	652806.12	-0.040124228	-0.0084219533	-0.0084219526	-329.44135	994.46488	0	901.628626430431
1.9054607	3.6307805e-12	0.03	282261.82	595368.15	-0.03993744	-0.0084219533	-0.0084219525	-300.45763	906.96303	0	901.8041259658456
1.9054607	3.9810717e-12	0.03	257426.	542984.07	-0.039750653	-0.0084219533	-0.0084219525	-274.02414	827.16037	0	901.979624558876
1.9054607	4.3651583e-12	0.03	234775.47	495209.22	-0.039563865	-0.0084219533	-0.0084219524	-249.9165	754.37949	0	902.1551240942905
1.9054607	4.7863009e-12	0.03	214117.94	451638.03	-0.039377077	-0.0084219533	-0.0084219524	-227.93005	688.00254	0	902.3306236268862
1.9054607	5.2480746e-12	0.03	195278.05	411900.62	-0.039190289	-0.0084219533	-0.0084219523	-207.87816	627.46604	0	902.5061231623008
1.9054607	5.7543994e-12	0.03	178095.87	375659.67	-0.039003501	-0.0084219534	-0.0084219522	-189.59059	572.25609	0	902.6816226977152
1.9054607	6.3095734e-12	0.03	162425.53	342607.52	-0.038816713	-0.0084219533	-0.0084219521	-172.91213	521.90403	0	902.8571222331299
1.9054607	6.9183097e-12	0.03	148134.01	312463.59	-0.038629925	-0.0084219534	-0.008421952	-157.70116	475.98239	0	903.0326217685443
1.9054607	7.5857758e-12	0.03	135099.99	284972.	-0.038443137	-0.0084219534	-0.0084219518	-143.82858	434.10137	0	903.2081213067775
1.9054607	8.3176377e-12	0.03	123212.83	259899.36	-0.038256349	-0.0084219534	-0.0084219517	-131.17662	395.90541	0	903.383620842192
1.9054607	9.1201084e-12	0.03	112371.6	237032.83	-0.038069562	-0.0084219534	-0.0084219516	-119.63788	361.0703	0	903.5591194380411
1.9054607	1.e-11	0.03	102484.28	216178.3	-0.037882774	-0.0084219535	-0.0084219514	-109.11441	329.30028	0	903.7346189762743
1.9054607	1.0964782e-11	0.03	93466.947	197158.73	-0.037695986	-0.0084219535	-0.0084219512	-99.51687	300.3257	0	903.9101185145074
1.9054607	1.2022644e-11	0.03	85243.035	179812.67	-0.037509198	-0.0084219535	-0.008421951	-90.763794	273.90055	0	904.0856180527406
1.9054607	1.3182567e-11	0.03	77742.741	163992.87	-0.03732241	-0.0084219535	-0.0084219508	-82.780879	249.80054	0	904.2611175909739
1.9054607	1.4454398e-11	0.03	70902.39	149565.03	-0.037135622	-0.0084219535	-0.0084219506	-75.500356	227.82106	0	904.4366171292071
1.9054607	1.5848932e-11	0.03	64663.916	136406.68	-0.036948834	-0.0084219536	-0.0084219503	-68.860425	207.77555	0	904.612116670259
1.9054607	1.7378008e-11	0.03	58974.359	124406.11	-0.036762046	-0.0084219536	-0.0084219501	-62.804718	189.49381	0	904.7876162084922
1.9054607	1.9054607e-11	0.03	53785.423	113461.46	-0.036575259	-0.0084219536	-0.0084219497	-57.281833	172.82068	0	904.9631148127974
1.9054607	2.0892961e-11	0.03	49053.056	103479.8	-0.036388471	-0.0084219537	-0.0084219494	-52.244884	157.61459	0	905.1386143538492
1.9054607	2.2908677e-11	0.03	44737.087	94376.416	-0.036201683	-0.0084219537	-0.008421949	-47.651117	143.74648	0	905.3141138977197
1.9054607	2.5118864e-11	0.03	40800.876	86074.022	-0.036014895	-0.0084219538	-0.0084219486	-43.461534	131.09862	0	905.4896134415903
1.9054607	2.7542287e-11	0.03	37211.009	78502.141	-0.035828107	-0.0084219538	-0.0084219482	-39.640573	119.56362	0	905.665112985461
1.9054607	3.0199517e-11	0.03	33937.011	71596.495	-0.035641319	-0.0084219539	-0.0084219477	-36.155798	109.04358	0	905.8406125321503
1.9054607	3.3113112e-11	0.03	30951.09	65298.464	-0.035454531	-0.0084219539	-0.0084219472	-32.97763	99.449197	0	906.0161120788397
1.9054607	3.6307805e-11	0.03	28227.896	59554.582	-0.035267743	-0.008421954	-0.0084219466	-30.07909	90.699009	0	906.1916116283476
1.9054607	3.9810717e-11	0.03	25744.315	54316.092	-0.035080956	-0.0084219541	-0.0084219459	-27.435573	82.718745	0	906.3671102411089
1.9054607	4.3651583e-11	0.03	23479.262	49538.524	-0.034894168	-0.0084219542	-0.0084219452	-25.02464	75.440657	0	906.5426097934356
1.9054607	4.7863009e-11	0.03	21413.509	45181.322	-0.03470738	-0.0084219543	-0.0084219445	-22.825828	68.802961	0	906.7181093457623
1.9054607	5.2480746e-11	0.03	19529.52	41207.499	-0.034520592	-0.0084219544	-0.0084219436	-20.82047	62.749311	0	906.8936089037263
1.9054607	5.7543994e-11	0.03	17811.302	37583.321	-0.034333804	-0.0084219545	-0.0084219427	-18.991546	57.228317	0	907.0691084616905
1.9054607	6.3095734e-11	0.03	16244.268	34278.023	-0.034147016	-0.0084219546	-0.0084219417	-17.32353	52.19311	0	907.2446080224732
1.9054607	6.9183097e-11	0.03	14815.116	31263.547	-0.033960228	-0.0084219547	-0.0084219406	-15.802266	47.600947	0	907.4201075860747
1.9054607	7.5857758e-11	0.03	13511.714	28514.305	-0.03377344	-0.0084219549	-0.0084219394	-14.41484	43.412844	0	907.5956071524947
1.9054607	8.3176377e-11	0.03	12322.997	26006.958	-0.033586653	-0.0084219551	-0.008421938	-13.149476	39.593249	0	907.771105784987
1.9054607	9.1201084e-11	0.03	11238.875	23720.222	-0.033399865	-0.0084219553	-0.0084219366	-11.995433	36.109737	0	907.9466053570445
1.9054607	1.e-10	0.03	10250.143	21634.686	-0.033213077	-0.0084219554	-0.0084219349	-10.942918	32.932736	0	908.1221049375581
1.9054607	1.0964782e-10	0.03	9348.4096	19732.647	-0.033026289	-0.0084219556	-0.0084219332	-9.9829963	30.035277	0	908.2976045180717
1.9054607	1.2022644e-10	0.03	8526.0185	17997.958	-0.032839501	-0.0084219559	-0.0084219312	-9.1075206	27.392763	0	908.4731041070415
1.9054607	1.3182567e-10	0.03	7775.989	16415.895	-0.032652713	-0.0084219561	-0.0084219291	-8.309061	24.982762	0	908.6486036988299
1.9054607	1.4454398e-10	0.03	7091.9538	14973.028	-0.032465925	-0.0084219564	-0.0084219268	-7.5808406	22.784814	0	908.8241032962558
1.9054607	1.5848932e-10	0.03	6468.1065	13657.11	-0.032279137	-0.0084219567	-0.0084219242	-6.9166794	20.780262	0	908.9996029021377
1.9054607	1.7378008e-10	0.03	5899.1509	12456.97	-0.03209235	-0.008421957	-0.0084219214	-6.3109406	18.952089	0	909.1751015740915
1.9054607	1.9054607e-10	0.03	5380.2572	11362.421	-0.031905562	-0.0084219574	-0.0084219184	-5.7584839	17.284775	0	909.3506011912483
1.9054607	2.0892961e-10	0.03	4907.0205	10364.173	-0.031718774	-0.0084219578	-0.008421915	-5.2546209	15.764167	0	909.5261008196796
1.9054607	2.2908677e-10	0.03	4475.4236	9453.7519	-0.031531986	-0.0084219583	-0.0084219113	-4.7950761	14.377356	0	909.7016004565672
1.9054607	2.5118864e-10	0.03	4081.8025	8623.4296	-0.031345198	-0.0084219587	-0.0084219073	-4.3759498	13.112569	0	909.877100101911
1.9054607	2.7542287e-10	0.03	3722.8157	7866.1586	-0.03115841	-0.0084219593	-0.0084219028	-3.9936855	11.95907	0	910.0525997613481
1.9054607	3.0199517e-10	0.03	3395.416	7175.5112	-0.030971622	-0.0084219598	-0.008421898	-3.64504	10.907066	0	910.2280994292412
1.9054607	3.3113112e-10	0.03	3096.8239	6545.6251	-0.030784834	-0.0084219605	-0.0084218926	-3.327055	9.9476273	0	910.4035991140466
1.9054607	3.6307805e-10	0.03	2824.5046	5971.154	-0.030598047	-0.0084219612	-0.0084218868	-3.0370328	9.0726086	0	910.5790978705614
1.9054607	3.9810717e-10	0.03	2576.1465	5447.2222	-0.030411259	-0.0084219619	-0.0084218804	-2.7725131	8.2745822	0	910.7545975835537
1.9054607	4.3651583e-10	0.03	2349.6412	4969.3825	-0.030224471	-0.0084219628	-0.0084218733	-2.5312517	7.5467733	0	910.9300973162769
1.9054607	4.7863009e-10	0.03	2143.0658	4533.5794	-0.030037683	-0.0084219637	-0.0084218656	-2.3112023	6.8830037	0	911.1055970659123
1.9054607	5.2480746e-10	0.03	1954.667	4136.1142	-0.029850895	-0.0084219647	-0.0084218572	-2.1104985	6.2776388	0	911.2810968352786
1.9054607	5.7543994e-10	0.03	1782.8451	3773.6135	-0.029664107	-0.0084219659	-0.0084218479	-1.9274379	5.7255393	0	911.4565966300132
1.9054607	6.3095734e-10	0.03	1626.1417	3443.0007	-0.029477319	-0.0084219671	-0.0084218378	-1.7604683	5.2220186	0	911.6320964472974
1.9054607	6.9183097e-10	0.03	1483.2265	3141.4703	-0.029290531	-0.0084219684	-0.0084218266	-1.6081737	4.7628023	0	911.807596295587
1.9054607	7.5857758e-10	0.03	1352.8863	2866.4632	-0.029103744	-0.0084219699	-0.0084218144	-1.469263	4.343992	0	911.9830952324984
1.9054607	8.3176377e-10	0.03	1234.0147	2615.6455	-0.028916956	-0.0084219715	-0.0084218011	-1.3425585	3.9620325	0	912.1585951399808
1.9054607	9.1201084e-10	0.03	1125.6024	2386.8891	-0.028730168	-0.0084219733	-0.0084217864	-1.2269861	3.6136813	0	912.3340950869248
1.9054607	1.e-9	0.03	1026.7293	2178.2526	-0.02854338	-0.0084219752	-0.0084217703	-1.1215665	3.2959812	0	912.5095950733307
1.9054607	1.0964782e-9	0.03	936.55587	1987.9658	-0.028356592	-0.0084219773	-0.0084217526	-1.0254062	3.0062353	0	912.6850951048359
1.9054607	1.2022644e-9	0.03	854.31676	1814.414	-0.028169804	-0.0084219797	-0.0084217333	-0.93769052	2.7419839	0	912.8605951814399
1.9054607	1.3182567e-9	0.03	779.31382	1656.1248	-0.027983016	-0.0084219822	-0.008421712	-0.85767645	2.5009838	0	913.036095314418
1.9054607	1.4454398e-9	0.03	710.91031	1511.7552	-0.027796228	-0.008421985	-0.0084216888	-0.78468631	2.281189	0	913.2115955009513
1.9054607	1.5848932e-9	0.03	648.52556	1380.0805	-0.027609441	-0.0084219881	-0.0084216633	-0.71810206	2.0807338	0	913.3870948127492
1.9054607	1.7378008e-9	0.03	591.63001	1259.9836	-0.027422653	-0.0084219914	-0.0084216353	-0.65736009	1.8979165	0	913.5625951345799
1.9054607	1.9054607e-9	0.03	539.74064	1150.4459	-0.027235865	-0.0084219951	-0.0084216046	-0.60194631	1.7311851	0	913.7380955325153
1.9054607	2.0892961e-9	0.03	492.41697	1050.5382	-0.027049077	-0.0084219991	-0.008421571	-0.55139191	1.5791243	0	913.9135960121929
1.9054607	2.2908677e-9	0.03	449.25728	959.41315	-0.026862289	-0.0084220036	-0.0084215341	-0.50526931	1.4404432	0	914.0890965848878
1.9054607	2.5118864e-9	0.03	409.89517	876.29802	-0.026675501	-0.0084220084	-0.0084214937	-0.46318856	1.3139645	0	914.2645972562367
1.9054607	2.7542287e-9	0.03	373.9965	800.48803	-0.026488713	-0.0084220138	-0.0084214493	-0.42479403	1.1986146	0	914.4400980403335
1.9054607	3.0199517e-9	0.03	341.25652	731.34039	-0.026301926	-0.0084220196	-0.0084214007	-0.38976137	1.0934142	0	914.6155980032502
1.9054607	3.3113112e-9	0.03	311.39731	668.2689	-0.026115138	-0.008422026	-0.0084213474	-0.35779476	0.99747035	0	914.7910990382111
1.9054607	3.6307805e-9	0.03	284.16538	610.7389	-0.02592835	-0.008422033	-0.008421289	-0.32862443	0.90996848	0	914.9666002169253
1.9054607	3.9810717e-9	0.03	259.32957	558.26281	-0.025741562	-0.0084220407	-0.0084212249	-0.30200434	0.83016583	0	915.1421015563053
1.9054607	4.3651583e-9	0.03	236.67904	510.39595	-0.025554774	-0.0084220492	-0.0084211546	-0.2777101	0.75738495	0	915.3176030704444
1.9054607	4.7863009e-9	0.03	216.02151	466.73275	-0.025367986	-0.0084220584	-0.0084210776	-0.25553705	0.691008	0	915.4931047734362
1.9054607	5.2480746e-9	0.03	197.18162	426.90334	-0.025181199	-0.0084220686	-0.0084209931	-0.23529855	0.63047151	0	915.6686057482648
1.9054607	5.7543994e-9	0.03	179.99944	390.57038	-0.024994411	-0.0084220797	-0.0084209005	-0.21682439	0.57526156	0	915.8441078909732
1.9054607	6.3095734e-9	0.03	164.3291	357.42622	-0.024807623	-0.0084220919	-0.0084207989	-0.19995931	0.5249095	0	916.019610287364
1.9054607	6.9183097e-9	0.03	150.03759	327.19028	-0.024620835	-0.0084221053	-0.0084206875	-0.18456175	0.47898787	0	916.1951129599872
1.9054607	7.5857758e-9	0.03	137.00357	299.60668	-0.024434047	-0.00842212	-0.0084205654	-0.17050256	0.43710685	0	916.370615934211
1.9054607	8.3176377e-9	0.03	125.1164	274.44202	-0.02424726	-0.0084221361	-0.0084204315	-0.157664	0.39891091	0	916.5461183014755
1.9054607	9.1201084e-9	0.03	114.27518	251.48349	-0.024060472	-0.0084221537	-0.0084202847	-0.14593866	0.36407579	0	916.7216219719171
1.9054607	1.e-8	0.03	104.38787	230.53695	-0.023873684	-0.0084221731	-0.0084201238	-0.13522858	0.33230579	0	916.8971260397949
1.9054607	1.0964782e-8	0.03	95.370529	211.42537	-0.023686896	-0.0084221943	-0.0084199473	-0.12544444	0.30333121	0	917.0726305473893
1.9054607	1.2022644e-8	0.03	87.146621	193.98731	-0.023500109	-0.0084222176	-0.0084197538	-0.11650476	0.27690608	0	917.2481345945965
1.9054607	1.3182567e-8	0.03	79.646328	178.0755	-0.023313321	-0.0084222431	-0.0084195416	-0.10833524	0.25280607	0	917.4236401084653
1.9054607	1.4454398e-8	0.03	72.805982	163.55565	-0.023126533	-0.0084222711	-0.0084193089	-0.10086812	0.23082661	0	917.5991462001668
1.9054607	1.5848932e-8	0.03	66.567511	150.30529	-0.022939746	-0.0084223018	-0.0084190538	-0.094041578	0.2107811	0	917.7746519836908
1.9054607	1.7378008e-8	0.03	60.877959	138.21271	-0.022752958	-0.0084223354	-0.0084187741	-0.087799268	0.19249938	0	917.9501594001795
1.9054607	1.9054607e-8	0.03	55.689026	127.17605	-0.02256617	-0.0084223723	-0.0084184674	-0.082089775	0.17582625	0	918.1256675777162
1.9054607	2.0892961e-8	0.03	50.956664	117.10239	-0.022379383	-0.0084224128	-0.0084181312	-0.076866221	0.16062019	0	918.3011756472027
1.9054607	2.2908677e-8	0.03	46.640699	107.907	-0.022192595	-0.0084224572	-0.0084177624	-0.072085847	0.14675209	0	918.4766855751495
1.9054607	2.5118864e-8	0.03	42.704494	99.512598	-0.022005807	-0.0084225058	-0.0084173582	-0.067709657	0.13410424	0	918.6521965009148
1.9054607	2.7542287e-8	0.03	39.114633	91.848713	-0.02181902	-0.0084225592	-0.0084169149	-0.063702089	0.12256927	0	918.8277075892247
1.9054607	3.0199517e-8	0.03	35.840642	84.851062	-0.021632232	-0.0084226178	-0.0084164289	-0.060030706	0.11204925	0	919.0032208206834
1.9054607	3.3113112e-8	0.03	32.854728	78.461027	-0.021445445	-0.0084226819	-0.008415896	-0.056665929	0.10245489	0	919.178734434545
1.9054607	3.6307805e-8	0.03	30.131543	72.625143	-0.021258657	-0.0084227523	-0.0084153117	-0.053580779	0.093704726	0	919.3542504367819
1.9054607	3.9810717e-8	0.03	27.647971	67.29465	-0.02107187	-0.0084228296	-0.008414671	-0.050750652	0.085724488	0	919.529767089198
1.9054607	4.3651583e-8	0.03	25.382927	62.425081	-0.020885083	-0.0084229142	-0.0084139686	-0.048153108	0.078446431	0	919.7052854807494
1.9054607	4.7863009e-8	0.03	23.317185	57.975879	-0.020698295	-0.0084230071	-0.0084131984	-0.045767683	0.071808769	0	919.8808067229422
1.9054607	5.2480746e-8	0.03	21.433208	53.910056	-0.020511508	-0.0084231089	-0.008412354	-0.043575711	0.065755155	0	920.0563291170422
1.9054607	5.7543994e-8	0.03	19.715002	50.193879	-0.020324721	-0.0084232207	-0.0084114281	-0.041560172	0.0602342	0	920.2318538083792
1.9054607	6.3095734e-8	0.03	18.147982	46.796584	-0.020137934	-0.0084233432	-0.0084104129	-0.039705541	0.055199037	0	920.4073810168121
1.9054607	6.9183097e-8	0.03	16.718845	43.690113	-0.019951147	-0.0084234776	-0.0084092998	-0.037997659	0.050606922	0	920.5829109847483
1.9054607	7.5857758e-8	0.03	15.41546	40.848877	-0.01976436	-0.0084236251	-0.0084080794	-0.036423614	0.046418872	0	920.7584439771452
1.9054607	8.3176377e-8	0.03	14.226762	38.249537	-0.019577573	-0.0084237868	-0.0084067414	-0.03497163	0.042599335	0	920.9339802843289
1.9054607	9.1201084e-8	0.03	13.142659	35.870811	-0.019390786	-0.0084239642	-0.0084052743	-0.033630965	0.039115887	0	921.109520230449
1.9054607	1.e-7	0.03	12.15395	33.693286	-0.019203999	-0.0084241589	-0.0084036658	-0.032391825	0.035938956	0	921.2850641622053
1.9054607	1.0964782e-7	0.03	11.25224	31.69926	-0.019017213	-0.0084243725	-0.0084019023	-0.031245276	0.033041573	0	921.4606115233754
1.9054607	1.2022644e-7	0.03	10.429876	29.872587	-0.018830426	-0.0084246068	-0.0083999689	-0.030183171	0.030399142	0	921.6361646130754
1.9054607	1.3182567e-7	0.03	9.6798753	28.198543	-0.01864364	-0.008424864	-0.0083978491	-0.029198079	0.027989232	0	921.8117220172594
1.9054607	1.4454398e-7	0.03	8.9958721	26.663698	-0.018456854	-0.0084251462	-0.008395525	-0.028283224	0.025791385	0	921.9872851800393
1.9054607	1.5848932e-7	0.03	8.3720596	25.255804	-0.018270068	-0.0084254559	-0.0083929771	-0.027432424	0.023786943	0	922.1628546510611
1.9054607	1.7378008e-7	0.03	7.8031423	23.963692	-0.018083283	-0.0084257959	-0.0083901838	-0.026640044	0.02195889	0	922.3384300995975
1.9054607	1.9054607e-7	0.03	7.2842906	22.777175	-0.017896497	-0.0084261692	-0.0083871216	-0.025900941	0.020291708	0	922.5140140671732
1.9054607	2.0892961e-7	0.03	6.8110998	21.686962	-0.017709712	-0.0084265791	-0.0083837645	-0.025210428	0.018771244	0	922.689605407518
1.9054607	2.2908677e-7	0.03	6.3795532	20.684581	-0.017522927	-0.0084270292	-0.0083800844	-0.024564228	0.017384591	0	922.865205852251
1.9054607	2.5118864e-7	0.03	5.9859873	19.762304	-0.017336143	-0.0084275237	-0.0083760503	-0.023958442	0.016119978	0	923.0408153356027
1.9054607	2.7542287e-7	0.03	5.627061	18.913083	-0.017149358	-0.008428067	-0.0083716283	-0.023389512	0.014966668	0	923.2164366922418
1.9054607	3.0199517e-7	0.03	5.2997275	18.130492	-0.016962575	-0.0084286641	-0.0083667813	-0.022854194	0.013914872	0	923.3920681492084
1.9054607	3.3113112e-7	0.03	5.0012078	17.408668	-0.016775791	-0.0084293207	-0.0083614689	-0.022349531	0.01295566	0	923.5677136639517
1.9054607	3.6307805e-7	0.03	4.7289679	16.742266	-0.016589009	-0.0084300428	-0.0083556465	-0.021872822	0.012080889	0	923.7433716749142
1.9054607	3.9810717e-7	0.03	4.4806966	16.126411	-0.016402227	-0.0084308376	-0.0083492659	-0.021421608	0.011283134	0	923.9190454198382
1.9054607	4.3651583e-7	0.03	4.2542864	15.556656	-0.016215445	-0.0084317126	-0.008342274	-0.020993644	0.010555622	0	924.0947363954509
1.9054607	4.7863009e-7	0.03	4.0478151	15.028946	-0.016028665	-0.0084326767	-0.0083346132	-0.020586881	0.009892176	0	924.270444346191
1.9054607	5.2480746e-7	0.03	3.8595299	14.539583	-0.015841885	-0.0084337397	-0.0083262204	-0.020199454	0.0092871642	0	924.4461729297861
1.9054607	5.7543994e-7	0.03	3.6878323	14.085195	-0.015655106	-0.0084349127	-0.008317027	-0.019829658	0.00873545	0	924.6219231402963
1.9054607	6.3095734e-7	0.03	3.5312647	13.662705	-0.015468329	-0.0084362086	-0.0083069586	-0.01947594	0.0082323488	0	924.7976961352665
1.9054607	6.9183097e-7	0.03	3.3884978	13.269309	-0.015281553	-0.0084376419	-0.0082959339	-0.019136884	0.0077735887	0	924.9734951458614
1.9054607	7.5857758e-7	0.03	3.2583193	12.902448	-0.015094779	-0.0084392292	-0.0082838652	-0.018811196	0.0073552741	0	925.1493217045125
1.9054607	8.3176377e-7	0.03	3.1396239	12.559789	-0.014908007	-0.0084409901	-0.0082706575	-0.018497698	0.006973852	0	925.325178488981
1.9054607	9.1201084e-7	0.03	3.0314036	12.239205	-0.014721238	-0.0084429469	-0.0082562082	-0.018195314	0.0066260822	0	925.5010674516835
1.9054607	1.e-6	0.03	2.9327392	11.938753	-0.014534472	-0.0084451263	-0.0082404072	-0.017903063	0.0063090095	0	925.6769916960043
1.9054607	1.0964782e-6	0.03	2.8427925	11.656663	-0.014347709	-0.0084475593	-0.0082231365	-0.01762005	0.0060199384	0	925.8529545480052
1.9054607	1.2022644e-6	0.03	2.7607991	11.391321	-0.014160951	-0.0084502832	-0.0082042706	-0.017345458	0.0057564098	0	926.0289576660185
1.9054607	1.3182567e-6	0.03	2.686062	11.141253	-0.013974198	-0.0084533421	-0.0081836764	-0.017078543	0.0055161804	0	926.205004801729
1.9054607	1.4454398e-6	0.03	2.6179451	10.905113	-0.013787452	-0.0084567896	-0.0081612147	-0.016818625	0.0052972022	0	926.3810979996309
1.9054607	1.5848932e-6	0.03	2.5558687	10.681675	-0.013600715	-0.0084606903	-0.0081367403	-0.016565084	0.0050976057	0	926.5572394733398
1.9054607	1.7378008e-6	0.03	2.4993034	10.469817	-0.013413987	-0.0084651231	-0.008110105	-0.016317353	0.0049156824	0	926.7334334001637
1.9054607	1.9054607e-6	0.03	2.4477661	10.268513	-0.013227272	-0.0084701846	-0.0080811593	-0.016074918	0.0047498699	0	926.9096802357915
1.9054607	2.0892961e-6	0.03	2.4008157	10.076827	-0.013040572	-0.0084759936	-0.0080497567	-0.015837306	0.0045987375	0	927.0859822304823
1.9054607	2.2908677e-6	0.03	2.3580487	9.8938991	-0.012853893	-0.0084826969	-0.0080157582	-0.015604088	0.0044609726	0	927.2623376648315
1.9054607	2.5118864e-6	0.03	2.3190962	9.7189407	-0.012667237	-0.0084904758	-0.0079790392	-0.015374873	0.004335368	0	927.4387481718036
1.9054607	2.7542287e-6	0.03	2.2836198	9.5512266	-0.012480612	-0.0084995552	-0.0079394979	-0.015149304	0.0042208096	0	927.6152091043087
1.9054607	3.0199517e-6	0.03	2.2513089	9.3900873	-0.012294025	-0.0085102128	-0.0078970658	-0.014927054	0.0041162649	0	927.7917158161957
1.9054607	3.3113112e-6	0.03	2.2218774	9.2349022	-0.012107484	-0.0085227916	-0.0078517208	-0.014707828	0.0040207715	0	927.968261413874
1.9054607	3.6307805e-6	0.03	2.1950609	9.0850937	-0.011921001	-0.0085377128	-0.0078035025	-0.014491358	0.003933427	0	928.1448335063554
1.9054607	3.9810717e-6	0.03	2.1706142	8.9401209	-0.011734589	-0.0085554896	-0.0077525292	-0.014277398	0.0038533789	0	928.3214165447733
1.9054607	4.3651583e-6	0.03	2.1483093	8.7994751	-0.011548264	-0.0085767414	-0.0076990159	-0.014065727	0.0037798163	0	928.4979894358854
1.9054607	4.7863009e-6	0.03	2.127933	8.6626756	-0.011362043	-0.0086022047	-0.0076432913	-0.013856147	0.0037119638	0	928.6745269420268
1.9054607	5.2480746e-6	0.03	2.1092861	8.5292676	-0.011175944	-0.0086327397	-0.0075858116	-0.013648478	0.0036490781	0	928.8509992921299
1.9054607	5.7543994e-6	0.03	2.0921823	8.3988219	-0.010989989	-0.0086693278	-0.0075271659	-0.01344256	0.0035904495	0	929.0273692108186
1.9054607	6.3095734e-6	0.03	2.076449	8.2709382	-0.010804197	-0.0087130561	-0.0074680706	-0.01323825	0.0035354082	0	929.2035986532127
1.9054607	6.9183097e-6	0.03	2.061928	8.1452495	-0.010618586	-0.0087650858	-0.0074093491	-0.013035421	0.0034833371	0	929.3796474979926
1.9054607	7.5857758e-6	0.03	2.0484776	8.0214313	-0.010433166	-0.0088266032	-0.0073518926	-0.012833963	0.0034336894	0	929.5554812292854
1.9054607	8.3176377e-6	0.03	2.0359749	7.89921	-0.010247944	-0.0088987549	-0.007296607	-0.012633775	0.0033860092	0	929.7310677355666
1.9054607	9.1201084e-6	0.03	2.0243181	7.778372	-0.010062915	-0.0089825749	-0.0072443481	-0.012434771	0.0033399508	0	929.9063875922618
1.9054607	0.00001	0.03	2.0134277	7.6587687	-0.009878061	-0.0090789129	-0.0071958576	-0.012236872	0.0032952919	0	930.0814368052787
1.9054607	0.000010964782	0.03	2.0032461	7.5403168	-0.009693355	-0.0091883777	-0.0071517091	-0.012040005	0.0032519356	0	930.2562245748414
1.9054607	0.000012022644	0.03	1.9914767	7.4239305	-0.0095138349	-0.0093139034	-0.0071148745	-0.011846853	0.003209053	0	930.4259336958452
1.9054607	0.000013182567	0.03	1.9824413	7.3078835	-0.009329747	-0.0094493252	-0.0070792949	-0.011652082	0.0031684788	0	930.5998991888193
1.9054607	0.000014454398	0.03	1.974027	7.1930354	-0.0091457136	-0.0095978767	-0.007048369	-0.011458165	0.0031294808	0	930.7736823018237
1.9054607	0.000015848932	0.03	1.9662277	7.0794524	-0.0089616873	-0.0097591272	-0.0070218787	-0.011265043	0.0030922537	0	930.9473337178322
1.9054607	0.000017378008	0.03	1.9590395	6.9672017	-0.0087776228	-0.0099324731	-0.0069994663	-0.011072655	0.0030569941	0	931.1209060816307
1.9054607	0.000019054607	0.03	1.9524575	6.8563406	-0.0085934795	-0.010117189	-0.006980671	-0.010880943	0.0030238777	0	931.2944505281241
1.9054607	0.000020892961	0.03	1.9464733	6.7469081	-0.0084092232	-0.010312478	-0.0069649623	-0.010689846	0.0029930428	0	931.4680141436297
1.9054607	0.000022908677	0.03	1.9410742	6.6389217	-0.0082248265	-0.010517507	-0.0069517679	-0.010499307	0.0029645826	0	931.6416388036357
1.9054607	0.000025118864	0.03	1.936243	6.5323762	-0.0080402689	-0.010731448	-0.0069404954	-0.01030927	0.0029385435	0	931.8153604671871
1.9054607	0.000027542287	0.03	1.9319582	6.4272457	-0.0078555368	-0.010953496	-0.0069305482	-0.010119679	0.0029149274	0	931.9892087287134
1.9054607	0.000030199517	0.03	1.9281949	6.3234865	-0.0076706218	-0.011182887	-0.0069213356	-0.0099304819	0.0028936981	0	932.1632081306009
1.9054607	0.000033113112	0.03	1.9249257	6.2210407	-0.0074855205	-0.011418909	-0.0069122804	-0.0097416296	0.002874788	0	932.3373781368856
1.9054607	0.000036307805	0.03	1.9221221	6.1198404	-0.0073002333	-0.01166091	-0.0069028233	-0.0095530747	0.0028581061	0	932.5117341367082
1.9054607	0.000039810717	0.03	1.9197548	6.0198106	-0.0071147631	-0.011908298	-0.0068924254	-0.009364773	0.002843545	0	932.6862885952823
1.9054607	0.000043651583	0.03	1.9177949	5.920873	-0.006929115	-0.012160541	-0.0068805695	-0.0091766832	0.002830987	0	932.8610512991206
1.9054607	0.000047863009	0.03	1.9162143	5.8229482	-0.006743295	-0.01241717	-0.0068667608	-0.0089887667	0.0028203099	0	933.0360305577391
1.9054607	0.000052480746	0.03	1.9149863	5.725958	-0.0065573099	-0.012677772	-0.0068505279	-0.0088009877	0.0028113905	0	933.2112332694265
1.9054607	0.000057543994	0.03	1.9140856	5.6298265	-0.0063711668	-0.012941988	-0.0068314222	-0.0086133127	0.0028041084	0	933.3866654079393
1.9054607	0.000063095734	0.03	1.9134889	5.5344813	-0.0061848723	-0.013209513	-0.0068090183	-0.008425711	0.0027983478	0	933.5623327628792
1.9054607	0.000069183097	0.03	1.9131743	5.4398542	-0.005998433	-0.013480095	-0.0067829152	-0.0082381538	0.0027939991	0	933.7382404360862
1.9054607	0.000075857758	0.03	1.913122	5.3458814	-0.0058118546	-0.013753528	-0.0067527367	-0.0080506144	0.0027909594	0	933.914393675972
1.9054607	0.000083176377	0.03	1.9133135	5.2525033	-0.0056251426	-0.014029658	-0.006718134	-0.007863068	0.0027891326	0	934.0907971465393
1.9054607	0.000091201084	0.03	1.9137313	5.1596638	-0.0054383018	-0.014308382	-0.0066787901	-0.0076754917	0.0027884284	0	934.2674552731407
1.9054607	0.0001	0.03	1.9143588	5.0673099	-0.0052513371	-0.014589656	-0.0066344271	-0.007487864	0.0027887602	0	934.4443712850626
1.9054607	0.00010964782	0.03	1.9151789	4.9753888	-0.0050642536	-0.014873505	-0.0065848217	-0.0073001651	0.0027900409	0	934.6215466846697
1.9054607	0.00012022644	0.03	1.9161721	4.8838434	-0.0048770581	-0.015160063	-0.0065298401	-0.0071123772	0.0027921726	0	934.7989788543331
1.9054607	0.00013182567	0.03	1.9173113	4.7925986	-0.0046897622	-0.015449658	-0.0064695305	-0.0069244845	0.0027950187	0	934.9766555364832
1.9054607	0.00014454398	0.03	1.9185458	4.7015163	-0.0045023919	-0.015743116	-0.0064044239	-0.0067364749	0.0027983112	0	935.1545373351447
1.9054607	0.00015848932	0.03	1.9197426	4.6102222	-0.0043150202	-0.016042891	-0.0063366646	-0.0065483443	0.0028012953	0	935.332495220748
1.9054607	0.00017378008	0.03	1.9204848	4.5174886	-0.0041278762	-0.016357148	-0.0062740967	-0.0063601132	0.0028014604	0	935.5100928375342
1.9054607	0.00019054607	0.03	1.9197797	4.4202908	-0.0039414852	-0.016706889	-0.0062373893	-0.0061718705	0.0027925836	0	935.6862540327198
1.9054607	0.00020892961	0.03	1.9170249	4.3167059	-0.0037561247	-0.017110694	-0.0062447739	-0.0059837996	0.002770582	0	935.8602041863501
1.9054607	0.00022908677	0.03	1.9131906	4.2096664	-0.0035712341	-0.017558592	-0.0062859234	-0.0057960625	0.0027412403	0	936.0327611083197
1.9054607	0.00025118864	0.03	1.9093305	4.1024723	-0.0033862578	-0.018033727	-0.0063436096	-0.0056087084	0.0027112025	0	936.20493243173
1.9054607	0.00027542287	0.03	1.9058266	3.996507	-0.0032010655	-0.018526555	-0.0064079068	-0.0054217158	0.0026832948	0	936.3771203572603
1.9054607	0.00030199517	0.03	1.9024204	3.8916424	-0.0030160518	-0.019032558	-0.0064739027	-0.0052350566	0.0026572861	0	936.5490925952291
1.9054607	0.00033113112	0.03	1.8977269	3.7858315	-0.002832816	-0.019549458	-0.0065389118	-0.0050487757	0.00262898	0	936.7194221948548
1.9054607	0.00036307805	0.03	1.8887788	3.6745471	-0.0026547274	-0.020079507	-0.006604767	-0.0048631391	0.0025889292	0	936.8848918147237
1.9054607	0.00039810717	0.03	1.8763878	3.5587241	-0.0024806849	-0.020646005	-0.0066943376	-0.0046785957	0.0025385809	0	937.0458913941868
1.9054607	0.00043651583	0.03	1.8680438	3.4494949	-0.002301926	-0.021274882	-0.0068331065	-0.0044951192	0.002500538	0	937.209935589128
1.9054607	0.00047863009	0.03	1.8652682	3.3495903	-0.0021168723	-0.02194727	-0.0070017499	-0.0043121707	0.0024808777	0	937.379052088683
1.9054607	0.00052480746	0.03	1.8657537	3.2556444	-0.0019282801	-0.022639235	-0.0071758612	-0.0041293185	0.0024732052	0	937.5513391167475
1.9054607	0.00057543994	0.03	1.8681693	3.165418	-0.0017376223	-0.023341206	-0.0073453854	-0.0039463174	0.0024732251	0	937.7256962074056
1.9054607	0.00063095734	0.03	1.8719434	3.0777759	-0.0015454614	-0.024049962	-0.0075066009	-0.0037630098	0.0024787925	0	937.9016997557399
1.9054607	0.00069183097	0.03	1.8767976	2.9920674	-0.0013520281	-0.024764269	-0.0076577616	-0.0035792777	0.0024887055	0	938.079182221276
1.9054607	0.00075857758	0.03	1.8825795	2.9078773	-0.0011574181	-0.025483614	-0.0077978231	-0.0033950234	0.0025022204	0	938.2580831260715
1.9054607	0.00083176377	0.03	1.8892047	2.8249275	-0.00096165678	-0.026207811	-0.0079260566	-0.0032101604	0.0025188592	0	938.4383991666144
1.9054607	0.00091201084	0.03	1.8966314	2.7430287	-0.00076472481	-0.026936869	-0.008041911	-0.0030246085	0.0025383185	0	938.6201640385372
1.9054607	0.001	0.03	1.9048479	2.6620528	-0.00056657	-0.027670933	-0.0081449529	-0.0028382899	0.002560416	0	938.8034389939837
1.9054607	0.0010964782	0.03	1.9138644	2.5819149	-0.00036711391	-0.028410248	-0.0082348338	-0.0026511268	0.0025850576	0	938.9883075556163
1.9054607	0.0012022644	0.03	1.9237093	2.5025621	-0.00016625529	-0.029155144	-0.0083112739	-0.0024630395	0.0026122156	0	939.1748727411377
1.9054607	0.0013182567	0.03	1.9344253	2.4239648	0.000036127961	-0.02990603	-0.0083740512	-0.0022739449	0.002641913	0	939.3632555299222
1.9054607	0.0014454398	0.03	1.9460683	2.3461113	0.0002401783	-0.030663386	-0.0084229973	-0.0020837548	0.0026742142	0	939.553594516315
1.9054607	0.0015848932	0.03	1.9587062	2.2690037	0.00044605852	-0.031427761	-0.0084579958	-0.0018923753	0.0027092179	0	939.7460459359403
1.9054607	0.0017378008	0.03	1.9724183	2.1926554	0.00065395266	-0.03219978	-0.0084789832	-0.0016997049	0.002747052	0	939.9407844953378
1.9054607	0.0019054607	0.03	1.9872957	2.1170884	0.00086406682	-0.032980141	-0.0084859501	-0.0015056341	0.0027878712	0	940.138004103883
1.9054607	0.0020892961	0.03	2.0034409	2.042332	0.0010766309	-0.033769621	-0.008478946	-0.0013100436	0.0028318539	0	940.3379193723956
1.9054607	0.0022908677	0.03	2.0209689	1.9684213	0.0012919005	-0.034569088	-0.0084580869	-0.0011128036	0.0028792014	0	940.5407671840918
1.9054607	0.0025118864	0.03	2.0400072	1.8953965	0.0015101589	-0.035379508	-0.0084235661	-0.00091377249	0.0029301363	0	940.7468082505043
1.9054607	0.0027542287	0.03	2.060698	1.823301	0.0017317211	-0.036201971	-0.0083756774	-0.00071279531	0.0029849021	0	940.9563302533894
1.9054607	0.0030199517	0.03	2.0832004	1.7521814	0.0019569389	-0.037037728	-0.0083148521	-0.00050970245	0.0030437629	0	941.1696515748009
1.9054607	0.0033113112	0.03	2.1076948	1.6820872	0.00218621	-0.037888266	-0.0082417313	-0.0003043077	0.0031070049	0	941.3871278092189
1.9054607	0.0036307805	0.03	2.1343923	1.6130709	0.0024199932	-0.038755422	-0.0081572815	-0.000096405703	0.0031749402	0	941.6091627865277
1.9054607	0.0039810717	0.03	2.1635475	1.5451909	0.0026588315	-0.039641552	-0.0080629632	0.00011423159	0.0032479153	0	941.8362255236572
1.9054607	0.0043651583	0.03	2.1954768	1.4785157	0.0029033817	-0.040549727	-0.0079609227	0.00032785994	0.0033263246	0	942.0688726294555
1.9054607	0.0047863009	0.03	2.2305754	1.4131281	0.0031544433	-0.04148384	-0.0078540991	0.00054477	0.0034106272	0	942.3077724421248
1.9054607	0.0052480746	0.03	2.2693192	1.3491273	0.0034129628	-0.042448426	-0.0077460487	0.00076529522	0.0035013572	0	942.5537140189809
1.9054607	0.0057543994	0.03	2.3122406	1.2866206	0.0036799985	-0.043448112	-0.0076403854	0.00098981864	0.0035991157	0	942.8075898371774
1.9054607	0.0063095734	0.03	2.3598856	1.2257085	0.0039566569	-0.044486903	-0.0075400738	0.0012187767	0.0037045426	0	943.0703559627107
1.9054607	0.0069183097	0.03	2.4127815	1.16647	0.004244048	-0.045567872	-0.0074471122	0.0014526584	0.0038182871	0	943.3429989871163
1.9054607	0.0075857758	0.03	2.4714391	1.1089602	0.004543296	-0.046693476	-0.0073628516	0.0016920037	0.0039410012	0	943.626537089177
1.9054607	0.0083176377	0.03	2.5363749	1.053218	0.0048555791	-0.047866141	-0.007288578	0.0019374024	0.0040733534	0	943.922041016357
1.9054607	0.0091201084	0.03	2.6081277	0.99927431	0.0051821608	-0.049088655	-0.0072259028	0.0021894962	0.0042160482	0	944.2306524890076
1.9054607	0.01	0.03	2.6872561	0.94715651	0.005524391	-0.050364224	-0.0071768211	0.0024489807	0.0043698365	0	944.5535835905906
1.9054607	0.010964782	0.03	2.7743181	0.89688906	0.0058836803	-0.051696308	-0.0071435453	0.0027166064	0.0045355186	0	944.8920973111565
1.9054607	0.012022644	0.03	2.8698357	0.84849209	0.0062614527	-0.05308834	-0.0071282198	0.002993177	0.004713939	0	945.247471147646
1.9054607	0.013182567	0.03	2.9742474	0.80197953	0.0066590779	-0.054543377	-0.007132576	0.0032795438	0.0049059773	0	945.6209432198156
1.9054607	0.014454398	0.03	3.0878453	0.75735758	0.0070777818	-0.056063699	-0.0071575251	0.0035765945	0.0051125336	0	946.0136396568691
1.9054607	0.015848932	0.03	3.2106953	0.7146236	0.0075185291	-0.057650331	-0.0072026851	0.0038852351	0.0053345086	0	946.4264776249189
1.9054607	0.017378008	0.03	3.3425392	0.67376562	0.0079818753	-0.059302495	-0.0072658219	0.0042063629	0.0055727755	0	946.8600420250054
1.9054607	0.019054607	0.03	3.4826787	0.6347623	0.0084677874	-0.061016971	-0.0073422205	0.0045408294	0.0058281424	0	947.3144347529907
1.9054607	0.020892961	0.03	3.629843	0.59758354	0.0089754323	-0.062787418	-0.0074239933	0.004889391	0.0061013045	0	947.7890953844513
1.9054607	0.022908677	0.03	3.7820488	0.56219183	0.009502944	-0.064603665	-0.0074993793	0.0052526452	0.0063927835	0	948.2826021972868
1.9054607	0.025118864	0.03	3.9364659	0.5285449	0.010047185	-0.066451082	-0.0075521063	0.0056309551	0.0067028567	0	948.7924659690697
1.9054607	0.027542287	0.03	4.089304	0.49660183	0.010603523	-0.068310099	-0.0075609138	0.0060243599	0.0070314802	0	949.3149336201034
1.9054607	0.030199517	0.03	4.2357257	0.4663395	0.01116563	-0.070155929	-0.0074992692	0.0064324766	0.0073782241	0	949.8448074542013
1.9054607	0.033113112	0.03	4.3696908	0.43780501	0.011725196	-0.071958099	-0.0073349027	0.0068543915	0.0077422704	0	950.3751892708823
1.9054607	0.036307805	0.03	4.4830246	0.4113059	0.012270681	-0.07367696	-0.0070263113	0.0072885102	0.0081226483	0	950.8964063294294
1.9054607	0.039810717	0.03	4.5587742	0.38819461	0.012779039	-0.075237941	-0.0064970132	0.0077321257	0.0085193935	0	951.3889611962622
1.9054607	0.043651583	0.03	4.21852	0.37568067	0.012859036	-0.077774667	-0.0068786616	0.0081628129	0.0089247022	0	951.4533660971905
1.9054607	0.047863009	0.03	3.9082045	0.36426782	0.012931994	-0.08034464	-0.0072267289	0.0085556043	0.0092943481	0	951.5121039467592
1.9054607	0.052480746	0.03	3.6251934	0.35385918	0.012998532	-0.08295291	-0.0075441699	0.0089138344	0.0096314691	0	951.5656730490895
1.9054607	0.057543994	0.03	3.3987582	0.34148927	0.013109166	-0.086016175	-0.008245522	0.009244427	0.0099369753	0	951.6498519380822
1.9054607	0.063095734	0.03	3.3200417	0.31877114	0.013423695	-0.090759048	-0.010553174	0.0095735068	0.010219982	0	951.8803267922806
1.9054607	0.069183097	0.03	3.2887471	0.29718624	0.013781603	-0.095531455	-0.012814754	0.0098968751	0.010499576	0	952.1528576814408
1.9054607	0.075857758	0.03	3.3502622	0.27668609	0.01423722	-0.10031084	-0.015005341	0.010221302	0.010782428	0	952.519193638271
1.9054607	0.083176377	0.03	3.5628372	0.25722692	0.014863933	-0.10508446	-0.017109756	0.010558634	0.011080296	0	953.0487143949849
1.9054607	0.091201084	0.03	3.997273	0.2387699	0.015755282	-0.10985501	-0.019128159	0.010927052	0.011411283	0	953.829302384508
1.9054607	0.1	0.03	4.7354352	0.22128135	0.017024725	-0.11464654	-0.021082037	0.011352236	0.011801	0	954.9669531591002
1.9054607	0.10964782	0.03	5.8677933	0.20473298	0.01880414	-0.11950985	-0.023019483	0.011868334	0.012283537	0	956.5842191224976
1.9054607	0.12022644	0.03	7.4906866	0.18910202	0.021241725	-0.1245255	-0.02501833	0.012518673	0.012902176	0	958.8181481047428
1.9054607	0.13182567	0.03	9.7044285	0.17437126	0.024500436	-0.12980358	-0.027185792	0.013356226	0.013709855	0	961.8188258802275
1.9054607	0.14454398	0.03	12.613345	0.16052883	0.028758267	-0.13547913	-0.029653999	0.014443987	0.014769543	0	965.7497651007684
1.9054607	0.15848932	0.03	16.328158	0.14756773	0.034211036	-0.14170416	-0.032571933	0.015855462	0.016154732	0	970.790750224323
1.9054607	0.17378008	0.03	20.969928	0.1354848	0.04107709	-0.14863729	-0.036095099	0.017675483	0.017950249	0	977.1425493130748
1.9054607	0.19054607	0.03	26.673579	0.12427918	0.049601916	-0.15643261	-0.040374369	0.02000141	0.020253451	0	985.0315608229952
1.9054607	0.20892961	0.03	33.588334	0.11394999	0.060059692	-0.16522863	-0.045544935	0.022944544	0.023175637	0	994.7115822510522
1.9054607	0.22908677	0.03	41.872537	0.10449335	0.072748662	-0.17513767	-0.051715694	0.026631332	0.026843247	0	1006.4597638500535
1.9054607	0.25118864	0.03	51.681454	0.095899056	0.08797821	-0.18623598	-0.058959391	0.031203723	0.031398208	0	1020.5647416458023
1.9054607	0.27542287	0.03	63.1487	0.088147354	0.10604767	-0.19855556	-0.067304383	0.036817993	0.036996758	0	1037.3069601951365
1.9054607	0.30199517	0.03	76.364549	0.081206547	0.12721992	-0.21207919	-0.076729701	0.04364157	0.043806258	0	1056.934001610508
1.9054607	0.33113112	0.03	91.356642	0.07503218	0.15169563	-0.22674064	-0.087165257	0.051847793	0.05199996	0	1079.636384038389
1.9054607	0.36307805	0.03	108.07901	0.069568128	0.17959496	-0.24243106	-0.098498214	0.061609147	0.061750232	0	1105.5301861832975
1.9054607	0.39810717	0.03	126.41314	0.064749453	0.21095181	-0.25901075	-0.11058476	0.073089993	0.073221306	0	1134.6513129337613
1.9054607	0.43651583	0.03	146.18076	0.060506353	0.24572134	-0.27632388	-0.12326485	0.086440002	0.08656271	0	1166.9621453615807
1.9054607	0.47863009	0.03	167.16449	0.056768314	0.2837974	-0.29421311	-0.13637674	0.10178927	0.10190439	0	1202.3675076765912
1.9054607	0.52480746	0.03	189.13059	0.053467667	0.32503449	-0.31253145	-0.14976897	0.11924559	0.11935402	0	1240.7349623174057
1.9054607	0.57543994	0.03	211.84914	0.050542106	0.36926883	-0.33115036	-0.16330835	0.13889389	0.1389964	0	1281.9143814922702
1.9054607	0.63095734	0.03	235.10893	0.047936087	0.41633552	-0.34996406	-0.17688429	0.1607974	0.16089461	0	1325.7539480709313
1.9054607	0.69183097	0.03	258.72645	0.045601289	0.46608045	-0.36889076	-0.19041009	0.18499991	0.18509239	0	1372.1113094467762
1.9054607	0.75857758	0.03	282.54985	0.043496402	0.51836746	-0.38787202	-0.2038222	0.21152879	0.21161701	0	1420.8603256830877
1.9054607	0.83176377	0.03	306.4592	0.041586547	0.5730817	-0.40687083	-0.21707839	0.2403981	0.24048243	0	1471.8942780347613
1.9054607	0.91201084	0.03	330.36447	0.039842506	0.6301304	-0.4258692	-0.23015521	0.2716116	0.2716924	0	1525.126664008501
1.9054607	1.	0.03	354.20222	0.038239923	0.68944213	-0.44486539	-0.24304538	0.30516558	0.30524314	0	1580.4905756524277
1.9054607	1.0964782	0.03	377.93194	0.036758549	0.75096519	-0.46387127	-0.25575498	0.34105128	0.34112583	0	1637.937266061228
1.9054607	1.2022644	0.03	401.53232	0.035381564	0.81466559	-0.48290961	-0.26830088	0.37925692	0.37932867	0	1697.4343238946312
1.9054607	1.3182567	0.03	424.99778	0.034094996	0.88052512	-0.5020117	-0.28070823	0.41976942	0.41983856	0	1758.9639307655573
1.9054607	1.4454398	0.03	448.33549	0.032887233	0.94853936	-0.52121507	-0.29300825	0.46257582	0.46264251	0	1822.5210537982516
1.9054607	1.5848932	0.03	471.56275	0.031748607	1.018716	-0.54056158	-0.30523629	0.50766437	0.50772876	0	1888.1119218412032
1.9054607	1.7378008	0.03	494.70477	0.030671057	1.0910735	-0.56009575	-0.31743016	0.55502542	0.55508762	0	1955.7528135217963
1.9054607	1.9054607	0.03	517.79286	0.029647846	1.1656393	-0.57986343	-0.32962881	0.60465212	0.60471224	0	2025.4684126311229
1.9054607	2.0892961	0.03	540.86296	0.028673331	1.2424493	-0.5999108	-0.34187125	0.65654089	0.65659904	0	2097.291349991919
1.9054607	2.2908677	0.03	563.95439	0.027742767	1.3215468	-0.62028354	-0.35419584	0.71069188	0.71074815	0	2171.2612275320353
1.9054607	2.5118864	0.03	587.10893	0.026852151	1.4029813	-0.64102636	-0.36663969	0.76710922	0.76716368	0	2247.423507718193
1.9054607	2.7542287	0.03	610.36999	0.025998091	1.4868085	-0.66218269	-0.3792384	0.82580121	0.82585393	0	2325.8295208845916
1.9054607	3.0199517	0.03	633.78205	0.0251777	1.5730894	-0.68379446	-0.39202583	0.88678045	0.88683151	0	2406.5356261071
1.9054607	3.3113112	0.03	657.39017	0.024388506	1.6618898	-0.70590209	-0.40503409	0.95006397	0.95011343	0	2489.602741702446
1.9054607	3.6307805	0.03	681.23962	0.023628381	1.7532803	-0.72854452	-0.41829354	1.0156732	1.0157211	0	2575.0963452282194
1.9054607	3.9810717	0.03	705.37564	0.022895479	1.8473358	-0.75175932	-0.43183291	1.083634	1.0836804	0	2663.0860003177595
1.9054607	4.3651583	0.03	729.84323	0.02218819	1.9441352	-0.77558283	-0.44567943	1.1539767	1.1540217	0	2753.645071146247
1.9054607	4.7863009	0.03	754.687	0.021505096	2.0437616	-0.80005032	-0.45985894	1.226736	1.2267796	0	2846.8509072432075
1.9054607	5.2480746	0.03	779.95112	0.020844944	2.1463018	-0.82519616	-0.47439612	1.3019508	1.3019931	0	2942.784367226837
1.9054607	5.7543994	0.03	805.67927	0.020206615	2.2518463	-0.85105399	-0.48931461	1.3796647	1.3797057	0	3041.5298154215616
1.9054607	6.3095734	0.03	831.91461	0.0195891	2.3604892	-0.8776569	-0.50463721	1.4599251	1.4599649	0	3143.1750222641194
1.9054607	6.9183097	0.03	858.6998	0.018991489	2.4723286	-0.90503761	-0.52038597	1.542784	1.5428225	0	3247.811537592865
1.9054607	7.5857758	0.03	886.07701	0.01841295	2.5874658	-0.93322857	-0.53658241	1.6282972	1.6283345	0	3355.5339327943652
1.9054607	8.3176377	0.03	914.08801	0.017852719	2.7060062	-0.96226217	-0.55324759	1.7165248	1.716561	0	3466.4406444391193
1.9054607	9.1201084	0.03	942.77418	0.017310089	2.8280584	-0.99217083	-0.57040228	1.8075311	1.8075662	0	3580.6331238809703
1.9054607	10.	0.03	972.1766	0.016784405	2.953735	-1.0229871	-0.58806703	1.9013841	1.9014182	0	3698.2165869362875