1.9054607	1.e-12	0.54	1.0248257e6	2.1615942e6	-0.044065517	-0.0010471643	-0.0010471606	-1090.7891	3292.9751	0	897.6316241565156
1.9054607	1.0964782e-12	0.54	934652.32	1.9713994e6	-0.04387873	-0.0010471643	-0.0010471603	-994.8154	3003.2292	0	897.8071229017555
1.9054607	1.2022644e-12	0.54	852413.21	1.7979397e6	-0.043691942	-0.0010471643	-0.0010471598	-907.28633	2738.9778	0	897.982622688034
1.9054607	1.3182567e-12	0.54	777410.25	1.6397425e6	-0.043505154	-0.0010471643	-0.0010471594	-827.45885	2497.9776	0	898.158122423576
1.9054607	1.4454398e-12	0.54	709006.75	1.4954649e6	-0.043318366	-0.0010471642	-0.0010471589	-754.65531	2278.1829	0	898.3336222098544
1.9054607	1.5848932e-12	0.54	646622.	1.3638822e6	-0.043131578	-0.0010471643	-0.0010471584	-688.25767	2077.7277	0	898.5091219961329
1.9054607	1.7378008e-12	0.54	589726.44	1.2438773e6	-0.04294479	-0.0010471643	-0.0010471579	-627.7023	1894.9103	0	898.6846217824113
1.9054607	1.9054607e-12	0.54	537837.08	1.1344316e6	-0.042758002	-0.0010471643	-0.0010471572	-572.47512	1728.179	0	898.8601216701627
1.9054607	2.0892961e-12	0.54	490513.41	1.0346159e6	-0.042571214	-0.0010471643	-0.0010471566	-522.10732	1576.1182	0	899.0356215071778
1.9054607	2.2908677e-12	0.54	447353.72	943582.89	-0.042384427	-0.0010471643	-0.0010471558	-476.17132	1437.4371	0	899.2111205061004
1.9054607	2.5118864e-12	0.54	407991.61	860559.78	-0.042197639	-0.0010471643	-0.001047155	-434.27718	1310.9584	0	899.3866204445885
1.9054607	2.7542287e-12	0.54	372092.94	784841.8	-0.042010851	-0.0010471643	-0.0010471541	-396.06925	1195.6085	0	899.5621204338131
1.9054607	3.0199517e-12	0.54	339352.96	715786.17	-0.041824063	-0.0010471643	-0.0010471531	-361.22318	1090.4081	0	899.7376204737742
1.9054607	3.3113112e-12	0.54	309493.74	652806.68	-0.041637275	-0.0010471643	-0.0010471521	-329.44318	994.46419	0	899.9131205137353
1.9054607	3.6307805e-12	0.54	282261.82	595368.7	-0.041450487	-0.0010471643	-0.0010471509	-300.45946	906.96232	0	900.0886206551695
1.9054607	3.9810717e-12	0.54	257426.	542984.62	-0.041263699	-0.0010471642	-0.0010471495	-274.02597	827.15967	0	900.2641208980765
1.9054607	4.3651583e-12	0.54	234775.47	495209.77	-0.041076911	-0.0010471643	-0.0010471482	-249.91833	754.37879	0	900.4396210902473
1.9054607	4.7863009e-12	0.54	214117.95	451638.58	-0.040890124	-0.0010471642	-0.0010471466	-227.93188	688.00184	0	900.6151204950622
1.9054607	5.2480746e-12	0.54	195278.05	411901.18	-0.040703336	-0.0010471643	-0.0010471449	-207.87998	627.46534	0	900.790620890179
1.9054607	5.7543994e-12	0.54	178095.87	375660.23	-0.040516548	-0.0010471642	-0.001047143	-189.59242	572.25539	0	900.9661213867689
1.9054607	6.3095734e-12	0.54	162425.53	342608.07	-0.04032976	-0.0010471643	-0.001047141	-172.91395	521.90332	0	901.1416219340953
1.9054607	6.9183097e-12	0.54	148134.01	312464.15	-0.040142972	-0.0010471642	-0.0010471387	-157.70299	475.98169	0	901.3171226336312
1.9054607	7.5857758e-12	0.54	135099.99	284972.55	-0.039956184	-0.0010471643	-0.0010471363	-143.83041	434.10066	0	901.4926233839037
1.9054607	8.3176377e-12	0.54	123212.83	259899.91	-0.039769396	-0.0010471643	-0.0010471336	-131.17845	395.90471	0	901.6681242863858
1.9054607	9.1201084e-12	0.54	112371.6	237033.38	-0.039582608	-0.0010471642	-0.0010471306	-119.63971	361.06959	0	901.8436253410773
1.9054607	1.e-11	0.54	102484.29	216178.85	-0.039395821	-0.0010471643	-0.0010471274	-109.11623	329.29959	0	902.0191255576767
1.9054607	1.0964782e-11	0.54	93466.947	197159.29	-0.039209033	-0.0010471642	-0.0010471238	-99.518695	300.32499	0	902.1946269167876
1.9054607	1.2022644e-11	0.54	85243.036	179813.23	-0.039022245	-0.0010471643	-0.0010471199	-90.76562	273.89985	0	902.370128428108
1.9054607	1.3182567e-11	0.54	77742.741	163993.43	-0.038835457	-0.0010471642	-0.0010471156	-82.782704	249.79984	0	902.5456301423746
1.9054607	1.4454398e-11	0.54	70902.39	149565.59	-0.038648669	-0.0010471643	-0.001047111	-75.502182	227.82036	0	902.7211320088508
1.9054607	1.5848932e-11	0.54	64663.915	136407.23	-0.038461881	-0.0010471642	-0.0010471058	-68.86225	207.77484	0	902.896634179746
1.9054607	1.7378008e-11	0.54	58974.36	124406.67	-0.038275093	-0.0010471643	-0.0010471002	-62.806545	189.49311	0	903.0721365535874
1.9054607	1.9054607e-11	0.54	53785.423	113462.01	-0.038088306	-0.0010471642	-0.0010470939	-57.283658	172.81997	0	903.2476383430192
1.9054607	2.0892961e-11	0.54	49053.056	103480.35	-0.037901518	-0.0010471643	-0.0010470872	-52.24671	157.61389	0	903.4231412749624
1.9054607	2.2908677e-11	0.54	44737.087	94376.97	-0.03771473	-0.0010471643	-0.0010470798	-47.652942	143.74578	0	903.5986445620613
1.9054607	2.5118864e-11	0.54	40800.876	86074.576	-0.037527942	-0.0010471642	-0.0010470716	-43.46336	131.09791	0	903.7741482550526
1.9054607	2.7542287e-11	0.54	37211.009	78502.695	-0.037341154	-0.0010471642	-0.0010470627	-39.642399	119.56292	0	903.9496523031994
1.9054607	3.0199517e-11	0.54	33937.011	71597.05	-0.037154366	-0.0010471642	-0.0010470528	-36.157625	109.04288	0	904.1251568587116
1.9054607	3.3113112e-11	0.54	30951.089	65299.018	-0.036967578	-0.0010471642	-0.0010470421	-32.979456	99.448495	0	904.3006618201159
1.9054607	3.6307805e-11	0.54	28227.897	59555.137	-0.036780791	-0.0010471642	-0.0010470303	-30.080916	90.698308	0	904.4761664000569
1.9054607	3.9810717e-11	0.54	25744.315	54316.646	-0.036594003	-0.0010471642	-0.0010470174	-27.437399	82.718043	0	904.6516724776648
1.9054607	4.3651583e-11	0.54	23479.262	49539.078	-0.036407215	-0.0010471642	-0.0010470032	-25.026466	75.439955	0	904.8271792148478
1.9054607	4.7863009e-11	0.54	21413.509	45181.877	-0.036220427	-0.0010471642	-0.0010469876	-22.827653	68.80226	0	905.0026866623421
1.9054607	5.2480746e-11	0.54	19529.52	41208.053	-0.036033639	-0.0010471642	-0.0010469706	-20.822296	62.748609	0	905.1781948201478
1.9054607	5.7543994e-11	0.54	17811.302	37583.875	-0.035846851	-0.0010471642	-0.0010469519	-18.993371	57.227615	0	905.3537038404747
1.9054607	6.3095734e-11	0.54	16244.268	34278.577	-0.035660064	-0.0010471642	-0.0010469314	-17.325356	52.192408	0	905.5292128344934
1.9054607	6.9183097e-11	0.54	14815.116	31264.102	-0.035473276	-0.0010471641	-0.0010469089	-15.804092	47.600245	0	905.7047237828081
1.9054607	7.5857758e-11	0.54	13511.714	28514.859	-0.035286488	-0.0010471642	-0.0010468843	-14.416666	43.412142	0	905.8802357965901
1.9054607	8.3176377e-11	0.54	12322.998	26007.512	-0.0350997	-0.0010471641	-0.0010468573	-13.151302	39.592547	0	906.0557490280487
1.9054607	9.1201084e-11	0.54	11238.875	23720.776	-0.034912912	-0.0010471641	-0.0010468277	-11.997259	36.109035	0	906.231263578657
1.9054607	1.e-10	0.54	10250.144	21635.24	-0.034726125	-0.0010471641	-0.0010467952	-10.944744	32.932035	0	906.4067786610594
1.9054607	1.0964782e-10	0.54	9348.4096	19733.201	-0.034539337	-0.0010471641	-0.0010467596	-9.9848219	30.034575	0	906.5822962558595
1.9054607	1.2022644e-10	0.54	8526.0186	17998.512	-0.034352549	-0.001047164	-0.0010467206	-9.1093464	27.392061	0	906.7578155757017
1.9054607	1.3182567e-10	0.54	7775.9891	16416.449	-0.034165761	-0.001047164	-0.0010466777	-8.3108866	24.98206	0	906.9333368742682
1.9054607	1.4454398e-10	0.54	7091.954	14973.582	-0.033978974	-0.001047164	-0.0010466308	-7.5826663	22.784112	0	907.1088592627307
1.9054607	1.5848932e-10	0.54	6468.1066	13657.664	-0.033792186	-0.001047164	-0.0010465793	-6.918505	20.779561	0	907.284384924639
1.9054607	1.7378008e-10	0.54	5899.151	12457.524	-0.033605398	-0.0010471639	-0.0010465229	-6.3127663	18.951387	0	907.459913072637
1.9054607	1.9054607e-10	0.54	5380.2574	11362.976	-0.033418611	-0.0010471639	-0.001046461	-5.7603096	17.284074	0	907.635443071579
1.9054607	2.0892961e-10	0.54	4907.0207	10364.728	-0.033231823	-0.0010471639	-0.0010463932	-5.2564466	15.763466	0	907.8109770035412
1.9054607	2.2908677e-10	0.54	4475.4238	9454.3062	-0.033045035	-0.0010471638	-0.0010463188	-4.7969017	14.376655	0	907.9865142841146
1.9054607	2.5118864e-10	0.54	4081.8027	8623.984	-0.032858248	-0.0010471638	-0.0010462373	-4.3777753	13.111868	0	908.1620542274161
1.9054607	2.7542287e-10	0.54	3722.816	7866.713	-0.03267146	-0.0010471638	-0.0010461478	-3.9955111	11.958369	0	908.3375991692053
1.9054607	3.0199517e-10	0.54	3395.4163	7176.0656	-0.032484673	-0.0010471637	-0.0010460497	-3.6468655	10.906365	0	908.5131475347705
1.9054607	3.3113112e-10	0.54	3096.8242	6546.1796	-0.032297885	-0.0010471636	-0.0010459422	-3.3288805	9.9469262	0	908.6887016091349
1.9054607	3.6307805e-10	0.54	2824.5049	5971.7085	-0.032111098	-0.0010471636	-0.0010458243	-3.0388583	9.0719076	0	908.8642600205328
1.9054607	3.9810717e-10	0.54	2576.1468	5447.7767	-0.03192431	-0.0010471635	-0.001045695	-2.7743385	8.2738812	0	909.0398251554607
1.9054607	4.3651583e-10	0.54	2349.6416	4969.937	-0.031737523	-0.0010471634	-0.0010455532	-2.5330772	7.5460726	0	909.2153956928892
1.9054607	4.7863009e-10	0.54	2143.0663	4534.134	-0.031550735	-0.0010471634	-0.0010453978	-2.3130277	6.8823031	0	909.3909740700508
1.9054607	5.2480746e-10	0.54	1954.6674	4136.6688	-0.031363948	-0.0010471633	-0.0010452274	-2.1123238	6.2769383	0	909.5665591181266
1.9054607	5.7543994e-10	0.54	1782.8456	3774.1681	-0.031177161	-0.0010471632	-0.0010450405	-1.9292632	5.724839	0	909.7421525377295
1.9054607	6.3095734e-10	0.54	1626.1423	3443.5555	-0.030990374	-0.0010471631	-0.0010448357	-1.7622935	5.2213184	0	909.917755039171
1.9054607	6.9183097e-10	0.54	1483.2272	3142.0251	-0.030803586	-0.001047163	-0.001044611	-1.6099989	4.7621023	0	910.0933685767473
1.9054607	7.5857758e-10	0.54	1352.887	2867.0181	-0.030616799	-0.0010471629	-0.0010443647	-1.4710881	4.3432922	0	910.2689921338483
1.9054607	8.3176377e-10	0.54	1234.0154	2616.2005	-0.030430012	-0.0010471627	-0.0010440945	-1.3443835	3.961333	0	910.4446278169801
1.9054607	9.1201084e-10	0.54	1125.6033	2387.4441	-0.030243225	-0.0010471626	-0.0010437984	-1.2288111	3.612982	0	910.6202766408726
1.9054607	1.e-9	0.54	1026.7302	2178.8077	-0.030056439	-0.0010471624	-0.0010434737	-1.1233914	3.2952822	0	910.7959390358469
1.9054607	1.0964782e-9	0.54	936.55689	1988.521	-0.029869652	-0.0010471622	-0.0010431175	-1.027231	3.0055366	0	910.9716183523933
1.9054607	1.2022644e-9	0.54	854.31788	1814.9693	-0.029682865	-0.0010471621	-0.0010427272	-0.9395152	2.7412855	0	911.1473149700961
1.9054607	1.3182567e-9	0.54	779.31504	1656.6802	-0.029496079	-0.0010471618	-0.0010422991	-0.859501	2.5002857	0	911.3230298266413
1.9054607	1.4454398e-9	0.54	710.91165	1512.3108	-0.029309292	-0.0010471615	-0.0010418296	-0.78651074	2.2804913	0	911.4987666276751
1.9054607	1.5848932e-9	0.54	648.52704	1380.6362	-0.029122506	-0.0010471613	-0.001041315	-0.71992636	2.0800365	0	911.6745253713178
1.9054607	1.7378008e-9	0.54	591.63162	1260.5395	-0.02893572	-0.0010471611	-0.0010407507	-0.65918423	1.8972197	0	911.8503093310155
1.9054607	1.9054607e-9	0.54	539.74241	1151.0019	-0.028748934	-0.0010471607	-0.0010401319	-0.60377028	1.7304888	0	912.0261209421215
1.9054607	2.0892961e-9	0.54	492.41891	1051.0944	-0.028562149	-0.0010471604	-0.0010394534	-0.5532157	1.5784285	0	912.2019619033697
1.9054607	2.2908677e-9	0.54	449.25941	959.96956	-0.028375363	-0.00104716	-0.0010387095	-0.5070929	1.439748	0	912.3778369858734
1.9054607	2.5118864e-9	0.54	409.8975	876.85466	-0.028188578	-0.0010471596	-0.0010378938	-0.46501194	1.31327	0	912.5537475576394
1.9054607	2.7542287e-9	0.54	373.99905	801.0449	-0.028001793	-0.0010471591	-0.0010369994	-0.42661717	1.1979208	0	912.7296980590536
1.9054607	3.0199517e-9	0.54	341.25933	731.89753	-0.027815008	-0.0010471586	-0.0010360187	-0.39158424	1.0927212	0	912.9056923460921
1.9054607	3.3113112e-9	0.54	311.40038	668.82631	-0.027628224	-0.0010471581	-0.0010349434	-0.35961735	0.99677822	0	913.0817336903219
1.9054607	3.6307805e-9	0.54	284.16875	611.29663	-0.02744144	-0.0010471575	-0.0010337644	-0.3304467	0.9092773	0	913.2578276483321
1.9054607	3.9810717e-9	0.54	259.33326	558.82089	-0.027254656	-0.0010471569	-0.0010324716	-0.30382627	0.8294757	0	913.4339793445121
1.9054607	4.3651583e-9	0.54	236.68309	510.95441	-0.027067873	-0.0010471561	-0.0010310541	-0.27953165	0.75669597	0	913.6101933695782
1.9054607	4.7863009e-9	0.54	216.02595	467.29162	-0.02688109	-0.0010471554	-0.0010294999	-0.25735818	0.69032027	0	913.7864767514795
1.9054607	5.2480746e-9	0.54	197.18649	427.46266	-0.026694308	-0.0010471545	-0.0010277956	-0.23711922	0.62978516	0	913.9628353493454
1.9054607	5.7543994e-9	0.54	180.00478	391.1302	-0.026507526	-0.0010471535	-0.001025927	-0.21864456	0.57457673	0	914.139277307328
1.9054607	6.3095734e-9	0.54	164.33496	357.98659	-0.026320745	-0.0010471525	-0.0010238781	-0.20177894	0.52422632	0	914.315809803707
1.9054607	6.9183097e-9	0.54	150.04401	327.75125	-0.026133965	-0.0010471514	-0.0010216316	-0.18638077	0.47830651	0	914.4924416159017
1.9054607	7.5857758e-9	0.54	137.01061	300.16831	-0.025947185	-0.0010471501	-0.0010191684	-0.17232093	0.43642749	0	914.6691833741545
1.9054607	8.3176377e-9	0.54	125.12412	275.00438	-0.025760406	-0.0010471488	-0.0010164675	-0.15948164	0.39823373	0	914.8460447935713
1.9054607	9.1201084e-9	0.54	114.28364	252.04663	-0.025573628	-0.0010471473	-0.0010135061	-0.14775551	0.36340101	0	915.0230374420804
1.9054607	1.e-8	0.54	104.39715	231.10096	-0.02538685	-0.0010471456	-0.001010259	-0.13704456	0.33163364	0	915.2001750448526
1.9054607	1.0964782e-8	0.54	95.380705	211.99033	-0.025200074	-0.0010471438	-0.0010066987	-0.12725947	0.30266194	0	915.3774696753028
1.9054607	1.2022644e-8	0.54	87.157778	194.55331	-0.025013299	-0.0010471418	-0.001002795	-0.11831874	0.27623996	0	915.5549375954274
1.9054607	1.3182567e-8	0.54	79.658562	178.64264	-0.024826525	-0.0010471397	-0.00099851484	-0.11014808	0.25214342	0	915.7325955787237
1.9054607	1.4454398e-8	0.54	72.819394	164.12405	-0.024639753	-0.0010471373	-0.00099382182	-0.10267969	0.23016775	0	915.9104611537225
1.9054607	1.5848932e-8	0.54	66.582218	150.87506	-0.024452982	-0.0010471347	-0.0009886763	-0.095851781	0.21012641	0	916.0885553719493
1.9054607	1.7378008e-8	0.54	60.894084	138.78399	-0.024266212	-0.0010471318	-0.00098303457	-0.089607959	0.19184925	0	916.2669004103407
1.9054607	1.9054607e-8	0.54	55.706707	127.74898	-0.024079445	-0.0010471287	-0.00097684893	-0.083896813	0.17518114	0	916.4455185910904
1.9054607	2.0892961e-8	0.54	50.97605	117.67713	-0.023892679	-0.0010471252	-0.0009700669	-0.078671443	0.15998056	0	916.6244384198594
1.9054607	2.2908677e-8	0.54	46.661954	108.48372	-0.023705916	-0.0010471215	-0.00096263119	-0.073889078	0.14611848	0	916.8036870844746
1.9054607	2.5118864e-8	0.54	42.727798	100.0915	-0.023519154	-0.0010471174	-0.00095447897	-0.069510705	0.13347722	0	916.9832983418275
1.9054607	2.7542287e-8	0.54	39.140184	92.429999	-0.023332396	-0.0010471128	-0.00094554123	-0.065500744	0.12194948	0	917.163304386501
1.9054607	3.0199517e-8	0.54	35.868656	85.434964	-0.02314564	-0.0010471079	-0.00093574261	-0.061826738	0.11143739	0	917.3437453326737
1.9054607	3.3113112e-8	0.54	32.885441	79.047795	-0.022958888	-0.0010471024	-0.00092500047	-0.058459084	0.10185171	0	917.5246612298826
1.9054607	3.6307805e-8	0.54	30.165216	73.215052	-0.022772139	-0.0010470965	-0.00091322436	-0.055370781	0.093111074	0	917.7060989088831
1.9054607	3.9810717e-8	0.54	27.684887	67.888001	-0.022585393	-0.0010470899	-0.00090031528	-0.052537196	0.085141275	0	917.8881085988392
1.9054607	4.3651583e-8	0.54	25.423399	63.022204	-0.022398652	-0.0010470827	-0.00088616498	-0.049935862	0.077874657	0	918.0707433429125
1.9054607	4.7863009e-8	0.54	23.361552	58.577135	-0.022211915	-0.0010470749	-0.00087065503	-0.047546281	0.071249533	0	918.2540641679395
1.9054607	5.2480746e-8	0.54	21.481843	54.515841	-0.022025183	-0.0010470662	-0.00085365591	-0.045349755	0.065209658	0	918.4381358483072
1.9054607	5.7543994e-8	0.54	19.768315	50.804624	-0.021838457	-0.0010470567	-0.00083502635	-0.043329222	0.059703754	0	918.6230291199447
1.9054607	6.3095734e-8	0.54	18.206418	47.41276	-0.021651737	-0.0010470463	-0.00081461207	-0.041469118	0.05468508	0	918.8088222591687
1.9054607	6.9183097e-8	0.54	16.782893	44.312235	-0.021465023	-0.0010470349	-0.00079224486	-0.039755237	0.050111023	0	918.9956006098942
1.9054607	7.5857758e-8	0.54	15.485652	41.477506	-0.021278317	-0.0010470223	-0.0007677414	-0.038174616	0.045942746	0	919.1834553031956
1.9054607	8.3176377e-8	0.54	14.30368	38.885287	-0.021091618	-0.0010470085	-0.00074090255	-0.036715426	0.042144855	0	919.372488315362
1.9054607	9.1201084e-8	0.54	13.226938	36.514348	-0.020904929	-0.0010469934	-0.00071151201	-0.035366866	0.038685094	0	919.5628065708092
1.9054607	1.e-7	0.54	12.246281	34.345334	-0.020718249	-0.0010469767	-0.00067933515	-0.034119075	0.035534074	0	919.7545300522202
1.9054607	1.0964782e-7	0.54	11.353376	32.360606	-0.02053158	-0.0010469584	-0.00064411857	-0.032963051	0.032665023	0	919.9477854468287
1.9054607	1.2022644e-7	0.54	10.540633	30.544082	-0.020344922	-0.0010469384	-0.00060558913	-0.031890567	0.030053552	0	920.1427113363895
1.9054607	1.3182567e-7	0.54	9.8011397	28.881105	-0.020158278	-0.0010469164	-0.00056345311	-0.03089411	0.027677453	0	920.3394539255396
1.9054607	1.4454398e-7	0.54	9.1286028	27.358317	-0.019971648	-0.0010468921	-0.0005173964	-0.029966814	0.0255165	0	920.5381725827896
1.9054607	1.5848932e-7	0.54	8.5172912	25.963543	-0.019785033	-0.0010468654	-0.00046708464	-0.029102399	0.023552279	0	920.7390360112323
1.9054607	1.7378008e-7	0.54	7.9619879	24.685684	-0.019598437	-0.0010468359	-0.00041216378	-0.028295124	0.021768027	0	920.9422200852871
1.9054607	1.9054607e-7	0.54	7.4579434	23.514625	-0.01941186	-0.0010468034	-0.00035226195	-0.027539734	0.020148482	0	921.1479134788835
1.9054607	2.0892961e-7	0.54	7.0008332	22.441143	-0.019225305	-0.0010467676	-0.00028699172	-0.026831421	0.018679747	0	921.3563099418599
1.9054607	2.2908677e-7	0.54	6.5867191	21.456824	-0.019038774	-0.0010467281	-0.0002159534	-0.026165779	0.017349167	0	921.5676103839176
1.9054607	2.5118864e-7	0.54	6.2120124	20.553992	-0.018852271	-0.0010466843	-0.00013874034	-0.025538772	0.016145209	0	921.7820173668899
1.9054607	2.7542287e-7	0.54	5.8734403	19.725635	-0.018665799	-0.0010466358	-0.00005494471	-0.0249467	0.015057354	0	921.9997349908672
1.9054607	3.0199517e-7	0.54	5.5680143	18.965344	-0.018479361	-0.0010465821	0.00003583481	-0.02438617	0.014075995	0	922.2209640529904
1.9054607	3.3113112e-7	0.54	5.2930006	18.267249	-0.018292963	-0.0010465223	0.0001339841	-0.023854068	0.013192344	0	922.4458946979858
1.9054607	3.6307805e-7	0.54	5.0458928	17.625967	-0.018106609	-0.0010464556	0.00023986339	-0.023347537	0.012398341	0	922.6747059357897
1.9054607	3.9810717e-7	0.54	4.8243865	17.036552	-0.017920307	-0.0010463811	0.00035379651	-0.022863957	0.011686573	0	922.9075545499809
1.9054607	4.3651583e-7	0.54	4.6263558	16.494444	-0.017734064	-0.0010462975	0.00047606022	-0.022400924	0.0110502	0	923.1445743820193
1.9054607	4.7863009e-7	0.54	4.4498327	15.995432	-0.01754789	-0.0010462035	0.00060687367	-0.021956233	0.010482881	0	923.3858672253544
1.9054607	5.2480746e-7	0.54	4.2929886	15.535614	-0.017361796	-0.0010460973	0.00074639076	-0.021527867	0.0099787255	0	923.6315008282857
1.9054607	5.7543994e-7	0.54	4.1541189	15.111369	-0.017175797	-0.0010459768	0.0008946938	-0.021113982	0.009532231	0	923.8815028585694
1.9054607	6.3095734e-7	0.54	4.0316306	14.719327	-0.01698991	-0.0010458394	0.0010517925	-0.020712895	0.0091382491	0	924.135862270112
1.9054607	6.9183097e-7	0.54	3.9240328	14.356353	-0.016804157	-0.0010456817	0.0012176258	-0.020323073	0.0087919499	0	924.3945274127509
1.9054607	7.5857758e-7	0.54	3.8299295	14.019523	-0.016618565	-0.0010454997	0.0013920677	-0.019943126	0.0084887976	0	924.6574089901952
1.9054607	8.3176377e-7	0.54	3.7480153	13.706117	-0.016433169	-0.0010452884	0.0015749387	-0.019571797	0.0082245323	0	924.9243830455885
1.9054607	9.1201084e-7	0.54	3.6770716	13.413603	-0.016248011	-0.0010450414	0.001766018	-0.01920795	0.0079951547	0	925.1952980909305
1.9054607	1.e-6	0.54	3.6159645	13.139629	-0.016063147	-0.0010447505	0.0019650592	-0.018850566	0.0077969126	0	925.4699764957536
1.9054607	1.0964782e-6	0.54	3.5636415	12.882009	-0.015878646	-0.0010444056	0.002171805	-0.018498733	0.0076262846	0	925.7482228849605
1.9054607	1.2022644e-6	0.54	3.5191285	12.638709	-0.015694596	-0.0010439937	0.0023860029	-0.01815164	0.0074799604	0	926.0298264670647
1.9054607	1.3182567e-6	0.54	3.4815247	12.407833	-0.015511106	-0.0010434983	0.0026074177	-0.017808564	0.0073548144	0	926.314565497127
1.9054607	1.4454398e-6	0.54	3.4499961	12.187601	-0.015328318	-0.001042899	0.0028358425	-0.01746887	0.007247872	0	926.6022015829897
1.9054607	1.5848932e-6	0.54	3.4237682	11.976325	-0.015146407	-0.0010421696	0.0030711083	-0.017132	0.00715627	0	926.8924845559823
1.9054607	1.7378008e-6	0.54	3.4021163	11.772388	-0.014965593	-0.0010412772	0.0033130894	-0.016797472	0.0070772098	0	927.1851439359111
1.9054607	1.9054607e-6	0.54	3.3843559	11.574214	-0.014786148	-0.0010401813	0.0035617077	-0.01646487	0.0070079086	0	927.4798845357723
1.9054607	2.0892961e-6	0.54	3.3698333	11.380242	-0.014608403	-0.001038832	0.0038169351	-0.016133845	0.0069455536	0	927.7763811024697
1.9054607	2.2908677e-6	0.54	3.3579168	11.188911	-0.014432756	-0.0010371682	0.0040787949	-0.015804111	0.0068872646	0	928.0742715106055
1.9054607	2.5118864e-6	0.54	3.3479921	10.998649	-0.014259676	-0.0010351173	0.0043473608	-0.015475443	0.0068300778	0	928.3731524968526
1.9054607	2.7542287e-6	0.54	3.3394612	10.80788	-0.0140897	-0.0010325937	0.0046227556	-0.015147674	0.0067709614	0	928.6725818190753
1.9054607	3.0199517e-6	0.54	3.3317492	10.615049	-0.013923423	-0.0010295002	0.0049051479	-0.014820697	0.0067068743	0	928.972085977678
1.9054607	3.3113112e-6	0.54	3.324318	10.418683	-0.013761478	-0.001025728	0.0051947491	-0.014494458	0.0066348784	0	929.2711774848166
1.9054607	3.6307805e-6	0.54	3.3166875	10.217461	-0.013604506	-0.0010211602	0.0054918068	-0.014168953	0.0065522986	0	929.5693797027471
1.9054607	3.9810717e-6	0.54	3.3084616	10.010307	-0.013453119	-0.0010156751	0.0057965999	-0.013844223	0.0064569164	0	929.8662591216543
1.9054607	4.3651583e-6	0.54	3.2993544	9.7964864	-0.013307858	-0.0010091502	0.0061094314	-0.01352034	0.0063471654	0	930.1614611683663
1.9054607	4.7863009e-6	0.54	3.2892112	9.5756721	-0.013169157	-0.0010014668	0.0064306218	-0.013197401	0.0062222884	0	930.4547406820967
1.9054607	5.2480746e-6	0.54	3.2780177	9.3479817	-0.013037314	-0.00099251236	0.0067605055	-0.012875507	0.0060824202	0	930.7459873353237
1.9054607	5.7543994e-6	0.54	3.2658966	9.1139638	-0.012912483	-0.00098218251	0.0070994264	-0.012554758	0.0059285755	0	931.0352309179061
1.9054607	6.3095734e-6	0.54	3.2530902	8.8745412	-0.012794676	-0.00097038171	0.0074477365	-0.012235233	0.0057625457	0	931.3226387476418
1.9054607	6.9183097e-6	0.54	3.239934	8.6309215	-0.012683781	-0.00095702131	0.0078057962	-0.011916984	0.0055867284	0	931.6084989102998
1.9054607	7.5857758e-6	0.54	3.2268261	8.3844929	-0.012579591	-0.00094201684	0.0081739764	-0.011600026	0.0054039242	0	931.8931940776934
1.9054607	8.3176377e-6	0.54	3.2141964	8.1367219	-0.012481828	-0.00092528762	0.0085526582	-0.011284332	0.0052171321	0	932.1771788059013
1.9054607	9.1201084e-6	0.54	3.2024805	7.8890648	-0.012390174	-0.00090674998	0.0089422385	-0.010969835	0.0050293744	0	932.4609532499885
1.9054607	0.00001	0.54	3.1920988	7.6428995	-0.012304294	-0.00088631932	0.0093431284	-0.010656425	0.0048435558	0	932.745040742217
1.9054607	0.000010964782	0.54	3.1834427	7.3994792	-0.012223852	-0.0008639042	0.009755758	-0.010343951	0.0046623678	0	933.0299751943559
1.9054607	0.000012022644	0.54	3.1768656	7.1599046	-0.012148529	-0.00083940746	0.010180575	-0.010032226	0.0044882297	0	933.316283475191
1.9054607	0.000013182567	0.54	3.172679	6.9251128	-0.012078026	-0.0008127234	0.010618049	-0.0097210312	0.004323261	0	933.604484773502
1.9054607	0.000014454398	0.54	3.1711522	6.6958767	-0.012012073	-0.00078373666	0.01106867	-0.0094101184	0.0041692776	0	933.8950813809251
1.9054607	0.000015848932	0.54	3.1725133	6.4728133	-0.011950432	-0.00075232307	0.011532949	-0.0090992155	0.0040278029	0	934.188556177676
1.9054607	0.000017378008	0.54	3.1769529	6.256396	-0.011892896	-0.00071834697	0.012011421	-0.0087880296	0.0039000892	0	934.4853750942121
1.9054607	0.000019054607	0.54	3.1846278	6.0469691	-0.011839289	-0.00068166297	0.012504643	-0.0084762511	0.003787145	0	934.7859860965007
1.9054607	0.000020892961	0.54	3.1956649	5.8447641	-0.011789466	-0.00064211406	0.013013196	-0.0081635564	0.0036897633	0	935.0908202007506
1.9054607	0.000022908677	0.54	3.2101657	5.6499151	-0.011743311	-0.0005995313	0.013537686	-0.0078496107	0.0036085506	0	935.4002938599074
1.9054607	0.000025118864	0.54	3.2282099	5.462473	-0.011700736	-0.00055373531	0.014078742	-0.0075340705	0.0035439538	0	935.7148088884888
1.9054607	0.000027542287	0.54	3.2498592	5.2824193	-0.011661679	-0.00050453309	0.014637019	-0.0072165851	0.0034962861	0	936.0347558638108
1.9054607	0.000030199517	0.54	3.2757196	5.1174751	-0.011626683	-0.00045309678	0.015211823	-0.0068987192	0.0034796413	0	936.3592724903777
1.9054607	0.000033113112	0.54	3.3047115	4.9517662	-0.011594408	-0.00039664701	0.015806423	-0.0065762172	0.0034660816	0	936.6912763628884
1.9054607	0.000036307805	0.54	3.3374094	4.7930663	-0.0115656	-0.00033616173	0.016420345	-0.0062506917	0.0034697599	0	937.0298260744446
1.9054607	0.000039810717	0.54	3.3738293	4.6411826	-0.011540287	-0.00027140256	0.017054349	-0.0059217787	0.0034906492	0	937.3752809148364
1.9054607	0.000043651583	0.54	3.4139802	4.495895	-0.011518518	-0.00020211774	0.017709221	-0.0055891126	0.0035286687	0	937.7279936344785
1.9054607	0.000047863009	0.54	3.4578643	4.3569597	-0.011500366	-0.00012804199	0.018385776	-0.0052523276	0.0035836896	0	938.0883091478111
1.9054607	0.000052480746	0.54	3.5054764	4.2241094	-0.011485927	-0.000048895332	0.019084861	-0.004911058	0.0036555357	0	938.4565669949604
1.9054607	0.000057543994	0.54	3.5568026	4.0970512	-0.01147533	0.000035623886	0.019807361	-0.0045649388	0.0037439779	0	938.8330949902768
1.9054607	0.000063095734	0.54	3.6118162	3.9754573	-0.011468743	0.00012584602	0.020554206	-0.0042136072	0.0038487142	0	939.2182071365005
1.9054607	0.000069183097	0.54	3.6704692	3.8589459	-0.011466396	0.00022214916	0.021326394	-0.003856704	0.0039693294	0	939.6121936841594
1.9054607	0.000075857758	0.54	3.7326777	3.7470427	-0.011468621	0.0003250013	0.022125029	-0.0034938759	0.0041052151	0	940.015302828836
1.9054607	0.000083176377	0.54	3.7982927	3.6391074	-0.011475932	0.0004350398	0.022951402	-0.0031247812	0.0042554147	0	940.427706642529
1.9054607	0.000091201084	0.54	3.8670482	3.5341986	-0.011489182	0.00055323958	0.023807165	-0.0027490976	0.0044183407	0	940.8494418434519
1.9054607	0.0001	0.54	3.9384756	3.4308493	-0.011509838	0.00068123069	0.024694641	-0.002366538	0.0045913054	0	941.2803086988029
1.9054607	0.00010964782	0.54	4.0118021	3.3267996	-0.01154038	0.00082178724	0.02561732	-0.0019768758	0.0047699524	0	941.7197477913725
1.9054607	0.00012022644	0.54	4.0859614	3.219029	-0.0115845	0.00097915905	0.02658019	-0.0015799756	0.0049482912	0	942.16682098395
1.9054607	0.00013182567	0.54	4.1599791	3.1047937	-0.011646211	0.0011581538	0.027588817	-0.001175807	0.0051207881	0	942.6205817959842
1.9054607	0.00014454398	0.54	4.2336597	2.9834671	-0.011727652	0.0013615056	0.028646716	-0.00076440175	0.0052861399	0	943.0808038861827
1.9054607	0.00015848932	0.54	4.3077958	2.8570687	-0.011827797	0.0015880719	0.029753551	-0.00034576073	0.0054484421	0	943.5482807738572
1.9054607	0.00017378008	0.54	4.3836372	2.7287967	-0.011943554	0.001833952	0.030906251	0.000080220514	0.0056142848	0	944.0243594762676
1.9054607	0.00019054607	0.54	4.4623384	2.6015165	-0.012071488	0.0020946255	0.032101149	0.00051376836	0.0057897053	0	944.5104068918762
1.9054607	0.00020892961	0.54	4.5447647	2.477246	-0.012208701	0.0023661538	0.033335188	0.00095520801	0.0059791215	0	945.0075948653789
1.9054607	0.00022908677	0.54	4.6315185	2.3572425	-0.012352998	0.0026454844	0.034606222	0.0014049356	0.006185479	0	945.516896936809
1.9054607	0.00025118864	0.54	4.7230164	2.242226	-0.012502787	0.0029303831	0.035912952	0.0018633971	0.0064106843	0	946.0391498266927
1.9054607	0.00027542287	0.54	4.8195559	2.1325692	-0.012656938	0.0032192667	0.037254758	0.0023310727	0.0066559735	0	946.5751006773968
1.9054607	0.00030199517	0.54	4.9213596	2.0284257	-0.012814656	0.00351105	0.038631547	0.0028084687	0.006922164	0	947.1254492584025
1.9054607	0.00033113112	0.54	5.0286039	1.9298103	-0.012975391	0.0038050097	0.040043619	0.0032961093	0.0072098102	0	947.690864540239
1.9054607	0.00036307805	0.54	5.1414361	1.8366488	-0.01313877	0.0041006924	0.041491574	0.0037945362	0.0075193034	0	948.2720013999553
1.9054607	0.00039810717	0.54	5.2599849	1.7488083	-0.013304541	0.0043978242	0.042976223	0.0043043024	0.0078509269	0	948.8695080812691
1.9054607	0.00043651583	0.54	5.3843674	1.6661161	-0.013472539	0.0046962608	0.044498544	0.0048259745	0.0082048974	0	949.4840358157155
1.9054607	0.00047863009	0.54	5.5146938	1.5883728	-0.013642658	0.0049959402	0.046059626	0.0053601307	0.0085813883	0	950.1162367180216
1.9054607	0.00052480746	0.54	5.6510692	1.5153598	-0.01381483	0.0052968407	0.047660637	0.0059073575	0.0089805429	0	950.7667672812886
1.9054607	0.00057543994	0.54	5.7935979	1.4468469	-0.013989014	0.0055989764	0.049302817	0.006468254	0.0094024937	0	951.4362951606543
1.9054607	0.00063095734	0.54	5.9423836	1.3825968	-0.014165186	0.0059023685	0.050987451	0.0070434281	0.0098473671	0	952.1254948700832
1.9054607	0.00069183097	0.54	6.0975321	1.3223694	-0.014343333	0.0062070433	0.052715866	0.0076334977	0.010315294	0	952.8350518976637
1.9054607	0.00075857758	0.54	6.2591528	1.2659256	-0.014523453	0.00651304	0.054489443	0.0082390931	0.01080642	0	953.5656687939904
1.9054607	0.00083176377	0.54	6.4273587	1.2130306	-0.014705556	0.0068203997	0.056309608	0.0088608535	0.011320908	0	954.318059666312
1.9054607	0.00091201084	0.54	6.6022686	1.163456	-0.014889666	0.0071291793	0.058177843	0.00949943	0.011858946	0	955.0929538804186
1.9054607	0.001	0.54	6.784007	1.1169832	-0.015075826	0.0074394629	0.060095703	0.010155487	0.012420755	0	955.891099988024
1.9054607	0.0010964782	0.54	6.9727038	1.0734048	-0.015264103	0.0077513684	0.06206482	0.010829698	0.013006589	0	956.7132630584018
1.9054607	0.0012022644	0.54	7.1684927	1.0325273	-0.015454603	0.008065067	0.064086927	0.011522754	0.013616744	0	957.5602227616707
1.9054607	0.0013182567	0.54	7.3715087	0.99417304	-0.015647487	0.0083808139	0.066163891	0.012235356	0.014251562	0	958.4327750788041
1.9054607	0.0014454398	0.54	7.5818802	0.95818348	-0.015843005	0.0086989867	0.06829775	0.012968218	0.014911437	0	959.3317191289229
1.9054607	0.0015848932	0.54	7.7997181	0.92442353	-0.016041551	0.0090201678	0.070490796	0.013722068	0.015596821	0	960.2578476045221
1.9054607	0.0017378008	0.54	8.0250918	0.89278683	-0.016243752	0.0093452554	0.072745693	0.014497641	0.016308234	0	961.211923019257
1.9054607	0.0019054607	0.54	8.2579913	0.86320209	-0.016450615	0.0096756422	0.075065653	0.015295676	0.017046271	0	962.1946288881286
1.9054607	0.0020892961	0.54	8.4982696	0.83563501	-0.016663697	0.010013403	0.077454626	0.016116906	0.017811593	0	963.2065064007779
1.9054607	0.0022908677	0.54	8.7455678	0.81007094	-0.016885184	0.010361253	0.07991726	0.016962037	0.01860488	0	964.2478599012137
1.9054607	0.0025118864	0.54	8.999263	0.78645141	-0.017117551	0.010721782	0.082458139	0.017831731	0.019426673	0	965.3186897276794
1.9054607	0.0027542287	0.54	9.2585099	0.76453699	-0.017362371	0.01109526	0.085079589	0.018726572	0.020277071	0	966.4186980755413
1.9054607	0.0030199517	0.54	9.5224732	0.74373196	-0.017618351	0.011476465	0.087778505	0.019647064	0.02115537	0	967.5475244335751
1.9054607	0.0033113112	0.54	9.7908211	0.72304486	-0.017880172	0.011853516	0.090545192	0.020593646	0.022059998	0	968.7052474434004
1.9054607	0.0036307805	0.54	10.064413	0.70142962	-0.018140238	0.01221264	0.09336813	0.021566777	0.022989293	0	969.8931591952862
1.9054607	0.0039810717	0.54	10.345589	0.67842159	-0.018392894	0.012546801	0.096242605	0.022567075	0.02394293	0	971.1141812113149
1.9054607	0.0043651583	0.54	10.637387	0.6544549	-0.01863739	0.012859851	0.099174862	0.023595432	0.024922682	0	972.3721866617286
1.9054607	0.0047863009	0.54	10.942273	0.63051613	-0.018877316	0.013163005	0.10217859	0.02465302	0.025931722	0	973.6707478303618
1.9054607	0.0052480746	0.54	11.261561	0.60758051	-0.01911826	0.013469162	0.10526923	0.025741195	0.026973382	0	975.0124486534664
1.9054607	0.0057543994	0.54	11.595645	0.58630639	-0.019365886	0.013789623	0.1084607	0.026861393	0.028050436	0	976.3990289429921
1.9054607	0.0063095734	0.54	11.944467	0.5670075	-0.019624921	0.014133006	0.11176434	0.028015065	0.02916497	0	977.8318008959068
1.9054607	0.0069183097	0.54	12.307852	0.54973669	-0.019898661	0.014504943	0.11518856	0.029203646	0.030318525	0	979.3119346468975
1.9054607	0.0075857758	0.54	12.685667	0.53437545	-0.02018875	0.014907967	0.11873878	0.030428556	0.031512282	0	980.8406354703948
1.9054607	0.0083176377	0.54	13.077867	0.5207032	-0.020495224	0.015341699	0.12241758	0.031691208	0.032747207	0	982.4191785444922
1.9054607	0.0091201084	0.54	13.484499	0.5084523	-0.02081687	0.015803549	0.12622543	0.032993014	0.034024167	0	984.0489420236447
1.9054607	0.01	0.54	13.90571	0.49735217	-0.021151782	0.01628975	0.13016172	0.034335393	0.035344035	0	985.7314072265833
1.9054607	0.010964782	0.54	14.341734	0.48715917	-0.021497884	0.016796333	0.13422573	0.035719787	0.036707757	0	987.4681593879666
1.9054607	0.012022644	0.54	14.792896	0.47767077	-0.021853262	0.017319757	0.13841727	0.037147662	0.03811639	0	989.2609004364692
1.9054607	0.013182567	0.54	15.259589	0.46872725	-0.022216305	0.01785714	0.14273693	0.038620521	0.03957111	0	991.111443357391
1.9054607	0.014454398	0.54	15.742276	0.46020686	-0.022585706	0.018406269	0.14718604	0.040139908	0.041073218	0	993.0216909584785
1.9054607	0.015848932	0.54	16.241474	0.45201844	-0.022960402	0.018965469	0.15176662	0.041707417	0.042624121	0	994.9936668755824
1.9054607	0.017378008	0.54	16.757748	0.4440945	-0.023339488	0.019533435	0.15648115	0.043324694	0.044225328	0	997.0294796812616
1.9054607	0.019054607	0.54	17.291707	0.43638535	-0.023722137	0.020109076	0.16133244	0.044993441	0.045878441	0	999.1313320925221
1.9054607	0.020892961	0.54	17.844	0.42885456	-0.02410752	0.020691383	0.16632353	0.046715423	0.047585151	0	1001.3015453995181
1.9054607	0.022908677	0.54	18.415319	0.42147556	-0.024494756	0.021279318	0.17145752	0.048492475	0.049347237	0	1003.5425201917185
1.9054607	0.025118864	0.54	19.00639	0.41422861	-0.024882842	0.021871687	0.1767375	0.050326491	0.051166556	0	1005.8567666119127
1.9054607	0.027542287	0.54	19.617982	0.40709889	-0.025270637	0.022467135	0.18216655	0.052219449	0.053045056	0	1008.246919389255
1.9054607	0.030199517	0.54	20.250903	0.40007412	-0.025656837	0.023064073	0.18774762	0.054173397	0.054984757	0	1010.7157004445642
1.9054607	0.033113112	0.54	20.906008	0.39314318	-0.026039997	0.023660767	0.19348369	0.056190471	0.056987775	0	1013.2659793983323
1.9054607	0.036307805	0.54	21.584199	0.38629396	-0.026418569	0.02425539	0.19937776	0.058272887	0.0590563	0	1015.9007327935885
1.9054607	0.039810717	0.54	22.286435	0.37951216	-0.026790977	0.024846197	0.2054331	0.060422954	0.061192614	0	1018.623100469819
1.9054607	0.043651583	0.54	23.013743	0.37277997	-0.027155691	0.025431682	0.21165334	0.062643082	0.063399089	0	1021.4363616980083
1.9054607	0.047863009	0.54	23.767224	0.366075	-0.027511299	0.026010739	0.21804269	0.064935778	0.065678187	0	1024.3439791522976
1.9054607	0.052480746	0.54	24.54807	0.35936969	-0.02785656	0.026582798	0.22460606	0.067303666	0.068032476	0	1027.3496099968552
1.9054607	0.057543994	0.54	24.058867	0.36493514	-0.027544033	0.023448221	0.22764946	0.069780296	0.070520394	0	1029.1873650575371
1.9054607	0.063095734	0.54	22.396696	0.38160458	-0.026646111	0.016507771	0.22707947	0.072139509	0.072913412	0	1029.741828314663
1.9054607	0.069183097	0.54	20.880779	0.39680729	-0.025827197	0.009418982	0.22655964	0.074291137	0.075095872	0	1030.247507835512
1.9054607	0.075857758	0.54	20.815958	0.38713658	-0.025920455	0.0064172597	0.23033155	0.076303703	0.077088825	0	1032.0736220573335
1.9054607	0.083176377	0.54	21.958008	0.35966529	-0.026568405	0.0067632345	0.23766224	0.078398813	0.079128222	0	1035.1841683392206
1.9054607	0.091201084	0.54	23.284623	0.33374811	-0.027016747	0.0071093725	0.24521073	0.080614714	0.081291563	0	1038.5927635414346
1.9054607	0.1	0.54	24.823358	0.30932551	-0.027222863	0.0074602051	0.25298837	0.082970812	0.083598132	0	1042.3452086560917
1.9054607	0.10964782	0.54	26.607721	0.2863424	-0.027135898	0.007822041	0.26100845	0.085489483	0.086070192	0	1046.4960281637577
1.9054607	0.12022644	0.54	28.680012	0.26474879	-0.02669295	0.0082028092	0.26928613	0.088196793	0.088733709	0	1051.112014261859
1.9054607	0.13182567	0.54	31.095264	0.24450026	-0.025813673	0.00861179	0.27783812	0.09112354	0.091619392	0	1056.2771353419862
1.9054607	0.14454398	0.54	33.926379	0.22555838	-0.024393149	0.0090592554	0.28668238	0.094306748	0.094764186	0	1062.0990810021206
1.9054607	0.15848932	0.54	37.270287	0.20789098	-0.022293035	0.0095560291	0.29583765	0.09779171	0.098213318	0	1068.7173415569935
1.9054607	0.17378008	0.54	41.254598	0.19147218	-0.01933153	0.01011295	0.30532292	0.10163467	0.10202298	0	1076.3123657936385
1.9054607	0.19054607	0.54	46.043512	0.1762818	-0.015273404	0.010740193	0.31515679	0.10590614	0.10626365	0	1085.114604663711
1.9054607	0.20892961	0.54	51.840881	0.16230411	-0.0098225036	0.0114464	0.32535657	0.11069466	0.11102382	0	1095.4110961332885
1.9054607	0.22908677	0.54	58.88726	0.14952521	-0.0026204968	0.01223758	0.33593723	0.11611061	0.11641385	0	1107.5461117917434
1.9054607	0.25118864	0.54	67.447263	0.137929	0.0067434086	0.013115868	0.34691013	0.12228928	0.122569	0	1121.9113814259294
1.9054607	0.27542287	0.54	77.784474	0.12749169	0.018707611	0.014078378	0.3582819	0.12939212	0.12965067	0	1138.922172813848
1.9054607	0.30199517	0.54	90.12477	0.11817574	0.03369758	0.015116595	0.37005383	0.13760488	0.13784455	0	1158.9788969503597
1.9054607	0.33113112	0.54	104.61497	0.10992498	0.052075906	0.01621676	0.38222229	0.14713194	0.14735487	0	1182.4203894755487
1.9054607	0.36307805	0.54	121.28934	0.10266274	0.074096241	0.0173615	0.39478033	0.15818672	0.15839492	0	1209.4814468308145
1.9054607	0.39810717	0.54	140.05666	0.096294511	0.099876308	0.018532352	0.40772025	0.17097987	0.17117516	0	1240.26877075513
1.9054607	0.43651583	0.54	160.7133	0.090714406	0.1293985	0.019712439	0.42103627	0.18570739	0.18589137	0	1274.762885750007
1.9054607	0.47863009	0.54	182.97688	0.085813449	0.16253511	0.020888457	0.43472652	0.20254112	0.20271515	0	1312.842853970203
1.9054607	0.52480746	0.54	206.52806	0.081487241	0.19908668	0.022051549	0.44879394	0.22162306	0.22178832	0	1354.3227632440867
1.9054607	0.57543994	0.54	231.0483	0.077641329	0.23882053	0.023197172	0.46324615	0.24306368	0.24322114	0	1398.9878616295227
1.9054607	0.63095734	0.54	256.24686	0.074193922	0.28150145	0.024324325	0.4780947	0.26694343	0.2670939	0	1446.6230140296257
1.9054607	0.69183097	0.54	281.87578	0.071076412	0.32691164	0.025434564	0.49335407	0.29331626	0.2934604	0	1497.0309297605502
1.9054607	0.75857758	0.54	307.73513	0.068232498	0.37486138	0.02653108	0.5090408	0.32221416	0.32235254	0	1550.041746305974
1.9054607	0.83176377	0.54	333.67188	0.065616625	0.42519288	0.027617965	0.52517273	0.35365186	0.35378493	0	1605.516261046077
1.9054607	0.91201084	0.54	359.57524	0.063192228	0.47778	0.028699689	0.5417685	0.38763119	0.38775934	0	1663.3454144965967
1.9054607	1.	0.54	385.37056	0.060930065	0.53252576	0.029780768	0.55884727	0.42414494	0.42426851	0	1723.447808728827
1.9054607	1.0964782	0.54	411.01308	0.058806752	0.58935899	0.03086556	0.57642847	0.46318013	0.46329939	0	1785.7664329843742
1.9054607	1.2022644	0.54	436.48205	0.056803549	0.64823084	0.031958166	0.59453174	0.50472056	0.50483576	0	1850.2653541501668
1.9054607	1.3182567	0.54	461.77573	0.054905375	0.70911152	0.033062385	0.61317694	0.54874902	0.54886037	0	1916.9266588490677
1.9054607	1.4454398	0.54	486.90709	0.053100028	0.77198734	0.034181712	0.63238407	0.59524885	0.59535654	0	1985.7476317372152
1.9054607	1.5848932	0.54	511.90032	0.051377568	0.83685833	0.035319354	0.6521734	0.64420524	0.64430943	0	2056.7385852959783
1.9054607	1.7378008	0.54	536.78806	0.049729843	0.90373614	0.036478255	0.67256547	0.69560619	0.69570704	0	2129.9208867447196
1.9054607	1.9054607	0.54	561.60914	0.048150109	0.97264235	0.037661131	0.6935811	0.74944322	0.74954087	0	2205.3253752490104
1.9054607	2.0892961	0.54	586.40684	0.046632741	1.0436071	0.0388705	0.71524152	0.80571189	0.80580647	0	2282.991140673584
1.9054607	2.2908677	0.54	611.22748	0.045173005	1.1166681	0.040108712	0.73756835	0.86441216	0.86450377	0	2362.9645832653387
1.9054607	2.5118864	0.54	636.11942	0.043766881	1.1918693	0.041377977	0.76058369	0.92554864	0.9256374	0	2445.2982096942915
1.9054607	2.7542287	0.54	661.13224	0.042410922	1.2692608	0.042680393	0.78431012	0.98913072	0.98921673	0	2530.0505484927044
1.9054607	3.0199517	0.54	686.3161	0.041102145	1.3488978	0.04401796	0.80877079	1.0551727	1.0552561	0	2617.285209174338
1.9054607	3.3113112	0.54	711.72132	0.039837942	1.4308402	0.04539261	0.83398942	1.1236939	1.1237747	0	2707.070506408312
1.9054607	3.6307805	0.54	737.39804	0.038616015	1.5151525	0.046806217	0.85999037	1.1947184	1.1947967	0	2799.479401578142
1.9054607	3.9810717	0.54	763.39601	0.037434317	1.6019031	0.048260613	0.88679864	1.2682752	1.2683511	0	2894.5888450859916
1.9054607	4.3651583	0.54	789.76442	0.036291011	1.6911644	0.049757601	0.91443994	1.3443983	1.3444719	0	2992.4799058247827
1.9054607	4.7863009	0.54	816.55181	0.035184434	1.7830125	0.051298967	0.94294069	1.4231264	1.4231978	0	3093.2374893085844
1.9054607	5.2480746	0.54	843.80604	0.034113068	1.8775271	0.052886487	0.9723281	1.5045029	1.5045721	0	3196.9502843053056
1.9054607	5.7543994	0.54	871.57427	0.033075518	1.9747913	0.05452194	1.0026301	1.5885759	1.588643	0	3303.7105394080536
1.9054607	6.3095734	0.54	899.90297	0.032070496	2.0748917	0.056207112	1.0338756	1.6753981	1.6754631	0	3413.614288906643
1.9054607	6.9183097	0.54	928.83798	0.0310968	2.1779183	0.057943804	1.0660942	1.7650265	1.7650896	0	3526.7611116951284
1.9054607	7.5857758	0.54	958.42457	0.030153307	2.2839644	0.059733838	1.0993164	1.857523	1.8575842	0	3643.254143861979
1.9054607	8.3176377	0.54	988.70749	0.029238959	2.3931268	0.061579062	1.1335738	1.9529535	1.9530128	0	3763.200368076208
1.9054607	9.1201084	0.54	1019.731	0.028352761	2.5055054	0.063481355	1.1688987	2.0513886	2.0514461	0	3886.7100348151143
1.9054607	10.	0.54	1051.5392	0.027493765	2.6212038	0.065442633	1.2053246	2.1529029	2.1529587	0	4013.8974797861383