1.3182567	1.e-12	0.45	232396.26	711958.72	-0.029458181	-0.0016551797	-0.0016551732	-247.37464	751.53872	0	911.1876493342359
1.3182567	1.0964782e-12	0.45	211948.03	649316.06	-0.029328956	-0.0016551797	-0.0016551726	-225.61101	685.41159	0	911.3090649202722
1.3182567	1.2022644e-12	0.45	193299.01	592185.25	-0.02919973	-0.0016551797	-0.0016551719	-205.76232	625.10293	0	911.4304814881544
1.3182567	1.3182567e-12	0.45	176290.91	540081.34	-0.029070504	-0.0016551797	-0.0016551711	-187.6601	570.10078	0	911.551898098317
1.3182567	1.4454398e-12	0.45	160779.34	492561.99	-0.028941279	-0.0016551797	-0.0016551703	-171.15066	519.93822	0	911.6733137689142
1.3182567	1.5848932e-12	0.45	146632.62	449223.83	-0.028812053	-0.0016551797	-0.0016551694	-156.09387	474.18943	0	911.7947304213573
1.3182567	1.7378008e-12	0.45	133730.65	409698.94	-0.028682827	-0.0016551797	-0.0016551684	-142.36189	432.46603	0	911.9161471160808
1.3182567	1.9054607e-12	0.45	121963.92	373651.81	-0.028553602	-0.0016551797	-0.0016551673	-129.83817	394.41383	0	912.0375629135194
1.3182567	2.0892961e-12	0.45	111232.53	340776.43	-0.028424376	-0.0016551797	-0.0016551661	-118.41639	359.70983	0	912.1589796928038
1.3182567	2.2908677e-12	0.45	101445.39	310793.72	-0.02829515	-0.0016551797	-0.0016551648	-107.9996	328.05939	0	912.2803965143686
1.3182567	2.5118864e-12	0.45	92519.413	283449.15	-0.028165925	-0.0016551797	-0.0016551634	-98.499351	299.19385	0	912.4018124386484
1.3182567	2.7542287e-12	0.45	84378.823	258510.6	-0.028036699	-0.0016551797	-0.0016551618	-89.835013	272.86816	0	912.5232293870547
1.3182567	3.0199517e-12	0.45	76954.517	235766.36	-0.027907474	-0.0016551797	-0.0016551601	-81.933032	248.85886	0	912.644645438176
1.3182567	3.3113112e-12	0.45	70183.471	215023.37	-0.027778248	-0.0016551797	-0.0016551582	-74.72633	226.96211	0	912.7660625134235
1.3182567	3.6307805e-12	0.45	64008.201	196105.52	-0.027649022	-0.0016551797	-0.0016551561	-68.153726	206.99203	0	912.8874796732318
1.3182567	3.9810717e-12	0.45	58376.29	178852.23	-0.027519797	-0.0016551797	-0.0016551538	-62.15943	188.77911	0	913.0088959780358
1.3182567	4.3651583e-12	0.45	53239.925	163117.03	-0.027390571	-0.0016551797	-0.0016551513	-56.692555	172.16872	0	913.130313306966
1.3182567	4.7863009e-12	0.45	48555.505	148766.36	-0.027261345	-0.0016551797	-0.0016551486	-51.706695	157.01987	0	913.2517307204569
1.3182567	5.2480746e-12	0.45	44283.262	135678.37	-0.02713212	-0.0016551797	-0.0016551456	-47.159524	143.20396	0	913.3731473212238
1.3182567	5.7543994e-12	0.45	40386.931	123741.99	-0.027002894	-0.0016551797	-0.0016551423	-43.012444	130.60369	0	913.4945649883974
1.3182567	6.3095734e-12	0.45	36833.435	112855.86	-0.026873668	-0.0016551797	-0.0016551387	-39.230251	119.11211	0	913.6159827824124
1.3182567	6.9183097e-12	0.45	33592.608	102927.59	-0.026744443	-0.0016551797	-0.0016551348	-35.780838	108.63167	0	913.7373997637034
1.3182567	7.5857758e-12	0.45	30636.939	93872.891	-0.026615217	-0.0016551797	-0.0016551304	-32.634926	99.073392	0	913.8588178959619
1.3182567	8.3176377e-12	0.45	27941.336	85614.898	-0.026485992	-0.0016551797	-0.0016551257	-29.765807	90.356137	0	913.9802352154964
1.3182567	9.1201084e-12	0.45	25482.917	78083.512	-0.026356766	-0.0016551798	-0.0016551205	-27.149129	82.405908	0	914.1016536859984
1.3182567	1.e-11	0.45	23240.813	71214.799	-0.02622754	-0.0016551797	-0.0016551147	-24.762679	75.155213	0	914.223072410183
1.3182567	1.0964782e-11	0.45	21195.989	64950.45	-0.026098315	-0.0016551797	-0.0016551085	-22.586199	68.5425	0	914.344490363924
1.3182567	1.2022644e-11	0.45	19331.088	59237.287	-0.025969089	-0.0016551797	-0.0016551016	-20.601215	62.511634	0	914.4659095531936
1.3182567	1.3182567e-11	0.45	17630.278	54026.811	-0.025839863	-0.0016551798	-0.0016550941	-18.790876	57.011418	0	914.5873289961457
1.3182567	1.4454398e-11	0.45	16079.12	49274.794	-0.025710638	-0.0016551798	-0.0016550858	-17.139816	51.995162	0	914.7087478377762
1.3182567	1.5848932e-11	0.45	14664.448	44940.895	-0.025581412	-0.0016551797	-0.0016550767	-15.63402	47.420283	0	914.8301679572153
1.3182567	1.7378008e-11	0.45	13374.252	40988.323	-0.025452187	-0.0016551798	-0.0016550669	-14.260706	43.247943	0	914.9515874330523
1.3182567	1.9054607e-11	0.45	12197.578	37383.527	-0.025322961	-0.0016551798	-0.001655056	-13.008218	39.442723	0	915.0730083135393
1.3182567	2.0892961e-11	0.45	11124.44	34095.906	-0.025193735	-0.0016551798	-0.001655044	-11.865924	35.972323	0	915.1944296591114
1.3182567	2.2908677e-11	0.45	10145.726	31097.552	-0.02506451	-0.0016551798	-0.0016550309	-10.824128	32.807279	0	915.3158505302029
1.3182567	2.5118864e-11	0.45	9253.1277	28363.012	-0.024935284	-0.0016551798	-0.0016550166	-9.8739868	29.920725	0	915.437272848225
1.3182567	2.7542287e-11	0.45	8439.0688	25869.075	-0.024806059	-0.0016551798	-0.0016550008	-9.0074368	27.288157	0	915.5586948608883
1.3182567	3.0199517e-11	0.45	7696.6382	23594.568	-0.024676833	-0.0016551798	-0.0016549836	-8.2171224	24.887226	0	915.6801184050432
1.3182567	3.3113112e-11	0.45	7019.5335	21520.185	-0.024547608	-0.0016551798	-0.0016549646	-7.4963358	22.697551	0	915.8015417706808
1.3182567	3.6307805e-11	0.45	6402.0066	19628.318	-0.024418382	-0.0016551799	-0.0016549439	-6.8389591	20.700543	0	915.9229667946511
1.3182567	3.9810717e-11	0.45	5838.8155	17902.906	-0.024289156	-0.0016551799	-0.0016549211	-6.2394132	18.879251	0	916.0443927065106
1.3182567	4.3651583e-11	0.45	5325.1789	16329.303	-0.024159931	-0.0016551799	-0.0016548962	-5.6926093	17.218212	0	916.1658185666942
1.3182567	4.7863009e-11	0.45	4856.7369	14894.153	-0.024030705	-0.0016551799	-0.0016548689	-5.193907	15.703327	0	916.2872463811736
1.3182567	5.2480746e-11	0.45	4429.5127	13585.272	-0.02390148	-0.0016551799	-0.0016548389	-4.7390737	14.321736	0	916.4086743976595
1.3182567	5.7543994e-11	0.45	4039.8797	12391.55	-0.023772254	-0.00165518	-0.001654806	-4.3242494	13.061709	0	916.5301045798436
1.3182567	6.3095734e-11	0.45	3684.53	11302.855	-0.023643029	-0.00165518	-0.0016547699	-3.9459138	11.912552	0	916.6515351754365
1.3182567	6.9183097e-11	0.45	3360.4473	10309.945	-0.023513803	-0.00165518	-0.0016547304	-3.6008562	10.864507	0	916.7729681481298
1.3182567	7.5857758e-11	0.45	3064.8804	9404.392	-0.023384578	-0.00165518	-0.0016546871	-3.2861486	9.9086794	0	916.8944017879144
1.3182567	8.3176377e-11	0.45	2795.3202	8578.51	-0.023255352	-0.0016551801	-0.0016546395	-2.9991205	9.0369541	0	917.0158381853233
1.3182567	9.1201084e-11	0.45	2549.4783	7825.2884	-0.023126127	-0.0016551801	-0.0016545874	-2.7373363	8.2419311	0	917.1372755457866
1.3182567	1.e-10	0.45	2325.2679	7138.3343	-0.022996901	-0.0016551801	-0.0016545303	-2.498575	7.5168617	0	917.2587159598374
1.3182567	1.0964782e-10	0.45	2120.7855	6511.8164	-0.022867676	-0.0016551802	-0.0016544676	-2.2808107	6.8555904	0	917.3801578020275
1.3182567	1.2022644e-10	0.45	1934.2954	5940.4172	-0.02273845	-0.0016551803	-0.0016543989	-2.0821959	6.2525038	0	917.5016031206094
1.3182567	1.3182567e-10	0.45	1764.2144	5419.2869	-0.022609225	-0.0016551803	-0.0016543236	-1.9010457	5.7024824	0	917.6230502901349
1.3182567	1.4454398e-10	0.45	1609.0987	4944.0023	-0.02248	-0.0016551804	-0.001654241	-1.7358234	5.2008568	0	917.7445005461328
1.3182567	1.5848932e-10	0.45	1467.6314	4510.5295	-0.022350774	-0.0016551804	-0.0016541504	-1.5851275	4.7433689	0	917.8659551241312
1.3182567	1.7378008e-10	0.45	1338.6118	4115.1895	-0.022221549	-0.0016551805	-0.0016540511	-1.4476798	4.326135	0	917.9874124409627
1.3182567	1.9054607e-10	0.45	1220.9445	3754.627	-0.022092324	-0.0016551806	-0.0016539423	-1.3223146	3.9456131	0	918.1088737744358
1.3182567	2.0892961e-10	0.45	1113.6307	3425.7821	-0.021963098	-0.0016551807	-0.0016538229	-1.2079689	3.5985731	0	918.2303405292014
1.3182567	2.2908677e-10	0.45	1015.7593	3125.8638	-0.021833873	-0.0016551807	-0.0016536919	-1.1036729	3.2820689	0	918.3518112489324
1.3182567	2.5118864e-10	0.45	926.49955	2852.327	-0.021704648	-0.0016551808	-0.0016535484	-1.0085425	2.9934136	0	918.4732872537186
1.3182567	2.7542287e-10	0.45	845.09369	2602.8504	-0.021575423	-0.001655181	-0.001653391	-0.92177119	2.7301568	0	918.5947691354861
1.3182567	3.0199517e-10	0.45	770.85066	2375.3168	-0.021446198	-0.0016551811	-0.0016532185	-0.8426234	2.4900638	0	918.7162574016002
1.3182567	3.3113112e-10	0.45	703.14022	2167.7957	-0.021316973	-0.0016551813	-0.0016530293	-0.77042839	2.2710965	0	918.8377527285477
1.3182567	3.6307805e-10	0.45	641.38759	1978.5262	-0.021187748	-0.0016551814	-0.0016528218	-0.70457439	2.0713959	0	918.9592557928161
1.3182567	3.9810717e-10	0.45	585.06851	1805.9022	-0.021058523	-0.0016551816	-0.0016525943	-0.64450344	1.8892668	0	919.0807673131726
1.3182567	4.3651583e-10	0.45	533.70492	1648.4591	-0.020929298	-0.0016551817	-0.0016523449	-0.5897067	1.7231631	0	919.2022880929457
1.3182567	4.7863009e-10	0.45	486.86077	1504.8612	-0.020800073	-0.0016551819	-0.0016520714	-0.5397201	1.5716748	0	919.3238190623048
1.3182567	5.2480746e-10	0.45	444.13841	1373.8903	-0.020670848	-0.0016551822	-0.0016517715	-0.49412039	1.4335158	0	919.4453611937004
1.3182567	5.7543994e-10	0.45	405.17517	1254.4354	-0.020541624	-0.0016551824	-0.0016514426	-0.45252159	1.3075134	0	919.5669146468583
1.3182567	6.3095734e-10	0.45	369.64029	1145.4831	-0.020412399	-0.0016551826	-0.0016510821	-0.41457165	1.1925979	0	919.688482400201
1.3182567	6.9183097e-10	0.45	337.2321	1046.1093	-0.020283175	-0.0016551829	-0.0016506868	-0.3799495	1.0877937	0	919.8100639275717
1.3182567	7.5857758e-10	0.45	307.6755	955.47128	-0.02015395	-0.0016551832	-0.0016502533	-0.34836234	0.99221121	0	919.9316625456361
1.3182567	8.3176377e-10	0.45	280.71957	872.80034	-0.020024726	-0.0016551836	-0.001649778	-0.31954312	0.905039	0	920.0532778973593
1.3182567	9.1201084e-10	0.45	256.13549	797.39546	-0.019895502	-0.0016551839	-0.0016492569	-0.29324829	0.82553705	0	920.1749126135245
1.3182567	1.e-9	0.45	233.71457	728.61733	-0.019766278	-0.0016551843	-0.0016486855	-0.26925573	0.75303049	0	920.2965685967514
1.3182567	1.0964782e-9	0.45	213.26646	665.88284	-0.019637055	-0.0016551848	-0.001648059	-0.24736285	0.68690377	0	920.4182469369357
1.3182567	1.2022644e-9	0.45	194.61759	608.66026	-0.019507831	-0.0016551853	-0.001647372	-0.22738492	0.62659558	0	920.539951796352
1.3182567	1.3182567e-9	0.45	177.60965	556.46457	-0.019378608	-0.0016551859	-0.0016466187	-0.20915343	0.57159394	0	920.6616837481353
1.3182567	1.4454398e-9	0.45	162.09825	508.85349	-0.019249385	-0.0016551864	-0.0016457927	-0.19251471	0.52143195	0	920.783446437799
1.3182567	1.5848932e-9	0.45	147.95172	465.42361	-0.019120162	-0.0016551871	-0.0016448871	-0.17732862	0.47568377	0	920.9052427826934
1.3182567	1.7378008e-9	0.45	135.04996	425.80704	-0.01899094	-0.0016551878	-0.0016438941	-0.16346733	0.43396105	0	921.0270751411279
1.3182567	1.9054607e-9	0.45	123.28346	389.66824	-0.018861717	-0.0016551886	-0.0016428053	-0.15081427	0.39590959	0	921.1489489437897
1.3182567	2.0892961e-9	0.45	112.55232	356.70124	-0.018732496	-0.0016551895	-0.0016416115	-0.13926312	0.36120639	0	921.2708652617837
1.3182567	2.2908677e-9	0.45	102.76545	326.62694	-0.018603274	-0.0016551904	-0.0016403025	-0.12871693	0.32955684	0	921.3928312264109
1.3182567	2.5118864e-9	0.45	93.839776	299.19083	-0.018474053	-0.0016551914	-0.0016388672	-0.11908727	0.30069229	0	921.5148496516692
1.3182567	2.7542287e-9	0.45	85.699516	274.16078	-0.018344832	-0.0016551926	-0.0016372935	-0.11029349	0.27436767	0	921.6369265930578
1.3182567	3.0199517e-9	0.45	78.275573	251.32509	-0.018215612	-0.0016551939	-0.0016355679	-0.10226203	0.25035953	0	921.7590668188702
1.3182567	3.3113112e-9	0.45	71.504922	230.4907	-0.018086392	-0.0016551952	-0.0016336759	-0.094925803	0.22846407	0	921.8812773993363
1.3182567	3.6307805e-9	0.45	65.330089	211.48151	-0.017957173	-0.0016551968	-0.0016316014	-0.08822364	0.2084954	0	922.0035642020414
1.3182567	3.9810717e-9	0.45	59.698655	194.13695	-0.017827955	-0.0016551984	-0.0016293268	-0.082099739	0.19028403	0	922.1259346683429
1.3182567	4.3651583e-9	0.45	54.562813	178.31056	-0.017698737	-0.0016552003	-0.0016268328	-0.076503211	0.17367534	0	922.2483978979315
1.3182567	4.7863009e-9	0.45	49.878967	163.86876	-0.01756952	-0.0016552022	-0.0016240982	-0.071387643	0.15852835	0	922.3709619146952
1.3182567	5.2480746e-9	0.45	45.607354	150.68974	-0.017440304	-0.0016552045	-0.0016210999	-0.066710707	0.14471447	0	922.4936364854159
1.3182567	5.7543994e-9	0.45	41.711713	138.66241	-0.017311089	-0.0016552069	-0.0016178125	-0.062433796	0.13211643	0	922.6164323493254
1.3182567	6.3095734e-9	0.45	38.158973	127.68544	-0.017181875	-0.0016552096	-0.0016142081	-0.058521701	0.1206273	0	922.7393613026666
1.3182567	6.9183097e-9	0.45	34.918975	117.66645	-0.017052663	-0.0016552126	-0.0016102561	-0.054942309	0.11014954	0	922.8624353436892
1.3182567	7.5857758e-9	0.45	31.964214	108.52114	-0.016923452	-0.0016552159	-0.0016059232	-0.051666331	0.10059421	0	922.9856694913453
1.3182567	8.3176377e-9	0.45	29.269608	100.17268	-0.016794242	-0.0016552196	-0.0016011725	-0.048667055	0.091880176	0	923.1090793471176
1.3182567	9.1201084e-9	0.45	26.812282	92.550969	-0.016665034	-0.0016552236	-0.0015959641	-0.045920117	0.083933479	0	923.2326808413363
1.3182567	1.e-8	0.45	24.571374	85.592093	-0.016535828	-0.0016552282	-0.0015902538	-0.043403295	0.076686653	0	923.3564926619566
1.3182567	1.0964782e-8	0.45	22.527863	79.237757	-0.016406625	-0.0016552332	-0.0015839934	-0.04109632	0.07007818	0	923.4805342485854
1.3182567	1.2022644e-8	0.45	20.664399	73.4348	-0.016277424	-0.0016552389	-0.0015771302	-0.038980705	0.064051958	0	923.6048288225803
1.3182567	1.3182567e-8	0.45	18.965164	68.13474	-0.016148226	-0.0016552452	-0.0015696063	-0.037039589	0.058556828	0	923.7293999247511
1.3182567	1.4454398e-8	0.45	17.415733	63.293367	-0.016019031	-0.0016552524	-0.0015613585	-0.03525759	0.053546141	0	923.8542742763366
1.3182567	1.5848932e-8	0.45	16.002952	58.870361	-0.015889841	-0.0016552605	-0.0015523176	-0.033620678	0.048977356	0	923.9794792562709
1.3182567	1.7378008e-8	0.45	14.714827	54.828952	-0.015760656	-0.0016552698	-0.0015424078	-0.032116053	0.044811684	0	924.105046913128
1.3182567	1.9054607e-8	0.45	13.540423	51.135613	-0.015631478	-0.0016552804	-0.0015315464	-0.030732042	0.041013757	0	924.231010333702
1.3182567	2.0892961e-8	0.45	12.469767	47.759766	-0.015502306	-0.0016552927	-0.0015196431	-0.029457992	0.037551327	0	924.357408636796
1.3182567	2.2908677e-8	0.45	11.493771	44.673529	-0.015373143	-0.001655307	-0.0015065992	-0.028284185	0.03439499	0	924.484280734509
1.3182567	2.5118864e-8	0.45	10.604147	41.851476	-0.015243991	-0.0016553237	-0.001492307	-0.027201755	0.03151794	0	924.6116702837451
1.3182567	2.7542287e-8	0.45	9.7933398	39.27042	-0.015114852	-0.0016553434	-0.0014766495	-0.026202611	0.028895735	0	924.7396248734892
1.3182567	3.0199517e-8	0.45	9.0544633	36.909217	-0.01498573	-0.0016553669	-0.0014594992	-0.025279369	0.026506092	0	924.8681946530417
1.3182567	3.3113112e-8	0.45	8.3812405	34.748584	-0.014856629	-0.0016553951	-0.0014407175	-0.02442529	0.024328695	0	924.9974344648326
1.3182567	3.6307805e-8	0.45	7.7679504	32.770934	-0.014727555	-0.0016554292	-0.0014201543	-0.023634224	0.022345021	0	925.1274021344107
1.3182567	3.9810717e-8	0.45	7.2093786	30.960226	-0.014598514	-0.0016554709	-0.0013976475	-0.022900555	0.020538176	0	925.2581605609787
1.3182567	4.3651583e-8	0.45	6.700773	29.301823	-0.014469515	-0.0016555222	-0.0013730219	-0.022219155	0.018892755	0	925.3897753637807
1.3182567	4.7863009e-8	0.45	6.2378025	27.782368	-0.014340571	-0.0016555858	-0.0013460896	-0.021585342	0.017394698	0	925.5223137734154
1.3182567	5.2480746e-8	0.45	5.8165191	26.389666	-0.014211697	-0.0016556652	-0.0013166492	-0.020994838	0.016031171	0	925.6558468492096
1.3182567	5.7543994e-8	0.45	5.4333233	25.112571	-0.014082914	-0.001655765	-0.0012844863	-0.020443738	0.014790443	0	925.7904455095568
1.3182567	6.3095734e-8	0.45	5.0849316	23.940887	-0.013954247	-0.0016558911	-0.0012493742	-0.019928469	0.013661782	0	925.9261821150817
1.3182567	6.9183097e-8	0.45	4.7683475	22.865275	-0.01382573	-0.0016560513	-0.0012110746	-0.019445771	0.012635344	0	926.0631254748532
1.3182567	7.5857758e-8	0.45	4.4808328	21.877157	-0.013697408	-0.0016562557	-0.0011693394	-0.01899266	0.011702075	0	926.2013382062039
1.3182567	8.3176377e-8	0.45	4.2198813	20.968631	-0.013569338	-0.0016565174	-0.0011239136	-0.018566412	0.010853616	0	926.3408745690324
1.3182567	9.1201084e-8	0.45	3.9831945	20.13239	-0.013441593	-0.0016568531	-0.001074538	-0.018164537	0.010082204	0	926.4817755659712
1.3182567	1.e-7	0.45	3.7686573	19.361638	-0.013314267	-0.0016572847	-0.0010209543	-0.017784761	0.0093805757	0	926.6240620882554
1.3182567	1.0964782e-7	0.45	3.5743154	18.650011	-0.01318748	-0.0016578399	-0.00096291058	-0.017425012	0.0087418774	0	926.7677279009296
1.3182567	1.2022644e-7	0.45	3.3983536	17.991501	-0.013061379	-0.0016585539	-0.00090016814	-0.017083397	0.0081595702	0	926.9127358112993
1.3182567	1.3182567e-7	0.45	3.2390756	17.380389	-0.012936153	-0.0016594707	-0.00083250913	-0.016758201	0.0076273454	0	927.0590003494535
1.3182567	1.4454398e-7	0.45	3.0948862	16.811178	-0.012812026	-0.0016606449	-0.00075974565	-0.016447866	0.0071390499	0	927.2063904977019
1.3182567	1.5848932e-7	0.45	2.9642759	16.278558	-0.012689267	-0.0016621428	-0.00068172806	-0.016150989	0.0066886349	0	927.3547167814172
1.3182567	1.7378008e-7	0.45	2.8458105	15.777379	-0.01256819	-0.0016640432	-0.00059835367	-0.015866307	0.0062701367	0	927.5037275948637
1.3182567	1.9054607e-7	0.45	2.7381272	15.302672	-0.012449143	-0.0016664377	-0.0005095732	-0.0155927	0.0058777073	0	927.653116805101
1.3182567	2.0892961e-7	0.45	2.6399373	14.849707	-0.012332502	-0.0016694292	-0.00041539528	-0.015329173	0.0055057014	0	927.8025274867556
1.3182567	2.2908677e-7	0.45	2.5500368	14.414088	-0.012218646	-0.0016731296	-0.00031588715	-0.015074855	0.0051488239	0	927.9515751151914
1.3182567	2.5118864e-7	0.45	2.4673235	13.991888	-0.012107936	-0.0016776559	-0.00021117184	-0.01482899	0.0048023226	0	928.0998684896906
1.3182567	2.7542287e-7	0.45	2.3908155	13.579787	-0.012000684	-0.001683126	-0.00010142163	-0.014590921	0.0044621936	0	928.2470416251208
1.3182567	3.0199517e-7	0.45	2.3196685	13.175186	-0.011897127	-0.0016896536	0.000013151761	-0.014360083	0.0041253566	0	928.3927823287678
1.3182567	3.3113112e-7	0.45	2.2531855	12.776272	-0.011797409	-0.0016973447	0.00013230811	-0.014135985	0.0037897573	0	928.5368537358779
1.3182567	3.6307805e-7	0.45	2.1908161	12.382007	-0.011701571	-0.0017062954	0.00025579002	-0.013918199	0.0034543695	0	928.6791084956858
1.3182567	3.9810717e-7	0.45	2.1321454	11.992051	-0.011609554	-0.0017165916	0.00038333361	-0.013706343	0.003119098	0	928.8194904724971
1.3182567	4.3651583e-7	0.45	2.0768749	11.60663	-0.011521211	-0.00172831	0.00051467754	-0.01350007	0.0027846066	0	928.9580272867144
1.3182567	4.7863009e-7	0.45	2.0247988	11.226376	-0.011436325	-0.0017415207	0.00064957017	-0.013299057	0.002452106	0	929.0948164295178
1.3182567	5.2480746e-7	0.45	1.9757802	10.852175	-0.01135463	-0.0017562901	0.00078777492	-0.013102997	0.0021231415	0	929.2300077982235
1.3182567	5.7543994e-7	0.45	1.9297297	10.48502	-0.011275827	-0.0017726839	0.00092907385	-0.012911597	0.0017994056	0	929.3637901768786
1.3182567	6.3095734e-7	0.45	1.8865876	10.125914	-0.011199603	-0.0017907698	0.00107327	-0.012724569	0.0014825911	0	929.4963743738815
1.3182567	6.9183097e-7	0.45	1.8463109	9.7757875	-0.011125644	-0.0018106194	0.0012201881	-0.012541628	0.0011742862	0	929.6279813078236
1.3182567	7.5857758e-7	0.45	1.8088641	9.4354519	-0.011053637	-0.0018323105	0.0013696749	-0.012362497	0.00087590963	0	929.7588402678841
1.3182567	8.3176377e-7	0.45	1.7742136	9.1055773	-0.010983284	-0.0018559275	0.001521598	-0.012186899	0.00058867689	0	929.8891752652338
1.3182567	9.1201084e-7	0.45	1.7423239	8.786683	-0.010914299	-0.0018815633	0.0016758445	-0.012014563	0.00031358897	0	930.019207280945
1.3182567	1.e-6	0.45	1.7131565	8.4791416	-0.010846412	-0.0019093186	0.0018323196	-0.011845218	0.000051437438	0	930.1491499158044
1.3182567	1.0964782e-6	0.45	1.6866687	8.1831896	-0.010779368	-0.0019393036	0.0019909442	-0.011678602	-0.00019718105	0	930.2792093151477
1.3182567	1.2022644e-6	0.45	1.6628143	7.8989418	-0.010712926	-0.0019716368	0.0021516534	-0.011514452	-0.00043184509	0	930.4095844742183
1.3182567	1.3182567e-6	0.45	1.6415439	7.6264069	-0.01064686	-0.0020064465	0.0023143937	-0.011352514	-0.00065228672	0	930.5404651147492
1.3182567	1.4454398e-6	0.45	1.6228057	7.3655038	-0.010580953	-0.0020438694	0.0024791228	-0.011192536	-0.00085836895	0	930.6720372377952
1.3182567	1.5848932e-6	0.45	1.6065463	7.1160764	-0.010515003	-0.0020840508	0.0026458067	-0.011034273	-0.0010500649	0	930.804476260207
1.3182567	1.7378008e-6	0.45	1.5927116	6.8779082	-0.010448815	-0.0021271445	0.0028144192	-0.010877485	-0.0012274385	0	930.9379543197524
1.3182567	1.9054607e-6	0.45	1.5812473	6.6507338	-0.010382203	-0.0021733122	0.0029849406	-0.010721936	-0.0013906267	0	931.0726378463396
1.3182567	2.0892961e-6	0.45	1.5720996	6.4342501	-0.010314988	-0.0022227222	0.0031573578	-0.010567397	-0.0015398251	0	931.2086894834288
1.3182567	2.2908677e-6	0.45	1.565216	6.2281258	-0.010246998	-0.0022755494	0.0033316632	-0.010413643	-0.0016752741	0	931.3462676229462
1.3182567	2.5118864e-6	0.45	1.5605453	6.0320089	-0.010178068	-0.0023319732	0.0035078564	-0.010260456	-0.0017972482	0	931.4855271240533
1.3182567	2.7542287e-6	0.45	1.5580382	5.845533	-0.010108039	-0.0023921769	0.0036859431	-0.010107619	-0.0019060469	0	931.6266197876255
1.3182567	3.0199517e-6	0.45	1.5576476	5.668323	-0.010036758	-0.0024563452	0.0038659377	-0.0099549247	-0.0020019866	0	931.7696954555452
1.3182567	3.3113112e-6	0.45	1.5593286	5.4999991	-0.0099640777	-0.0025246628	0.0040478642	-0.0098021665	-0.0020853952	0	931.9149026730938
1.3182567	3.6307805e-6	0.45	1.5630386	5.3401797	-0.0098898587	-0.0025973114	0.0042317583	-0.0096491437	-0.002156607	0	932.0623875097986
1.3182567	3.9810717e-6	0.45	1.5687373	5.1884838	-0.0098139695	-0.0026744673	0.0044176701	-0.0094956594	-0.0022159595	0	932.2122947010041
1.3182567	4.3651583e-6	0.45	1.5763864	5.0445319	-0.0097362882	-0.0027562977	0.004605667	-0.0093415206	-0.0022637924	0	932.3647672767434
1.3182567	4.7863009e-6	0.45	1.5859493	4.9079448	-0.0096567045	-0.0028429569	0.0047958381	-0.0091865379	-0.0023004482	0	932.5199465429473
1.3182567	5.2480746e-6	0.45	1.5973897	4.7783394	-0.0095751235	-0.0029345797	0.0049882999	-0.0090305254	-0.0023262785	0	932.677970921081
1.3182567	5.7543994e-6	0.45	1.610669	4.6553156	-0.0094914727	-0.0030312738	0.0051832045	-0.008873301	-0.0023416626	0	932.8389728381829
1.3182567	6.3095734e-6	0.45	1.6257384	4.5384178	-0.009405722	-0.003133094	0.0053807652	-0.0087146867	-0.0023470617	0	933.0030707593498
1.3182567	6.9183097e-6	0.45	1.6425154	4.4270131	-0.0093179421	-0.0032399723	0.0055813263	-0.0085545104	-0.0023431917	0	933.1703438288694
1.3182567	7.5857758e-6	0.45	1.6608026	4.3198649	-0.0092285186	-0.0033514498	0.0057856316	-0.008392613	-0.0023316285	0	933.3407442322608
1.3182567	8.3176377e-6	0.45	1.6800008	4.2136146	-0.0091389439	-0.0034656447	0.0059958565	-0.0082288702	-0.0023169601	0	933.5137895309038
1.3182567	9.1201084e-6	0.45	1.6983147	4.0985528	-0.0090541731	-0.0035760592	0.0062188008	-0.0080632663	-0.0023127937	0	933.6876990699425
1.3182567	0.00001	0.45	1.7123197	3.9563349	-0.0089846501	-0.0036684463	0.006469023	-0.0078960492	-0.0023451153	0	933.8588155207848
1.3182567	0.000010964782	0.45	1.72032	3.7780431	-0.0089378822	-0.0037316544	0.0067579949	-0.0077277588	-0.0024269771	0	934.0249356120808
1.3182567	0.000012022644	0.45	1.7246344	3.5763787	-0.0089105426	-0.0037690254	0.0070827045	-0.0075588918	-0.0025410553	0	934.1879116029611
1.3182567	0.000013182567	0.45	1.7282444	3.367466	-0.0088961139	-0.0037887933	0.0074352571	-0.0073896565	-0.0026649349	0	934.3505291026822
1.3182567	0.000014454398	0.45	1.733023	3.1612888	-0.0088900315	-0.0037969501	0.0078100103	-0.0072200211	-0.0027845764	0	934.5146912196519
1.3182567	0.000015848932	0.45	1.7399619	2.9629665	-0.008889605	-0.0037971137	0.0082037056	-0.0070498171	-0.0028926283	0	934.6815480523255
1.3182567	0.000017378008	0.45	1.7495655	2.7749261	-0.0088932287	-0.003791498	0.0086144992	-0.006878805	-0.0029854461	0	934.8518286940197
1.3182567	0.000019054607	0.45	1.7620803	2.5981693	-0.0088998863	-0.0037815487	0.0090413266	-0.0067067101	-0.0030613498	0	935.0260379497072
1.3182567	0.000020892961	0.45	1.7776143	2.4329303	-0.0089088921	-0.0037682787	0.0094835666	-0.006533241	-0.0031197192	0	935.2045574332511
1.3182567	0.000022908677	0.45	1.7961989	2.2790218	-0.0089197515	-0.003752454	0.0099408573	-0.0063580996	-0.0031605191	0	935.387698840758
1.3182567	0.000025118864	0.45	1.8178237	2.1360251	-0.0089320874	-0.003734689	0.010413	-0.0061809872	-0.0031840382	0	935.575732471086
1.3182567	0.000027542287	0.45	1.8424557	2.0033983	-0.0089455962	-0.0037155051	0.0108999	-0.0060016073	-0.0031907402	0	935.7689035366975
1.3182567	0.000030199517	0.45	1.8700509	1.88054	-0.0089600234	-0.0036953623	0.011401539	-0.0058196671	-0.0031811763	0	935.9674434196538
1.3182567	0.000033113112	0.45	1.9005616	1.7668282	-0.008975149	-0.0036746747	0.011917955	-0.0056348785	-0.0031559311	0	936.1715748908996
1.3182567	0.000036307805	0.45	1.9339403	1.6616432	-0.0089907782	-0.0036538256	0.012449234	-0.0054469581	-0.0031155904	0	936.3815173389435
1.3182567	0.000039810717	0.45	1.9701427	1.5643825	-0.0090067373	-0.0036331659	0.012995503	-0.005255627	-0.0030607207	0	936.5974876624468
1.3182567	0.000043651583	0.45	2.0091292	1.474469	-0.009022871	-0.0036130194	0.013556936	-0.0050606102	-0.0029918571	0	936.8197053438757
1.3182567	0.000047863009	0.45	2.050866	1.3913555	-0.0090390417	-0.0035936792	0.014133748	-0.0048616365	-0.0029094958	0	937.0483905703692
1.3182567	0.000052480746	0.45	2.0953253	1.3145273	-0.009055129	-0.0035754074	0.014726204	-0.004658438	-0.0028140911	0	937.2837685087638
1.3182567	0.000057543994	0.45	2.142486	1.2435028	-0.0090710324	-0.0035584285	0.015334619	-0.0044507486	-0.0027060526	0	937.526066768766
1.3182567	0.000063095734	0.45	2.1923333	1.1778331	-0.0090866715	-0.0035429265	0.015959368	-0.0042383043	-0.0025857461	0	937.775519443082
1.3182567	0.000069183097	0.45	2.2448587	1.1171011	-0.0091019864	-0.0035290437	0.016600881	-0.0040208424	-0.0024534942	0	938.0323646175717
1.3182567	0.000075857758	0.45	2.3000601	1.0609197	-0.0091169416	-0.0035168738	0.017259657	-0.0037981004	-0.0023095775	0	938.2968466262048
1.3182567	0.000083176377	0.45	2.3579412	1.0089303	-0.0091315261	-0.0035064581	0.017936264	-0.0035698158	-0.0021542365	0	938.5692159571029
1.3182567	0.000091201084	0.45	2.4185112	0.96080105	-0.0091457539	-0.0034977868	0.01863134	-0.0033357256	-0.0019876741	0	938.8497292055637
1.3182567	0.0001	0.45	2.4817847	0.91622467	-0.0091596675	-0.0034907909	0.0193456	-0.0030955654	-0.0018100568	0	939.138648745211
1.3182567	0.00010964782	0.45	2.5477814	0.87491679	-0.0091733365	-0.0034853447	0.020079837	-0.0028490695	-0.0016215178	0	939.4362444661913
1.3182567	0.00012022644	0.45	2.6165255	0.83661414	-0.0091868608	-0.0034812599	0.020834926	-0.0025959695	-0.0014221584	0	939.7427924597832
1.3182567	0.00013182567	0.45	2.6880458	0.80107271	-0.00920037	-0.003478287	0.021611825	-0.0023359949	-0.0012120502	0	940.0585760049394
1.3182567	0.00014454398	0.45	2.7623749	0.76806617	-0.0092140232	-0.003476117	0.022411572	-0.002068872	-0.00099123706	0	940.3838844877874
1.3182567	0.00015848932	0.45	2.8395491	0.73738441	-0.0092280111	-0.0034743759	0.023235293	-0.0017943236	-0.00075973669	0	940.7190148109785
1.3182567	0.00017378008	0.45	2.9196083	0.70883199	-0.0092425525	-0.0034726337	0.024084193	-0.0015120689	-0.00051754252	0	941.0642708769249
1.3182567	0.00019054607	0.45	3.0025954	0.6822269	-0.0092578942	-0.0034704057	0.024959554	-0.0012218231	-0.00026462497	0	941.4199628361482
1.3182567	0.00020892961	0.45	3.0885564	0.65739943	-0.0092743075	-0.0034671612	0.025862731	-0.00092329673	-9.3275243e-7	0	941.7864086845418
1.3182567	0.00022908677	0.45	3.1775396	0.634191	-0.0092920808	-0.00346234	0.026795132	-0.00061619631	0.00027360509	0	942.163932760064
1.3182567	0.00025118864	0.45	3.2695965	0.61245342	-0.009311516	-0.0034553596	0.027758214	-0.00030022276	0.00055907973	0	942.5528674339575
1.3182567	0.00027542287	0.45	3.3647807	0.59204809	-0.0093329169	-0.0034456444	0.028753454	0.000024927725	0.00085560053	0	942.9535517483791
1.3182567	0.00030199517	0.45	3.4631487	0.57284549	-0.0093565789	-0.0034326456	0.02978233	0.00035956452	0.0011632951	0	943.3663330606385
1.3182567	0.00033113112	0.45	3.5647599	0.55472474	-0.0093827762	-0.0034158711	0.030846291	0.00070400243	0.0014823087	0	943.7915663855028
1.3182567	0.00036307805	0.45	3.6696765	0.53757342	-0.0094117499	-0.0033949122	0.031946733	0.0010585626	0.0018128048	0	944.2296154287196
1.3182567	0.00039810717	0.45	3.7779643	0.52128732	-0.0094436928	-0.0033694747	0.033084968	0.0014235723	0.0021549642	0	944.680853761472
1.3182567	0.00043651583	0.45	3.8896924	0.5057703	-0.0094787369	-0.0033394095	0.034262193	0.0017993652	0.002508986	0	945.1456634580093
1.3182567	0.00047863009	0.45	4.0049339	0.49093419	-0.0095169402	-0.0033047387	0.035479469	0.0021862821	0.0028750871	0	945.6244386190176
1.3182567	0.00052480746	0.45	4.1237658	0.47669857	-0.0095582733	-0.0032656863	0.036737686	0.0025846712	0.0032535029	0	946.1175831636409
1.3182567	0.00057543994	0.45	4.2462696	0.46299055	-0.009602605	-0.0032227092	0.038037536	0.0029948884	0.0036444871	0	946.6255129435033
1.3182567	0.00063095734	0.45	4.3725316	0.44974461	-0.0096496838	-0.0031765388	0.039379473	0.0034172977	0.0040483117	0	947.1486562124909
1.3182567	0.00069183097	0.45	4.5026437	0.43690263	-0.009699118	-0.0031282202	0.040763673	0.0038522725	0.0044652685	0	947.6874554119274
1.3182567	0.00075857758	0.45	4.6367048	0.42441425	-0.0097503439	-0.0030791821	0.042189966	0.0043001943	0.0048956685	0	948.2423682980514
1.3182567	0.00083176377	0.45	4.7748244	0.41223829	-0.009802595	-0.0030312951	0.04365778	0.0047614558	0.0053398465	0	948.813873203582
1.3182567	0.00091201084	0.45	4.9171264	0.40034526	-0.0098548603	-0.0029869545	0.045166059	0.0052364606	0.0057981649	0	949.4024735476344
1.3182567	0.001	0.45	5.0637565	0.38872172	-0.0099058488	-0.0029491374	0.046713205	0.0057256261	0.006271022	0	950.0087066676319
1.3182567	0.0010964782	0.45	5.214891	0.3773764	-0.0099539693	-0.0029214251	0.048297059	0.0062293843	0.0067588621	0	950.6331547652437
1.3182567	0.0012022644	0.45	5.3707458	0.3663472	-0.0099973613	-0.0029079029	0.049915003	0.0067481876	0.0072621908	0	951.2764589998648
1.3182567	0.0013182567	0.45	5.5315816	0.35570621	-0.010034007	-0.002912897	0.051564224	0.0072825106	0.007781584	0	951.9393258776599
1.3182567	0.0014454398	0.45	5.6976988	0.34555819	-0.010061965	-0.0029404498	0.053242238	0.0078328562	0.0083176915	0	952.6225292246513
1.3182567	0.0015848932	0.45	5.8694175	0.33602745	-0.010079717	-0.0029936042	0.054947611	0.0083997578	0.008871221	0	953.3268892813895
1.3182567	0.0017378008	0.45	6.0470431	0.32723279	-0.010086532	-0.0030736651	0.056680694	0.0089837797	0.0094429035	0	954.0532412744926
1.3182567	0.0019054607	0.45	6.2308304	0.31925828	-0.010082698	-0.0031797798	0.05844405	0.0095855146	0.01003345	0	954.8023982568361
1.3182567	0.0020892961	0.45	6.4209606	0.31213354	-0.010069501	-0.0033090661	0.060242322	0.010205575	0.010643514	0	955.5751150282438
1.3182567	0.0022908677	0.45	6.6175429	0.30583286	-0.010048982	-0.0034571485	0.062081705	0.010844589	0.011273688	0	956.372093209141
1.3182567	0.0025118864	0.45	6.8206307	0.30029007	-0.010023651	-0.0036187869	0.06396931	0.011503192	0.011924514	0	957.193981052641
1.3182567	0.0027542287	0.45	7.0302408	0.29541881	-0.0099963183	-0.0037882055	0.065912847	0.012182023	0.01259651	0	958.0413979202223
1.3182567	0.0030199517	0.45	7.2463684	0.29112882	-0.0099701196	-0.0039590212	0.067920688	0.012881721	0.01329019	0	958.9149373353165
1.3182567	0.0033113112	0.45	7.4689952	0.28733574	-0.0099486457	-0.0041239321	0.070002191	0.013602925	0.014006071	0	959.8151821103104
1.3182567	0.0036307805	0.45	7.6980979	0.28396765	-0.0099360399	-0.0042744913	0.072167919	0.014346269	0.01474469	0	960.7427054270455
1.3182567	0.0039810717	0.45	7.9336542	0.28097297	-0.0099368381	-0.004401446	0.074429309	0.015112389	0.015506608	0	961.6980811250596
1.3182567	0.0043651583	0.45	8.1756372	0.27833003	-0.0099554378	-0.0044959355	0.076797473	0.015901915	0.016292426	0	962.6818756683022
1.3182567	0.0047863009	0.45	8.4239812	0.27604948	-0.0099953354	-0.0045512748	0.079281416	0.016715474	0.017102786	0	963.6946113141726
1.3182567	0.0052480746	0.45	8.67853	0.27415694	-0.010058517	-0.0045644412	0.081886557	0.017553684	0.01793834	0	964.736713169014
1.3182567	0.0057543994	0.45	8.9390246	0.27265588	-0.010145149	-0.0045368192	0.084613977	0.01841714	0.01879969	0	965.8084819407165
1.3182567	0.0063095734	0.45	9.2051912	0.27148913	-0.010253255	-0.0044747314	0.087459899	0.019306413	0.019687325	0	966.9101776539906
1.3182567	0.0069183097	0.45	9.4769515	0.27051951	-0.010377929	-0.0043906672	0.090414459	0.02022205	0.020601602	0	968.0422392737679
1.3182567	0.0075857758	0.45	9.7547448	0.26953714	-0.010509662	-0.0043061735	0.093458814	0.021164616	0.02154279	0	969.205634223511
1.3182567	0.0083176377	0.45	10.03991	0.26832761	-0.010631555	-0.004256982	0.096560024	0.02213476	0.022511237	0	970.4023130408865
1.3182567	0.0091201084	0.45	10.334193	0.26694482	-0.010722946	-0.0042859457	0.099678113	0.023133297	0.023507833	0	971.6347869961619
1.3182567	0.01	0.45	10.633506	0.26608896	-0.010812397	-0.0043404809	0.10286863	0.024161013	0.024534349	0	972.8997065858428
1.3182567	0.010964782	0.45	10.929208	0.26529887	-0.010958201	-0.0043145546	0.10624067	0.025217903	0.025590131	0	974.1884275738176
1.3182567	0.012022644	0.45	11.232932	0.26236439	-0.011104103	-0.0043087737	0.10969677	0.026303989	0.026672099	0	975.5125974228828
1.3182567	0.013182567	0.45	11.564864	0.25786576	-0.011224685	-0.0043309809	0.11323235	0.027421136	0.027782934	0	976.8941615609181
1.3182567	0.014454398	0.45	11.924827	0.25395105	-0.011331028	-0.0043538394	0.1168781	0.028572264	0.028928569	0	978.335684531546
1.3182567	0.015848932	0.45	12.304758	0.25098608	-0.011432659	-0.0043735161	0.12064131	0.029759708	0.030111854	0	979.8312973398081
1.3182567	0.017378008	0.45	12.700583	0.24859074	-0.011534014	-0.0043895217	0.12452604	0.030985193	0.031333978	0	981.3785486597064
1.3182567	0.019054607	0.45	13.111226	0.24644786	-0.011636819	-0.0044009351	0.12853687	0.032250208	0.032595987	0	982.9777532456328
1.3182567	0.020892961	0.45	13.5368	0.24438018	-0.011741495	-0.0044071146	0.13267825	0.033556207	0.033899084	0	984.6303970201886
1.3182567	0.022908677	0.45	13.977854	0.24229838	-0.011847723	-0.0044080716	0.13695408	0.034904676	0.035244632	0	986.3384286419096
1.3182567	0.025118864	0.45	14.435112	0.2401642	-0.011954625	-0.0044046295	0.14136756	0.036297169	0.036634131	0	988.1040260232769
1.3182567	0.027542287	0.45	14.90937	0.23797125	-0.012060789	-0.0043985847	0.14592105	0.037735313	0.038069198	0	989.9295136489668
1.3182567	0.030199517	0.45	15.401463	0.23573309	-0.012164214	-0.0043929007	0.15061587	0.039220813	0.039551559	0	991.8173296910621
1.3182567	0.033113112	0.45	15.91225	0.23347447	-0.012262209	-0.0043919678	0.15545206	0.040755462	0.041083038	0	993.7700194320964
1.3182567	0.036307805	0.45	16.442617	0.23122447	-0.012351219	-0.0044019795	0.16042798	0.042341134	0.042665553	0	995.7902296276602
1.3182567	0.039810717	0.45	16.993486	0.22901228	-0.012426618	-0.0044313713	0.1655399	0.043979795	0.044301111	0	997.880729646623
1.3182567	0.043651583	0.45	17.565824	0.22686492	-0.012482626	-0.0044909767	0.17078182	0.0456735	0.045991803	0	1000.0444133502626
1.3182567	0.047863009	0.45	18.160655	0.22480514	-0.012513004	-0.0045924481	0.17614709	0.047424403	0.047739816	0	1002.2843310374878
1.3182567	0.052480746	0.45	18.779055	0.2228453	-0.012513513	-0.0047427953	0.18163386	0.049234764	0.049547427	0	1004.6036833376634
1.3182567	0.057543994	0.45	19.422155	0.2209769	-0.012485297	-0.0049368619	0.18725259	0.051106944	0.051416986	0	1007.0058179221314
1.3182567	0.063095734	0.45	20.091159	0.21916957	-0.012434642	-0.0051577976	0.19302562	0.053043427	0.053350933	0	1009.4942741335656
1.3182567	0.069183097	0.45	19.722751	0.22068997	-0.013307546	-0.0058401325	0.19852407	0.055036929	0.055346568	0	1010.9988926757073
1.3182567	0.075857758	0.45	18.39152	0.22519514	-0.014996148	-0.0074593734	0.20327825	0.056904565	0.057220525	0	1011.422429004615
1.3182567	0.083176377	0.45	17.177423	0.22930391	-0.016536172	-0.009695579	0.20761411	0.05860787	0.058929595	0	1011.8086965343496
1.3182567	0.091201084	0.45	16.661838	0.22756315	-0.017585972	-0.011839483	0.21224712	0.060191671	0.060510954	0	1012.7811978779113
1.3182567	0.1	0.45	18.005127	0.21070388	-0.017413139	-0.012262715	0.21881203	0.061889023	0.062184651	0	1015.7192586588886
1.3182567	0.10964782	0.45	19.588021	0.19485392	-0.016935175	-0.012697089	0.22558362	0.063729493	0.064002882	0	1019.031395169619
1.3182567	0.12022644	0.45	21.452782	0.17997528	-0.016080446	-0.01315202	0.23255926	0.065738555	0.06599107	0	1022.7838002587923
1.3182567	0.13182567	0.45	23.654358	0.16603455	-0.014758468	-0.013638512	0.23973496	0.067946412	0.068179366	0	1027.0598025679524
1.3182567	0.14454398	0.45	26.265507	0.15300298	-0.012853184	-0.014168689	0.24710581	0.070389476	0.070604147	0	1031.966369263283
1.3182567	0.15848932	0.45	29.38295	0.1408566	-0.010214627	-0.014755235	0.25466658	0.073112415	0.073310044	0	1037.642192874577
1.3182567	0.17378008	0.45	33.134013	0.12957613	-0.0066494882	-0.015410718	0.26241238	0.076170824	0.076352626	0	1044.266832138611
1.3182567	0.19054607	0.45	37.682529	0.11914651	-0.0019119056	-0.016146757	0.2703395	0.079634529	0.079801697	0	1052.0697218671153
1.3182567	0.20892961	0.45	43.231882	0.10955599	0.0043030687	-0.016972991	0.27844649	0.083591347	0.08374506	0	1061.3367674740944
1.3182567	0.22908677	0.45	50.022063	0.10079425	0.012359552	-0.017895801	0.28673537	0.088150888	0.088292307	0	1072.4109350228664
1.3182567	0.25118864	0.45	58.317031	0.092849616	0.02266982	-0.018916933	0.29521308	0.09344761	0.093577883	0	1085.682518738387
1.3182567	0.27542287	0.45	68.379676	0.085705222	0.035668333	-0.020032279	0.30389269	0.099642054	0.099762303	0	1101.5652485180926
1.3182567	0.30199517	0.45	80.435216	0.079334814	0.051770718	-0.021231344	0.31279392	0.10691902	0.10703033	0	1120.4579707926237
1.3182567	0.33113112	0.45	94.629953	0.073699338	0.071324434	-0.022497905	0.32194252	0.11548183	0.11558524	0	1142.698033212419
1.3182567	0.36307805	0.45	110.99784	0.068745682	0.094564606	-0.023812046	0.33136822	0.12554287	0.12563933	0	1168.5189210554317
1.3182567	0.39810717	0.45	129.44754	0.064408452	0.12158976	-0.025153145	0.34110177	0.1373117	0.13740207	0	1198.0262071728675
1.3182567	0.43651583	0.45	149.77549	0.06061443	0.15236519	-0.026502888	0.35117192	0.15098322	0.15106826	0	1231.199438636404
1.3182567	0.47863009	0.45	171.69938	0.057288287	0.18675009	-0.027847384	0.36160332	0.16672818	0.16680855	0	1267.9167411360145
1.3182567	0.52480746	0.45	194.89989	0.054357864	0.22453666	-0.029177973	0.37241574	0.18468751	0.18476378	0	1307.9912318351053
1.3182567	0.57543994	0.45	219.05845	0.05175788	0.26548834	-0.030490883	0.3836244	0.20497061	0.20504323	0	1351.207082237562
1.3182567	0.63095734	0.45	243.88412	0.049431805	0.30936962	-0.031786229	0.39524097	0.22765684	0.2277262	0	1397.3479494352423
1.3182567	0.69183097	0.45	269.1287	0.047332226	0.35596494	-0.033066822	0.40727484	0.25279904	0.25286544	0	1446.2152708546864
1.3182567	0.75857758	0.45	294.59192	0.045420238	0.40508835	-0.034337106	0.41973409	0.28042805	0.28049178	0	1497.637750578674
1.3182567	0.83176377	0.45	320.12037	0.04366437	0.45658669	-0.035602337	0.43262641	0.31055744	0.3106187	0	1551.4747361440936
1.3182567	0.91201084	0.45	345.60286	0.042039369	0.51033868	-0.036868022	0.44595966	0.34318782	0.34324681	0	1607.6156003079395
1.3182567	1.	0.45	370.96432	0.040525047	0.56625223	-0.038139574	0.45974216	0.37831074	0.3783676	0	1665.9773362298006
1.3182567	1.0964782	0.45	396.15952	0.039105267	0.62426082	-0.039422117	0.47398299	0.4159119	0.41596677	0	1726.5012830866153
1.3182567	1.2022644	0.45	421.16728	0.037767108	0.68431995	-0.040720403	0.48869204	0.45597379	0.45602678	0	1789.1498117558988
1.3182567	1.3182567	0.45	445.98539	0.036500176	0.7464038	-0.042038784	0.50388003	0.49847778	0.498529	0	1853.9031951235622
1.3182567	1.4454398	0.45	470.62634	0.035296072	0.81050239	-0.043381227	0.51955855	0.54340581	0.54345533	0	1920.7569566304958
1.3182567	1.5848932	0.45	495.11387	0.03414796	0.87661909	-0.04475135	0.53574005	0.59074157	0.59078948	0	1989.7195265268024
1.3182567	1.7378008	0.45	519.4801	0.033050238	0.94476862	-0.046152459	0.55243775	0.64047156	0.64051793	0	2060.8103246887003
1.3182567	1.9054607	0.45	543.76336	0.031998279	1.0149754	-0.047587596	0.56966567	0.6925857	0.6926306	0	2134.0582230198306
1.3182567	2.0892961	0.45	568.00641	0.030988231	1.0872723	-0.049059579	0.5874386	0.74707795	0.74712143	0	2209.5003583104344
1.3182567	2.2908677	0.45	592.25506	0.030016854	1.1616992	-0.050571041	0.60577202	0.80394658	0.80398869	0	2287.180745438898
1.3182567	2.5118864	0.45	616.55712	0.029081404	1.2383027	-0.052124462	0.62468218	0.86319447	0.86323527	0	2367.150038722153
1.3182567	2.7542287	0.45	640.9616	0.02817953	1.317135	-0.053722204	0.644186	0.92482924	0.92486878	0	2449.4644373220453
1.3182567	3.0199517	0.45	665.51808	0.027309203	1.3982534	-0.055366532	0.66430111	0.98886338	0.9889017	0	2534.1852323748317
1.3182567	3.3113112	0.45	690.2763	0.026468652	1.4817198	-0.057059643	0.68504581	1.0553142	1.0553513	0	2621.3783202963377
1.3182567	3.6307805	0.45	715.28579	0.025656318	1.5676007	-0.058803679	0.70643912	1.1242039	1.1242399	0	2711.1142239221663
1.3182567	3.9810717	0.45	740.59566	0.024870817	1.6559665	-0.060600747	0.72850075	1.1955596	1.1955945	0	2803.46742212783
1.3182567	4.3651583	0.45	766.25445	0.024110907	1.7468915	-0.062452934	0.75125109	1.2694131	1.2694469	0	2898.516345600705
1.3182567	4.7863009	0.45	792.31005	0.023375469	1.8404538	-0.06436232	0.77471125	1.3458009	1.3458337	0	2996.3432997956643
1.3182567	5.2480746	0.45	818.8096	0.022663479	1.9367348	-0.066330987	0.79890308	1.4247642	1.424796	0	3097.0340036085045
1.3182567	5.7543994	0.45	845.79957	0.021974002	2.0358198	-0.06836103	0.82384912	1.5063489	1.5063797	0	3200.6781319749266
1.3182567	6.3095734	0.45	873.3257	0.021306171	2.1377972	-0.070454563	0.8495727	1.5906053	1.5906352	0	3307.368606498695
1.3182567	6.9183097	0.45	901.43307	0.020659181	2.242759	-0.072613733	0.8760979	1.6775881	1.6776171	0	3417.202048322144
1.3182567	7.5857758	0.45	930.16616	0.020032281	2.3508004	-0.074840717	0.90344957	1.7673565	1.7673846	0	3530.2784107561197
1.3182567	8.3176377	0.45	959.56892	0.019424764	2.4620202	-0.077137737	0.93165337	1.859974	1.8600012	0	3646.7013720182986
1.3182567	9.1201084	0.45	989.68483	0.018835963	2.5765206	-0.07950706	0.96073579	1.9555084	1.9555348	0	3766.5781557762048
1.3182567	10.	0.45	1020.557	0.018265247	2.694407	-0.081951005	0.99072416	2.0540317	2.0540573	0	3890.019347462185