1.5848932	1.e-12	0.27	488454.75	1.2411477e6	-0.035405922	-0.0030508104	-0.0030508077	-519.90933	1573.7041	0	905.5252355388003
1.5848932	1.0964782e-12	0.27	445476.16	1.1319422e6	-0.035250559	-0.0030508104	-0.0030508075	-474.16612	1435.2353	0	905.6712092810089
1.5848932	1.2022644e-12	0.27	406279.23	1.0323455e6	-0.035095195	-0.0030508104	-0.0030508072	-432.44781	1308.9504	0	905.817183988151
1.5848932	1.3182567e-12	0.27	370531.2	941512.29	-0.034939832	-0.0030508104	-0.0030508069	-394.40024	1193.7771	0	905.9631577557279
1.5848932	1.4454398e-12	0.27	337928.61	858671.39	-0.034784469	-0.0030508104	-0.0030508065	-359.70044	1088.7379	0	906.109131548673
1.5848932	1.5848932e-12	0.27	308194.69	783119.58	-0.034629105	-0.0030508104	-0.0030508062	-328.05382	992.94093	0	906.2551062558152
1.5848932	1.7378008e-12	0.27	281077.04	714215.51	-0.034473742	-0.0030508104	-0.0030508057	-299.19176	905.57309	0	906.4010800741286
1.5848932	1.9054607e-12	0.27	256345.45	651374.23	-0.034318378	-0.0030508104	-0.0030508053	-272.86922	825.89265	0	906.547054806639
1.5848932	2.0892961e-12	0.27	233789.97	594062.31	-0.034163015	-0.0030508104	-0.0030508048	-248.86278	753.22325	0	906.6930286249525
1.5848932	2.2908677e-12	0.27	213219.13	541793.2	-0.034007652	-0.0030508104	-0.0030508043	-226.96862	686.94796	0	906.8390024432658
1.5848932	2.5118864e-12	0.27	194458.29	494123.19	-0.033852288	-0.0030508104	-0.0030508037	-207.0009	626.50417	0	906.9849772265129
1.5848932	2.7542287e-12	0.27	177348.21	450647.62	-0.033696925	-0.0030508104	-0.0030508031	-188.79011	571.37879	0	907.1309510701944
1.5848932	3.0199517e-12	0.27	161743.63	410997.43	-0.033541561	-0.0030508104	-0.0030508023	-172.18166	521.10384	0	907.2769259041778
1.5848932	3.3113112e-12	0.27	147512.08	374836.01	-0.033386198	-0.0030508105	-0.0030508016	-157.03455	475.25253	0	907.4228997732278
1.5848932	3.6307805e-12	0.27	134532.76	341856.4	-0.033230835	-0.0030508104	-0.0030508007	-143.22022	433.43566	0	907.5688736930142
1.5848932	3.9810717e-12	0.27	122695.47	311778.62	-0.033075471	-0.0030508105	-0.0030507998	-130.62138	395.29821	0	907.714848552366
1.5848932	4.3651583e-12	0.27	111899.74	284347.36	-0.032920108	-0.0030508105	-0.0030507988	-119.13109	360.51644	0	907.8608224975208
1.5848932	4.7863009e-12	0.27	102053.91	259329.74	-0.032764745	-0.0030508105	-0.0030507977	-108.65181	328.79509	0	908.0067964680436
1.5848932	5.2480746e-12	0.27	93074.416	236513.4	-0.032609381	-0.0030508105	-0.0030507964	-99.094575	299.86488	0	908.1527714288686
1.5848932	5.7543994e-12	0.27	84885.016	215704.64	-0.032454018	-0.0030508105	-0.0030507951	-90.378261	273.48021	0	908.298745450128
1.5848932	6.3095734e-12	0.27	77416.194	196726.81	-0.032298654	-0.0030508105	-0.0030507936	-82.428875	249.4171	0	908.4447204616894
1.5848932	6.9183097e-12	0.27	70604.548	179418.82	-0.032143291	-0.0030508105	-0.003050792	-75.178935	227.47129	0	908.5906945590536
1.5848932	7.5857758e-12	0.27	64392.252	163633.74	-0.031987928	-0.0030508105	-0.0030507902	-68.566898	207.45648	0	908.7366687071545
1.5848932	8.3176377e-12	0.27	58726.571	149237.56	-0.031832564	-0.0030508105	-0.0030507882	-62.536634	189.20274	0	908.8826438455571
1.5848932	9.1201084e-12	0.27	53559.41	136108.09	-0.031677201	-0.0030508105	-0.0030507861	-57.036955	172.55515	0	909.0286180697627
1.5848932	1.e-11	0.27	48846.902	124133.86	-0.031521837	-0.0030508105	-0.0030507837	-52.021174	157.37235	0	909.1745933096386
1.5848932	1.0964782e-11	0.27	44549.043	113213.22	-0.031366474	-0.0030508106	-0.0030507812	-47.446713	143.52548	0	909.3205676353172
1.5848932	1.2022644e-11	0.27	40629.35	103253.47	-0.031211111	-0.0030508106	-0.0030507783	-43.274743	130.89699	0	909.466542062469
1.5848932	1.3182567e-11	0.27	37054.546	94170.062	-0.031055747	-0.0030508106	-0.0030507753	-39.469846	119.37966	0	909.6125174545542
1.5848932	1.4454398e-11	0.27	33794.288	85885.89	-0.030900384	-0.0030508106	-0.0030507719	-35.999725	108.87573	0	909.7584920085474
1.5848932	1.5848932e-11	0.27	30820.896	78330.625	-0.030745021	-0.0030508106	-0.0030507682	-32.834924	99.29604	0	909.9044666386451
1.5848932	1.7378008e-11	0.27	28109.131	71440.136	-0.030589657	-0.0030508106	-0.0030507641	-29.948578	90.559256	0	910.0504423097814
1.5848932	1.9054607e-11	0.27	25635.971	65155.925	-0.030434294	-0.0030508107	-0.0030507596	-27.316185	82.591214	0	910.1964171428252
1.5848932	2.0892961e-11	0.27	23380.423	59424.649	-0.03027893	-0.0030508107	-0.0030507547	-24.9154	75.324272	0	910.3423930169076
1.5848932	2.2908677e-11	0.27	21323.339	54197.655	-0.030123567	-0.0030508107	-0.0030507494	-22.725844	68.696743	0	910.4883680528977
1.5848932	2.5118864e-11	0.27	19447.256	49430.572	-0.029968204	-0.0030508108	-0.0030507435	-20.728932	62.652365	0	910.6343432410974
1.5848932	2.7542287e-11	0.27	17736.247	45082.932	-0.02981284	-0.0030508108	-0.003050737	-18.907713	57.139825	0	910.780319521072
1.5848932	3.0199517e-11	0.27	16175.789	41117.83	-0.029657477	-0.0030508109	-0.0030507299	-17.246728	52.112331	0	910.9262950136908
1.5848932	3.3113112e-11	0.27	14752.635	37501.605	-0.029502114	-0.0030508109	-0.0030507222	-15.731878	47.527201	0	911.0722706585192
1.5848932	3.6307805e-11	0.27	13454.702	34203.561	-0.02934675	-0.0030508109	-0.0030507136	-14.350305	43.345513	0	911.2182474712274
1.5848932	3.9810717e-11	0.27	12270.974	31195.701	-0.029191387	-0.003050811	-0.0030507043	-13.090281	39.531768	0	911.364223521948
1.5848932	4.3651583e-11	0.27	11191.4	28452.492	-0.029036023	-0.003050811	-0.0030506941	-11.941113	36.053592	0	911.5102007405484
1.5848932	4.7863009e-11	0.27	10206.818	25950.647	-0.02888066	-0.0030508111	-0.0030506829	-10.893045	32.881457	0	911.6561772732662
1.5848932	5.2480746e-11	0.27	9308.868	23668.93	-0.028725297	-0.0030508112	-0.0030506706	-9.9371813	29.988435	0	911.8021540850345
1.5848932	5.7543994e-11	0.27	8489.928	21587.971	-0.028569933	-0.0030508113	-0.0030506571	-9.0654101	27.349968	0	911.9481321407877
1.5848932	6.3095734e-11	0.27	7743.0458	19690.105	-0.02841457	-0.0030508113	-0.0030506423	-8.2703317	24.943658	0	912.0941095867629
1.5848932	6.9183097e-11	0.27	7061.8812	17959.223	-0.028259207	-0.0030508114	-0.0030506261	-7.5451978	22.749077	0	912.2400873878938
1.5848932	7.5857758e-11	0.27	6440.6517	16380.632	-0.028103843	-0.0030508115	-0.0030506083	-6.8838543	20.747595	0	912.3860665344822
1.5848932	8.3176377e-11	0.27	5874.0836	14940.932	-0.02794848	-0.0030508116	-0.0030505888	-6.2806881	18.922222	0	912.5320451727658
1.5848932	9.1201084e-11	0.27	5357.3673	13627.901	-0.027793117	-0.0030508118	-0.0030505675	-5.7305803	17.257462	0	912.6780242676782
1.5848932	1.e-10	0.27	4886.1165	12430.395	-0.027637753	-0.0030508119	-0.003050544	-5.2288623	15.739183	0	912.8240048602578
1.5848932	1.0964782e-10	0.27	4456.3307	11338.249	-0.02748239	-0.003050812	-0.0030505183	-4.7712766	14.354496	0	912.9699850713739
1.5848932	1.2022644e-10	0.27	4064.3614	10342.191	-0.027327027	-0.0030508122	-0.0030504901	-4.3539396	13.091646	0	913.1159659166965
1.5848932	1.3182567e-10	0.27	3706.8811	9433.7673	-0.027171663	-0.0030508123	-0.0030504592	-3.9733101	11.939914	0	913.2619483865275
1.5848932	1.4454398e-10	0.27	3380.8552	8605.2672	-0.0270163	-0.0030508125	-0.0030504253	-3.6261583	10.889521	0	913.4079306778413
1.5848932	1.5848932e-10	0.27	3083.516	7849.6578	-0.026860937	-0.0030508128	-0.0030503882	-3.3095383	9.9315517	0	913.5539137809393
1.5848932	1.7378008e-10	0.27	2812.3395	7160.5259	-0.026705574	-0.003050813	-0.0030503474	-3.0207638	9.0578733	0	913.6998978226634
1.5848932	1.9054607e-10	0.27	2565.0236	6532.022	-0.02655021	-0.0030508132	-0.0030503028	-2.7573846	8.261069	0	913.8458837679466
1.5848932	2.0892961e-10	0.27	2339.4688	5958.8116	-0.026394847	-0.0030508135	-0.0030502538	-2.5171663	7.534375	0	913.9918698898684
1.5848932	2.2908677e-10	0.27	2133.7604	5436.0293	-0.026239484	-0.0030508138	-0.0030502001	-2.298071	6.871622	0	914.1378572040984
1.5848932	2.5118864e-10	0.27	1946.1521	4959.2381	-0.026084121	-0.0030508141	-0.0030501412	-2.09824	6.2671843	0	914.2838458374782
1.5848932	2.7542287e-10	0.27	1775.0512	4524.3912	-0.025928758	-0.0030508145	-0.0030500767	-1.9159782	5.7159304	0	914.4298358914807
1.5848932	3.0199517e-10	0.27	1619.0054	4127.7981	-0.025773394	-0.0030508149	-0.0030500059	-1.7497399	5.2131809	0	914.5758284832496
1.5848932	3.3113112e-10	0.27	1476.69	3766.0928	-0.025618031	-0.0030508153	-0.0030499282	-1.598115	4.754668	0	914.7218218858629
1.5848932	3.6307805e-10	0.27	1346.8967	3436.2054	-0.025462668	-0.0030508158	-0.0030498431	-1.4598178	4.3364992	0	914.8678171657281
1.5848932	3.9810717e-10	0.27	1228.5239	3135.3366	-0.025307305	-0.0030508163	-0.0030497498	-1.3336757	3.9551248	0	915.0138145257908
1.5848932	4.3651583e-10	0.27	1120.5666	2860.9328	-0.025151942	-0.0030508169	-0.0030496475	-1.2186189	3.6073072	0	915.1598141689974
1.5848932	4.7863009e-10	0.27	1022.1084	2610.6655	-0.024996579	-0.0030508175	-0.0030495353	-1.1136723	3.2900937	0	915.3058163236622
1.5848932	5.2480746e-10	0.27	932.31338	2382.4108	-0.024841216	-0.0030508182	-0.0030494123	-1.0179461	3.0007916	0	915.4518212180996
1.5848932	5.7543994e-10	0.27	850.4194	2174.2321	-0.024685853	-0.0030508189	-0.0030492774	-0.93062917	2.736945	0	915.5978291313602
1.5848932	6.3095734e-10	0.27	775.7312	1984.3627	-0.02453049	-0.0030508197	-0.0030491295	-0.85098148	2.496314	0	915.7438403424956
1.5848932	6.9183097e-10	0.27	707.61476	1811.1916	-0.024375127	-0.0030508206	-0.0030489673	-0.77832825	2.276856	0	915.8898551812924
1.5848932	7.5857758e-10	0.27	645.49182	1653.2496	-0.024219764	-0.0030508216	-0.0030487895	-0.71205403	2.0767079	0	916.0358739775387
1.5848932	8.3176377e-10	0.27	588.83504	1509.1967	-0.024064401	-0.0030508227	-0.0030485945	-0.65159756	1.8941706	0	916.1818971371265
1.5848932	9.1201084e-10	0.27	537.16344	1377.8108	-0.023909039	-0.0030508239	-0.0030483807	-0.59644693	1.7276947	0	916.3279241263826
1.5848932	1.e-9	0.27	490.03839	1257.9773	-0.023753676	-0.0030508252	-0.0030481463	-0.54613528	1.5758669	0	916.4739572810665
1.5848932	1.0964782e-9	0.27	447.05984	1148.6798	-0.023598313	-0.0030508267	-0.0030478893	-0.50023683	1.4373983	0	916.6199961689781
1.5848932	1.2022644e-9	0.27	407.86294	1048.9912	-0.023442951	-0.0030508282	-0.0030476075	-0.45836327	1.3111134	0	916.7660404086541
1.5848932	1.3182567e-9	0.27	372.11495	958.066	-0.023287588	-0.0030508299	-0.0030472985	-0.42016046	1.1959403	0	916.9120924880632
1.5848932	1.4454398e-9	0.27	339.5124	875.13314	-0.023132226	-0.0030508318	-0.0030469596	-0.3853054	1.0909012	0	917.0581512130182
1.5848932	1.5848932e-9	0.27	309.77854	799.48938	-0.022976864	-0.0030508339	-0.0030465881	-0.35350353	0.9951044	0	917.2042182080273
1.5848932	1.7378008e-9	0.27	282.66093	730.49336	-0.022821502	-0.0030508362	-0.0030461808	-0.3244862	0.90773671	0	917.3502942848751
1.5848932	1.9054607e-9	0.27	257.92939	667.56014	-0.022666139	-0.0030508387	-0.0030457341	-0.2980084	0.82805647	0	917.4963812963845
1.5848932	2.0892961e-9	0.27	235.37397	610.15628	-0.022510778	-0.0030508414	-0.0030452444	-0.27384667	0.75538726	0	917.6424773371168
1.5848932	2.2908677e-9	0.27	214.8032	557.79525	-0.022355416	-0.0030508444	-0.0030447074	-0.25179724	0.68911219	0	917.7885863166035
1.5848932	2.5118864e-9	0.27	196.04244	510.03333	-0.022200054	-0.0030508477	-0.0030441186	-0.23167423	0.62866864	0	917.9347084368513
1.5848932	2.7542287e-9	0.27	178.93244	466.46585	-0.022044693	-0.0030508513	-0.003043473	-0.21330815	0.57354351	0	918.0808440267081
1.5848932	3.0199517e-9	0.27	163.32794	426.72375	-0.021889332	-0.0030508552	-0.0030427651	-0.19654439	0.52326885	0	918.2269954209935
1.5848932	3.3113112e-9	0.27	149.0965	390.47046	-0.021733971	-0.0030508595	-0.0030419889	-0.18124198	0.47741787	0	918.3731641418035
1.5848932	3.6307805e-9	0.27	136.11728	357.39896	-0.02157861	-0.0030508643	-0.0030411378	-0.16727232	0.43560133	0	918.5193518634435
1.5848932	3.9810717e-9	0.27	124.28011	327.22934	-0.021423249	-0.0030508695	-0.0030402046	-0.15451815	0.39746426	0	918.6655604124287
1.5848932	4.3651583e-9	0.27	113.48451	299.70622	-0.021267889	-0.0030508752	-0.0030391814	-0.14287252	0.3626829	0	918.8117908532867
1.5848932	4.7863009e-9	0.27	103.63882	274.59678	-0.021112529	-0.0030508815	-0.0030380595	-0.13223788	0.33096201	0	918.9580463326214
1.5848932	5.2480746e-9	0.27	94.659477	251.68862	-0.020957169	-0.0030508883	-0.0030368294	-0.12252527	0.30203229	0	919.1043292604185
1.5848932	5.7543994e-9	0.27	86.470247	230.78806	-0.02080181	-0.0030508958	-0.0030354805	-0.11365357	0.27564817	0	919.2506413861482
1.5848932	6.3095734e-9	0.27	79.00161	211.71846	-0.020646451	-0.0030509041	-0.0030340015	-0.10554878	0.25158567	0	919.3969865159902
1.5848932	6.9183097e-9	0.27	72.190167	194.31872	-0.020491093	-0.0030509132	-0.0030323799	-0.098143413	0.22964051	0	919.5433668814118
1.5848932	7.5857758e-9	0.27	65.978095	178.44191	-0.020335735	-0.0030509231	-0.0030306018	-0.09137593	0.20962641	0	919.6897869481672
1.5848932	8.3176377e-9	0.27	60.312659	163.95404	-0.020180377	-0.003050934	-0.0030286522	-0.085190198	0.19137347	0	919.8362505214964
1.5848932	9.1201084e-9	0.27	55.145765	150.7329	-0.02002502	-0.0030509459	-0.0030265145	-0.079535026	0.17472674	0	919.9827608729655
1.5848932	1.e-8	0.27	50.43355	138.66703	-0.019869664	-0.003050959	-0.0030241707	-0.074363724	0.1595449	0	920.1293225688622
1.5848932	1.0964782e-8	0.27	46.136014	127.65479	-0.019714308	-0.0030509734	-0.0030216007	-0.069633712	0.14569906	0	920.2759416477732
1.5848932	1.2022644e-8	0.27	42.216674	117.60349	-0.019558954	-0.0030509892	-0.0030187829	-0.065306157	0.13307171	0	920.4226217101127
1.5848932	1.3182567e-8	0.27	38.642259	108.42857	-0.0194036	-0.0030510065	-0.0030156933	-0.06134564	0.12155563	0	920.5693707233951
1.5848932	1.4454398e-8	0.27	35.382424	100.05293	-0.019248247	-0.0030510255	-0.0030123057	-0.057719859	0.11105308	0	920.7161943945401
1.5848932	1.5848932e-8	0.27	32.409499	92.406251	-0.019092895	-0.0030510463	-0.0030085913	-0.054399355	0.10147489	0	920.8631000296081
1.5848932	1.7378008e-8	0.27	29.698244	85.424404	-0.018937544	-0.0030510692	-0.0030045188	-0.051357256	0.092739752	0	921.0100955688656
1.5848932	1.9054607e-8	0.27	27.225644	79.048899	-0.018782194	-0.0030510943	-0.0030000537	-0.048569059	0.084773516	0	921.157189764364
1.5848932	2.0892961e-8	0.27	24.97071	73.226399	-0.018626846	-0.0030511219	-0.002995158	-0.046012413	0.077508556	0	921.3043913164786
1.5848932	2.2908677e-8	0.27	22.914299	67.908257	-0.018471499	-0.0030511522	-0.0029897904	-0.043666933	0.070883198	0	921.4517116418676
1.5848932	2.5118864e-8	0.27	21.038953	63.050107	-0.018316154	-0.0030511855	-0.0029839055	-0.041514027	0.064841199	0	921.5991613181579
1.5848932	2.7542287e-8	0.27	19.328753	58.611492	-0.01816081	-0.0030512221	-0.0029774534	-0.039536739	0.059331271	0	921.746753943679
1.5848932	3.0199517e-8	0.27	17.769182	54.555514	-0.018005469	-0.0030512623	-0.0029703798	-0.037719601	0.054306636	0	921.8945014142676
1.5848932	3.3113112e-8	0.27	16.346999	50.848523	-0.01785013	-0.0030513065	-0.0029626249	-0.036048508	0.04972464	0	922.0424198397109
1.5848932	3.6307805e-8	0.27	15.050131	47.459831	-0.017694793	-0.0030513552	-0.0029541234	-0.034510591	0.045546387	0	922.190525785486
1.5848932	3.9810717e-8	0.27	13.86757	44.361453	-0.017539459	-0.0030514089	-0.0029448036	-0.033094115	0.041736407	0	922.3388365010732
1.5848932	4.3651583e-8	0.27	12.789276	41.527869	-0.017384128	-0.003051468	-0.0029345874	-0.031788374	0.038262355	0	922.4873717990868
1.5848932	4.7863009e-8	0.27	11.806096	38.935806	-0.0172288	-0.0030515333	-0.002923389	-0.030583602	0.035094739	0	922.6361534454976
1.5848932	5.2480746e-8	0.27	10.909682	36.564039	-0.017073476	-0.0030516054	-0.0029111148	-0.029470891	0.032206667	0	922.7852042454363
1.5848932	5.7543994e-8	0.27	10.092425	34.393217	-0.016918157	-0.0030516851	-0.0028976625	-0.028442115	0.029573621	0	922.9345492110715
1.5848932	6.3095734e-8	0.27	9.3473859	32.405691	-0.016762842	-0.0030517735	-0.0028829202	-0.027489858	0.027173246	0	923.0842176690568
1.5848932	6.9183097e-8	0.27	8.6682399	30.585369	-0.016607533	-0.0030518716	-0.0028667662	-0.026607357	0.024985161	0	923.2342386134393
1.5848932	7.5857758e-8	0.27	8.0492203	28.917577	-0.016452229	-0.0030519809	-0.0028490674	-0.025788439	0.022990787	0	923.3846467489442
1.5848932	8.3176377e-8	0.27	7.4850712	27.388937	-0.016296933	-0.0030521027	-0.0028296791	-0.025027472	0.021173188	0	923.535475964754
1.5848932	9.1201084e-8	0.27	6.9710017	25.987249	-0.016141645	-0.0030522391	-0.0028084442	-0.024319315	0.019516926	0	923.6867661144126
1.5848932	1.e-7	0.27	6.5026453	24.70139	-0.015986367	-0.0030523923	-0.0027851918	-0.023659277	0.018007931	0	923.8385586731529
1.5848932	1.0964782e-7	0.27	6.0760236	23.521219	-0.015831099	-0.003052565	-0.002759737	-0.023043073	0.016633379	0	923.9909005468959
1.5848932	1.2022644e-7	0.27	5.6875107	22.437489	-0.015675845	-0.0030527606	-0.0027318803	-0.022466795	0.015381583	0	924.1438385870679
1.5848932	1.3182567e-7	0.27	5.3338034	21.441771	-0.015520606	-0.0030529833	-0.0027014066	-0.02192687	0.014241893	0	924.2974264212401
1.5848932	1.4454398e-7	0.27	5.0118927	20.526375	-0.015365385	-0.0030532383	-0.0026680851	-0.021420036	0.013204605	0	924.4517197806712
1.5848932	1.5848932e-7	0.27	4.7190371	19.684292	-0.015210187	-0.0030535322	-0.0026316695	-0.020943312	0.012260872	0	924.6067764495696
1.5848932	1.7378008e-7	0.27	4.452739	18.909126	-0.015055015	-0.0030538731	-0.0025918984	-0.020493975	0.011402629	0	924.7626599218823
1.5848932	1.9054607e-7	0.27	4.2107233	18.195041	-0.014899877	-0.0030542713	-0.0025484955	-0.020069536	0.010622525	0	924.9194327736017
1.5848932	2.0892961e-7	0.27	3.9909164	17.536708	-0.014744779	-0.0030547403	-0.0025011723	-0.019667715	0.0099138458	0	925.077162554778
1.5848932	2.2908677e-7	0.27	3.7914279	16.929259	-0.014589731	-0.0030552968	-0.0024496299	-0.019286431	0.0092704617	0	925.2359156955008
1.5848932	2.5118864e-7	0.27	3.6105327	16.368236	-0.014434747	-0.0030559626	-0.0023935627	-0.018923778	0.0086867613	0	925.3957565672708
1.5848932	2.7542287e-7	0.27	3.4466548	15.849555	-0.014279842	-0.0030567654	-0.0023326636	-0.018578011	0.0081575976	0	925.5567489825485
1.5848932	3.0199517e-7	0.27	3.2983515	15.369459	-0.014125036	-0.0030577412	-0.00226663	-0.018247534	0.007678232	0	925.7189509143943
1.5848932	3.3113112e-7	0.27	3.1642988	14.924485	-0.013970357	-0.0030589359	-0.0021951722	-0.017930886	0.0072442802	0	925.8824095468411
1.5848932	3.6307805e-7	0.27	3.0432769	14.511417	-0.013815838	-0.0030604091	-0.0021180232	-0.017626731	0.0068516586	0	926.0471616074984
1.5848932	3.9810717e-7	0.27	2.9341563	14.127259	-0.013661523	-0.0030622367	-0.0020349503	-0.017333847	0.0064965303	0	926.2132247874417
1.5848932	4.3651583e-7	0.27	2.8358848	13.769188	-0.013507467	-0.0030645166	-0.0019457686	-0.017051119	0.0061752504	0	926.3805943164984
1.5848932	4.7863009e-7	0.27	2.7474744	13.434523	-0.013353741	-0.0030673734	-0.0018503554	-0.016777534	0.005884311	0	926.5492346123888
1.5848932	5.2480746e-7	0.27	2.6679887	13.120689	-0.013200432	-0.0030709651	-0.0017486656	-0.016512171	0.0056202866	0	926.7190753740146
1.5848932	5.7543994e-7	0.27	2.5965325	12.825179	-0.01304765	-0.0030754906	-0.0016407469	-0.016254198	0.005379783	0	926.8900011485252
1.5848932	6.3095734e-7	0.27	2.5322413	12.545533	-0.012895529	-0.0030811974	-0.001526753	-0.016002873	0.0051593911	0	927.0618470431414
1.5848932	6.9183097e-7	0.27	2.4742743	12.279308	-0.01274423	-0.0030883892	-0.0014069546	-0.015757532	0.0049556542	0	927.23439311595
1.5848932	7.5857758e-7	0.27	2.42181	12.024077	-0.012593941	-0.0030974322	-0.0012817453	-0.015517598	0.0047650545	0	927.4073628791762
1.5848932	8.3176377e-7	0.27	2.3740472	11.77743	-0.012444876	-0.0031087583	-0.0011516415	-0.01528257	0.0045840305	0	927.5804242641175
1.5848932	9.1201084e-7	0.27	2.3302105	11.537015	-0.012297267	-0.0031228638	-0.0010172736	-0.015052025	0.0044090336	0	927.7531993700735
1.5848932	1.e-6	0.27	2.2895631	11.30059	-0.012151354	-0.0031403008	-0.00087936791	-0.014825616	0.0042366322	0	927.9252784491189
1.5848932	1.0964782e-6	0.27	2.2514255	11.066112	-0.012007366	-0.0031616617	-0.00073871957	-0.014603062	0.0040636601	0	928.0962446275705
1.5848932	1.2022644e-6	0.27	2.2151977	10.831841	-0.011865503	-0.0031875564	-0.00059615706	-0.014384149	0.0038873954	0	928.2656998213608
1.5848932	1.3182567e-6	0.27	2.1803818	10.596437	-0.011725911	-0.0032185844	-0.00045250255	-0.014168715	0.0037057424	0	928.4332982836893
1.5848932	1.4454398e-6	0.27	2.1465997	10.359046	-0.011588663	-0.0032553078	-0.00030853326	-0.01395664	0.0035173777	0	928.5987742590598
1.5848932	1.5848932e-6	0.27	2.1136027	10.119336	-0.011453747	-0.0032982273	-0.00016494853	-0.013747837	0.0033218286	0	928.7619616118367
1.5848932	1.7378008e-6	0.27	2.0812681	9.8774814	-0.011321062	-0.0033477678	-0.000022347772	-0.013542236	0.0031194614	0	928.9228031776986
1.5848932	1.9054607e-6	0.27	2.0495861	9.634103	-0.011190423	-0.0034042717	0.00011878082	-0.013339772	0.0029113852	0	929.0813489298905
1.5848932	2.0892961e-6	0.27	2.0186379	9.3901623	-0.011061575	-0.003468002	0.00025806084	-0.013140379	0.0026992899	0	929.2377429699068
1.5848932	2.2908677e-6	0.27	1.9885695	9.1468447	-0.01093421	-0.0035391508	0.00039522043	-0.012943979	0.0024852535	0	929.3922057182192
1.5848932	2.5118864e-6	0.27	1.9595662	8.9054415	-0.010807988	-0.0036178497	0.00053008174	-0.012750475	0.0022715497	0	929.5450115095884
1.5848932	2.7542287e-6	0.27	1.9318296	8.6672491	-0.010682553	-0.003704181	0.00066254919	-0.012559754	0.002060479	0	929.6964705822919
1.5848932	3.0199517e-6	0.27	1.9055598	8.4334894	-0.010557554	-0.0037981864	0.00079259876	-0.012371681	0.001854237	0	929.8469066303103
1.5848932	3.3113112e-6	0.27	1.8809421	8.2052554	-0.01043265	-0.0038998733	0.00092026995	-0.012186105	0.0016548204	0	929.9966500658923
1.5848932	3.6307805e-6	0.27	1.8581388	7.9834785	-0.010307524	-0.0040092184	0.0010456599	-0.012002853	0.0014639702	0	930.1460233739863
1.5848932	3.9810717e-6	0.27	1.8372843	7.7689124	-0.010181889	-0.0041261691	0.0011689196	-0.011821743	0.0012831427	0	930.2953345133897
1.5848932	4.3651583e-6	0.27	1.8184835	7.5621313	-0.010055493	-0.0042506437	0.0012902515	-0.011642577	0.0011135028	0	930.4448716126226
1.5848932	4.7863009e-6	0.27	1.8018119	7.3635366	-0.0099281173	-0.0043825304	0.0014099088	-0.01146515	0.00095593302	0	930.5949043870721
1.5848932	5.2480746e-6	0.27	1.7873172	7.1733694	-0.0097995823	-0.0045216865	0.001528194	-0.011289251	0.00081105118	0	930.7456783216758
1.5848932	5.7543994e-6	0.27	1.7750217	6.9917267	-0.0096697441	-0.004667938	0.0016454581	-0.011114665	0.00067923545	0	930.8974176624951
1.5848932	6.3095734e-6	0.27	1.7649251	6.8185788	-0.0095384947	-0.004821079	0.0017620992	-0.010941176	0.00056065165	0	931.0503248736487
1.5848932	6.9183097e-6	0.27	1.7570078	6.6537879	-0.0094057599	-0.004980874	0.0018785596	-0.010768571	0.00045528222	0	931.2045818747192
1.5848932	7.5857758e-6	0.27	1.7512339	6.4971264	-0.0092714962	-0.0051470591	0.0019953231	-0.010596636	0.00036295487	0	931.3603522684632
1.5848932	8.3176377e-6	0.27	1.7475543	6.3482937	-0.0091356888	-0.0053193461	0.0021129102	-0.010425163	0.00028337052	0	931.5177820022639
1.5848932	9.1201084e-6	0.27	1.74591	6.2069327	-0.0089983474	-0.0054974263	0.0022318737	-0.010253952	0.00021612942	0	931.6770021981033
1.5848932	0.00001	0.27	1.7462341	6.0726449	-0.008859503	-0.0056809757	0.002352793	-0.010082804	0.00016075536	0	931.83813071318
1.5848932	0.000010964782	0.27	1.7484552	5.9450031	-0.0087192044	-0.0058696604	0.002476268	-0.0099115312	0.0001167175	0	932.0012738809231
1.5848932	0.000012022644	0.27	1.7524986	5.8235634	-0.0085775146	-0.0060631419	0.0026029136	-0.0097399506	0.000083449193	0	932.1665284981738
1.5848932	0.000013182567	0.27	1.7582889	5.7078743	-0.0084345075	-0.0062610832	0.0027333536	-0.0095678874	0.000060363792	0	932.3339833782865
1.5848932	0.000014454398	0.27	1.7657502	5.5974836	-0.0082902653	-0.0064631546	0.0028682145	-0.0093951741	0.000046865954	0	932.5037202211658
1.5848932	0.000015848932	0.27	1.774807	5.4919406	-0.0081448771	-0.0066690384	0.0030081207	-0.0092216505	0.000042355793	0	932.6758137109827
1.5848932	0.000017378008	0.27	1.7853811	5.390789	-0.0079984391	-0.0068784372	0.0031536862	-0.0090471641	0.000046216067	0	932.850329222694
1.5848932	0.000019054607	0.27	1.7973807	5.293525	-0.0078510644	-0.0070910863	0.0033055028	-0.0088715704	0.000057741203	0	933.0273106208475
1.5848932	0.000020892961	0.27	1.8106519	5.199412	-0.0077029289	-0.0073067847	0.0034641081	-0.0086947362	0.000075822124	0	933.2067290156882
1.5848932	0.000022908677	0.27	1.8239465	5.1085594	-0.0075589835	-0.007516983	0.0036383988	-0.0085178821	0.000099422727	0	933.386189651508
1.5848932	0.000025118864	0.27	1.8372253	5.0107611	-0.00741225	-0.0077384332	0.0038119806	-0.0083384144	0.00011392074	0	933.5680900538531
1.5848932	0.000027542287	0.27	1.8448936	4.8888958	-0.007271832	-0.007965513	0.003990844	-0.0081578648	0.000088903529	0	933.7453964814857
1.5848932	0.000030199517	0.27	1.8416017	4.7222997	-0.0071436339	-0.0082009706	0.0041726201	-0.0079770836	-0.000011335731	0	933.9119604159365
1.5848932	0.000033113112	0.27	1.8297769	4.5213222	-0.0070260686	-0.0084452825	0.0043572227	-0.0077970902	-0.00017035854	0	934.0692511739285
1.5848932	0.000036307805	0.27	1.814966	4.3083966	-0.0069140804	-0.0086977691	0.0045457332	-0.0076184406	-0.00035087966	0	934.2222932484134
1.5848932	0.000039810717	0.27	1.8006292	4.097346	-0.0068043149	-0.0089580138	0.0047389817	-0.007441239	-0.00052968589	0	934.3744488993644
1.5848932	0.000043651583	0.27	1.7884408	3.894708	-0.0066950106	-0.0092258519	0.0049375587	-0.0072653465	-0.00069561064	0	934.5275229707472
1.5848932	0.000047863009	0.27	1.779172	3.7033225	-0.0065852233	-0.00950124	0.0051419456	-0.0070905098	-0.00084360994	0	934.6825247229904
1.5848932	0.000052480746	0.27	1.7731631	3.5242449	-0.0064743981	-0.0097842125	0.005352559	-0.0069164236	-0.0009715983	0	934.8400812050966
1.5848932	0.000057543994	0.27	1.7705463	3.3576519	-0.006362167	-0.010074864	0.0055697685	-0.0067427607	-0.0010789507	0	935.0006319382193
1.5848932	0.000063095734	0.27	1.7713515	3.2032771	-0.006248255	-0.010373332	0.0057939135	-0.0065691866	-0.0011657817	0	935.16452140272
1.5848932	0.000069183097	0.27	1.7755563	3.0606247	-0.0061324433	-0.010679771	0.0060253335	-0.0063953667	-0.001232593	0	935.3320413007548
1.5848932	0.000075857758	0.27	1.7831079	2.9290733	-0.0060145586	-0.010994308	0.0062644053	-0.00622097	-0.001280102	0	935.5034500466193
1.5848932	0.000083176377	0.27	1.7939325	2.8079263	-0.005894477	-0.011317014	0.0065115805	-0.0060456719	-0.0013091591	0	935.6789786155427
1.5848932	0.000091201084	0.27	1.8079388	2.696439	-0.005772129	-0.01164787	0.0067674145	-0.0058691559	-0.001320704	0	935.8588332026575
1.5848932	0.0001	0.27	1.8250208	2.5938368	-0.0056475024	-0.011986756	0.0070325806	-0.0056911153	-0.0013157365	0	936.0431960751855
1.5848932	0.00010964782	0.27	1.8450612	2.4993327	-0.0055206392	-0.012333451	0.0073078672	-0.0055112542	-0.0012952884	0	936.232227774779
1.5848932	0.00012022644	0.27	1.8679355	2.412146	-0.0053916269	-0.012687657	0.0075941593	-0.0053292886	-0.0012603925	0	936.4260705986103
1.5848932	0.00013182567	0.27	1.8935169	2.3315212	-0.0052605859	-0.013049026	0.0078924092	-0.005144947	-0.0012120518	0	936.6248530049936
1.5848932	0.00014454398	0.27	1.9216805	2.2567453	-0.0051276569	-0.01341719	0.0082036051	-0.0049579701	-0.0011512097	0	936.8286934862731
1.5848932	0.00015848932	0.27	1.9523046	2.1871604	-0.0049929907	-0.013791794	0.0085287422	-0.0047681109	-0.0010787286	0	937.0377028209624
1.5848932	0.00017378008	0.27	1.9852692	2.1221712	-0.0048567449	-0.014172517	0.0088688022	-0.0045751339	-0.00099537792	0	937.2519819738142
1.5848932	0.00019054607	0.27	2.0204497	2.0612439	-0.0047190886	-0.014559075	0.0092247472	-0.0043788158	-0.00090183426	0	937.4716161323998
1.5848932	0.00020892961	0.27	2.0577053	2.0039007	-0.0045802149	-0.014951228	0.0095975172	-0.0041789461	-0.00079869303	0	937.6966623283365
1.5848932	0.00022908677	0.27	2.0968633	1.9497095	-0.004440359	-0.015348783	0.0099880263	-0.0039753295	-0.00068648813	0	937.9271314671589
1.5848932	0.00025118864	0.27	2.1377073	1.8982725	-0.0042998113	-0.015751608	0.010397149	-0.0037677897	-0.00056571416	0	938.162972544562
1.5848932	0.00027542287	0.27	2.1799814	1.8492217	-0.0041589041	-0.016159679	0.010825675	-0.0035561738	-0.000436839	0	938.4040736761646
1.5848932	0.00030199517	0.27	2.2234374	1.8022257	-0.0040179493	-0.016573136	0.011274253	-0.0033403542	-0.00030029394	0	938.6503063754653
1.5848932	0.00033113112	0.27	2.2679308	1.7570094	-0.0038771268	-0.016992297	0.011743378	-0.0031202234	-0.00015643569	0	938.9016271875666
1.5848932	0.00036307805	0.27	2.3135249	1.713369	-0.0037363931	-0.017417529	0.012233518	-0.0028956785	-5.5050841e-6	0	939.1581957070393
1.5848932	0.00039810717	0.27	2.3605111	1.6711548	-0.0035955231	-0.017848934	0.012745436	-0.0026665991	0.00015236594	0	939.4204169899009
1.5848932	0.00043651583	0.27	2.4092967	1.6302099	-0.0034543228	-0.018285935	0.013280597	-0.0024328289	0.00031706882	0	939.6888449569037
1.5848932	0.00047863009	0.27	2.4602227	1.5902854	-0.0033129229	-0.018726901	0.01384155	-0.0021941734	0.00048837817	0	939.9640034439175
1.5848932	0.00052480746	0.27	2.5134159	1.5509629	-0.0031720295	-0.019168853	0.014432217	-0.0019504146	0.00066580627	0	940.24622396718
1.5848932	0.00057543994	0.27	2.5687259	1.5115979	-0.0030330914	-0.019607187	0.015058175	-0.0017013353	0.00084848333	0	940.5355600725208
1.5848932	0.00063095734	0.27	2.6257293	1.471285	-0.0028984049	-0.02003537	0.015726961	-0.0014467466	0.0010350708	0	940.8317662421182
1.5848932	0.00069183097	0.27	2.68375	1.4287988	-0.002771284	-0.020444328	0.016448683	-0.0011865135	0.0012236366	0	941.1342929805728
1.5848932	0.00075857758	0.27	2.7418667	1.3824896	-0.0026563872	-0.020821296	0.017237171	-0.00092057989	0.0014114541	0	941.4422717536752
1.5848932	0.00083176377	0.27	2.7992311	1.3307991	-0.0025587091	-0.021152353	0.018107446	-0.00064898168	0.0015958588	0	941.7548203753312
1.5848932	0.00091201084	0.27	2.8559666	1.2740049	-0.0024795064	-0.021433781	0.019064358	-0.00037179755	0.0017772405	0	942.0719884545914
1.5848932	0.001	0.27	2.9132559	1.2144554	-0.0024150862	-0.021675794	0.02009886	-0.000089036076	0.0019595516	0	942.3949506454521
1.5848932	0.0010964782	0.27	2.9723704	1.154676	-0.0023606084	-0.021892068	0.021198479	0.00019942201	0.0021471717	0	942.7250903545389
1.5848932	0.0012022644	0.27	3.0341615	1.0963619	-0.0023124498	-0.022093075	0.022353983	0.00049380095	0.0023431844	0	943.0634698168535
1.5848932	0.0013182567	0.27	3.0990856	1.0404526	-0.0022682763	-0.022285877	0.02355959	0.00079438822	0.0025494618	0	943.4108152788294
1.5848932	0.0014454398	0.27	3.1673162	0.98740736	-0.0022265799	-0.022475515	0.024811576	0.0011015015	0.0027670964	0	943.7675988908463
1.5848932	0.0015848932	0.27	3.2388114	0.93740039	-0.0021862856	-0.022666297	0.026106992	0.0014154644	0.0029967056	0	944.1340825755362
1.5848932	0.0017378008	0.27	3.3133624	0.8904337	-0.0021464391	-0.02286283	0.027442633	0.0017365877	0.0032386038	0	944.5103499072377
1.5848932	0.0019054607	0.27	3.3907182	0.84641648	-0.0021058744	-0.023070805	0.028814253	0.0020651582	0.0034929244	0	944.8964192826401
1.5848932	0.0020892961	0.27	3.4709069	0.80527766	-0.0020628134	-0.023297176	0.030216384	0.0024014479	0.0037598197	0	945.2925742061916
1.5848932	0.0022908677	0.27	3.5546832	0.76714014	-0.0020145705	-0.023549313	0.031643193	0.0027457643	0.0040398043	0	945.6998582437318
1.5848932	0.0025118864	0.27	3.6435565	0.73238962	-0.0019580009	-0.023832934	0.033090545	0.0030985291	0.0043339507	0	946.1201771626373
1.5848932	0.0027542287	0.27	3.7388896	0.7013413	-0.0018912439	-0.024149066	0.034559043	0.0034603155	0.0046433637	0	946.5554321827904
1.5848932	0.0030199517	0.27	3.8408916	0.67375745	-0.0018152145	-0.024492756	0.036055323	0.0038317774	0.0049682961	0	947.0064470399241
1.5848932	0.0033113112	0.27	3.948853	0.64894377	-0.0017324915	-0.02485668	0.037588444	0.0042135375	0.0053081996	0	947.4730968939905
1.5848932	0.0036307805	0.27	4.0620165	0.62621576	-0.0016453013	-0.025235346	0.039165686	0.0046061408	0.0056624644	0	947.9551367063467
1.5848932	0.0039810717	0.27	4.1799428	0.60510571	-0.0015549143	-0.025625825	0.040791822	0.005010073	0.0060307874	0	948.4525836804338
1.5848932	0.0043651583	0.27	4.3024573	0.58532765	-0.0014619286	-0.0260268	0.04247007	0.0054257907	0.0064131428	0	948.9656922129659
1.5848932	0.0047863009	0.27	4.4295345	0.56670206	-0.0013665969	-0.026437736	0.044202923	0.0058537416	0.0068096754	0	949.4948573066124
1.5848932	0.0052480746	0.27	4.5612254	0.54910586	-0.0012690115	-0.026858449	0.045992589	0.0062943752	0.0072206271	0	950.04055237077
1.5848932	0.0057543994	0.27	4.6976193	0.53244621	-0.0011691916	-0.027288907	0.04784118	0.006748148	0.0076462977	0	950.6032951435294
1.5848932	0.0063095734	0.27	4.8388236	0.51664832	-0.001067119	-0.027729176	0.049750781	0.0072155259	0.0080870272	0	951.1836316532938
1.5848932	0.0069183097	0.27	4.9849344	0.50165324	-0.00096273547	-0.028179543	0.051723319	0.0076969857	0.0085431927	0	951.7821054574092
1.5848932	0.0075857758	0.27	5.1359042	0.48743218	-0.00085582229	-0.028641508	0.053759579	0.0081930083	0.0090152268	0	952.399121198485
1.5848932	0.0083176377	0.27	5.2908079	0.47404175	-0.0007452255	-0.029123697	0.055853288	0.0087040394	0.0095036703	0	953.0341717461235
1.5848932	0.0091201084	0.27	5.4451226	0.4616661	-0.00062497191	-0.02966772	0.057965266	0.0092302865	0.010009042	0	953.6829300166667
1.5848932	0.01	0.27	5.5944978	0.45042329	-0.00047781008	-0.030358462	0.06001313	0.0097713882	0.010531179	0	954.3407057280735
1.5848932	0.010964782	0.27	5.7525657	0.44102506	-0.00029371176	-0.031181617	0.062013769	0.010327424	0.011071361	0	955.0212055227485
1.5848932	0.012022644	0.27	5.9245676	0.43356384	-0.000085298387	-0.032067696	0.064039333	0.010899674	0.011631026	0	955.73087393862
1.5848932	0.013182567	0.27	6.1053166	0.42703785	0.00013620351	-0.0329942	0.066115065	0.011489249	0.012209592	0	956.4655666290337
1.5848932	0.014454398	0.27	6.2914205	0.42083565	0.0003662311	-0.033957881	0.068247044	0.012096836	0.012806717	0	957.2225386528801
1.5848932	0.015848932	0.27	6.4583364	0.41299188	0.00058698321	-0.034993178	0.070403749	0.012722246	0.013418896	0	957.977068314182
1.5848932	0.017378008	0.27	6.563367	0.39433319	0.00072366617	-0.036013071	0.072675209	0.013360437	0.014025613	0	958.6817208670095
1.5848932	0.019054607	0.27	6.7277683	0.37775398	0.00085510751	-0.036834936	0.07524715	0.014011327	0.014648536	0	959.457675390009
1.5848932	0.020892961	0.27	6.9359745	0.36767149	0.0010432537	-0.037730781	0.077850763	0.01468085	0.015301052	0	960.2949424619621
1.5848932	0.022908677	0.27	7.1598099	0.35930831	0.0012455222	-0.038647477	0.080542476	0.015371648	0.015977743	0	961.1678278080337
1.5848932	0.025118864	0.27	7.3936485	0.35138641	0.0014549569	-0.039580503	0.083330213	0.016084892	0.016677624	0	962.0718058895716
1.5848932	0.027542287	0.27	7.6368841	0.34370302	0.001673816	-0.040540648	0.086206689	0.016821519	0.01740129	0	963.0071503549847
1.5848932	0.030199517	0.27	7.8897604	0.33618639	0.0019036833	-0.041532988	0.089170447	0.017582459	0.018149551	0	963.9749796722606
1.5848932	0.033113112	0.27	8.152739	0.32879527	0.0021459854	-0.042561138	0.092221601	0.018368679	0.018923303	0	964.9766631451498
1.5848932	0.036307805	0.27	8.4263858	0.32150185	0.0024024616	-0.043629385	0.095359708	0.019181195	0.019723516	0	966.0137225782532
1.5848932	0.039810717	0.27	8.7113576	0.31428575	0.0026753828	-0.044743527	0.098582936	0.020021087	0.020551235	0	967.0878268839201
1.5848932	0.043651583	0.27	9.0084168	0.30713128	0.0029677335	-0.045911453	0.10188748	0.020889498	0.021407579	0	968.2008149324752
1.5848932	0.047863009	0.27	9.3184634	0.30002572	0.0032834367	-0.047143816	0.10526692	0.021787659	0.022293753	0	969.3547439962084
1.5848932	0.052480746	0.27	9.6425836	0.29295832	0.0036276982	-0.048455055	0.10871114	0.022716893	0.023211066	0	970.5519390107872
1.5848932	0.057543994	0.27	9.9821293	0.28591947	0.0040075204	-0.049864912	0.11220489	0.023678643	0.024160942	0	971.7951105282897
1.5848932	0.063095734	0.27	10.33885	0.2788998	0.0044324852	-0.051400699	0.11572549	0.024674503	0.025144961	0	973.087507847566
1.5848932	0.069183097	0.27	10.136583	0.27123648	0.0038693401	-0.051520961	0.12081915	0.025701923	0.026159455	0	973.8505693635677
1.5848932	0.075857758	0.27	9.412607	0.26347424	0.0023821812	-0.050674134	0.12704236	0.026665574	0.027110012	0	974.0320067612624
1.5848932	0.083176377	0.27	8.7523326	0.256395	0.0010258762	-0.050542403	0.13271799	0.027544433	0.027976929	0	974.1974784068341
1.5848932	0.091201084	0.27	8.1501553	0.24993865	-0.00021108862	-0.051082814	0.13789422	0.028345962	0.028767568	0	974.3483888377334
1.5848932	0.1	0.27	8.2415389	0.23878385	-0.00055478573	-0.052526071	0.14234575	0.029106915	0.029509705	0	975.1547388447534
1.5848932	0.10964782	0.27	9.525214	0.22053445	0.00060037082	-0.054606465	0.14634383	0.02997531	0.030347316	0	977.2543274202815
1.5848932	0.12022644	0.27	11.132868	0.20340576	0.0022153241	-0.056778963	0.15043923	0.03098496	0.031328072	0	979.8106134663237
1.5848932	0.13182567	0.27	13.126891	0.18736142	0.0044037043	-0.059095824	0.1545856	0.032170577	0.032486625	0	982.9186017815452
1.5848932	0.14454398	0.27	15.584699	0.17236985	0.0073036129	-0.061615654	0.15873042	0.033573689	0.033864449	0	986.6947243188486
1.5848932	0.15848932	0.27	18.604352	0.15840428	0.011084562	-0.064400549	0.16281788	0.035244371	0.035511573	0	991.2840907454103
1.5848932	0.17378008	0.27	22.310549	0.14544271	0.015955265	-0.067512701	0.16679227	0.03724357	0.037488908	0	996.8686682798259
1.5848932	0.19054607	0.27	26.859655	0.13346726	0.022170768	-0.071010409	0.17060196	0.039645978	0.039871116	0	1003.6749917653719
1.5848932	0.20892961	0.27	32.441629	0.12246308	0.030036453	-0.074943273	0.17420426	0.042543265	0.04274984	0	1011.9791578356691
1.5848932	0.22908677	0.27	39.276075	0.11241618	0.039905449	-0.079346512	0.17757103	0.046047239	0.046236867	0	1022.105815633581
1.5848932	0.25118864	0.27	47.599488	0.10331041	0.052165747	-0.084234766	0.18069497	0.050292209	0.050466476	0	1034.4176561755146
1.5848932	0.27542287	0.27	57.642048	0.095123518	0.0672146	-0.089596524	0.18359513	0.055435589	0.055596047	0	1049.2927572698313
1.5848932	0.30199517	0.27	69.595549	0.08782296	0.085421438	-0.095391125	0.18631997	0.061655762	0.061803905	0	1067.090516004734
1.5848932	0.33113112	0.27	83.578818	0.081362728	0.10708605	-0.10155046	0.18894563	0.069146604	0.06928385	0	1088.1119191334858
1.5848932	0.36307805	0.27	99.610783	0.075682324	0.13240334	-0.10798639	0.19156852	0.078108901	0.078236565	0	1112.56454924482
1.5848932	0.39810717	0.27	117.60083	0.070708667	0.16144585	-0.11460275	0.19429336	0.088739921	0.088859195	0	1140.543129934888
1.5848932	0.43651583	0.27	137.36022	0.066360552	0.19416916	-0.1213085	0.19721998	0.10122306	0.101335	0	1172.031250849243
1.5848932	0.47863009	0.27	158.63027	0.062554349	0.23043639	-0.12802848	0.20043263	0.11571953	0.11582504	0	1206.9216770455764
1.5848932	0.52480746	0.27	181.11762	0.059209382	0.27005218	-0.13470917	0.20399418	0.13236315	0.13246303	0	1245.046804064972
1.5848932	0.57543994	0.27	204.52695	0.056251889	0.31279598	-0.14131952	0.20794535	0.1512587	0.15135359	0	1286.209740726771
1.5848932	0.63095734	0.27	228.58535	0.053617202	0.35844831	-0.14784815	0.21230746	0.17248292	0.17257337	0	1330.2096797419365
1.5848932	0.69183097	0.27	253.05681	0.051250399	0.40680796	-0.15429885	0.21708701	0.19608753	0.19617398	0	1376.859220103584
1.5848932	0.75857758	0.27	277.74822	0.049105878	0.45770103	-0.16068582	0.22228035	0.2221032	0.22218604	0	1425.9940454556959
1.5848932	0.83176377	0.27	302.50945	0.047146365	0.51098422	-0.16702965	0.22787785	0.2505438	0.25062332	0	1477.4770731197514
1.5848932	0.91201084	0.27	327.2299	0.045341687	0.56654432	-0.17335415	0.23386692	0.28141043	0.28148691	0	1531.1987410379816
1.5848932	1.	0.27	351.8334	0.043667551	0.62429587	-0.17968425	0.24023425	0.31469511	0.31476877	0	1587.0753774395785
1.5848932	1.0964782	0.27	376.27267	0.042104443	0.68417797	-0.18604457	0.24696719	0.35038385	0.35045488	0	1645.0465537092732
1.5848932	1.2022644	0.27	400.52398	0.040636673	0.74615095	-0.19245867	0.25405452	0.38845922	0.38852777	0	1705.0721509703608
1.5848932	1.3182567	0.27	424.5824	0.039251601	0.8101933	-0.19894859	0.26148693	0.4289024	0.42896861	0	1767.129597386741
1.5848932	1.4454398	0.27	448.45775	0.037938998	0.87629887	-0.20553479	0.26925709	0.47169487	0.47175887	0	1831.2112551377288
1.5848932	1.5848932	0.27	472.17115	0.036690551	0.94447463	-0.2122361	0.27735969	0.51681964	0.51688153	0	1897.3223259389708
1.5848932	1.7378008	0.27	495.75234	0.035499456	1.0147387	-0.21906987	0.28579133	0.56426222	0.56432211	0	1965.4789721936172
1.5848932	1.9054607	0.27	519.23741	0.034360112	1.0871185	-0.22605213	0.29455039	0.61401139	0.61406935	0	2035.706545817681
1.5848932	2.0892961	0.27	542.66705	0.033267868	1.1616502	-0.23319773	0.30363684	0.66605968	0.6661158	0	2108.0390232793934
1.5848932	2.2908677	0.27	566.08517	0.032218838	1.2383766	-0.24052053	0.31305214	0.72040379	0.72045813	0	2182.5169883523945
1.5848932	2.5118864	0.27	589.53781	0.031209742	1.3173471	-0.24803355	0.32279903	0.77704483	0.77709747	0	2259.1875506554197
1.5848932	2.7542287	0.27	613.07234	0.030237792	1.3986168	-0.25574912	0.33288146	0.8359885	0.83603951	0	2338.103482285701
1.5848932	3.0199517	0.27	636.73682	0.029300591	1.482246	-0.26367902	0.34330442	0.89724518	0.89729461	0	2419.3227049102384
1.5848932	3.3113112	0.27	660.57952	0.028396067	1.5682993	-0.27183458	0.35407387	0.96082998	0.96087788	0	2502.9074263992043
1.5848932	3.6307805	0.27	684.64858	0.027522405	1.6568461	-0.28022681	0.36519667	1.0267627	1.0268092	0	2588.9245928508285
1.5848932	3.9810717	0.27	708.99179	0.026678007	1.7479597	-0.28886645	0.37668045	1.095068	1.095113	0	2677.4450100038453
1.5848932	4.3651583	0.27	733.65638	0.025861448	1.8417174	-0.29776407	0.38853362	1.1657749	1.1658185	0	2768.543439730848
1.5848932	4.7863009	0.27	758.68897	0.025071453	1.9381999	-0.30693015	0.40076525	1.2389172	1.2389595	0	2862.2980058571684
1.5848932	5.2480746	0.27	784.13549	0.024306863	2.037492	-0.31637512	0.41338509	1.3145334	1.3145744	0	2958.79085693027
1.5848932	5.7543994	0.27	810.04115	0.023566626	2.1396818	-0.32610942	0.42640351	1.3926662	1.3927059	0	3058.1073993465116
1.5848932	6.3095734	0.27	836.45046	0.022849772	2.2448608	-0.33614352	0.43983146	1.4733628	1.4734013	0	3160.336381160376
1.5848932	6.9183097	0.27	863.40729	0.022155406	2.3531243	-0.34648803	0.45368046	1.5566747	1.556712	0	3265.5702653737812
1.5848932	7.5857758	0.27	890.95488	0.021482695	2.4645706	-0.35715366	0.46796262	1.6426577	1.6426939	0	3373.904483357458
1.5848932	8.3176377	0.27	919.13593	0.020830861	2.5793019	-0.36815128	0.48269055	1.7313718	1.731407	0	3485.438257628324
1.5848932	9.1201084	0.27	947.99266	0.020199172	2.6974237	-0.37949199	0.49787744	1.8228813	1.8229153	0	3600.2740584048847
1.5848932	10.	0.27	977.5669	0.019586935	2.8190452	-0.39118706	0.513537	1.9172543	1.9172873	0	3718.5179642124167