1.3182567	1.e-12	0.51	232396.27	711958.73	-0.029620251	-0.0013174993	-0.0013174919	-247.37473	751.53864	0	911.1038749356428
1.3182567	1.0964782e-12	0.51	211948.03	649316.06	-0.029491026	-0.0013174993	-0.0013174912	-225.6111	685.41151	0	911.2252906034214
1.3182567	1.2022644e-12	0.51	193299.02	592185.26	-0.0293618	-0.0013174993	-0.0013174904	-205.76242	625.10285	0	911.3467072586832
1.3182567	1.3182567e-12	0.51	176290.91	540081.34	-0.029232575	-0.0013174993	-0.0013174896	-187.66019	570.1007	0	911.4681229743796
1.3182567	1.4454398e-12	0.51	160779.34	492562.	-0.029103349	-0.0013174993	-0.0013174886	-171.15075	519.93814	0	911.5895397254769
1.3182567	1.5848932e-12	0.51	146632.62	449223.83	-0.028974123	-0.0013174993	-0.0013174876	-156.09395	474.18934	0	911.7109564765744
1.3182567	1.7378008e-12	0.51	133730.65	409698.95	-0.028844898	-0.0013174993	-0.0013174865	-142.36198	432.46595	0	911.8323723360243
1.3182567	1.9054607e-12	0.51	121963.92	373651.82	-0.028715672	-0.0013174993	-0.0013174853	-129.83826	394.41375	0	911.9537891829575
1.3182567	2.0892961e-12	0.51	111232.53	340776.43	-0.028586446	-0.0013174993	-0.0013174839	-118.41648	359.70974	0	912.0752061257263
1.3182567	2.2908677e-12	0.51	101445.39	310793.72	-0.028457221	-0.0013174993	-0.0013174824	-107.99968	328.05931	0	912.1966221768474
1.3182567	2.5118864e-12	0.51	92519.413	283449.15	-0.028327995	-0.0013174993	-0.0013174808	-98.49944	299.19377	0	912.3180392154518
1.3182567	2.7542287e-12	0.51	84378.824	258510.6	-0.028198769	-0.0013174993	-0.001317479	-89.835103	272.86809	0	912.439456349892
1.3182567	3.0199517e-12	0.51	76954.518	235766.37	-0.028069544	-0.0013174993	-0.001317477	-81.933122	248.85877	0	912.5608726406024
1.3182567	3.3113112e-12	0.51	70183.47	215023.37	-0.027940318	-0.0013174993	-0.0013174749	-74.726419	226.96202	0	912.6822899187961
1.3182567	3.6307805e-12	0.51	64008.201	196105.52	-0.027811093	-0.0013174993	-0.0013174726	-68.153815	206.99195	0	912.8037063532599
1.3182567	3.9810717e-12	0.51	58376.29	178852.23	-0.027681867	-0.0013174993	-0.0013174699	-62.159519	188.77903	0	912.9251239189605
1.3182567	4.3651583e-12	0.51	53239.925	163117.04	-0.027552641	-0.0013174993	-0.0013174672	-56.692644	172.16864	0	913.046541484661
1.3182567	4.7863009e-12	0.51	48555.505	148766.36	-0.027423416	-0.0013174993	-0.001317464	-51.706784	157.01979	0	913.1679583503853
1.3182567	5.2480746e-12	0.51	44283.262	135678.38	-0.02729419	-0.0013174993	-0.0013174606	-47.159613	143.20387	0	913.2893762515108
1.3182567	5.7543994e-12	0.51	40386.931	123741.99	-0.027164964	-0.0013174993	-0.0013174569	-43.012533	130.60361	0	913.4107942963897
1.3182567	6.3095734e-12	0.51	36833.435	112855.87	-0.027035739	-0.0013174993	-0.0013174528	-39.23034	119.11203	0	913.5322115933747
1.3182567	6.9183097e-12	0.51	33592.608	102927.59	-0.026906513	-0.0013174993	-0.0013174483	-35.780928	108.63159	0	913.6536300215962
1.3182567	7.5857758e-12	0.51	30636.939	93872.895	-0.026777288	-0.0013174993	-0.0013174434	-32.635015	99.073309	0	913.7750477019238
1.3182567	8.3176377e-12	0.51	27941.336	85614.904	-0.026648062	-0.0013174993	-0.001317438	-29.765897	90.356056	0	913.8964665614058
1.3182567	9.1201084e-12	0.51	25482.917	78083.517	-0.026518836	-0.0013174993	-0.0013174321	-27.149219	82.405826	0	914.0178856604771
1.3182567	1.e-11	0.51	23240.813	71214.804	-0.026389611	-0.0013174993	-0.0013174256	-24.762768	75.15513	0	914.13930410749
1.3182567	1.0964782e-11	0.51	21195.989	64950.454	-0.026260385	-0.0013174993	-0.0013174185	-22.586288	68.542417	0	914.2607237815752
1.3182567	1.2022644e-11	0.51	19331.088	59237.291	-0.026131159	-0.0013174993	-0.0013174107	-20.601304	62.511551	0	914.3821437910854
1.3182567	1.3182567e-11	0.51	17630.278	54026.817	-0.026001934	-0.0013174993	-0.0013174022	-18.790965	57.011336	0	914.5035631964549
1.3182567	1.4454398e-11	0.51	16079.12	49274.799	-0.025872708	-0.0013174993	-0.0013173928	-17.139905	51.99508	0	914.6249839726502
1.3182567	1.5848932e-11	0.51	14664.448	44940.9	-0.025743483	-0.0013174993	-0.0013173826	-15.634109	47.4202	0	914.746404192623
1.3182567	1.7378008e-11	0.51	13374.252	40988.328	-0.025614257	-0.0013174993	-0.0013173713	-14.260795	43.24786	0	914.8678258792572
1.3182567	1.9054607e-11	0.51	12197.578	37383.532	-0.025485031	-0.0013174993	-0.0013173589	-13.008307	39.442641	0	914.9892480929875
1.3182567	2.0892961e-11	0.51	11124.44	34095.911	-0.025355806	-0.0013174993	-0.0013173454	-11.866013	35.97224	0	915.1106698942488
1.3182567	2.2908677e-11	0.51	10145.726	31097.557	-0.02522658	-0.0013174993	-0.0013173306	-10.824217	32.807197	0	915.2320932580071
1.3182567	2.5118864e-11	0.51	9253.1278	28363.017	-0.025097355	-0.0013174993	-0.0013173143	-9.874076	29.920643	0	915.3535164009677
1.3182567	2.7542287e-11	0.51	8439.0688	25869.079	-0.024968129	-0.0013174993	-0.0013172964	-9.0075259	27.288074	0	915.4749412501787
1.3182567	3.0199517e-11	0.51	7696.6382	23594.573	-0.024838903	-0.0013174993	-0.0013172768	-8.2172115	24.887143	0	915.596366913993
1.3182567	3.3113112e-11	0.51	7019.5335	21520.19	-0.024709678	-0.0013174993	-0.0013172554	-7.4964249	22.697468	0	915.7177925007632
1.3182567	3.6307805e-11	0.51	6402.0066	19628.322	-0.024580452	-0.0013174992	-0.0013172318	-6.8390483	20.700461	0	915.8392200812907
1.3182567	3.9810717e-11	0.51	5838.8154	17902.911	-0.024451227	-0.0013174993	-0.001317206	-6.2395023	18.879168	0	915.9606477764453
1.3182567	4.3651583e-11	0.51	5325.179	16329.308	-0.024322001	-0.0013174992	-0.0013171777	-5.6926985	17.21813	0	916.082077609111
1.3182567	4.7863009e-11	0.51	4856.737	14894.158	-0.024192776	-0.0013174993	-0.0013171467	-5.1939962	15.703245	0	916.203507795993
1.3182567	5.2480746e-11	0.51	4429.5128	13585.277	-0.02406355	-0.0013174992	-0.0013171127	-4.7391628	14.321653	0	916.3249403599752
1.3182567	5.7543994e-11	0.51	4039.8797	12391.555	-0.023934325	-0.0013174993	-0.0013170754	-4.3243385	13.061627	0	916.4463735656807
1.3182567	6.3095734e-11	0.51	3684.53	11302.859	-0.023805099	-0.0013174992	-0.0013170345	-3.9460029	11.912469	0	916.5678094359935
1.3182567	6.9183097e-11	0.51	3360.4474	10309.95	-0.023675874	-0.0013174992	-0.0013169897	-3.6009453	10.864425	0	916.6892462355363
1.3182567	7.5857758e-11	0.51	3064.8804	9404.3968	-0.023546648	-0.0013174992	-0.0013169405	-3.2862377	9.9085969	0	916.8106860830292
1.3182567	8.3176377e-11	0.51	2795.3202	8578.5147	-0.023417423	-0.0013174992	-0.0013168866	-2.9992096	9.0368716	0	916.9321272430948
1.3182567	9.1201084e-11	0.51	2549.4783	7825.2932	-0.023288197	-0.0013174992	-0.0013168275	-2.7374255	8.2418487	0	917.0535718344532
1.3182567	1.e-10	0.51	2325.2679	7138.3389	-0.023158972	-0.0013174992	-0.0013167627	-2.4986641	7.5167791	0	917.1750182175626
1.3182567	1.0964782e-10	0.51	2120.7856	6511.8212	-0.023029746	-0.0013174992	-0.0013166916	-2.2808998	6.8555079	0	917.2964685590609
1.3182567	1.2022644e-10	0.51	1934.2954	5940.422	-0.022900521	-0.0013174992	-0.0013166137	-2.0822851	6.2524214	0	917.4179212194065
1.3182567	1.3182567e-10	0.51	1764.2144	5419.2916	-0.022771296	-0.0013174992	-0.0013165282	-1.9011348	5.7023999	0	917.5393775215073
1.3182567	1.4454398e-10	0.51	1609.0987	4944.0071	-0.02264207	-0.0013174992	-0.0013164345	-1.7359125	5.2007744	0	917.6608386924358
1.3182567	1.5848932e-10	0.51	1467.6315	4510.5343	-0.022512845	-0.0013174991	-0.0013163318	-1.5852166	4.7432865	0	917.7823032364039
1.3182567	1.7378008e-10	0.51	1338.6119	4115.1943	-0.02238362	-0.0013174991	-0.0013162191	-1.4477689	4.3260526	0	917.903772572155
1.3182567	1.9054607e-10	0.51	1220.9446	3754.6318	-0.022254394	-0.0013174991	-0.0013160957	-1.3224037	3.9455308	0	918.02524797468
1.3182567	2.0892961e-10	0.51	1113.6308	3425.7869	-0.022125169	-0.0013174991	-0.0013159602	-1.208058	3.5984908	0	918.1467282356973
1.3182567	2.2908677e-10	0.51	1015.7594	3125.8686	-0.021995944	-0.0013174991	-0.0013158118	-1.103762	3.2819866	0	918.2682146781149
1.3182567	2.5118864e-10	0.51	926.49965	2852.3318	-0.021866719	-0.001317499	-0.0013156489	-1.0086316	2.9933313	0	918.3897080686185
1.3182567	2.7542287e-10	0.51	845.09379	2602.8552	-0.021737494	-0.001317499	-0.0013154705	-0.92186024	2.7300746	0	918.5112088863859
1.3182567	3.0199517e-10	0.51	770.85078	2375.3217	-0.021608269	-0.001317499	-0.0013152747	-0.84271244	2.4899816	0	918.6327180418565
1.3182567	3.3113112e-10	0.51	703.14036	2167.8006	-0.021479044	-0.001317499	-0.0013150601	-0.77051742	2.2710143	0	918.7542362058796
1.3182567	3.6307805e-10	0.51	641.38772	1978.5311	-0.021349819	-0.0013174989	-0.0013148247	-0.7046634	2.0713137	0	918.8757643368119
1.3182567	3.9810717e-10	0.51	585.06867	1805.9071	-0.021220594	-0.0013174989	-0.0013145667	-0.64459243	1.8891847	0	918.9973032971743
1.3182567	4.3651583e-10	0.51	533.70509	1648.4641	-0.021091369	-0.0013174989	-0.0013142838	-0.58979568	1.7230811	0	919.1188541890773
1.3182567	4.7863009e-10	0.51	486.86096	1504.8662	-0.020962145	-0.0013174988	-0.0013139735	-0.53980906	1.5715928	0	919.2404172709009
1.3182567	5.2480746e-10	0.51	444.13862	1373.8953	-0.02083292	-0.0013174988	-0.0013136334	-0.49420935	1.4334339	0	919.3619955718041
1.3182567	5.7543994e-10	0.51	405.1754	1254.4404	-0.020703696	-0.0013174988	-0.0013132604	-0.45261052	1.3074315	0	919.4835886981091
1.3182567	6.3095734e-10	0.51	369.64053	1145.4881	-0.020574471	-0.0013174987	-0.0013128514	-0.41466055	1.1925161	0	919.6052000143993
1.3182567	6.9183097e-10	0.51	337.23237	1046.1144	-0.020445247	-0.0013174986	-0.001312403	-0.38003838	1.087712	0	919.7268292707502
1.3182567	7.5857758e-10	0.51	307.67579	955.47642	-0.020316023	-0.0013174986	-0.0013119114	-0.34845119	0.99212957	0	919.8484792276049
1.3182567	8.3176377e-10	0.51	280.71989	872.80552	-0.020186799	-0.0013174985	-0.0013113723	-0.31963194	0.90495745	0	919.9701519454302
1.3182567	9.1201084e-10	0.51	256.13585	797.40069	-0.020057575	-0.0013174985	-0.0013107811	-0.29333707	0.82545561	0	920.0918496284463
1.3182567	1.e-9	0.51	233.71496	728.62261	-0.019928352	-0.0013174984	-0.001310133	-0.26934447	0.75294916	0	920.2135736371441
1.3182567	1.0964782e-9	0.51	213.26689	665.8882	-0.019799128	-0.0013174983	-0.0013094223	-0.24745156	0.68682258	0	920.3353285819705
1.3182567	1.2022644e-9	0.51	194.61806	608.66567	-0.019669905	-0.0013174982	-0.0013086431	-0.22747358	0.62651452	0	920.4571154109472
1.3182567	1.3182567e-9	0.51	177.61016	556.47006	-0.019540682	-0.0013174981	-0.0013077886	-0.20924205	0.57151302	0	920.5789383220518
1.3182567	1.4454398e-9	0.51	162.09881	508.85905	-0.019411459	-0.0013174979	-0.0013068517	-0.19260328	0.52135119	0	920.7008007174509
1.3182567	1.5848932e-9	0.51	147.95233	465.42925	-0.019282237	-0.0013174978	-0.0013058246	-0.17741712	0.47560318	0	920.8227053951698
1.3182567	1.7378008e-9	0.51	135.05064	425.81277	-0.019153015	-0.0013174977	-0.0013046982	-0.16355577	0.43388065	0	920.9446576552969
1.3182567	1.9054607e-9	0.51	123.2842	389.67409	-0.019023793	-0.0013174975	-0.0013034632	-0.15090264	0.39582941	0	921.0666619541901
1.3182567	2.0892961e-9	0.51	112.55314	356.70719	-0.018894572	-0.0013174974	-0.001302109	-0.13935142	0.36112645	0	921.1887224315749
1.3182567	2.2908677e-9	0.51	102.76635	326.63301	-0.018765351	-0.0013174972	-0.0013006243	-0.12880515	0.32947716	0	921.3108454417317
1.3182567	2.5118864e-9	0.51	93.840757	299.19704	-0.01863613	-0.001317497	-0.0012989962	-0.11917539	0.30061287	0	921.4330371660607
1.3182567	2.7542287e-9	0.51	85.700593	274.16713	-0.01850691	-0.0013174968	-0.0012972112	-0.11038151	0.27428857	0	921.5553031339041
1.3182567	3.0199517e-9	0.51	78.276753	251.33161	-0.018377691	-0.0013174965	-0.0012952539	-0.10234993	0.25028077	0	921.6776507246079
1.3182567	3.3113112e-9	0.51	71.506216	230.49739	-0.018248472	-0.0013174962	-0.0012931079	-0.095013591	0.22838567	0	921.8000887362625
1.3182567	3.6307805e-9	0.51	65.331508	211.4884	-0.018119254	-0.0013174959	-0.0012907548	-0.088311295	0.20841741	0	921.9226250461836
1.3182567	3.9810717e-9	0.51	59.70021	194.14405	-0.017990036	-0.0013174956	-0.0012881747	-0.082187248	0.19020648	0	922.0452701295853
1.3182567	4.3651583e-9	0.51	54.564518	178.31789	-0.01786082	-0.0013174952	-0.0012853458	-0.07659056	0.17359827	0	922.1680325534245
1.3182567	4.7863009e-9	0.51	49.880837	163.87634	-0.017731604	-0.0013174949	-0.0012822441	-0.071474817	0.15845181	0	922.2909256971116
1.3182567	5.2480746e-9	0.51	45.609404	150.69761	-0.01760239	-0.0013174944	-0.0012788433	-0.066797689	0.14463852	0	922.4139602839061
1.3182567	5.7543994e-9	0.51	41.713961	138.67058	-0.017473176	-0.0013174939	-0.0012751144	-0.062520567	0.13204113	0	922.5371520891101
1.3182567	6.3095734e-9	0.51	38.161437	127.69395	-0.017343964	-0.0013174934	-0.0012710261	-0.058608242	0.1205527	0	922.6605142318746
1.3182567	6.9183097e-9	0.51	34.921677	117.67532	-0.017214753	-0.0013174928	-0.0012665436	-0.055028597	0.11007571	0	922.7840643271711
1.3182567	7.5857758e-9	0.51	31.967177	108.53042	-0.017085544	-0.0013174922	-0.001261629	-0.051752342	0.10052122	0	922.9078195962925
1.3182567	8.3176377e-9	0.51	29.272856	100.1824	-0.016956336	-0.0013174914	-0.0012562408	-0.048752762	0.091808111	0	923.0318008647048
1.3182567	9.1201084e-9	0.51	26.815842	92.561177	-0.016827131	-0.0013174906	-0.0012503333	-0.04600549	0.083862428	0	923.1560281517272
1.3182567	1.e-8	0.51	24.575278	85.602832	-0.016697927	-0.0013174897	-0.0012438567	-0.043488302	0.076616714	0	923.280527199571
1.3182567	1.0964782e-8	0.51	22.532142	79.249079	-0.016568727	-0.0013174887	-0.0012367564	-0.041180926	0.070009459	0	923.4053213526768
1.3182567	1.2022644e-8	0.51	20.669091	73.44676	-0.016439529	-0.0013174876	-0.0012289725	-0.039064872	0.063984572	0	923.5304411929574
1.3182567	1.3182567e-8	0.51	18.970308	68.1474	-0.016310335	-0.0013174864	-0.0012204396	-0.037123274	0.058490905	0	923.6559161795445
1.3182567	1.4454398e-8	0.51	17.421371	63.306793	-0.016181146	-0.001317485	-0.0012110859	-0.035340747	0.05348182	0	923.7817797778771
1.3182567	1.5848932e-8	0.51	16.009132	58.884625	-0.01605196	-0.0013174833	-0.0012008331	-0.033703256	0.048914791	0	923.9080713867486
1.3182567	1.7378008e-8	0.51	14.721601	54.844135	-0.015922781	-0.0013174815	-0.0011895956	-0.032197997	0.044751041	0	924.0348282655627
1.3182567	1.9054607e-8	0.51	13.547846	51.1518	-0.015793609	-0.0013174794	-0.0011772796	-0.030813291	0.04095522	0	924.1620953612467
1.3182567	2.0892961e-8	0.51	12.477902	47.777053	-0.015664445	-0.001317477	-0.001163783	-0.029538478	0.037495094	0	924.2899206583426
1.3182567	2.2908677e-8	0.51	11.502684	44.692018	-0.01553529	-0.0013174741	-0.0011489942	-0.028363837	0.034341279	0	924.4183566935862
1.3182567	2.5118864e-8	0.51	10.613912	41.871278	-0.015406149	-0.0013174708	-0.0011327918	-0.027280492	0.031466987	0	924.5474569414002
1.3182567	2.7542287e-8	0.51	9.8040362	39.291657	-0.015277022	-0.001317467	-0.0011150434	-0.026280345	0.028847797	0	924.6772848449954
1.3182567	3.0199517e-8	0.51	9.0661777	36.93202	-0.015147915	-0.0013174623	-0.0010956054	-0.025356006	0.026461448	0	924.8079035769872
1.3182567	3.3113112e-8	0.51	8.3940667	34.773094	-0.015018832	-0.0013174568	-0.0010743217	-0.024500725	0.024287649	0	924.9393841788516
1.3182567	3.6307805e-8	0.51	7.7819898	32.797303	-0.014889778	-0.0013174501	-0.0010510237	-0.023708343	0.022307898	0	925.0718027422279
1.3182567	3.9810717e-8	0.51	7.2247408	30.988616	-0.014760763	-0.001317442	-0.0010255289	-0.022973233	0.02050533	0	925.2052373215074
1.3182567	4.3651583e-8	0.51	6.7175759	29.332408	-0.014631797	-0.001317432	-0.00099764137	-0.022290258	0.018864564	0	925.3397724064471
1.3182567	4.7863009e-8	0.51	6.2561724	27.815331	-0.014502893	-0.0013174197	-0.00096715065	-0.021654722	0.017371567	0	925.4754966305677
1.3182567	5.2480746e-8	0.51	5.8365906	26.4252	-0.01437407	-0.0013174043	-0.00093383208	-0.021062335	0.016013529	0	925.6124997943314
1.3182567	5.7543994e-8	0.51	5.455239	25.150875	-0.014245349	-0.0013173852	-0.00089744725	-0.020509178	0.014778747	0	925.7508764077709
1.3182567	6.3095734e-8	0.51	5.108842	23.982169	-0.014116763	-0.001317361	-0.00085774449	-0.019991665	0.013656507	0	925.8907160600396
1.3182567	6.9183097e-8	0.51	4.7944096	22.909742	-0.013988348	-0.0013173305	-0.0008144605	-0.019506518	0.012636985	0	926.0321110944387
1.3182567	7.5857758e-8	0.51	4.5092088	21.925015	-0.013860156	-0.0013172918	-0.00076732205	-0.01905074	0.011711142	0	926.1751435794652
1.3182567	8.3176377e-8	0.51	4.2507371	21.020079	-0.013732253	-0.0013172425	-0.00071604878	-0.01862159	0.010870623	0	926.3198858462415
1.3182567	9.1201084e-8	0.51	4.0166967	20.187614	-0.013604722	-0.0013171795	-0.00066035726	-0.018216562	0.01010766	0	926.4663957243578
1.3182567	1.e-7	0.51	3.8049704	19.420799	-0.013477671	-0.0013170989	-0.00059996528	-0.017833367	0.009414977	0	926.6147069696717
1.3182567	1.0964782e-7	0.51	3.6135978	18.713239	-0.013351237	-0.0013169958	-0.00053459747	-0.017469913	0.0087856888	0	926.7648228130672
1.3182567	1.2022644e-7	0.51	3.4407536	18.058882	-0.013225591	-0.0013168639	-0.00046399184	-0.017124296	0.0082132105	0	926.9167081287993
1.3182567	1.3182567e-7	0.51	3.2847263	17.451953	-0.013100947	-0.0013166954	-0.00038790669	-0.016794785	0.0076911694	0	927.0702776672854
1.3182567	1.4454398e-7	0.51	3.1439005	16.886888	-0.012977564	-0.0013164805	-0.00030612799	-0.016479811	0.00721333	0	927.2253906396373
1.3182567	1.5848932e-7	0.51	3.0167418	16.358299	-0.012855753	-0.0013162076	-0.00021847636	-0.01617796	0.0067735433	0	927.3818407960398
1.3182567	1.7378008e-7	0.51	2.9017873	15.860948	-0.012735874	-0.001315863	-0.00012481343	-0.015887964	0.0063657323	0	927.5393561968724
1.3182567	1.9054607e-7	0.51	2.7976421	15.389779	-0.012618331	-0.0013154305	-0.000025046338	-0.015608696	0.005983926	0	927.6976017551913
1.3182567	2.0892961e-7	0.51	2.7029842	14.939969	-0.01250356	-0.0013148921	0.000080869342	-0.015339162	0.0056223552	0	927.8561891084805
1.3182567	2.2908677e-7	0.51	2.6165771	14.507043	-0.012392006	-0.0013142284	0.00019292932	-0.015078492	0.005275608	0	928.0146980944842
1.3182567	2.5118864e-7	0.51	2.5372886	14.087005	-0.012284096	-0.0013134187	0.00031108352	-0.014825935	0.0049388304	0	928.1727035234637
1.3182567	2.7542287e-7	0.51	2.4641116	13.676483	-0.012180208	-0.0013124423	0.00043524067	-0.014580844	0.0046079392	0	928.329806504153
1.3182567	3.0199517e-7	0.51	2.3961823	13.272847	-0.012080643	-0.0013112785	0.0005652763	-0.014342662	0.0042798006	0	928.4856645840546
1.3182567	3.3113112e-7	0.51	2.3327907	12.874273	-0.011985602	-0.0013099082	0.00070104117	-0.014110911	0.0039523324	0	928.6400173979596
1.3182567	3.6307805e-7	0.51	2.2733801	12.47973	-0.011895177	-0.0013083133	0.00084237173	-0.013885176	0.0036245042	0	928.7927001362401
1.3182567	3.9810717e-7	0.51	2.2175353	12.088898	-0.011809356	-0.0013064767	0.00098910047	-0.013665086	0.003296236	0	928.9436438065185
1.3182567	4.3651583e-7	0.51	2.1649627	11.702031	-0.011728035	-0.0013043831	0.0011410645	-0.013450309	0.0029682202	0	929.0928680702334
1.3182567	4.7863009e-7	0.51	2.1154659	11.319799	-0.011651035	-0.0013020174	0.0012981145	-0.013240534	0.0026417055	0	929.2404695586744
1.3182567	5.2480746e-7	0.51	2.06892	10.943124	-0.011578129	-0.0012993646	0.0014601209	-0.013035464	0.0023182806	0	929.3865994660397
1.3182567	5.7543994e-7	0.51	2.0252498	10.573041	-0.011509058	-0.0012964099	0.0016269782	-0.012834817	0.0019996835	0	929.5314505864415
1.3182567	6.3095734e-7	0.51	1.9844108	10.210589	-0.011443549	-0.0012931374	0.0017986087	-0.012638311	0.0016876518	0	929.6752421890644
1.3182567	6.9183097e-7	0.51	1.9463757	9.8567351	-0.011381332	-0.0012895306	0.0019749632	-0.012445671	0.0013838169	0	929.8182043809787
1.3182567	7.5857758e-7	0.51	1.9111244	9.5123225	-0.011322142	-0.001285571	0.0021560224	-0.012256623	0.0010896372	0	929.9605768988608
1.3182567	8.3176377e-7	0.51	1.8786378	9.1780495	-0.011265735	-0.0012812391	0.0023417953	-0.012070894	0.00080636391	0	930.1025933092608
1.3182567	9.1201084e-7	0.51	1.8488942	8.8544593	-0.01121188	-0.0012765134	0.0025323185	-0.011888216	0.00053502908	0	930.2444881897018
1.3182567	1.e-6	0.51	1.8218675	8.541944	-0.01116037	-0.0012713704	0.0027276548	-0.01170832	0.00027645074	0	930.3864861226094
1.3182567	1.0964782e-6	0.51	1.7975263	8.2407556	-0.011111019	-0.0012657846	0.0029278914	-0.011530941	0.000031247083	0	930.5288036514899
1.3182567	1.2022644e-6	0.51	1.7758343	7.9510202	-0.01106366	-0.0012597282	0.0031331379	-0.011355819	-0.00020014339	0	930.6716502017009
1.3182567	1.3182567e-6	0.51	1.7567511	7.6727543	-0.011018143	-0.001253171	0.0033435251	-0.011182694	-0.00041743983	0	930.8152293845707
1.3182567	1.4454398e-6	0.51	1.7402326	7.4058811	-0.01097434	-0.0012460804	0.0035592032	-0.011011315	-0.00062049639	0	930.9597334370488
1.3182567	1.5848932e-6	0.51	1.7262321	7.150246	-0.010932137	-0.0012384211	0.0037803402	-0.01084143	-0.00080928071	0	931.1053499715445
1.3182567	1.7378008e-6	0.51	1.7147013	6.9056311	-0.010891434	-0.0012301553	0.0040071209	-0.010672797	-0.00098385414	0	931.2522614967475
1.3182567	1.9054607e-6	0.51	1.7055911	6.671768	-0.010852147	-0.0012212414	0.0042397465	-0.010505175	-0.0011443537	0	931.4006433468271
1.3182567	2.0892961e-6	0.51	1.6988524	6.4483485	-0.010814204	-0.0012116351	0.0044784329	-0.010338329	-0.0012909766	0	931.55066662509
1.3182567	2.2908677e-6	0.51	1.6944364	6.2350351	-0.010777543	-0.0012012894	0.0047234096	-0.01017203	-0.0014239665	0	931.7024995560137
1.3182567	2.5118864e-6	0.51	1.6922957	6.0314688	-0.010742114	-0.0011901525	0.0049749215	-0.010006051	-0.0015436018	0	931.8563064686386
1.3182567	2.7542287e-6	0.51	1.6923846	5.837276	-0.010707877	-0.0011781693	0.0052332259	-0.0098401733	-0.0016501858	0	932.012248238163
1.3182567	3.0199517e-6	0.51	1.694659	5.6520746	-0.010674799	-0.001165281	0.0054985936	-0.009674179	-0.0017440382	0	932.170485631734
1.3182567	3.3113112e-6	0.51	1.6990775	5.4754786	-0.010642859	-0.0011514238	0.0057713091	-0.0095078563	-0.0018254885	0	932.3311747064593
1.3182567	3.6307805e-6	0.51	1.705601	5.3071018	-0.01061204	-0.0011365294	0.0060516701	-0.009340997	-0.0018948702	0	932.4944740863374
1.3182567	3.9810717e-6	0.51	1.714193	5.146561	-0.010582337	-0.0011205239	0.0063399881	-0.0091733965	-0.0019525164	0	932.6605377332448
1.3182567	4.3651583e-6	0.51	1.7248197	4.9934779	-0.01055375	-0.0011033291	0.0066365877	-0.0090048538	-0.0019987568	0	932.8295211884671
1.3182567	4.7863009e-6	0.51	1.73745	4.8474806	-0.010526287	-0.0010848592	0.006941809	-0.0088351709	-0.0020339154	0	933.0015799040308
1.3182567	5.2480746e-6	0.51	1.7520551	4.7082034	-0.010499966	-0.0010650206	0.0072560083	-0.0086641529	-0.0020583102	0	933.176867698998
1.3182567	5.7543994e-6	0.51	1.7686077	4.5752856	-0.010474814	-0.0010437115	0.0075795586	-0.0084916075	-0.002072255	0	933.3555379386207
1.3182567	6.3095734e-6	0.51	1.7870816	4.448367	-0.010450872	-0.0010208145	0.0079128566	-0.0083173451	-0.0020760658	0	933.5377421907629
1.3182567	6.9183097e-6	0.51	1.8074486	4.3270774	-0.010428199	-0.00099619103	0.0082563288	-0.0081411788	-0.0020700747	0	933.7236293906257
1.3182567	7.5857758e-6	0.51	1.8296741	4.2110145	-0.010406895	-0.00096965709	0.0086104559	-0.0079629244	-0.0020546625	0	933.9133359226967
1.3182567	8.3176377e-6	0.51	1.8537062	4.0996919	-0.010387131	-0.00094093424	0.0089758217	-0.0077824023	-0.0020303315	0	934.1069808656091
1.3182567	9.1201084e-6	0.51	1.8794504	3.992419	-0.010369258	-0.00090951035	0.0093532529	-0.0075994394	-0.0019978777	0	934.3046305686494
1.3182567	0.00001	0.51	1.9067105	3.8880113	-0.010354056	-0.00087427449	0.009744184	-0.0074138762	-0.0019588038	0	934.5062395521569
1.3182567	0.000010964782	0.51	1.935058	3.7841513	-0.010343374	-0.00083257478	0.0101516	-0.0072255826	-0.0019162308	0	934.7115009071097
1.3182567	0.000012022644	0.51	1.9636384	3.6764406	-0.010341279	-0.00077842626	0.01058183	-0.0070344897	-0.0018762613	0	934.9196261887885
1.3182567	0.000013182567	0.51	1.9912514	3.5588342	-0.010354397	-0.00070176694	0.011045287	-0.0068406329	-0.0018474123	0	935.1293795211188
1.3182567	0.000014454398	0.51	2.0172375	3.428103	-0.01038824	-0.0005937936	0.011551139	-0.0066441489	-0.0018343506	0	935.3399751268071
1.3182567	0.000015848932	0.51	2.0421821	3.2873037	-0.010442728	-0.00045409064	0.012100175	-0.0064451774	-0.0018329274	0	935.5518662427826
1.3182567	0.000017378008	0.51	2.0672585	3.1423601	-0.010513768	-0.00028870666	0.012686732	-0.0062437636	-0.0018348767	0	935.7661849231486
1.3182567	0.000019054607	0.51	2.0934465	2.9980808	-0.010596862	-0.0001046905	0.013304156	-0.0060398436	-0.0018333876	0	935.9839688802515
1.3182567	0.000020892961	0.51	2.1213658	2.8573469	-0.010688464	0.000092169917	0.013947069	-0.0058332754	-0.0018242762	0	936.2059727917716
1.3182567	0.000022908677	0.51	2.1513731	2.7216371	-0.010785984	0.00029749112	0.014611505	-0.00562387	-0.0018052783	0	936.432729710715
1.3182567	0.000025118864	0.51	2.1836693	2.591602	-0.010887528	0.00050796927	0.015294595	-0.0054114123	-0.0017752662	0	936.6646444112296
1.3182567	0.000027542287	0.51	2.2183705	2.4674413	-0.010991696	0.00072110627	0.015994283	-0.0051956714	-0.001733729	0	936.9020470941623
1.3182567	0.000030199517	0.51	2.2555495	2.349122	-0.011097438	0.00093501104	0.016709139	-0.004976408	-0.0016804734	0	937.145239078121
1.3182567	0.000033113112	0.51	2.2952578	2.2364993	-0.011203976	0.0011482718	0.017438222	-0.0047533762	-0.0016154569	0	937.3945004381403
1.3182567	0.000036307805	0.51	2.3375378	2.1293801	-0.011310735	0.0013598542	0.018180984	-0.0045263264	-0.0015387005	0	937.650108834573
1.3182567	0.000039810717	0.51	2.3824288	2.0275568	-0.011417304	0.001569032	0.018937198	-0.0042950042	-0.0014502416	0	937.9123416552972
1.3182567	0.000043651583	0.51	2.4299703	1.9308216	-0.0115234	0.0017753237	0.019706899	-0.0040591518	-0.0013501135	0	938.1814815685483
1.3182567	0.000047863009	0.51	2.4802032	1.8389729	-0.011628841	0.0019784403	0.020490329	-0.0038185075	-0.0012383374	0	938.4578155363757
1.3182567	0.000052480746	0.51	2.53317	1.7518172	-0.011733524	0.0021782439	0.021287897	-0.0035728054	-0.0011149191	0	938.7416363179466
1.3182567	0.000057543994	0.51	2.5889152	1.6691683	-0.011837411	0.0023747156	0.022100147	-0.0033217753	-0.0009798494	0	939.0332402897554
1.3182567	0.000063095734	0.51	2.6474853	1.590846	-0.011940506	0.002567921	0.022927725	-0.0030651425	-0.00083310669	0	939.3329332427406
1.3182567	0.000069183097	0.51	2.7089284	1.5166753	-0.01204285	0.0027579927	0.023771362	-0.0028026278	-0.00067465719	0	939.6410269340809
1.3182567	0.000075857758	0.51	2.7732946	1.4464847	-0.012144512	0.0029451066	0.024631849	-0.0025339469	-0.0005044572	0	939.9578355638253
1.3182567	0.000083176377	0.51	2.8406356	1.3801057	-0.012245573	0.0031294651	0.025510024	-0.0022588113	-0.00032245457	0	940.2836845786194
1.3182567	0.000091201084	0.51	2.9110052	1.3173728	-0.012346129	0.0033112911	0.026406763	-0.0019769263	-0.000128587	0	940.6189035404055
1.3182567	0.0001	0.51	2.9844591	1.2581225	-0.01244628	0.0034908107	0.027322967	-0.0016879923	0.000077215938	0	940.9638302323226
1.3182567	0.00010964782	0.51	3.0610548	1.2021938	-0.012546127	0.0036682443	0.02825955	-0.0013917045	0.00029503298	0	941.3188077272627
1.3182567	0.00012022644	0.51	3.1408525	1.1494284	-0.012645769	0.0038438057	0.029217442	-0.0010877515	0.00052495341	0	941.6841886441014
1.3182567	0.00013182567	0.51	3.2239141	1.0996701	-0.012745295	0.0040176848	0.030197569	-0.000775817	0.00076707465	0	942.0603330806553
1.3182567	0.00014454398	0.51	3.3103046	1.0527664	-0.012844789	0.0041900546	0.031200866	-0.00045557717	0.0010215063	0	942.4476101451713
1.3182567	0.00015848932	0.51	3.4000912	1.0085676	-0.01294432	0.0043610525	0.032228252	-0.00012670302	0.0012883673	0	942.8463953725247
1.3182567	0.00017378008	0.51	3.4933443	0.96692741	-0.013043943	0.0045307876	0.033280644	0.00021114205	0.0015677891	0	943.2570764931485
1.3182567	0.00019054607	0.51	3.5901369	0.92770364	-0.013143698	0.00469933	0.034358943	0.00055830144	0.0018599156	0	943.6800476641024
1.3182567	0.00020892961	0.51	3.6905453	0.89075787	-0.013243605	0.0048667088	0.035464038	0.0009151258	0.0021649032	0	944.1157160836137
1.3182567	0.00022908677	0.51	3.7946492	0.85595589	-0.013343664	0.0050329088	0.036596796	0.0012819733	0.0024829218	0	944.564497199293
1.3182567	0.00025118864	0.51	3.9025316	0.82316793	-0.013443854	0.0051978699	0.037758068	0.0016592102	0.0028141556	0	945.0268185227703
1.3182567	0.00027542287	0.51	4.0142794	0.7922689	-0.013544133	0.0053614859	0.038948687	0.0020472115	0.0031588041	0	945.5031186713381
1.3182567	0.00030199517	0.51	4.1299835	0.7631383	-0.013644435	0.0055236015	0.040169467	0.0024463606	0.0035170814	0	945.9938497074686
1.3182567	0.00033113112	0.51	4.2497384	0.73566048	-0.013744672	0.0056840121	0.0414212	0.0028570494	0.0038892176	0	946.499473822149
1.3182567	0.00036307805	0.51	4.3736435	0.70972491	-0.013844735	0.0058424696	0.042704666	0.0032796802	0.0042754594	0	947.0204671870986
1.3182567	0.00039810717	0.51	4.5018024	0.68522614	-0.013944493	0.0059986831	0.044020637	0.0037146646	0.0046760708	0	947.5573228110477
1.3182567	0.00043651583	0.51	4.6343238	0.66206413	-0.014043798	0.0061523227	0.045369874	0.004162425	0.0050913337	0	948.1105444043764
1.3182567	0.00047863009	0.51	4.7713216	0.64014436	-0.014142488	0.0063030295	0.046753147	0.0046233952	0.0055215494	0	948.6806531439839
1.3182567	0.00052480746	0.51	4.9129142	0.61937757	-0.01424038	0.0064504052	0.048171218	0.0050980182	0.0059670357	0	949.268186104216
1.3182567	0.00057543994	0.51	5.0592269	0.59968075	-0.014337293	0.00659405	0.049624885	0.0055867522	0.006428134	0	949.8736957307071
1.3182567	0.00063095734	0.51	5.2103951	0.58111034	-0.014430347	0.0067282068	0.051109627	0.0060900245	0.0069053511	0	950.4977216064419
1.3182567	0.00069183097	0.51	5.3665462	0.56332716	-0.014524667	0.0068630209	0.052636861	0.0066083997	0.0073987756	0	951.1409192379783
1.3182567	0.00075857758	0.51	5.5278266	0.54639952	-0.014617442	0.0069928681	0.054202277	0.0071423325	0.0079089581	0	951.8038644849191
1.3182567	0.00083176377	0.51	5.6943851	0.53026788	-0.014708492	0.0071173508	0.055806829	0.0076923325	0.0084363246	0	952.4871836051532
1.3182567	0.00091201084	0.51	5.8663764	0.51487874	-0.014797651	0.0072361021	0.057451547	0.0082589246	0.008981325	0	953.1915261202063
1.3182567	0.001	0.51	6.0439614	0.50018464	-0.01488478	0.0073488035	0.059137549	0.0088426495	0.0095444333	0	953.9175583510339
1.3182567	0.0010964782	0.51	6.2273057	0.4861441	-0.014969774	0.0074552064	0.06086607	0.0094440638	0.010126148	0	954.665970737233
1.3182567	0.0012022644	0.51	6.4165772	0.47272172	-0.015052594	0.0075551751	0.062638504	0.01006374	0.010726992	0	955.4374678964425
1.3182567	0.0013182567	0.51	6.6119407	0.45988841	-0.015133319	0.0076487908	0.064456509	0.010702267	0.011347513	0	956.2327700806684
1.3182567	0.0014454398	0.51	6.8135443	0.44762144	-0.015212283	0.0077365758	0.066322232	0.01136025	0.011988285	0	957.0525922709551
1.3182567	0.0015848932	0.51	7.0214837	0.4359019	-0.015290382	0.0078200181	0.068238837	0.012038306	0.012649898	0	957.8976087369803
1.3182567	0.0017378008	0.51	7.2357188	0.42470356	-0.015369839	0.0079028855	0.070211819	0.012737055	0.013332935	0	958.7683639098859
1.3182567	0.0019054607	0.51	7.4558871	0.41395136	-0.015455925	0.0079941588	0.072251942	0.013457102	0.014037896	0	959.6650632162401
1.3182567	0.0020892961	0.51	7.6810078	0.40341553	-0.015560027	0.008113338	0.074380543	0.014198985	0.014764997	0	960.5872320533979
1.3182567	0.0022908677	0.51	7.9094607	0.39259159	-0.015701792	0.0082944721	0.076633564	0.014963113	0.015513938	0	961.5336334084105
1.3182567	0.0025118864	0.51	8.1402271	0.38094607	-0.015902373	0.0085754742	0.079050872	0.015749749	0.016284235	0	962.5034960578519
1.3182567	0.0027542287	0.51	8.374705	0.36866609	-0.016167411	0.0089688456	0.081646982	0.016559167	0.017076424	0	963.4984751870207
1.3182567	0.0030199517	0.51	8.61574	0.35663052	-0.016478751	0.0094438385	0.084393222	0.017391871	0.017892242	0	964.5218896038116
1.3182567	0.0033113112	0.51	8.8648992	0.34524198	-0.016801885	0.0099353636	0.087226644	0.018248597	0.018732989	0	965.5759985118998
1.3182567	0.0036307805	0.51	9.1222435	0.33387198	-0.017096297	0.010363472	0.090069507	0.019130148	0.019598587	0	966.66161753857
1.3182567	0.0039810717	0.51	9.3886048	0.32178355	-0.017329951	0.010666435	0.092862358	0.020037353	0.020488832	0	967.7803580102106
1.3182567	0.0043651583	0.51	9.6664328	0.30933754	-0.017496352	0.010836234	0.095599525	0.02097121	0.021405226	0	968.9356045042907
1.3182567	0.0047863009	0.51	9.9575459	0.29753055	-0.017610389	0.010905849	0.098316409	0.021932945	0.022350395	0	970.1303312243211
1.3182567	0.0052480746	0.51	10.262038	0.28694245	-0.017690346	0.010911413	0.10105164	0.022923878	0.023326472	0	971.3658698162726
1.3182567	0.0057543994	0.51	10.579234	0.27761335	-0.017749153	0.010876809	0.10383167	0.023945288	0.024334793	0	972.642746925315
1.3182567	0.0063095734	0.51	10.908549	0.26935144	-0.017794354	0.010815336	0.10667245	0.024998389	0.025376303	0	973.9615178439659
1.3182567	0.0069183097	0.51	11.249718	0.26194099	-0.01783008	0.010734101	0.10958383	0.026084354	0.026451871	0	975.3230211343002
1.3182567	0.0075857758	0.51	11.602756	0.25521149	-0.017858595	0.010637032	0.11257256	0.027204344	0.027562418	0	976.7283640740827
1.3182567	0.0083176377	0.51	11.967858	0.24904233	-0.017881208	0.010526495	0.11564391	0.02835953	0.028708949	0	978.1788420420614
1.3182567	0.0091201084	0.51	12.345333	0.24334958	-0.017898741	0.010404091	0.11880247	0.029551111	0.029892542	0	979.6758821440471
1.3182567	0.01	0.51	12.735558	0.23807237	-0.017911765	0.010271047	0.12205258	0.030780315	0.031114343	0	981.2210275221696
1.3182567	0.010964782	0.51	13.138954	0.23316333	-0.017920719	0.010128405	0.12539845	0.032048415	0.032375554	0	982.815883048004
1.3182567	0.012022644	0.51	13.555975	0.22858288	-0.017925958	0.0099770956	0.12884432	0.033356723	0.033677436	0	984.4621468919638
1.3182567	0.013182567	0.51	13.987105	0.22429604	-0.017927773	0.009817969	0.13239442	0.034706597	0.035021296	0	986.1615725648614
1.3182567	0.014454398	0.51	14.432852	0.22027111	-0.017926411	0.0096518422	0.13605306	0.036099447	0.036408499	0	987.9159932526512
1.3182567	0.015848932	0.51	14.893753	0.21647888	-0.017922071	0.0094794732	0.13982461	0.03753673	0.037840461	0	989.7273159911244
1.3182567	0.017378008	0.51	15.370374	0.21289249	-0.017914911	0.0093016025	0.14371352	0.03901996	0.039318659	0	991.5975246725175
1.3182567	0.019054607	0.51	15.863308	0.20948732	-0.017905048	0.0091189498	0.14772436	0.040550708	0.040844629	0	993.5286992126453
1.3182567	0.020892961	0.51	16.373183	0.20624099	-0.017892561	0.0089322136	0.15186176	0.042130601	0.042419967	0	995.5229839815067
1.3182567	0.022908677	0.51	16.900656	0.20313372	-0.01787751	0.0087421287	0.15613055	0.043761332	0.044046339	0	997.5826370365071
1.3182567	0.025118864	0.51	17.446405	0.20015584	-0.017860223	0.0085500004	0.16053623	0.045444662	0.04572549	0	999.7099856810186
1.3182567	0.027542287	0.51	18.010726	0.19743936	-0.017847469	0.0083689418	0.16509624	0.047182404	0.047459421	0	1001.9070268672356
1.3182567	0.030199517	0.51	18.590386	0.19601461	-0.017902858	0.0083158067	0.16993192	0.048976264	0.049251282	0	1004.1721383416253
1.3182567	0.033113112	0.51	19.184476	0.19566182	-0.018070193	0.0084726538	0.17512992	0.050827607	0.05110213	0	1006.5056851253261
1.3182567	0.036307805	0.51	19.800164	0.19460474	-0.018279189	0.0087153358	0.18057085	0.052738195	0.053011235	0	1008.916495468323
1.3182567	0.039810717	0.51	20.441118	0.19261884	-0.018496225	0.0089852517	0.18620101	0.054710362	0.054980616	0	1011.4104266210079
1.3182567	0.043651583	0.51	21.108456	0.19005015	-0.0187106	0.009263688	0.19200675	0.056746649	0.057013299	0	1013.9909920880073
1.3182567	0.047863009	0.51	21.802596	0.18721655	-0.018917837	0.0095426409	0.19798526	0.058849663	0.059112338	0	1016.6610518122899
1.3182567	0.052480746	0.51	22.524001	0.18429893	-0.019115251	0.0098176328	0.20413744	0.061022054	0.061280635	0	1019.4235597873162
1.3182567	0.057543994	0.51	23.273386	0.18137423	-0.019300628	0.010085579	0.21046575	0.063266528	0.063521005	0	1022.2817749894591
1.3182567	0.063095734	0.51	22.834178	0.19375334	-0.02008933	0.0090085483	0.21563796	0.065583114	0.065854959	0	1024.0191488612343
1.3182567	0.069183097	0.51	21.294486	0.21958703	-0.02139849	0.0061884457	0.21926188	0.067760881	0.068068972	0	1024.525611415846
1.3182567	0.075857758	0.51	19.89027	0.24314764	-0.022592459	0.0028486271	0.22256694	0.069747028	0.070088176	0	1024.987512640864
1.3182567	0.083176377	0.51	19.596936	0.24818406	-0.023435192	0.00069839183	0.22726869	0.07161439	0.071962605	0	1026.4486866207876
1.3182567	0.091201084	0.51	20.864349	0.23017819	-0.023754663	0.00078966125	0.23442552	0.073595967	0.073918918	0	1029.5779205756162
1.3182567	0.1	0.51	22.340403	0.21322748	-0.023831128	0.0008828164	0.24180446	0.075711768	0.076010937	0	1033.0419048464303
1.3182567	0.10964782	0.51	24.058238	0.19728941	-0.023611676	0.00097957463	0.24941412	0.077983813	0.07826062	0	1036.8944785008716
1.3182567	0.12022644	0.51	26.059826	0.18232587	-0.023030672	0.0010820864	0.2572637	0.080437773	0.080693585	0	1041.2017183513103
1.3182567	0.13182567	0.51	28.399935	0.1683033	-0.022004459	0.0011928733	0.26536305	0.083104023	0.083340161	0	1046.0469455227662
1.3182567	0.14454398	0.51	31.151273	0.15519288	-0.02042435	0.0013147443	0.2737225	0.086019143	0.086236886	0	1051.5372284665686
1.3182567	0.15848932	0.51	34.410667	0.14297055	-0.018147938	0.0014506902	0.2823528	0.089227964	0.089428559	0	1057.8115190325464
1.3182567	0.17378008	0.51	38.305736	0.13161698	-0.014989251	0.0016037504	0.29126501	0.092786269	0.092970934	0	1065.0498497802828
1.3182567	0.19054607	0.51	43.00083	0.12111709	-0.010709014	0.0017768376	0.30047029	0.096764106	0.096934039	0	1073.4823828390452
1.3182567	0.20892961	0.51	48.700129	0.11145914	-0.0050074496	0.0019725036	0.3099797	0.10124958	0.10140597	0	1083.3960783789
1.3182567	0.22908677	0.51	55.644732	0.10263285	0.0024766029	0.0021926283	0.31980391	0.10635269	0.10649669	0	1095.135383312114
1.3182567	0.25118864	0.51	64.100019	0.094626591	0.012155512	0.0024380541	0.32995282	0.11220839	0.11234116	0	1109.0924886581706
1.3182567	0.27542287	0.51	74.3305	0.087423527	0.024467521	0.002708225	0.34043519	0.11897789	0.11910055	0	1125.6833502387772
1.3182567	0.30199517	0.51	86.562989	0.080997396	0.039835852	0.0030009549	0.35125848	0.12684679	0.12696043	0	1145.309187544779
1.3182567	0.33113112	0.51	100.94503	0.075309048	0.058618695	0.0033124716	0.36242883	0.13601939	0.13612505	0	1168.3094856438288
1.3182567	0.36307805	0.51	117.51119	0.070305182	0.08106357	0.0036378177	0.37395153	0.14670911	0.14680775	0	1194.919340604717
1.3182567	0.39810717	0.51	136.17004	0.065920139	0.10728119	0.0039715486	0.38583168	0.15912659	0.15921908	0	1225.245218335513
1.3182567	0.43651583	0.51	156.71728	0.062080395	0.13724715	0.0043085097	0.39807502	0.17346777	0.17355487	0	1259.2669392274565
1.3182567	0.47863009	0.51	178.86962	0.058710331	0.17082806	0.0046444573	0.41068852	0.18990434	0.18998671	0	1296.86251453146
1.3182567	0.52480746	0.51	202.30676	0.055737542	0.20782043	0.0049763765	0.42368074	0.20857809	0.20865629	0	1337.8448538609437
1.3182567	0.57543994	0.51	226.70931	0.053096557	0.24798932	0.0053025008	0.43706186	0.22959918	0.22967367	0	1381.9980937679632
1.3182567	0.63095734	0.51	251.78589	0.050730716	0.29109872	0.0056221328	0.45084347	0.25304764	0.25311882	0	1429.1060411110916
1.3182567	0.69183097	0.51	277.28806	0.048592517	0.33693119	0.0059353818	0.46503838	0.278977	0.27904518	0	1478.9705350750144
1.3182567	0.75857758	0.51	303.01557	0.046642997	0.38529811	0.0062428995	0.47966032	0.30741876	0.3074842	0	1531.4209339618633
1.3182567	0.83176377	0.51	328.8152	0.044850647	0.43604323	0.0065456697	0.49472378	0.33838713	0.33845006	0	1586.3173739796825
1.3182567	0.91201084	0.51	354.57601	0.043190185	0.48904211	0.0068448421	0.51024381	0.37188343	0.37194403	0	1643.55014725016
1.3182567	1.	0.51	380.22329	0.0416414	0.54419955	0.0071416263	0.52623598	0.40789991	0.40795834	0	1703.0372679585519
1.3182567	1.0964782	0.51	405.71217	0.040188138	0.6014461	0.0074372226	0.54271627	0.44642303	0.44647942	0	1764.7211405609896
1.3182567	1.2022644	0.51	431.02186	0.038817455	0.66073453	0.007732783	0.5597011	0.48743607	0.48749054	0	1828.5652574941469
1.3182567	1.3182567	0.51	456.15052	0.037518941	0.72203653	0.0080293912	0.57720728	0.53092124	0.53097388	0	1894.5510746506668
1.3182567	1.4454398	0.51	481.11105	0.036284173	0.78533981	0.0083280552	0.59525204	0.57686132	0.57691222	0	1962.6753010149985
1.3182567	1.5848932	0.51	505.92755	0.035106296	0.85064565	0.0086297073	0.61385304	0.62524092	0.62529017	0	2032.9476015200712
1.3182567	1.7378008	0.51	530.63255	0.033979685	0.91796684	0.0089352087	0.6330284	0.67604747	0.67609514	0	2105.388675918023
1.3182567	1.9054607	0.51	555.26477	0.032899694	0.98732603	0.0092453559	0.65279669	0.72927188	0.72931804	0	2180.028703705593
1.3182567	2.0892961	0.51	579.86732	0.031862445	1.0587544	0.0095608878	0.67317701	0.78490912	0.78495382	0	2256.9061328364673
1.3182567	2.2908677	0.51	604.48642	0.030864679	1.1322903	0.0098824935	0.69418894	0.84295851	0.84300181	0	2336.0663779534916
1.3182567	2.5118864	0.51	629.17026	0.029903628	1.2079789	0.010210819	0.71585264	0.90342403	0.90346598	0	2417.561539458627
1.3182567	2.7542287	0.51	653.96825	0.028976921	1.2858709	0.010546477	0.73818884	0.96631443	0.96635509	0	2501.449186681869
1.3182567	3.0199517	0.51	678.93036	0.028082505	1.3660222	0.010890042	0.76121885	1.0316434	1.0316828	0	2587.7920526164617
1.3182567	3.3113112	0.51	704.10674	0.027218589	1.4484936	0.011242073	0.7849646	1.0994294	1.0994675	0	2676.6577712164312
1.3182567	3.6307805	0.51	729.54732	0.026383593	1.5333503	0.011603104	0.8094487	1.1696959	1.1697329	0	2768.1184363646025
1.3182567	3.9810717	0.51	755.30166	0.025576112	1.6206612	0.011973653	0.83469438	1.2424713	1.2425071	0	2862.2499154261636
1.3182567	4.3651583	0.51	781.41871	0.024794885	1.7104997	0.012354226	0.86072562	1.3177887	1.3178234	0	2959.13266319412
1.3182567	4.7863009	0.51	807.94681	0.024038772	1.8029423	0.01274532	0.88756708	1.395686	1.3957197	0	3058.8503729553304
1.3182567	5.2480746	0.51	834.93356	0.023306732	1.8980695	0.013147427	0.91524419	1.4762059	1.4762386	0	3161.4908652253616
1.3182567	5.7543994	0.51	862.42589	0.022597809	1.9959651	0.013561032	0.94378314	1.5593957	1.5594274	0	3267.145425260967
1.3182567	6.3095734	0.51	890.47002	0.021911119	2.0967164	0.013986621	0.97321094	1.6453072	1.6453379	0	3375.909019723854
1.3182567	6.9183097	0.51	919.11153	0.02124584	2.2004139	0.01442468	1.0035554	1.7339966	1.7340265	0	3487.8800052275137
1.3182567	7.5857758	0.51	948.39541	0.020601204	2.3071519	0.014875698	1.0348452	1.8255249	1.8255538	0	3603.160725618913
1.3182567	8.3176377	0.51	978.36612	0.019976486	2.4170275	0.015340164	1.0671099	1.9199571	1.9199851	0	3721.856577204927
1.3182567	9.1201084	0.51	1009.0677	0.019371004	2.5301417	0.015818578	1.10038	2.0173627	2.0173899	0	3844.0770710249244
1.3182567	10.	0.51	1040.5438	0.018784111	2.6465987	0.016311442	1.1346869	2.1178155	2.1178419	0	3969.9351559878914