10.964782	1.e-12	0.23	1.1343067e9	4.1386195e8	-0.27840142	-0.015453819	-0.015453819	-1.2072677e6	3.6225251e6	0	674.6494516199616
10.964782	1.0964782e-12	0.23	1.0345e9	3.7744658e8	-0.27732657	-0.01545382	-0.01545382	-1.1010413e6	3.3037821e6	0	675.6593432203089
10.964782	1.2022644e-12	0.23	9.4347517e8	3.4423537e8	-0.27625171	-0.01545382	-0.01545382	-1.0041616e6	3.0130851e6	0	676.6692444324101
10.964782	1.3182567e-12	0.23	8.604596e8	3.139464e8	-0.27517686	-0.01545382	-0.015453819	-915806.29	2.7479663e6	0	677.6791364649577
10.964782	1.4454398e-12	0.23	7.8474848e8	2.8632252e8	-0.27410201	-0.015453819	-0.015453819	-835225.29	2.5061751e6	0	678.6890282814051
10.964782	1.5848932e-12	0.23	7.1569912e8	2.6112924e8	-0.27302716	-0.01545382	-0.015453819	-761734.54	2.2856588e6	0	679.6989200978526
10.964782	1.7378008e-12	0.23	6.5272535e8	2.381527e8	-0.27195231	-0.01545382	-0.01545382	-694710.17	2.0845456e6	0	680.7088116982
10.964782	1.9054607e-12	0.23	5.9529259e8	2.1719785e8	-0.27087745	-0.01545382	-0.015453819	-633583.24	1.9011282e6	0	681.718713126401
10.964782	2.0892961e-12	0.23	5.429133e8	1.9808679e8	-0.2698026	-0.01545382	-0.01545382	-577834.8	1.7338495e6	0	682.7286047267485
10.964782	2.2908677e-12	0.23	4.9514282e8	1.8065731e8	-0.26872775	-0.01545382	-0.015453819	-526991.63	1.5812896e6	0	683.738496759296
10.964782	2.5118864e-12	0.23	4.5157562e8	1.6476142e8	-0.2676529	-0.015453819	-0.015453819	-480622.11	1.4421532e6	0	684.7483885757435
10.964782	2.7542287e-12	0.23	4.1184186e8	1.5026421e8	-0.26657805	-0.015453819	-0.015453819	-438332.59	1.3152594e6	0	685.7582803921911
10.964782	3.0199517e-12	0.23	3.7560424e8	1.3704258e8	-0.26550319	-0.01545382	-0.01545382	-399764.1	1.1995308e6	0	686.768181388192
10.964782	3.3113112e-12	0.23	3.4255514e8	1.2498433e8	-0.26442834	-0.01545382	-0.015453819	-364589.21	1.0939851e6	0	687.7780734207395
10.964782	3.6307805e-12	0.23	3.12414e8	1.1398706e8	-0.26335349	-0.01545382	-0.01545382	-332509.34	997726.27	0	688.7879650210868
10.964782	3.9810717e-12	0.23	2.8492496e8	1.0395744e8	-0.26227864	-0.015453819	-0.015453819	-303252.15	909937.18	0	689.7978570536344
10.964782	4.3651583e-12	0.23	2.5985465e8	9.4810314e7	-0.26120379	-0.015453819	-0.015453819	-276569.27	829872.58	0	690.8077488700822
10.964782	4.7863009e-12	0.23	2.3699026e8	8.6468036e7	-0.26012893	-0.015453819	-0.015453819	-252234.19	756852.79	0	691.817650082183
10.964782	5.2480746e-12	0.23	2.1613768e8	7.8859787e7	-0.25905408	-0.01545382	-0.015453819	-230040.34	690257.94	0	692.8275418986304
10.964782	5.7543994e-12	0.23	1.9711991e8	7.1920983e7	-0.25797923	-0.01545382	-0.015453819	-209799.31	629522.72	0	693.8374337150781
10.964782	6.3095734e-12	0.23	1.797755e8	6.5592718e7	-0.25690438	-0.01545382	-0.015453819	-191339.26	574131.55	0	694.8473255315255
10.964782	6.9183097e-12	0.23	1.639572e8	5.9821272e7	-0.25582952	-0.015453819	-0.015453819	-174503.51	523614.2	0	695.8572267436266
10.964782	7.5857758e-12	0.23	1.4953075e8	5.4557651e7	-0.25475467	-0.015453819	-0.015453819	-159149.11	477541.83	0	696.8671185600739
10.964782	8.3176377e-12	0.23	1.3637366e8	4.9757171e7	-0.25367982	-0.01545382	-0.015453819	-145145.74	435523.33	0	697.8770103765214
10.964782	9.1201084e-12	0.23	1.2437426e8	4.5379081e7	-0.25260497	-0.01545382	-0.015453819	-132374.51	397201.99	0	698.886902192969
10.964782	1.e-11	0.23	1.1343067e8	4.1386216e7	-0.25153012	-0.01545382	-0.015453819	-120727.01	362252.52	0	699.8967940094166
10.964782	1.0964782e-11	0.23	1.0345001e8	3.7744679e7	-0.25045526	-0.01545382	-0.015453819	-110104.36	330378.23	0	700.9066952215173
10.964782	1.2022644e-11	0.23	9.4347528e7	3.4423559e7	-0.24938041	-0.01545382	-0.015453819	-100416.4	301308.53	0	701.916587037965
10.964782	1.3182567e-11	0.23	8.604597e7	3.1394661e7	-0.24830556	-0.015453819	-0.015453819	-91580.864	274796.65	0	702.9264788544124
10.964782	1.4454398e-11	0.23	7.8474858e7	2.8632273e7	-0.24723071	-0.01545382	-0.015453819	-83522.763	250617.52	0	703.93637067086
10.964782	1.5848932e-11	0.23	7.1569921e7	2.6112945e7	-0.24615586	-0.01545382	-0.015453819	-76173.686	228565.9	0	704.9462624873074
10.964782	1.7378008e-11	0.23	6.5272545e7	2.3815291e7	-0.245081	-0.01545382	-0.015453819	-69471.249	208454.58	0	705.9561636994085
10.964782	1.9054607e-11	0.23	5.9529269e7	2.1719806e7	-0.24400615	-0.01545382	-0.015453819	-63358.554	190112.84	0	706.966055515856
10.964782	2.0892961e-11	0.23	5.429134e7	1.98087e7	-0.2429313	-0.01545382	-0.015453819	-57783.711	173384.97	0	707.9759473323036
10.964782	2.2908677e-11	0.23	4.9514292e7	1.8065752e7	-0.24185645	-0.015453819	-0.015453818	-52699.392	158128.97	0	708.9858393648511
10.964782	2.5118864e-11	0.23	4.5157572e7	1.6476163e7	-0.2407816	-0.015453819	-0.015453818	-48062.438	144215.34	0	709.9957311812984
10.964782	2.7542287e-11	0.23	4.1184195e7	1.5026441e7	-0.23970674	-0.01545382	-0.015453818	-43833.486	131525.95	0	711.0056323933994
10.964782	3.0199517e-11	0.23	3.7560434e7	1.3704279e7	-0.23863189	-0.01545382	-0.015453818	-39976.635	119953.1	0	712.0155242098471
10.964782	3.3113112e-11	0.23	3.4255524e7	1.2498453e7	-0.23755704	-0.01545382	-0.015453818	-36459.146	109398.53	0	713.0254160262945
10.964782	3.6307805e-11	0.23	3.124141e7	1.1398727e7	-0.23648219	-0.01545382	-0.015453818	-33251.158	99772.644	0	714.035307842742
10.964782	3.9810717e-11	0.23	2.8492506e7	1.0395764e7	-0.23540734	-0.015453819	-0.015453818	-30325.438	90993.734	0	715.0451996591895
10.964782	4.3651583e-11	0.23	2.5985475e7	9.4810517e6	-0.23433248	-0.01545382	-0.015453818	-27657.149	82987.273	0	716.0551008712905
10.964782	4.7863009e-11	0.23	2.3699036e7	8.6468237e6	-0.23325763	-0.01545382	-0.015453818	-25223.64	75685.293	0	717.0649926877381
10.964782	5.2480746e-11	0.23	2.1613778e7	7.8859989e6	-0.23218278	-0.01545382	-0.015453817	-23004.254	69025.81	0	718.0748847202855
10.964782	5.7543994e-11	0.23	1.9712001e7	7.1921184e6	-0.23110793	-0.01545382	-0.015453817	-20980.15	62952.288	0	719.0847765367332
10.964782	6.3095734e-11	0.23	1.797756e7	6.5592919e6	-0.23003308	-0.01545382	-0.015453817	-19134.145	57413.171	0	720.0946683531805
10.964782	6.9183097e-11	0.23	1.639573e7	5.9821472e6	-0.22895822	-0.01545382	-0.015453816	-17450.568	52361.436	0	721.1045697813817
10.964782	7.5857758e-11	0.23	1.4953085e7	5.4557849e6	-0.22788337	-0.01545382	-0.015453816	-15915.127	47754.199	0	722.1144615978292
10.964782	8.3176377e-11	0.23	1.3637376e7	4.9757368e6	-0.22680852	-0.01545382	-0.015453816	-14514.789	43552.348	0	723.1243534142766
10.964782	9.1201084e-11	0.23	1.2437436e7	4.5379278e6	-0.22573367	-0.01545382	-0.015453815	-13237.665	39720.215	0	724.1342454468243
10.964782	1.e-10	0.23	1.1343077e7	4.1386412e6	-0.22465882	-0.01545382	-0.015453815	-12072.914	36225.268	0	725.1441372632717
10.964782	1.0964782e-10	0.23	1.0345011e7	3.7744875e6	-0.22358396	-0.01545382	-0.015453815	-11010.649	33037.839	0	726.1540384753725
10.964782	1.2022644e-10	0.23	9.4347626e6	3.4423753e6	-0.22250911	-0.01545382	-0.015453814	-10041.851	30130.869	0	727.1639305079201
10.964782	1.3182567e-10	0.23	8.6046068e6	3.1394855e6	-0.22143426	-0.01545382	-0.015453814	-9158.2967	27479.68	0	728.1738223243676
10.964782	1.4454398e-10	0.23	7.8474956e6	2.8632466e6	-0.22035941	-0.01545382	-0.015453813	-8352.4856	25061.768	0	729.1837143569152
10.964782	1.5848932e-10	0.23	7.157002e6	2.6113137e6	-0.21928455	-0.01545382	-0.015453813	-7617.577	22856.605	0	730.1936155690162
10.964782	1.7378008e-10	0.23	6.5272644e6	2.3815483e6	-0.2182097	-0.01545382	-0.015453812	-6947.3324	20845.474	0	731.2035076015636
10.964782	1.9054607e-10	0.23	5.9529368e6	2.1719996e6	-0.21713485	-0.01545382	-0.015453811	-6336.0619	19011.299	0	732.2133996341113
10.964782	2.0892961e-10	0.23	5.4291439e6	1.980889e6	-0.21606	-0.01545382	-0.01545381	-5778.5765	17338.513	0	733.2232916666587
10.964782	2.2908677e-10	0.23	4.951439e6	1.806594e6	-0.21498515	-0.01545382	-0.015453809	-5270.1437	15812.913	0	734.2331836992063
10.964782	2.5118864e-10	0.23	4.5157671e6	1.6476351e6	-0.21391029	-0.01545382	-0.015453808	-4806.4474	14421.55	0	735.2430851274073
10.964782	2.7542287e-10	0.23	4.1184295e6	1.5026628e6	-0.21283544	-0.01545382	-0.015453807	-4383.5512	13152.611	0	736.2529771599548
10.964782	3.0199517e-10	0.23	3.7560533e6	1.3704466e6	-0.21176059	-0.01545382	-0.015453806	-3997.8652	11995.325	0	737.2628691925024
10.964782	3.3113112e-10	0.23	3.4255623e6	1.2498639e6	-0.21068574	-0.01545382	-0.015453805	-3646.1153	10939.868	0	738.2727612250501
10.964782	3.6307805e-10	0.23	3.1241509e6	1.1398911e6	-0.20961089	-0.01545382	-0.015453803	-3325.3154	9977.28	0	739.2826534736975
10.964782	3.9810717e-10	0.23	2.8492604e6	1.0395948e6	-0.20853603	-0.01545382	-0.015453802	-3032.7425	9099.3891	0	740.2925549018986
10.964782	4.3651583e-10	0.23	2.5985574e6	948123.46	-0.20746118	-0.01545382	-0.0154538	-2765.9126	8298.743	0	741.302447150546
10.964782	4.7863009e-10	0.23	2.3699134e6	864700.58	-0.20638633	-0.015453821	-0.015453798	-2522.5608	7568.545	0	742.3123393991937
10.964782	5.2480746e-10	0.23	2.1613877e6	788618.02	-0.20531148	-0.015453821	-0.015453796	-2300.6212	6902.5967	0	743.3222316478411
10.964782	5.7543994e-10	0.23	1.97121e6	719229.88	-0.20423663	-0.015453821	-0.015453794	-2098.2098	6295.2445	0	744.3321238964887
10.964782	6.3095734e-10	0.23	1.7977658e6	655947.14	-0.20316177	-0.015453821	-0.015453791	-1913.6083	5741.3328	0	745.3420257568899
10.964782	6.9183097e-10	0.23	1.6395829e6	598232.59	-0.20208692	-0.015453821	-0.015453789	-1745.2497	5236.1592	0	746.3519180055375
10.964782	7.5857758e-10	0.23	1.4953183e6	545596.28	-0.20101207	-0.015453821	-0.015453785	-1591.7047	4775.4356	0	747.3618106863851
10.964782	8.3176377e-10	0.23	1.3637475e6	497591.4	-0.19993722	-0.015453821	-0.015453782	-1451.6699	4355.2505	0	748.3717031511326
10.964782	9.1201084e-10	0.23	1.2437535e6	453810.4	-0.19886237	-0.015453821	-0.015453779	-1323.9565	3972.0372	0	749.3815956158801
10.964782	1.e-9	0.23	1.1343176e6	413881.67	-0.19778751	-0.015453822	-0.015453775	-1207.4804	3622.5425	0	750.3914976923813
10.964782	1.0964782e-9	0.23	1.0345109e6	377466.21	-0.19671266	-0.015453822	-0.01545377	-1101.2529	3303.7996	0	751.4013905893289
10.964782	1.2022644e-9	0.23	943486.13	344254.91	-0.19563781	-0.015453822	-0.015453766	-1004.3722	3013.1026	0	752.4112832701766
10.964782	1.3182567e-9	0.23	860470.55	313965.84	-0.19456296	-0.015453822	-0.01545376	-916.01579	2747.9837	0	753.4211763832243
10.964782	1.4454398e-9	0.23	784759.43	286341.87	-0.19348811	-0.015453822	-0.015453755	-835.43371	2506.1925	0	754.431069280172
10.964782	1.5848932e-9	0.23	715710.06	261148.5	-0.19241325	-0.015453823	-0.015453748	-761.94188	2285.6762	0	755.4409720049731
10.964782	1.7378008e-9	0.23	652736.31	238171.87	-0.1913384	-0.015453823	-0.015453741	-694.91646	2084.563	0	756.4508653341209
10.964782	1.9054607e-9	0.23	595303.55	217216.92	-0.19026355	-0.015453823	-0.015453734	-633.78844	1901.1456	0	757.4607586632685
10.964782	2.0892961e-9	0.23	542924.26	198105.78	-0.1891887	-0.015453824	-0.015453726	-578.03894	1733.867	0	758.4706522085164
10.964782	2.2908677e-9	0.23	495153.77	180676.2	-0.18811385	-0.015453824	-0.015453717	-527.19469	1581.307	0	759.480545969864
10.964782	2.5118864e-9	0.23	451586.58	164780.22	-0.187039	-0.015453825	-0.015453707	-480.82409	1442.1707	0	760.490439947312
10.964782	2.7542287e-9	0.23	411852.82	150282.91	-0.18596414	-0.015453825	-0.015453696	-438.5335	1315.2768	0	761.5003435365132
10.964782	3.0199517e-9	0.23	375615.19	137061.2	-0.18488929	-0.015453826	-0.015453684	-399.96393	1199.5482	0	762.5102379461612
10.964782	3.3113112e-9	0.23	342566.09	125002.85	-0.18381444	-0.015453826	-0.015453671	-364.78797	1094.0025	0	763.520132571909
10.964782	3.6307805e-9	0.23	312424.95	114005.49	-0.18273959	-0.015453827	-0.015453657	-332.70702	997.74369	0	764.530027413757
10.964782	3.9810717e-9	0.23	284935.91	103975.78	-0.18166474	-0.015453828	-0.015453641	-303.44876	909.95461	0	765.539922687805
10.964782	4.3651583e-9	0.23	259865.61	94828.562	-0.18058988	-0.015453828	-0.015453623	-276.76481	829.89	0	766.5498277897066
10.964782	4.7863009e-9	0.23	237001.21	86486.192	-0.17951503	-0.015453829	-0.015453605	-252.42866	756.8702	0	767.5597234959546
10.964782	5.2480746e-9	0.23	216148.64	78877.852	-0.17844018	-0.01545383	-0.015453584	-230.23373	690.27537	0	768.5696198505027
10.964782	5.7543994e-9	0.23	197130.87	71938.955	-0.17736533	-0.015453831	-0.015453561	-209.99162	629.54015	0	769.5795166372509
10.964782	6.3095734e-9	0.23	179786.45	65610.599	-0.17629048	-0.015453832	-0.015453536	-191.53051	574.14898	0	770.5894138561991
10.964782	6.9183097e-9	0.23	163968.16	59839.061	-0.17521563	-0.015453834	-0.015453509	-174.69368	523.63163	0	771.5993115073474
10.964782	7.5857758e-9	0.23	149541.7	54575.347	-0.17414077	-0.015453835	-0.015453479	-159.33821	477.55925	0	772.6092192024494
10.964782	8.3176377e-9	0.23	136384.62	49774.775	-0.17306592	-0.015453837	-0.015453446	-145.33376	435.54075	0	773.6191181501979
10.964782	9.1201084e-9	0.23	124385.22	45396.594	-0.17199107	-0.015453838	-0.01545341	-132.56146	397.21942	0	774.6290177462464
10.964782	1.e-8	0.23	113441.63	41403.636	-0.17091622	-0.01545384	-0.015453371	-120.91288	362.26995	0	775.6389179905951
10.964782	1.0964782e-8	0.23	103460.96	37762.008	-0.16984137	-0.015453842	-0.015453327	-110.28916	330.39566	0	776.648819315444
10.964782	1.2022644e-8	0.23	94358.481	34440.795	-0.16876652	-0.015453844	-0.01545328	-100.60012	301.32595	0	777.6587212885929
10.964782	1.3182567e-8	0.23	86056.923	31411.805	-0.16769166	-0.015453847	-0.015453228	-91.763516	274.81407	0	778.6686337378956
10.964782	1.4454398e-8	0.23	78485.811	28649.325	-0.16661681	-0.015453849	-0.015453171	-83.70434	250.63494	0	779.6785378720447
10.964782	1.5848932e-8	0.23	71580.875	26129.906	-0.16554196	-0.015453852	-0.015453108	-76.354191	228.58332	0	780.6884433027942
10.964782	1.7378008e-8	0.23	65283.499	23832.16	-0.16446711	-0.015453855	-0.015453039	-69.650681	208.472	0	781.6983500301437
10.964782	1.9054607e-8	0.23	59540.224	21736.582	-0.16339226	-0.015453859	-0.015452964	-63.536912	190.13026	0	782.7082580540936
10.964782	2.0892961e-8	0.23	54302.294	19825.385	-0.16231741	-0.015453863	-0.015452882	-57.960994	173.40239	0	783.7181675907436
10.964782	2.2908677e-8	0.23	49525.246	18082.344	-0.16124256	-0.015453867	-0.015452791	-52.875602	158.1464	0	784.7280790722938
10.964782	2.5118864e-8	0.23	45168.525	16492.663	-0.16016771	-0.015453871	-0.015452692	-48.237574	144.23276	0	785.7379922826444
10.964782	2.7542287e-8	0.23	41195.15	15042.85	-0.15909286	-0.015453876	-0.015452583	-44.007548	131.54338	0	786.7479076539952
10.964782	3.0199517e-8	0.23	37571.388	13720.596	-0.15801801	-0.015453882	-0.015452464	-40.149624	119.97052	0	787.7578251863464
10.964782	3.3113112e-8	0.23	34266.478	12514.678	-0.15694316	-0.015453888	-0.015452333	-36.631061	109.41595	0	788.7677453118979
10.964782	3.6307805e-8	0.23	31252.364	11414.859	-0.15586831	-0.015453894	-0.01545219	-33.421999	99.790067	0	789.7776680306497
10.964782	3.9810717e-8	0.23	28503.46	10411.805	-0.15479346	-0.015453901	-0.015452032	-30.495205	91.011159	0	790.787593990902
10.964782	4.3651583e-8	0.23	25996.429	9496.9999	-0.15371861	-0.015453909	-0.01545186	-27.825842	83.004697	0	791.7975229765549
10.964782	4.7863009e-8	0.23	23709.99	8662.6801	-0.15264376	-0.015453918	-0.015451671	-25.39126	75.702719	0	792.807455635908
10.964782	5.2480746e-8	0.23	21624.732	7901.7631	-0.15156891	-0.015453928	-0.015451464	-23.1708	69.043234	0	793.8173921850619
10.964782	5.7543994e-8	0.23	19722.955	7207.7907	-0.15049406	-0.015453938	-0.015451236	-21.145622	62.969713	0	794.8273332723163
10.964782	6.3095734e-8	0.23	17988.514	6574.8721	-0.14941921	-0.015453949	-0.015450987	-19.298543	57.430596	0	795.8372788976712
10.964782	6.9183097e-8	0.23	16406.684	5997.6354	-0.14834436	-0.015453962	-0.015450714	-17.613892	52.37886	0	796.8472297094271
10.964782	7.5857758e-8	0.23	14964.039	5471.1811	-0.14726952	-0.015453976	-0.015450414	-16.077378	47.771623	0	797.8571769602304
10.964782	8.3176377e-8	0.23	13648.33	4991.0411	-0.14619467	-0.015453991	-0.015450086	-14.675966	43.569773	0	798.8671396574879
10.964782	9.1201084e-8	0.23	12448.39	4553.14	-0.14511982	-0.015454007	-0.015449725	-13.397768	39.73764	0	799.8771094860464
10.964782	1.e-7	0.23	11354.032	4153.7614	-0.14404498	-0.015454025	-0.01544933	-12.231943	36.242693	0	800.8870772663524
10.964782	1.0964782e-7	0.23	10355.965	3789.5157	-0.14297013	-0.015454045	-0.015448897	-11.168604	33.055264	0	801.8970626541131
10.964782	1.2022644e-7	0.23	9445.717	3457.3116	-0.14189528	-0.015454067	-0.015448422	-10.198732	30.148294	0	802.907057118075
10.964782	1.3182567e-7	0.23	8615.5612	3154.3297	-0.14082044	-0.015454091	-0.015447902	-9.3141041	27.497106	0	803.917051910885
10.964782	1.4454398e-7	0.23	7858.4501	2877.9988	-0.1397456	-0.015454117	-0.015447331	-8.5072192	25.079194	0	804.9270577247964
10.964782	1.5848932e-7	0.23	7167.9565	2625.974	-0.13867075	-0.015454146	-0.015446705	-7.7712368	22.874031	0	805.937084819863
10.964782	1.7378008e-7	0.23	6538.219	2396.1165	-0.13759591	-0.015454177	-0.015446018	-7.0999183	20.8629	0	806.9471157013779
10.964782	1.9054607e-7	0.23	5963.8916	2186.4759	-0.13652107	-0.015454211	-0.015445265	-6.4875741	19.028726	0	807.9571608454949
10.964782	2.0892961e-7	0.23	5440.0986	1995.2732	-0.13544623	-0.015454249	-0.01544444	-5.9290147	17.355939	0	808.9672215488141
10.964782	2.2908677e-7	0.23	4962.3939	1820.8862	-0.13437139	-0.015454291	-0.015443536	-5.419508	15.83034	0	809.9772993240357
10.964782	2.5118864e-7	0.23	4526.722	1661.8354	-0.13329655	-0.015454336	-0.015442543	-4.9547378	14.438977	0	810.98739633216
10.964782	2.7542287e-7	0.23	4129.3845	1516.7711	-0.13222172	-0.015454386	-0.015441455	-4.5307678	13.170039	0	811.9975044741336
10.964782	3.0199517e-7	0.23	3767.0084	1384.4628	-0.13114688	-0.015454441	-0.015440263	-4.1440078	12.012753	0	813.007644486164
10.964782	3.3113112e-7	0.23	3436.5176	1263.7882	-0.13007205	-0.015454501	-0.015438955	-3.791184	10.957297	0	814.0178001701444
10.964782	3.6307805e-7	0.23	3135.1063	1153.7234	-0.12899722	-0.015454567	-0.015437521	-3.4693103	9.9947091	0	815.0279830827286
10.964782	3.9810717e-7	0.23	2860.2161	1053.3351	-0.12792239	-0.015454639	-0.015435948	-3.1756633	9.1168186	0	816.0381960332171
10.964782	4.3651583e-7	0.23	2609.5132	961.77181	-0.12684756	-0.015454718	-0.015434224	-2.9077595	8.3161732	0	817.0484416148101
10.964782	4.7863009e-7	0.23	2380.8694	878.25697	-0.12577274	-0.015454804	-0.015432333	-2.6633337	7.5859759	0	818.058713889455
10.964782	5.2480746e-7	0.23	2172.3439	802.08242	-0.12469791	-0.0154549	-0.01543026	-2.4403201	6.9200282	0	819.0690348899586
10.964782	5.7543994e-7	0.23	1982.1664	732.60232	-0.12362309	-0.015455004	-0.015427988	-2.2368347	6.3126768	0	820.0793894987149
10.964782	6.3095734e-7	0.23	1808.7225	669.22763	-0.12254828	-0.015455118	-0.015425495	-2.0511592	5.758766	0	821.0897824699243
10.964782	6.9183097e-7	0.23	1650.5399	611.42111	-0.12147346	-0.015455243	-0.015422763	-1.8817265	5.2535933	0	822.1002364846947
10.964782	7.5857758e-7	0.23	1506.2756	558.69286	-0.12039866	-0.015455381	-0.015419766	-1.7271074	4.7928707	0	823.1107289746661
10.964782	8.3176377e-7	0.23	1374.7051	510.59602	-0.11932385	-0.015455531	-0.015416481	-1.5859984	4.3726867	0	824.1212930970999
10.964782	9.1201084e-7	0.23	1254.7114	466.72309	-0.11824905	-0.015455697	-0.015412879	-1.4572109	3.9894746	0	825.1319163275897
10.964782	1.e-6	0.23	1145.276	426.70242	-0.11717426	-0.015455878	-0.015408929	-1.3396606	3.6399813	0	826.1426053652367
10.964782	1.0964782e-6	0.23	1045.4697	390.19504	-0.11609947	-0.015456077	-0.015404598	-1.2323589	3.3212398	0	827.1533767369954
10.964782	1.2022644e-6	0.23	954.44542	356.89182	-0.11502468	-0.015456294	-0.01539985	-1.1344038	3.0305444	0	828.1642382224666
10.964782	1.3182567e-6	0.23	871.43035	326.51084	-0.1139499	-0.015456534	-0.015394643	-1.0449731	2.7654273	0	829.1751895021984
10.964782	1.4454398e-6	0.23	795.71983	298.79498	-0.11287513	-0.015456795	-0.015388934	-0.96331665	2.523638	0	830.1862398684918
10.964782	1.5848932e-6	0.23	726.67109	273.50972	-0.11180037	-0.015457083	-0.015382674	-0.88875037	2.3031239	0	831.197399910249
10.964782	1.7378008e-6	0.23	663.69803	250.44121	-0.11072562	-0.015457398	-0.015375811	-0.82065042	2.102013	0	832.2086808646708
10.964782	1.9054607e-6	0.23	606.26603	229.3944	-0.10965088	-0.015457743	-0.015368285	-0.75844781	1.9185981	0	833.2200956977595
10.964782	2.0892961e-6	0.23	553.88758	210.19141	-0.10857614	-0.015458122	-0.015360033	-0.70162365	1.7513223	0	834.2316674194699
10.964782	2.2908677e-6	0.23	506.118	192.66999	-0.10750142	-0.015458538	-0.015350985	-0.64970463	1.5987653	0	835.243392365498
10.964782	2.5118864e-6	0.23	462.55181	176.68221	-0.10642671	-0.015458993	-0.015341064	-0.60225919	1.4596324	0	836.255296571199
10.964782	2.7542287e-6	0.23	422.81915	162.0931	-0.10535202	-0.015459493	-0.015330186	-0.55889365	1.3327422	0	837.2673887933224
10.964782	3.0199517e-6	0.23	386.58274	148.77962	-0.10427734	-0.01546004	-0.015318259	-0.51924903	1.2170177	0	838.279698308724
10.964782	3.3113112e-6	0.23	353.53497	136.62951	-0.10320267	-0.015460641	-0.015305182	-0.48299788	1.1114764	0	839.2922469435075
10.964782	3.6307805e-6	0.23	323.39528	125.54043	-0.10212803	-0.0154613	-0.015290842	-0.44984161	1.0152225	0	840.3050403256689
10.964782	3.9810717e-6	0.23	295.90783	115.41901	-0.1010534	-0.015462022	-0.01527512	-0.41950787	0.92743868	0	841.3181229624188
10.964782	4.3651583e-6	0.23	270.83927	106.18012	-0.099978796	-0.015462814	-0.015257881	-0.39174828	0.84737991	0	842.331508994216
10.964782	4.7863009e-6	0.23	247.97679	97.746117	-0.098904217	-0.015463682	-0.01523898	-0.36633632	0.77436653	0	843.3452306951302
10.964782	5.2480746e-6	0.23	227.12632	90.046176	-0.097829663	-0.015464635	-0.015218255	-0.34306538	0.70777871	0	844.3593230733662
10.964782	5.7543994e-6	0.23	208.11084	83.015718	-0.096755138	-0.015465679	-0.015195532	-0.32174705	0.64705119	0	845.3738199720681
10.964782	6.3095734e-6	0.23	190.76895	76.595843	-0.095680645	-0.015466825	-0.015170617	-0.30220947	0.59166845	0	846.3887604959455
10.964782	6.9183097e-6	0.23	174.95342	70.732835	-0.094606187	-0.015468081	-0.015143299	-0.28429591	0.54116036	0	847.4041874234089
10.964782	7.5857758e-6	0.23	160.53	65.377703	-0.093531766	-0.015469458	-0.015113348	-0.26786344	0.49509814	0	848.4201485783348
10.964782	8.3176377e-6	0.23	147.37624	60.48577	-0.092457388	-0.015470968	-0.015080509	-0.25278167	0.45309076	0	849.4366934288387
10.964782	9.1201084e-6	0.23	135.38049	56.016289	-0.091383054	-0.015472624	-0.015044504	-0.23893171	0.41478162	0	850.4538811111637
10.964782	0.00001	0.23	124.4409	51.932101	-0.090308772	-0.015474441	-0.015005029	-0.2262051	0.37984553	0	851.4717698031964
10.964782	0.000010964782	0.23	114.46461	48.199317	-0.089234543	-0.015476432	-0.01496175	-0.21450294	0.34798589	0	852.4904307427817
10.964782	0.000012022644	0.23	105.36248	44.786977	-0.08816794	-0.01548699	-0.014922675	-0.20373975	0.31892686	0	853.5010180724795
10.964782	0.000013182567	0.23	97.065763	41.666999	-0.087094564	-0.015490188	-0.014871458	-0.19382422	0.29243208	0	854.5205929648631
10.964782	0.000014454398	0.23	89.499957	38.813631	-0.08602133	-0.015493694	-0.014815309	-0.18468562	0.2682717	0	855.5411002443176
10.964782	0.000015848932	0.23	82.600836	36.20343	-0.084948251	-0.015497537	-0.014753755	-0.1762555	0.24624062	0	856.5626299118077
10.964782	0.000017378008	0.23	76.309834	33.81502	-0.083875343	-0.01550175	-0.014686277	-0.16847142	0.22615182	0	857.5852790902034
10.964782	0.000019054607	0.23	70.573546	31.628909	-0.08280262	-0.015506369	-0.014612309	-0.16127642	0.20783477	0	858.6091569382074
10.964782	0.000020892961	0.23	65.343275	29.627319	-0.081730102	-0.015511431	-0.014531232	-0.15461857	0.19113396	0	859.6343784304316
10.964782	0.000022908677	0.23	60.574619	27.79404	-0.080657807	-0.01551698	-0.014442368	-0.14845045	0.17590761	0	860.6610731705202
10.964782	0.000025118864	0.23	56.227094	26.114291	-0.079585757	-0.015523062	-0.014344978	-0.14272883	0.16202646	0	861.6893801859583
10.964782	0.000027542287	0.23	52.263793	24.574594	-0.078513974	-0.015529728	-0.014238253	-0.13741427	0.14937266	0	862.7194536312323
10.964782	0.000030199517	0.23	48.651066	23.162659	-0.077442484	-0.015537033	-0.014121313	-0.13247078	0.13783879	0	863.7514592456706
10.964782	0.000033113112	0.23	45.358241	21.86728	-0.076371315	-0.015545038	-0.013993198	-0.12786552	0.12732691	0	864.7855781774722
10.964782	0.000036307805	0.23	42.357358	20.678242	-0.075300496	-0.015553811	-0.013852865	-0.12356852	0.11774776	0	865.822008571574
10.964782	0.000039810717	0.23	39.622934	19.586229	-0.074230061	-0.015563424	-0.01369918	-0.11955243	0.10902	0	866.8609635401887
10.964782	0.000043651583	0.23	37.131746	18.582751	-0.073160046	-0.015573957	-0.013530913	-0.11579229	0.1010695	0	867.902675062001
10.964782	0.000047863009	0.23	34.86263	17.660068	-0.072090488	-0.015585496	-0.013346734	-0.1122653	0.093828715	0	868.9473957861339
10.964782	0.000052480746	0.23	32.796305	16.811123	-0.071021432	-0.015598137	-0.013145211	-0.10895066	0.087236116	0	869.9953928873898
10.964782	0.000057543994	0.23	30.915204	16.029484	-0.069952924	-0.015611983	-0.012924801	-0.10582936	0.081235652	0	871.0469565881103
10.964782	0.000063095734	0.23	29.203325	15.309291	-0.068885013	-0.015627149	-0.012683854	-0.10288404	0.07577627	0	872.1023974146428
10.964782	0.000069183097	0.23	27.646092	14.645199	-0.067817755	-0.015643757	-0.012420611	-0.10009884	0.070811482	0	873.162042871282
10.964782	0.000075857758	0.23	26.230229	14.032339	-0.066751209	-0.015661943	-0.012133211	-0.097459256	0.066298952	0	874.2262396858289
10.964782	0.000083176377	0.23	24.943644	13.466272	-0.065685441	-0.015681854	-0.011819694	-0.094952038	0.062200131	0	875.29534940303
10.964782	0.000091201084	0.23	23.775321	12.942949	-0.064620519	-0.015703649	-0.011478018	-0.092565058	0.058479911	0	876.3697494087038
10.964782	0.0001	0.23	22.715219	12.458682	-0.06355652	-0.015727505	-0.011106078	-0.090287224	0.055106311	0	877.4498222468826
10.964782	0.00010964782	0.23	21.754187	12.010101	-0.062493527	-0.01575361	-0.010701726	-0.088108382	0.052050186	0	878.5359541165078
10.964782	0.00012022644	0.23	20.883871	11.594132	-0.061431627	-0.015782171	-0.010262812	-0.086019236	0.049284956	0	879.6285278904597
10.964782	0.00013182567	0.23	20.096642	11.207967	-0.060370917	-0.015813413	-0.0097872173	-0.084011273	0.046786346	0	880.7279102820339
10.964782	0.00014454398	0.23	19.385513	10.849034	-0.059311499	-0.01584758	-0.0092729134	-0.082076696	0.044532158	0	881.8344438144766
10.964782	0.00015848932	0.23	18.74408	10.514979	-0.058253484	-0.015884934	-0.0087180119	-0.080208363	0.042502046	0	882.9484322793312
10.964782	0.00017378008	0.23	18.16645	10.203638	-0.057196992	-0.015925764	-0.0081208318	-0.078399734	0.040677311	0	884.0701261929074
10.964782	0.00019054607	0.23	17.647185	9.9130221	-0.056142149	-0.01597038	-0.0074799613	-0.076644827	0.039040715	0	885.199712259994
10.964782	0.00020892961	0.23	17.18125	9.6412954	-0.055089092	-0.016019116	-0.0067943232	-0.074938167	0.037576309	0	886.3372945430909
10.964782	0.00022908677	0.23	16.763964	9.3867611	-0.054037964	-0.016072334	-0.0060632278	-0.073274761	0.036269284	0	887.482887728544
10.964782	0.00025118864	0.23	16.390961	9.1478466	-0.052988921	-0.016130426	-0.0052864164	-0.071650056	0.035105843	0	888.636401149237
10.964782	0.00027542287	0.23	16.058157	8.9230929	-0.051942125	-0.016193813	-0.0044640832	-0.070059913	0.034073098	0	889.7976406289567
10.964782	0.00030199517	0.23	15.761726	8.711145	-0.050897748	-0.016262946	-0.0035968758	-0.06850058	0.033158987	0	890.9663046160834
10.964782	0.00033113112	0.23	15.498083	8.5107454	-0.049855972	-0.016338312	-0.0026858703	-0.066968671	0.03235222	0	892.1419895644807
10.964782	0.00036307805	0.23	15.263871	8.3207283	-0.048816984	-0.016420432	-0.0017325248	-0.065461137	0.031642245	0	893.3242046799735
10.964782	0.00039810717	0.23	15.055957	8.1400169	-0.047780983	-0.016509861	-0.00073861177	-0.063975248	0.031019219	0	894.5123799582362
10.964782	0.00043651583	0.23	14.871429	7.9676196	-0.046748172	-0.016607196	0.00029385977	-0.062508572	0.03047401	0	895.7058905182195
10.964782	0.00047863009	0.23	14.707595	7.8026291	-0.045718762	-0.01671307	0.0013627327	-0.061058949	0.029998184	0	896.9040719579366
10.964782	0.00052480746	0.23	14.561982	7.6442188	-0.044692968	-0.016828156	0.0024657839	-0.059624474	0.029584001	0	898.1062418545376
10.964782	0.00057543994	0.23	14.432335	7.4916409	-0.043671007	-0.016953167	0.0036008006	-0.058203473	0.02922441	0	899.3117181426769
10.964782	0.00063095734	0.23	14.316611	7.3442234	-0.042653099	-0.017088858	0.0047656475	-0.056794483	0.028913028	0	900.5198326795826
10.964782	0.00069183097	0.23	14.212976	7.2013654	-0.04163946	-0.017236023	0.0059583137	-0.05539623	0.02864412	0	901.7299479635876
10.964782	0.00075857758	0.23	14.119793	7.0625339	-0.040630305	-0.017395498	0.0071769516	-0.054007612	0.028412567	0	902.9414627217252
10.964782	0.00083176377	0.23	14.035615	6.9272582	-0.039625839	-0.017568158	0.0084198979	-0.052627676	0.028213828	0	904.1538249039182
10.964782	0.00091201084	0.23	13.959171	6.7951255	-0.038626258	-0.017754913	0.0096856871	-0.051255602	0.028043906	0	905.3665336607633
10.964782	0.001	0.23	13.889359	6.6657756	-0.037631741	-0.017956711	0.010973053	-0.049890689	0.027899298	0	906.5791471842039
10.964782	0.0010964782	0.23	13.82523	6.5388961	-0.03664245	-0.018174532	0.012280923	-0.048532333	0.027776963	0	907.7912814757607
10.964782	0.0012022644	0.23	13.765977	6.4142177	-0.035658524	-0.018409382	0.013608417	-0.047180019	0.027674273	0	909.0026157462132
10.964782	0.0013182567	0.23	13.710929	6.2915098	-0.034680071	-0.018662297	0.014954829	-0.045833303	0.02758898	0	910.2128959558823
10.964782	0.0014454398	0.23	13.659534	6.1705762	-0.033707171	-0.018934325	0.016319624	-0.044491799	0.027519182	0	911.4219313260236
10.964782	0.0015848932	0.23	13.611358	6.051252	-0.032739864	-0.019226531	0.017702425	-0.043155173	0.027463288	0	912.6296028043116
10.964782	0.0017378008	0.23	13.566069	5.9333999	-0.031778153	-0.019539983	0.019103008	-0.041823126	0.027419994	0	913.8358591656432
10.964782	0.0019054607	0.23	13.523436	5.816907	-0.030821993	-0.01987575	0.02052129	-0.040495386	0.027388255	0	915.0407247541567
10.964782	0.0020892961	0.23	13.483315	5.7016825	-0.029871299	-0.020234889	0.021957328	-0.039171702	0.027367263	0	916.2442917506089
10.964782	0.0022908677	0.23	13.445649	5.587655	-0.028925934	-0.020618439	0.023411318	-0.03785183	0.027356428	0	917.4467312310584
10.964782	0.0025118864	0.23	13.410451	5.47477	-0.027985718	-0.021027411	0.024883589	-0.03653553	0.027355353	0	918.6482834141781
10.964782	0.0027542287	0.23	13.377805	5.3629879	-0.027050425	-0.02146278	0.026374608	-0.035222556	0.027363823	0	919.8492615604519
10.964782	0.0030199517	0.23	13.347852	5.2522815	-0.026119786	-0.021925476	0.027884979	-0.033912652	0.027381777	0	921.0500489373768
10.964782	0.0033113112	0.23	13.320782	5.1426342	-0.025193496	-0.022416379	0.029415443	-0.032605544	0.027409294	0	922.2510922425074
10.964782	0.0036307805	0.23	13.296825	5.0340376	-0.024271222	-0.022936303	0.030966886	-0.03130094	0.02744657	0	923.4528958157323
10.964782	0.0039810717	0.23	13.276238	4.9264895	-0.023352608	-0.023485999	0.03254034	-0.029998521	0.027493897	0	924.6560171575477
10.964782	0.0043651583	0.23	13.259296	4.8199915	-0.022437289	-0.024066144	0.034136981	-0.028697943	0.027551636	0	925.8610533429418
10.964782	0.0047863009	0.23	13.24628	4.714547	-0.021524902	-0.024677338	0.035758138	-0.027398836	0.0276202	0	927.0686326310774
10.964782	0.0052480746	0.23	13.237457	4.610159	-0.020615103	-0.025320102	0.03740529	-0.026100802	0.027700021	0	928.2793978443802
10.964782	0.0057543994	0.23	13.233077	4.5068277	-0.019707579	-0.025994869	0.039080071	-0.024803417	0.027791523	0	929.4939961742546
10.964782	0.0063095734	0.23	13.23335	4.4045482	-0.018802073	-0.026701988	0.040784272	-0.023506235	0.027895098	0	930.7130561241497
10.964782	0.0069183097	0.23	13.238431	4.303309	-0.017898401	-0.027441724	0.042519838	-0.022208791	0.028011074	0	931.9371708886497
10.964782	0.0075857758	0.23	13.24841	4.2030889	-0.016996478	-0.028214245	0.044288877	-0.020910609	0.028139682	0	933.1668758696733
10.964782	0.0083176377	0.23	13.263286	4.1038562	-0.016096346	-0.029019625	0.046093667	-0.019611209	0.02828103	0	934.4026238813458
10.964782	0.0091201084	0.23	13.282956	4.0055662	-0.015198203	-0.029857837	0.047936656	-0.018310114	0.028435075	0	935.644757902602
10.964782	0.01	0.23	13.307198	3.9081609	-0.014302433	-0.030728736	0.049820481	-0.017006865	0.028601599	0	936.8934869961281
10.964782	0.010964782	0.23	13.335652	3.8115679	-0.013409636	-0.031632063	0.051747971	-0.015701029	0.028780189	0	938.1488587697005
10.964782	0.012022644	0.23	13.367817	3.7157021	-0.012520656	-0.032567419	0.053722168	-0.014392218	0.028970241	0	939.4107376064566
10.964782	0.013182567	0.23	13.403043	3.620468	-0.0116366	-0.033534273	0.055746326	-0.013080097	0.029170974	0	940.6787865970529
10.964782	0.014454398	0.23	13.440542	3.5257648	-0.01075884	-0.034531962	0.057823909	-0.011764405	0.029381474	0	941.9524652283352
10.964782	0.015848932	0.23	13.479409	3.431495	-0.0098890021	-0.035559722	0.059958566	-0.010444962	0.029600782	0	943.231034222099
10.964782	0.017378008	0.23	13.518648	3.3375755	-0.0090289252	-0.036616749	0.062154068	-0.0091216829	0.029828017	0	944.5135807248372
10.964782	0.019054607	0.23	13.557216	3.2439537	-0.0081806108	-0.037702289	0.064414226	-0.007794581	0.030062547	0	945.7990477537181
10.964782	0.020892961	0.23	13.594043	3.150626	-0.0073461702	-0.038815769	0.066742756	-0.0064637749	0.030304212	0	947.0862546321315
10.964782	0.022908677	0.23	13.628016	3.0576603	-0.0065278235	-0.039956907	0.069143176	-0.0051294893	0.030553584	0	948.3738756709511
10.964782	0.025118864	0.23	13.657833	2.9652221	-0.0057280542	-0.041125736	0.071618788	-0.0037920648	0.030812248	0	949.660291021931
10.964782	0.027542287	0.23	13.68157	2.8735972	-0.0049501644	-0.042322384	0.074172889	-0.002451995	0.03108305	0	950.9431106281297
10.964782	0.030199517	0.23	13.69551	2.7831963	-0.0041998006	-0.043546313	0.076809551	-0.0011100354	0.031370027	0	952.2179091931222
10.964782	0.033113112	0.23	13.691313	2.6944897	-0.0034886212	-0.044794768	0.079535163	0.0002325012	0.031677352	0	953.475113551327
10.964782	0.036307805	0.23	13.650171	2.6078642	-0.002841336	-0.04606232	0.082358897	0.0015730344	0.03200696	0	954.6934893003388
10.964782	0.039810717	0.23	13.531303	2.5235894	-0.0023065754	-0.047353398	0.085280176	0.0029062022	0.032356636	0	955.8272203116429
10.964782	0.043651583	0.23	13.252859	2.4387442	-0.0019678786	-0.048736781	0.088234191	0.0042206764	0.032680963	0	956.7838108206763
10.964782	0.047863009	0.23	12.810949	2.34086	-0.0018169513	-0.050347244	0.091090252	0.0054988327	0.032816804	0	957.5428117513352
10.964782	0.052480746	0.23	12.372686	2.2304901	-0.0016904234	-0.052160976	0.093876381	0.0067326235	0.032762572	0	958.2637755438603
10.964782	0.057543994	0.23	12.026362	2.1165066	-0.0015129044	-0.054077276	0.096697609	0.0079276256	0.03262738	0	959.0402337020746
10.964782	0.063095734	0.23	11.797233	2.0033692	-0.0012624006	-0.056033913	0.099620634	0.0090942911	0.032473726	0	959.9072641842502
10.964782	0.069183097	0.23	11.701004	1.8927519	-0.00091843789	-0.057998562	0.10268238	0.010244874	0.032333399	0	960.8920830322415
10.964782	0.075857758	0.23	11.757028	1.785182	-0.00045096892	-0.059956482	0.10590232	0.011393303	0.032226481	0	962.0271298108619
10.964782	0.083176377	0.23	11.99096	1.6807162	0.00018199604	-0.061906265	0.10928675	0.012555708	0.032169764	0	963.353217181267
10.964782	0.091201084	0.23	12.435203	1.579219	0.0010353479	-0.06385917	0.11282944	0.01375106	0.032180637	0	964.9205724373332
10.964782	0.1	0.23	13.129036	1.4804797	0.0021777263	-0.065839287	0.11651147	0.015001844	0.032279127	0	966.7895983938636
10.964782	0.10964782	0.23	14.118952	1.3842639	0.0036925074	-0.067883286	0.12030151	0.016334744	0.032489184	0	969.0318619878547
10.964782	0.12022644	0.23	15.458892	1.2903661	0.005678486	-0.07003918	0.12415705	0.01778137	0.032840017	0	971.7310009778503
10.964782	0.13182567	0.23	17.209559	1.198713	0.0082494458	-0.072364538	0.12802618	0.019378956	0.033368005	0	974.9827048331815
10.964782	0.14454398	0.23	19.437103	1.109302	0.011531324	-0.074917572	0.13185653	0.021170991	0.034116609	0	978.8939826246475
10.964782	0.15848932	0.23	22.027	1.0245598	0.015469164	-0.077798052	0.13555435	0.023202847	0.035159519	0	983.3929396572751
10.964782	0.17378008	0.23	25.514734	0.94920241	0.020730751	-0.081210513	0.13892131	0.025526761	0.036604008	0	989.0641446471778
10.964782	0.19054607	0.23	29.855079	0.87770142	0.027344705	-0.085102736	0.14201601	0.028232971	0.038475797	0	995.94715141646
10.964782	0.20892961	0.23	35.234026	0.81041431	0.035614113	-0.089536502	0.14478325	0.031413915	0.040871497	0	1004.3148012866736
10.964782	0.22908677	0.23	41.865659	0.74767367	0.045887602	-0.094556249	0.1471854	0.035181704	0.043907099	0	1014.4865202629454
10.964782	0.25118864	0.23	49.979744	0.68976201	0.058546707	-0.10018194	0.14920947	0.039670347	0.04771991	0	1026.8179782716911
10.964782	0.27542287	0.23	59.799343	0.63687957	0.073981092	-0.10640265	0.15087361	0.04503627	0.052468691	0	1041.6792123210073
10.964782	0.30199517	0.23	71.510095	0.58911042	0.092552928	-0.11317304	0.15223059	0.051456201	0.058331154	0	1059.4219093318777
10.964782	0.33113112	0.23	85.227265	0.54639615	0.11455688	-0.12041491	0.15336626	0.059121874	0.065498349	0	1080.341478515779
10.964782	0.36307805	0.23	100.97007	0.50852805	0.14018636	-0.12802519	0.1543916	0.068231769	0.074166321	0	1104.6436258675697
10.964782	0.39810717	0.23	118.65229	0.47516316	0.16951654	-0.13588923	0.1554294	0.078981074	0.084526255	0	1132.4255153164859
10.964782	0.43651583	0.23	138.09271	0.44586113	0.202509	-0.14389593	0.15659916	0.09155171	0.096754936	0	1163.6768727154245
10.964782	0.47863009	0.23	159.0415	0.42013114	0.2390346	-0.15195058	0.15800421	0.10610421	0.11100717	0	1198.2986922112386
10.964782	0.52480746	0.23	181.21365	0.39747645	0.27890576	-0.15998264	0.15972402	0.12277262	0.1274112	0	1236.1319036049986
10.964782	0.57543994	0.23	204.32043	0.37742842	0.32190856	-0.16794778	0.16181213	0.14166263	0.14606724	0	1276.9870850726659
10.964782	0.63095734	0.23	228.09326	0.35956705	0.36782847	-0.17582552	0.16429848	0.16285246	0.16704863	0	1320.6691416946182
10.964782	0.69183097	0.23	252.29825	0.34352974	0.41646752	-0.18361452	0.16719417	0.18639561	0.19040462	0	1366.994466428854
10.964782	0.75857758	0.23	276.74268	0.32901164	0.46765369	-0.19132725	0.17049682	0.21232466	0.21616424	0	1415.8009209257948
10.964782	0.83176377	0.23	301.27556	0.3157611	0.52124458	-0.19898509	0.17419544	0.24065534	0.24434029	0	1466.9523361402637
10.964782	0.91201084	0.23	325.78471	0.30357284	0.57712725	-0.20661444	0.17827431	0.27139053	0.27493324	0	1520.339200469154
10.964782	1.	0.23	350.19197	0.29228059	0.63521616	-0.21424392	0.18271586	0.30452381	0.30793475	0	1575.8773466148898
10.964782	1.0964782	0.23	374.44798	0.28175016	0.69545018	-0.22190248	0.18750252	0.34004257	0.34333061	0	1633.5055420700896
10.964782	1.2022644	0.23	398.52695	0.27187329	0.75778938	-0.22961821	0.19261793	0.37793054	0.38110331	0	1693.1827345938298
10.964782	1.3182567	0.23	422.42205	0.26256254	0.822212	-0.23741775	0.19804755	0.41816988	0.421234	0	1754.8853371496502
10.964782	1.4454398	0.23	446.14136	0.25374704	0.88871174	-0.24532595	0.20377898	0.46074288	0.46370412	0	1818.604750835468
10.964782	1.5848932	0.23	469.70447	0.24536912	0.95729546	-0.25336585	0.20980206	0.50563317	0.50849664	0	1884.345225493274
10.964782	1.7378008	0.23	493.13978	0.23738161	1.0279812	-0.26155875	0.21610873	0.55282677	0.55559703	0	1952.1219691157362
10.964782	1.9054607	0.23	516.48221	0.22974566	1.1007968	-0.26992435	0.22269298	0.60231282	0.60499396	0	2021.9598404410158
10.964782	2.0892961	0.23	539.77142	0.22242904	1.175778	-0.27848091	0.22955062	0.65408412	0.65667988	0	2093.8915140755944
10.964782	2.2908677	0.23	563.05045	0.21540485	1.2529683	-0.28724548	0.23667914	0.70813755	0.71065134	0	2167.9573187011188
10.964782	2.5118864	0.23	586.36458	0.20865043	1.3324172	-0.29623406	0.24407751	0.76447432	0.76690928	0	2244.203540219384
10.964782	2.7542287	0.23	609.76053	0.20214655	1.41418	-0.30546179	0.25174606	0.82310014	0.8254592	0	2322.6822079072545
10.964782	3.0199517	0.23	633.28576	0.19587671	1.4983174	-0.31494308	0.25968628	0.88402535	0.88631125	0	2403.4506753705214
10.964782	3.3113112	0.23	656.98804	0.18982666	1.5848946	-0.3246918	0.26790075	0.94726498	0.94948027	0	2486.570759808083
10.964782	3.6307805	0.23	680.91506	0.183984	1.6739812	-0.33472135	0.27639297	1.0128387	1.0149858	0	2572.1086113184056
10.964782	3.9810717	0.23	705.1142	0.17833777	1.7656509	-0.34504481	0.28516735	1.0807709	1.0828521	0	2660.134428868919
10.964782	4.3651583	0.23	729.63234	0.17287827	1.8599816	-0.35567502	0.29422903	1.1510905	1.153108	0	2750.7225153545455
10.964782	4.7863009	0.23	754.51577	0.16759681	1.9570546	-0.36662468	0.30358389	1.2238312	1.225787	0	2843.9505281064185
10.964782	5.2480746	0.23	779.81011	0.16248553	2.056955	-0.3779064	0.31323845	1.2990308	1.300927	0	2939.899833108023
10.964782	5.7543994	0.23	805.56029	0.15753731	2.1597715	-0.38953278	0.32319984	1.376732	1.3785705	0	3038.65531059912
10.964782	6.3095734	0.23	831.81057	0.15274558	2.2655964	-0.40151647	0.33347577	1.4569816	1.4587641	0	3140.305348592751
10.964782	6.9183097	0.23	858.60455	0.14810431	2.3745252	-0.41387022	0.34407447	1.5398307	1.5415591	0	3244.941454083091
10.964782	7.5857758	0.23	885.98524	0.14360787	2.4866572	-0.42660692	0.35500468	1.6253347	1.6270107	0	3352.6588146236622
10.964782	8.3176377	0.23	913.99512	0.13925104	2.602095	-0.43973964	0.36627564	1.7135534	1.7151784	0	3463.5558263836565
10.964782	9.1201084	0.23	942.67619	0.13502889	2.7209449	-0.45328168	0.37789706	1.8045503	1.8061261	0	3577.7344634910755
10.964782	10.	0.23	972.07004	0.13093677	2.8433166	-0.46724659	0.38987911	1.8983934	1.8999214	0	3695.2999940021227