10.	1.e-12	0.09	7.8470097e8	3.1393687e8	-0.25063644	-0.025979345	-0.025979345	-835174.7	2.5061242e6	0	701.8791992146533
10.	1.0964782e-12	0.09	7.1565579e8	2.8631383e8	-0.24965616	-0.025979345	-0.025979345	-761688.4	2.2856125e6	0	702.8002363359515
10.	1.2022644e-12	0.09	6.5268584e8	2.6112132e8	-0.24867588	-0.025979345	-0.025979345	-694668.1	2.0845033e6	0	703.7212734572495
10.	1.3182567e-12	0.09	5.9525656e8	2.3814547e8	-0.24769561	-0.025979345	-0.025979345	-633544.86	1.9010896e6	0	704.6423011828939
10.	1.4454398e-12	0.09	5.4288043e8	2.1719126e8	-0.24671533	-0.025979345	-0.025979345	-577799.8	1.7338144e6	0	705.5633383041919
10.	1.5848932e-12	0.09	4.9511285e8	1.9808078e8	-0.24573505	-0.025979345	-0.025979345	-526959.71	1.5812575e6	0	706.4843754254899
10.	1.7378008e-12	0.09	4.5154829e8	1.8065182e8	-0.24475478	-0.025979345	-0.025979345	-480592.99	1.442124e6	0	707.4054031511344
10.	1.9054607e-12	0.09	4.1181693e8	1.6475642e8	-0.2437745	-0.025979345	-0.025979345	-438306.03	1.3152327e6	0	708.3264402724325
10.	2.0892961e-12	0.09	3.755815e8	1.5025965e8	-0.24279422	-0.025979345	-0.025979345	-399739.88	1.1995065e6	0	709.2474773937305
10.	2.2908677e-12	0.09	3.425344e8	1.3703843e8	-0.24181395	-0.025979345	-0.025979345	-364567.12	1.0939629e6	0	710.1685051193749
10.	2.5118864e-12	0.09	3.1239509e8	1.2498053e8	-0.24083367	-0.025979345	-0.025979345	-332489.19	997706.04	0	711.0895422406729
10.	2.7542287e-12	0.09	2.8490771e8	1.139836e8	-0.23985339	-0.025979345	-0.025979345	-303233.76	909918.72	0	712.0105793619709
10.	3.0199517e-12	0.09	2.5983892e8	1.0395428e8	-0.23887312	-0.025979345	-0.025979345	-276552.5	829855.74	0	712.9316070876154
10.	3.3113112e-12	0.09	2.3697591e8	9.4807436e7	-0.23789284	-0.025979345	-0.025979345	-252218.9	756837.43	0	713.8526442089134
10.	3.6307805e-12	0.09	2.161246e8	8.6465412e7	-0.23691256	-0.025979345	-0.025979345	-230026.39	690243.95	0	714.7736813302115
10.	3.9810717e-12	0.09	1.9710798e8	7.8857394e7	-0.23593229	-0.025979345	-0.025979345	-209786.58	629509.96	0	715.6947090558558
10.	4.3651583e-12	0.09	1.7976462e8	7.1918801e7	-0.23495201	-0.025979345	-0.025979345	-191327.66	574119.91	0	716.6157461771538
10.	4.7863009e-12	0.09	1.6394728e8	6.5590728e7	-0.23397173	-0.025979345	-0.025979345	-174492.92	523603.58	0	717.5367832984518
10.	5.2480746e-12	0.09	1.4952169e8	5.9819457e7	-0.23299146	-0.025979345	-0.025979345	-159139.45	477532.14	0	718.4578110240963
10.	5.7543994e-12	0.09	1.3636541e8	5.4555995e7	-0.23201118	-0.025979345	-0.025979345	-145136.93	435514.49	0	719.3788481453943
10.	6.3095734e-12	0.09	1.2436673e8	4.9755661e7	-0.2310309	-0.025979345	-0.025979345	-132366.47	397193.94	0	720.2998852666923
10.	6.9183097e-12	0.09	1.1342381e8	4.5377704e7	-0.23005063	-0.025979345	-0.025979345	-120719.68	362245.18	0	721.2209129923368
10.	7.5857758e-12	0.09	1.0344374e8	4.138496e7	-0.22907035	-0.025979345	-0.025979345	-110097.68	330371.53	0	722.1419501136348
10.	8.3176377e-12	0.09	9.4341816e7	3.7743534e7	-0.22809007	-0.025979345	-0.025979345	-100410.29	301302.42	0	723.0629872349327
10.	9.1201084e-12	0.09	8.604076e7	3.4422515e7	-0.2271098	-0.025979345	-0.025979345	-91575.297	274791.07	0	723.9840149605773
10.	1.e-11	0.09	7.8470106e7	3.1393708e7	-0.22612952	-0.025979345	-0.025979345	-83517.683	250612.44	0	724.9050520818753
10.	1.0964782e-11	0.09	7.1565588e7	2.8631404e7	-0.22514924	-0.025979345	-0.025979345	-76169.052	228561.26	0	725.8260892031733
10.	1.2022644e-11	0.09	6.5268593e7	2.6112153e7	-0.22416897	-0.025979345	-0.025979345	-69467.021	208450.35	0	726.7471169288178
10.	1.3182567e-11	0.09	5.9525665e7	2.3814568e7	-0.22318869	-0.025979345	-0.025979345	-63354.696	190108.98	0	727.6681540501158
10.	1.4454398e-11	0.09	5.4288053e7	2.1719147e7	-0.22220841	-0.025979345	-0.025979345	-57780.19	173381.45	0	728.5891911714137
10.	1.5848932e-11	0.09	4.9511293e7	1.9808099e7	-0.22122814	-0.025979345	-0.025979345	-52696.179	158125.76	0	729.5102188970583
10.	1.7378008e-11	0.09	4.5154837e7	1.8065203e7	-0.22024786	-0.025979345	-0.025979345	-48059.506	144212.41	0	730.4312560183563
10.	1.9054607e-11	0.09	4.1181702e7	1.6475663e7	-0.21926758	-0.025979345	-0.025979345	-43830.81	131523.29	0	731.3522931396543
10.	2.0892961e-11	0.09	3.7558159e7	1.5025985e7	-0.21828731	-0.025979345	-0.025979345	-39974.193	119950.66	0	732.2733208652988
10.	2.2908677e-11	0.09	3.4253449e7	1.3703863e7	-0.21730703	-0.025979345	-0.025979345	-36456.917	109396.31	0	733.1943579865969
10.	2.5118864e-11	0.09	3.1239518e7	1.2498074e7	-0.21632675	-0.025979345	-0.025979345	-33249.123	99770.618	0	734.1153951078948
10.	2.7542287e-11	0.09	2.849078e7	1.1398381e7	-0.21534648	-0.025979345	-0.025979345	-30323.58	90991.887	0	735.0364228335393
10.	3.0199517e-11	0.09	2.5983901e7	1.0395449e7	-0.2143662	-0.025979345	-0.025979345	-27655.452	82985.588	0	735.9574599548373
10.	3.3113112e-11	0.09	2.36976e7	9.4807638e6	-0.21338592	-0.025979345	-0.025979345	-25222.091	75683.757	0	736.8784970761353
10.	3.6307805e-11	0.09	2.1612469e7	8.6465613e6	-0.21240565	-0.025979345	-0.025979344	-23002.84	69024.409	0	737.7995248863408
10.	3.9810717e-11	0.09	1.9710807e7	7.8857595e6	-0.21142537	-0.025979345	-0.025979344	-20978.858	62951.01	0	738.7205620076388
10.	4.3651583e-11	0.09	1.7976471e7	7.1919002e6	-0.21044509	-0.025979345	-0.025979344	-19132.965	57412.006	0	739.6415991289367
10.	4.7863009e-11	0.09	1.6394737e7	6.5590927e6	-0.20946482	-0.025979345	-0.025979344	-17449.49	52360.372	0	740.5626268545813
10.	5.2480746e-11	0.09	1.4952179e7	5.9819656e6	-0.20848454	-0.025979345	-0.025979344	-15914.142	47753.229	0	741.4836639758793
10.	5.7543994e-11	0.09	1.363655e7	5.4556193e6	-0.20750426	-0.025979345	-0.025979344	-14513.889	43551.464	0	742.4047010971773
10.	6.3095734e-11	0.09	1.2436682e7	4.9755858e6	-0.20652399	-0.025979345	-0.025979344	-13236.842	39719.408	0	743.3257288228218
10.	6.9183097e-11	0.09	1.134239e7	4.53779e6	-0.20554371	-0.025979345	-0.025979344	-12072.162	36224.532	0	744.2467659441198
10.	7.5857758e-11	0.09	1.0344383e7	4.1385155e6	-0.20456343	-0.025979345	-0.025979344	-11009.961	33037.168	0	745.1678030654177
10.	8.3176377e-11	0.09	9.4341906e6	3.7743729e6	-0.20358316	-0.025979345	-0.025979343	-10041.222	30130.256	0	746.0888308756232
10.	9.1201084e-11	0.09	8.6040849e6	3.4422708e6	-0.20260288	-0.025979345	-0.025979343	-9157.7212	27479.122	0	747.0098679969212
10.	1.e-10	0.09	7.8470196e6	3.1393901e6	-0.2016226	-0.025979346	-0.025979343	-8351.959	25061.258	0	747.9309051182191
10.	1.0964782e-10	0.09	7.1565678e6	2.8631596e6	-0.20064233	-0.025979345	-0.025979343	-7617.095	22856.141	0	748.8519328438638
10.	1.2022644e-10	0.09	6.5268683e6	2.6112344e6	-0.19966205	-0.025979346	-0.025979343	-6946.891	20845.049	0	749.7729699651616
10.	1.3182567e-10	0.09	5.9525756e6	2.3814759e6	-0.19868177	-0.025979345	-0.025979343	-6335.6577	19010.913	0	750.6940070864596
10.	1.4454398e-10	0.09	5.4288143e6	2.1719336e6	-0.19770149	-0.025979346	-0.025979342	-5778.2061	17338.16	0	751.6150442923185
10.	1.5848932e-10	0.09	4.9511384e6	1.9808288e6	-0.19672122	-0.025979346	-0.025979342	-5269.8042	15812.591	0	752.5360720179631
10.	1.7378008e-10	0.09	4.5154927e6	1.8065391e6	-0.19574094	-0.025979346	-0.025979342	-4806.136	14421.256	0	753.4571091392611
10.	1.9054607e-10	0.09	4.1181792e6	1.647585e6	-0.19476066	-0.025979346	-0.025979342	-4383.2655	13152.343	0	754.378146260559
10.	2.0892961e-10	0.09	3.7558249e6	1.5026171e6	-0.19378039	-0.025979346	-0.025979341	-3997.603	11995.081	0	755.2991740707644
10.	2.2908677e-10	0.09	3.4253539e6	1.3704049e6	-0.19280011	-0.025979346	-0.025979341	-3645.8744	10939.645	0	756.2202111920624
10.	2.5118864e-10	0.09	3.1239608e6	1.2498258e6	-0.19181983	-0.025979346	-0.02597934	-3325.0941	9977.0763	0	757.1412483979213
10.	2.7542287e-10	0.09	2.849087e6	1.1398564e6	-0.19083956	-0.025979346	-0.02597934	-3032.5389	9099.2031	0	758.0622761235659
10.	3.0199517e-10	0.09	2.5983991e6	1.0395632e6	-0.18985928	-0.025979346	-0.025979339	-2765.7254	8298.5734	0	758.9833133294247
10.	3.3113112e-10	0.09	2.369769e6	948094.58	-0.188879	-0.025979346	-0.025979339	-2522.3883	7568.3902	0	759.9043504507226
10.	3.6307805e-10	0.09	2.1612559e6	864674.25	-0.18789873	-0.025979346	-0.025979338	-2300.4623	6902.4554	0	760.8253782609281
10.	3.9810717e-10	0.09	1.9710897e6	788593.99	-0.18691845	-0.025979346	-0.025979338	-2098.0633	6295.1155	0	761.7464153822259
10.	4.3651583e-10	0.09	1.797656e6	719207.95	-0.18593817	-0.025979347	-0.025979337	-1913.473	5741.2149	0	762.667452588085
10.	4.7863009e-10	0.09	1.6394827e6	655927.14	-0.1849579	-0.025979347	-0.025979336	-1745.1247	5236.0517	0	763.5884803982904
10.	5.2480746e-10	0.09	1.4952269e6	598214.34	-0.18397762	-0.025979347	-0.025979335	-1591.589	4775.3373	0	764.5095176041492
10.	5.7543994e-10	0.09	1.363664e6	545579.63	-0.18299734	-0.025979347	-0.025979334	-1451.5628	4355.1608	0	765.4305548100081
10.	6.3095734e-10	0.09	1.2436772e6	497576.19	-0.18201707	-0.025979347	-0.025979333	-1323.8573	3971.9553	0	766.3515826202135
10.	6.9183097e-10	0.09	1.134248e6	453796.53	-0.18103679	-0.025979348	-0.025979332	-1207.3884	3622.4677	0	767.2726198260723
10.	7.5857758e-10	0.09	1.0344473e6	413869.	-0.18005651	-0.025979348	-0.025979331	-1101.1674	3303.7312	0	768.1936570319313
10.	8.3176377e-10	0.09	943428.05	377454.65	-0.17907624	-0.025979348	-0.02597933	-1004.2926	3013.0401	0	769.1146848421366
10.	9.1201084e-10	0.09	860417.5	344244.37	-0.17809596	-0.025979348	-0.025979328	-915.94164	2747.9266	0	770.0357221325563
10.	1.e-9	0.09	784710.97	313956.21	-0.17711568	-0.025979348	-0.025979326	-835.36454	2506.1403	0	770.9567594229761
10.	1.0964782e-9	0.09	715665.78	286333.08	-0.17613541	-0.025979349	-0.025979325	-761.87726	2285.6285	0	771.8777872331815
10.	1.2022644e-9	0.09	652695.83	261140.48	-0.17515513	-0.025979349	-0.025979323	-694.85598	2084.5194	0	772.7988245236012
10.	1.3182567e-9	0.09	595266.55	238164.54	-0.17417485	-0.02597935	-0.02597932	-633.73176	1901.1057	0	773.7198618985819
10.	1.4454398e-9	0.09	542890.42	217210.23	-0.17319458	-0.02597935	-0.025979318	-577.98572	1733.8304	0	774.640889793348
10.	1.5848932e-9	0.09	495122.84	198099.67	-0.1722143	-0.02597935	-0.025979315	-527.14465	1581.2735	0	775.5619271683288
10.	1.7378008e-9	0.09	451558.28	180670.62	-0.17123402	-0.025979351	-0.025979312	-480.77695	1442.14	0	776.4829645433095
10.	1.9054607e-9	0.09	411826.92	164775.12	-0.17025375	-0.025979351	-0.025979309	-438.48901	1315.2487	0	777.4039925226366
10.	2.0892961e-9	0.09	375591.49	150278.25	-0.16927347	-0.025979352	-0.025979306	-399.92187	1199.5225	0	778.3250298976171
10.	2.2908677e-9	0.09	342544.39	137056.94	-0.16829319	-0.025979353	-0.025979302	-364.74814	1093.979	0	779.2460673571588
10.	2.5118864e-9	0.09	312405.08	124998.96	-0.16731292	-0.025979353	-0.025979298	-332.66923	997.72208	0	780.1670954210467
10.	2.7542287e-9	0.09	284917.7	114001.93	-0.16633264	-0.025979354	-0.025979293	-303.41283	909.93476	0	781.0881329651492
10.	3.0199517e-9	0.09	259848.91	103972.52	-0.16535236	-0.025979355	-0.025979288	-276.73058	829.87178	0	782.0091705092516
10.	3.3113112e-9	0.09	236985.9	94825.582	-0.16437209	-0.025979356	-0.025979283	-252.396	756.85346	0	782.9301986577005
10.	3.6307805e-9	0.09	216134.59	86483.466	-0.16339181	-0.025979357	-0.025979277	-230.20252	690.25998	0	783.8512362863637
10.	3.9810717e-9	0.09	197117.97	78875.357	-0.16241153	-0.025979358	-0.02597927	-209.96173	629.526	0	784.772273999588
10.	4.3651583e-9	0.09	179774.6	71936.671	-0.16143126	-0.02597936	-0.025979263	-191.50182	574.13594	0	785.6933023171587
10.	4.7863009e-9	0.09	163957.27	65608.507	-0.16045098	-0.025979361	-0.025979255	-174.66611	523.61962	0	786.6143401149436
10.	5.2480746e-9	0.09	149531.69	59837.144	-0.1594707	-0.025979363	-0.025979247	-159.31166	477.54818	0	787.5353779127288
10.	5.7543994e-9	0.09	136375.4	54573.589	-0.15849043	-0.025979364	-0.025979237	-145.30815	435.53052	0	788.4564064839822
10.	6.3095734e-9	0.09	124376.72	49773.163	-0.15751015	-0.025979366	-0.025979227	-132.53672	397.20997	0	789.3774444508888
10.	6.9183097e-9	0.09	113433.8	45395.114	-0.15652987	-0.025979368	-0.025979215	-120.88895	362.26121	0	790.2984825869175
10.	7.5857758e-9	0.09	103453.73	41402.279	-0.1555496	-0.02597937	-0.025979203	-110.26596	330.38756	0	791.2195113272925
10.	8.3176377e-9	0.09	94351.806	37760.761	-0.15456932	-0.025979373	-0.025979189	-100.5776	301.31845	0	792.1405496324429
10.	9.1201084e-9	0.09	86050.749	34439.649	-0.15358904	-0.025979376	-0.025979174	-91.741626	274.80711	0	793.0615880221541
10.	1.e-8	0.09	78480.096	31410.751	-0.15260877	-0.025979379	-0.025979158	-83.683034	250.62847	0	793.9826171007726
10.	1.0964782e-8	0.09	71575.578	28648.355	-0.15162849	-0.025979382	-0.02597914	-76.333424	228.5773	0	794.9036557441665
10.	1.2022644e-8	0.09	65278.583	26129.011	-0.15064821	-0.025979385	-0.02597912	-69.630413	208.46638	0	795.8246945566823
10.	1.3182567e-8	0.09	59535.656	23831.335	-0.14966794	-0.025979389	-0.025979098	-63.51711	190.12502	0	796.7457241426661
10.	1.4454398e-8	0.09	54298.043	21735.821	-0.14868766	-0.025979393	-0.025979074	-57.941624	173.39749	0	797.6667632934252
10.	1.5848932e-8	0.09	49521.283	19824.681	-0.14770738	-0.025979398	-0.025979048	-52.856633	158.1418	0	798.5878026133062
10.	1.7378008e-8	0.09	45164.827	18081.694	-0.14672711	-0.025979403	-0.025979019	-48.218981	144.22845	0	799.5088327912162
10.	1.9054607e-8	0.09	41191.692	16492.061	-0.14574683	-0.025979409	-0.025978988	-43.989306	131.53932	0	800.4298725339015
10.	2.0892961e-8	0.09	37568.149	15042.292	-0.14476655	-0.025979415	-0.025978953	-40.13171	119.9667	0	801.3509126148305
10.	2.2908677e-8	0.09	34263.439	13720.078	-0.14378628	-0.025979422	-0.025978916	-36.613454	109.41234	0	802.2719434692276
10.	2.5118864e-8	0.09	31249.508	12514.196	-0.142806	-0.025979429	-0.025978874	-33.40468	99.786653	0	803.1929841420827
10.	2.7542287e-8	0.09	28500.77	11414.411	-0.14182573	-0.025979437	-0.025978829	-30.478158	91.007922	0	804.1140156729668
10.	3.0199517e-8	0.09	25993.891	10411.387	-0.14084545	-0.025979446	-0.025978779	-27.809052	83.001623	0	805.0350570223088
10.	3.3113112e-8	0.09	23707.59	9496.6102	-0.13986517	-0.025979456	-0.025978724	-25.374712	75.699793	0	805.9560987944552
10.	3.6307805e-8	0.09	21622.459	8662.3157	-0.1388849	-0.025979466	-0.025978664	-23.154481	69.040444	0	806.8771315937527
10.	3.9810717e-8	0.09	19720.797	7901.4218	-0.13790462	-0.025979478	-0.025978599	-21.129519	62.967045	0	807.798174211508
10.	4.3651583e-8	0.09	17986.46	7207.4703	-0.13692434	-0.025979491	-0.025978527	-19.282647	57.42804	0	808.7192174211895
10.	4.7863009e-8	0.09	16404.727	6574.571	-0.13594407	-0.025979505	-0.025978448	-17.598193	52.376408	0	809.6402518271436
10.	5.2480746e-8	0.09	14962.168	5997.3517	-0.13496379	-0.025979521	-0.025978361	-16.061866	47.769263	0	810.5612963052382
10.	5.7543994e-8	0.09	13646.54	5470.9135	-0.13398352	-0.025979537	-0.025978266	-14.660633	43.567499	0	811.4823320641666
10.	6.3095734e-8	0.09	12446.672	4990.788	-0.13300324	-0.025979556	-0.025978162	-13.382607	39.735444	0	812.4033779797962
10.	6.9183097e-8	0.09	11352.38	4552.9002	-0.13202296	-0.025979576	-0.025978048	-12.216948	36.240567	0	813.3244247410347
10.	7.5857758e-8	0.09	10354.373	4153.5337	-0.13104269	-0.025979599	-0.025977923	-11.153767	33.053203	0	814.2454630367894
10.	8.3176377e-8	0.09	9444.1806	3789.299	-0.13006241	-0.025979623	-0.025977786	-10.184049	30.146291	0	815.1665117429283
10.	9.1201084e-8	0.09	8614.0751	3457.105	-0.12908214	-0.02597965	-0.025977635	-9.2995691	27.495157	0	816.0875522372656
10.	1.e-7	0.09	7857.0097	3154.1323	-0.12810186	-0.025979679	-0.02597747	-8.4928276	25.077294	0	817.0086033111093
10.	1.0964782e-7	0.09	7166.5579	2877.8097	-0.12712158	-0.025979712	-0.02597729	-7.7569842	22.872176	0	817.9296556533658
10.	1.2022644e-7	0.09	6536.8584	2625.7925	-0.12614131	-0.025979747	-0.025977091	-7.085801	20.861085	0	818.8507002066258
10.	1.3182567e-7	0.09	5962.5657	2395.942	-0.12516103	-0.025979785	-0.025976874	-6.4735883	19.026948	0	819.7717556776349
10.	1.4454398e-7	0.09	5438.8044	2186.3077	-0.12418076	-0.025979828	-0.025976635	-5.9151574	17.354195	0	820.6928036133302
10.	1.5848932e-7	0.09	4961.1284	1995.1109	-0.12320048	-0.025979875	-0.025976374	-5.4057761	15.828626	0	821.6138628050182
10.	1.7378008e-7	0.09	4525.4828	1820.7292	-0.12222021	-0.025979926	-0.025976087	-4.9411287	14.437291	0	822.5349147996357
10.	1.9054607e-7	0.09	4128.1693	1661.6831	-0.12123993	-0.025979982	-0.025975773	-4.5172789	13.168378	0	823.4559784730505
10.	2.0892961e-7	0.09	3765.8151	1516.6232	-0.12025966	-0.025980043	-0.025975428	-4.1306371	12.011116	0	824.3770353721992
10.	2.2908677e-7	0.09	3435.3441	1384.3189	-0.11927939	-0.025980111	-0.02597505	-3.7779292	10.955681	0	825.298095061857
10.	2.5118864e-7	0.09	3133.951	1263.6479	-0.11829911	-0.025980185	-0.025974636	-3.4561696	9.993112	0	826.2191671913598
10.	2.7542287e-7	0.09	2859.0772	1153.5865	-0.11731884	-0.025980266	-0.025974182	-3.1626351	9.1152389	0	827.1402333076445
10.	3.0199517e-7	0.09	2608.3893	1053.2012	-0.11633856	-0.025980354	-0.025973684	-2.8948422	8.3146092	0	828.0613125402615
10.	3.3113112e-7	0.09	2379.7593	961.64062	-0.11535829	-0.025980452	-0.025973138	-2.6505258	7.5844261	0	828.9823864361474
10.	3.6307805e-7	0.09	2171.2462	878.12828	-0.11437802	-0.025980559	-0.025972539	-2.4276205	6.9184913	0	829.9034648137599
10.	3.9810717e-7	0.09	1981.08	801.95601	-0.11339775	-0.025980676	-0.025971882	-2.2242421	6.3111516	0	830.8245480959035
10.	4.3651583e-7	0.09	1807.6464	732.47798	-0.11241747	-0.025980804	-0.025971162	-2.0386725	5.7572512	0	831.7456461010362
10.	4.7863009e-7	0.09	1649.473	669.10515	-0.1114372	-0.025980945	-0.025970373	-1.8693449	5.252088	0	832.6667405452162
10.	5.2480746e-7	0.09	1505.2172	611.30035	-0.11045693	-0.025981099	-0.025969507	-1.7148299	4.7913737	0	833.5878415005841
10.	5.7543994e-7	0.09	1373.6544	558.57364	-0.10947666	-0.025981269	-0.025968558	-1.5738243	4.3711974	0	834.508949474505
10.	6.3095734e-7	0.09	1253.6677	510.47821	-0.10849639	-0.025981454	-0.025967517	-1.4451395	3.987992	0	835.4300652280273
10.	6.9183097e-7	0.09	1144.2385	466.60654	-0.10751612	-0.025981658	-0.025966376	-1.3276912	3.6385046	0	836.3511894376376
10.	7.5857758e-7	0.09	1044.4379	426.58701	-0.10653585	-0.025981881	-0.025965125	-1.2204908	3.3197682	0	837.2723229489447
10.	8.3176377e-7	0.09	953.41867	390.08066	-0.10555559	-0.025982126	-0.025963753	-1.1226367	3.0290773	0	838.1934572964652
10.	9.1201084e-7	0.09	870.40817	356.77837	-0.10457532	-0.025982394	-0.025962249	-1.0333064	2.7639641	0	839.1146122016754
10.	1.e-6	0.09	794.7017	326.39822	-0.10359505	-0.025982688	-0.0259606	-0.95174995	2.5221779	0	840.0357793682135
10.	1.0964782e-6	0.09	725.65659	298.6831	-0.10261479	-0.025983011	-0.025958791	-0.8772833	2.3016664	0	840.9569506688393
10.	1.2022644e-6	0.09	662.68671	273.3985	-0.10163453	-0.025983365	-0.025956809	-0.80928264	2.1005576	0	841.8781365984973
10.	1.3182567e-6	0.09	605.25752	250.33057	-0.10065426	-0.025983753	-0.025954635	-0.74717903	1.9171442	0	842.7993481594982
10.	1.4454398e-6	0.09	552.88148	229.28427	-0.099674002	-0.025984178	-0.025952251	-0.69045359	1.7498692	0	843.7205662035
10.	1.5848932e-6	0.09	505.11399	210.08172	-0.098693743	-0.025984645	-0.025949637	-0.63863311	1.5973127	0	844.64180463607
10.	1.7378008e-6	0.09	461.54955	192.56068	-0.097713485	-0.025985156	-0.025946771	-0.591286	1.4581796	0	845.5630634384165
10.	1.9054607e-6	0.09	421.81832	176.57321	-0.096733229	-0.025985718	-0.025943629	-0.54801864	1.3312887	0	846.4843437004358
10.	2.0892961e-6	0.09	385.58302	161.98436	-0.095752975	-0.025986333	-0.025940183	-0.50847206	1.215563	0	847.4056477898324
10.	2.2908677e-6	0.09	352.53607	148.67107	-0.094772724	-0.025987007	-0.025936405	-0.47231887	1.1100199	0	848.3269771347454
10.	2.5118864e-6	0.09	322.39692	136.52111	-0.093792475	-0.025987747	-0.025932263	-0.43926049	1.0137636	0	849.2483353806889
10.	2.7542287e-6	0.09	294.90972	125.43212	-0.092812228	-0.025988558	-0.025927721	-0.40902461	0.92597695	0	850.1697255718541
10.	3.0199517e-6	0.09	269.84113	115.31074	-0.091831984	-0.025989447	-0.025922741	-0.38136286	0.84591466	0	851.0911499819894
10.	3.3113112e-6	0.09	246.97833	106.07184	-0.090851744	-0.025990422	-0.02591728	-0.35604876	0.7728971	0	852.0126113076473
10.	3.6307805e-6	0.09	226.12725	97.637765	-0.089871507	-0.025991492	-0.025911293	-0.33287572	0.70630443	0	852.9341142936328
10.	3.9810717e-6	0.09	207.11089	89.937705	-0.088891274	-0.025992664	-0.025904729	-0.31165536	0.64557135	0	853.8556623129856
10.	4.3651583e-6	0.09	189.76781	82.907073	-0.087911045	-0.02599395	-0.025897531	-0.29221586	0.59018229	0	854.7772601856756
10.	4.7863009e-6	0.09	173.95078	76.486969	-0.086930821	-0.02599536	-0.025889639	-0.27440052	0.53966706	0	855.6989120457908
10.	5.2480746e-6	0.09	159.52554	70.623672	-0.085950601	-0.025996906	-0.025880985	-0.25806642	0.49359681	0	856.6206245830364
10.	5.7543994e-6	0.09	146.36962	65.268193	-0.084970388	-0.025998602	-0.025871497	-0.24308322	0.45158047	0	857.5424010670996
10.	6.3095734e-6	0.09	134.37135	60.37585	-0.08399018	-0.026000461	-0.025861094	-0.22933205	0.41326135	0	858.4642502265426
10.	6.9183097e-6	0.09	123.42887	55.905893	-0.083009979	-0.0260025	-0.025849687	-0.21670451	0.37831417	0	859.3861777081534
10.	7.5857758e-6	0.09	113.4493	51.821158	-0.082029786	-0.026004736	-0.025837181	-0.20510171	0.34644224	0	860.3081906056498
10.	8.3176377e-6	0.09	104.34791	48.087753	-0.0810496	-0.026007188	-0.025823468	-0.19443348	0.31737502	0	861.2302989911728
10.	9.1201084e-6	0.09	96.047441	44.674766	-0.080069424	-0.026009876	-0.025808433	-0.18461758	0.29086575	0	862.152509770528
10.	0.00001	0.09	88.477433	41.554006	-0.079089257	-0.026012824	-0.025791948	-0.175579	0.26668939	0	863.0748347070729
10.	0.000010964782	0.09	81.573623	38.699762	-0.078109101	-0.026016057	-0.025773873	-0.16724935	0.24464071	0	863.9972837602007
10.	0.000012022644	0.09	75.274278	36.08853	-0.077134473	-0.026032305	-0.025766758	-0.15956955	0.22452859	0	864.9136121088123
10.	0.000013182567	0.09	69.531901	33.699034	-0.076154872	-0.026037409	-0.025746247	-0.15247636	0.20618984	0	865.835745693478
10.	0.000014454398	0.09	64.294893	31.511718	-0.075175335	-0.026043004	-0.025723756	-0.14592094	0.18946519	0	866.7579865765068
10.	0.000015848932	0.09	59.518796	29.508797	-0.074195869	-0.026049138	-0.025699096	-0.13985595	0.17421265	0	867.6803441629478
10.	0.000017378008	0.09	55.163067	27.67405	-0.073216481	-0.026055861	-0.025672056	-0.13423823	0.16030275	0	868.6028297181894
10.	0.000019054607	0.09	51.190728	25.992682	-0.072237178	-0.026063231	-0.025642408	-0.12902841	0.14761741	0	869.525455945155
10.	0.000020892961	0.09	47.56806	24.451204	-0.071257968	-0.026071309	-0.0256099	-0.12419059	0.13604894	0	870.4482366366643
10.	0.000022908677	0.09	44.26431	23.037311	-0.07027886	-0.026080162	-0.025574257	-0.11969202	0.12549913	0	871.3711865908715
10.	0.000025118864	0.09	41.251431	21.739782	-0.069299863	-0.026089865	-0.025535177	-0.11550283	0.11587844	0	872.2943228890744
10.	0.000027542287	0.09	38.503848	20.548385	-0.068320989	-0.026100499	-0.025492329	-0.11159579	0.10710518	0	873.2176622461408
10.	0.000030199517	0.09	35.998236	19.453787	-0.067342249	-0.026112152	-0.025445352	-0.10794604	0.099104879	0	874.1412248533301
10.	0.000033113112	0.09	33.713325	18.447478	-0.066363655	-0.026124921	-0.025393848	-0.10453093	0.091809626	0	875.0650330910888
10.	0.000036307805	0.09	31.62972	17.521698	-0.06538522	-0.026138913	-0.025337385	-0.10132979	0.085157489	0	875.9891112753681
10.	0.000039810717	0.09	29.72973	16.669369	-0.064406961	-0.026154243	-0.025275487	-0.098323759	0.079091995	0	876.9134836845369
10.	0.000043651583	0.09	27.997229	15.884038	-0.063428893	-0.026171038	-0.025207635	-0.095495645	0.073561655	0	877.8381801122122
10.	0.000047863009	0.09	26.417509	15.159819	-0.062451034	-0.026189436	-0.025133263	-0.092829762	0.068519519	0	878.7632315076768
10.	0.000052480746	0.09	24.977159	14.491347	-0.061473403	-0.026209588	-0.025051751	-0.090311799	0.063922782	0	879.6886724469354
10.	0.000057543994	0.09	23.663952	13.873727	-0.060496021	-0.02623166	-0.024962423	-0.087928703	0.059732419	0	880.6145403622718
10.	0.000063095734	0.09	22.466741	13.302499	-0.059518912	-0.026255831	-0.024864543	-0.085668565	0.055912854	0	881.5408749409261
10.	0.000069183097	0.09	21.37536	12.773595	-0.058542099	-0.026282297	-0.024757312	-0.083520521	0.052431656	0	882.4677221370399
10.	0.000075857758	0.09	20.380544	12.283306	-0.05756561	-0.026311272	-0.024639858	-0.081474657	0.049259267	0	883.3951293798716
10.	0.000083176377	0.09	19.473846	11.828251	-0.056589475	-0.02634299	-0.024511239	-0.079521928	0.046368744	0	884.3231481388116
10.	0.000091201084	0.09	18.647568	11.405348	-0.055613724	-0.026377704	-0.024370436	-0.077654079	0.043735538	0	885.2518363944373
10.	0.0001	0.09	17.894691	11.011786	-0.054638392	-0.026415691	-0.024216349	-0.075863575	0.041337275	0	886.1812542789312
10.	0.00010964782	0.09	17.208818	10.645004	-0.053663516	-0.02645725	-0.024047799	-0.07414354	0.039153572	0	887.1114667256545
10.	0.00012022644	0.09	16.584121	10.302668	-0.052689135	-0.026502709	-0.023863522	-0.072487696	0.037165859	0	888.042543976513
10.	0.00013182567	0.09	16.015287	9.9826496	-0.051715292	-0.02655242	-0.023662177	-0.07089031	0.035357219	0	888.9745590263387
10.	0.00014454398	0.09	15.497474	9.6830091	-0.050742034	-0.026606768	-0.023442346	-0.069346146	0.033712243	0	889.9075876228902
10.	0.00015848932	0.09	15.026267	9.4019783	-0.04976941	-0.026666168	-0.02320254	-0.067850425	0.032216892	0	890.8417096386174
10.	0.00017378008	0.09	14.597645	9.1379449	-0.048797472	-0.026731071	-0.022941218	-0.066398775	0.030858377	0	891.777006524441
10.	0.00019054607	0.09	14.207936	8.889439	-0.047826277	-0.026801962	-0.022656796	-0.064987207	0.029625042	0	892.7135586695724
10.	0.00020892961	0.09	13.853793	8.6551192	-0.046855885	-0.026879367	-0.022347676	-0.063612072	0.028506259	0	893.6514448283788
10.	0.00022908677	0.09	13.532157	8.433761	-0.045886359	-0.026963851	-0.022012274	-0.062270035	0.027492333	0	894.5907397526797
10.	0.00025118864	0.09	13.240231	8.2242459	-0.044917766	-0.027056021	-0.021649058	-0.060958049	0.026574403	0	895.5315100388673
10.	0.00027542287	0.09	12.975453	8.0255506	-0.043950178	-0.027156531	-0.02125659	-0.05967333	0.025744364	0	896.4738096367837
10.	0.00030199517	0.09	12.735472	7.8367376	-0.042983667	-0.027266081	-0.020833585	-0.058413333	0.024994784	0	897.4176795584564
10.	0.00033113112	0.09	12.518125	7.6569469	-0.042018312	-0.027385419	-0.02037896	-0.057175733	0.024318831	0	898.3631371576577
10.	0.00036307805	0.09	12.321412	7.4853873	-0.041054193	-0.027515344	-0.019891897	-0.055958413	0.023710205	0	899.3101764399603
10.	0.00039810717	0.09	12.143485	7.3213298	-0.040091392	-0.027656706	-0.019371902	-0.054759441	0.023163077	0	900.2587621340812
10.	0.00043651583	0.09	11.982624	7.1641007	-0.039129994	-0.027810407	-0.018818854	-0.05357706	0.022672035	0	901.2088246088323
10.	0.00047863009	0.09	11.837227	7.0130767	-0.038170084	-0.027977402	-0.018233044	-0.052409678	0.022232035	0	902.1602593939422
10.	0.00052480746	0.09	11.705797	6.8676797	-0.037211748	-0.028158698	-0.017615201	-0.051255852	0.021838369	0	903.1129240419084
10.	0.00057543994	0.09	11.586933	6.7273738	-0.036255073	-0.028355352	-0.016966488	-0.050114284	0.021486631	0	904.0666384662403
10.	0.00063095734	0.09	11.479327	6.5916619	-0.035300141	-0.028568471	-0.016288489	-0.048983804	0.021172698	0	905.0211916781425
10.	0.00069183097	0.09	11.381759	6.4600842	-0.034347033	-0.028799209	-0.015583155	-0.047863372	0.020892721	0	905.9763425945424
10.	0.00075857758	0.09	11.293093	6.3322167	-0.033395825	-0.029048761	-0.01485275	-0.046752059	0.020643112	0	906.9318283626371
10.	0.00083176377	0.09	11.212284	6.2076701	-0.032446586	-0.029318361	-0.014099769	-0.045649044	0.02042055	0	907.8873731730184
10.	0.00091201084	0.09	11.138371	6.0860891	-0.031499377	-0.029609273	-0.013326853	-0.044553606	0.020221975	0	908.8426963869119
10.	0.001	0.09	11.070483	5.9671515	-0.030554249	-0.029922787	-0.012536706	-0.04346511	0.020044591	0	909.7975214338616
10.	0.0010964782	0.09	11.007839	5.8505678	-0.029611241	-0.030260204	-0.011732011	-0.042383007	0.019885868	0	910.751584793973
10.	0.0012022644	0.09	10.949747	5.7360794	-0.028670378	-0.030622834	-0.01091536	-0.041306816	0.019743535	0	911.7046437963078
10.	0.0013182567	0.09	10.895601	5.6234581	-0.027731667	-0.031011979	-0.010089196	-0.040236122	0.019615575	0	912.6564852816753
10.	0.0014454398	0.09	10.844883	5.5125035	-0.026795098	-0.031428921	-0.0092557606	-0.039170563	0.01950022	0	913.6069290940567
10.	0.0015848932	0.09	10.797156	5.4030421	-0.025860641	-0.031874915	-0.0084170664	-0.038109827	0.019395935	0	914.5558332331826
10.	0.0017378008	0.09	10.752061	5.2949246	-0.024928245	-0.03235117	-0.0075748682	-0.037053637	0.019301406	0	915.5030972294509
10.	0.0019054607	0.09	10.709314	5.1880241	-0.023997834	-0.03285884	-0.0067306518	-0.036001751	0.019215527	0	916.4486668492705
10.	0.0020892961	0.09	10.668698	5.0822339	-0.023069313	-0.033399016	-0.005885627	-0.034953949	0.019137381	0	917.3925290495953
10.	0.0022908677	0.09	10.63006	4.9774652	-0.02214256	-0.033972708	-0.0050407284	-0.033910031	0.019066222	0	918.334719426798
10.	0.0025118864	0.09	10.593302	4.8736448	-0.021217429	-0.034580848	-0.0041966193	-0.032869808	0.019001462	0	919.275319068187
10.	0.0027542287	0.09	10.558376	4.7707132	-0.020293753	-0.035224281	-0.0033537062	-0.031833098	0.018942648	0	920.2144505071774
10.	0.0030199517	0.09	10.52528	4.6686221	-0.019371342	-0.035903765	-0.0025121495	-0.030799722	0.018889447	0	921.1522786976205
10.	0.0033113112	0.09	10.494048	4.5673328	-0.018449985	-0.036619983	-0.0016718879	-0.0297695	0.018841625	0	922.0890070713872
10.	0.0036307805	0.09	10.464743	4.4668138	-0.01752945	-0.037373551	-0.00083266085	-0.028742245	0.018799033	0	923.024875639976
10.	0.0039810717	0.09	10.437454	4.3670388	-0.01660949	-0.038165039	5.957771e-6	-0.027717765	0.018761587	0	923.9601525091961
10.	0.0043651583	0.09	10.412287	4.2679854	-0.01568984	-0.038994991	0.00084452822	-0.026695857	0.018729248	0	924.8951340396908
10.	0.0047863009	0.09	10.389354	4.1696326	-0.014770222	-0.039863969	0.0016836948	-0.025676308	0.018702007	0	925.8301359134572
10.	0.0052480746	0.09	10.368774	4.0719594	-0.013850351	-0.040772589	0.0025241404	-0.024658892	0.018679865	0	926.765483652316
10.	0.0057543994	0.09	10.350654	3.9749429	-0.012929932	-0.041721572	0.0033665265	-0.023643374	0.018662816	0	927.7015103633769
10.	0.0063095734	0.09	10.335089	3.8785568	-0.012008674	-0.042711808	0.0042114268	-0.022629507	0.018650823	0	928.6385379727348
10.	0.0069183097	0.09	10.322143	3.7827694	-0.011086289	-0.043744419	0.0050592583	-0.021617039	0.018643805	0	929.5768723370982
10.	0.0075857758	0.09	10.311842	3.6875426	-0.010162508	-0.044820836	0.0059102	-0.020605709	0.018641615	0	930.5167813359435
10.	0.0083176377	0.09	10.304158	3.5928302	-0.00923709	-0.045942874	0.0067641161	-0.019595261	0.018644018	0	931.458479921153
10.	0.0091201084	0.09	10.298998	3.4985777	-0.0083098354	-0.047112809	0.0076204785	-0.018585442	0.018650688	0	932.4021109733685
10.	0.01	0.09	10.296184	3.4047222	-0.0073806042	-0.048333432	0.0084783045	-0.017576011	0.018661194	0	933.347722933761
10.	0.010964782	0.09	10.295447	3.3111942	-0.0064493324	-0.049608093	0.0093361214	-0.016566752	0.018675014	0	934.2952514017027
10.	0.012022644	0.09	10.296423	3.2179219	-0.0055160466	-0.050940688	0.010191972	-0.015557477	0.018691571	0	935.2445058821979
10.	0.013182567	0.09	10.298648	3.124838	-0.0045808799	-0.052335576	0.0110435	-0.014548042	0.018710294	0	936.1951620682938
10.	0.014454398	0.09	10.301575	3.0318898	-0.0036440884	-0.053797401	0.011888126	-0.013538349	0.018730719	0	937.1467612209661
10.	0.015848932	0.09	10.304574	2.939053	-0.002706079	-0.055330788	0.012723357	-0.012528361	0.018752625	0	938.0987102207965
10.	0.017378008	0.09	10.30692	2.8463459	-0.001767474	-0.056939888	0.013547237	-0.011518104	0.018776179	0	939.0502589751835
10.	0.019054607	0.09	10.307732	2.7538428	-0.00082924596	-0.058627762	0.014358967	-0.010507684	0.018802069	0	940.0004261363059
10.	0.020892961	0.09	10.305801	2.6616824	0.00010701429	-0.060395631	0.015159657	-0.0094973069	0.018831563	0	940.9478108779964
10.	0.022908677	0.09	10.299266	2.5700655	0.0010386228	-0.062242019	0.015953179	-0.0084873256	0.018866445	0	941.8902188735674
10.	0.025118864	0.09	10.285028	2.4792381	0.0019610231	-0.064161952	0.016746977	-0.0074783301	0.018908745	0	942.8239984928898
10.	0.027542287	0.09	10.257833	2.3894522	0.0028666042	-0.066146555	0.01755247	-0.0064713105	0.018960153	0	943.7429643141868
10.	0.030199517	0.09	10.20893	2.3008879	0.0037430775	-0.068183878	0.018384221	-0.0054679308	0.019020924	0	944.6368018548155
10.	0.033113112	0.09	10.124517	2.2135132	0.0045717462	-0.070262723	0.01925612	-0.0044709489	0.019087958	0	945.4891187999839
10.	0.036307805	0.09	9.9852289	2.12685	0.0053273166	-0.072382633	0.020171399	-0.0034847555	0.019151775	0	946.2764233663681
10.	0.039810717	0.09	9.7706865	2.0397271	0.0059839977	-0.074572141	0.021104373	-0.0025157646	0.019193498	0	946.9723112777845
10.	0.043651583	0.09	9.4743145	1.9505505	0.0065327847	-0.076899603	0.021989626	-0.0015718696	0.019188267	0	947.5627903015455
10.	0.047863009	0.09	9.1182771	1.8586126	0.0069963542	-0.079437634	0.022757563	-0.00066024744	0.019121374	0	948.0632815707188
10.	0.052480746	0.09	8.7442144	1.7649485	0.007416635	-0.082205778	0.02339175	0.00021523348	0.018999967	0	948.5117902594249
10.	0.057543994	0.09	8.3918895	1.6713953	0.0078326886	-0.085168247	0.023931179	0.0010548226	0.018843849	0	948.9483143974743
10.	0.063095734	0.09	8.0934931	1.5794318	0.008277138	-0.088268456	0.024435733	0.0018622717	0.018672511	0	949.4085691845469
10.	0.069183097	0.09	7.8799526	1.4898768	0.0087845556	-0.091452852	0.024962358	0.0026443615	0.018501447	0	949.929853053707
10.	0.075857758	0.09	7.7876264	1.4030631	0.0093996572	-0.09468028	0.025555704	0.003411129	0.018344237	0	950.5579550645909
10.	0.083176377	0.09	7.8619323	1.3190692	0.010182281	-0.097926251	0.02624386	0.004176601	0.018215744	0	951.351472347126
10.	0.091201084	0.09	8.1582916	1.2378788	0.011209657	-0.10118641	0.027034885	0.0049597485	0.018134764	0	952.383649009436
10.	0.1	0.09	8.7413127	1.1594668	0.012576781	-0.10447974	0.027913619	0.0057854364	0.018125896	0	953.7424578706334
10.	0.10964782	0.09	9.6831384	1.0838365	0.014395675	-0.10785079	0.028839437	0.0066852475	0.018220757	0	955.529715634545
10.	0.12022644	0.09	11.061929	1.011035	0.016794487	-0.11137034	0.029745619	0.0076981398	0.018458807	0	957.8601838196286
10.	0.13182567	0.09	12.961505	0.94116744	0.01991758	-0.11513425	0.030540462	0.0088710071	0.018888059	0	960.8617464119903
10.	0.14454398	0.09	15.473245	0.87441739	0.023927922	-0.11926086	0.031109929	0.010259302	0.019565918	0	964.677879428345
10.	0.15848932	0.09	18.694978	0.81115016	0.029006661	-0.12389031	0.031318303	0.011927834	0.020561083	0	969.4673069035604
10.	0.17378008	0.09	22.767791	0.75160676	0.035392075	-0.12916083	0.031031918	0.013952688	0.021952204	0	975.4426036753171
10.	0.19054607	0.09	27.820245	0.69545786	0.043319751	-0.13517774	0.030150152	0.016423568	0.023825479	0	982.8166104407069
10.	0.20892961	0.09	34.014043	0.64283278	0.053075319	-0.14205394	0.028564945	0.019444272	0.026286082	0	991.8485576017956
10.	0.22908677	0.09	41.526693	0.59384513	0.064975742	-0.14987825	0.026192462	0.023135293	0.029455717	0	1002.829163449115
10.	0.25118864	0.09	50.539166	0.54858497	0.079356308	-0.15870559	0.022982913	0.027634827	0.033473538	0	1016.0692426834455
10.	0.27542287	0.09	61.216133	0.50710606	0.096548237	-0.16854829	0.018929278	0.0330982	0.038495441	0	1031.8794045226264
10.	0.30199517	0.09	73.681538	0.46940968	0.11684941	-0.17937055	0.014072799	0.039695087	0.044691117	0	1050.5430150925558
10.	0.33113112	0.09	87.995122	0.43542953	0.14049423	-0.1910887	0.0085027938	0.047604339	0.052238711	0	1072.2878641218713
10.	0.36307805	0.09	104.13682	0.40502316	0.16763048	-0.20357842	0.0023493449	0.057006828	0.061317578	0	1097.2638032875595
10.	0.39810717	0.09	122.00424	0.37797409	0.19830991	-0.21668857	-0.0042304102	0.068077387	0.072100248	0	1125.532742782
10.	0.43651583	0.09	141.42415	0.35400535	0.23249426	-0.23025828	-0.011069452	0.080977194	0.084744951	0	1157.0728581510489
10.	0.47863009	0.09	162.17403	0.33280107	0.27007388	-0.24413368	-0.018007573	0.09584783	0.099389905	0	1191.7946733415022
10.	0.52480746	0.09	184.0075	0.31403045	0.3108923	-0.25818089	-0.024904355	0.11280769	0.11614998	0	1229.5630484498158
10.	0.57543994	0.09	206.67763	0.29736918	0.35477056	-0.27229378	-0.031646912	0.1319508	0.13511577	0	1270.219384600623
10.	0.63095734	0.09	229.9546	0.28251504	0.40152719	-0.28639662	-0.038152574	0.15334774	0.15635461	0	1313.6001695179323
10.	0.69183097	0.09	253.63679	0.26919707	0.45099213	-0.3004429	-0.044367682	0.17704784	0.17991296	0	1359.5501581706637
10.	0.75857758	0.09	277.55604	0.25717927	0.50301503	-0.31441175	-0.05026397	0.20308229	0.20581951	0	1407.930477106321
10.	0.83176377	0.09	301.57852	0.24626032	0.55746919	-0.32830315	-0.055833812	0.23146752	0.23408852	0	1458.622728256341
10.	0.91201084	0.09	325.60293	0.23627101	0.61425241	-0.342133	-0.061085271	0.26220841	0.26472309	0	1511.530206227567
10.	1.	0.09	349.5571	0.22707056	0.67328605	-0.35592858	-0.06603753	0.29530139	0.29771815	0	1566.5774014694848
10.	1.0964782	0.09	373.39406	0.21854263	0.73451311	-0.36972463	-0.070716999	0.33073709	0.33306309	0	1623.708525504264
10.	1.2022644	0.09	397.08798	0.21059143	0.79789592	-0.38356028	-0.075154209	0.3685026	0.37074397	0	1682.885603176897
10.	1.3182567	0.09	420.63038	0.20313827	0.86341382	-0.39747668	-0.079381462	0.40858334	0.41074539	0	1744.0864915816583
10.	1.4454398	0.09	444.0268	0.19611848	0.93106091	-0.41151536	-0.083431147	0.45096465	0.45305198	0	1807.3029084405923
10.	1.5848932	0.09	467.29383	0.1894789	1.0008441	-0.42571709	-0.087334611	0.49563293	0.4976496	0	1872.5386954203154
10.	1.7378008	0.09	490.45668	0.1831757	1.0727814	-0.44012117	-0.09112146	0.54257669	0.54452627	0	1939.808270583323
10.	1.9054607	0.09	513.54716	0.17717265	1.1469004	-0.45476509	-0.094819168	0.59178722	0.59367291	0	2009.135233311963
10.	2.0892961	0.09	536.60199	0.17143964	1.2232372	-0.46968436	-0.098452927	0.64325919	0.64508386	0	2080.5513716576447
10.	2.2908677	0.09	559.66147	0.16595156	1.3018351	-0.48491252	-0.10204564	0.69699106	0.69875731	0	2154.095432102153
10.	2.5118864	0.09	582.76841	0.16068732	1.3827442	-0.50048125	-0.10561803	0.75298536	0.75469559	0	2229.8127345143766
10.	2.7542287	0.09	605.96729	0.15562912	1.4660202	-0.51642053	-0.10918875	0.81124892	0.81290531	0	2307.754035370187
10.	3.0199517	0.09	629.3036	0.15076182	1.5517243	-0.53275884	-0.11277463	0.87179297	0.87339757	0	2387.975412909369
10.	3.3113112	0.09	652.82336	0.14607242	1.6399226	-0.54952334	-0.11639082	0.93463325	0.93618793	0	2470.5376913042023
10.	3.6307805	0.09	676.57271	0.14154973	1.7306857	-0.56674012	-0.12005099	0.99978998	1.0012965	0	2555.5060479211475
10.	3.9810717	0.09	700.59767	0.13718398	1.8240885	-0.58443433	-0.12376753	1.0672879	1.068748	0	2642.949808495597
10.	4.3651583	0.09	724.94393	0.1329666	1.9202098	-0.60263043	-0.12755172	1.1371564	1.1385716	0	2732.9420569303893
10.	4.7863009	0.09	749.6567	0.12889002	2.0191324	-0.6213523	-0.13141385	1.2094291	1.2108009	0	2825.5597191050315
10.	5.2480746	0.09	774.78067	0.12494747	2.1209428	-0.64062343	-0.13536342	1.284144	1.2854739	0	2920.8832640939254
10.	5.7543994	0.09	800.35994	0.12113286	2.2257313	-0.66046704	-0.13940919	1.3613438	1.3626331	0	3018.9967938948544
10.	6.3095734	0.09	826.43802	0.11744066	2.3335916	-0.68090622	-0.14355935	1.4410752	1.4423251	0	3119.987653227493
10.	6.9183097	0.09	853.05786	0.11386583	2.4446213	-0.701964	-0.14782161	1.5233891	1.524601	0	3223.946891705606
10.	7.5857758	0.09	880.26187	0.11040375	2.5589211	-0.72366351	-0.15220323	1.6083408	1.6095159	0	3330.968509647938
10.	8.3176377	0.09	908.09198	0.10705011	2.6765958	-0.74602802	-0.15671118	1.6959896	1.697129	0	3441.1503841138247
10.	9.1201084	0.09	936.5897	0.10380091	2.7977536	-0.76908106	-0.16135214	1.7863989	1.7875037	0	3554.5936112074482
10.	10.	0.09	965.79619	0.10065243	2.9225062	-0.79284644	-0.16613259	1.8796362	1.8807075	0	3671.4025924238917