100.	1.e-12	0.48	7.8690756e12	3.1632248e11	-1.	-5.0273312e-11	-4.9095746e-11	-8.3752297e9	2.5291665e10	0	-2.2141757651520524e-8
100.	1.0964782e-12	0.48	7.1766822e12	2.8848953e11	-1.	-5.5123573e-11	-5.3832389e-11	-7.6383003e9	2.3066273e10	0	-2.427794275781815e-8
100.	1.2022644e-12	0.48	6.545212e12	2.6310557e11	-1.	-6.0441859e-11	-5.9026046e-11	-6.9662126e9	2.1036691e10	0	-2.6620237233170924e-8
100.	1.3182567e-12	0.48	5.9693043e12	2.3995514e11	-1.	-6.6273183e-11	-6.4720761e-11	-6.3532614e9	1.918569e10	0	-2.9188504541391046e-8
100.	1.4454398e-12	0.48	5.4440702e12	2.1884169e11	-1.	-7.2667154e-11	-7.0965056e-11	-5.7942433e9	1.7497557e10	0	-3.200462768563661e-8
100.	1.5848932e-12	0.48	4.965051e12	1.9958599e11	-1.	-7.9677859e-11	-7.7811443e-11	-5.2844127e9	1.5957962e10	0	-3.509228912462402e-8
100.	1.7378008e-12	0.48	4.5281804e12	1.8202459e11	-1.	-8.7365072e-11	-8.5318609e-11	-4.8194417e9	1.4553834e10	0	-3.847795618876711e-8
100.	1.9054607e-12	0.48	4.1297496e12	1.6600839e11	-1.	-9.5793889e-11	-9.3550077e-11	-4.395383e9	1.3273254e10	0	-4.219027720273534e-8
100.	2.0892961e-12	0.48	3.7663764e12	1.5140146e11	-1.	-1.0503582e-10	-1.0257542e-10	-4.008637e9	1.2105352e10	0	-4.626062898897456e-8
100.	2.2908677e-12	0.48	3.4349761e12	1.3807977e11	-1.	-1.1516952e-10	-1.1247184e-10	-3.6559204e9	1.1040212e10	0	-5.072382898307712e-8
100.	2.5118864e-12	0.48	3.1327354e12	1.2593025e11	-1.	-1.2628102e-10	-1.2332307e-10	-3.334239e9	1.0068793e10	0	-5.5617640045259756e-8
100.	2.7542287e-12	0.48	2.8570887e12	1.1484975e11	-1.	-1.3846433e-10	-1.3522094e-10	-3.0408621e9	9.1828485e9	0	-6.098347671284591e-8
100.	3.0199517e-12	0.48	2.6056958e12	1.0474422e11	-1.	-1.518229e-10	-1.4826661e-10	-2.7732992e9	8.3748574e9	0	-6.686696127262247e-8
100.	3.3113112e-12	0.48	2.3764228e12	9.552786e10	-1.	-1.6647072e-10	-1.6257128e-10	-2.5292789e9	7.6379607e9	0	-7.331824396471104e-8
100.	3.6307805e-12	0.48	2.1673234e12	8.7122444e10	-1.	-1.8253134e-10	-1.782557e-10	-2.3067298e9	6.965903e9	0	-8.039178199679759e-8
100.	3.9810717e-12	0.48	1.9766224e12	7.9456613e10	-1.	-2.0014183e-10	-1.9545371e-10	-2.1037626e9	6.352979e9	0	-8.814793605357528e-8
100.	4.3651583e-12	0.48	1.8027011e12	7.2465293e10	-1.	-2.1945104e-10	-2.1431062e-10	-1.9186543e9	5.7939857e9	0	-9.665223969072815e-8
100.	4.7863009e-12	0.48	1.6440829e12	6.6089132e10	-1.	-2.4062339e-10	-2.3498712e-10	-1.7498335e9	5.2841778e9	0	-1.0597716271118015e-7
100.	5.2480746e-12	0.48	1.4994214e12	6.0274005e10	-1.	-2.6383809e-10	-2.5765793e-10	-1.5958671e9	4.8192274e9	0	-1.1620150232674823e-7
100.	5.7543994e-12	0.48	1.3674886e12	5.4970546e10	-1.	-2.8929285e-10	-2.8251652e-10	-1.4554481e9	4.3951876e9	0	-1.2741251183739935e-7
100.	6.3095734e-12	0.48	1.2471644e12	5.0133734e10	-1.	-3.172033e-10	-3.0977321e-10	-1.3273845e9	4.0084588e9	0	-1.3970504374765128e-7
100.	6.9183097e-12	0.48	1.1374275e12	4.5722509e10	-1.	-3.4780635e-10	-3.3965934e-10	-1.210589e9	3.6557578e9	0	-1.531834304005771e-7
100.	7.5857758e-12	0.48	1.0373462e12	4.1699423e10	-1.	-3.8136214e-10	-3.7242912e-10	-1.1040703e9	3.3340908e9	0	-1.6796231831183615e-7
100.	8.3176377e-12	0.48	9.4607097e11	3.8030326e10	-1.	-4.1815539e-10	-4.0836061e-10	-1.0069241e9	3.0407269e9	0	-1.841671101412145e-7
100.	9.1201084e-12	0.48	8.6282698e11	3.468407e10	-0.99999999	-4.5849816e-10	-4.4775838e-10	-9.1832568e8	2.7731759e9	0	9.193718382881232e-6
100.	1.e-11	0.48	7.8690756e11	3.1632248e10	-0.99999999	-5.0273337e-10	-4.9095734e-10	-8.3752297e8	2.5291665e9	0	9.174236024814656e-6
100.	1.0964782e-11	0.48	7.1766822e11	2.8848953e10	-0.99999999	-5.5123609e-10	-5.3832401e-10	-7.6383003e8	2.3066273e9	0	9.152874065513752e-6
100.	1.2022644e-11	0.48	6.545212e11	2.6310557e10	-0.99999999	-6.0441847e-10	-5.902607e-10	-6.9662126e8	2.1036691e9	0	9.12945106664126e-6
100.	1.3182567e-11	0.48	5.9693043e11	2.3995514e10	-0.99999999	-6.6273135e-10	-6.4720761e-10	-6.3532614e8	1.918569e9	0	9.103768501796987e-6
100.	1.4454398e-11	0.48	5.4440702e11	2.1884169e10	-0.99999999	-7.266707e-10	-7.0964923e-10	-5.7942433e8	1.7497557e9	0	9.075607870173051e-6
100.	1.5848932e-11	0.48	4.965051e11	1.9958599e10	-0.99999999	-7.9677871e-10	-7.7811504e-10	-5.2844127e8	1.5957962e9	0	9.044730380859922e-6
100.	1.7378008e-11	0.48	4.5281804e11	1.8202459e10	-0.99999999	-8.736506e-10	-8.5318633e-10	-4.8194417e8	1.4553834e9	0	9.010873877085298e-6
100.	1.9054607e-11	0.48	4.1297496e11	1.6600839e10	-0.99999999	-9.5793853e-10	-9.3549992e-10	-4.395383e8	1.3273254e9	0	8.973751158526207e-6
100.	2.0892961e-11	0.48	3.7663764e11	1.5140146e10	-0.99999999	-1.0503591e-9	-1.0257555e-9	-4.008637e8	1.2105352e9	0	8.933046671032372e-6
100.	2.2908677e-11	0.48	3.4349761e11	1.3807977e10	-0.99999999	-1.1516958e-9	-1.1247187e-9	-3.6559204e8	1.1040212e9	0	8.888415122082715e-6
100.	2.5118864e-11	0.48	3.1327354e11	1.2593025e10	-0.99999999	-1.2628092e-9	-1.2332293e-9	-3.334239e8	1.0068793e9	0	8.839477778146213e-6
100.	2.7542287e-11	0.48	2.8570887e11	1.1484975e10	-0.99999998	-1.3846428e-9	-1.3522091e-9	-3.0408621e8	9.1828485e8	0	0.000018181472358278035
100.	3.0199517e-11	0.48	2.6056958e11	1.0474422e10	-0.99999998	-1.5182307e-9	-1.4826679e-9	-2.7732992e8	8.3748574e8	0	0.000018122636565598397
100.	3.3113112e-11	0.48	2.3764228e11	9.552786e9	-0.99999998	-1.6647069e-9	-1.625713e-9	-2.5292789e8	7.6379607e8	0	0.0000180581244602637
100.	3.6307805e-11	0.48	2.1673234e11	8.7122444e9	-0.99999998	-1.8253151e-9	-1.7825591e-9	-2.3067298e8	6.9659029e8	0	0.000017987388223059236
100.	3.9810717e-11	0.48	1.9766224e11	7.9456613e9	-0.99999998	-2.0014181e-9	-1.9545371e-9	-2.1037626e8	6.352979e8	0	0.00001790982762957333
100.	4.3651583e-11	0.48	1.8027011e11	7.2465293e9	-0.99999997	-2.1945112e-9	-2.1431073e-9	-1.9186543e8	5.7939857e8	0	0.000027220437644322197
100.	4.7863009e-11	0.48	1.6440829e11	6.6089132e9	-0.99999997	-2.4062339e-9	-2.3498706e-9	-1.7498335e8	5.2841778e8	0	0.000027127189180803
100.	5.2480746e-11	0.48	1.4994214e11	6.0274005e9	-0.99999997	-2.6383831e-9	-2.5765819e-9	-1.5958671e8	4.8192274e8	0	0.000027024944341474942
100.	5.7543994e-11	0.48	1.3674886e11	5.4970546e9	-0.99999997	-2.8929296e-9	-2.825166e-9	-1.4554481e8	4.3951876e8	0	0.000026912835058152894
100.	6.3095734e-11	0.48	1.2471644e11	5.0133734e9	-0.99999996	-3.1720345e-9	-3.0977331e-9	-1.3273845e8	4.0084588e8	0	0.000036185563091750284
100.	6.9183097e-11	0.48	1.1374275e11	4.5722509e9	-0.99999996	-3.4780667e-9	-3.396597e-9	-1.210589e8	3.6557578e8	0	0.000036050778052643474
100.	7.5857758e-11	0.48	1.0373462e11	4.1699423e9	-0.99999996	-3.8136245e-9	-3.7242947e-9	-1.1040703e8	3.3340908e8	0	0.00003590298921863002
100.	8.3176377e-11	0.48	9.4607097e10	3.8030326e9	-0.99999995	-4.1815567e-9	-4.0836086e-9	-1.0069241e8	3.0407269e8	0	0.0000451365952985385
100.	9.1201084e-11	0.48	8.6282698e10	3.468407e9	-0.99999995	-4.5849861e-9	-4.477588e-9	-9.1832569e7	2.7731759e8	0	0.00004495891398996868
100.	1.e-10	0.48	7.8690756e10	3.1632248e9	-0.99999994	-5.0273379e-9	-4.9095783e-9	-8.3752298e7	2.5291665e8	0	0.00005415974353650714
100.	1.0964782e-10	0.48	7.1766822e10	2.8848953e9	-0.99999994	-5.5123666e-9	-5.3832457e-9	-7.6383004e7	2.3066272e8	0	0.000053946123627804135
100.	1.2022644e-10	0.48	6.545212e10	2.6310557e9	-0.99999993	-6.0441904e-9	-5.9026122e-9	-6.9662127e7	2.1036691e8	0	0.00006310754736668666
100.	1.3182567e-10	0.48	5.9693043e10	2.3995514e9	-0.99999992	-6.6273238e-9	-6.4720863e-9	-6.3532615e7	1.918569e8	0	0.00007224637290618527
100.	1.4454398e-10	0.48	5.4440702e10	2.1884169e9	-0.99999992	-7.266717e-9	-7.0965025e-9	-5.7942434e7	1.7497557e8	0	0.00007196476658994592
100.	1.5848932e-10	0.48	4.965051e10	1.9958599e9	-0.99999991	-7.9677978e-9	-7.7811613e-9	-5.2844128e7	1.5957962e8	0	0.00008105164492833158
100.	1.7378008e-10	0.48	4.5281804e10	1.8202459e9	-0.9999999	-8.7365181e-9	-8.5318753e-9	-4.8194418e7	1.4553834e8	0	0.00009010873283739302
100.	1.9054607e-10	0.48	4.1297496e10	1.6600839e9	-0.99999989	-9.5792895e-9	-9.3549031e-9	-4.3953831e7	1.3273254e8	0	0.00009913320795117989
100.	2.0892961e-10	0.48	3.7663764e10	1.5140146e9	-0.99999988	-1.0503841e-8	-1.0257806e-8	-4.0086371e7	1.2105352e8	0	0.00010812166008434862
100.	2.2908677e-10	0.48	3.4349761e10	1.3807977e9	-0.99999987	-1.1516576e-8	-1.1246804e-8	-3.6559205e7	1.1040212e8	0	0.00011707128396627753
100.	2.5118864e-10	0.48	3.1327354e10	1.2593025e9	-0.99999985	-1.2628562e-8	-1.2332763e-8	-3.3342391e7	1.0068793e8	0	0.0001353728328213847
100.	2.7542287e-10	0.48	2.8570887e10	1.1484975e9	-0.99999984	-1.3846843e-8	-1.3522506e-8	-3.0408622e7	9.1828484e7	0	0.0001442319225454572
100.	3.0199517e-10	0.48	2.6056958e10	1.0474422e9	-0.99999983	-1.5181981e-8	-1.4826352e-8	-2.7732993e7	8.3748573e7	0	0.00015303955269715404
100.	3.3113112e-10	0.48	2.3764228e10	9.552786e8	-0.99999981	-1.664734e-8	-1.6257402e-8	-2.529279e7	7.6379606e7	0	0.00017118546849008675
100.	3.6307805e-10	0.48	2.1673234e10	8.7122444e8	-0.99999979	-1.8253084e-8	-1.7825524e-8	-2.3067299e7	6.9659029e7	0	0.0001892695659942249
100.	3.9810717e-10	0.48	1.9766224e10	7.9456613e8	-0.99999977	-2.0014396e-8	-1.9545586e-8	-2.1037627e7	6.3529789e7	0	0.0002072851399742219
100.	4.3651583e-10	0.48	1.8027011e10	7.2465293e8	-0.99999975	-2.1945303e-8	-2.1431263e-8	-1.9186544e7	5.7939856e7	0	0.00022522602291449485
100.	4.7863009e-10	0.48	1.6440829e10	6.6089132e8	-0.99999972	-2.4062576e-8	-2.3498943e-8	-1.7498336e7	5.2841777e7	0	0.0002524804775157159
100.	5.2480746e-10	0.48	1.4994214e10	6.0274005e8	-0.9999997	-2.638378e-8	-2.5765768e-8	-1.5958672e7	4.8192273e7	0	0.00027024946599805836
100.	5.7543994e-10	0.48	1.3674886e10	5.4970546e8	-0.99999967	-2.8929045e-8	-2.8251409e-8	-1.4554482e7	4.3951875e7	0	0.00029731542390043145
100.	6.3095734e-10	0.48	1.2471644e10	5.0133734e8	-0.99999963	-3.1720352e-8	-3.0977339e-8	-1.3273846e7	4.0084587e7	0	0.0003336686669808774
100.	6.9183097e-10	0.48	1.1374275e10	4.5722509e8	-0.9999996	-3.4780866e-8	-3.3966169e-8	-1.2105891e7	3.6557577e7	0	0.00036050769098777794
100.	7.5857758e-10	0.48	1.0373462e10	4.1699423e8	-0.99999956	-3.8136061e-8	-3.7242762e-8	-1.1040704e7	3.3340907e7	0	0.0003966125898085469
100.	8.3176377e-10	0.48	9.4607097e9	3.8030326e8	-0.99999952	-4.1815533e-8	-4.0836051e-8	-1.0069242e7	3.0407268e7	0	0.0004325746614670357
100.	9.1201084e-10	0.48	8.6282698e9	3.468407e8	-0.99999947	-4.5849525e-8	-4.4775545e-8	-9.1832578e6	2.7731758e7	0	0.0004777762512061769
100.	1.e-9	0.48	7.8690756e9	3.1632248e8	-0.99999942	-5.0273447e-8	-4.9095851e-8	-8.3752307e6	2.5291664e7	0	0.0005228060980204874
100.	1.0964782e-9	0.48	7.1766822e9	2.8848953e8	-0.99999937	-5.5123657e-8	-5.3832448e-8	-7.6383013e6	2.3066272e7	0	0.0005676482010829091
100.	1.2022644e-9	0.48	6.545212e9	2.6310557e8	-0.9999993	-6.0441859e-8	-5.9026077e-8	-6.9662136e6	2.103669e7	0	0.0006310754937528527
100.	1.3182567e-9	0.48	5.9693043e9	2.3995514e8	-0.99999924	-6.6273085e-8	-6.472071e-8	-6.3532624e6	1.9185689e7	0	0.0006848811845005648
100.	1.4454398e-9	0.48	5.4440702e9	2.1884169e8	-0.99999916	-7.2667062e-8	-7.0964917e-8	-5.7942443e6	1.7497556e7	0	0.0007572303290039959
100.	1.5848932e-9	0.48	4.965051e9	1.9958599e8	-0.99999908	-7.9677987e-8	-7.7811622e-8	-5.2844137e6	1.5957961e7	0	0.0008293077521101898
100.	1.7378008e-9	0.48	4.5281804e9	1.8202459e8	-0.99999899	-8.7365014e-8	-8.5318586e-8	-4.8194427e6	1.4553833e7	0	0.0009104830576539503
100.	1.9054607e-9	0.48	4.1297496e9	1.6600839e8	-0.9999989	-9.5793829e-8	-9.3549965e-8	-4.395384e6	1.3273253e7	0	0.000991331658285861
100.	2.0892961e-9	0.48	3.7663764e9	1.5140146e8	-0.99999879	-1.0503589e-7	-1.0257554e-7	-4.008638e6	1.2105351e7	0	0.0010906133903673808
100.	2.2908677e-9	0.48	3.4349761e9	1.3807977e8	-0.99999867	-1.1516954e-7	-1.1247182e-7	-3.6559214e6	1.1040211e7	0	0.001198898095557037
100.	2.5118864e-9	0.48	3.1327354e9	1.2593025e8	-0.99999855	-1.2628096e-7	-1.2332297e-7	-3.33424e6	1.0068792e7	0	0.0013067521625148184
100.	2.7542287e-9	0.48	2.8570887e9	1.1484975e8	-0.99999841	-1.3846422e-7	-1.3522085e-7	-3.0408631e6	9.1828475e6	0	0.001432925470372395
100.	3.0199517e-9	0.48	2.6056958e9	1.0474422e8	-0.99999825	-1.5182303e-7	-1.4826675e-7	-2.7733002e6	8.3748564e6	0	0.001577372338109789
100.	3.3113112e-9	0.48	2.3764228e9	9.552786e7	-0.99999808	-1.6647069e-7	-1.625713e-7	-2.5292799e6	7.6379597e6	0	0.001730647219004748
100.	3.6307805e-9	0.48	2.1673234e9	8.7122444e7	-0.9999979	-1.8253148e-7	-1.7825588e-7	-2.3067308e6	6.965902e6	0	0.0018926953718293373
100.	3.9810717e-9	0.48	1.9766224e9	7.9456613e7	-0.9999977	-2.0014175e-7	-1.9545365e-7	-2.1037636e6	6.352978e6	0	0.002072852396015891
100.	4.3651583e-9	0.48	1.8027011e9	7.2465293e7	-0.99999747	-2.1945105e-7	-2.1431065e-7	-1.9186553e6	5.7939847e6	0	0.0022804480822279263
100.	4.7863009e-9	0.48	1.6440829e9	6.6089132e7	-0.99999723	-2.4062331e-7	-2.3498698e-7	-1.7498345e6	5.2841768e6	0	0.002496618919965941
100.	5.2480746e-9	0.48	1.4994214e9	6.0274005e7	-0.99999696	-2.6383823e-7	-2.5765811e-7	-1.5958681e6	4.8192264e6	0	0.0027400770804517647
100.	5.7543994e-9	0.48	1.3674886e9	5.4970546e7	-0.99999667	-2.8929286e-7	-2.825165e-7	-1.4554491e6	4.3951866e6	0	0.0030013401126524376
100.	6.3095734e-9	0.48	1.2471644e9	5.0133734e7	-0.99999635	-3.1720331e-7	-3.0977318e-7	-1.3273855e6	4.0084578e6	0	0.00328970849730247
100.	6.9183097e-9	0.48	1.1374275e9	4.5722509e7	-0.999996	-3.4780656e-7	-3.3965958e-7	-1.21059e6	3.6557568e6	0	0.003605077861365253
100.	7.5857758e-9	0.48	1.0373462e9	4.1699423e7	-0.99999561	-3.8136233e-7	-3.7242934e-7	-1.1040713e6	3.3340898e6	0	0.0039567294689374175
100.	8.3176377e-9	0.48	9.4607097e8	3.8030326e7	-0.99999519	-4.1815546e-7	-4.0836064e-7	-1.0069251e6	3.0407259e6	0	0.004335142209797315
100.	9.1201084e-9	0.48	8.6282698e8	3.468407e7	-0.99999472	-4.584982e-7	-4.4775839e-7	-918326.67	2.7731749e6	0	0.004758969879157039
100.	1.e-8	0.48	7.8690756e8	3.1632248e7	-0.99999421	-5.0273351e-7	-4.9095755e-7	-837523.97	2.5291655e6	0	0.005218665759400751
100.	1.0964782e-8	0.48	7.1766822e8	2.8848953e7	-0.99999365	-5.5123635e-7	-5.3832426e-7	-763831.03	2.3066263e6	0	0.005723460378096185
100.	1.2022644e-8	0.48	6.545212e8	2.6310557e7	-0.99999304	-6.0441867e-7	-5.9026084e-7	-696622.26	2.1036681e6	0	0.006273172292291853
100.	1.3182567e-8	0.48	5.9693043e8	2.3995514e7	-0.99999237	-6.6273208e-7	-6.4720834e-7	-635327.14	1.918568e6	0	0.00687699824589642
100.	1.4454398e-8	0.48	5.4440702e8	2.1884169e7	-0.99999163	-7.2667113e-7	-7.0964969e-7	-579425.33	1.7497547e6	0	0.007544116094987129
100.	1.5848932e-8	0.48	4.965051e8	1.9958599e7	-0.99999083	-7.9677853e-7	-7.7811489e-7	-528442.27	1.5957952e6	0	0.008264891160800349
100.	1.7378008e-8	0.48	4.5281804e8	1.8202459e7	-0.99998994	-8.7365031e-7	-8.5318603e-7	-481945.17	1.4553824e6	0	0.00906724788620369
100.	1.9054607e-8	0.48	4.1297496e8	1.6600839e7	-0.99998897	-9.579385e-7	-9.3549986e-7	-439539.3	1.3273244e6	0	0.009941503448896369
100.	2.0892961e-8	0.48	3.7663764e8	1.5140146e7	-0.99998791	-1.0503587e-6	-1.0257552e-6	-400864.7	1.2105342e6	0	0.01089673834063781
100.	2.2908677e-8	0.48	3.4349761e8	1.3807977e7	-0.99998674	-1.1516954e-6	-1.1247182e-6	-365593.04	1.1040202e6	0	0.011951398341381526
100.	2.5118864e-8	0.48	3.1327354e8	1.2593025e7	-0.99998546	-1.2628089e-6	-1.233229e-6	-333424.9	1.0068783e6	0	0.01310510455523961
100.	2.7542287e-8	0.48	2.8570887e8	1.1484975e7	-0.99998406	-1.3846424e-6	-1.3522087e-6	-304087.21	918283.85	0	0.014366837227610205
100.	3.0199517e-8	0.48	2.6056958e8	1.0474422e7	-0.99998252	-1.5182302e-6	-1.4826674e-6	-277330.92	837484.74	0	0.015754932118998293
100.	3.3113112e-8	0.48	2.3764228e8	9.552786e6	-0.99998084	-1.6647063e-6	-1.6257124e-6	-252928.89	763795.07	0	0.017268889846766396
100.	3.6307805e-8	0.48	2.1673234e8	8.7122444e6	-0.99997899	-1.8253142e-6	-1.7825582e-6	-230673.98	696589.3	0	0.01893634964233109
100.	3.9810717e-8	0.48	1.9766224e8	7.9456613e6	-0.99997696	-2.0014172e-6	-1.9545362e-6	-210377.26	635296.9	0	0.020766106709332228
100.	4.3651583e-8	0.48	1.8027011e8	7.2465293e6	-0.99997474	-2.1945103e-6	-2.1431063e-6	-191866.43	579397.57	0	0.02276689829901888
100.	4.7863009e-8	0.48	1.6440829e8	6.6089132e6	-0.9999723	-2.4062327e-6	-2.3498694e-6	-174984.35	528416.78	0	0.02496618937963871
100.	5.2480746e-8	0.48	1.4994214e8	6.0274005e6	-0.99996963	-2.6383816e-6	-2.5765805e-6	-159587.71	481921.74	0	0.027372584114992396
100.	5.7543994e-8	0.48	1.3674886e8	5.4970546e6	-0.9999667	-2.8929279e-6	-2.8251643e-6	-145545.81	439517.76	0	0.03001340144253127
100.	6.3095734e-8	0.48	1.2471644e8	5.0133734e6	-0.99996348	-3.1720324e-6	-3.097731e-6	-132739.45	400844.88	0	0.03291587664059928
100.	6.9183097e-8	0.48	1.1374275e8	4.5722509e6	-0.99995996	-3.4780643e-6	-3.3965945e-6	-121059.9	365574.78	0	0.03608836181392153
100.	7.5857758e-8	0.48	1.0373462e8	4.1699423e6	-0.9999561	-3.8136216e-6	-3.7242918e-6	-110408.03	333408.08	0	0.03956729541127331
100.	8.3176377e-8	0.48	9.4607097e7	3.8030326e6	-0.99995186	-4.1815529e-6	-4.0836047e-6	-100693.41	304071.69	0	0.04338900547895164
100.	9.1201084e-8	0.48	8.6282698e7	3.468407e6	-0.99994722	-4.5849815e-6	-4.4775834e-6	-91833.567	277316.59	0	0.047570907710075966
100.	1.e-7	0.48	7.8690756e7	3.1632248e6	-0.99994213	-5.0273321e-6	-4.9095724e-6	-83753.297	252915.65	0	0.05215847203154343
100.	1.0964782e-7	0.48	7.1766822e7	2.8848953e6	-0.99993654	-5.5123599e-6	-5.383239e-6	-76384.003	230661.73	0	0.05719702279013329
100.	1.2022644e-7	0.48	6.545212e7	2.6310558e6	-0.99993042	-6.0441822e-6	-5.902604e-6	-69663.126	210365.91	0	0.06271293360029043
100.	1.3182567e-7	0.48	5.9693043e7	2.3995514e6	-0.99992371	-6.6273137e-6	-6.4720763e-6	-63533.614	191855.9	0	0.06876059000714277
100.	1.4454398e-7	0.48	5.4440702e7	2.1884169e6	-0.99991635	-7.2667047e-6	-7.0964902e-6	-57943.433	174974.57	0	0.07539418570419465
100.	1.5848932e-7	0.48	4.965051e7	1.9958599e6	-0.99990828	-7.9677828e-6	-7.7811463e-6	-52845.127	159578.62	0	0.08266770408757115
100.	1.7378008e-7	0.48	4.5281804e7	1.8202459e6	-0.99989943	-8.7364995e-6	-8.5318567e-6	-48195.416	145537.34	0	0.09064429352475559
100.	1.9054607e-7	0.48	4.1297496e7	1.660084e6	-0.99988973	-9.5793804e-6	-9.354994e-6	-43954.83	132731.55	0	0.09938684960277804
100.	2.0892961e-7	0.48	3.7663764e7	1.5140146e6	-0.99987909	-0.000010503581	-0.000010257546	-40087.37	121052.52	0	0.10897678176566489
100.	2.2908677e-7	0.48	3.4349761e7	1.3807977e6	-0.99986742	-0.000011516946	-0.000011247174	-36560.204	110401.12	0	0.11949519571465178
100.	2.5118864e-7	0.48	3.1327354e7	1.2593025e6	-0.99985463	-0.000012628078	-0.000012332279	-33343.39	100686.93	0	0.13102286355276382
100.	2.7542287e-7	0.48	2.8570887e7	1.1484975e6	-0.99984061	-0.00001384641	-0.000013522073	-30409.621	91827.486	0	0.14365898293601675
100.	3.0199517e-7	0.48	2.6056958e7	1.0474422e6	-0.99982523	-0.000015182284	-0.000014826655	-27733.992	83747.575	0	0.15752114279817725
100.	3.3113112e-7	0.48	2.3764228e7	955278.61	-0.99980837	-0.000016647039	-0.0000162571	-25293.789	76378.608	0	0.1727170962517855
100.	3.6307805e-7	0.48	2.1673234e7	871224.45	-0.99978988	-0.00001825311	-0.00001782555	-23068.298	69658.031	0	0.18938230216212912
100.	3.9810717e-7	0.48	1.9766224e7	794566.14	-0.99976961	-0.000020014129	-0.00001954532	-21038.626	63528.791	0	0.20765169038172548
100.	4.3651583e-7	0.48	1.8027011e7	724652.94	-0.99974738	-0.000021945047	-0.000021431008	-19187.543	57938.858	0	0.22768779910149553
100.	4.7863009e-7	0.48	1.6440829e7	660891.34	-0.999723	-0.000024062253	-0.00002349862	-17499.335	52840.779	0	0.24966192717006128
100.	5.2480746e-7	0.48	1.4994215e7	602740.06	-0.99969628	-0.00002638372	-0.000025765708	-15959.671	48191.276	0	0.2737446762035983
100.	5.7543994e-7	0.48	1.3674886e7	549705.47	-0.99966698	-0.000028929151	-0.000028251515	-14555.481	43950.878	0	0.30015286345909364
100.	6.3095734e-7	0.48	1.2471644e7	501337.35	-0.99963485	-0.000031720155	-0.000030977142	-13274.844	40083.59	0	0.32911186390522384
100.	6.9183097e-7	0.48	1.1374275e7	457225.1	-0.99959962	-0.000034780421	-0.000033965723	-12106.89	36556.581	0	0.3608649269521002
100.	7.5857758e-7	0.48	1.0373462e7	416994.25	-0.99956099	-0.000038135923	-0.000037242625	-11041.703	33339.91	0	0.39568248190685534
100.	8.3176377e-7	0.48	9.4607099e6	380303.28	-0.99951864	-0.000041815143	-0.000040835661	-10070.241	30406.272	0	0.4338526462584128
100.	9.1201084e-7	0.48	8.62827e6	346840.72	-0.9994722	-0.000045849306	-0.000044775325	-9184.2565	27730.762	0	0.47570930665557454
100.	1.e-6	0.48	7.8690758e6	316322.5	-0.99942128	-0.00005027265	-0.000049095054	-8376.2294	25290.668	0	0.5216038137865366
100.	1.0964782e-6	0.48	7.1766825e6	288489.55	-0.99936544	-0.000055122715	-0.000053831506	-7639.3	23065.276	0	0.5719330439635135
100.	1.2022644e-6	0.48	6.5452123e6	263105.61	-0.99930422	-0.000060440657	-0.000059024875	-6967.2123	21035.694	0	0.6271110701007536
100.	1.3182567e-6	0.48	5.9693046e6	239955.17	-0.9992371	-0.000066271602	-0.000064719227	-6354.2611	19184.694	0	0.6876065927943776
100.	1.4454398e-6	0.48	5.4440706e6	218841.72	-0.99916349	-0.000072665022	-0.000070962877	-5795.2429	17496.562	0	0.7539521659530138
100.	1.5848932e-6	0.48	4.9650515e6	199586.03	-0.99908279	-0.000079675159	-0.000077808794	-5285.4122	15956.967	0	0.8266876402250114
100.	1.7378008e-6	0.48	4.5281808e6	182024.63	-0.9989943	-0.000087361477	-0.000085315048	-4820.4412	14552.839	0	0.9064445222864927
100.	1.9054607e-6	0.48	4.1297501e6	166008.44	-0.99889728	-0.000095789166	-0.000093545302	-4396.3825	13272.26	0	0.9938893790330482
100.	2.0892961e-6	0.48	3.7663769e6	151401.51	-0.9987909	-0.00010502969	-0.00010256935	-4009.6364	12104.358	0	1.0897705732135945
100.	2.2908677e-6	0.48	3.4349767e6	138079.83	-0.99867425	-0.0001151614	-0.00011246368	-3656.9197	11039.219	0	1.1949086138689993
100.	2.5118864e-6	0.48	3.1327361e6	125930.31	-0.99854635	-0.00012627016	-0.00012331217	-3335.2383	10067.801	0	1.3101864467881261
100.	2.7542287e-6	0.48	2.8570894e6	114849.82	-0.99840611	-0.0001384501	-0.00013520673	-3041.8613	9181.857	0	1.4365867475859808
100.	3.0199517e-6	0.48	2.6056966e6	104744.3	-0.99825235	-0.00015180437	-0.00014824809	-2774.2984	8373.8667	0	1.5751727750150029
100.	3.3113112e-6	0.48	2.3764237e6	95527.947	-0.99808376	-0.00016644605	-0.00016254666	-2530.278	7636.9709	0	1.7271255657267819
100.	3.6307805e-6	0.48	2.1673243e6	87122.539	-0.99789891	-0.00018249902	-0.00017822342	-2307.7288	6964.9141	0	1.8937341372360874
100.	3.9810717e-6	0.48	1.9766235e6	79456.718	-0.99769623	-0.00020009901	-0.00019541091	-2104.7615	6351.9912	0	2.076413832746511
100.	4.3651583e-6	0.48	1.8027022e6	72465.407	-0.99747401	-0.00021939473	-0.00021425433	-1919.6531	5792.9991	0	2.2767058250598557
100.	4.7863009e-6	0.48	1.6440842e6	66089.258	-0.99723035	-0.00024054905	-0.00023491272	-1750.8322	5283.1925	0	2.4963235626740583
100.	5.2480746e-6	0.48	1.4994228e6	60274.143	-0.99696321	-0.00026374034	-0.00025756023	-1596.8657	4818.2435	0	2.737105218756416
100.	5.7543994e-6	0.48	1.3674901e6	54970.697	-0.99667032	-0.00028916385	-0.00028238749	-1456.4465	4394.2053	0	3.0010976341668147
100.	6.3095734e-6	0.48	1.2471661e6	50133.899	-0.9963492	-0.00031703328	-0.00030960315	-1328.3827	4007.4781	0	3.2905368316243475
100.	6.9183097e-6	0.48	1.1374293e6	45722.69	-0.99599714	-0.00034758242	-0.00033943545	-1211.5871	3654.7791	0	3.607866098957854
100.	7.5857758e-6	0.48	1.0373482e6	41699.622	-0.99561116	-0.00038106692	-0.00037213394	-1105.0682	3333.1141	0	3.9557727960141227
100.	8.3176377e-6	0.48	946073.14	38030.544	-0.995188	-0.00041776618	-0.00040797136	-1007.9218	3039.7525	0	4.337196902448817
100.	9.1201084e-6	0.48	862829.36	34684.309	-0.99472411	-0.00045798535	-0.00044724554	-919.32314	2772.2039	0	4.755339556494953
100.	0.00001	0.48	786910.16	31632.51	-0.99421559	-0.00050205744	-0.00049028148	-838.52019	2528.1972	0	5.213718490823199
100.	0.000010964782	0.48	717671.08	28849.24	-0.99365815	-0.00055034552	-0.00053743343	-764.82698	2305.6609	0	5.7162046770928505
100.	0.000012022644	0.48	654524.33	26310.873	-0.99304713	-0.00060324492	-0.0005890871	-697.61793	2102.7059	0	6.267002537954347
100.	0.000013182567	0.48	596933.86	23995.859	-0.99237742	-0.00066118559	-0.00064566184	-636.32249	1917.6094	0	6.870724129116045
100.	0.000014454398	0.48	544410.78	21884.547	-0.99164345	-0.00072463417	-0.00070761272	-580.42032	1748.8	0	7.532397596935516
100.	0.000015848932	0.48	496509.23	19959.014	-0.99083912	-0.00079409621	-0.00077543256	-529.43687	1594.8448	0	8.257532032481892
100.	0.000017378008	0.48	452822.56	18202.914	-0.9899578	-0.00087011791	-0.00084965363	-482.93934	1454.4367	0	9.052116704850135
100.	0.000019054607	0.48	412979.91	16601.338	-0.98899224	-0.00095328764	-0.000930849	-440.53302	1326.3838	0	9.922705013204599
100.	0.000020892961	0.48	376643.07	15140.692	-0.98793456	-0.0010442367	-0.0010196332	-401.8579	1209.5992	0	10.876423584777767
100.	0.000022908677	0.48	343503.56	13808.576	-0.98677621	-0.0011436393	-0.0011166622	-366.58568	1103.0913	0	11.92100986650457
100.	0.000025118864	0.48	313280.06	12593.681	-0.98550789	-0.0012522115	-0.0012226316	-334.41694	1005.9561	0	13.064888106544421
100.	0.000027542287	0.48	285716.01	11485.694	-0.98411956	-0.0013707079	-0.0013382742	-305.07858	917.369	0	14.317161054536891
100.	0.000030199517	0.48	260577.41	10475.209	-0.98260038	-0.0014999169	-0.001464354	-278.32155	836.57791	0	15.68766904147068
100.	0.000033113112	0.48	237650.86	9553.6483	-0.98093866	-0.0016406527	-0.0016016589	-253.91872	762.89701	0	17.18704025018866
100.	0.000036307805	0.48	216741.72	8713.1884	-0.97912191	-0.0017937438	-0.0017509878	-231.66293	695.70081	0	18.82664955490815
100.	0.000039810717	0.48	197672.51	7946.6944	-0.97713679	-0.0019600163	-0.0019131353	-211.36525	634.41887	0	20.61867239965743
100.	0.000043651583	0.48	180281.35	7247.6595	-0.97496913	-0.0021402728	-0.0020888688	-192.85336	578.53093	0	22.57607633467002
100.	0.000047863009	0.48	164420.59	6610.1492	-0.97260404	-0.0023352637	-0.0022789004	-175.97013	527.56254	0	24.712530337054247
100.	0.000052480746	0.48	149955.58	6028.7513	-0.97002593	-0.0025456512	-0.00248385	-160.57223	481.08099	0	27.042402661067662
100.	0.000057543994	0.48	136763.54	5498.5301	-0.9672187	-0.0027719648	-0.0027042012	-146.52896	438.69166	0	29.580602209419766
100.	0.000063095734	0.48	124732.47	5014.9839	-0.96416591	-0.0030145487	-0.0029402474	-133.72108	400.03465	0	32.3424431155971
100.	0.000069183097	0.48	113760.24	4574.0073	-0.96085101	-0.0032735001	-0.0031920303	-122.0399	364.78172	0	35.34345637980209
100.	0.000075857758	0.48	103753.68	4171.856	-0.95725769	-0.0035486025	-0.0034592727	-111.38624	332.63354	0	38.5990913277004
100.	0.000083176377	0.48	94627.852	3805.1152	-0.95337027	-0.0038392556	-0.0037413074	-101.66966	303.31709	0	42.124381245421006
100.	0.000091201084	0.48	86305.268	3470.6703	-0.94917414	-0.0041444084	-0.0040370104	-92.807701	276.58335	0	45.933560097024774
100.	0.0001	0.48	78715.265	3165.6809	-0.94465629	-0.0044625035	-0.0043447439	-84.725124	252.20524	0	50.03959026137789
100.	0.00010964782	0.48	71793.394	2887.5561	-0.93980584	-0.0047914413	-0.0046623204	-77.353327	229.9756	0	54.45368075310569
100.	0.00012022644	0.48	65480.876	2633.9327	-0.93461462	-0.0051285762	-0.0049869979	-70.62974	209.7055	0	59.18474443944891
100.	0.00013182567	0.48	59724.099	2402.6553	-0.92907768	-0.0054707537	-0.0053155162	-64.497297	191.22257	0	64.23890249094781
100.	0.00014454398	0.48	54474.168	2191.7576	-0.92319372	-0.0058143956	-0.0056441812	-58.903954	174.36961	0	69.61904234977013
100.	0.00015848932	0.48	49686.485	1999.4461	-0.91696536	-0.0061556343	-0.0059689979	-53.802246	159.00319	0	75.32450406521392
100.	0.00017378008	0.48	45320.372	1824.0847	-0.91039929	-0.0064904894	-0.0062858466	-49.148882	144.99245	0	81.35085989422637
100.	0.00019054607	0.48	41338.729	1664.1807	-0.90350613	-0.006815071	-0.0065906847	-44.904385	132.21802	0	87.68995483049481
100.	0.00020892961	0.48	37707.714	1518.3726	-0.89630018	-0.0071257896	-0.006879755	-41.03275	120.57098	0	94.33004755428215
100.	0.00022908677	0.48	34396.463	1385.4183	-0.88879885	-0.0074195462	-0.0071497746	-37.501141	109.95196	0	101.25626079240682
100.	0.00025118864	0.48	31376.822	1264.1846	-0.88102208	-0.0076938795	-0.0073980809	-34.279613	100.27032	0	108.45106042140628
100.	0.00027542287	0.48	28623.115	1153.638	-0.87299153	-0.0079470565	-0.0076227197	-31.34086	91.443358	0	115.89497678313099
100.	0.00030199517	0.48	26111.923	1052.8356	-0.86472987	-0.0081780972	-0.0078224692	-28.659976	83.39563	0	123.56726095234961
100.	0.00033113112	0.48	23821.885	960.9178	-0.85626003	-0.0083867405	-0.0079968022	-26.214253	76.058335	0	131.44660645823612
100.	0.00036307805	0.48	21733.524	877.10026	-0.84760454	-0.0085733601	-0.0081458013	-23.98298	69.368723	0	139.51180764156783
100.	0.00039810717	0.48	19829.073	800.66794	-0.83878504	-0.0087388503	-0.0082700416	-21.947272	63.269573	0	147.74227294303512
100.	0.00043651583	0.48	18092.333	730.96883	-0.82982185	-0.0088844972	-0.0083704589	-20.089906	57.708709	0	156.11848835700374
100.	0.00047863009	0.48	16508.528	667.40841	-0.82073373	-0.0090118516	-0.00844822	-18.395178	52.638563	0	164.62230142077948
100.	0.00052480746	0.48	15064.188	609.44469	-0.81153774	-0.0091226139	-0.0085046045	-16.848765	48.01577	0	173.237106060937
100.	0.00057543994	0.48	13747.025	556.58353	-0.80224915	-0.0092185375	-0.0085409042	-15.437609	43.800796	0	181.9479725239326
100.	0.00063095734	0.48	12545.837	508.37446	-0.79288151	-0.0093013546	-0.008558345	-14.149799	39.957609	0	190.74161682895559
100.	0.00069183097	0.48	11450.409	464.40683	-0.78344673	-0.009372722	-0.0085580291	-12.974475	36.453362	0	199.60635167000171
100.	0.00075857758	0.48	10451.424	424.30631	-0.77395515	-0.0094341858	-0.0085408939	-11.901735	33.258116	0	208.5320391820436
100.	0.00083176377	0.48	9540.3893	387.73162	-0.76441573	-0.0094871614	-0.0085076877	-10.922545	30.344582	0	217.50992338270476
100.	0.00091201084	0.48	8709.5583	354.37168	-0.75483618	-0.0095329248	-0.0084589551	-10.02867	27.687885	0	226.53251461323742
100.	0.001	0.48	7951.868	323.9429	-0.74522309	-0.0095726135	-0.0083950316	-9.2126002	25.265353	0	235.5934698303813
100.	0.0010964782	0.48	7260.8778	296.18675	-0.73558207	-0.0096072322	-0.0083160425	-8.4674853	23.05632	0	244.68746156330434
100.	0.0012022644	0.48	6630.7145	270.86753	-0.72591792	-0.0096376626	-0.0082219055	-7.7870793	21.041946	0	253.8100170149163
100.	0.0013182567	0.48	6056.0225	247.77039	-0.71623468	-0.0096646754	-0.0081123343	-7.1656862	19.20506	0	262.95746946003163
100.	0.0014454398	0.48	5531.9181	226.69942	-0.70653579	-0.0096889426	-0.0079868419	-6.5981112	17.530005	0	272.1268064266428
100.	0.0015848932	0.48	5053.9477	207.47604	-0.69682416	-0.0097110504	-0.0078447438	-6.079617	16.002512	0	281.3156024831724
100.	0.0017378008	0.48	4618.0503	189.9374	-0.68710224	-0.0097315108	-0.0076851592	-5.6058833	14.609571	0	290.52195292771023
100.	0.0019054607	0.48	4220.5226	173.93507	-0.67737211	-0.0097507729	-0.00750701	-5.1729702	13.33932	0	299.7443896781218
100.	0.0020892961	0.48	3857.9872	159.33367	-0.66763551	-0.0097692336	-0.0073090189	-4.7772843	12.180947	0	308.98185394197264
100.	0.0022908677	0.48	3527.3648	146.00978	-0.65789393	-0.0097872459	-0.0070897037	-4.4155487	11.124593	0	318.2336142262968
100.	0.0025118864	0.48	3225.8468	133.85089	-0.64814861	-0.0098051279	-0.0068473706	-4.0847748	10.161269	0	327.49926935923946
100.	0.0027542287	0.48	2950.8722	122.75437	-0.6384006	-0.0098231694	-0.0065801043	-3.7822371	9.2827798	0	336.7786965809504
100.	0.0030199517	0.48	2700.1058	112.62667	-0.62865076	-0.0098416388	-0.0062857563	-3.5054497	8.4816539	0	346.0720568201824
100.	0.0033113112	0.48	2471.4178	103.38248	-0.61889982	-0.0098607882	-0.0059619297	-3.2521457	7.7510781	0	355.3797451754402
100.	0.0036307805	0.48	2262.8662	94.943997	-0.60914835	-0.0098808586	-0.0056059627	-3.0202573	7.0848405	0	364.7024265432975
100.	0.0039810717	0.48	2072.68	87.240294	-0.59939681	-0.0099020841	-0.0052149089	-2.8078987	6.4772771	0	374.0409975246601
100.	0.0043651583	0.48	1899.2445	80.206684	-0.58964552	-0.0099246958	-0.0047855145	-2.6133501	5.9232232	0	383.3966248943291
100.	0.0047863009	0.48	1741.087	73.784183	-0.57989469	-0.0099489248	-0.0043141936	-2.4350426	5.4179698	0	392.7707285535276
100.	0.0052480746	0.48	1596.8651	67.919004	-0.57014441	-0.0099750052	-0.0037969998	-2.2715455	4.957223	0	402.1650037337088
100.	0.0057543994	0.48	1465.3542	62.562099	-0.56039462	-0.010003177	-0.0032295956	-2.1215535	4.5370679	0	411.58146298385225
100.	0.0063095734	0.48	1345.4384	57.668742	-0.55064511	-0.010033686	-0.0026072176	-1.9838762	4.1539345	0	421.0224518649637
100.	0.0069183097	0.48	1236.0999	53.198148	-0.54089553	-0.010066789	-0.0019246393	-1.8574276	3.8045679	0	430.4906563313009
100.	0.0075857758	0.48	1136.411	49.113124	-0.53114531	-0.010102751	-0.0011761299	-1.741217	3.4860005	0	439.9891964764448
100.	0.0083176377	0.48	1045.526	45.379755	-0.52139367	-0.010141848	-0.00035540978	-1.6343405	3.1955263	0	449.5216372157827
100.	0.0091201084	0.48	962.67426	41.967115	-0.51163956	-0.010184364	0.00054439767	-1.5359736	2.9306785	0	459.09206638468333
100.	0.01	0.48	887.15336	38.847002	-0.50188163	-0.010230595	0.0015308182	-1.4453636	2.689208	0	468.7051464446568
100.	0.010964782	0.48	818.32334	35.993699	-0.49211817	-0.010280838	0.002612082	-1.3618238	2.4690645	0	478.36619579709867
100.	0.012022644	0.48	755.60128	33.383757	-0.48234706	-0.010335394	0.0037971831	-1.2847274	2.2683791	0	488.08126255044454
100.	0.013182567	0.48	698.45633	30.995794	-0.47256566	-0.010394558	0.0050959407	-1.213502	2.0854483	0	497.85725553165884
100.	0.014454398	0.48	646.40527	28.81031	-0.46277077	-0.010458613	0.0065190644	-1.1476249	1.9187196	0	507.7020112870166
100.	0.015848932	0.48	599.00838	26.809528	-0.45295855	-0.010527816	0.0080782191	-1.0866188	1.7667781	0	517.6243985166702
100.	0.017378008	0.48	555.86578	24.977236	-0.44312434	-0.010602384	0.0097860912	-1.0300472	1.6283348	0	527.6345170520417
100.	0.019054607	0.48	516.61404	23.298651	-0.43326263	-0.010682477	0.011656451	-0.97751119	1.5022154	0	537.7437541846444
100.	0.020892961	0.48	480.9231	21.760296	-0.42336691	-0.010768174	0.013704211	-0.92864589	1.3873502	0	547.9649518936822
100.	0.022908677	0.48	448.49346	20.349879	-0.41342951	-0.010859442	0.01594547	-0.88311711	1.2827652	0	558.3125770652243
100.	0.025118864	0.48	419.05366	19.056192	-0.40344151	-0.010956112	0.018397549	-0.84061868	1.1875736	0	568.8028222436786
100.	0.027542287	0.48	392.35789	17.86901	-0.39339258	-0.011057839	0.021078994	-0.80086977	1.1009682	0	579.4537572250208
100.	0.030199517	0.48	368.18391	16.77901	-0.38327081	-0.011164069	0.024009547	-0.76361244	1.0222144	0	590.2854757041567
100.	0.033113112	0.48	346.33101	15.777681	-0.37306267	-0.011274008	0.027210079	-0.72860952	0.95064369	0	601.3201026411136
100.	0.036307805	0.48	326.61816	14.857257	-0.3627528	-0.011386596	0.030702446	-0.69564249	0.88564791	0	612.5819266270062
100.	0.039810717	0.48	308.88228	14.010641	-0.35232398	-0.011500501	0.034509284	-0.6645097	0.82667357	0	624.0973356177675
100.	0.043651583	0.48	292.9766	13.23135	-0.34175704	-0.011614129	0.038653699	-0.63502468	0.77321686	0	635.8947616877061
100.	0.047863009	0.48	278.769	12.513446	-0.3310309	-0.011725664	0.043158862	-0.6070146	0.72481889	0	648.004460795388
100.	0.052480746	0.48	266.1405	11.851492	-0.32012257	-0.011833153	0.048047488	-0.58031894	0.68106132	0	660.458277817134
100.	0.057543994	0.48	254.98372	11.240494	-0.30900727	-0.011934609	0.053341213	-0.55478826	0.64156217	0	673.2892528315549
100.	0.063095734	0.48	245.20136	10.67586	-0.29765868	-0.012028168	0.05905989	-0.53028312	0.60597207	0	686.5310687302914
100.	0.069183097	0.48	236.70476	10.153355	-0.28604915	-0.012112247	0.065220848	-0.50667321	0.57397065	0	700.2175197246876
100.	0.075857758	0.48	229.41254	9.6690666	-0.27415006	-0.012185714	0.071838158	-0.48383654	0.54526342	0	714.3818420745991
100.	0.083176377	0.48	223.24937	9.2193692	-0.26193214	-0.012248037	0.078922007	-0.46165877	0.5195789	0	729.0561311068866
100.	0.091201084	0.48	218.14499	8.8008995	-0.24936577	-0.012299375	0.086478227	-0.44003272	0.49666631	0	744.2708469288749
100.	0.1	0.48	214.03361	8.410533	-0.23642104	-0.01234063	0.094508052	-0.41885784	0.47629363	0	760.0546484635311
100.	0.10964782	0.48	210.8537	8.0453681	-0.22306755	-0.012373412	0.10300816	-0.39803985	0.45824631	0	776.4346003041704
100.	0.12022644	0.48	208.54852	7.702715	-0.20927358	-0.012399964	0.11197098	-0.37749027	0.44232658	0	793.4370910080477
100.	0.13182567	0.48	207.06724	7.3800903	-0.19500461	-0.012423037	0.12138526	-0.35712589	0.42835331	0	811.0894798161721
100.	0.14454398	0.48	206.36696	7.075216	-0.18022091	-0.012445756	0.13123683	-0.33686812	0.41616264	0	829.4227051122148
100.	0.15848932	0.48	206.41549	6.7860228	-0.1648741	-0.012471486	0.14150945	-0.31664209	0.4056092	0	848.4748989679925
100.	0.17378008	0.48	207.19479	6.5106565	-0.1489026	-0.01250373	0.15218573	-0.2963754	0.39656805	0	868.2960770778686
100.	0.19054607	0.48	208.705	6.2474884	-0.1322263	-0.012546047	0.16324797	-0.27599658	0.3889373	0	888.9535254748179
100.	0.20892961	0.48	210.9685	5.9951269	-0.11474056	-0.012602005	0.17467891	-0.25543309	0.38264141	0	910.5377761660529
100.	0.22908677	0.48	214.03358	5.7524315	-0.096310233	-0.012675147	0.18646239	-0.23460892	0.37763498	0	933.168520569423
100.	0.25118864	0.48	217.9768	5.518527	-0.07676474	-0.012768946	0.19858381	-0.213442	0.37390694	0	956.9994443287931
100.	0.27542287	0.48	222.90305	5.2928143	-0.055895381	-0.012886732	0.21103058	-0.19184131	0.37148453	0	982.2209567513851
100.	0.30199517	0.48	228.942	5.0749739	-0.033456685	-0.013031559	0.22379241	-0.16970432	0.37043628	0	1009.0590531820523
100.	0.33113112	0.48	236.23949	4.8649543	-0.009173602	-0.013206001	0.23686163	-0.14691489	0.37087287	0	1037.768701966519
100.	0.36307805	0.48	244.94324	4.6629383	0.017244061	-0.013411884	0.25023347	-0.12334234	0.37294441	0	1068.6204071635734
100.	0.39810717	0.48	255.18335	4.4692797	0.046080014	-0.013649996	0.26390627	-0.09884221	0.37683303	0	1101.8799842129922
100.	0.43651583	0.48	267.05028	4.2844134	0.07758524	-0.01391987	0.27788161	-0.073259055	0.38274046	0	1137.7839606113762
100.	0.47863009	0.48	280.57543	4.1087487	0.11195244	-0.014219731	0.29216422	-0.046431314	0.39087182	0	1176.515524730407
100.	0.52480746	0.48	295.72004	3.9425676	0.14929797	-0.014546686	0.30676168	-0.018197748	0.40141836	0	1218.1874191505178
100.	0.57543994	0.48	312.37632	3.7859525	0.18965637	-0.014897129	0.32168383	0.011595638	0.41454286	0	1262.8365342139589
100.	0.63095734	0.48	330.3808	3.6387577	0.23298871	-0.015267274	0.33694212	0.043089391	0.43037035	0	1310.4314564928186
100.	0.69183097	0.48	349.53547	3.5006249	0.2792009	-0.015653653	0.352549	0.076406156	0.44898534	0	1360.8893971258467
100.	0.75857758	0.48	369.63072	3.3710307	0.32816613	-0.01605346	0.36851743	0.11164841	0.4704346	0	1414.09705467914
100.	0.83176377	0.48	390.46493	3.2493464	0.37974566	-0.016464724	0.3848606	0.14889836	0.49473342	0	1469.9300224321817
100.	0.91201084	0.48	411.85801	3.1348963	0.43380479	-0.016886296	0.40159189	0.18821938	0.52187326	0	1528.2677751968317
100.	1.	0.48	433.65879	3.0270036	0.49022323	-0.017317746	0.41872486	0.22965861	0.55182924	0	1589.0034081000888
100.	1.0964782	0.48	455.7473	2.9250236	0.54890051	-0.017759204	0.43627336	0.27324987	0.58456655	0	1652.048769241685
100.	1.2022644	0.48	478.03374	2.8283622	0.60975775	-0.018211201	0.45425162	0.31901674	0.62004554	0	1717.3361633139784
100.	1.3182567	0.48	500.45548	2.7364856	0.67273738	-0.018674529	0.47267436	0.36697534	0.6582255	0	1784.8181381327076
100.	1.4454398	0.48	522.97326	2.6489222	0.73780144	-0.019150138	0.49155687	0.41713683	0.69906742	0	1854.4659234552023
100.	1.5848932	0.48	545.56727	2.56526	0.80492952	-0.019639054	0.51091502	0.46950951	0.74253576	0	1926.267499985679
100.	1.7378008	0.48	568.23349	2.4851424	0.87411656	-0.020142326	0.53076534	0.52410055	0.78859971	0	2000.2255684107809
100.	1.9054607	0.48	590.98042	2.4082618	0.94537077	-0.020660995	0.55112501	0.58091735	0.83723394	0	2076.3555905937333
100.	2.0892961	0.48	613.82634	2.3343537	1.0187118	-0.021196077	0.57201188	0.63996865	0.88841903	0	2154.684079189582
100.	2.2908677	0.48	636.79705	2.2631905	1.0941691	-0.02174855	0.59344448	0.70126536	0.94214168	0	2235.2470612679335
100.	2.5118864	0.48	659.92404	2.1945761	1.1717807	-0.022319356	0.615442	0.76482122	0.99839477	0	2318.0889230234015
100.	2.7542287	0.48	683.24296	2.1283415	1.2515921	-0.022909401	0.6380243	0.83065326	1.0571773	0	2403.2613713679775
100.	3.0199517	0.48	706.79252	2.0643397	1.3336552	-0.023519558	0.66121194	0.89878218	1.1184944	0	2490.8224421258537
100.	3.3113112	0.48	730.61353	2.002443	1.418028	-0.024150673	0.68502613	0.96923258	1.182357	0	2580.836195614246
100.	3.6307805	0.48	754.74825	1.9425393	1.5047736	-0.024803575	0.70948879	1.0420331	1.2487818	0	2673.3718041375246
100.	3.9810717	0.48	779.2398	1.8845297	1.5939599	-0.025479073	0.73462252	1.1172167	1.3177913	0	2768.503256587872
100.	4.3651583	0.48	804.13181	1.8283265	1.6856591	-0.026177969	0.76045063	1.1948203	1.3894131	0	2866.308902192347
100.	4.7863009	0.48	829.46811	1.7738509	1.779948	-0.026901058	0.78699714	1.2748855	1.4636804	0	2966.8717323824876
100.	5.2480746	0.48	855.29252	1.7210323	1.8769069	-0.027649137	0.8142868	1.3574579	1.5406312	0	3070.278356292257
100.	5.7543994	0.48	881.64872	1.6698061	1.97662	-0.028423005	0.8423451	1.4425876	1.6203087	0	3176.6193810940968
100.	6.3095734	0.48	908.58015	1.6201136	2.0791753	-0.02922347	0.87119829	1.5303287	1.7027609	0	3285.989327062216
100.	6.9183097	0.48	936.12999	1.5719003	2.1846642	-0.030051351	0.90087341	1.6207398	1.7880406	0	3398.486265276195
100.	7.5857758	0.48	964.34112	1.5251158	2.2931818	-0.030907479	0.9313983	1.7138836	1.876205	0	3514.2121040005045
100.	8.3176377	0.48	993.25615	1.479713	2.4048265	-0.031792704	0.96280161	1.809827	1.9673161	0	3633.2722173682773
100.	9.1201084	0.48	1022.9174	1.4356477	2.5197004	-0.032707892	0.99511286	1.9086411	2.0614403	0	3755.7758482669324
100.	10.	0.48	1053.3671	1.3928781	2.6379089	-0.033653935	1.0283624	2.0104012	2.1586483	0	3881.8357144723777