12.022644	1.e-12	0.25	1.6396545e9	5.4559005e8	-0.30739235	-0.015408305	-0.015408305	-1.7451206e6	5.2362301e6	0	647.1308717148695
12.022644	1.0964782e-12	0.25	1.4953827e9	4.9758404e8	-0.3062138	-0.015408305	-0.015408305	-1.5915689e6	4.7754986e6	0	648.238196458112
12.022644	1.2022644e-12	0.25	1.3638052e9	4.5380204e8	-0.30503525	-0.015408305	-0.015408305	-1.4515281e6	4.3553065e6	0	649.3455212013546
12.022644	1.3182567e-12	0.25	1.2438052e9	4.1387239e8	-0.3038567	-0.015408305	-0.015408305	-1.3238094e6	3.9720868e6	0	650.452845944597
12.022644	1.4454398e-12	0.25	1.1343638e9	3.7745611e8	-0.30267815	-0.015408305	-0.015408304	-1.2073286e6	3.6225862e6	0	651.5601709227309
12.022644	1.5848932e-12	0.25	1.0345521e9	3.4424407e8	-0.30149959	-0.015408305	-0.015408305	-1.1010968e6	3.3038379e6	0	652.6675048267356
12.022644	1.7378008e-12	0.25	9.435227e8	3.1395432e8	-0.30032104	-0.015408305	-0.015408305	-1.0042122e6	3.0131359e6	0	653.774829569978
12.022644	1.9054607e-12	0.25	8.6050294e8	2.8632974e8	-0.29914249	-0.015408305	-0.015408305	-915852.45	2.7480127e6	0	654.8821543132206
12.022644	2.0892961e-12	0.25	7.8478801e8	2.6113583e8	-0.29796394	-0.015408305	-0.015408305	-835267.38	2.5062173e6	0	655.989479056463
12.022644	2.2908677e-12	0.25	7.1573517e8	2.3815871e8	-0.29678539	-0.015408305	-0.015408305	-761772.94	2.2856974e6	0	657.0968037997056
12.022644	2.5118864e-12	0.25	6.5275823e8	2.1720333e8	-0.29560683	-0.015408305	-0.015408305	-694745.2	2.0845808e6	0	658.2041379386015
12.022644	2.7542287e-12	0.25	5.9532259e8	1.9809179e8	-0.29442828	-0.015408305	-0.015408304	-633615.18	1.9011603e6	0	659.3114629167354
12.022644	3.0199517e-12	0.25	5.4294065e8	1.8066186e8	-0.29324973	-0.015408305	-0.015408304	-577863.94	1.7338788e6	0	660.4187876599779
12.022644	3.3113112e-12	0.25	4.9516776e8	1.6476558e8	-0.29207118	-0.015408305	-0.015408305	-527018.2	1.5813162e6	0	661.5261121683291
12.022644	3.6307805e-12	0.25	4.5159837e8	1.50268e8	-0.29089263	-0.015408305	-0.015408304	-480646.34	1.4421776e6	0	662.6334371464628
12.022644	3.9810717e-12	0.25	4.1186261e8	1.3704605e8	-0.28971408	-0.015408304	-0.015408304	-438354.7	1.3152816e6	0	663.7407618897054
12.022644	4.3651583e-12	0.25	3.7562316e8	1.2498748e8	-0.28853552	-0.015408305	-0.015408304	-399784.26	1.199551e6	0	664.8480960286014
12.022644	4.7863009e-12	0.25	3.425724e8	1.1398994e8	-0.28735697	-0.015408305	-0.015408305	-364607.6	1.0940036e6	0	665.9554205369525
12.022644	5.2480746e-12	0.25	3.1242974e8	1.0396006e8	-0.28617842	-0.015408305	-0.015408305	-332526.11	997743.09	0	667.0627452801951
12.022644	5.7543994e-12	0.25	2.8493931e8	9.4812705e7	-0.28499987	-0.015408305	-0.015408305	-303267.44	909952.52	0	668.1700700234375
12.022644	6.3095734e-12	0.25	2.5986774e8	8.6470217e7	-0.28382132	-0.015408305	-0.015408305	-276583.22	829886.56	0	669.2773947666801
12.022644	6.9183097e-12	0.25	2.370022e8	7.8861778e7	-0.28264276	-0.015408305	-0.015408304	-252246.92	756865.55	0	670.3847291404674
12.022644	7.5857758e-12	0.25	2.1614857e8	7.1922798e7	-0.28146421	-0.015408305	-0.015408304	-230051.95	690269.58	0	671.4920538837099
12.022644	8.3176377e-12	0.25	1.9712985e8	6.5594374e7	-0.28028566	-0.015408305	-0.015408304	-209809.9	629533.35	0	672.5993786269523
12.022644	9.1201084e-12	0.25	1.7978456e8	5.9822782e7	-0.27910711	-0.015408304	-0.015408304	-191348.93	574141.24	0	673.7067033701949
12.022644	1.e-11	0.25	1.6396546e8	5.4559028e7	-0.27792856	-0.015408305	-0.015408304	-174512.32	523623.03	0	674.8140281134374
12.022644	1.0964782e-11	0.25	1.4953828e8	4.9758427e7	-0.27675	-0.015408305	-0.015408304	-159157.15	477549.88	0	675.9213622523333
12.022644	1.2022644e-11	0.25	1.3638054e8	4.5380227e7	-0.27557145	-0.015408305	-0.015408304	-145153.07	435530.67	0	677.0286869955759
12.022644	1.3182567e-11	0.25	1.2438053e8	4.138726e7	-0.2743929	-0.015408305	-0.015408304	-132381.2	397208.69	0	678.1360117388183
12.022644	1.4454398e-11	0.25	1.1343639e8	3.7745632e7	-0.27321435	-0.015408305	-0.015408304	-120733.11	362258.64	0	679.243336482061
12.022644	1.5848932e-11	0.25	1.0345522e8	3.4424428e7	-0.2720358	-0.015408305	-0.015408304	-110109.93	330383.81	0	680.3506612253033
12.022644	1.7378008e-11	0.25	9.4352281e7	3.1395453e7	-0.27085725	-0.015408305	-0.015408304	-100421.48	301313.61	0	681.4579859685459
12.022644	1.9054607e-11	0.25	8.6050305e7	2.8632996e7	-0.26967869	-0.015408305	-0.015408304	-91585.5	274801.29	0	682.5653201074418
12.022644	2.0892961e-11	0.25	7.8478811e7	2.6113604e7	-0.26850014	-0.015408305	-0.015408304	-83526.992	250621.75	0	683.6726448506844
12.022644	2.2908677e-11	0.25	7.1573528e7	2.3815892e7	-0.26732159	-0.015408305	-0.015408304	-76177.547	228569.76	0	684.7799695939269
12.022644	2.5118864e-11	0.25	6.5275834e7	2.1720354e7	-0.26614304	-0.015408305	-0.015408304	-69474.772	208458.1	0	685.8872943371694
12.022644	2.7542287e-11	0.25	5.9532269e7	1.98092e7	-0.26496449	-0.015408305	-0.015408304	-63361.768	190116.04	0	686.9946190804119
12.022644	3.0199517e-11	0.25	5.4294076e7	1.8066207e7	-0.26378593	-0.015408305	-0.015408303	-57786.643	173387.89	0	688.1019534541991
12.022644	3.3113112e-11	0.25	4.9516787e7	1.6476579e7	-0.26260738	-0.015408305	-0.015408303	-52702.068	158131.64	0	689.2092781974418
12.022644	3.6307805e-11	0.25	4.5159848e7	1.5026821e7	-0.26142883	-0.015408305	-0.015408303	-48064.881	144217.77	0	690.3166029406841
12.022644	3.9810717e-11	0.25	4.1186271e7	1.3704625e7	-0.26025028	-0.015408305	-0.015408303	-43835.716	131528.17	0	691.4239276839268
12.022644	4.3651583e-11	0.25	3.7562327e7	1.2498769e7	-0.25907173	-0.015408305	-0.015408303	-39978.671	119955.12	0	692.5312524271692
12.022644	4.7863009e-11	0.25	3.425725e7	1.1399014e7	-0.25789318	-0.015408305	-0.015408303	-36461.005	109400.37	0	693.6385771704117
12.022644	5.2480746e-11	0.25	3.1242985e7	1.0396026e7	-0.25671462	-0.015408305	-0.015408303	-33252.854	99774.327	0	694.7459113093076
12.022644	5.7543994e-11	0.25	2.8493942e7	9.4812909e6	-0.25553607	-0.015408305	-0.015408302	-30326.987	90995.27	0	695.8532362874415
12.022644	6.3095734e-11	0.25	2.5986785e7	8.6470419e6	-0.25435752	-0.015408305	-0.015408302	-27658.563	82988.674	0	696.9605610306842
12.022644	6.9183097e-11	0.25	2.370023e7	7.8861978e6	-0.25317897	-0.015408305	-0.015408302	-25224.932	75686.572	0	698.0678857739265
12.022644	7.5857758e-11	0.25	2.1614868e7	7.1922999e6	-0.25200042	-0.015408305	-0.015408301	-23005.434	69026.976	0	699.1752107520604
12.022644	8.3176377e-11	0.25	1.9712995e7	6.5594573e6	-0.25082186	-0.015408305	-0.015408301	-20981.228	62953.352	0	700.2825448909563
12.022644	9.1201084e-11	0.25	1.7978466e7	5.982298e6	-0.24964331	-0.015408305	-0.015408301	-19135.129	57414.141	0	701.3898696341989
12.022644	1.e-10	0.25	1.6396557e7	5.4559226e6	-0.24846476	-0.015408305	-0.0154083	-17451.468	52362.321	0	702.4971946123326
12.022644	1.0964782e-10	0.25	1.4953839e7	4.9758623e6	-0.24728621	-0.015408305	-0.0154083	-15915.95	47755.005	0	703.6045193555753
12.022644	1.2022644e-10	0.25	1.3638064e7	4.5380423e6	-0.24610766	-0.015408305	-0.0154083	-14515.541	43553.084	0	704.7118440988178
12.022644	1.3182567e-10	0.25	1.2438064e7	4.1387456e6	-0.24492911	-0.015408305	-0.015408299	-13238.353	39720.887	0	705.8191690769515
12.022644	1.4454398e-10	0.25	1.134365e7	3.7745827e6	-0.24375055	-0.015408305	-0.015408299	-12073.543	36225.881	0	706.9265032158476
12.022644	1.5848932e-10	0.25	1.0345533e7	3.4424621e6	-0.242572	-0.015408305	-0.015408298	-11011.224	33038.397	0	708.0338281939814
12.022644	1.7378008e-10	0.25	9.435239e6	3.1395646e6	-0.24139345	-0.015408305	-0.015408298	-10042.377	30131.379	0	709.1411529372239
12.022644	1.9054607e-10	0.25	8.6050413e6	2.8633188e6	-0.2402149	-0.015408305	-0.015408297	-9158.7782	27480.146	0	710.2484779153576
12.022644	2.0892961e-10	0.25	7.8478919e6	2.6113795e6	-0.23903635	-0.015408305	-0.015408296	-8352.9264	25062.192	0	711.3558028934915
12.022644	2.2908677e-10	0.25	7.1573636e6	2.3816083e6	-0.23785779	-0.015408305	-0.015408295	-7617.9808	22856.993	0	712.4631372672789
12.022644	2.5118864e-10	0.25	6.5275943e6	2.1720543e6	-0.23667924	-0.015408305	-0.015408294	-6947.7023	20845.827	0	713.5704622454127
12.022644	2.7542287e-10	0.25	5.9532377e6	1.9809389e6	-0.23550069	-0.015408305	-0.015408293	-6336.4008	19011.622	0	714.6777872235466
12.022644	3.0199517e-10	0.25	5.4294185e6	1.8066395e6	-0.23432214	-0.015408305	-0.015408292	-5778.8873	17338.807	0	715.7851122016805
12.022644	3.3113112e-10	0.25	4.9516896e6	1.6476766e6	-0.23314359	-0.015408305	-0.015408291	-5270.4288	15813.181	0	716.8924371798142
12.022644	3.6307805e-10	0.25	4.5159956e6	1.5027006e6	-0.23196504	-0.015408305	-0.01540829	-4806.7089	14421.794	0	717.9997621579481
12.022644	3.9810717e-10	0.25	4.118638e6	1.370481e6	-0.23078648	-0.015408305	-0.015408288	-4383.7914	13152.835	0	719.1070967666267
12.022644	4.3651583e-10	0.25	3.7562436e6	1.2498953e6	-0.22960793	-0.015408305	-0.015408287	-3998.0858	11995.529	0	720.2144217447606
12.022644	4.7863009e-10	0.25	3.4257359e6	1.1399198e6	-0.22842938	-0.015408306	-0.015408285	-3646.3181	10940.054	0	721.3217469577858
12.022644	5.2480746e-10	0.25	3.1243093e6	1.0396209e6	-0.22725083	-0.015408305	-0.015408283	-3325.502	9977.45	0	722.429072170811
12.022644	5.7543994e-10	0.25	2.849405e6	948147.28	-0.22607228	-0.015408306	-0.015408281	-3032.9142	9099.5443	0	723.5363973838361
12.022644	6.3095734e-10	0.25	2.5986893e6	864722.3	-0.22489372	-0.015408306	-0.015408279	-2766.0708	8298.8846	0	724.6437319925149
12.022644	6.9183097e-10	0.25	2.3700339e6	788637.81	-0.22371517	-0.015408306	-0.015408276	-2522.7066	7568.6745	0	725.7510574404314
12.022644	7.5857758e-10	0.25	2.1614977e6	719247.93	-0.22253662	-0.015408306	-0.015408274	-2300.7557	6902.7148	0	726.8583826534566
12.022644	8.3176377e-10	0.25	1.9713103e6	655963.58	-0.22135807	-0.015408306	-0.015408271	-2098.334	6295.3524	0	727.965708101373
12.022644	9.1201084e-10	0.25	1.7978575e6	598247.58	-0.22017952	-0.015408306	-0.015408268	-1913.7231	5741.4313	0	729.0730335492896
12.022644	1.e-9	0.25	1.6396665e6	545609.94	-0.21900097	-0.015408306	-0.015408264	-1745.3559	5236.2493	0	730.1803592320975
12.022644	1.0964782e-9	0.25	1.4953947e6	497603.84	-0.21782241	-0.015408307	-0.01540826	-1591.8031	4775.5178	0	731.2876943105587
12.022644	1.2022644e-9	0.25	1.3638172e6	453821.75	-0.21664386	-0.015408307	-0.015408256	-1451.7611	4355.3256	0	732.3950199933665
12.022644	1.3182567e-9	0.25	1.2438172e6	413892.	-0.21546531	-0.015408307	-0.015408251	-1324.0412	3972.1059	0	733.5023459110657
12.022644	1.4454398e-9	0.25	1.1343758e6	377475.63	-0.21428676	-0.015408307	-0.015408246	-1207.5592	3622.6053	0	734.6096718287649
12.022644	1.5848932e-9	0.25	1.0345641e6	344263.49	-0.21310821	-0.015408308	-0.01540824	-1101.3262	3303.857	0	735.7169979813555
12.022644	1.7378008e-9	0.25	943534.72	313973.65	-0.21192965	-0.015408308	-0.015408234	-1004.4405	3013.1551	0	736.8243335295996
12.022644	1.9054607e-9	0.25	860514.95	286348.99	-0.2107511	-0.015408308	-0.015408227	-916.07953	2748.0318	0	737.9316599170813
12.022644	2.0892961e-9	0.25	784800.01	261154.98	-0.20957255	-0.015408308	-0.01540822	-835.49329	2506.2364	0	739.0389863045633
12.022644	2.2908677e-9	0.25	715747.18	238177.77	-0.208394	-0.015408309	-0.015408212	-761.99766	2285.7165	0	740.1463129269364
12.022644	2.5118864e-9	0.25	652770.24	217222.29	-0.20721545	-0.015408309	-0.015408203	-694.96875	2084.5999	0	741.253639784201
12.022644	2.7542287e-9	0.25	595334.6	198110.67	-0.2060369	-0.015408309	-0.015408192	-633.83756	1901.1794	0	742.3609671112482
12.022644	3.0199517e-9	0.25	542952.66	180680.65	-0.20485834	-0.01540831	-0.015408182	-578.08513	1733.8979	0	743.4683035990575
12.022644	3.3113112e-9	0.25	495179.77	164784.27	-0.20367979	-0.01540831	-0.01540817	-527.23822	1581.3354	0	744.5756311609962
12.022644	3.6307805e-9	0.25	451610.38	150286.6	-0.20250124	-0.015408311	-0.015408157	-480.86518	1442.1967	0	745.682958957826
12.022644	3.9810717e-9	0.25	411874.61	137064.55	-0.20132269	-0.015408312	-0.015408143	-438.57236	1315.3007	0	746.7902869895472
12.022644	4.3651583e-9	0.25	375635.17	125005.89	-0.20014414	-0.015408313	-0.015408127	-400.00075	1199.5702	0	747.897615491051
12.022644	4.7863009e-9	0.25	342584.41	114008.26	-0.19896559	-0.015408313	-0.01540811	-364.82291	1094.0227	0	749.0049442274463
12.022644	5.2480746e-9	0.25	312441.75	103978.29	-0.19778703	-0.015408314	-0.015408091	-332.74024	997.76223	0	750.1122828292777
12.022644	5.7543994e-9	0.25	284951.32	94830.844	-0.19660848	-0.015408315	-0.015408071	-303.4804	909.97166	0	751.219612270347
12.022644	6.3095734e-9	0.25	259879.75	86488.264	-0.19542993	-0.015408316	-0.015408048	-276.795	829.90571	0	752.3269424160904
12.022644	6.9183097e-9	0.25	237014.21	78879.731	-0.19425138	-0.015408317	-0.015408023	-252.45752	756.88468	0	753.4342730316162
12.022644	7.5857758e-9	0.25	216160.58	71940.66	-0.19307283	-0.015408318	-0.015407996	-230.26138	690.28872	0	754.5416041169249
12.022644	8.3176377e-9	0.25	197141.85	65612.143	-0.19189428	-0.01540832	-0.015407967	-210.01814	629.55248	0	755.648935672016
12.022644	9.1201084e-9	0.25	179796.57	59840.459	-0.19071573	-0.015408321	-0.015407934	-191.556	574.16037	0	756.7562681666727
12.022644	1.e-8	0.25	163977.47	54576.613	-0.18953718	-0.015408322	-0.015407898	-174.71821	523.64216	0	757.8636013660035
12.022644	1.0964782e-8	0.25	149550.29	49775.92	-0.18835862	-0.015408324	-0.015407859	-159.36187	477.56902	0	758.9709446656616
12.022644	1.2022644e-8	0.25	136392.55	45397.628	-0.18718007	-0.015408326	-0.015407816	-145.35661	435.54981	0	760.0782795092316
12.022644	1.3182567e-8	0.25	124392.54	41404.57	-0.18600152	-0.015408328	-0.015407769	-132.58356	397.22783	0	761.1856152923668
12.022644	1.4454398e-8	0.25	113448.4	37762.85	-0.18482297	-0.01540833	-0.015407717	-120.9343	362.27777	0	762.2929522499591
12.022644	1.5848932e-8	0.25	103467.23	34441.553	-0.18364442	-0.015408333	-0.01540766	-110.30994	330.40294	0	763.4002903820076
12.022644	1.7378008e-8	0.25	94364.292	31412.487	-0.18246587	-0.015408336	-0.015407598	-100.6203	301.33275	0	764.5076296885131
12.022644	1.9054607e-8	0.25	86062.316	28649.937	-0.18128732	-0.015408339	-0.01540753	-91.783149	274.82042	0	765.6149704043665
12.022644	2.0892961e-8	0.25	78490.822	26130.454	-0.18010877	-0.015408342	-0.015407455	-83.723464	250.64088	0	766.7223127644593
12.022644	2.2908677e-8	0.25	71585.538	23832.65	-0.17893022	-0.015408346	-0.015407373	-76.37284	228.58889	0	767.8296567687917
12.022644	2.5118864e-8	0.25	65287.845	21737.02	-0.17775167	-0.015408349	-0.015407283	-69.668889	208.47723	0	768.9370026522545
12.022644	2.7542287e-8	0.25	59544.28	19825.774	-0.17657312	-0.015408354	-0.015407185	-63.554708	190.13518	0	770.0443504148479
12.022644	3.0199517e-8	0.25	54306.087	18082.689	-0.17539457	-0.015408359	-0.015407077	-57.978405	173.40703	0	771.151700526355
12.022644	3.3113112e-8	0.25	49528.798	16492.968	-0.17421602	-0.015408364	-0.015406958	-52.892653	158.15078	0	772.2590532216666
12.022644	3.6307805e-8	0.25	45171.858	15043.118	-0.17303747	-0.015408369	-0.015406828	-48.254288	144.23691	0	773.3664085007831
12.022644	3.9810717e-8	0.25	41198.283	13720.831	-0.17185892	-0.015408375	-0.015406686	-44.023946	131.54731	0	774.4737665985955
12.022644	4.3651583e-8	0.25	37574.338	12514.882	-0.17068037	-0.015408382	-0.01540653	-40.165724	119.97426	0	775.5811279848865
12.022644	4.7863009e-8	0.25	34269.261	11415.036	-0.16950182	-0.01540839	-0.015406359	-36.64688	109.41951	0	776.6884928945478
12.022644	5.2480746e-8	0.25	31254.996	10411.956	-0.16832327	-0.015408398	-0.015406171	-33.437552	99.793462	0	777.7958617973618
12.022644	5.7543994e-8	0.25	28505.953	9497.1282	-0.16714472	-0.015408407	-0.015405965	-30.510507	91.014404	0	778.9032349282198
12.022644	6.3095734e-8	0.25	25998.796	8662.7873	-0.16596617	-0.015408417	-0.015405739	-27.840906	83.007809	0	780.0106127569046
12.022644	6.9183097e-8	0.25	23712.241	7901.8513	-0.16478763	-0.015408428	-0.015405492	-25.406098	75.705707	0	781.117986122654
12.022644	7.5857758e-8	0.25	21626.879	7207.8612	-0.16360908	-0.01540844	-0.01540522	-23.185422	69.04611	0	782.2253747563402
12.022644	8.3176377e-8	0.25	19725.006	6574.9267	-0.16243053	-0.015408453	-0.015404923	-21.160038	62.972487	0	783.33276926231
12.022644	9.1201084e-8	0.25	17990.477	5997.6754	-0.16125199	-0.015408467	-0.015404596	-19.312763	57.433276	0	784.4401614193663
12.022644	1.e-7	0.25	16408.568	5471.2079	-0.16007344	-0.015408483	-0.015404239	-17.627924	52.381456	0	785.5475700188164
12.022644	1.0964782e-7	0.25	14965.85	4991.0557	-0.15889489	-0.0154085	-0.015403846	-16.091228	47.774141	0	786.6549870743544
12.022644	1.2022644e-7	0.25	13650.075	4553.1436	-0.15771635	-0.015408519	-0.015403416	-14.689642	43.57222	0	787.7624034252185
12.022644	1.3182567e-7	0.25	12450.075	4153.7549	-0.15653781	-0.01540854	-0.015402944	-13.411276	39.740022	0	788.8698296415189
12.022644	1.4454398e-7	0.25	11355.661	3789.5	-0.15535926	-0.015408562	-0.015402427	-12.245289	36.245017	0	789.9772758235829
12.022644	1.5848932e-7	0.25	10357.544	3457.2875	-0.15418072	-0.015408587	-0.01540186	-11.181792	33.057534	0	791.0847243545602
12.022644	1.7378008e-7	0.25	9447.2504	3154.298	-0.15300218	-0.015408614	-0.015401238	-10.211768	30.150515	0	792.1921858045612
12.022644	1.9054607e-7	0.25	8617.0527	2877.9601	-0.15182364	-0.015408644	-0.015400557	-9.3269919	27.499282	0	793.2996611131509
12.022644	2.0892961e-7	0.25	7859.9036	2625.9289	-0.1506451	-0.015408677	-0.015399809	-8.5199628	25.081329	0	794.4071521594605
12.022644	2.2908677e-7	0.25	7169.3752	2396.0656	-0.14946656	-0.015408713	-0.01539899	-7.7838396	22.87613	0	795.5146598830548
12.022644	2.5118864e-7	0.25	6539.606	2186.4197	-0.14828802	-0.015408752	-0.015398091	-7.1123836	20.864965	0	796.6221863979563
12.022644	2.7542287e-7	0.25	5965.2496	1995.2123	-0.14710949	-0.015408796	-0.015397106	-6.4999047	19.03076	0	797.7297237178591
12.022644	3.0199517e-7	0.25	5441.4303	1820.8209	-0.14593095	-0.015408843	-0.015396025	-5.9412136	17.357945	0	798.837292982984
12.022644	3.3113112e-7	0.25	4963.7016	1661.766	-0.14475242	-0.015408895	-0.015394841	-5.4315776	15.83232	0	799.9448770462631
12.022644	3.6307805e-7	0.25	4528.0078	1516.6981	-0.14357389	-0.015408952	-0.015393542	-4.9666803	14.440934	0	801.052488122046
12.022644	3.9810717e-7	0.25	4130.6504	1384.3865	-0.14239536	-0.015409014	-0.015392117	-4.5425852	13.171974	0	802.1601287941374
12.022644	4.3651583e-7	0.25	3768.2561	1263.7087	-0.14121684	-0.015409083	-0.015390556	-4.155702	12.01467	0	803.2677920157973
12.022644	4.7863009e-7	0.25	3437.7486	1153.6413	-0.14003831	-0.015409158	-0.015388843	-3.8027567	10.959195	0	804.3755003365939
12.022644	5.2480746e-7	0.25	3136.3223	1053.2504	-0.13885979	-0.01540924	-0.015386966	-3.4807631	9.9965917	0	805.4832377839164
12.022644	5.7543994e-7	0.25	2861.4182	961.68482	-0.13768127	-0.015409331	-0.015384907	-3.1869976	9.1186867	0	806.5910179814623
12.022644	6.3095734e-7	0.25	2610.7027	878.16787	-0.13650276	-0.01540943	-0.01538265	-2.9189766	8.3180279	0	807.6988352918397
12.022644	6.9183097e-7	0.25	2382.0476	801.99142	-0.13532425	-0.015409538	-0.015380175	-2.6744347	7.5878186	0	808.8067038085284
12.022644	7.5857758e-7	0.25	2173.5116	732.50958	-0.13414574	-0.015409657	-0.015377461	-2.4513062	6.92186	0	809.9146284642469
12.022644	8.3176377e-7	0.25	1983.3246	669.13328	-0.13296724	-0.015409788	-0.015374485	-2.2477068	6.3144986	0	811.0226052658423
12.022644	9.1201084e-7	0.25	1809.8721	611.32533	-0.13178874	-0.015409931	-0.015371222	-2.0619181	5.7605788	0	812.1306494812516
12.022644	1.e-6	0.25	1651.6816	558.59576	-0.13061025	-0.015410088	-0.015367644	-1.8923731	5.2553981	0	813.2387582917786
12.022644	1.0964782e-6	0.25	1507.4102	510.49772	-0.12943176	-0.01541026	-0.015363722	-1.7376424	4.794668	0	814.3469479049259
12.022644	1.2022644e-6	0.25	1375.8332	466.6237	-0.12825328	-0.015410449	-0.015359421	-1.5964226	4.3744775	0	815.4552171462364
12.022644	1.3182567e-6	0.25	1255.8337	426.60203	-0.12707481	-0.015410656	-0.015354704	-1.4675248	3.9912595	0	816.5635747066899
12.022644	1.4454398e-6	0.25	1146.3929	390.09375	-0.12589634	-0.015410883	-0.015349533	-1.3498648	3.6417608	0	817.6720389078107
12.022644	1.5848932e-6	0.25	1046.5818	356.78972	-0.12471788	-0.015411132	-0.015343863	-1.2424538	3.3230146	0	818.7806109240553
12.022644	1.7378008e-6	0.25	955.55309	326.40799	-0.12353943	-0.015411405	-0.015337646	-1.1443899	3.0323149	0	819.8893020302079
12.022644	1.9054607e-6	0.25	872.53406	298.69144	-0.12236099	-0.015411704	-0.01533083	-1.0548508	2.7671941	0	820.9981244406184
12.022644	2.0892961e-6	0.25	796.81995	273.40557	-0.12118256	-0.015412032	-0.015323356	-0.97308635	2.5254015	0	822.1070920138753
12.022644	2.2908677e-6	0.25	727.76802	250.33651	-0.12000415	-0.015412392	-0.01531516	-0.8984124	2.3048846	0	823.216210387371
12.022644	2.5118864e-6	0.25	664.79206	229.2892	-0.11882575	-0.015412787	-0.015306174	-0.83020506	2.1037713	0	824.3255049293698
12.022644	2.7542287e-6	0.25	607.3575	210.08576	-0.11764736	-0.015413219	-0.015296321	-0.76789535	1.9203544	0	825.4349937265047
12.022644	3.0199517e-6	0.25	554.97675	192.56394	-0.11646898	-0.015413694	-0.015285518	-0.71096429	1.7530769	0	826.5446962747566
12.022644	3.3113112e-6	0.25	507.20516	176.57578	-0.11529063	-0.015414214	-0.015273672	-0.65893862	1.6005187	0	827.6546156277132
12.022644	3.6307805e-6	0.25	463.63719	161.98635	-0.11411229	-0.015414785	-0.015260684	-0.61138669	1.4613848	0	828.7647938309236
12.022644	3.9810717e-6	0.25	423.90299	148.67257	-0.11293397	-0.015415411	-0.015246442	-0.56791484	1.3344941	0	829.8752477965643
12.022644	4.3651583e-6	0.25	387.66526	136.52221	-0.11175568	-0.015416097	-0.015230827	-0.52816403	1.2187693	0	830.9859960810509
12.022644	4.7863009e-6	0.25	354.61637	125.4329	-0.11057741	-0.015416849	-0.015213706	-0.49180682	1.1132281	0	832.0970793205846
12.022644	5.2480746e-6	0.25	324.47578	115.31129	-0.10939917	-0.015417674	-0.015194934	-0.45854459	1.0169745	0	833.2085221787563
12.022644	5.7543994e-6	0.25	296.9876	106.07223	-0.10822096	-0.015418579	-0.01517435	-0.42810496	0.9291915	0	834.3203624730709
12.022644	6.3095734e-6	0.25	271.91851	97.638082	-0.10704278	-0.015419571	-0.015151782	-0.40023956	0.84913383	0	835.4326406048385
12.022644	6.9183097e-6	0.25	249.05568	89.938024	-0.10586464	-0.015420659	-0.015127036	-0.37472182	0.7761219	0	836.5453927473254
12.022644	7.5857758e-6	0.25	228.20503	82.907472	-0.10468653	-0.015421852	-0.015099905	-0.35134513	0.70953591	0	837.6586769186916
12.022644	8.3176377e-6	0.25	209.18956	76.487527	-0.10350847	-0.01542316	-0.015070157	-0.32992105	0.64881059	0	838.7725288224204
12.022644	9.1201084e-6	0.25	191.84785	70.624471	-0.10233046	-0.015424595	-0.01503754	-0.31027772	0.59343047	0	839.8870076511291
12.022644	0.00001	0.25	176.03268	65.269313	-0.1011525	-0.015426168	-0.015001779	-0.29225839	0.5429254	0	841.0021779999356
12.022644	0.000010964782	0.25	161.6098	60.377377	-0.0999746	-0.015427893	-0.01496257	-0.27572009	0.49686666	0	842.1181018801526
12.022644	0.000012022644	0.25	148.45222	55.90786	-0.098804509	-0.015437545	-0.014927343	-0.26053729	0.45485767	0	843.2257533572454
12.022644	0.000013182567	0.25	136.45694	51.823708	-0.097627481	-0.015440365	-0.014880957	-0.24658183	0.41655247	0	844.3425437516066
12.022644	0.000014454398	0.25	125.51799	48.090983	-0.096450601	-0.015443455	-0.014830101	-0.23374967	0.38162081	0	845.4602450545746
12.022644	0.000015848932	0.25	115.5425	44.678777	-0.09527388	-0.015446844	-0.014774346	-0.22194189	0.34976614	0	846.5789476993143
12.022644	0.000017378008	0.25	106.4458	41.558909	-0.094097335	-0.015450558	-0.01471322	-0.21106824	0.32071806	0	847.6987465819259
12.022644	0.000019054607	0.25	98.15066	38.705673	-0.092920983	-0.01545463	-0.01464621	-0.20104644	0.29422996	0	848.8197462290551
12.022644	0.000020892961	0.25	90.586658	36.09563	-0.091744841	-0.015459094	-0.014572751	-0.1918014	0.27007699	0	849.9420633816961
12.022644	0.000022908677	0.25	83.689587	33.707406	-0.090568931	-0.015463986	-0.014492226	-0.18326465	0.24805411	0	851.0658222973669
12.022644	0.000025118864	0.25	77.400894	31.521508	-0.089393273	-0.015469349	-0.014403961	-0.17537373	0.22797436	0	852.1911625015216
12.022644	0.000027542287	0.25	71.667193	29.520162	-0.088217892	-0.015475227	-0.014307218	-0.16807166	0.20966727	0	853.3182338548338
12.022644	0.000030199517	0.25	66.439808	27.687159	-0.087042814	-0.015481669	-0.01420119	-0.16130646	0.19297743	0	854.4472014859134
12.022644	0.000033113112	0.25	61.67436	26.00772	-0.085868067	-0.015488729	-0.014085	-0.15503069	0.17776315	0	855.578245086634
12.022644	0.000036307805	0.25	57.330393	24.468368	-0.084693684	-0.015496466	-0.013957685	-0.1492011	0.16389526	0	856.7115598516968
12.022644	0.000039810717	0.25	53.371024	23.056818	-0.083519697	-0.015504944	-0.013818202	-0.1437782	0.15125601	0	857.8473607066759
12.022644	0.000043651583	0.25	49.762634	21.761865	-0.082346144	-0.015514234	-0.013665413	-0.13872596	0.13973809	0	858.9858792544298
12.022644	0.000047863009	0.25	46.474582	20.573298	-0.081173066	-0.015524413	-0.013498082	-0.1340115	0.12924368	0	860.1273672984723
12.022644	0.000052480746	0.25	43.478944	19.481804	-0.080000507	-0.015535564	-0.013314868	-0.12960482	0.11968365	0	861.2720984872115
12.022644	0.000057543994	0.25	40.750272	18.478896	-0.078828515	-0.015547781	-0.013114323	-0.1254785	0.11097678	0	862.4203678441677
12.022644	0.000063095734	0.25	38.26538	17.556836	-0.077657143	-0.015561162	-0.01289488	-0.12160755	0.1030491	0	863.5724936471029
12.022644	0.000069183097	0.25	36.003145	16.708573	-0.076486447	-0.015575817	-0.012654859	-0.1179691	0.095833203	0	864.7288178978047
12.022644	0.000075857758	0.25	33.944323	15.927678	-0.07531649	-0.015591867	-0.012392458	-0.11454229	0.0892677	0	865.8897046778459
12.022644	0.000083176377	0.25	32.071388	15.208292	-0.07414734	-0.015609441	-0.012105754	-0.11130806	0.083296691	0	867.055541792825
12.022644	0.000091201084	0.25	30.368375	14.545074	-0.072979069	-0.015628682	-0.011792713	-0.10824897	0.077869269	0	868.2267393630173
12.022644	0.0001	0.25	28.820742	13.933157	-0.071811756	-0.015649745	-0.01145119	-0.1053491	0.07293908	0	869.4037270046788
12.022644	0.00010964782	0.25	27.415243	13.368104	-0.070645489	-0.015672797	-0.011078949	-0.10259387	0.068463909	0	870.5869472530895
12.022644	0.00012022644	0.25	26.139806	12.845867	-0.06948036	-0.015698023	-0.01067368	-0.099969948	0.064405301	0	871.7768562672269
12.022644	0.00013182567	0.25	24.983426	12.362753	-0.068316469	-0.015725622	-0.010233025	-0.097465132	0.060728215	0	872.9739139643299
12.022644	0.00014454398	0.25	23.936062	11.915394	-0.067153924	-0.01575581	-0.0097546137	-0.095068253	0.057400695	0	874.1785756342778
12.022644	0.00015848932	0.25	22.98854	11.500708	-0.065992843	-0.015788824	-0.0092361131	-0.092769078	0.054393562	0	875.3912784098496
12.022644	0.00017378008	0.25	22.132467	11.115878	-0.064833351	-0.015824919	-0.0086752743	-0.090558239	0.051680139	0	876.6124330925057
12.022644	0.00019054607	0.25	21.360146	10.758324	-0.063675583	-0.01586437	-0.0080699987	-0.088427154	0.049235979	0	877.8424057838847
12.022644	0.00020892961	0.25	20.664499	10.425677	-0.062519683	-0.015907478	-0.0074184056	-0.086367964	0.047038622	0	879.0815029467144
12.022644	0.00022908677	0.25	20.038999	10.115756	-0.061365805	-0.015954567	-0.0067189028	-0.084373477	0.04506737	0	880.3299538819188
12.022644	0.00025118864	0.25	19.477602	9.8265513	-0.060214113	-0.016005986	-0.0059702555	-0.082437117	0.043303081	0	881.5878945446037
12.022644	0.00027542287	0.25	18.974694	9.5562057	-0.059064783	-0.016062112	-0.0051716475	-0.080552878	0.041727987	0	882.8553512895774
12.022644	0.00030199517	0.25	18.525038	9.3029982	-0.057918	-0.016123351	-0.004322729	-0.078715287	0.040325543	0	884.1322324622399
12.022644	0.00033113112	0.25	18.123742	9.0653319	-0.056773958	-0.016190141	-0.0034236447	-0.076919365	0.039080296	0	885.418321798137
12.022644	0.00036307805	0.25	17.76622	8.8417245	-0.055632864	-0.016262951	-0.0024750331	-0.0751606	0.037977789	0	886.7132748291217
12.022644	0.00039810717	0.25	17.448178	8.6307999	-0.054494934	-0.016342281	-0.0014780045	-0.073434913	0.037004492	0	888.016627809227
12.022644	0.00043651583	0.25	17.165595	8.4312826	-0.053360391	-0.016428672	-0.00043409147	-0.071738633	0.036147756	0	889.3278112279625
12.022644	0.00047863009	0.25	16.91472	8.241994	-0.05222947	-0.016522696	0.00065482471	-0.070068471	0.035395787	0	890.6461623910953
12.022644	0.00052480746	0.25	16.692064	8.0618488	-0.051102411	-0.016624964	0.0017865994	-0.068421491	0.034737636	0	891.9709520455838
12.022644	0.00057543994	0.25	16.494404	7.8898532	-0.04997946	-0.016736128	0.0029589181	-0.066795086	0.034163191	0	893.3014054023511
12.022644	0.00063095734	0.25	16.318779	7.7251019	-0.048860868	-0.016856876	0.0041693922	-0.065186955	0.033663172	0	894.6367255666962
12.022644	0.00069183097	0.25	16.16249	7.5667759	-0.047746888	-0.016987935	0.0054156412	-0.063595071	0.033229121	0	895.9761156697572
12.022644	0.00075857758	0.25	16.023092	7.4141382	-0.046637774	-0.017130075	0.0066953659	-0.06201766	0.032853385	0	897.3187969997718
12.022644	0.00083176377	0.25	15.898391	7.2665306	-0.045533773	-0.017284104	0.0080064068	-0.060453178	0.032529087	0	898.6640302362554
12.022644	0.00091201084	0.25	15.786432	7.1233688	-0.04443513	-0.017450867	0.0093467846	-0.05890028	0.032250091	0	900.0111202652729
12.022644	0.001	0.25	15.685489	6.9841368	-0.043342076	-0.01763125	0.010714727	-0.057357804	0.03201096	0	901.3594337493108
12.022644	0.0010964782	0.25	15.594047	6.8483824	-0.042254829	-0.017826169	0.012108681	-0.055824746	0.031806909	0	902.7084010768756
12.022644	0.0012022644	0.25	15.510795	6.7157107	-0.04117359	-0.018036581	0.01352732	-0.05430024	0.031633752	0	904.057521788484
12.022644	0.0013182567	0.25	15.434607	6.5857796	-0.040098534	-0.018263467	0.014969536	-0.052783541	0.031487858	0	905.4063712005975
12.022644	0.0014454398	0.25	15.364527	6.4582938	-0.039029809	-0.018507839	0.016434434	-0.051274003	0.031366092	0	906.7546000297973
12.022644	0.0015848932	0.25	15.299761	6.3330007	-0.03796753	-0.018770728	0.017921322	-0.04977107	0.03126578	0	908.1019376812627
12.022644	0.0017378008	0.25	15.239659	6.2096851	-0.036911772	-0.019053188	0.019429693	-0.048274251	0.031184656	0	909.4481945976843
12.022644	0.0019054607	0.25	15.183708	6.0881657	-0.03586257	-0.019356277	0.020959223	-0.046783117	0.031120832	0	910.7932617894812
12.022644	0.0020892961	0.25	15.131518	5.9682909	-0.034819914	-0.019681065	0.022509754	-0.045297282	0.031072754	0	912.137111539476
12.022644	0.0022908677	0.25	15.082813	5.8499354	-0.033783741	-0.02002862	0.024081283	-0.043816389	0.031039175	0	913.4798023356116
12.022644	0.0025118864	0.25	15.037423	5.7329977	-0.032753939	-0.020399998	0.025673964	-0.042340107	0.031019125	0	914.8214755824732
12.022644	0.0027542287	0.25	14.995271	5.6173964	-0.031730344	-0.020796242	0.027288096	-0.040868116	0.031011886	0	916.1623556012879
12.022644	0.0030199517	0.25	14.956366	5.5030681	-0.03071274	-0.021218367	0.028924122	-0.039400098	0.031016963	0	917.5027493950341
12.022644	0.0033113112	0.25	14.920793	5.3899647	-0.029700861	-0.021667361	0.030582627	-0.037935732	0.031034062	0	918.8430442995273
12.022644	0.0036307805	0.25	14.888701	5.2780511	-0.028694397	-0.022144164	0.03226434	-0.036474683	0.031063069	0	920.1837028158109
12.022644	0.0039810717	0.25	14.860294	5.1673029	-0.027692998	-0.022649675	0.033970133	-0.035016602	0.03110402	0	921.5252586170036
12.022644	0.0043651583	0.25	14.835819	5.0577042	-0.026696283	-0.023184731	0.035701025	-0.033561115	0.031157086	0	922.8683090317768
12.022644	0.0047863009	0.25	14.815552	4.9492451	-0.025703852	-0.02375011	0.037458183	-0.032107823	0.03122254	0	924.2135040044616
12.022644	0.0052480746	0.25	14.799786	4.8419199	-0.024715295	-0.024346516	0.039242929	-0.030656299	0.031300734	0	925.5615392831992
12.022644	0.0057543994	0.25	14.78882	4.7357246	-0.023730208	-0.02497458	0.041056739	-0.029206089	0.031392073	0	926.9131411520056
12.022644	0.0063095734	0.25	14.782937	4.630655	-0.022748215	-0.025634846	0.042901254	-0.027756706	0.031496988	0	928.269048344137
12.022644	0.0069183097	0.25	14.782396	4.5267042	-0.021768983	-0.026327765	0.044778283	-0.02630764	0.031615903	0	929.6299986532845
12.022644	0.0075857758	0.25	14.787408	4.4238608	-0.020792246	-0.027053696	0.046689807	-0.024858357	0.031749207	0	930.9967073235708
12.022644	0.0083176377	0.25	14.798122	4.3221072	-0.019817837	-0.027812884	0.048637995	-0.023408304	0.031897224	0	932.3698407417204
12.022644	0.0091201084	0.25	14.814603	4.2214169	-0.018845714	-0.028605452	0.050625215	-0.021956917	0.032060181	0	933.7499945921651
12.022644	0.01	0.25	14.836814	4.1217538	-0.017875998	-0.029431393	0.052654042	-0.020503634	0.032238179	0	935.1376600326919
12.022644	0.010964782	0.25	14.86459	4.0230703	-0.016909013	-0.030290539	0.054727293	-0.019047899	0.032431163	0	936.5331943330248
12.022644	0.012022644	0.25	14.897622	3.9253069	-0.015945324	-0.031182548	0.056848036	-0.01758918	0.032638906	0	937.9367872853647
12.022644	0.013182567	0.25	14.935428	3.8283927	-0.014985787	-0.032106872	0.059019625	-0.016126984	0.032860991	0	939.348422447318
12.022644	0.014454398	0.25	14.977342	3.7322465	-0.014031592	-0.033062743	0.061245724	-0.014660875	0.033096817	0	940.7678423779787
12.022644	0.015848932	0.25	15.022495	3.6367809	-0.0130843	-0.034049146	0.063530321	-0.01319049	0.033345627	0	942.1945171624893
12.022644	0.017378008	0.25	15.069802	3.5419077	-0.012145877	-0.035064827	0.065877734	-0.011715564	0.03360656	0	943.6276138761671
12.022644	0.019054607	0.25	15.117953	3.4475475	-0.011218724	-0.036108321	0.068292584	-0.010235947	0.033878746	0	945.0659620554777
12.022644	0.020892961	0.25	15.165385	3.3536412	-0.010305711	-0.037178017	0.070779725	-0.0087516316	0.034161441	0	946.5080053104183
12.022644	0.022908677	0.25	15.210224	3.2601663	-0.0094102336	-0.038272284	0.07334413	-0.0072627765	0.034454195	0	947.9517213675081
12.022644	0.025118864	0.25	15.250124	3.1671541	-0.0085363875	-0.03938963	0.07599073	-0.0057697463	0.034757043	0	949.3944202981282
12.022644	0.027542287	0.25	15.281893	3.0747058	-0.0076893701	-0.040528911	0.078724207	-0.0042731722	0.035070653	0	950.8323185665707
12.022644	0.030199517	0.25	15.300646	2.9829971	-0.0068764442	-0.041689586	0.081548745	-0.0027740713	0.035396252	0	952.2595750829679
12.022644	0.033113112	0.25	15.297945	2.8922321	-0.0061090368	-0.042872219	0.084467533	-0.0012740923	0.035734805	0	953.6662025025405
12.022644	0.036307805	0.25	15.258042	2.802434	-0.0054068239	-0.044080181	0.087481057	0.00022397143	0.036083816	0	955.0338280946519
12.022644	0.039810717	0.25	15.1525	2.7127713	-0.0048029016	-0.045325813	0.090580953	0.0017151991	0.036427723	0	956.329391279375
12.022644	0.043651583	0.25	14.944323	2.6202121	-0.0043373228	-0.046643605	0.093736823	0.0031913126	0.036719452	0	957.5081195128257
12.022644	0.047863009	0.25	14.630797	2.519975	-0.0040121675	-0.048083969	0.096902468	0.0046415714	0.03688708	0	958.5572067541748
12.022644	0.052480746	0.25	14.279742	2.410916	-0.0037612763	-0.04965695	0.10007218	0.0060585264	0.036908521	0	959.5374733234845
12.022644	0.057543994	0.25	13.971652	2.2966244	-0.0035100088	-0.051321061	0.10329192	0.0074426363	0.03683016	0	960.529844595068
12.022644	0.063095734	0.25	13.756717	2.1808883	-0.0032109171	-0.053029387	0.1066132	0.0088008076	0.036707376	0	961.5910006942725
12.022644	0.069183097	0.25	13.665745	2.0659634	-0.0028296341	-0.054750067	0.11007262	0.010143769	0.036579762	0	962.7618287803908
12.022644	0.075857758	0.25	13.724559	1.9529332	-0.00233061	-0.056466559	0.11369161	0.011484942	0.036474605	0	964.0807639350649
12.022644	0.083176377	0.25	13.960689	1.8422207	-0.0016705837	-0.058175717	0.11747833	0.012840331	0.036413321	0	965.5903695021715
12.022644	0.091201084	0.25	14.406096	1.7339006	-0.00079556564	-0.05988699	0.12142852	0.014228842	0.036415771	0	967.3403715644508
12.022644	0.1	0.25	15.098518	1.6278652	0.00036104066	-0.061622176	0.12552572	0.015672787	0.036502892	0	969.3894755555277
12.022644	0.10964782	0.25	16.082318	1.5239255	0.0018797588	-0.063414677	0.12974202	0.017198501	0.036698597	0	971.8067828425892
12.022644	0.12022644	0.25	17.407943	1.4219525	0.003854745	-0.065308033	0.13403955	0.018836978	0.037032231	0	974.6718640124839
12.022644	0.13182567	0.25	19.131364	1.3221317	0.0063942084	-0.067357919	0.13836846	0.020624394	0.037542343	0	978.074679290534
12.022644	0.14454398	0.25	21.332774	1.2242664	0.0096445071	-0.06964384	0.14265527	0.022603385	0.038269054	0	982.1354818607126
12.022644	0.15848932	0.25	23.710053	1.1292734	0.013326628	-0.072175942	0.14689601	0.024815503	0.039265645	0	986.5911881634531
12.022644	0.17378008	0.25	27.110212	1.0476223	0.018462225	-0.075283217	0.1507681	0.027300255	0.040705593	0	992.3259375552374
12.022644	0.19054607	0.25	31.346268	0.96987239	0.024918491	-0.078836111	0.15440764	0.030157881	0.042568333	0	999.2469177977052
12.022644	0.20892961	0.25	36.607156	0.89646758	0.033000061	-0.082891858	0.1577642	0.033479313	0.044950479	0	1007.6285078111039
12.022644	0.22908677	0.25	43.111579	0.82782755	0.04305916	-0.087491371	0.16080385	0.037375523	0.047968375	0	1017.7936761377554
12.022644	0.25118864	0.25	51.095692	0.76431658	0.055483193	-0.092652451	0.16351598	0.041979923	0.05176009	0	1030.1039228949858
12.022644	0.27542287	0.25	60.790441	0.70620542	0.070669793	-0.098363717	0.1659194	0.047449043	0.056485622	0	1044.93726857767
12.022644	0.30199517	0.25	72.390008	0.65363135	0.088990397	-0.10458128	0.16806564	0.053960533	0.062324377	0	1062.6548064713375
12.022644	0.33113112	0.25	86.017468	0.60656701	0.11074881	-0.11123042	0.17003731	0.061707863	0.069469473	0	1083.5613856005357
12.022644	0.36307805	0.25	101.69758	0.56481009	0.13614581	-0.11821342	0.17194027	0.070891912	0.078119201	0	1107.8705156140945
12.022644	0.39810717	0.25	119.34636	0.5280007	0.16526092	-0.1254224	0.17389074	0.081710655	0.088466933	0	1135.6842126385866
12.022644	0.43651583	0.25	138.78135	0.49566314	0.19805666	-0.13275383	0.17600091	0.094348848	0.10069134	0	1166.993614223848
12.022644	0.47863009	0.25	159.74885	0.46725997	0.23440209	-0.14012058	0.17836681	0.1089696	0.11494864	0	1201.69825029809
12.022644	0.52480746	0.25	181.95852	0.44224382	0.27410615	-0.14745886	0.18106139	0.12570906	0.13136799	0	1239.6357428286115
12.022644	0.57543994	0.25	205.11616	0.42009695	0.31695086	-0.15472975	0.18413304	0.14467449	0.15005003	0	1280.6126517522418
12.022644	0.63095734	0.25	228.94831	0.40035516	0.36271783	-0.16191654	0.1876082	0.16594518	0.17106811	0	1324.429995919158
12.022644	0.69183097	0.25	253.21723	0.38261806	0.41120587	-0.16902006	0.19149611	0.18957525	0.19447122	0	1370.9009145725513
12.022644	0.75857758	0.25	277.72743	0.36654954	0.4622405	-0.17605346	0.19579398	0.2155976	0.22028796	0	1419.860817003323
12.022644	0.83176377	0.25	302.3261	0.35187264	0.51567746	-0.18303768	0.20049154	0.24402805	0.2485306	0	1471.171749180046
12.022644	0.91201084	0.25	326.89997	0.33836181	0.57140255	-0.18999788	0.20557465	0.2748694	0.27919907	0	1524.7230913762369
12.022644	1.	0.25	351.37036	0.32583469	0.62932934	-0.19696088	0.21102785	0.30811512	0.31228449	0	1580.4300055386184
12.022644	1.0964782	0.25	375.6877	0.31414426	0.68939608	-0.20395352	0.21683598	0.34375241	0.34777219	0	1638.230912554151
12.022644	1.2022644	0.25	399.82627	0.30317208	0.7515624	-0.21100168	0.22298525	0.38176484	0.38564422	0	1698.0846430181118
12.022644	1.3182567	0.25	423.77943	0.29282255	0.81580623	-0.21812972	0.22946373	0.42213442	0.42588136	0	1759.9676584695692
12.022644	1.4454398	0.25	447.55552	0.28301825	0.88212102	-0.22536031	0.23626157	0.46484326	0.46846476	0	1823.8714910758067
12.022644	1.5848932	0.25	471.17443	0.2736962	0.95051344	-0.23271441	0.24337105	0.50987492	0.51337713	0	1889.8005943765831
12.022644	1.7378008	0.25	494.66486	0.26480485	1.0210014	-0.24021132	0.25078649	0.55721532	0.56060376	0	1957.7704618045204
12.022644	1.9054607	0.25	518.06202	0.25630176	1.0936123	-0.24786889	0.2585041	0.60685356	0.61013319	0	2027.805947212039
12.022644	2.0892961	0.25	541.40585	0.24815175	1.1683821	-0.25570366	0.26652183	0.65878241	0.66195775	0	2099.9403558418826
12.022644	2.2908677	0.25	564.73965	0.24032538	1.2453537	-0.26373105	0.2748392	0.71299874	0.71607393	0	2174.213882299725
12.022644	2.5118864	0.25	588.10893	0.23279787	1.3245767	-0.27196557	0.28345713	0.76950379	0.77248266	0	2250.673345126956
12.022644	2.7542287	0.25	611.56061	0.22554815	1.4061063	-0.28042091	0.2923778	0.82830333	0.83118944	0	2329.371120394013
12.022644	3.0199517	0.25	635.14237	0.21855815	1.4900026	-0.28911015	0.3016045	0.88940777	0.89220443	0	2410.3644487709284
12.022644	3.3113112	0.25	658.90214	0.21181223	1.5763308	-0.29804586	0.31114157	0.9528322	0.95554254	0	2493.7156093469303
12.022644	3.6307805	0.25	682.88777	0.20529674	1.6651603	-0.30724021	0.32099424	1.0185964	1.0212234	0	2579.4910364390007
12.022644	3.9810717	0.25	707.14679	0.19899967	1.7565646	-0.31670509	0.33116857	1.0867249	1.0892713	0	2667.7612115418724
12.022644	4.3651583	0.25	731.72623	0.19291032	1.8506212	-0.32645218	0.34167139	1.1572468	1.1597153	0	2758.6005552780043
12.022644	4.7863009	0.25	756.6725	0.1870191	1.9474113	-0.33649305	0.35251023	1.2301958	1.2325888	0	2852.087129085587
12.022644	5.2480746	0.25	782.03132	0.18131736	2.0470197	-0.34683918	0.36369329	1.30561	1.3079301	0	2948.30253421527
12.022644	5.7543994	0.25	807.84776	0.1757972	2.1495349	-0.35750208	0.37522935	1.3835321	1.3857816	0	3047.3319845464703
12.022644	6.3095734	0.25	834.16616	0.17045137	2.2550486	-0.36849329	0.3871278	1.4640093	1.4661903	0	3149.2638438514427
12.022644	6.9183097	0.25	861.03026	0.16527319	2.3636564	-0.37982446	0.39939856	1.5470927	1.5492075	0	3254.190264699714
12.022644	7.5857758	0.25	888.48314	0.16025644	2.4754571	-0.39150736	0.41205211	1.6328381	1.6348887	0	3362.2065378090815
12.022644	8.3176377	0.25	916.56739	0.1553953	2.5905531	-0.40355396	0.42509943	1.7213052	1.7232936	0	3473.4114537782725
12.022644	9.1201084	0.25	945.32509	0.15068431	2.7090502	-0.41597642	0.438552	1.812558	1.8144862	0	3587.90711517387
12.022644	10.	0.25	974.79794	0.14611831	2.831058	-0.42878714	0.45242182	1.9066646	1.9085343	0	3705.799317054284