12.022644	1.e-12	0.42	1.6396545e9	5.4559005e8	-0.31068149	-0.0054806982	-0.0054806981	-1.7451206e6	5.2362301e6	0	645.4970080176288
12.022644	1.0964782e-12	0.42	1.4953827e9	4.9758405e8	-0.30950294	-0.0054806983	-0.0054806982	-1.5915689e6	4.7754986e6	0	646.6043327214095
12.022644	1.2022644e-12	0.42	1.3638052e9	4.5380204e8	-0.30832439	-0.0054806983	-0.0054806982	-1.4515281e6	4.3553065e6	0	647.711657464652
12.022644	1.3182567e-12	0.42	1.2438052e9	4.1387239e8	-0.30714584	-0.005480698	-0.0054806979	-1.3238094e6	3.9720868e6	0	648.8189823262798
12.022644	1.4454398e-12	0.42	1.1343638e9	3.7745611e8	-0.30596729	-0.0054806979	-0.0054806978	-1.2073286e6	3.6225862e6	0	649.926307108984
12.022644	1.5848932e-12	0.42	1.0345521e9	3.4424407e8	-0.30478873	-0.005480698	-0.0054806979	-1.1010968e6	3.3038379e6	0	651.0336412084182
12.022644	1.7378008e-12	0.42	9.435227e8	3.1395432e8	-0.30361018	-0.0054806982	-0.0054806981	-1.0042122e6	3.0131359e6	0	652.1409658727373
12.022644	1.9054607e-12	0.42	8.6050294e8	2.8632974e8	-0.30243163	-0.0054806981	-0.0054806979	-915852.45	2.7480127e6	0	653.2482906949033
12.022644	2.0892961e-12	0.42	7.8478801e8	2.6113583e8	-0.30125308	-0.0054806982	-0.005480698	-835267.39	2.5062173e6	0	654.355615398684
12.022644	2.2908677e-12	0.42	7.1573518e8	2.3815871e8	-0.30007453	-0.0054806979	-0.0054806977	-761772.94	2.2856974e6	0	655.4629402603117
12.022644	2.5118864e-12	0.42	6.5275823e8	2.1720333e8	-0.29889597	-0.0054806982	-0.005480698	-694745.2	2.0845808e6	0	656.5702742808226
12.022644	2.7542287e-12	0.42	5.9532258e8	1.9809179e8	-0.29771742	-0.0054806983	-0.0054806981	-633615.18	1.9011603e6	0	657.6775989846033
12.022644	3.0199517e-12	0.42	5.4294065e8	1.8066186e8	-0.29653887	-0.005480698	-0.0054806978	-577863.94	1.7338788e6	0	658.7849238462311
12.022644	3.3113112e-12	0.42	4.9516776e8	1.6476558e8	-0.29536032	-0.0054806984	-0.0054806981	-527018.2	1.5813162e6	0	659.8922484710881
12.022644	3.6307805e-12	0.42	4.5159837e8	1.50268e8	-0.29418177	-0.0054806979	-0.0054806977	-480646.34	1.4421776e6	0	660.9995733721778
12.022644	3.9810717e-12	0.42	4.118626e8	1.3704604e8	-0.29300321	-0.0054806981	-0.0054806978	-438354.7	1.3152816e6	0	662.106907471612
12.022644	4.3651583e-12	0.42	3.7562316e8	1.2498748e8	-0.29182466	-0.005480698	-0.0054806977	-399784.26	1.199551e6	0	663.2142322543161
12.022644	4.7863009e-12	0.42	3.425724e8	1.1398994e8	-0.29064611	-0.0054806981	-0.0054806978	-364607.61	1.0940036e6	0	664.3215569580971
12.022644	5.2480746e-12	0.42	3.1242974e8	1.0396006e8	-0.28946756	-0.0054806982	-0.0054806979	-332526.11	997743.09	0	665.4288816618777
12.022644	5.7543994e-12	0.42	2.8493931e8	9.4812705e7	-0.28828901	-0.0054806982	-0.0054806978	-303267.45	909952.52	0	666.5362064445821
12.022644	6.3095734e-12	0.42	2.5986774e8	8.6470217e7	-0.28711046	-0.0054806983	-0.0054806978	-276583.22	829886.56	0	667.6435311878245
12.022644	6.9183097e-12	0.42	2.370022e8	7.8861778e7	-0.2859319	-0.005480698	-0.0054806975	-252246.92	756865.55	0	668.7508654451055
12.022644	7.5857758e-12	0.42	2.1614857e8	7.1922798e7	-0.28475335	-0.0054806984	-0.0054806978	-230051.95	690269.58	0	669.858190069963
12.022644	8.3176377e-12	0.42	1.9712984e8	6.5594374e7	-0.2835748	-0.0054806979	-0.0054806973	-209809.9	629533.35	0	670.9655150105143
12.022644	9.1201084e-12	0.42	1.7978455e8	5.9822782e7	-0.28239625	-0.0054806981	-0.0054806975	-191348.93	574141.23	0	672.0728396748332
12.022644	1.e-11	0.42	1.6396546e8	5.4559028e7	-0.2812177	-0.005480698	-0.0054806973	-174512.32	523623.03	0	673.1801644969992
12.022644	1.0964782e-11	0.42	1.4953828e8	4.9758427e7	-0.28003914	-0.0054806981	-0.0054806973	-159157.15	477549.88	0	674.2874986358952
12.022644	1.2022644e-11	0.42	1.3638054e8	4.5380227e7	-0.27886059	-0.0054806978	-0.0054806969	-145153.08	435530.67	0	675.3948235369846
12.022644	1.3182567e-11	0.42	1.2438053e8	4.138726e7	-0.27768204	-0.0054806982	-0.0054806973	-132381.2	397208.69	0	676.5021481223802
12.022644	1.4454398e-11	0.42	1.1343639e8	3.7745632e7	-0.27650349	-0.0054806982	-0.0054806972	-120733.12	362258.63	0	677.6094729050844
12.022644	1.5848932e-11	0.42	1.0345522e8	3.4424428e7	-0.27532494	-0.0054806979	-0.0054806968	-110109.94	330383.81	0	678.7167978061741
12.022644	1.7378008e-11	0.42	9.4352281e7	3.1395453e7	-0.27414639	-0.0054806983	-0.0054806971	-100421.48	301313.61	0	679.8241224310311
12.022644	1.9054607e-11	0.42	8.6050305e7	2.8632996e7	-0.27296783	-0.0054806979	-0.0054806965	-91585.502	274801.28	0	680.9314568066977
12.022644	2.0892961e-11	0.42	7.8478811e7	2.6113604e7	-0.27178928	-0.0054806981	-0.0054806966	-83526.994	250621.75	0	682.0387815104784
12.022644	2.2908677e-11	0.42	7.1573528e7	2.3815892e7	-0.27061073	-0.005480698	-0.0054806964	-76177.548	228569.75	0	683.1461063326444
12.022644	2.5118864e-11	0.42	6.5275834e7	2.1720354e7	-0.26943218	-0.0054806981	-0.0054806963	-69474.774	208458.1	0	684.2534311153486
12.022644	2.7542287e-11	0.42	5.9532269e7	1.98092e7	-0.26825363	-0.0054806983	-0.0054806964	-63361.77	190116.04	0	685.3607558191294
12.022644	3.0199517e-11	0.42	5.4294076e7	1.8066207e7	-0.26707507	-0.0054806982	-0.005480696	-57786.645	173387.89	0	686.4680901158724
12.022644	3.3113112e-11	0.42	4.9516787e7	1.6476579e7	-0.26589652	-0.0054806983	-0.0054806959	-52702.07	158131.64	0	687.5754148985766
12.022644	3.6307805e-11	0.42	4.5159848e7	1.5026821e7	-0.26471797	-0.005480698	-0.0054806954	-48064.883	144217.77	0	688.6827398391279
12.022644	3.9810717e-11	0.42	4.1186271e7	1.3704625e7	-0.26353942	-0.0054806984	-0.0054806955	-43835.717	131528.17	0	689.7900645429086
12.022644	4.3651583e-11	0.42	3.7562327e7	1.2498769e7	-0.26236087	-0.0054806979	-0.0054806948	-39978.673	119955.12	0	690.8973895623833
12.022644	4.7863009e-11	0.42	3.425725e7	1.1399014e7	-0.26118232	-0.0054806981	-0.0054806947	-36461.006	109400.37	0	692.0047143450876
12.022644	5.2480746e-11	0.42	3.1242985e7	1.0396027e7	-0.26000376	-0.005480698	-0.0054806943	-33252.856	99774.327	0	693.1120486418306
12.022644	5.7543994e-11	0.42	2.8493942e7	9.481291e6	-0.25882521	-0.0054806981	-0.005480694	-30326.988	90995.269	0	694.2193735034582
12.022644	6.3095734e-11	0.42	2.5986785e7	8.6470421e6	-0.25764666	-0.0054806978	-0.0054806933	-27658.565	82988.674	0	695.3266985229329
12.022644	6.9183097e-11	0.42	2.370023e7	7.8861979e6	-0.25646811	-0.0054806982	-0.0054806933	-25224.934	75686.571	0	696.4340232661755
12.022644	7.5857758e-11	0.42	2.1614868e7	7.1922999e6	-0.25528956	-0.0054806983	-0.0054806929	-23005.436	69026.975	0	697.5413481672649
12.022644	8.3176377e-11	0.42	1.9712995e7	6.5594574e6	-0.254111	-0.0054806981	-0.0054806921	-20981.229	62953.352	0	698.648682621855
12.022644	9.1201084e-11	0.42	1.7978466e7	5.9822982e6	-0.25293245	-0.0054806979	-0.0054806914	-19135.131	57414.141	0	699.7560076413297
12.022644	1.e-10	0.42	1.6396557e7	5.4559227e6	-0.2517539	-0.005480698	-0.0054806909	-17451.47	52362.32	0	700.863332581881
12.022644	1.0964782e-10	0.42	1.4953839e7	4.9758624e6	-0.25057535	-0.0054806982	-0.0054806904	-15915.952	47755.005	0	701.970657522432
12.022644	1.2022644e-10	0.42	1.3638064e7	4.5380423e6	-0.2493968	-0.0054806981	-0.0054806896	-14515.543	43553.084	0	703.0779825813686
12.022644	1.3182567e-10	0.42	1.2438063e7	4.1387457e6	-0.24821825	-0.0054806982	-0.0054806888	-13238.354	39720.886	0	704.1853076403052
12.022644	1.4454398e-10	0.42	1.134365e7	3.7745828e6	-0.24703969	-0.005480698	-0.0054806877	-12073.545	36225.881	0	705.2926422132801
12.022644	1.5848932e-10	0.42	1.0345533e7	3.4424622e6	-0.24586114	-0.0054806984	-0.0054806871	-11011.225	33038.397	0	706.3999671932932
12.022644	1.7378008e-10	0.42	9.435239e6	3.1395647e6	-0.24468259	-0.005480698	-0.0054806856	-10042.379	30131.378	0	707.5072925284618
12.022644	1.9054607e-10	0.42	8.6050413e6	2.8633189e6	-0.24350404	-0.0054806983	-0.0054806847	-9158.7799	27480.145	0	708.6146176268601
12.022644	2.0892961e-10	0.42	7.847892e6	2.6113797e6	-0.24232549	-0.0054806981	-0.0054806832	-8352.9281	25062.192	0	709.7219429620286
12.022644	2.2908677e-10	0.42	7.1573636e6	2.3816084e6	-0.24114693	-0.0054806982	-0.0054806819	-7617.9824	22856.992	0	710.8292776139274
12.022644	2.5118864e-10	0.42	6.5275943e6	2.1720545e6	-0.23996838	-0.0054806981	-0.0054806802	-6947.704	20845.827	0	711.9366030280196
12.022644	2.7542287e-10	0.42	5.9532377e6	1.980939e6	-0.23878983	-0.0054806985	-0.0054806788	-6336.4025	19011.621	0	713.0439283237265
12.022644	3.0199517e-10	0.42	5.4294185e6	1.8066396e6	-0.23761128	-0.0054806981	-0.0054806766	-5778.889	17338.807	0	714.1512539351273
12.022644	3.3113112e-10	0.42	4.9516895e6	1.6476767e6	-0.23643273	-0.0054806983	-0.0054806747	-5270.4304	15813.181	0	715.2585794281431
12.022644	3.6307805e-10	0.42	4.5159956e6	1.5027008e6	-0.23525418	-0.0054806983	-0.0054806725	-4806.7107	14421.794	0	716.365905039544
12.022644	3.9810717e-10	0.42	4.1186379e6	1.3704811e6	-0.23407562	-0.0054806984	-0.0054806701	-4383.7931	13152.834	0	717.4732401255217
12.022644	4.3651583e-10	0.42	3.7562435e6	1.2498954e6	-0.23289707	-0.0054806983	-0.0054806672	-3998.0876	11995.529	0	718.5805660131549
12.022644	4.7863009e-10	0.42	3.4257359e6	1.1399199e6	-0.23171852	-0.0054806982	-0.0054806641	-3646.3198	10940.054	0	719.6878919797114
12.022644	5.2480746e-10	0.42	3.1243093e6	1.039621e6	-0.23053997	-0.0054806983	-0.0054806609	-3325.5037	9977.4497	0	720.7952179857298
12.022644	5.7543994e-10	0.42	2.849405e6	948147.4	-0.22936142	-0.0054806982	-0.0054806571	-3032.9159	9099.544	0	721.9025442285185
12.022644	6.3095734e-10	0.42	2.5986893e6	864722.41	-0.22818286	-0.0054806984	-0.0054806534	-2766.0725	8298.8844	0	723.0098798274992
12.022644	6.9183097e-10	0.42	2.3700339e6	788637.93	-0.22700431	-0.0054806984	-0.0054806491	-2522.7083	7568.6742	0	724.1172062675967
12.022644	7.5857758e-10	0.42	2.1614977e6	719248.04	-0.22582576	-0.0054806985	-0.0054806444	-2300.7575	6902.7146	0	725.2245328655412
12.022644	8.3176377e-10	0.42	1.9713103e6	655963.7	-0.22464721	-0.0054806987	-0.0054806394	-2098.3358	6295.3521	0	726.331859581871
12.022644	9.1201084e-10	0.42	1.7978574e6	598247.69	-0.22346866	-0.0054806987	-0.0054806336	-1913.7249	5741.431	0	727.4391866138947
12.022644	1.e-9	0.42	1.6396665e6	545610.06	-0.22229011	-0.0054806989	-0.0054806275	-1745.3576	5236.249	0	728.5465137643035
12.022644	1.0964782e-9	0.42	1.4953947e6	497603.96	-0.22111155	-0.0054806987	-0.0054806205	-1591.8048	4775.5175	0	729.6538506655215
12.022644	1.2022644e-9	0.42	1.3638173e6	453821.87	-0.219933	-0.0054806988	-0.005480613	-1451.7628	4355.3254	0	730.7611783683951
12.022644	1.3182567e-9	0.42	1.2438172e6	413892.11	-0.21875445	-0.005480699	-0.005480605	-1324.0429	3972.1057	0	731.868506268577
12.022644	1.4454398e-9	0.42	1.1343758e6	377475.74	-0.2175759	-0.0054806988	-0.0054805957	-1207.5609	3622.6051	0	732.9758346817619
12.022644	1.5848932e-9	0.42	1.0345641e6	344263.61	-0.21639735	-0.005480699	-0.005480586	-1101.3279	3303.8568	0	734.0831632527936
12.022644	1.7378008e-9	0.42	943534.71	313973.77	-0.2152188	-0.0054806992	-0.0054805753	-1004.4422	3013.1548	0	735.1904922184428
12.022644	1.9054607e-9	0.42	860514.94	286349.1	-0.21404024	-0.0054806992	-0.0054805633	-916.08127	2748.0315	0	736.2978310927481
12.022644	2.0892961e-9	0.42	784800.01	261155.1	-0.21286169	-0.0054806994	-0.0054805504	-835.49503	2506.2362	0	737.4051609265557
12.022644	2.2908677e-9	0.42	715747.18	238177.89	-0.21168314	-0.0054806993	-0.0054805359	-761.99941	2285.7163	0	738.5124913917512
12.022644	2.5118864e-9	0.42	652770.25	217222.41	-0.21050459	-0.0054806994	-0.0054805203	-694.97049	2084.5997	0	739.6198222910258
12.022644	2.7542287e-9	0.42	595334.6	198110.78	-0.20932604	-0.0054806997	-0.0054805033	-633.83929	1901.1792	0	740.7271537427649
12.022644	3.0199517e-9	0.42	542952.67	180680.76	-0.20814749	-0.0054806998	-0.0054804844	-578.08688	1733.8977	0	741.8344859442773
12.022644	3.3113112e-9	0.42	495179.77	164784.39	-0.20696893	-0.0054807	-0.0054804638	-527.23996	1581.3351	0	742.9418282122926
12.022644	3.6307805e-9	0.42	451610.38	150286.71	-0.20579038	-0.0054807002	-0.0054804413	-480.86692	1442.1964	0	744.0491618344277
12.022644	3.9810717e-9	0.42	411874.62	137064.67	-0.20461183	-0.0054807001	-0.0054804163	-438.5741	1315.3005	0	745.1564964431063
12.022644	4.3651583e-9	0.42	375635.18	125006.01	-0.20343328	-0.0054807003	-0.0054803891	-400.00249	1199.57	0	746.2638319199434
12.022644	4.7863009e-9	0.42	342584.41	114008.38	-0.20225473	-0.0054807007	-0.0054803594	-364.82465	1094.0225	0	747.3711683833242
12.022644	5.2480746e-9	0.42	312441.75	103978.41	-0.20107618	-0.0054807009	-0.0054803267	-332.74199	997.76201	0	748.478506030557
12.022644	5.7543994e-9	0.42	284951.32	94830.961	-0.19989763	-0.0054807013	-0.005480291	-303.48214	909.97142	0	749.5858448616425
12.022644	6.3095734e-9	0.42	259879.75	86488.381	-0.19871908	-0.0054807015	-0.0054802516	-276.79674	829.90547	0	750.6931851528122
12.022644	6.9183097e-9	0.42	237014.21	78879.849	-0.19754052	-0.0054807021	-0.0054802087	-252.45926	756.88445	0	751.8005362207969
12.022644	7.5857758e-9	0.42	216160.59	71940.778	-0.19636197	-0.0054807024	-0.0054801615	-230.26311	690.28849	0	752.9078795899828
12.022644	8.3176377e-9	0.42	197141.85	65612.261	-0.19518342	-0.0054807029	-0.0054801098	-210.01988	629.55224	0	754.0152247349474
12.022644	9.1201084e-9	0.42	179796.57	59840.577	-0.19400487	-0.0054807033	-0.005480053	-191.55773	574.16013	0	755.1225718924608
12.022644	1.e-8	0.42	163977.47	54576.73	-0.19282632	-0.005480704	-0.0054799909	-174.71995	523.64193	0	756.2299211414468
12.022644	1.0964782e-8	0.42	149550.29	49776.037	-0.19164777	-0.0054807046	-0.0054799227	-159.3636	477.56878	0	757.3372727975992
12.022644	1.2022644e-8	0.42	136392.55	45397.745	-0.19046922	-0.005480705	-0.0054798477	-145.35835	435.54957	0	758.4446271371502
12.022644	1.3182567e-8	0.42	124392.54	41404.687	-0.18929067	-0.0054807058	-0.0054797658	-132.5853	397.22759	0	759.5519841995616
12.022644	1.4454398e-8	0.42	113448.4	37762.967	-0.18811212	-0.0054807065	-0.0054796758	-120.93603	362.27753	0	760.6593444583744
12.022644	1.5848932e-8	0.42	103467.23	34441.671	-0.18693357	-0.0054807071	-0.005479577	-110.31168	330.4027	0	761.7667081898205
12.022644	1.7378008e-8	0.42	94364.293	31412.605	-0.18575502	-0.0054807077	-0.0054794686	-100.62204	301.33252	0	762.8740757095944
12.022644	1.9054607e-8	0.42	86062.316	28650.055	-0.18457647	-0.0054807088	-0.0054793501	-91.784888	274.82018	0	763.9814472150042
12.022644	2.0892961e-8	0.42	78490.823	26130.572	-0.18339792	-0.0054807099	-0.0054792201	-83.725203	250.64065	0	765.088823258515
12.022644	2.2908677e-8	0.42	71585.539	23832.768	-0.18221937	-0.0054807109	-0.0054790774	-76.37458	228.58866	0	766.1962043136672
12.022644	2.5118864e-8	0.42	65287.845	21737.137	-0.18104082	-0.0054807125	-0.0054789214	-69.670627	208.47699	0	767.3035906172313
12.022644	2.7542287e-8	0.42	59544.28	19825.891	-0.17986227	-0.0054807138	-0.0054787499	-63.556446	190.13494	0	768.4109830373661
12.022644	3.0199517e-8	0.42	54306.087	18082.806	-0.17868373	-0.0054807153	-0.0054785619	-57.980144	173.4068	0	769.518372573035
12.022644	3.3113112e-8	0.42	49528.798	16493.086	-0.17750518	-0.0054807169	-0.0054783557	-52.894392	158.15054	0	770.625778686395
12.022644	3.6307805e-8	0.42	45171.858	15043.236	-0.17632663	-0.0054807187	-0.0054781298	-48.256027	144.23667	0	771.7331925737188
12.022644	3.9810717e-8	0.42	41198.282	13720.948	-0.17514808	-0.0054807209	-0.0054778822	-44.025684	131.54707	0	772.8406150242413
12.022644	4.3651583e-8	0.42	37574.338	12515.	-0.17396953	-0.005480723	-0.0054776104	-40.167462	119.97402	0	773.9480470245057
12.022644	4.7863009e-8	0.42	34269.262	11415.153	-0.17279099	-0.0054807255	-0.0054773126	-36.648618	109.41927	0	775.0554798891706
12.022644	5.2480746e-8	0.42	31254.996	10412.074	-0.17161244	-0.0054807281	-0.0054769859	-33.43929	99.793229	0	776.162933553933
12.022644	5.7543994e-8	0.42	28505.953	9497.2459	-0.1704339	-0.0054807311	-0.0054766279	-30.512245	91.014171	0	777.2703901745681
12.022644	6.3095734e-8	0.42	25998.796	8662.9051	-0.16925535	-0.0054807339	-0.0054762349	-27.842645	83.007577	0	778.3778700024673
12.022644	6.9183097e-8	0.42	23712.242	7901.969	-0.16807681	-0.0054807375	-0.0054758044	-25.407836	75.705475	0	779.4853552328673
12.022644	7.5857758e-8	0.42	21626.88	7207.9789	-0.16689826	-0.0054807415	-0.0054753324	-23.18716	69.045878	0	780.5928662355446
12.022644	8.3176377e-8	0.42	19725.007	6575.0444	-0.16571972	-0.0054807455	-0.0054748146	-21.161777	62.972255	0	781.7003859160477
12.022644	9.1201084e-8	0.42	17990.478	5997.7932	-0.16454118	-0.0054807501	-0.005474247	-19.314501	57.433045	0	782.8079252484995
12.022644	1.e-7	0.42	16408.569	5471.3257	-0.16336264	-0.005480755	-0.0054736244	-17.629662	52.381225	0	783.9154862849111
12.022644	1.0964782e-7	0.42	14965.851	4991.1734	-0.1621841	-0.0054807608	-0.0054729423	-16.092966	47.77391	0	785.0230708010607
12.022644	1.2022644e-7	0.42	13650.076	4553.2614	-0.16100556	-0.0054807668	-0.005472194	-14.69138	43.571989	0	786.1306814408854
12.022644	1.3182567e-7	0.42	12450.076	4153.8728	-0.15982703	-0.0054807731	-0.0054713732	-13.413014	39.739793	0	787.2383112948212
12.022644	1.4454398e-7	0.42	11355.662	3789.6178	-0.15864849	-0.0054807808	-0.005470474	-12.247026	36.244787	0	788.3459814824187
12.022644	1.5848932e-7	0.42	10357.545	3457.4053	-0.15746996	-0.0054807887	-0.0054694876	-11.18353	33.057304	0	789.453676685004
12.022644	1.7378008e-7	0.42	9447.2519	3154.4158	-0.15629142	-0.0054807972	-0.0054684058	-10.213506	30.150286	0	790.5614189297471
12.022644	1.9054607e-7	0.42	8617.0544	2878.078	-0.15511289	-0.0054808069	-0.0054672199	-9.3287291	27.499054	0	791.6691928585128
12.022644	2.0892961e-7	0.42	7859.9054	2626.0469	-0.15393436	-0.0054808172	-0.0054659194	-8.5216997	25.081101	0	792.777012010438
12.022644	2.2908677e-7	0.42	7169.3773	2396.1836	-0.15275584	-0.0054808287	-0.0054644936	-7.7855764	22.875903	0	793.8848712122762
12.022644	2.5118864e-7	0.42	6539.6082	2186.5377	-0.15157731	-0.0054808415	-0.0054629305	-7.1141201	20.864738	0	794.992793990743
12.022644	2.7542287e-7	0.42	5965.252	1995.3303	-0.15039879	-0.0054808555	-0.0054612164	-6.501641	19.030533	0	796.100766960791
12.022644	3.0199517e-7	0.42	5441.4331	1820.939	-0.14922028	-0.0054808705	-0.0054593366	-5.9429497	17.35772	0	797.2087959232963
12.022644	3.3113112e-7	0.42	4963.7046	1661.8841	-0.14804176	-0.005480887	-0.0054572756	-5.4333134	15.832096	0	798.3169057861367
12.022644	3.6307805e-7	0.42	4528.0111	1516.8163	-0.14686325	-0.0054809051	-0.0054550157	-4.9684158	14.44071	0	799.4250847427336
12.022644	3.9810717e-7	0.42	4130.6539	1384.5047	-0.14568474	-0.0054809252	-0.005452538	-4.5443203	13.171752	0	800.5333496470106
12.022644	4.3651583e-7	0.42	3768.26	1263.827	-0.14450624	-0.0054809472	-0.0054498213	-4.1574369	12.014448	0	801.6416994692038
12.022644	4.7863009e-7	0.42	3437.7529	1153.7596	-0.14332774	-0.0054809713	-0.0054468425	-3.8044912	10.958975	0	802.7501527206299
12.022644	5.2480746e-7	0.42	3136.3269	1053.3688	-0.14214925	-0.0054809978	-0.0054435762	-3.4824971	9.9963727	0	803.8587100289186
12.022644	5.7543994e-7	0.42	2861.4233	961.80329	-0.14097076	-0.0054810267	-0.0054399948	-3.1887311	9.1184692	0	804.9673916811647
12.022644	6.3095734e-7	0.42	2610.7083	878.28644	-0.13979228	-0.0054810585	-0.0054360679	-2.9207096	8.317812	0	806.0762002780853
12.022644	6.9183097e-7	0.42	2382.0537	802.11008	-0.13861381	-0.0054810931	-0.005431762	-2.6761672	7.5876045	0	807.1851490393649
12.022644	7.5857758e-7	0.42	2173.5184	732.62834	-0.13743534	-0.0054811312	-0.0054270406	-2.453038	6.9216478	0	808.2942617641936
12.022644	8.3176377e-7	0.42	1983.3321	669.25216	-0.13625688	-0.0054811729	-0.0054218638	-2.2494379	6.3142887	0	809.4035448021543
12.022644	9.1201084e-7	0.42	1809.8803	611.44432	-0.13507843	-0.0054812189	-0.0054161879	-2.0636485	5.760371	0	810.5130153980292
12.022644	1.e-6	0.42	1651.6905	558.71487	-0.13389999	-0.0054812694	-0.0054099643	-1.8941026	5.2551928	0	811.6226927302264
12.022644	1.0964782e-6	0.42	1507.42	510.61699	-0.13272157	-0.0054813243	-0.0054031398	-1.739371	4.7944656	0	812.7325883967405
12.022644	1.2022644e-6	0.42	1375.8439	466.74313	-0.13154315	-0.0054813847	-0.0053956572	-1.5981502	4.3742781	0	813.8427437609964
12.022644	1.3182567e-6	0.42	1255.8454	426.72163	-0.13036475	-0.0054814512	-0.005387453	-1.4692513	3.9910633	0	814.9531650898948
12.022644	1.4454398e-6	0.42	1146.4057	390.21354	-0.12918636	-0.0054815238	-0.0053784569	-1.3515901	3.6415683	0	816.0638895206964
12.022644	1.5848932e-6	0.42	1046.5959	356.90971	-0.12800798	-0.0054816036	-0.0053685932	-1.2441777	3.3228261	0	817.1749469259414
12.022644	1.7378008e-6	0.42	955.56855	326.52821	-0.12682963	-0.0054816913	-0.005357778	-1.1461125	3.0321308	0	818.2863516227267
12.022644	1.9054607e-6	0.42	872.55102	298.81192	-0.12565129	-0.005481787	-0.005345919	-1.0565718	2.7670148	0	819.3981588255497
12.022644	2.0892961e-6	0.42	796.83853	273.52632	-0.12447297	-0.0054818926	-0.0053329166	-0.97480552	2.5252275	0	820.5103984426546
12.022644	2.2908677e-6	0.42	727.7884	250.45757	-0.12329468	-0.0054820076	-0.0053186592	-0.90012967	2.3047164	0	821.6231051176949
12.022644	2.5118864e-6	0.42	664.81441	229.41059	-0.12211641	-0.0054821343	-0.0053030269	-0.83192023	2.1036094	0	822.7363355609563
12.022644	2.7542287e-6	0.42	607.382	210.2075	-0.12093817	-0.0054822729	-0.0052858864	-0.76960822	1.9201994	0	823.8501329792905
12.022644	3.0199517e-6	0.42	555.00362	192.68608	-0.11975996	-0.005482425	-0.0052670924	-0.71267465	1.7529295	0	824.9645547106129
12.022644	3.3113112e-6	0.42	507.23461	176.69836	-0.11858178	-0.0054825919	-0.0052464859	-0.66064622	1.6003797	0	826.0796634990975
12.022644	3.6307805e-6	0.42	463.66948	162.10941	-0.11740363	-0.0054827749	-0.0052238916	-0.61309127	1.4612549	0	827.1955285211828
12.022644	3.9810717e-6	0.42	423.9384	148.79616	-0.11622553	-0.0054829755	-0.005199118	-0.56961609	1.3343742	0	828.3122065548027
12.022644	4.3651583e-6	0.42	387.70409	136.64637	-0.11504747	-0.0054831957	-0.0051719552	-0.52986165	1.2186604	0	829.429789825813
12.022644	4.7863009e-6	0.42	354.65894	125.5577	-0.11386946	-0.0054834369	-0.0051421727	-0.49350046	1.1131313	0	830.5483598978819
12.022644	5.2480746e-6	0.42	324.52245	115.43678	-0.1126915	-0.0054837015	-0.0051095181	-0.46023385	1.016891	0	831.6680163724527
12.022644	5.7543994e-6	0.42	297.03878	106.19848	-0.11151359	-0.0054839916	-0.0050737149	-0.42978944	0.92912248	0	832.7888683612497
12.022644	6.3095734e-6	0.42	271.97462	97.765162	-0.11033575	-0.0054843097	-0.0050344597	-0.40191878	0.84908072	0	833.9110167998992
12.022644	6.9183097e-6	0.42	249.1172	90.066017	-0.10915798	-0.0054846587	-0.0049914205	-0.37639528	0.77608623	0	835.0345927013935
12.022644	7.5857758e-6	0.42	228.27249	83.036465	-0.10798028	-0.0054850414	-0.004944233	-0.35301227	0.70951935	0	836.1597398248688
12.022644	8.3176377e-6	0.42	209.26352	76.617616	-0.10680267	-0.0054854612	-0.0048924983	-0.33158127	0.64881499	0	837.2865967919176
12.022644	9.1201084e-6	0.42	191.92893	70.755761	-0.10562514	-0.0054859217	-0.0048357793	-0.31193034	0.59345783	0	838.4153454854795
12.022644	0.00001	0.42	176.12158	65.401921	-0.10444772	-0.0054864263	-0.004773597	-0.29390268	0.54297794	0	839.5461467403511
12.022644	0.000010964782	0.42	161.70726	60.511428	-0.1032704	-0.00548698	-0.004705428	-0.27735526	0.49694679	0	840.6792164949577
12.022644	0.000012022644	0.42	148.55825	56.043493	-0.10210359	-0.0054900697	-0.0046331803	-0.26216333	0.45496719	0	841.8040209439168
12.022644	0.000013182567	0.42	136.57318	51.961075	-0.10092752	-0.0054909736	-0.0045514993	-0.24819698	0.41669506	0	842.9412483127797
12.022644	0.000014454398	0.42	125.64542	48.230248	-0.099751685	-0.005491965	-0.0044619656	-0.23535288	0.38179963	0	844.0813536962114
12.022644	0.000015848932	0.42	115.68219	44.820123	-0.098576115	-0.005493052	-0.0043638297	-0.22353201	0.34998466	0	845.2246046730279
12.022644	0.000017378008	0.42	106.59891	41.702532	-0.097400832	-0.0054942431	-0.0042562726	-0.21264403	0.32098007	0	846.3713037644808
12.022644	0.000019054607	0.42	98.318477	38.85179	-0.096225862	-0.0054955495	-0.0041384014	-0.2026065	0.29453961	0	847.5217788957891
12.022644	0.000020892961	0.42	90.770579	36.244478	-0.095051236	-0.0054969813	-0.0040092398	-0.19334423	0.2704388	0	848.6763862054406
12.022644	0.000022908677	0.42	83.891137	33.859241	-0.093876986	-0.0054985509	-0.0038677245	-0.18478861	0.24847302	0	849.8355152240756
12.022644	0.000025118864	0.42	77.621739	31.676611	-0.092703149	-0.0055002713	-0.0037126977	-0.176877	0.22845577	0	850.9995880758562
12.022644	0.000027542287	0.42	71.909147	29.678837	-0.091529762	-0.0055021573	-0.0035429004	-0.16955226	0.21021706	0	852.1690668202301
12.022644	0.000030199517	0.42	66.704845	27.849737	-0.09035687	-0.005504224	-0.0033569652	-0.16276222	0.19360201	0	853.3444487766536
12.022644	0.000033113112	0.42	61.964626	26.174559	-0.089184518	-0.0055064897	-0.0031534125	-0.15645926	0.17846945	0	854.5262755406608
12.022644	0.000036307805	0.42	57.648212	24.639856	-0.088012758	-0.0055089726	-0.0029306414	-0.15059988	0.16469082	0	855.7151299979241
12.022644	0.000039810717	0.42	53.718916	23.233371	-0.086841646	-0.0055116934	-0.002686928	-0.14514438	0.152149	0	856.9116398138011
12.022644	0.000043651583	0.42	50.143316	21.943932	-0.085671242	-0.0055146751	-0.0024204214	-0.14005645	0.14073731	0	858.1164790118032
12.022644	0.000047863009	0.42	46.890979	20.761356	-0.084501613	-0.0055179425	-0.0021291427	-0.13530295	0.13035862	0	859.3303655495178
12.022644	0.000052480746	0.42	43.934191	19.676364	-0.083332831	-0.0055215219	-0.0018109858	-0.13085357	0.12092448	0	860.554062882045
12.022644	0.000057543994	0.42	41.247714	18.680495	-0.082164976	-0.0055254434	-0.0014637257	-0.12668059	0.11235436	0	861.7883738679759
12.022644	0.000063095734	0.42	38.808567	17.766039	-0.080998133	-0.0055297396	-0.0010850271	-0.12275865	0.10457494	0	863.0341401943806
12.022644	0.000069183097	0.42	36.595821	16.925965	-0.079832396	-0.0055344447	-0.00067246014	-0.11906456	0.097519469	0	864.2922324072654
12.022644	0.000075857758	0.42	34.590404	16.153859	-0.078667868	-0.0055395976	-0.00022352614	-0.11557707	0.091127119	0	865.5635397541216
12.022644	0.000083176377	0.42	32.774932	15.443869	-0.077504658	-0.0055452406	0.00026431233	-0.11227673	0.085342462	0	866.8489611364748
12.022644	0.000091201084	0.42	31.133538	14.790649	-0.076342888	-0.0055514195	0.00079359116	-0.10914569	0.08011493	0	868.1493826337901
12.022644	0.0001	0.42	29.651726	14.189314	-0.075182688	-0.0055581833	0.0013667958	-0.10616762	0.075398331	0	869.4656629045056
12.022644	0.00010964782	0.42	28.316222	13.635387	-0.0740242	-0.0055655864	0.0019863015	-0.10332753	0.07115039	0	870.7986058454323
12.022644	0.00012022644	0.42	27.114842	13.124764	-0.072867577	-0.0055736882	0.0026543089	-0.10061169	0.067332324	0	872.1489361140104
12.022644	0.00013182567	0.42	26.036374	12.653674	-0.071712985	-0.005582553	0.0033727749	-0.098007503	0.063908453	0	873.5172699692739
12.022644	0.00014454398	0.42	25.07046	12.218641	-0.070560606	-0.0055922495	0.0041433446	-0.095503441	0.060845845	0	874.9040855954911
12.022644	0.00015848932	0.42	24.207498	11.816455	-0.06941063	-0.0056028553	0.0049672834	-0.093088942	0.058113985	0	876.309703824163
12.022644	0.00017378008	0.42	23.438559	11.444146	-0.068263269	-0.0056144505	0.0058454316	-0.09075436	0.055684515	0	877.734257064476
12.022644	0.00019054607	0.42	22.755306	11.098959	-0.067118746	-0.0056271258	0.0067781633	-0.088490888	0.053530987	0	879.177683419744
12.022644	0.00020892961	0.42	22.149946	10.778337	-0.065977302	-0.0056409767	0.0077653811	-0.086290515	0.051628692	0	880.6397180189784
12.022644	0.00022908677	0.42	21.615182	10.479905	-0.064839196	-0.0056561079	0.0088065286	-0.084145967	0.049954517	0	882.119897949606
12.022644	0.00025118864	0.42	21.144186	10.20146	-0.063704705	-0.0056726325	0.0099006327	-0.08205066	0.04848686	0	883.617578949787
12.022644	0.00027542287	0.42	20.730582	9.940965	-0.062574124	-0.0056906721	0.01104637	-0.079998661	0.047205569	0	885.1319616110139
12.022644	0.00030199517	0.42	20.368437	9.6965384	-0.061447766	-0.0057103578	0.012242147	-0.077984638	0.046091918	0	886.6621230264307
12.022644	0.00033113112	0.42	20.052256	9.4664542	-0.060325965	-0.0057318318	0.013486196	-0.076003819	0.045128588	0	888.207051815949
12.022644	0.00036307805	0.42	19.776983	9.2491359	-0.059209073	-0.0057552461	0.014776666	-0.07405195	0.04429966	0	889.7656868156712
12.022644	0.00039810717	0.42	19.537988	9.043152	-0.058097463	-0.0057807638	0.016111716	-0.072125251	0.043590596	0	891.3369510770021
12.022644	0.00043651583	0.42	19.331066	8.8472103	-0.056991525	-0.0058085609	0.017489588	-0.070220375	0.042988209	0	892.919784431983
12.022644	0.00047863009	0.42	19.152421	8.6601517	-0.055891668	-0.0058388251	0.018908669	-0.068334368	0.042480621	0	894.5131660804442
12.022644	0.00052480746	0.42	18.998648	8.4809422	-0.054798319	-0.0058717578	0.020367543	-0.066464628	0.042057203	0	896.116136049676
12.022644	0.00057543994	0.42	18.866712	8.3086644	-0.053711919	-0.0059075733	0.021865013	-0.064608869	0.041708502	0	897.7278076342752
12.022644	0.00063095734	0.42	18.753922	8.142508	-0.052632925	-0.0059465014	0.023400124	-0.062765083	0.041426156	0	899.3473745932147
12.022644	0.00069183097	0.42	18.657907	7.9817608	-0.051561803	-0.0059887859	0.024972162	-0.060931514	0.041202809	0	900.9741173321843
12.022644	0.00075857758	0.42	18.576584	7.8257987	-0.050499029	-0.0060346863	0.026580653	-0.059106621	0.041032017	0	902.6074015694078
12.022644	0.00083176377	0.42	18.508138	7.674077	-0.049445085	-0.0060844779	0.028225351	-0.057289055	0.040908158	0	904.2466773584943
12.022644	0.00091201084	0.42	18.450991	7.5261216	-0.048400451	-0.0061384545	0.029906222	-0.055477633	0.040826349	0	905.8914802910824
12.022644	0.001	0.42	18.403782	7.381521	-0.047365606	-0.0061969237	0.03162343	-0.053671315	0.040782362	0	907.5414250326312
12.022644	0.0010964782	0.42	18.365346	7.2399188	-0.046341018	-0.0062602143	0.033377314	-0.051869187	0.040772554	0	909.1962056418711
12.022644	0.0012022644	0.42	18.334692	7.1010076	-0.04532714	-0.0063286713	0.035168378	-0.050070437	0.040793801	0	910.855595382892
12.022644	0.0013182567	0.42	18.310995	6.9645233	-0.044324405	-0.0064026581	0.036997268	-0.048274345	0.040843444	0	912.5194423467681
12.022644	0.0014454398	0.42	18.293571	6.8302394	-0.043333214	-0.0064825579	0.038864761	-0.046480264	0.040919234	0	914.1876763855503
12.022644	0.0015848932	0.42	18.281876	6.6979635	-0.042353938	-0.0065687727	0.040771748	-0.044687606	0.041019294	0	915.8603005246391
12.022644	0.0017378008	0.42	18.27549	6.5675328	-0.0413869	-0.0066617229	0.042719226	-0.042895831	0.041142082	0	917.537404718021
12.022644	0.0019054607	0.42	18.274111	6.4388111	-0.040432377	-0.0067618497	0.044708284	-0.041104435	0.041286361	0	919.219158444494
12.022644	0.0020892961	0.42	18.277546	6.3116864	-0.039490586	-0.0068696117	0.046740101	-0.039312936	0.041451175	0	920.905823072347
12.022644	0.0022908677	0.42	18.285705	6.1860674	-0.038561685	-0.0069854846	0.048815933	-0.03752087	0.041635826	0	922.5977457897684
12.022644	0.0025118864	0.42	18.298597	6.0618822	-0.03764576	-0.007109965	0.05093711	-0.035727772	0.041839855	0	924.2953706353422
12.022644	0.0027542287	0.42	18.31632	5.9390761	-0.036742829	-0.0072435609	0.053105037	-0.033933174	0.04206303	0	925.9992351344054
12.022644	0.0030199517	0.42	18.339057	5.8176095	-0.035852834	-0.0073867949	0.055321187	-0.032136595	0.042305326	0	927.7099750532477
12.022644	0.0033113112	0.42	18.36707	5.6974562	-0.034975639	-0.0075402036	0.057587102	-0.030337532	0.042566913	0	929.4283266728598
12.022644	0.0036307805	0.42	18.400691	5.5786022	-0.034111039	-0.0077043246	0.059904399	-0.02853545	0.042848143	0	931.1551207005507
12.022644	0.0039810717	0.42	18.440314	5.4610434	-0.033258754	-0.0078797028	0.062274768	-0.026729782	0.043149533	0	932.8912871181035
12.022644	0.0043651583	0.42	18.486388	5.3447843	-0.03241844	-0.0080668787	0.064699977	-0.024919917	0.04347175	0	934.6378468196448
12.022644	0.0047863009	0.42	18.539405	5.2298364	-0.031589697	-0.0082663799	0.067181887	-0.0231052	0.043815598	0	936.3959100143836
12.022644	0.0052480746	0.42	18.599895	5.1162163	-0.030772077	-0.0084787161	0.069722449	-0.021284924	0.044181996	0	938.1666675262359
12.022644	0.0057543994	0.42	18.668409	5.0039445	-0.029965097	-0.0087043661	0.072323726	-0.019458329	0.044571965	0	939.9513872610586
12.022644	0.0063095734	0.42	18.745515	4.8930434	-0.029168257	-0.0089437662	0.0749879	-0.017624602	0.044986606	0	941.7514000567962
12.022644	0.0069183097	0.42	18.831783	4.783536	-0.028381056	-0.0091972885	0.077717295	-0.015782871	0.045427083	0	943.5680937266363
12.022644	0.0075857758	0.42	18.927772	4.6754445	-0.027603014	-0.0094652305	0.080514393	-0.013932212	0.045894607	0	945.4028987024499
12.022644	0.0083176377	0.42	19.034024	4.5687887	-0.026833697	-0.0097477879	0.083381858	-0.012071645	0.046390411	0	947.2572740164776
12.022644	0.0091201084	0.42	19.151046	4.4635855	-0.026072739	-0.010045027	0.08632257	-0.010200138	0.046915741	0	949.1327000478852
12.022644	0.01	0.42	19.279301	4.359847	-0.025319881	-0.01035686	0.089339646	-0.0083166128	0.047471832	0	951.0306501666803
12.022644	0.010964782	0.42	19.419195	4.2575806	-0.024575	-0.010683002	0.092436493	-0.0064199477	0.048059901	0	952.9525844010434
12.022644	0.012022644	0.42	19.571056	4.1567884	-0.023838152	-0.011022939	0.095616837	-0.004508985	0.04868113	0	954.899920479922
12.022644	0.013182567	0.42	19.735127	4.0574671	-0.023109617	-0.011375876	0.098884777	-0.0025825385	0.049336665	0	956.8740128619334
12.022644	0.014454398	0.42	19.911538	3.9596091	-0.022389948	-0.011740698	0.10224483	-0.00063940433	0.050027611	0	958.8761244544471
12.022644	0.015848932	0.42	20.100284	3.8632037	-0.021680036	-0.012115913	0.10570199	0.0013216281	0.050755043	0	960.907388824267
12.022644	0.017378008	0.42	20.301194	3.7682401	-0.020981183	-0.012499601	0.10926179	0.0033017614	0.051520027	0	962.9687660756412
12.022644	0.019054607	0.42	20.513877	3.6747122	-0.020295194	-0.012889368	0.11293032	0.0053021704	0.052323656	0	965.0609635133652
12.022644	0.020892961	0.42	20.737646	3.5826252	-0.019624513	-0.01328228	0.11671434	0.0073239793	0.053167123	0	967.1843524536655
12.022644	0.022908677	0.42	20.971373	3.4920067	-0.018972427	-0.013674833	0.12062129	0.0093682233	0.054051815	0	969.3387804990422
12.022644	0.025118864	0.42	21.213222	3.4029225	-0.018343439	-0.014062881	0.12465936	0.011435796	0.05497947	0	971.5232487036153
12.022644	0.027542287	0.42	21.460083	3.3155006	-0.017743991	-0.014441569	0.12883758	0.013527355	0.055952381	0	973.7352677829463
12.022644	0.030199517	0.42	21.706292	3.2299605	-0.017184051	-0.014805231	0.1331659	0.015643144	0.056973602	0	975.9693985932245
12.022644	0.033113112	0.42	21.940415	3.1466229	-0.016680973	-0.015147263	0.13765535	0.017782609	0.058046683	0	978.2136885478058
12.022644	0.036307805	0.42	22.136393	3.0657066	-0.016269765	-0.01546032	0.14231782	0.019943471	0.059172143	0	980.4399373443628
12.022644	0.039810717	0.42	22.230776	2.9857527	-0.016028095	-0.015740217	0.14716219	0.022119324	0.060324908	0	982.5786750242207
12.022644	0.043651583	0.42	22.118575	2.8976865	-0.016075147	-0.01601013	0.15217012	0.024295018	0.06137371	0	984.5106831467272
12.022644	0.047863009	0.42	21.842884	2.7888322	-0.016359274	-0.016337258	0.15727937	0.026450199	0.062135995	0	986.2599264536125
12.022644	0.052480746	0.42	21.602994	2.6646363	-0.01666806	-0.016741924	0.16247474	0.02857879	0.06267538	0	988.0199854730677
12.022644	0.057543994	0.42	21.493226	2.5352828	-0.01690554	-0.017197186	0.16778846	0.030689901	0.063131288	0	989.8937441142226
12.022644	0.063095734	0.42	21.536324	2.405758	-0.017045847	-0.017678805	0.1732502	0.032797657	0.06358165	0	991.9172144136378
12.022644	0.069183097	0.42	21.740478	2.2780014	-0.017073482	-0.01817182	0.17888053	0.034917473	0.064066696	0	994.1130759755581
12.022644	0.075857758	0.42	22.114278	2.1526629	-0.016968895	-0.018668256	0.18469319	0.037065533	0.06461093	0	996.5051193462978
12.022644	0.083176377	0.42	22.670128	2.0298344	-0.016705227	-0.019165614	0.19069662	0.039259039	0.065232727	0	999.1219108828446
12.022644	0.091201084	0.42	23.425475	1.9093514	-0.016246874	-0.019666172	0.19689468	0.041516645	0.065948637	0	1001.9984260932661
12.022644	0.1	0.42	24.403894	1.7909217	-0.015547955	-0.020176555	0.20328706	0.043859009	0.066775579	0	1005.1776508439766
12.022644	0.10964782	0.42	25.636422	1.6741828	-0.014550382	-0.020707397	0.20986962	0.046309453	0.067732236	0	1008.7125288907964
12.022644	0.12022644	0.42	27.162574	1.5587504	-0.01318206	-0.021273165	0.21663461	0.048894753	0.068840466	0	1012.6677399124197
12.022644	0.13182567	0.42	29.029236	1.4443491	-0.011357218	-0.021892279	0.22357051	0.051645945	0.070127784	0	1017.1193253754916
12.022644	0.14454398	0.42	31.284651	1.3312133	-0.0089823464	-0.022587078	0.23066211	0.054598802	0.071632958	0	1022.149141528696
12.022644	0.15848932	0.42	33.47557	1.2252104	-0.0064974719	-0.02339845	0.23787586	0.057781607	0.073459356	0	1027.3305151162908
12.022644	0.17378008	0.42	36.806386	1.1367372	-0.0025734287	-0.024383747	0.24516198	0.061220757	0.075766406	0	1033.8926402118495
12.022644	0.19054607	0.42	40.916818	1.0525009	0.0024952477	-0.025508014	0.2525632	0.065023126	0.07849089	0	1041.5756434687376
12.022644	0.20892961	0.42	46.011467	0.97306418	0.0090158695	-0.026787447	0.26007138	0.069274836	0.081726131	0	1050.6650525956888
12.022644	0.22908677	0.42	52.332475	0.89894615	0.017355264	-0.028232799	0.26768405	0.074083963	0.085586846	0	1061.504551108123
12.022644	0.25118864	0.42	60.147272	0.83057868	0.027928971	-0.029847149	0.27540666	0.079583706	0.090211761	0	1074.4867164687519
12.022644	0.27542287	0.42	69.723921	0.76825925	0.041175546	-0.03162394	0.28325457	0.085933766	0.095764383	0	1090.029661553414
12.022644	0.30199517	0.42	81.294676	0.71210937	0.057515736	-0.033546051	0.29125397	0.093318698	0.10243082	0	1108.5390406953622
12.022644	0.33113112	0.42	95.014344	0.66204867	0.077303008	-0.035586742	0.29944097	0.10194236	0.11041391	0	1130.3612088761763
12.022644	0.36307805	0.42	110.92579	0.61779517	0.10077877	-0.037712831	0.30785837	0.11201853	0.11992381	0	1155.739874314601
12.022644	0.39810717	0.42	128.94553	0.57889548	0.12804714	-0.039889521	0.31655092	0.12375898	0.1311665	0	1184.7905218065002
12.022644	0.43651583	0.42	148.87536	0.54477932	0.15907749	-0.042085407	0.32556027	0.13736149	0.14433247	0	1217.5008101610022
12.022644	0.47863009	0.42	170.43533	0.51482379	0.1937312	-0.044276145	0.33492132	0.1530001	0.15958776	0	1253.7542689781899
12.022644	0.52480746	0.42	193.30557	0.48841144	0.23180092	-0.046445994	0.3446607	0.17081906	0.17706876	0	1293.3665880453548
12.022644	0.57543994	0.42	217.16483	0.46497181	0.27304945	-0.048587417	0.35479718	0.19093097	0.19688073	0	1336.122309430957
12.022644	0.63095734	0.42	241.71833	0.4440042	0.31723999	-0.050699526	0.36534322	0.21341803	0.21909949	0	1381.8038609935059
12.022644	0.69183097	0.42	266.71351	0.42508481	0.36415564	-0.052786137	0.37630694	0.23833552	0.24377489	0	1430.2106553022563
12.022644	0.75857758	0.42	291.94587	0.40786376	0.41360929	-0.054853984	0.38769389	0.26571633	0.27093534	0	1481.1690804114005
12.022644	0.83176377	0.42	317.25815	0.39205683	0.46544687	-0.056911328	0.39950851	0.29557563	0.30059238	0	1534.5361295889284
12.022644	0.91201084	0.42	342.53578	0.37743529	0.51954654	-0.058966985	0.41175505	0.32791532	0.33274497	0	1590.1990033167463
12.022644	1.	0.42	367.70083	0.36381596	0.57581589	-0.061029713	0.42443824	0.36272789	0.36738327	0	1648.0727429013846
12.022644	1.0964782	0.42	392.70571	0.35105224	0.63418834	-0.063107865	0.43756362	0.39999977	0.40449182	0	1708.0969782624975
12.022644	1.2022644	0.42	417.52727	0.33902664	0.69461951	-0.06520922	0.45113775	0.43971393	0.44405211	0	1770.2326001803028
12.022644	1.3182567	0.42	442.16169	0.32764467	0.75708381	-0.067340931	0.46516826	0.48185209	0.48604462	0	1834.458576108616
12.022644	1.4454398	0.42	466.62014	0.31682992	0.82157157	-0.069509529	0.47966383	0.52639634	0.53045048	0	1900.7692457299418
12.022644	1.5848932	0.42	490.92524	0.30652026	0.88808657	-0.071720978	0.49463422	0.57333044	0.57725267	0	1969.172012067586
12.022644	1.7378008	0.42	515.10823	0.29666478	0.95664397	-0.073980735	0.51009018	0.62264086	0.62643697	0	2039.6853610698101
12.022644	1.9054607	0.42	539.20666	0.28722147	1.0272687	-0.076293817	0.52604337	0.6743174	0.67799267	0	2112.3373173402215
12.022644	2.0892961	0.42	563.26263	0.27815534	1.0999939	-0.078664871	0.54250637	0.72835381	0.73191308	0	2187.1639823620026
12.022644	2.2908677	0.42	587.32141	0.26943706	1.1748603	-0.081098234	0.5594926	0.78474814	0.78819584	0	2264.2089203979967
12.022644	2.5118864	0.42	611.4303	0.26104173	1.2519148	-0.083597991	0.57701628	0.84350295	0.84684323	0	2343.5218085232173
12.022644	2.7542287	0.42	635.63788	0.2529481	1.3312101	-0.08616802	0.5950924	0.90462554	0.90786225	0	2425.1580771471376
12.022644	3.0199517	0.42	659.99337	0.24513782	1.412804	-0.088812041	0.61373671	0.96812799	0.97126476	0	2509.1782483717793
12.022644	3.3113112	0.42	684.54612	0.23759488	1.4967591	-0.09153365	0.63296568	1.0340272	1.0370675	0	2595.6476383374047
12.022644	3.6307805	0.42	709.34536	0.23030523	1.5831423	-0.094336352	0.65279649	1.102345	1.1052919	0	2684.635883493666
12.022644	3.9810717	0.42	734.43988	0.22325638	1.6720245	-0.097223588	0.67324705	1.1731078	1.1759646	0	2776.216666622356
12.022644	4.3651583	0.42	759.87794	0.21643716	1.7634807	-0.10019876	0.69433594	1.2463471	1.2491166	0	2870.4677871168897
12.022644	4.7863009	0.42	785.70712	0.20983748	1.8575894	-0.10326525	0.71608246	1.3220987	1.3247838	0	2967.4706169739698
12.022644	5.2480746	0.42	811.97433	0.20344815	1.9544328	-0.10642645	0.73850662	1.4004034	1.4030068	0	3067.3102847604796
12.022644	5.7543994	0.42	838.72574	0.19726075	2.0540964	-0.10968575	0.76162914	1.4813065	1.4838306	0	3170.075299787346
12.022644	6.3095734	0.42	866.00683	0.1912675	2.1566695	-0.11304658	0.78547146	1.5648574	1.5673049	0	3275.858025838387
12.022644	6.9183097	0.42	893.86242	0.18546118	2.2622445	-0.11651242	0.81005575	1.6511105	1.6534836	0	3384.754027420745
12.022644	7.5857758	0.42	922.33673	0.17983505	2.3709173	-0.1200868	0.83540491	1.7401241	1.7424253	0	3496.86244559102
12.022644	8.3176377	0.42	951.47344	0.17438276	2.4827873	-0.12377329	0.86154264	1.8319612	1.8341926	0	3612.2860255784954
12.022644	9.1201084	0.42	981.31575	0.16909835	2.5979573	-0.12757557	0.88849337	1.9266887	1.9288524	0	3731.1309952053816
12.022644	10.	0.42	1011.9065	0.16397614	2.7165335	-0.13149737	0.91628237	2.0243778	2.0264761	0	3853.507108294735