12.022644	1.e-12	0.56	1.6396545e9	5.4559006e8	-0.31421642	0.0017353994	0.0017353995	-1.7451206e6	5.2362301e6	0	645.2515812605731
12.022644	1.0964782e-12	0.56	1.4953827e9	4.9758405e8	-0.31303787	0.0017353998	0.0017353999	-1.5915689e6	4.7754986e6	0	646.3589062142781
12.022644	1.2022644e-12	0.56	1.3638052e9	4.5380205e8	-0.31185932	0.0017353995	0.0017353997	-1.4515281e6	4.3553065e6	0	647.4662308522895
12.022644	1.3182567e-12	0.56	1.2438052e9	4.1387239e8	-0.31068077	0.0017353994	0.0017353996	-1.3238094e6	3.9720868e6	0	648.5735555429162
12.022644	1.4454398e-12	0.56	1.1343638e9	3.7745611e8	-0.30950221	0.0017353997	0.0017353999	-1.2073286e6	3.6225862e6	0	649.6808898396592
12.022644	1.5848932e-12	0.56	1.0345521e9	3.4424406e8	-0.30832366	0.0017353995	0.0017353997	-1.1010968e6	3.3038379e6	0	650.7882144776704
12.022644	1.7378008e-12	0.56	9.435227e8	3.1395432e8	-0.30714511	0.0017353998	0.0017354	-1.0042122e6	3.0131359e6	0	651.89553937876
12.022644	1.9054607e-12	0.56	8.6050294e8	2.8632974e8	-0.30596656	0.0017353994	0.0017353996	-915852.45	2.7480126e6	0	653.0028639115396
12.022644	2.0892961e-12	0.56	7.8478801e8	2.6113583e8	-0.30478801	0.0017353997	0.0017353999	-835267.39	2.5062173e6	0	654.1101888126293
12.022644	2.2908677e-12	0.56	7.1573517e8	2.3815871e8	-0.30360945	0.0017353995	0.0017353998	-761772.94	2.2856974e6	0	655.2175228989096
12.022644	2.5118864e-12	0.56	6.5275824e8	2.1720333e8	-0.3024309	0.0017353998	0.0017354001	-694745.21	2.0845808e6	0	656.3248477999989
12.022644	2.7542287e-12	0.56	5.9532259e8	1.9809179e8	-0.30125235	0.0017353994	0.0017353997	-633615.18	1.9011603e6	0	657.4321723327789
12.022644	3.0199517e-12	0.56	5.4294065e8	1.8066186e8	-0.3000738	0.0017353997	0.0017354	-577863.94	1.7338788e6	0	658.5394972338684
12.022644	3.3113112e-12	0.56	4.9516776e8	1.6476558e8	-0.29889525	0.0017353995	0.0017353999	-527018.2	1.5813162e6	0	659.6468219244954
12.022644	3.6307805e-12	0.56	4.5159836e8	1.50268e8	-0.29771669	0.0017353993	0.0017353997	-480646.34	1.4421775e6	0	660.7541559581599
12.022644	3.9810717e-12	0.56	4.1186261e8	1.3704605e8	-0.29653814	0.0017353996	0.0017354	-438354.7	1.3152816e6	0	661.8614808592492
12.022644	4.3651583e-12	0.56	3.7562316e8	1.2498748e8	-0.29535959	0.0017353998	0.0017354002	-399784.26	1.199551e6	0	662.9688057077232
12.022644	4.7863009e-12	0.56	3.425724e8	1.1398994e8	-0.29418104	0.0017353996	0.0017354	-364607.61	1.0940036e6	0	664.0761303457343
12.022644	5.2480746e-12	0.56	3.1242974e8	1.0396006e8	-0.29300249	0.0017353995	0.0017354	-332526.11	997743.1	0	665.1834550889769
12.022644	5.7543994e-12	0.56	2.8493931e8	9.4812706e7	-0.29182394	0.0017353998	0.0017354003	-303267.45	909952.53	0	666.2907799900663
12.022644	6.3095734e-12	0.56	2.5986774e8	8.6470218e7	-0.29064538	0.0017353994	0.0017354	-276583.22	829886.57	0	667.3981139711154
12.022644	6.9183097e-12	0.56	2.370022e8	7.8861778e7	-0.28946683	0.0017353997	0.0017354003	-252246.92	756865.54	0	668.5054388722049
12.022644	7.5857758e-12	0.56	2.1614857e8	7.1922798e7	-0.28828828	0.0017353995	0.0017354002	-230051.95	690269.58	0	669.6127635628318
12.022644	8.3176377e-12	0.56	1.9712984e8	6.5594374e7	-0.28710973	0.0017353998	0.0017354006	-209809.9	629533.34	0	670.7200885165366
12.022644	9.1201084e-12	0.56	1.7978456e8	5.9822782e7	-0.28593118	0.0017353994	0.0017354003	-191348.93	574141.24	0	671.8274131019325
12.022644	1.e-11	0.56	1.6396546e8	5.4559027e7	-0.28475262	0.0017353997	0.0017354006	-174512.32	523623.03	0	672.9347473986753
12.022644	1.0964782e-11	0.56	1.4953828e8	4.9758427e7	-0.28357407	0.0017353995	0.0017354005	-159157.15	477549.88	0	674.0420720893022
12.022644	1.2022644e-11	0.56	1.3638053e8	4.5380226e7	-0.28239552	0.0017353998	0.0017354009	-145153.07	435530.67	0	675.1493970430073
12.022644	1.3182567e-11	0.56	1.2438053e8	4.1387261e7	-0.28121697	0.0017353994	0.0017354006	-132381.2	397208.69	0	676.2567216284028
12.022644	1.4454398e-11	0.56	1.1343639e8	3.7745632e7	-0.28003842	0.0017353997	0.0017354011	-120733.12	362258.64	0	677.3640466347238
12.022644	1.5848932e-11	0.56	1.0345522e8	3.4424428e7	-0.27885987	0.0017353995	0.001735401	-110109.94	330383.8	0	678.4713713253504
12.022644	1.7378008e-11	0.56	9.4352282e7	3.1395453e7	-0.27768131	0.0017353998	0.0017354014	-100421.48	301313.61	0	679.5787056747091
12.022644	1.9054607e-11	0.56	8.6050305e7	2.8632996e7	-0.27650276	0.0017353996	0.0017354014	-91585.502	274801.28	0	680.6860304179515
12.022644	2.0892961e-11	0.56	7.8478811e7	2.6113605e7	-0.27532421	0.0017353995	0.0017354015	-83526.994	250621.75	0	681.7933552138098
12.022644	2.2908677e-11	0.56	7.1573528e7	2.3815892e7	-0.27414566	0.0017353998	0.001735402	-76177.548	228569.75	0	682.9006802201304
12.022644	2.5118864e-11	0.56	6.5275834e7	2.1720354e7	-0.27296711	0.0017353994	0.0017354018	-69474.774	208458.09	0	684.0080048581417
12.022644	2.7542287e-11	0.56	5.9532269e7	1.98092e7	-0.27178855	0.0017353997	0.0017354023	-63361.77	190116.04	0	685.115339260116
12.022644	3.0199517e-11	0.56	5.4294076e7	1.8066207e7	-0.27061	0.0017353995	0.0017354024	-57786.645	173387.89	0	686.2226640559743
12.022644	3.3113112e-11	0.56	4.9516787e7	1.6476579e7	-0.26943145	0.0017353998	0.0017354029	-52702.07	158131.64	0	687.329989062295
12.022644	3.6307805e-11	0.56	4.5159847e7	1.5026821e7	-0.2682529	0.0017353994	0.0017354028	-48064.883	144217.77	0	688.4373137529218
12.022644	3.9810717e-11	0.56	4.1186272e7	1.3704625e7	-0.26707435	0.0017353997	0.0017354035	-43835.718	131528.17	0	689.544638864474
12.022644	4.3651583e-11	0.56	3.7562327e7	1.2498769e7	-0.2658958	0.0017353995	0.0017354036	-39978.673	119955.12	0	690.6519636603321
12.022644	4.7863009e-11	0.56	3.425725e7	1.1399014e7	-0.26471724	0.0017353998	0.0017354043	-36461.006	109400.37	0	691.7592981675378
12.022644	5.2480746e-11	0.56	3.1242985e7	1.0396027e7	-0.26353869	0.0017353994	0.0017354044	-33252.856	99774.326	0	692.8666229633957
12.022644	5.7543994e-11	0.56	2.8493942e7	9.481291e6	-0.26236014	0.0017353997	0.0017354052	-30326.989	90995.27	0	693.9739481275637
12.022644	6.3095734e-11	0.56	2.5986785e7	8.647042e6	-0.26118159	0.0017353995	0.0017354055	-27658.565	82988.673	0	695.0812730286531
12.022644	6.9183097e-11	0.56	2.3700231e7	7.886198e6	-0.26000304	0.0017353998	0.0017354064	-25224.934	75686.571	0	696.1885982454367
12.022644	7.5857758e-11	0.56	2.1614868e7	7.1922999e6	-0.25882448	0.0017353994	0.0017354066	-23005.436	69026.975	0	697.2959324895638
12.022644	8.3176377e-11	0.56	1.9712995e7	6.5594574e6	-0.25764593	0.0017353997	0.0017354076	-20981.23	62953.351	0	698.403257758963
12.022644	9.1201084e-11	0.56	1.7978466e7	5.9822982e6	-0.25646738	0.0017353995	0.0017354082	-19135.131	57414.14	0	699.5105828178996
12.022644	1.e-10	0.56	1.6396557e7	5.4559226e6	-0.25528883	0.0017353998	0.0017354093	-17451.47	52362.32	0	700.6179081399141
12.022644	1.0964782e-10	0.56	1.4953839e7	4.9758625e6	-0.25411028	0.0017353996	0.00173541	-15915.952	47755.005	0	701.7252332514663
12.022644	1.2022644e-10	0.56	1.3638064e7	4.5380424e6	-0.25293173	0.0017353999	0.0017354113	-14515.543	43553.084	0	702.8325586787123
12.022644	1.3182567e-10	0.56	1.2438064e7	4.1387457e6	-0.25175317	0.0017353995	0.001735412	-13238.355	39720.886	0	703.9398931859182
12.022644	1.4454398e-10	0.56	1.134365e7	3.7745828e6	-0.25057462	0.0017353998	0.0017354135	-12073.545	36225.881	0	705.0472187183954
12.022644	1.5848932e-10	0.56	1.0345533e7	3.4424622e6	-0.24939607	0.0017353994	0.0017354145	-11011.226	33038.397	0	706.1545439877946
12.022644	1.7378008e-10	0.56	9.435239e6	3.1395647e6	-0.24821752	0.0017353997	0.0017354162	-10042.379	30131.378	0	707.2618696255033
12.022644	1.9054607e-10	0.56	8.6050413e6	2.8633189e6	-0.24703897	0.0017353998	0.001735418	-9158.7802	27480.145	0	708.3691953158276
12.022644	2.0892961e-10	0.56	7.847892e6	2.6113797e6	-0.24586041	0.0017353996	0.0017354195	-8352.9284	25062.192	0	709.4765302439585
12.022644	2.2908677e-10	0.56	7.1573636e6	2.3816084e6	-0.24468186	0.0017353995	0.0017354213	-7617.9827	22856.992	0	710.5838559342828
12.022644	2.5118864e-10	0.56	6.5275943e6	2.1720545e6	-0.24350331	0.0017353998	0.0017354237	-6947.7042	20845.826	0	711.6911819403012
12.022644	2.7542287e-10	0.56	5.9532378e6	1.980939e6	-0.24232476	0.0017353996	0.0017354258	-6336.4028	19011.621	0	712.7985077884725
12.022644	3.0199517e-10	0.56	5.4294184e6	1.8066396e6	-0.24114621	0.0017353999	0.0017354286	-5778.8892	17338.806	0	713.9058340049535
12.022644	3.3113112e-10	0.56	4.9516895e6	1.6476767e6	-0.23996766	0.0017353995	0.001735431	-5270.4307	15813.181	0	715.0131600109719
12.022644	3.6307805e-10	0.56	4.5159956e6	1.5027008e6	-0.2387891	0.0017353998	0.0017354344	-4806.7109	14421.794	0	716.1204959388003
12.022644	3.9810717e-10	0.56	4.118638e6	1.3704811e6	-0.23761055	0.0017353996	0.0017354375	-4383.7933	13152.834	0	717.2278223131282
12.022644	4.3651583e-10	0.56	3.7562435e6	1.2498954e6	-0.236432	0.0017353999	0.0017354414	-3998.0878	11995.529	0	718.3351491083815
12.022644	4.7863009e-10	0.56	3.4257359e6	1.1399199e6	-0.23525345	0.0017353997	0.0017354452	-3646.3201	10940.054	0	719.4424758510191
12.022644	5.2480746e-10	0.56	3.1243093e6	1.0396211e6	-0.2340749	0.0017354	0.0017354499	-3325.504	9977.4496	0	720.5498030671974
12.022644	5.7543994e-10	0.56	2.849405e6	948147.4	-0.23289634	0.0017353998	0.0017354546	-3032.9162	9099.5438	0	721.6571396790296
12.022644	6.3095734e-10	0.56	2.5986893e6	864722.42	-0.23171779	0.0017354	0.00173546	-2766.0728	8298.8842	0	722.7644672635175
12.022644	6.9183097e-10	0.56	2.3700339e6	788637.93	-0.23053924	0.0017353998	0.0017354656	-2522.7086	7568.674	0	723.8717949532371
12.022644	7.5857758e-10	0.56	2.1614976e6	719248.05	-0.22936069	0.0017354001	0.0017354722	-2300.7577	6902.7144	0	724.9791231691129
12.022644	8.3176377e-10	0.56	1.9713103e6	655963.71	-0.22818214	0.0017353999	0.001735479	-2098.336	6295.352	0	726.0864514902205
12.022644	9.1201084e-10	0.56	1.7978575e6	598247.7	-0.22700359	0.0017353998	0.0017354865	-1913.7251	5741.4309	0	727.1937801796375
12.022644	1.e-9	0.56	1.6396665e6	545610.07	-0.22582503	0.0017354001	0.0017354952	-1745.3579	5236.2489	0	728.3011188960958
12.022644	1.0964782e-9	0.56	1.4953947e6	497603.96	-0.22464648	0.0017353999	0.0017355041	-1591.8051	4775.5174	0	729.4084483221322
12.022644	1.2022644e-9	0.56	1.3638172e6	453821.87	-0.22346793	0.0017354002	0.0017355145	-1451.7631	4355.3252	0	730.5157785374031
12.022644	1.3182567e-9	0.56	1.2438172e6	413892.12	-0.22228938	0.0017354003	0.0017355257	-1324.0432	3972.1055	0	731.6231091735995
12.022644	1.4454398e-9	0.56	1.1343758e6	377475.75	-0.22111083	0.0017354001	0.0017355376	-1207.5612	3622.6049	0	732.7304401781055
12.022644	1.5848932e-9	0.56	1.0345641e6	344263.61	-0.21993228	0.0017354004	0.0017355511	-1101.3282	3303.8566	0	733.8377720244621
12.022644	1.7378008e-9	0.56	943534.71	313973.77	-0.21875372	0.0017354	0.0017355653	-1004.4425	3013.1547	0	734.9451136347816
12.022644	1.9054607e-9	0.56	860514.95	286349.11	-0.21757517	0.0017354006	0.0017355818	-916.08153	2748.0314	0	736.0524470596079
12.022644	2.0892961e-9	0.56	784800.02	261155.11	-0.21639662	0.0017354003	0.0017355989	-835.49529	2506.236	0	737.1597808001284
12.022644	2.2908677e-9	0.56	715747.18	238177.89	-0.21521807	0.0017354008	0.0017356187	-761.99966	2285.7161	0	738.2671159612713
12.022644	2.5118864e-9	0.56	652770.24	217222.42	-0.21403952	0.0017354005	0.0017356393	-694.97075	2084.5995	0	739.3744515433398
12.022644	2.7542287e-9	0.56	595334.6	198110.79	-0.21286097	0.0017354008	0.0017356626	-633.83956	1901.179	0	740.4817885460309
12.022644	3.0199517e-9	0.56	542952.66	180680.77	-0.21168242	0.0017354011	0.0017356882	-578.08714	1733.8975	0	741.5891267588822
12.022644	3.3113112e-9	0.56	495179.77	164784.39	-0.21050386	0.0017354009	0.0017357157	-527.24022	1581.3349	0	742.6964753670848
12.022644	3.6307805e-9	0.56	451610.38	150286.72	-0.20932531	0.0017354012	0.0017357464	-480.86718	1442.1963	0	743.8038162633347
12.022644	3.9810717e-9	0.56	411874.62	137064.67	-0.20814676	0.0017354015	0.00173578	-438.57436	1315.3003	0	744.9111586854389
12.022644	4.3651583e-9	0.56	375635.17	125006.02	-0.20696821	0.0017354016	0.0017358166	-400.00275	1199.5698	0	746.0185026860128
12.022644	4.7863009e-9	0.56	342584.41	114008.38	-0.20578966	0.0017354019	0.001735857	-364.82492	1094.0223	0	747.1258486859817
12.022644	5.2480746e-9	0.56	312441.75	103978.41	-0.20461111	0.0017354017	0.0017359007	-332.74225	997.76181	0	748.2331964222674
12.022644	5.7543994e-9	0.56	284951.32	94830.967	-0.20343256	0.0017354023	0.0017359494	-303.4824	909.97123	0	749.3405467893363
12.022644	6.3095734e-9	0.56	259879.75	86488.386	-0.20225401	0.0017354021	0.001736002	-276.797	829.90527	0	750.4478992084157
12.022644	6.9183097e-9	0.56	237014.21	78879.854	-0.20107546	0.0017354027	0.0017360605	-252.45952	756.88425	0	751.555254731819
12.022644	7.5857758e-9	0.56	216160.58	71940.783	-0.19989691	0.001735403	0.0017361242	-230.26337	690.28829	0	752.6626129912368
12.022644	8.3176377e-9	0.56	197141.85	65612.266	-0.19871836	0.0017354033	0.0017361941	-210.02014	629.55205	0	753.7699745128253
12.022644	9.1201084e-9	0.56	179796.57	59840.582	-0.1975398	0.0017354036	0.0017362707	-191.558	574.15994	0	754.8773489553166
12.022644	1.e-8	0.56	163977.47	54576.736	-0.19636125	0.0017354039	0.0017363547	-174.72021	523.64174	0	755.984717895713
12.022644	1.0964782e-8	0.56	149550.29	49776.043	-0.1951827	0.0017354046	0.001736447	-159.36387	477.56859	0	757.0920912032094
12.022644	1.2022644e-8	0.56	136392.55	45397.751	-0.19400415	0.0017354049	0.0017365479	-145.35861	435.54938	0	758.1994690356523
12.022644	1.3182567e-8	0.56	124392.54	41404.693	-0.1928256	0.0017354055	0.0017366588	-132.58556	397.2274	0	759.3068521296614
12.022644	1.4454398e-8	0.56	113448.4	37762.973	-0.19164706	0.0017354058	0.00173678	-120.9363	362.27735	0	760.4142312474298
12.022644	1.5848932e-8	0.56	103467.23	34441.676	-0.19046851	0.0017354064	0.0017369132	-110.31194	330.40251	0	761.521626074731
12.022644	1.7378008e-8	0.56	94364.293	31412.61	-0.18928996	0.001735407	0.0017370592	-100.6223	301.33232	0	762.6290276368366
12.022644	1.9054607e-8	0.56	86062.315	28650.06	-0.18811141	0.0017354076	0.0017372192	-91.785148	274.81999	0	763.7364365651342
12.022644	2.0892961e-8	0.56	78490.822	26130.577	-0.18693286	0.0017354082	0.0017373946	-83.725463	250.64046	0	764.8438535962439
12.022644	2.2908677e-8	0.56	71585.539	23832.773	-0.18575431	0.0017354094	0.0017375874	-76.37484	228.58846	0	765.951279782478
12.022644	2.5118864e-8	0.56	65287.846	21737.143	-0.18457576	0.0017354103	0.0017377985	-69.670888	208.4768	0	767.0587155973778
12.022644	2.7542287e-8	0.56	59544.281	19825.897	-0.18339722	0.0017354116	0.0017380301	-63.556707	190.13475	0	768.1661528028345
12.022644	3.0199517e-8	0.56	54306.088	18082.812	-0.18221867	0.0017354128	0.001738284	-57.980405	173.4066	0	769.2736111372368
12.022644	3.3113112e-8	0.56	49528.798	16493.091	-0.18104012	0.001735414	0.0017385622	-52.894653	158.15035	0	770.3810822572441
12.022644	3.6307805e-8	0.56	45171.859	15043.241	-0.17986158	0.0017354152	0.0017388671	-48.256288	144.23648	0	771.4885580299795
12.022644	3.9810717e-8	0.56	41198.283	13720.954	-0.17868303	0.0017354164	0.0017392014	-44.025945	131.54688	0	772.596058667372
12.022644	4.3651583e-8	0.56	37574.339	12515.005	-0.17750448	0.0017354183	0.0017395684	-40.167723	119.97383	0	773.703576510085
12.022644	4.7863009e-8	0.56	34269.262	11415.159	-0.17632594	0.0017354201	0.0017399706	-36.648879	109.41908	0	774.811103477857
12.022644	5.2480746e-8	0.56	31254.997	10412.079	-0.1751474	0.0017354219	0.0017404114	-33.439551	99.793039	0	775.9186507552736
12.022644	5.7543994e-8	0.56	28505.954	9497.2514	-0.17396885	0.0017354243	0.0017408953	-30.512506	91.013981	0	777.0262301056928
12.022644	6.3095734e-8	0.56	25998.797	8662.9105	-0.17279031	0.0017354268	0.0017414255	-27.842905	83.007386	0	778.1338244215091
12.022644	6.9183097e-8	0.56	23712.243	7901.9745	-0.17161177	0.0017354292	0.0017420067	-25.408096	75.705285	0	779.2414455713117
12.022644	7.5857758e-8	0.56	21626.881	7207.9845	-0.17043323	0.0017354319	0.001742644	-23.187421	69.045689	0	780.3490962384993
12.022644	8.3176377e-8	0.56	19725.008	6575.0499	-0.16925469	0.001735435	0.0017433429	-21.162037	62.972065	0	781.4567793169333
12.022644	9.1201084e-8	0.56	17990.479	5997.7987	-0.16807615	0.0017354386	0.0017441095	-19.314761	57.432855	0	782.5644980161687
12.022644	1.e-7	0.56	16408.57	5471.3312	-0.16689762	0.0017354423	0.0017449497	-17.629922	52.381035	0	783.6722460448761
12.022644	1.0964782e-7	0.56	14965.852	4991.179	-0.16571908	0.0017354465	0.0017458712	-16.093226	47.773721	0	784.7800462457683
12.022644	1.2022644e-7	0.56	13650.078	4553.267	-0.16454055	0.0017354508	0.0017468812	-14.691639	43.571801	0	785.8878836158658
12.022644	1.3182567e-7	0.56	12450.077	4153.8783	-0.16336202	0.0017354563	0.0017479894	-13.413273	39.739604	0	786.995772654541
12.022644	1.4454398e-7	0.56	11355.664	3789.6235	-0.16218349	0.0017354615	0.0017492038	-12.247286	36.2446	0	788.1037175710467
12.022644	1.5848932e-7	0.56	10357.547	3457.411	-0.16100496	0.0017354675	0.0017505357	-11.183789	33.057117	0	789.2117243109525
12.022644	1.7378008e-7	0.56	9447.2538	3154.4215	-0.15982644	0.0017354739	0.0017519958	-10.213765	30.1501	0	790.3197891084803
12.022644	1.9054607e-7	0.56	8617.0565	2878.0837	-0.15864792	0.0017354812	0.0017535972	-9.3289881	27.498868	0	791.4279282519352
12.022644	2.0892961e-7	0.56	7859.9077	2626.0526	-0.1574694	0.0017354891	0.0017553528	-8.5219585	25.080916	0	792.5361485287372
12.022644	2.2908677e-7	0.56	7169.3798	2396.1894	-0.15629088	0.0017354976	0.0017572778	-7.7858349	22.875718	0	793.6444579364663
12.022644	2.5118864e-7	0.56	6539.611	2186.5435	-0.15511237	0.0017355074	0.0017593888	-7.1143785	20.864554	0	794.7528558136689
12.022644	2.7542287e-7	0.56	5965.2551	1995.3362	-0.15393386	0.0017355174	0.0017617029	-6.5018991	19.030351	0	795.8613605532762
12.022644	3.0199517e-7	0.56	5441.4364	1820.9449	-0.15275536	0.001735529	0.0017642408	-5.9432074	17.357538	0	796.9699736510763
12.022644	3.3113112e-7	0.56	4963.7082	1661.8901	-0.15157686	0.0017355411	0.001767023	-5.4335707	15.831915	0	798.0787152889327
12.022644	3.6307805e-7	0.56	4528.015	1516.8223	-0.15039836	0.0017355551	0.0017700743	-4.9686728	14.44053	0	799.1875985155291
12.022644	3.9810717e-7	0.56	4130.6582	1384.5108	-0.14921987	0.0017355697	0.0017734192	-4.5445769	13.171573	0	800.2966268260486
12.022644	4.3651583e-7	0.56	3768.2648	1263.8332	-0.14804139	0.0017355861	0.0017770873	-4.157693	12.014271	0	801.4058157947263
12.022644	4.7863009e-7	0.56	3437.7581	1153.7658	-0.14686291	0.0017356044	0.0017811095	-3.8047468	10.958799	0	802.5151910754546
12.022644	5.2480746e-7	0.56	3136.3327	1053.3752	-0.14568444	0.0017356238	0.0017855192	-3.4827522	9.9961984	0	803.6247608462106
12.022644	5.7543994e-7	0.56	2861.4296	961.8097	-0.14450598	0.0017356457	0.0017903548	-3.1889856	9.1182967	0	804.7345453114073
12.022644	6.3095734e-7	0.56	2610.7153	878.29295	-0.14332753	0.0017356694	0.0017956568	-2.9209635	8.3176415	0	805.8445657803868
12.022644	6.9183097e-7	0.56	2382.0613	802.1167	-0.14214908	0.0017356955	0.0018014704	-2.6764203	7.5874361	0	806.9548554310807
12.022644	7.5857758e-7	0.56	2173.5267	732.63507	-0.14097065	0.0017357241	0.0018078447	-2.4532904	6.9214817	0	808.0654213064711
12.022644	8.3176377e-7	0.56	1983.3412	669.25903	-0.13979223	0.0017357551	0.0018148337	-2.2496894	6.314125	0	809.1763012146677
12.022644	9.1201084e-7	0.56	1809.8902	611.45134	-0.13861382	0.0017357897	0.0018224977	-2.0638991	5.7602102	0	810.2875268829127
12.022644	1.e-6	0.56	1651.7015	558.72206	-0.13743542	0.0017358271	0.0018309004	-1.8943522	5.2550351	0	811.399131827382
12.022644	1.0964782e-6	0.56	1507.432	510.62434	-0.13625704	0.0017358684	0.0018401141	-1.7396195	4.7943112	0	812.5111446935434
12.022644	1.2022644e-6	0.56	1375.8571	466.75067	-0.13507868	0.0017359137	0.0018502166	-1.5983974	4.3741274	0	813.6236064163807
12.022644	1.3182567e-6	0.56	1255.8598	426.72939	-0.13390033	0.0017359635	0.001861294	-1.4694971	3.9909167	0	814.7365716936297
12.022644	1.4454398e-6	0.56	1146.4215	390.22152	-0.13272201	0.0017360176	0.0018734394	-1.3518345	3.6414261	0	815.8500707191629
12.022644	1.5848932e-6	0.56	1046.6132	356.91795	-0.1315437	0.0017360771	0.0018867568	-1.2444205	3.3226888	0	816.9641770045728
12.022644	1.7378008e-6	0.56	955.58754	326.53673	-0.13036542	0.0017361427	0.0019013593	-1.1463534	3.0319988	0	818.078931266864
12.022644	1.9054607e-6	0.56	872.57185	298.82075	-0.12918717	0.0017362144	0.0019173701	-1.0568108	2.7668887	0	819.1943983285287
12.022644	2.0892961e-6	0.56	796.86138	273.53549	-0.12800894	0.0017362927	0.0019349252	-0.97504243	2.5251078	0	820.3106591425176
12.022644	2.2908677e-6	0.56	727.81344	250.46709	-0.12683075	0.001736379	0.0019541741	-0.90036422	2.3046037	0	821.4277735779348
12.022644	2.5118864e-6	0.56	664.84187	229.42052	-0.12565259	0.0017364737	0.0019752799	-0.83215222	2.1035045	0	822.5458368465747
12.022644	2.7542287e-6	0.56	607.41211	210.21787	-0.12447447	0.0017365769	0.0019984208	-0.76983738	1.920103	0	823.6649333138892
12.022644	3.0199517e-6	0.56	555.03663	192.69694	-0.12329639	0.0017366905	0.0020237941	-0.71290072	1.7528423	0	824.7851667905743
12.022644	3.3113112e-6	0.56	507.27081	176.70975	-0.12211836	0.0017368149	0.0020516145	-0.6608689	1.6003027	0	825.9066408467982
12.022644	3.6307805e-6	0.56	463.70918	162.12138	-0.12094038	0.0017369515	0.0020821181	-0.61331023	1.4611891	0	827.0294797081331
12.022644	3.9810717e-6	0.56	423.98192	148.80876	-0.11976245	0.0017371014	0.0021155634	-0.56983099	1.3343206	0	828.1538193860587
12.022644	4.3651583e-6	0.56	387.7518	136.65968	-0.11858458	0.0017372652	0.0021522332	-0.53007207	1.2186202	0	829.2797992820072
12.022644	4.7863009e-6	0.56	354.71126	125.57176	-0.11740678	0.0017374455	0.0021924389	-0.49370598	1.1131058	0	830.407573845489
12.022644	5.2480746e-6	0.56	324.57981	115.45168	-0.11622905	0.0017376427	0.0022365202	-0.46043401	1.0168816	0	831.5373218118996
12.022644	5.7543994e-6	0.56	297.10167	106.21431	-0.1150514	0.0017378592	0.0022848505	-0.4299837	0.92913073	0	832.6692302524589
12.022644	6.3095734e-6	0.56	272.04357	97.781997	-0.11387383	0.0017380964	0.002337838	-0.40210658	0.84910833	0	833.8035139442891
12.022644	6.9183097e-6	0.56	249.19279	90.083956	-0.11269637	0.0017383566	0.0023959306	-0.376576	0.77613506	0	834.9403803659687
12.022644	7.5857758e-6	0.56	228.35536	83.055616	-0.111519	0.0017386416	0.0024596181	-0.35318523	0.70959145	0	836.080106020306
12.022644	8.3176377e-6	0.56	209.35437	76.638095	-0.11034175	0.0017389545	0.0025294381	-0.33174572	0.64891259	0	837.2229455821262
12.022644	9.1201084e-6	0.56	192.02854	70.777696	-0.10916463	0.0017392977	0.002605978	-0.31208547	0.59358338	0	838.3691987201605
12.022644	0.00001	0.56	176.23076	65.425449	-0.10798765	0.0017396735	0.0026898804	-0.29404758	0.54313411	0	839.5191941469835
12.022644	0.000010964782	0.56	161.82695	60.536702	-0.10681082	0.0017400856	0.0027818492	-0.27748895	0.49713652	0	840.6732928285703
12.022644	0.000012022644	0.56	148.6894	56.070679	-0.1056467	0.0017424014	0.0028845176	-0.26228477	0.45519363	0	841.8210792996731
12.022644	0.000013182567	0.56	136.71693	51.990355	-0.10447142	0.0017430761	0.0029951777	-0.24830496	0.41696175	0	842.9835562057501
12.022644	0.000014454398	0.56	125.80297	48.26182	-0.10329646	0.0017438153	0.003116449	-0.2354461	0.38211041	0	844.1513156037865
12.022644	0.000015848932	0.56	115.85484	44.854204	-0.10212184	0.001744626	0.0032493353	-0.22360906	0.35034371	0	845.3248668584665
12.022644	0.000017378008	0.56	106.7881	41.739356	-0.1009476	0.0017455145	0.0033949301	-0.21270335	0.32139195	0	846.5047477394139
12.022644	0.000019054607	0.56	98.525752	38.891614	-0.099773766	0.0017464882	0.0035544241	-0.20264641	0.29500928	0	847.6915603125882
12.022644	0.000020892961	0.56	90.997636	36.287579	-0.09860039	0.0017475553	0.0037291123	-0.19336287	0.27097168	0	848.8859370933833
12.022644	0.000022908677	0.56	84.139816	33.905921	-0.097427511	0.001748725	0.0039204002	-0.18478394	0.249075	0	850.0885809518459
12.022644	0.000025118864	0.56	77.894037	31.727194	-0.096255175	0.0017500071	0.0041298102	-0.17684681	0.22913322	0	851.3002496887718
12.022644	0.000027542287	0.56	72.207226	29.733675	-0.095083435	0.0017514123	0.0043589876	-0.16949414	0.2109769	0	852.5217591926448
12.022644	0.000030199517	0.56	67.031041	27.909207	-0.093912346	0.0017529517	0.0046097036	-0.16267352	0.19445168	0	853.7539897159338
12.022644	0.000033113112	0.56	62.321454	26.239064	-0.092741972	0.0017546391	0.0048838619	-0.1563371	0.17941701	0	854.997882770768
12.022644	0.000036307805	0.56	58.038371	24.709824	-0.091572379	0.0017564878	0.005183496	-0.15044113	0.16574489	0	856.2544462852718
12.022644	0.000039810717	0.56	54.145287	23.309257	-0.090403642	0.0017585144	0.00551077	-0.14494563	0.15331879	0	857.5247484475342
12.022644	0.000043651583	0.56	50.608962	22.026211	-0.08923584	0.0017607335	0.0058679685	-0.13981401	0.1420326	0	858.8099170892513
12.022644	0.000047863009	0.56	47.399134	20.850524	-0.088069061	0.0017631651	0.0062574918	-0.1350128	0.13178974	0	860.1111324623495
12.022644	0.000052480746	0.56	44.488242	19.772926	-0.086903403	0.0017658292	0.006681835	-0.13051139	0.12250227	0	861.4296153027476
12.022644	0.000057543994	0.56	41.851179	18.784967	-0.085738969	0.001768747	0.0071435637	-0.1262817	0.11409005	0	862.7666187425768
12.022644	0.000063095734	0.56	39.465059	17.878929	-0.084575874	0.0017719432	0.0076452848	-0.12229804	0.10648009	0	864.1234063694526
12.022644	0.000069183097	0.56	37.308998	17.047767	-0.083414242	0.0017754431	0.0081896025	-0.11853685	0.099605768	0	865.5012318942784
12.022644	0.000075857758	0.56	35.363917	16.285037	-0.082254208	0.0017792756	0.0087790704	-0.11497652	0.093406231	0	866.9013120692156
12.022644	0.000083176377	0.56	33.612346	15.584838	-0.08109592	0.0017834718	0.009416132	-0.11159724	0.087825788	0	868.3247935022347
12.022644	0.000091201084	0.56	32.038254	14.941757	-0.079939538	0.0017880662	0.010103056	-0.10838084	0.082813341	0	869.7727195543491
12.022644	0.0001	0.56	30.626884	14.350816	-0.078785236	0.0017930941	0.010841865	-0.10531066	0.078321873	0	871.245990945519
12.022644	0.00010964782	0.56	29.364609	13.80743	-0.077633203	0.0017985976	0.011634272	-0.10237141	0.074307975	0	872.745331404142
12.022644	0.00012022644	0.56	28.238795	13.307363	-0.076483644	0.0018046192	0.012481612	-0.09954911	0.070731431	0	874.2712507383774
12.022644	0.00013182567	0.56	27.237693	12.846693	-0.075336781	0.001811207	0.013384801	-0.096830967	0.067554852	0	875.824022324159
12.022644	0.00014454398	0.56	26.350345	12.421782	-0.074192854	0.0018184131	0.014344296	-0.094205298	0.06474338	0	877.4036611193676
12.022644	0.00015848932	0.56	25.566503	12.029254	-0.073052123	0.0018262925	0.015360094	-0.09166146	0.062264447	0	879.009921258542
12.022644	0.00017378008	0.56	24.876584	11.665975	-0.071914868	0.0018349069	0.016431751	-0.089189781	0.06008761	0	880.6423060498557
12.022644	0.00019054607	0.56	24.271629	11.329035	-0.07078139	0.0018443224	0.017558429	-0.086781497	0.05818443	0	882.300091764911
12.022644	0.00020892961	0.56	23.743282	11.015747	-0.069652016	0.0018546104	0.018738958	-0.084428695	0.056528406	0	883.9823555626214
12.022644	0.00022908677	0.56	23.28378	10.72363	-0.068527095	0.0018658492	0.019971931	-0.082124251	0.055094938	0	885.6880292323485
12.022644	0.00025118864	0.56	22.885945	10.450411	-0.067407	0.0018781196	0.021255788	-0.079861771	0.053861309	0	887.4159415119275
12.022644	0.00027542287	0.56	22.543182	10.194012	-0.066292132	0.0018915137	0.02258892	-0.07763554	0.05280667	0	889.16486904969
12.022644	0.00030199517	0.56	22.249471	9.9525502	-0.06518292	0.0019061274	0.023969753	-0.075440458	0.051912017	0	890.9335806016187
12.022644	0.00033113112	0.56	21.999351	9.7243265	-0.06407982	0.0019220646	0.025396825	-0.073271989	0.051160143	0	892.7208784849706
12.022644	0.00036307805	0.56	21.787904	9.5078174	-0.062983315	0.001939437	0.026868847	-0.071126105	0.050535585	0	894.5256306738296
12.022644	0.00039810717	0.56	21.610731	9.3016646	-0.06189392	0.0019583656	0.028384751	-0.068999234	0.050024532	0	896.3467913567954
12.022644	0.00043651583	0.56	21.463917	9.1046631	-0.060812176	0.0019789751	0.029943713	-0.066888214	0.049614728	0	898.1834186759793
12.022644	0.00047863009	0.56	21.343996	8.9157488	-0.059738655	0.002001403	0.031545173	-0.06479024	0.049295361	0	900.0346805523068
12.022644	0.00052480746	0.56	21.247917	8.7339857	-0.058673956	0.0020257923	0.033188839	-0.062702831	0.049056936	0	901.8998605484074
12.022644	0.00057543994	0.56	21.173007	8.558553	-0.057618706	0.0020522971	0.03487468	-0.060623781	0.048891155	0	903.7783532459521
12.022644	0.00063095734	0.56	21.116928	8.3887332	-0.056573556	0.0020810763	0.036602913	-0.058551135	0.048790793	0	905.6696611638795
12.022644	0.00069183097	0.56	21.077647	8.2239	-0.055539183	0.0021123022	0.038373997	-0.056483146	0.048749582	0	907.5733897223251
12.022644	0.00075857758	0.56	21.0534	8.063508	-0.054516282	0.0021461493	0.040188605	-0.054418258	0.048762099	0	909.4892400267597
12.022644	0.00083176377	0.56	21.042665	7.9070826	-0.053505566	0.0021828024	0.042047612	-0.052355073	0.048823671	0	911.4170025541107
12.022644	0.00091201084	0.56	21.044134	7.7542116	-0.052507764	0.002222453	0.043952079	-0.050292333	0.04893028	0	913.3565506133857
12.022644	0.001	0.56	21.056688	7.6045372	-0.05152361	0.0022652965	0.04590323	-0.048228896	0.049078487	0	915.3078385792915
12.022644	0.0010964782	0.56	21.079384	7.4577492	-0.050553845	0.0023115369	0.047902447	-0.046163725	0.049265365	0	917.2708973823196
12.022644	0.0012022644	0.56	21.111428	7.3135792	-0.049599202	0.0023613725	0.049951236	-0.044095865	0.049488432	0	919.2458307129019
12.022644	0.0013182567	0.56	21.15217	7.1717957	-0.048660408	0.0024150125	0.052051239	-0.042024433	0.049745607	0	921.2328194561596
12.022644	0.0014454398	0.56	21.20109	7.0321994	-0.047738172	0.002472661	0.054204204	-0.039948602	0.050035168	0	923.2321171819895
12.022644	0.0015848932	0.56	21.257783	6.8946193	-0.046833174	0.0025345138	0.056411976	-0.037867592	0.050355708	0	925.2440557448729
12.022644	0.0017378008	0.56	21.32196	6.7589104	-0.045946067	0.0026007731	0.058676501	-0.035780655	0.050706119	0	927.2690455093721
12.022644	0.0019054607	0.56	21.393434	6.6249501	-0.045077454	0.0026716176	0.060999796	-0.033687069	0.051085554	0	929.3075811754356
12.022644	0.0020892961	0.56	21.47212	6.4926363	-0.044227891	0.0027472229	0.063383958	-0.031586123	0.051493418	0	931.3602436951101
12.022644	0.0022908677	0.56	21.558027	6.3618853	-0.043397876	0.0028277494	0.065831155	-0.029477109	0.051929346	0	933.4277058723518
12.022644	0.0025118864	0.56	21.651253	6.2326302	-0.042587837	0.0029133336	0.068343611	-0.027359318	0.052393194	0	935.5107357454601
12.022644	0.0027542287	0.56	21.751983	6.104819	-0.04179813	0.0030040951	0.070923611	-0.025232021	0.052885023	0	937.6102010969927
12.022644	0.0030199517	0.56	21.860484	5.9784133	-0.041029033	0.0031001266	0.073573491	-0.023094471	0.05340509	0	939.7270698295899
12.022644	0.0033113112	0.56	21.977096	5.8533871	-0.040280738	0.0032014899	0.076295631	-0.020945891	0.05395384	0	941.8624137994038
12.022644	0.0036307805	0.56	22.102233	5.7297252	-0.039553352	0.003308217	0.07909246	-0.018785465	0.054531892	0	944.017410507313
12.022644	0.0039810717	0.56	22.236371	5.607422	-0.038846891	0.0034203076	0.081966451	-0.016612336	0.055140034	0	946.1933461055339
12.022644	0.0043651583	0.56	22.380045	5.4864801	-0.038161287	0.0035377251	0.084920116	-0.014425595	0.055779208	0	948.3916061898797
12.022644	0.0047863009	0.56	22.533839	5.3669091	-0.037496384	0.003660395	0.087956008	-0.012224278	0.056450498	0	950.6136806103343
12.022644	0.0052480746	0.56	22.698381	5.2487242	-0.036851944	0.003788204	0.091076722	-0.010007364	0.057155122	0	952.8611583598179
12.022644	0.0057543994	0.56	22.874334	5.1319447	-0.03622765	0.0039209964	0.094284891	-0.0077737664	0.057894413	0	955.1357226508635
12.022644	0.0063095734	0.56	23.062389	5.0165932	-0.035623118	0.0040585849	0.097583197	-0.0055223335	0.058669812	0	957.4391454285562
12.022644	0.0069183097	0.56	23.263256	4.9026941	-0.035037898	0.0042007446	0.10097437	-0.0032518428	0.059482854	0	959.7732859048101
12.022644	0.0075857758	0.56	23.477655	4.7902724	-0.034471488	0.0043472067	0.10446119	-0.00096100492	0.060335148	0	962.1400784567686
12.022644	0.0083176377	0.56	23.706312	4.679353	-0.033923342	0.0044976792	0.10804649	0.0013515432	0.061228375	0	964.5415266887483
12.022644	0.0091201084	0.56	23.949949	4.5699596	-0.033392884	0.0046518371	0.11173317	0.0036872332	0.062164271	0	966.97969764452
12.022644	0.01	0.56	24.209277	4.4621141	-0.032879521	0.0048093481	0.11552421	0.0060475711	0.063144623	0	969.4567164329917
12.022644	0.010964782	0.56	24.484986	4.3558364	-0.032382661	0.0049698532	0.11942267	0.0084341272	0.064171253	0	971.9747493160348
12.022644	0.012022644	0.56	24.777742	4.2511438	-0.03190173	0.0051330055	0.12343172	0.010848541	0.065246024	0	974.5360035205696
12.022644	0.013182567	0.56	25.08817	4.1480514	-0.031436197	0.0052984718	0.12755464	0.013292513	0.066370829	0	977.1427037494316
12.022644	0.014454398	0.56	25.41685	4.0465725	-0.030985612	0.0054659651	0.13179487	0.015767807	0.067547603	0	979.7970827857182
12.022644	0.015848932	0.56	25.764292	3.9467202	-0.030549638	0.0056352632	0.13615602	0.018276236	0.068778325	0	982.5013566882647
12.022644	0.017378008	0.56	26.130915	3.8485085	-0.030128112	0.0058062511	0.14064193	0.020819661	0.070065037	0	985.2576990475511
12.022644	0.019054607	0.56	26.517012	3.7519565	-0.02972113	0.00597897	0.14525668	0.023399977	0.071409877	0	988.0681663842158
12.022644	0.020892961	0.56	26.922683	3.6570929	-0.029329161	0.0061536986	0.15000476	0.026019103	0.072815131	0	990.9346804852255
12.022644	0.022908677	0.56	27.347727	3.5639641	-0.028953247	0.0063310067	0.15489103	0.028678946	0.074283302	0	993.8588194445424
12.022644	0.025118864	0.56	27.791444	3.4726479	-0.028595334	0.0065119537	0.159921	0.031381382	0.075817259	0	996.841653990839
12.022644	0.027542287	0.56	28.252221	3.3832752	-0.028258906	0.0066982677	0.16510095	0.034128168	0.077420435	0	999.8832149418589
12.022644	0.030199517	0.56	28.72664	3.2960651	-0.027950311	0.0068928052	0.17043845	0.03692083	0.079097161	0	1002.9815209421922
12.022644	0.033113112	0.56	29.207276	3.2113773	-0.027681936	0.007100555	0.17594334	0.039760391	0.080853059	0	1006.130110976753
12.022644	0.036307805	0.56	29.676507	3.1297304	-0.027480935	0.0073313018	0.18163039	0.042646728	0.082694645	0	1009.3112434209502
12.022644	0.039810717	0.56	30.087027	3.0512814	-0.027416532	0.0076081735	0.18752787	0.045576796	0.084620883	0	1012.4747522499644
12.022644	0.043651583	0.56	30.316874	2.9712303	-0.027664611	0.0079885449	0.19369846	0.048539612	0.086559368	0	1015.4883624472134
12.022644	0.047863009	0.56	30.286275	2.8713775	-0.028361708	0.0085167906	0.20019198	0.051511456	0.0882535	0	1018.2500026396822
12.022644	0.052480746	0.56	30.235171	2.7485934	-0.029216551	0.0090957899	0.20691694	0.054476982	0.089647885	0	1020.9852038390284
12.022644	0.057543994	0.56	30.331296	2.6170556	-0.030005689	0.0096537727	0.21380736	0.05744417	0.09093192	0	1023.8691970500703
12.022644	0.063095734	0.56	30.604504	2.4843675	-0.030678104	0.010179645	0.22085812	0.060429398	0.092219276	0	1026.947223096063
12.022644	0.069183097	0.56	31.059009	2.3532626	-0.031216464	0.010675757	0.22807771	0.063450268	0.093562531	0	1030.2400335931527
12.022644	0.075857758	0.56	31.699939	2.2246187	-0.031603626	0.011147021	0.23547738	0.066524768	0.094990909	0	1033.7696547718394
12.022644	0.083176377	0.56	32.537453	2.0985751	-0.031817367	0.011599978	0.24307021	0.069671627	0.096524919	0	1037.5638487211718
12.022644	0.091201084	0.56	33.587702	1.9749428	-0.031829112	0.012043296	0.2508716	0.072910855	0.098182151	0	1041.6575663326043
12.022644	0.1	0.56	34.873748	1.853364	-0.031602695	0.012488436	0.25889993	0.076264372	0.099979952	0	1046.09445868482
12.022644	0.10964782	0.56	36.426777	1.7333785	-0.0310927	0.012950297	0.26717727	0.079756753	0.101937	0	1050.928809353828
12.022644	0.12022644	0.56	38.28673	1.6144788	-0.030243199	0.013447668	0.27572976	0.083416058	0.10407487	0	1056.2269200839423
12.022644	0.13182567	0.56	40.49987	1.4962765	-0.028989303	0.01400273	0.28458717	0.087274614	0.10642091	0	1062.0654220130223
12.022644	0.14454398	0.56	43.109948	1.3789916	-0.027264284	0.014637435	0.2937793	0.091369259	0.10901479	0	1068.5226899243034
12.022644	0.15848932	0.56	45.561498	1.2693488	-0.025637085	0.015351189	0.3033136	0.095726427	0.11196897	0	1075.068084555501
12.022644	0.17378008	0.56	49.249037	1.1793681	-0.022593564	0.016120852	0.31317525	0.10036775	0.1154589	0	1083.1164436240415
12.022644	0.19054607	0.56	53.725484	1.09368	-0.018530094	0.017000388	0.32342679	0.1054077	0.11940239	0	1092.3282546269638
12.022644	0.20892961	0.56	59.196601	1.0128508	-0.013152817	0.018002802	0.33409005	0.11093337	0.12389378	0	1102.9911023573788
12.022644	0.22908677	0.56	65.906021	0.93740243	-0.0061033399	0.019136984	0.34518304	0.11705394	0.12904891	0	1115.4511966340194
12.022644	0.25118864	0.56	74.122965	0.86776739	0.003032408	0.02040591	0.35671812	0.12390386	0.13500778	0	1130.104087234582
12.022644	0.27542287	0.56	84.11745	0.8042419	0.014700101	0.021805	0.36870038	0.13164427	0.14193532	0	1147.3711924258068
12.022644	0.30199517	0.56	96.123593	0.74694438	0.029336797	0.023321248	0.38112679	0.14046135	0.15001922	0	1167.6615624119909
12.022644	0.33113112	0.56	110.29764	0.69579011	0.047320368	0.024933808	0.39398679	0.15056077	0.15946408	0	1191.3246764174157
12.022644	0.36307805	0.56	126.6832	0.65049201	0.068921681	0.026616381	0.40726469	0.1621582	0.17048187	0	1218.6067762927485
12.022644	0.39810717	0.56	145.19675	0.6105914	0.09427511	0.028340985	0.42094343	0.17546735	0.18328046	0	1249.6251389608026
12.022644	0.43651583	0.56	165.63946	0.57551305	0.1233768	0.03008196	0.43500863	0.19068792	0.19805217	0	1284.3685762653035
12.022644	0.47863009	0.56	187.73048	0.54462976	0.15610854	0.031819	0.44945158	0.20799576	0.21496482	0	1322.7214384227104
12.022644	0.52480746	0.56	211.14916	0.51732061	0.19227597	0.033538517	0.46427069	0.22753687	0.23415649	0	1364.500274922611
12.022644	0.57543994	0.56	235.57371	0.49301252	0.23164788	0.035233459	0.47947125	0.24942552	0.25573409	0	1409.490632228823
12.022644	0.63095734	0.56	260.70916	0.47120288	0.273988	0.036902166	0.49506432	0.27374554	0.27977503	0	1457.4763385280548
12.022644	0.69183097	0.56	286.30312	0.4514665	0.319076	0.03854687	0.51106527	0.30055387	0.30633082	0	1508.2584664136207
12.022644	0.75857758	0.56	312.15147	0.4334525	0.36671899	0.04017229	0.52749235	0.32988505	0.3354315	0	1561.6653854830372
12.022644	0.83176377	0.56	338.09751	0.41687583	0.41675583	0.04178452	0.5443656	0.36175598	0.36709031	0	1617.5562383539882
12.022644	0.91201084	0.56	364.02735	0.40150711	0.46905719	0.043390232	0.56170609	0.39617031	0.40130798	0	1675.820597159236
12.022644	1.	0.56	389.8638	0.38716254	0.52352319	0.044996161	0.57953537	0.4331224	0.43807652	0	1736.3759567862671
12.022644	1.0964782	0.56	415.56004	0.37369497	0.58008011	0.046608807	0.59787525	0.47260058	0.47738237	0	1799.1645279528375
12.022644	1.2022644	0.56	441.09371	0.36098636	0.63867689	0.04823428	0.61674759	0.51458983	0.519209	0	1864.1498382353655
12.022644	1.3182567	0.56	466.46178	0.34894165	0.69928181	0.049878232	0.63617431	0.55907393	0.56353898	0	1931.3136179735322
12.022644	1.4454398	0.56	491.67622	0.33748392	0.76187958	0.051545857	0.65617737	0.60603713	0.61035556	0	2000.6530556119856
12.022644	1.5848932	0.56	516.76049	0.32655048	0.8264688	0.053241917	0.67677881	0.65546542	0.65964395	0	2072.178432250611
12.022644	1.7378008	0.56	541.74661	0.31608991	0.89305991	0.054970778	0.69800082	0.70734757	0.71139224	0	2145.9112323665267
12.022644	1.9054607	0.56	566.67298	0.30605966	0.96167342	0.056736465	0.7198658	0.76167578	0.76559211	0	2221.8825123528136
12.022644	2.0892961	0.56	591.58254	0.29642424	1.0323386	0.058542706	0.74239641	0.81844628	0.82223932	0	2300.1316959957303
12.022644	2.2908677	0.56	616.5214	0.28715379	1.1050921	0.06039298	0.76561569	0.87765966	0.88133407	0	2380.7053410133262
12.022644	2.5118864	0.56	641.53773	0.27822293	1.1799775	0.06229056	0.78954703	0.93932113	0.94288126	0	2463.6567004663343
12.022644	2.7542287	0.56	666.68102	0.26960991	1.2570439	0.064238548	0.81421433	1.0034407	1.0068906	0	2549.0444821560855
12.022644	3.0199517	0.56	692.00137	0.26129591	1.336346	0.066239908	0.83964194	1.0700333	1.0733768	0	2636.932892220336
12.022644	3.3113112	0.56	717.54908	0.25326446	1.4179432	0.068297501	0.86585482	1.1391187	1.1423595	0	2727.3908737095126
12.022644	3.6307805	0.56	743.37433	0.24550104	1.5018993	0.070414102	0.89287852	1.2107217	1.2138631	0	2820.4918141939725
12.022644	3.9810717	0.56	769.52689	0.23799275	1.5882823	0.072592429	0.92073922	1.2848719	1.2879173	0	2916.3133788972
12.022644	4.3651583	0.56	796.05603	0.23072796	1.677164	0.074835156	0.94946382	1.3616039	1.3645562	0	3014.937182223757
12.022644	4.7863009	0.56	823.01038	0.22369617	1.7686201	0.077144935	0.97907992	1.4409568	1.4438193	0	3116.448871192687
12.022644	5.2480746	0.56	850.4379	0.2168878	1.8627297	0.079524407	1.0096159	1.5229749	1.5257502	0	3220.937697747371
12.022644	5.7543994	0.56	878.38587	0.21029403	1.9595755	0.081976215	1.041101	1.6077067	1.6103977	0	3328.496748761121
12.022644	6.3095734	0.56	906.9009	0.2039067	2.0592437	0.084503019	1.0735651	1.6952057	1.6978149	0	3439.2227363261945
12.022644	6.9183097	0.56	936.02899	0.19771821	2.1618237	0.087107501	1.1070393	1.7855295	1.7880595	0	3553.2160210550173
12.022644	7.5857758	0.56	965.81554	0.19172146	2.2674084	0.089792375	1.1415553	1.8787407	1.8811939	0	3670.580567732699
12.022644	8.3176377	0.56	996.30548	0.18590977	2.3760939	0.0925604	1.1771458	1.9749058	1.9772847	0	3791.423873910062
12.022644	9.1201084	0.56	1027.5433	0.18027681	2.48798	0.095414378	1.2138447	2.0740961	2.0764029	0	3915.857544917641
12.022644	10.	0.56	1059.5731	0.1748166	2.6031695	0.098357172	1.2516867	2.1763871	2.178624	0	4043.996425707298