131.82567	1.e-12	0.24	2.410737e13	7.4988779e11	-1.	-4.7708125e-11	-4.7369327e-11	-2.5658003e10	7.9554971e10	0	-1.0681578792484668e-8
131.82567	1.0964782e-12	0.24	2.1986183e13	6.839058e11	-1.	-5.2310821e-11	-5.1939353e-11	-2.3400377e10	7.2554996e10	0	-1.171209993125245e-8
131.82567	1.2022644e-12	0.24	2.0051637e13	6.237295e11	-1.	-5.7357827e-11	-5.6950422e-11	-2.1341397e10	6.6170942e10	0	-1.2842074362978647e-8
131.82567	1.3182567e-12	0.24	1.8287311e13	5.6884806e11	-1.	-6.2891613e-11	-6.2445004e-11	-1.9463586e10	6.0348617e10	0	-1.4081078889362734e-8
131.82567	1.4454398e-12	0.24	1.6678225e13	5.187956e11	-1.	-6.8959249e-11	-6.8469564e-11	-1.7751001e10	5.5038593e10	0	-1.5439591167361776e-8
131.82567	1.5848932e-12	0.24	1.5210722e13	4.7314721e11	-1.	-7.56124e-11	-7.5075405e-11	-1.6189105e10	5.0195793e10	0	-1.692917980205202e-8
131.82567	1.7378008e-12	0.24	1.3872344e13	4.3151539e11	-1.	-8.2907333e-11	-8.231855e-11	-1.476464e10	4.5779107e10	0	-1.8562477738138197e-8
131.82567	1.9054607e-12	0.24	1.2651728e13	3.9354671e11	-1.	-9.0905998e-11	-9.0260345e-11	-1.3465511e10	4.1751042e10	0	-2.035331823385098e-8
131.82567	2.0892961e-12	0.24	1.1538513e13	3.5891886e11	-1.	-9.9676276e-11	-9.896843e-11	-1.2280692e10	3.8077403e10	0	-2.2316953817256115e-8
131.82567	2.2908677e-12	0.24	1.0523249e13	3.2733789e11	-1.	-1.0929307e-10	-1.0851685e-10	-1.1200124e10	3.4727004e10	0	-2.44700813162754e-8
131.82567	2.5118864e-12	0.24	9.597317e12	2.9853571e11	-1.	-1.1983732e-10	-1.1898621e-10	-1.0214635e10	3.1671404e10	0	-2.6830876810517636e-8
131.82567	2.7542287e-12	0.24	8.7528571e12	2.722678e11	-1.	-1.3139929e-10	-1.3046614e-10	-9.3158578e9	2.8884664e10	0	-2.941955147813976e-8
131.82567	3.0199517e-12	0.24	7.9827006e12	2.4831119e11	-1.	-1.4407628e-10	-1.4305311e-10	-8.4961633e9	2.6343127e10	0	-3.225785888777724e-8
131.82567	3.3113112e-12	0.24	7.2803095e12	2.2646249e11	-1.	-1.5797669e-10	-1.5685478e-10	-7.748593e9	2.4025217e10	0	-3.537007590476952e-8
131.82567	3.6307805e-12	0.24	6.6397211e12	2.0653625e11	-1.	-1.7321777e-10	-1.7198757e-10	-7.0668008e9	2.1911258e10	0	-3.8782454736647874e-8
131.82567	3.9810717e-12	0.24	6.0554976e12	1.883633e11	-1.	-1.8992936e-10	-1.8858046e-10	-6.4449989e9	1.9983305e10	0	-4.252407981673463e-8
131.82567	4.3651583e-12	0.24	5.5226795e12	1.7178937e11	-1.	-2.0825375e-10	-2.0677478e-10	-5.8779089e9	1.8224991e10	0	-4.6626820450049516e-8
131.82567	4.7863009e-12	0.24	5.0367436e12	1.5667377e11	-1.	-2.2834558e-10	-2.2672395e-10	-5.3607166e9	1.6621389e10	0	-5.11252721844318e-8
131.82567	5.2480746e-12	0.24	4.5935647e12	1.4288817e11	-1.	-2.5037594e-10	-2.4859785e-10	-4.8890317e9	1.5158887e10	0	-5.605774222667939e-8
131.82567	5.7543994e-12	0.24	4.1893808e12	1.3031556e11	-1.	-2.7453177e-10	-2.7258211e-10	-4.4588499e9	1.3825069e10	0	-6.146608934061324e-8
131.82567	6.3095734e-12	0.24	3.8207607e12	1.1884921e11	-1.	-3.010183e-10	-2.9888048e-10	-4.0665194e9	1.2608613e10	0	-6.739625827184833e-8
131.82567	6.9183097e-12	0.24	3.4845752e12	1.0839176e11	-1.	-3.3063581e-10	-3.2829181e-10	-3.7087098e9	1.1499192e10	0	-7.402838624754803e-8
131.82567	7.5857758e-12	0.24	3.1779703e12	9.8854464e10	-1.	-3.6253512e-10	-3.5996497e-10	-3.3823835e9	1.0487388e10	0	-8.117054712618946e-8
131.82567	8.3176377e-12	0.24	2.8983434e12	9.0156343e10	-1.	-3.9751193e-10	-3.9469373e-10	-3.0847704e9	9.5646112e9	0	-8.90017326168613e-8
131.82567	9.1201084e-12	0.24	2.6433206e12	8.2223562e10	-1.	-4.3586281e-10	-4.3277273e-10	-2.8133441e9	8.7230291e9	0	-9.758838276789732e-8
131.82567	1.e-11	0.24	2.410737e12	7.4988779e10	-1.	-4.7791433e-10	-4.7452611e-10	-2.5658003e9	7.9554971e9	0	-1.0700358975030922e-7
131.82567	1.0964782e-11	0.24	2.1986183e12	6.839058e10	-1.	-5.240226e-10	-5.2030756e-10	-2.3400377e9	7.2554996e9	0	-1.1732710913257105e-7
131.82567	1.2022644e-11	0.24	2.0051637e12	6.237295e10	-1.	-5.7457942e-10	-5.7050597e-10	-2.1341397e9	6.6170942e9	0	-1.2864663393123347e-7
131.82567	1.3182567e-11	0.24	1.8287311e12	5.6884806e10	-1.	-6.3001372e-10	-6.2554727e-10	-1.9463586e9	6.0348617e9	0	-1.410582095229827e-7
131.82567	1.4454398e-11	0.24	1.6678225e12	5.187956e10	-1.	-6.9079643e-10	-6.8589898e-10	-1.7751001e9	5.5038593e9	0	-1.5466725965000231e-7
131.82567	1.5848932e-11	0.24	1.5210722e12	4.7314721e10	-1.	-7.574429e-10	-7.5207294e-10	-1.6189105e9	5.0195793e9	0	-1.6958920202319096e-7
131.82567	1.7378008e-11	0.24	1.3872344e12	4.3151539e10	-1.	-8.3051964e-10	-8.2463168e-10	-1.476464e9	4.5779107e9	0	-1.8595088472966912e-7
131.82567	1.9054607e-11	0.24	1.2651728e12	3.9354671e10	-1.	-9.1064689e-10	-9.0419084e-10	-1.3465511e9	4.1751042e9	0	-2.0389113193233455e-7
131.82567	2.0892961e-11	0.24	1.1538513e12	3.5891886e10	-1.	-9.9850455e-10	-9.914256e-10	-1.2280692e9	3.8077403e9	0	-2.2356219380711036e-7
131.82567	2.2908677e-11	0.24	1.0523249e12	3.2733789e10	-1.	-1.0948383e-9	-1.0870765e-9	-1.1200124e9	3.4727004e9	0	-2.45131058927826e-7
131.82567	2.5118864e-11	0.24	9.597317e11	2.9853571e10	-1.	-1.2004662e-9	-1.1919555e-9	-1.0214635e9	3.1671404e9	0	-2.6878082077006196e-7
131.82567	2.7542287e-11	0.24	8.7528571e11	2.722678e10	-1.	-1.3162851e-9	-1.3069533e-9	-9.3158578e8	2.8884664e9	0	-2.947123283395572e-7
131.82567	3.0199517e-11	0.24	7.9827006e11	2.4831119e10	-1.	-1.4432781e-9	-1.433046e-9	-8.4961633e8	2.6343127e9	0	-3.23145687973464e-7
131.82567	3.3113112e-11	0.24	7.2803095e11	2.2646249e10	-1.	-1.582523e-9	-1.5713037e-9	-7.748593e8	2.4025217e9	0	-3.5432220260323077e-7
131.82567	3.6307805e-11	0.24	6.6397211e11	2.0653625e10	-1.	-1.7352019e-9	-1.7229001e-9	-7.0668008e8	2.1911258e9	0	-3.8850653651316836e-7
131.82567	3.9810717e-11	0.24	6.0554976e11	1.883633e10	-1.	-1.9026111e-9	-1.8891225e-9	-6.4449989e8	1.9983305e9	0	-4.2598897029729e-7
131.82567	4.3651583e-11	0.24	5.5226795e11	1.7178937e10	-1.	-2.0861715e-9	-2.0713816e-9	-5.8779089e8	1.8224991e9	0	-4.670876107170144e-7
131.82567	4.7863009e-11	0.24	5.0367436e11	1.5667377e10	-1.	-2.2874416e-9	-2.2712248e-9	-5.3607166e8	1.6621389e9	0	-5.12151389793763e-7
131.82567	5.2480746e-11	0.24	4.5935647e11	1.4288817e10	-1.	-2.5081299e-9	-2.4903485e-9	-4.8890317e8	1.5158887e9	0	-5.61562838405874e-7
131.82567	5.7543994e-11	0.24	4.1893808e11	1.3031556e10	-1.	-2.7501098e-9	-2.7306129e-9	-4.4588499e8	1.3825069e9	0	-6.157414236247235e-7
131.82567	6.3095734e-11	0.24	3.8207607e11	1.1884921e10	-1.	-3.0154353e-9	-2.9940574e-9	-4.0665194e8	1.2608613e9	0	-6.751470213482615e-7
131.82567	6.9183097e-11	0.24	3.4845752e11	1.0839176e10	-1.	-3.306359e-9	-3.2829185e-9	-3.7087098e8	1.1499192e9	0	-7.40283952673754e-7
131.82567	7.5857758e-11	0.24	3.1779703e11	9.8854464e9	-0.99999999	-3.6253507e-9	-3.5996487e-9	-3.3823835e8	1.0487388e9	0	8.583948301444686e-6
131.82567	8.3176377e-11	0.24	2.8983434e11	9.0156343e9	-0.99999999	-3.9751178e-9	-3.9469362e-9	-3.0847704e8	9.5646112e8	0	8.505636469087536e-6
131.82567	9.1201084e-11	0.24	2.6433206e11	8.2223562e9	-0.99999999	-4.35863e-9	-4.3277296e-9	-2.8133441e8	8.7230291e8	0	8.419769200891851e-6
131.82567	1.e-10	0.24	2.410737e11	7.4988779e9	-0.99999999	-4.779143e-9	-4.7452612e-9	-2.5658003e8	7.9554971e8	0	8.325617627158236e-6
131.82567	1.0964782e-10	0.24	2.1986183e11	6.839058e9	-0.99999999	-5.2402262e-9	-5.2030756e-9	-2.3400377e8	7.2554995e8	0	8.222382455885187e-6
131.82567	1.2022644e-10	0.24	2.0051637e11	6.237295e9	-0.99999999	-5.7457937e-9	-5.7050589e-9	-2.1341397e8	6.6170942e8	0	8.10918738829511e-6
131.82567	1.3182567e-10	0.24	1.8287311e11	5.6884806e9	-0.99999999	-6.3001377e-9	-6.2554728e-9	-1.9463586e8	6.0348617e8	0	7.985071429431503e-6
131.82567	1.4454398e-10	0.24	1.6678225e11	5.187956e9	-0.99999999	-6.9079635e-9	-6.8589894e-9	-1.7751001e8	5.5038592e8	0	7.848981040909147e-6
131.82567	1.5848932e-10	0.24	1.5210722e11	4.7314721e9	-0.99999999	-7.5744315e-9	-7.5207326e-9	-1.6189105e8	5.0195793e8	0	7.699760805392798e-6
131.82567	1.7378008e-10	0.24	1.3872344e11	4.3151539e9	-0.99999999	-8.305199e-9	-8.2463193e-9	-1.476464e8	4.5779107e8	0	7.536144136174996e-6
131.82567	1.9054607e-10	0.24	1.2651728e11	3.9354671e9	-0.99999999	-9.1064697e-9	-9.0419094e-9	-1.3465511e8	4.1751042e8	0	7.356742002391868e-6
131.82567	2.0892961e-10	0.24	1.1538513e11	3.5891886e9	-0.99999999	-9.9850456e-9	-9.9142566e-9	-1.2280692e8	3.8077403e8	0	7.160031473842383e-6
131.82567	2.2908677e-10	0.24	1.0523249e11	3.2733789e9	-0.99999998	-1.0948385e-8	-1.0870767e-8	-1.1200125e8	3.4727004e8	0	0.000016339995949839456
131.82567	2.5118864e-10	0.24	9.597317e10	2.9853571e9	-0.99999998	-1.2004665e-8	-1.1919558e-8	-1.0214635e8	3.1671404e8	0	0.000016103498105921413
131.82567	2.7542287e-10	0.24	8.7528571e10	2.722678e9	-0.99999998	-1.3162854e-8	-1.3069536e-8	-9.3158579e7	2.8884664e8	0	0.000015844183030226462
131.82567	3.0199517e-10	0.24	7.9827006e10	2.4831119e9	-0.99999998	-1.4432783e-8	-1.4330462e-8	-8.4961634e7	2.6343127e8	0	0.000015559849659383078
131.82567	3.3113112e-10	0.24	7.2803095e10	2.2646249e9	-0.99999998	-1.5825232e-8	-1.5713039e-8	-7.7485931e7	2.4025217e8	0	0.00001524808451308541
131.82567	3.6307805e-10	0.24	6.6397211e10	2.0653625e9	-0.99999997	-1.7352022e-8	-1.7229005e-8	-7.0668009e7	2.1911258e8	0	0.000024301894270205562
131.82567	3.9810717e-10	0.24	6.0554976e10	1.883633e9	-0.99999997	-1.9026115e-8	-1.8891229e-8	-6.444999e7	1.9983305e8	0	0.000023927069932364346
131.82567	4.3651583e-10	0.24	5.5226795e10	1.7178937e9	-0.99999997	-2.086172e-8	-2.0713821e-8	-5.877909e7	1.8224991e8	0	0.000023516083302671418
131.82567	4.7863009e-10	0.24	5.0367436e10	1.5667377e9	-0.99999997	-2.2874422e-8	-2.2712254e-8	-5.3607167e7	1.6621389e8	0	0.000023065445286408244
131.82567	5.2480746e-10	0.24	4.5935647e10	1.4288817e9	-0.99999996	-2.5081306e-8	-2.4903492e-8	-4.8890318e7	1.5158887e8	0	0.00003196698401768964
131.82567	5.7543994e-10	0.24	4.1893808e10	1.3031556e9	-0.99999996	-2.7501106e-8	-2.7306137e-8	-4.45885e7	1.3825069e8	0	0.00003142519794000546
131.82567	6.3095734e-10	0.24	3.8207607e10	1.1884921e9	-0.99999996	-3.0154364e-8	-2.9940585e-8	-4.0665195e7	1.2608613e8	0	0.00003083114128628303
131.82567	6.9183097e-10	0.24	3.4845752e10	1.0839176e9	-0.99999995	-3.3063604e-8	-3.28292e-8	-3.7087099e7	1.1499192e8	0	0.000039575424618256266
131.82567	7.5857758e-10	0.24	3.1779703e10	9.8854464e8	-0.99999995	-3.6253522e-8	-3.5996503e-8	-3.3823836e7	1.0487388e8	0	0.00003886121146183602
131.82567	8.3176377e-10	0.24	2.8983434e10	9.0156343e8	-0.99999994	-3.9751199e-8	-3.9469383e-8	-3.0847705e7	9.5646111e7	0	0.000047473745453684286
131.82567	9.1201084e-10	0.24	2.6433206e10	8.2223562e8	-0.99999994	-4.3586325e-8	-4.3277319e-8	-2.8133442e7	8.723029e7	0	0.00004661507232073606
131.82567	1.e-9	0.24	2.410737e10	7.4988779e8	-0.99999993	-4.7791457e-8	-4.745264e-8	-2.5658004e7	7.955497e7	0	0.0000550692090031324
131.82567	1.0964782e-9	0.24	2.1986183e10	6.839058e8	-0.99999992	-5.2402294e-8	-5.2030788e-8	-2.3400378e7	7.2554995e7	0	0.00006343250983131735
131.82567	1.2022644e-9	0.24	2.0051637e10	6.237295e8	-0.99999991	-5.7457977e-8	-5.7050629e-8	-2.1341398e7	6.6170941e7	0	0.000071696210898662
131.82567	1.3182567e-9	0.24	1.8287311e10	5.6884806e8	-0.99999991	-6.3001423e-8	-6.2554775e-8	-1.9463587e7	6.0348616e7	0	0.00007045504973155614
131.82567	1.4454398e-9	0.24	1.6678225e10	5.187956e8	-0.9999999	-6.9079693e-8	-6.8589952e-8	-1.7751002e7	5.5038592e7	0	0.00007848979680877826
131.82567	1.5848932e-9	0.24	1.5210722e10	4.7314721e8	-0.99999989	-7.5744383e-8	-7.5207394e-8	-1.6189106e7	5.0195792e7	0	0.00008639324574586883
131.82567	1.7378008e-9	0.24	1.3872344e10	4.3151539e8	-0.99999988	-8.3052073e-8	-8.2463276e-8	-1.4764641e7	4.5779106e7	0	0.00009415272921846644
131.82567	1.9054607e-9	0.24	1.2651728e10	3.9354671e8	-0.99999986	-9.1064797e-8	-9.0419193e-8	-1.3465512e7	4.1751041e7	0	0.0001111500112628133
131.82567	2.0892961e-9	0.24	1.1538513e10	3.5891886e8	-0.99999985	-9.9850429e-8	-9.9142539e-8	-1.2280693e7	3.8077402e7	0	0.0001185785878326728
131.82567	2.2908677e-9	0.24	1.0523249e10	3.2733789e8	-0.99999984	-1.0948382e-7	-1.0870763e-7	-1.1200125e7	3.4727003e7	0	0.00012581735464231648
131.82567	2.5118864e-9	0.24	9.597317e9	2.9853571e8	-0.99999982	-1.2004662e-7	-1.1919555e-7	-1.0214636e7	3.1671403e7	0	0.00014224368093828827
131.82567	2.7542287e-9	0.24	8.7528571e9	2.722678e8	-0.9999998	-1.316285e-7	-1.3069531e-7	-9.3158588e6	2.8884663e7	0	0.0001584418416813615
131.82567	3.0199517e-9	0.24	7.9827006e9	2.4831119e8	-0.99999978	-1.4432777e-7	-1.4330456e-7	-8.4961643e6	2.6343126e7	0	0.0001743898172179936
131.82567	3.3113112e-9	0.24	7.2803095e9	2.2646249e8	-0.99999976	-1.5825225e-7	-1.5713032e-7	-7.748594e6	2.4025216e7	0	0.00019006347500008283
131.82567	3.6307805e-9	0.24	6.6397211e9	2.0653625e8	-0.99999974	-1.7352014e-7	-1.7228997e-7	-7.0668018e6	2.1911257e7	0	0.00020543634634424135
131.82567	3.9810717e-9	0.24	6.0554976e9	1.883633e8	-0.99999972	-1.9026105e-7	-1.8891219e-7	-6.4449999e6	1.9983304e7	0	0.00022047941446585198
131.82567	4.3651583e-9	0.24	5.5226795e9	1.7178937e8	-0.99999969	-2.0861708e-7	-2.0713809e-7	-5.8779099e6	1.822499e7	0	0.0002445565132161563
131.82567	4.7863009e-9	0.24	5.0367436e9	1.5667377e8	-0.99999966	-2.2874408e-7	-2.2712239e-7	-5.3607176e6	1.6621388e7	0	0.00026823710035571506
131.82567	5.2480746e-9	0.24	4.5935647e9	1.4288817e8	-0.99999963	-2.5081288e-7	-2.4903474e-7	-4.8890327e6	1.5158886e7	0	0.000291482920437425
131.82567	5.7543994e-9	0.24	4.1893808e9	1.3031556e8	-0.99999959	-2.7501085e-7	-2.7306116e-7	-4.4588509e6	1.3825068e7	0	0.00032364768040567184
131.82567	6.3095734e-9	0.24	3.8207607e9	1.1884921e8	-0.99999955	-3.0154339e-7	-2.9940559e-7	-4.0665204e6	1.2608612e7	0	0.0003552897392277626
131.82567	6.9183097e-9	0.24	3.4845752e9	1.0839176e8	-0.99999951	-3.3063589e-7	-3.2829185e-7	-3.7087108e6	1.1499191e7	0	0.00038635862625107894
131.82567	7.5857758e-9	0.24	3.1779703e9	9.8854464e7	-0.99999946	-3.6253483e-7	-3.5996463e-7	-3.3823845e6	1.0487387e7	0	0.0004261948185882265
131.82567	8.3176377e-9	0.24	2.8983434e9	9.0156343e7	-0.99999941	-3.9751103e-7	-3.9469287e-7	-3.0847714e6	9.5646102e6	0	0.0004653420177784267
131.82567	9.1201084e-9	0.24	2.6433206e9	8.2223562e7	-0.99999935	-4.3586311e-7	-4.3277306e-7	-2.8133451e6	8.7230281e6	0	0.0005131290203621667
131.82567	1.e-8	0.24	2.410737e9	7.4988779e7	-0.99999929	-4.7791358e-7	-4.745254e-7	-2.5658013e6	7.9554961e6	0	0.0005600879688655934
131.82567	1.0964782e-8	0.24	2.1986183e9	6.839058e7	-0.99999922	-5.2402253e-7	-5.2030747e-7	-2.3400387e6	7.2554986e6	0	0.0006155338841935458
131.82567	1.2022644e-8	0.24	2.0051637e9	6.237295e7	-0.99999914	-5.7457926e-7	-5.7050578e-7	-2.1341407e6	6.6170932e6	0	0.000679379609904888
131.82567	1.3182567e-8	0.24	1.8287311e9	5.6884806e7	-0.99999906	-6.3001377e-7	-6.2554728e-7	-1.9463596e6	6.0348607e6	0	0.0007421332171744383
131.82567	1.4454398e-8	0.24	1.6678225e9	5.187956e7	-0.99999897	-6.907965e-7	-6.8589909e-7	-1.7751011e6	5.5038583e6	0	0.0008130850260054976
131.82567	1.5848932e-8	0.24	1.5210722e9	4.7314721e7	-0.99999887	-7.5744307e-7	-7.5207318e-7	-1.6189115e6	5.0195783e6	0	0.000892119589372728
131.82567	1.7378008e-8	0.24	1.3872344e9	4.3151539e7	-0.99999876	-8.3051982e-7	-8.2463184e-7	-1.476465e6	4.5779097e6	0	0.000979110113203661
131.82567	1.9054607e-8	0.24	1.2651728e9	3.9354671e7	-0.99999864	-9.1064682e-7	-9.0419079e-7	-1.3465521e6	4.1751032e6	0	0.0010739177552957437
131.82567	2.0892961e-8	0.24	1.1538513e9	3.5891886e7	-0.99999851	-9.9850447e-7	-9.9142557e-7	-1.2280702e6	3.8077393e6	0	0.0011763901845032324
131.82567	2.2908677e-8	0.24	1.0523249e9	3.2733789e7	-0.99999837	-1.0948384e-6	-1.0870765e-6	-1.1200134e6	3.4726994e6	0	0.0012863604615484098
131.82567	2.5118864e-8	0.24	9.597317e8	2.9853571e7	-0.99999821	-1.2004662e-6	-1.1919555e-6	-1.0214645e6	3.1671394e6	0	0.0014130411557313593
131.82567	2.7542287e-8	0.24	8.7528571e8	2.722678e7	-0.99999804	-1.3162852e-6	-1.3069534e-6	-931586.78	2.8884654e6	0	0.001546835735080379
131.82567	3.0199517e-8	0.24	7.9827006e8	2.4831119e7	-0.99999785	-1.4432781e-6	-1.433046e-6	-849617.33	2.6343117e6	0	0.001696919814558546
131.82567	3.3113112e-8	0.24	7.2803095e8	2.2646249e7	-0.99999764	-1.582523e-6	-1.5713037e-6	-774860.3	2.4025207e6	0	0.0018630520233770813
131.82567	3.6307805e-8	0.24	6.6397211e8	2.0653625e7	-0.99999741	-1.7352018e-6	-1.7229001e-6	-706681.08	2.1911248e6	0	0.002044967720009867
131.82567	3.9810717e-8	0.24	6.0554976e8	1.883633e7	-0.99999716	-1.902611e-6	-1.8891224e-6	-644500.89	1.9983295e6	0	0.0022423766462038334
131.82567	4.3651583e-8	0.24	5.5226795e8	1.7178937e7	-0.99999689	-2.0861715e-6	-2.0713816e-6	-587791.89	1.8224981e6	0	0.0024549606277574827
131.82567	4.7863009e-8	0.24	5.0367436e8	1.5667377e7	-0.99999659	-2.2874415e-6	-2.2712247e-6	-536072.66	1.6621379e6	0	0.002691766476290564
131.82567	5.2480746e-8	0.24	4.5935647e8	1.4288817e7	-0.99999626	-2.5081297e-6	-2.4903484e-6	-488904.17	1.5158877e6	0	0.002952411593171722
131.82567	5.7543994e-8	0.24	4.1893808e8	1.3031556e7	-0.9999959	-2.7501096e-6	-2.7306127e-6	-445885.99	1.3825059e6	0	0.003236476556428717
131.82567	6.3095734e-8	0.24	3.8207607e8	1.1884921e7	-0.99999551	-3.0154352e-6	-2.9940573e-6	-406652.94	1.2608603e6	0	0.00354350142272352
131.82567	6.9183097e-8	0.24	3.4845752e8	1.0839176e7	-0.99999507	-3.306359e-6	-3.2829185e-6	-370871.98	1.1499182e6	0	0.0038917732228394837
131.82567	7.5857758e-8	0.24	3.1779703e8	9.8854464e6	-0.9999946	-3.6253505e-6	-3.5996486e-6	-338239.35	1.0487378e6	0	0.004261947666824941
131.82567	8.3176377e-8	0.24	2.8983434e8	9.0156343e6	-0.99999408	-3.9751178e-6	-3.9469362e-6	-308478.04	956460.12	0	0.004672209793869684
131.82567	9.1201084e-8	0.24	2.6433206e8	8.2223562e6	-0.99999351	-4.35863e-6	-4.3277294e-6	-281335.41	872301.91	0	0.005121894820252026
131.82567	1.e-7	0.24	2.410737e8	7.4988779e6	-0.99999288	-4.7791427e-6	-4.745261e-6	-256581.03	795548.71	0	0.005619669417071942
131.82567	1.0964782e-7	0.24	2.1986183e8	6.839058e6	-0.99999219	-5.2402258e-6	-5.2030752e-6	-234004.77	725548.95	0	0.006164734382421887
131.82567	1.2022644e-7	0.24	2.0051637e8	6.237295e6	-0.99999144	-5.7457933e-6	-5.7050585e-6	-213414.97	661708.42	0	0.006756213327325995
131.82567	1.3182567e-7	0.24	1.8287311e8	5.6884806e6	-0.99999061	-6.3001371e-6	-6.2554722e-6	-194636.86	603485.17	0	0.007411936654016147
131.82567	1.4454398e-7	0.24	1.6678225e8	5.187956e6	-0.99998971	-6.9079629e-6	-6.8589889e-6	-177511.01	550384.93	0	0.008121455057916383
131.82567	1.5848932e-7	0.24	1.5210722e8	4.7314721e6	-0.99998871	-7.5744307e-6	-7.5207318e-6	-161892.05	501956.93	0	0.008911800240075757
131.82567	1.7378008e-7	0.24	1.3872344e8	4.3151539e6	-0.99998762	-8.3051982e-6	-8.2463184e-6	-147647.4	457790.07	0	0.009772309824942187
131.82567	1.9054607e-7	0.24	1.2651728e8	3.9354671e6	-0.99998643	-9.1064687e-6	-9.0419083e-6	-134656.11	417509.42	0	0.010710990502743406
131.82567	2.0892961e-7	0.24	1.1538513e8	3.5891886e6	-0.99998512	-9.9850444e-6	-9.9142553e-6	-122807.92	380773.03	0	0.011745110627823236
131.82567	2.2908677e-7	0.24	1.0523249e8	3.2733789e6	-0.99998369	-0.000010948383	-0.000010870765	-112002.24	347269.04	0	0.012873000269239935
131.82567	2.5118864e-7	0.24	9.597317e7	2.9853571e6	-0.99998211	-0.000012004664	-0.000011919557	-102147.35	316713.04	0	0.01412101545277501
131.82567	2.7542287e-7	0.24	8.7528571e7	2.722678e6	-0.99998039	-0.000013162852	-0.000013069534	-93159.578	288845.64	0	0.015477753004559626
131.82567	3.0199517e-7	0.24	7.9827006e7	2.4831119e6	-0.99997849	-0.00001443278	-0.000014330459	-84962.633	263430.27	0	0.016978594024211105
131.82567	3.3113112e-7	0.24	7.2803095e7	2.2646249e6	-0.99997642	-0.000015825229	-0.000015713036	-77486.93	240251.17	0	0.01861172915248501
131.82567	3.6307805e-7	0.24	6.6397211e7	2.0653625e6	-0.99997414	-0.000017352019	-0.000017229001	-70669.008	219111.58	0	0.02041209458590983
131.82567	3.9810717e-7	0.24	6.0554976e7	1.883633e6	-0.99997165	-0.00001902611	-0.000018891224	-64450.989	199832.05	0	0.022376788195032474
131.82567	4.3651583e-7	0.24	5.5226795e7	1.7178937e6	-0.99996891	-0.000020861715	-0.000020713816	-58780.089	182248.91	0	0.02454021062434055
131.82567	4.7863009e-7	0.24	5.0367436e7	1.5667377e6	-0.99996591	-0.000022874415	-0.000022712247	-53608.166	166212.89	0	0.02690826910904549
131.82567	5.2480746e-7	0.24	4.5935647e7	1.4288817e6	-0.99996263	-0.000025081297	-0.000024903483	-48891.317	151587.87	0	0.029495929196466958
131.82567	5.7543994e-7	0.24	4.1893808e7	1.3031556e6	-0.99995902	-0.000027501095	-0.000027306126	-44589.499	138249.69	0	0.03234597448321
131.82567	6.3095734e-7	0.24	3.8207607e7	1.1884921e6	-0.99995507	-0.000030154351	-0.000029940572	-40666.194	126085.13	0	0.03546320141305957
131.82567	6.9183097e-7	0.24	3.4845752e7	1.0839176e6	-0.99995073	-0.000033063588	-0.000032829184	-37088.098	114990.92	0	0.0388895454932489
131.82567	7.5857758e-7	0.24	3.1779703e7	988544.64	-0.99994598	-0.000036253504	-0.000035996484	-33824.835	104872.88	0	0.042638268425813634
131.82567	8.3176377e-7	0.24	2.8983434e7	901563.43	-0.99994077	-0.000039751176	-0.00003946936	-30848.704	95645.112	0	0.04675028535022553
131.82567	9.1201084e-7	0.24	2.6433206e7	822235.62	-0.99993505	-0.000043586297	-0.000043277292	-28134.441	87229.291	0	0.05126592692124768
131.82567	1.e-6	0.24	2.410737e7	749887.8	-0.99992878	-0.000047791424	-0.000047452607	-25659.003	79553.971	0	0.056215486153987956
131.82567	1.0964782e-6	0.24	2.1986183e7	683905.8	-0.99992191	-0.000052402254	-0.000052030748	-23401.377	72553.996	0	0.06163794907223715
131.82567	1.2022644e-6	0.24	2.0051637e7	623729.5	-0.99991438	-0.000057457928	-0.00005705058	-21342.397	66169.943	0	0.06758092570731124
131.82567	1.3182567e-6	0.24	1.8287311e7	568848.07	-0.99990612	-0.000063001364	-0.000062554716	-19464.586	60347.617	0	0.07410057658614547
131.82567	1.4454398e-6	0.24	1.6678225e7	518795.6	-0.99989706	-0.000069079621	-0.000068589881	-17752.001	55037.593	0	0.08125213499742247
131.82567	1.5848932e-6	0.24	1.5210722e7	473147.21	-0.99988713	-0.000075744296	-0.000075207307	-16190.105	50194.793	0	0.0890898179207771
131.82567	1.7378008e-6	0.24	1.3872344e7	431515.39	-0.99987624	-0.000083051967	-0.00008246317	-14765.64	45778.108	0	0.09768551879206831
131.82567	1.9054607e-6	0.24	1.2651728e7	393546.71	-0.9998643	-0.000091064668	-0.000090419064	-13466.511	41750.043	0	0.10710990931164344
131.82567	2.0892961e-6	0.24	1.1538513e7	358918.87	-0.99985121	-0.000099850418	-0.000099142528	-12281.692	38076.403	0	0.11744171626166
131.82567	2.2908677e-6	0.24	1.0523249e7	327337.9	-0.99983686	-0.0001094838	-0.00010870761	-11201.124	34726.005	0	0.12876759432599827
131.82567	2.5118864e-6	0.24	9.5973171e6	298535.71	-0.99982112	-0.00012004659	-0.00011919552	-10215.635	31670.405	0	0.14119137449585714
131.82567	2.7542287e-6	0.24	8.7528572e6	272267.81	-0.99980386	-0.00013162846	-0.00013069528	-9316.8577	28883.665	0	0.1548151261898391
131.82567	3.0199517e-6	0.24	7.9827007e6	248311.19	-0.99978493	-0.00014432773	-0.00014330451	-8497.1632	26342.127	0	0.16975777132175002
131.82567	3.3113112e-6	0.24	7.2803095e6	226462.5	-0.99976419	-0.00015825219	-0.00015713026	-7749.5929	24024.218	0	0.18612670972765277
131.82567	3.6307805e-6	0.24	6.6397212e6	206536.25	-0.99974143	-0.00017352005	-0.00017228988	-7067.8007	21910.259	0	0.20409278821258262
131.82567	3.9810717e-6	0.24	6.0554978e6	188363.3	-0.99971649	-0.00019026092	-0.00018891206	-6445.9988	19982.306	0	0.22377731819299074
131.82567	4.3651583e-6	0.24	5.5226796e6	171789.38	-0.99968914	-0.00020861691	-0.00020713792	-5878.9087	18223.992	0	0.24536457774828518
131.82567	4.7863009e-6	0.24	5.0367437e6	156673.77	-0.99965914	-0.00022874384	-0.00022712216	-5361.7165	16620.391	0	0.26904517838024106
131.82567	5.2480746e-6	0.24	4.5935649e6	142888.18	-0.99962626	-0.00025081257	-0.00024903443	-4890.0315	15157.889	0	0.29499696477661047
131.82567	5.7543994e-6	0.24	4.189381e6	130315.57	-0.9995902	-0.00027501042	-0.00027306073	-4459.8497	13824.071	0	0.3234598643451254
131.82567	6.3095734e-6	0.24	3.8207609e6	118849.22	-0.99955066	-0.00030154281	-0.00029940502	-4067.5192	12607.615	0	0.35466975459103317
131.82567	6.9183097e-6	0.24	3.4845754e6	108391.78	-0.99950731	-0.00033063496	-0.00032829092	-3709.7096	11498.194	0	0.3888862667350753
131.82567	7.5857758e-6	0.24	3.1779706e6	98854.477	-0.99945978	-0.00036253382	-0.00035996363	-3383.3833	10486.39	0	0.42640174841500844
131.82567	8.3176377e-6	0.24	2.8983436e6	90156.357	-0.99940766	-0.00039751016	-0.000394692	-3085.7702	9563.6134	0	0.4675407969096429
131.82567	9.1201084e-6	0.24	2.6433209e6	82223.577	-0.99935051	-0.00043586087	-0.00043277081	-2814.3438	8722.0315	0	0.5126503493553445
131.82567	0.00001	0.24	2.4107373e6	74988.796	-0.99928785	-0.00047791146	-0.00047452329	-2566.8	7954.4997	0	0.5621085101500407
131.82567	0.000010964782	0.24	2.1986186e6	68390.598	-0.99921915	-0.00052401888	-0.00052030382	-2341.0373	7254.5025	0	0.6163333377688389
131.82567	0.000012022644	0.24	2.0051641e6	62372.97	-0.99914381	-0.00057457445	-0.00057050097	-2135.1394	6616.0974	0	0.6758009505637188
131.82567	0.000013182567	0.24	1.8287314e6	56884.829	-0.99906121	-0.00063000728	-0.00062554079	-1947.3582	6033.8652	0	0.7409978066155187
131.82567	0.000014454398	0.24	1.6678229e6	51879.584	-0.99897064	-0.00069078782	-0.00068589041	-1776.0997	5502.8631	0	0.8124856615239899
131.82567	0.000015848932	0.24	1.5210727e6	47314.748	-0.99887133	-0.0007574319	-0.000752062	-1619.9101	5018.5835	0	0.8908724884841425
131.82567	0.000017378008	0.24	1.3872349e6	43151.568	-0.99876244	-0.00083050508	-0.00082461711	-1477.4634	4576.9154	0	0.9768208952884193
131.82567	0.000019054607	0.24	1.2651733e6	39354.703	-0.99864305	-0.00091062745	-0.00090417142	-1347.5506	4174.1093	0	1.0710564488763707
131.82567	0.000020892961	0.24	1.1538519e6	35891.922	-0.99851213	-0.00099847884	-0.00099139994	-1229.0686	3806.7459	0	1.1743946897165911
131.82567	0.000022908677	0.24	1.0523255e6	32733.828	-0.99836859	-0.0010948046	-0.0010870427	-1121.0118	3471.7065	0	1.287692870469793
131.82567	0.000025118864	0.24	959732.41	29853.613	-0.99821121	-0.0012004219	-0.0011919112	-1022.4627	3166.1471	0	1.4119142711152248
131.82567	0.000027542287	0.24	875286.49	27226.827	-0.99803864	-0.0013162266	-0.0013068947	-932.58495	2887.4737	0	1.548126780583547
131.82567	0.000030199517	0.24	798270.91	24831.169	-0.99784942	-0.0014432007	-0.0014329686	-850.61542	2633.3207	0	1.6974822157954899
131.82567	0.000033113112	0.24	728031.88	22646.305	-0.99764196	-0.001582421	-0.0015712017	-775.85831	2401.5305	0	1.86123347587049
131.82567	0.000036307805	0.24	663973.13	20653.686	-0.99741448	-0.0017350675	-0.0017227658	-707.67899	2190.1355	0	2.0407887512892
131.82567	0.000039810717	0.24	605550.88	18836.397	-0.99716507	-0.0019024339	-0.0018889453	-645.4987	1997.3411	0	2.2376529852134275
131.82567	0.000043651583	0.24	552269.18	17179.01	-0.9968916	-0.002085938	-0.0020711481	-588.78958	1821.5107	0	2.45350997646521
131.82567	0.000047863009	0.24	503675.7	15667.457	-0.99659176	-0.0022871338	-0.002270917	-537.07023	1661.1517	0	2.6901822262617263
131.82567	0.000052480746	0.24	459357.95	14288.906	-0.99626301	-0.0025077241	-0.0024899427	-489.9016	1514.9027	0	2.9496749850392407
131.82567	0.000057543994	0.24	418939.7	13031.653	-0.99590257	-0.0027495749	-0.0027300779	-446.88327	1381.5223	0	3.2341824686166767
131.82567	0.000063095734	0.24	382077.84	11885.027	-0.99550738	-0.0030147303	-0.0029933524	-407.65005	1259.8781	0	3.5461220358259085
131.82567	0.000069183097	0.24	348459.46	10839.293	-0.99507411	-0.0033054299	-0.0032819894	-371.86891	1148.9376	0	3.888121117277739
131.82567	0.000075857758	0.24	317799.17	9885.5741	-0.99459908	-0.0036241259	-0.0035984239	-339.23608	1047.7589	0	4.263088231469581
131.82567	0.000083176377	0.24	289836.68	9015.7742	-0.9940783	-0.0039735036	-0.003945322	-309.47456	955.48325	0	4.67417105010478
131.82567	0.000091201084	0.24	264334.62	8222.5096	-0.99350736	-0.0043565024	-0.0043256019	-282.33168	871.32717	0	5.124855014871847
131.82567	0.0001	0.24	241076.51	7499.0462	-0.99288146	-0.0047763386	-0.0047424569	-257.57704	794.57631	0	5.618929964082986
131.82567	0.00010964782	0.24	219864.91	6839.2425	-0.99219533	-0.0052365302	-0.0051993796	-235.00049	724.57912	0	6.1605598409068145
131.82567	0.00012022644	0.24	200519.75	6237.4973	-0.99144322	-0.0057409229	-0.0057001881	-214.41038	660.7414	0	6.754286181034878
131.82567	0.00013182567	0.24	182876.81	5688.7024	-0.99061881	-0.0062937189	-0.006249054	-195.63191	602.52122	0	7.4051063596836
131.82567	0.00014454398	0.24	166786.31	5188.1991	-0.98971523	-0.0068995055	-0.0068505315	-178.50569	549.42435	0	8.118448238363504
131.82567	0.00015848932	0.24	152111.67	4731.7386	-0.98872495	-0.0075632872	-0.0075095883	-162.88631	501.00005	0	8.90026654925056
131.82567	0.00017378008	0.24	138728.31	4315.4459	-0.98763976	-0.0082905169	-0.0082316371	-148.6412	456.83725	0	9.757054583379745
131.82567	0.00019054607	0.24	126522.62	3935.7872	-0.98645069	-0.0090871288	-0.0090225684	-135.64942	416.56103	0	10.695911959613749
131.82567	0.00020892961	0.24	115390.99	3589.5395	-0.98514798	-0.0099595712	-0.0098887822	-123.80068	379.8295	0	11.724565663390942
131.82567	0.00022908677	0.24	105238.91	3273.7634	-0.98372102	-0.010914838	-0.010837219	-112.9944	346.33083	0	12.851419430280254
131.82567	0.00025118864	0.24	95980.204	2985.7784	-0.98215825	-0.011960496	-0.011875389	-103.13884	315.78066	0	14.085641118041414
131.82567	0.00027542287	0.24	87536.279	2723.1396	-0.98044717	-0.013104714	-0.013011396	-94.150351	287.91963	0	15.437147921625602
131.82567	0.00030199517	0.24	79835.449	2483.6175	-0.97857423	-0.014356275	-0.014253954	-85.952615	262.51122	0	16.916705982134975
131.82567	0.00033113112	0.24	72812.343	2265.1787	-0.97652482	-0.01572459	-0.015612397	-78.476045	239.33975	0	18.53593757261849
131.82567	0.00036307805	0.24	66407.34	2065.9688	-0.97428322	-0.017219688	-0.017096671	-71.657174	218.20849	0	20.30736988030503
131.82567	0.00039810717	0.24	60566.066	1884.2967	-0.97183258	-0.018852195	-0.018717309	-65.438116	198.93805	0	22.244459435302694
131.82567	0.00043651583	0.24	55238.932	1718.6201	-0.96915495	-0.020633285	-0.020485385	-59.766078	181.36484	0	24.361574296439194
131.82567	0.00047863009	0.24	50380.716	1567.5323	-0.96623128	-0.022574595	-0.022412426	-54.592911	165.33963	0	26.67401389488259
131.82567	0.00052480746	0.24	45950.171	1429.7506	-0.96304153	-0.024688106	-0.024510292	-49.874699	150.72639	0	29.197932741434737
131.82567	0.00057543994	0.24	41909.686	1304.1051	-0.95956478	-0.02698597	-0.026791001	-45.571392	137.40102	0	31.95027653608731
131.82567	0.00063095734	0.24	38224.954	1189.5291	-0.95577939	-0.02948027	-0.029266491	-41.64646	125.25036	0	34.94868550553865
131.82567	0.00069183097	0.24	34864.691	1085.0494	-0.95166331	-0.03218272	-0.031948315	-38.066586	114.17121	0	38.211271914119
131.82567	0.00075857758	0.24	31800.365	989.77865	-0.94719437	-0.03510427	-0.034847251	-34.801384	104.06947	0	41.75643553315585
131.82567	0.00083176377	0.24	29005.954	902.90763	-0.94235075	-0.038254639	-0.037972823	-31.823137	94.859278	0	45.60253005769155
131.82567	0.00091201084	0.24	26457.726	823.69816	-0.9371115	-0.041641747	-0.041332742	-29.106569	86.462364	0	49.76750058458949
131.82567	0.001	0.24	24134.035	751.47695	-0.93145712	-0.045271081	-0.044932263	-26.628624	78.807317	0	54.26848365835507
131.82567	0.0010964782	0.24	22015.14	685.6299	-0.9253703	-0.049144988	-0.048773482	-24.368273	71.829	0	59.12127051624333
131.82567	0.0012022644	0.24	20083.035	625.59678	-0.91883662	-0.053261958	-0.052854611	-22.306336	65.467992	0	64.33981287688407
131.82567	0.0013182567	0.24	18321.294	570.86648	-0.91184528	-0.057615924	-0.057169276	-20.425321	59.670075	0	69.93569535554724
131.82567	0.0014454398	0.24	16714.937	520.9727	-0.90438976	-0.062195645	-0.061705905	-18.709273	54.385778	0	75.91765335436995
131.82567	0.0015848932	0.24	15250.295	475.48991	-0.8964684	-0.066984261	-0.066447272	-17.143639	49.569951	0	82.2911309404859
131.82567	0.0017378008	0.24	13914.902	434.02981	-0.88808474	-0.071959068	-0.071370272	-15.715149	45.181384	0	89.05801213033492
131.82567	0.0019054607	0.24	12697.383	396.23801	-0.87924762	-0.077091599	-0.076445997	-14.411698	41.182459	0	96.21650979545605
131.82567	0.0020892961	0.24	11587.361	361.79107	-0.86997105	-0.082348033	-0.081640144	-13.222247	37.538832	0	103.76119580374402
131.82567	0.0022908677	0.24	10575.37	330.39379	-0.86027373	-0.087689956	-0.086913772	-12.136731	34.219154	0	111.68328131058449
131.82567	0.0025118864	0.24	9652.7722	301.77674	-0.85017841	-0.093075441	-0.092224373	-11.145969	31.194803	0	119.9709765748003
131.82567	0.0027542287	0.24	8811.6886	275.69408	-0.83971097	-0.098460388	-0.097527212	-10.241591	28.439655	0	128.61005319455754
131.82567	0.0030199517	0.24	8044.9314	251.92145	-0.82889943	-0.10380004	-0.10277684	-9.4159627	25.929866	0	137.58443310209094
131.82567	0.0033113112	0.24	7345.9441	230.25418	-0.81777295	-0.10905058	-0.10792866	-8.6621252	23.643678	0	146.876775002814
131.82567	0.0036307805	0.24	6708.7466	210.50557	-0.80636086	-0.11417069	-0.11294053	-7.9737327	21.561242	0	156.4690242841265
131.82567	0.0039810717	0.24	6127.8844	192.50533	-0.7946918	-0.11912299	-0.11777415	-7.3449993	19.664453	0	166.3429082791014
131.82567	0.0043651583	0.24	5598.3834	176.09819	-0.78279303	-0.12387529	-0.12239631	-6.7706504	17.936798	0	176.48030314796347
131.82567	0.0047863009	0.24	5115.7075	161.14256	-0.77068993	-0.12840152	-0.12677986	-6.2458767	16.363223	0	186.86348492995026
131.82567	0.0052480746	0.24	4675.7202	147.50936	-0.75840557	-0.13268243	-0.13090432	-5.7662941	14.930001	0	197.47539600404565
131.82567	0.0057543994	0.24	4274.6498	135.08094	-0.74596056	-0.13670586	-0.13475621	-5.3279055	13.624619	0	208.29971161020634
131.82567	0.0063095734	0.24	3909.0573	123.75002	-0.73337292	-0.14046673	-0.13832899	-4.9270672	12.435673	0	219.32097552259881
131.82567	0.0069183097	0.24	3575.8071	113.41885	-0.72065809	-0.14396665	-0.14162268	-4.5604574	11.352769	0	230.52467634230533
131.82567	0.0075857758	0.24	3272.0407	103.99832	-0.70782898	-0.14721334	-0.14464324	-4.225048	10.366432	0	241.89734032638077
131.82567	0.0083176377	0.24	2995.1519	95.407243	-0.69489613	-0.15021973	-0.14740169	-3.9180784	9.4680306	0	253.42657949359858
131.82567	0.0091201084	0.24	2742.7652	87.571626	-0.68186779	-0.153003	-0.1499131	-3.6370321	8.6497011	0	265.1012442098631
131.82567	0.01	0.24	2512.7152	80.424058	-0.66875014	-0.15558352	-0.15219555	-3.3796149	7.9042789	0	276.9114509993448
131.82567	0.010964782	0.24	2303.0284	73.903125	-0.65554742	-0.1579838	-0.154269	-3.1437356	7.225239	0	288.848715211107
131.82567	0.012022644	0.24	2111.9064	67.952888	-0.64226209	-0.16022751	-0.15615437	-2.9274875	6.6066395	0	300.9060081446794
131.82567	0.013182567	0.24	1937.7105	62.522401	-0.62889501	-0.1623386	-0.15787258	-2.7291322	6.0430705	0	313.0778044041518
131.82567	0.014454398	0.24	1778.9474	57.565265	-0.61544558	-0.16434058	-0.15944378	-2.5470848	5.5296072	0	325.3601239907015
131.82567	0.015848932	0.24	1634.257	53.039233	-0.6019119	-0.16625579	-0.16088669	-2.3799003	5.0617669	0	337.7505307992889
131.82567	0.017378008	0.24	1502.4003	48.905835	-0.58829091	-0.16810496	-0.16221804	-2.2262608	4.6354702	0	350.2481273570922
131.82567	0.019054607	0.24	1382.2484	45.130044	-0.57457853	-0.16990669	-0.16345204	-2.0849644	4.2470045	0	362.85354279706905
131.82567	0.020892961	0.24	1272.7737	41.679968	-0.56076983	-0.17167711	-0.16460003	-1.9549148	3.8929913	0	375.56885205533894
131.82567	0.022908677	0.24	1173.04	38.526569	-0.54685912	-0.17342944	-0.16566999	-1.8351121	3.5703565	0	388.39760180318484
131.82567	0.025118864	0.24	1082.1948	35.643405	-0.53284013	-0.17517372	-0.16666618	-1.7246437	3.2763026	0	401.3447225037374
131.82567	0.027542287	0.24	999.46226	33.006399	-0.51870607	-0.17691641	-0.16758878	-1.622677	3.0082843	0	414.41655321649995
131.82567	0.030199517	0.24	924.13592	30.593623	-0.50444968	-0.17866009	-0.16843347	-1.5284518	2.7639851	0	427.6208893272685
131.82567	0.033113112	0.24	855.57303	28.385108	-0.49006325	-0.18040315	-0.16919111	-1.4412743	2.541297	0	440.9670359154433
131.82567	0.036307805	0.24	793.18906	26.362663	-0.47553844	-0.1821396	-0.16984744	-1.3605103	2.3383019	0	454.466044524497
131.82567	0.039810717	0.24	736.45281	24.509719	-0.46086601	-0.18385897	-0.170383	-1.2855808	2.1532543	0	468.13098488427454
131.82567	0.043651583	0.24	684.88216	22.811182	-0.44603541	-0.18554649	-0.17077317	-1.2159561	1.9845658	0	481.9773211129583
131.82567	0.047863009	0.24	638.04015	21.253297	-0.43103416	-0.18718348	-0.17098852	-1.1511515	1.8307914	0	496.0234153240962
131.82567	0.052480746	0.24	595.53159	19.823535	-0.41584707	-0.18874818	-0.17099558	-1.0907233	1.6906169	0	510.2910868558988
131.82567	0.057543994	0.24	556.99987	18.510476	-0.40045538	-0.19021696	-0.17075798	-1.0342645	1.5628471	0	524.8061632323586
131.82567	0.063095734	0.24	522.12396	17.303717	-0.38483602	-0.19156601	-0.17023801	-0.98140111	1.4463961	0	539.5988236683442
131.82567	0.069183097	0.24	490.6154	16.193775	-0.36896089	-0.19277331	-0.1693986	-0.93178928	1.3402775	0	554.7038290751962
131.82567	0.075857758	0.24	462.21524	15.172011	-0.35279667	-0.19382091	-0.16820549	-0.8851118	1.2435965	0	570.1602112525104
131.82567	0.083176377	0.24	436.69073	14.230555	-0.33630501	-0.19469717	-0.16662937	-0.84107557	1.1555418	0	586.0106118099574
131.82567	0.091201084	0.24	413.832	13.362237	-0.31944322	-0.19539864	-0.16464779	-0.79940916	1.0753789	0	602.3002031704345
131.82567	0.1	0.24	393.44873	12.560529	-0.3021655	-0.19593133	-0.16224631	-0.75986073	1.0024437	0	619.075273584649
131.82567	0.10964782	0.24	375.36719	11.819488	-0.28442419	-0.196311	-0.15941884	-0.72219624	0.93613647	0	636.381976005897
131.82567	0.12022644	0.24	359.42798	11.133709	-0.26617085	-0.19656249	-0.15616695	-0.686198	0.87591653	0	654.2654689515088
131.82567	0.13182567	0.24	345.48485	10.498279	-0.24735655	-0.19671814	-0.15249835	-0.65166326	0.82129734	0	672.7699867823361
131.82567	0.14454398	0.24	333.4047	9.908739	-0.22793107	-0.1968157	-0.14842491	-0.61840299	0.7718422	0	691.9400378364869
131.82567	0.15848932	0.24	323.06881	9.3610446	-0.20784075	-0.19689607	-0.14396059	-0.58624051	0.72716044	0	711.8228912708939
131.82567	0.17378008	0.24	314.37518	8.851536	-0.18702483	-0.19700139	-0.13911977	-0.55500998	0.68690438	0	732.4723924482869
131.82567	0.19054607	0.24	307.24161	8.3769067	-0.16541074	-0.19717376	-0.13391626	-0.52455462	0.6507669	0	753.9536115307192
131.82567	0.20892961	0.24	301.60895	7.9341758	-0.14290843	-0.19745456	-0.12836313	-0.4947246	0.61847958	0	776.3482091493686
131.82567	0.22908677	0.24	297.44415	7.5206615	-0.11940472	-0.19788457	-0.12247328	-0.46537464	0.58981144	0	799.7596164162245
131.82567	0.25118864	0.24	294.7422	7.133956	-0.094758183	-0.19850443	-0.11626062	-0.43636132	0.56456805	0	824.3175765950768
131.82567	0.27542287	0.24	293.52613	6.7719015	-0.0687961	-0.19935536	-0.10974138	-0.40754033	0.54259101	0	850.1807106786611
131.82567	0.30199517	0.24	293.84412	6.4325689	-0.041314611	-0.20047959	-0.1029354	-0.37876385	0.52375745	0	877.5360846248575
131.82567	0.33113112	0.24	295.76252	6.1142391	-0.012083832	-0.20192009	-0.095866552	-0.34987834	0.50797971	0	906.5943064416172
131.82567	0.36307805	0.24	299.35436	5.8153895	0.019140978	-0.2037192	-0.088562097	-0.32072333	0.49520462	0	937.5791790544229
131.82567	0.39810717	0.24	304.68376	5.5346852	0.052602215	-0.20591584	-0.081050483	-0.29113151	0.48541225	0	970.7120344446348
131.82567	0.43651583	0.24	311.78849	5.2709723	0.088518818	-0.20854166	-0.073357852	-0.2609304	0.47861313	0	1006.1926852022456
131.82567	0.47863009	0.24	320.66464	5.0232662	0.12706559	-0.21161682	-0.065503964	-0.22994577	0.47484337	0	1044.1809143744151
131.82567	0.52480746	0.24	331.25767	4.7907291	0.1683583	-0.21514674	-0.057498813	-0.19800622	0.4741568	0	1084.783240898282
131.82567	0.57543994	0.24	343.46262	4.5726331	0.21244844	-0.21912098	-0.049341067	-0.16494822	0.47661487	0	1128.048345233099
131.82567	0.63095734	0.24	357.13314	4.368314	0.25932854	-0.22351478	-0.041018861	-0.13062062	0.48227548	0	1173.971884331993
131.82567	0.69183097	0.24	372.09625	4.1771247	0.30894511	-0.22829268	-0.032512578	-0.094888107	0.49118318	0	1222.5080243932252
131.82567	0.75857758	0.24	388.16853	3.9983996	0.36121502	-0.23341335	-0.023798628	-0.057632926	0.50336235	0	1273.5839787924353
131.82567	0.83176377	0.24	405.17035	3.8314355	0.41604122	-0.23883441	-0.014853205	-0.018755235	0.51881415	0	1327.1139308626593
131.82567	0.91201084	0.24	422.93628	3.6754887	0.47332545	-0.24451633	-0.0056552601	0.021827832	0.53751711	0	1383.0103053487098
131.82567	1.	0.24	441.32131	3.5297849	0.53297704	-0.25042525	0.0038116162	0.064183887	0.5594302	0	1441.1916121317286
131.82567	1.0964782	0.24	460.20367	3.3935361	0.5949183	-0.25653444	0.013558375	0.10836746	0.58449738	0	1501.5873258054585
131.82567	1.2022644	0.24	479.48515	3.2659593	0.65908712	-0.26282483	0.023590544	0.15442229	0.61265256	0	1564.1403364385042
131.82567	1.3182567	0.24	499.08981	3.1462942	0.72543772	-0.26928473	0.033908847	0.20238362	0.64382429	0	1628.8077939429184
131.82567	1.4454398	0.24	518.96183	3.0338175	0.79394025	-0.27590907	0.044510151	0.25228023	0.67793987	0	1695.5609458150257
131.82567	1.5848932	0.24	539.06309	2.9278527	0.86457976	-0.2826984	0.055388538	0.30413634	0.71492858	0	1764.384411069386
131.82567	1.7378008	0.24	559.37061	2.8277769	0.93735484	-0.28965778	0.066536364	0.35797316	0.75472427	0	1835.275141229847
131.82567	1.9054607	0.24	579.87418	2.7330235	1.0122763	-0.29679577	0.077945198	0.41381033	0.79726706	0	1908.2413918437303
131.82567	2.0892961	0.24	600.57419	2.6430827	1.0893657	-0.30412342	0.089606619	0.471667	0.8425046	0	1983.3015210408275
131.82567	2.2908677	0.24	621.47974	2.5574997	1.1686542	-0.31165353	0.10151283	0.53156282	0.8903927	0	2060.4830474875953
131.82567	2.5118864	0.24	642.60697	2.4758717	1.2501817	-0.31939999	0.11365711	0.59351866	0.94089573	0	2139.821944285008
131.82567	2.7542287	0.24	663.97772	2.3978439	1.3339952	-0.32737729	0.12603411	0.6575573	0.99398668	0	2221.361164828101
131.82567	3.0199517	0.24	685.61824	2.3231049	1.4201488	-0.33560015	0.13864006	0.72370386	1.049647	0	2305.1506894835807
131.82567	3.3113112	0.24	707.55835	2.2513826	1.5087026	-0.34408331	0.15147279	0.79198621	1.1078663	0	2391.2464968033482
131.82567	3.6307805	0.24	729.83051	2.1824394	1.5997223	-0.35284136	0.1645318	0.8624353	1.1686424	0	2479.710203483056
131.82567	3.9810717	0.24	752.46924	2.1160679	1.6932785	-0.36188862	0.1778182	0.93508536	1.2319802	0	2570.6083931366234
131.82567	4.3651583	0.24	775.5106	2.0520872	1.7894467	-0.37123916	0.19133462	1.0099741	1.2978921	0	2664.012596001625
131.82567	4.7863009	0.24	798.9917	1.9903394	1.8883067	-0.38090677	0.2050851	1.0871427	1.3663972	0	2759.998700395554
131.82567	5.2480746	0.24	822.95045	1.930686	1.9899425	-0.390905	0.21907503	1.1666363	1.4375211	0	2858.6468452295453
131.82567	5.7543994	0.24	847.42527	1.8730056	2.0944421	-0.40124718	0.23331102	1.2485034	1.5112954	0	2960.041202780873
131.82567	6.3095734	0.24	872.45491	1.8171908	2.2018974	-0.4119465	0.24780079	1.3327967	1.5877575	0	3064.26985993188
131.82567	6.9183097	0.24	898.07833	1.763147	2.312404	-0.42301604	0.26255307	1.4195723	1.6669505	0	3171.4246077073494
131.82567	7.5857758	0.24	924.33457	1.7107894	2.4260613	-0.43446883	0.27757754	1.5088904	1.7489226	0	3281.6010217012927
131.82567	8.3176377	0.24	951.26275	1.6600425	2.5429724	-0.44631793	0.29288473	1.600815	1.8337271	0	3394.898345570845
131.82567	9.1201084	0.24	978.90199	1.6108381	2.663244	-0.45857645	0.30848593	1.6954138	1.9214223	0	3511.419376785126
131.82567	10.	0.24	1007.2914	1.5631145	2.7869864	-0.47125762	0.3243932	1.7927584	2.0120711	0	3631.2704688801887