13.182567	1.e-12	0.05	2.3701212e9	7.1924286e8	-0.33570279	-0.042659972	-0.042659972	-2.5225723e6	7.5687614e6	0	622.146549041515
13.182567	1.0964782e-12	0.05	2.1615762e9	6.5595728e8	-0.33441053	-0.042659973	-0.042659973	-2.3006133e6	6.9027924e6	0	623.3607117137277
13.182567	1.2022644e-12	0.05	1.9713809e9	5.9824016e8	-0.33311828	-0.042659972	-0.042659972	-2.0981843e6	6.2954215e6	0	624.5748650842435
13.182567	1.3182567e-12	0.05	1.7979208e9	5.4560151e8	-0.33182602	-0.042659972	-0.042659972	-1.9135669e6	5.7414927e6	0	625.7890278034344
13.182567	1.4454398e-12	0.05	1.6397233e9	4.9759449e8	-0.33053376	-0.042659972	-0.042659972	-1.7451938e6	5.2363036e6	0	627.0031905226255
13.182567	1.5848932e-12	0.05	1.4954454e9	4.5381157e8	-0.32924151	-0.042659972	-0.042659972	-1.5916356e6	4.7755656e6	0	628.217343846163
13.182567	1.7378008e-12	0.05	1.3638624e9	4.1388107e8	-0.32794925	-0.042659972	-0.042659972	-1.451589e6	4.3553676e6	0	629.4315065653539
13.182567	1.9054607e-12	0.05	1.2438573e9	3.7746403e8	-0.326657	-0.042659972	-0.042659972	-1.3238649e6	3.9721425e6	0	630.6456598888915
13.182567	2.0892961e-12	0.05	1.1344113e9	3.4425129e8	-0.32536474	-0.042659973	-0.042659973	-1.2073792e6	3.622637e6	0	631.8598225611042
13.182567	2.2908677e-12	0.05	1.0345954e9	3.1396091e8	-0.32407248	-0.042659972	-0.042659972	-1.1011429e6	3.3038842e6	0	633.0739853272735
13.182567	2.5118864e-12	0.05	9.4356226e8	2.8633576e8	-0.32278023	-0.042659972	-0.042659972	-1.0042543e6	3.0131782e6	0	634.2881386508109
13.182567	2.7542287e-12	0.05	8.6053901e8	2.6114131e8	-0.32148797	-0.042659972	-0.042659972	-915890.86	2.7480512e6	0	635.502301370002
13.182567	3.0199517e-12	0.05	7.848209e8	2.3816371e8	-0.32019571	-0.042659972	-0.042659972	-835302.42	2.5062525e6	0	636.7164640891929
13.182567	3.3113112e-12	0.05	7.1576517e8	2.1720789e8	-0.31890346	-0.042659972	-0.042659972	-761804.89	2.2857294e6	0	637.9306174127304
13.182567	3.6307805e-12	0.05	6.5278559e8	1.9809595e8	-0.3176112	-0.042659972	-0.042659972	-694774.34	2.08461e6	0	639.1447801319215
13.182567	3.9810717e-12	0.05	5.9534754e8	1.8066566e8	-0.31631894	-0.042659972	-0.042659972	-633641.76	1.9011869e6	0	640.3589428511125
13.182567	4.3651583e-12	0.05	5.4296341e8	1.6476904e8	-0.31502669	-0.042659972	-0.042659972	-577888.18	1.7339031e6	0	641.5730961746499
13.182567	4.7863009e-12	0.05	4.9518851e8	1.5027115e8	-0.31373443	-0.042659973	-0.042659973	-527040.31	1.5813384e6	0	642.7872588468626
13.182567	5.2480746e-12	0.05	4.516173e8	1.3704892e8	-0.31244217	-0.042659972	-0.042659972	-480666.51	1.4421978e6	0	644.001421613032
13.182567	5.7543994e-12	0.05	4.1187987e8	1.249901e8	-0.31114992	-0.042659972	-0.042659972	-438373.09	1.3153e6	0	645.2155749365694
13.182567	6.3095734e-12	0.05	3.7563891e8	1.1399233e8	-0.30985766	-0.042659972	-0.042659972	-399801.04	1.1995679e6	0	646.4297376557604
13.182567	6.9183097e-12	0.05	3.4258676e8	1.0396224e8	-0.30856541	-0.042659972	-0.042659972	-364622.91	1.0940189e6	0	647.643890979298
13.182567	7.5857758e-12	0.05	3.1244283e8	9.4814695e7	-0.30727315	-0.042659973	-0.042659973	-332540.07	997757.08	0	648.8580536515107
13.182567	8.3176377e-12	0.05	2.8495125e8	8.6472032e7	-0.30598089	-0.042659972	-0.042659972	-303280.18	909965.29	0	650.0722164176799
13.182567	9.1201084e-12	0.05	2.5987863e8	7.8863433e7	-0.30468864	-0.042659972	-0.042659972	-276594.83	829898.2	0	651.2863697412175
13.182567	1.e-11	0.05	2.3701213e8	7.1924308e7	-0.30339638	-0.042659972	-0.042659972	-252257.51	756876.16	0	652.5005324604084
13.182567	1.0964782e-11	0.05	2.1615763e8	6.559575e7	-0.30210412	-0.042659973	-0.042659972	-230061.61	690279.26	0	653.7146951795994
13.182567	1.2022644e-11	0.05	1.9713811e8	5.9824038e7	-0.30081187	-0.042659972	-0.042659972	-209818.71	629542.18	0	654.9288485031369
13.182567	1.3182567e-11	0.05	1.7979209e8	5.4560172e7	-0.29951961	-0.042659972	-0.042659972	-191356.97	574149.29	0	656.143011222328
13.182567	1.4454398e-11	0.05	1.6397234e8	4.9759471e7	-0.29822735	-0.042659972	-0.042659972	-174519.66	523630.38	0	657.3571739415189
13.182567	1.5848932e-11	0.05	1.4954455e8	4.5381179e7	-0.2969351	-0.042659972	-0.042659972	-159163.84	477556.58	0	658.5713272650564
13.182567	1.7378008e-11	0.05	1.3638625e8	4.1388128e7	-0.29564284	-0.042659973	-0.042659972	-145159.18	435536.78	0	659.7854899842474
13.182567	1.9054607e-11	0.05	1.2438574e8	3.7746424e7	-0.29435059	-0.042659972	-0.042659972	-132386.77	397214.27	0	660.9996433077848
13.182567	2.0892961e-11	0.05	1.1344115e8	3.442515e7	-0.29305833	-0.042659972	-0.042659972	-120738.19	362263.72	0	662.2138060269759
13.182567	2.2908677e-11	0.05	1.0345956e8	3.1396112e7	-0.29176607	-0.042659972	-0.042659972	-110114.57	330388.44	0	663.4279687461669
13.182567	2.5118864e-11	0.05	9.4356237e7	2.8633596e7	-0.29047382	-0.042659972	-0.042659972	-100425.7	301317.84	0	664.6421220697044
13.182567	2.7542287e-11	0.05	8.6053912e7	2.6114152e7	-0.28918156	-0.042659973	-0.042659972	-91589.357	274805.14	0	665.8562847888953
13.182567	3.0199517e-11	0.05	7.8482102e7	2.3816392e7	-0.2878893	-0.042659972	-0.042659972	-83530.512	250625.27	0	667.0704475080864
13.182567	3.3113112e-11	0.05	7.1576528e7	2.1720809e7	-0.28659705	-0.042659973	-0.042659972	-76180.757	228572.96	0	668.284600831624
13.182567	3.6307805e-11	0.05	6.5278572e7	1.9809616e7	-0.28530479	-0.042659972	-0.042659972	-69477.703	208461.02	0	669.4987635508149
13.182567	3.9810717e-11	0.05	5.9534765e7	1.8066586e7	-0.28401253	-0.042659973	-0.042659972	-63364.442	190118.71	0	670.7129262700059
13.182567	4.3651583e-11	0.05	5.4296353e7	1.6476924e7	-0.28272028	-0.042659972	-0.042659972	-57789.084	173390.33	0	671.9270795935435
13.182567	4.7863009e-11	0.05	4.9518863e7	1.5027135e7	-0.28142802	-0.042659972	-0.042659972	-52704.296	158133.86	0	673.1412423127344
13.182567	5.2480746e-11	0.05	4.5161741e7	1.3704912e7	-0.28013576	-0.042659973	-0.042659972	-48066.913	144219.8	0	674.3554050319253
13.182567	5.7543994e-11	0.05	4.1187999e7	1.249903e7	-0.27884351	-0.042659973	-0.042659972	-43837.571	131530.02	0	675.569558355463
13.182567	6.3095734e-11	0.05	3.7563902e7	1.1399253e7	-0.27755125	-0.042659973	-0.042659972	-39980.365	119956.81	0	676.783721074654
13.182567	6.9183097e-11	0.05	3.4258687e7	1.0396244e7	-0.276259	-0.042659973	-0.042659972	-36462.551	109401.91	0	677.9978743981914
13.182567	7.5857758e-11	0.05	3.1244295e7	9.4814893e6	-0.27496674	-0.042659973	-0.042659972	-33254.266	99775.728	0	679.2120371173825
13.182567	8.3176377e-11	0.05	2.8495137e7	8.647223e6	-0.27367448	-0.042659973	-0.042659972	-30328.275	90996.549	0	680.4261998365735
13.182567	9.1201084e-11	0.05	2.5987875e7	7.8863629e6	-0.27238223	-0.042659973	-0.042659972	-27659.74	82989.839	0	681.6403531601109
13.182567	1.e-10	0.05	2.3701225e7	7.1924504e6	-0.27108997	-0.042659973	-0.042659972	-25226.007	75687.636	0	682.854515879302
13.182567	1.0964782e-10	0.05	2.1615775e7	6.5595945e6	-0.26979771	-0.042659973	-0.042659972	-23006.416	69027.946	0	684.068678598493
13.182567	1.2022644e-10	0.05	1.9713822e7	5.9824231e6	-0.26850546	-0.042659973	-0.042659972	-20982.124	62954.236	0	685.2828319220305
13.182567	1.3182567e-10	0.05	1.7979221e7	5.4560366e6	-0.2672132	-0.042659973	-0.042659972	-19135.949	57414.948	0	686.4969946412214
13.182567	1.4454398e-10	0.05	1.6397246e7	4.9759663e6	-0.26592094	-0.042659973	-0.042659972	-17452.216	52363.057	0	687.7111573604125
13.182567	1.5848932e-10	0.05	1.4954467e7	4.538137e6	-0.26462869	-0.042659973	-0.042659972	-15916.634	47755.677	0	688.92531068395
13.182567	1.7378008e-10	0.05	1.3638637e7	4.1388319e6	-0.26333643	-0.042659973	-0.042659972	-14516.166	43553.697	0	690.1394734031409
13.182567	1.9054607e-10	0.05	1.2438586e7	3.7746614e6	-0.26204418	-0.042659973	-0.042659972	-13238.924	39721.446	0	691.3536267266785
13.182567	2.0892961e-10	0.05	1.1344126e7	3.4425339e6	-0.26075192	-0.042659973	-0.042659972	-12074.065	36226.391	0	692.5677894458694
13.182567	2.2908677e-10	0.05	1.0345967e7	3.13963e6	-0.25945966	-0.042659973	-0.042659972	-11011.701	33038.863	0	693.7819521650605
13.182567	2.5118864e-10	0.05	9.4356356e6	2.8633784e6	-0.25816741	-0.042659973	-0.042659971	-10042.814	30131.803	0	694.9961055355761
13.182567	2.7542287e-10	0.05	8.605403e6	2.6114339e6	-0.25687515	-0.042659973	-0.042659971	-9159.1781	27480.533	0	696.2102682547672
13.182567	3.0199517e-10	0.05	7.8482221e6	2.3816578e6	-0.25558289	-0.042659973	-0.042659971	-8353.2926	25062.546	0	697.4244309739581
13.182567	3.3113112e-10	0.05	7.1576647e6	2.1720994e6	-0.25429064	-0.042659973	-0.042659971	-7618.316	22857.315	0	698.6385842974956
13.182567	3.6307805e-10	0.05	6.5278689e6	1.9809799e6	-0.25299838	-0.042659974	-0.042659971	-6948.0092	20846.121	0	699.8527470166867
13.182567	3.9810717e-10	0.05	5.9534884e6	1.8066769e6	-0.25170612	-0.042659974	-0.042659971	-6336.6821	19011.89	0	701.0669097358777
13.182567	4.3651583e-10	0.05	5.4296471e6	1.6477107e6	-0.25041387	-0.042659974	-0.042659971	-5779.145	17339.052	0	702.2810630594151
13.182567	4.7863009e-10	0.05	4.9518982e6	1.5027317e6	-0.24912161	-0.042659974	-0.04265997	-5270.6651	15813.405	0	703.4952258255844
13.182567	5.2480746e-10	0.05	4.516186e6	1.3705093e6	-0.24782935	-0.042659974	-0.04265997	-4806.9257	14421.999	0	704.7093885447755
13.182567	5.7543994e-10	0.05	4.1188118e6	1.249921e6	-0.2465371	-0.042659974	-0.04265997	-4383.9904	13153.021	0	705.9235418683129
13.182567	6.3095734e-10	0.05	3.7564021e6	1.1399432e6	-0.24524484	-0.042659974	-0.04265997	-3998.2685	11995.7	0	707.1377045875039
13.182567	6.9183097e-10	0.05	3.4258806e6	1.0396423e6	-0.24395259	-0.042659974	-0.042659969	-3646.486	10940.21	0	708.3518579580197
13.182567	7.5857758e-10	0.05	3.1244414e6	948166.68	-0.24266033	-0.042659975	-0.042659969	-3325.6563	9977.5921	0	709.5660206772106
13.182567	8.3176377e-10	0.05	2.8495256e6	864739.95	-0.24136807	-0.042659975	-0.042659969	-3033.056	9099.6739	0	710.7801833964016
13.182567	9.1201084e-10	0.05	2.5987994e6	788653.87	-0.24007582	-0.042659975	-0.042659969	-2766.2014	8299.0032	0	711.9943367199393
13.182567	1.e-9	0.05	2.3701344e6	719262.52	-0.23878356	-0.042659975	-0.042659968	-2522.8269	7568.7827	0	713.2084994861085
13.182567	1.0964782e-9	0.05	2.1615894e6	655976.86	-0.2374913	-0.042659976	-0.042659968	-2300.8666	6902.8138	0	714.4226622052995
13.182567	1.2022644e-9	0.05	1.9713941e6	598259.64	-0.23619905	-0.042659976	-0.042659967	-2098.4363	6295.4429	0	715.6368155758153
13.182567	1.3182567e-9	0.05	1.797934e6	545620.9	-0.23490679	-0.042659976	-0.042659967	-1913.8176	5741.514	0	716.8509782950063
13.182567	1.4454398e-9	0.05	1.6397364e6	497613.79	-0.23361453	-0.042659977	-0.042659967	-1745.4432	5236.3249	0	718.0651410141973
13.182567	1.5848932e-9	0.05	1.4954585e6	453830.78	-0.23232228	-0.042659977	-0.042659966	-1591.8838	4775.5869	0	719.279294384713
13.182567	1.7378008e-9	0.05	1.3638756e6	413900.19	-0.23103002	-0.042659977	-0.042659965	-1451.8359	4355.389	0	720.4934571508823
13.182567	1.9054607e-9	0.05	1.2438705e6	377483.05	-0.22973777	-0.042659978	-0.042659965	-1324.1105	3972.1638	0	721.7076104744197
13.182567	2.0892961e-9	0.05	1.1344245e6	344270.22	-0.22844551	-0.042659979	-0.042659964	-1207.6235	3622.6583	0	722.9217732405891
13.182567	2.2908677e-9	0.05	1.0346086e6	313979.75	-0.22715325	-0.042659979	-0.042659963	-1101.3859	3303.9055	0	724.1359360067584
13.182567	2.5118864e-9	0.05	943575.42	286354.5	-0.225861	-0.04265998	-0.042659962	-1004.496	3013.1995	0	725.3500893772741
13.182567	2.7542287e-9	0.05	860552.18	261159.97	-0.22456874	-0.042659981	-0.042659961	-916.13125	2748.0725	0	726.5642521434432
13.182567	3.0199517e-9	0.05	784834.07	238182.27	-0.22327648	-0.042659981	-0.04265996	-835.54152	2506.2738	0	727.7784149096127
13.182567	3.3113112e-9	0.05	715778.33	217226.36	-0.22198423	-0.042659982	-0.042659959	-762.04269	2285.7507	0	728.9925682801285
13.182567	3.6307805e-9	0.05	652798.76	198114.33	-0.22069197	-0.042659983	-0.042659958	-695.01086	2084.6313	0	730.2067310462977
13.182567	3.9810717e-9	0.05	595360.71	180683.94	-0.21939971	-0.042659984	-0.042659956	-633.87699	1901.2082	0	731.4208938594452
13.182567	4.3651583e-9	0.05	542976.57	164787.23	-0.21810746	-0.042659986	-0.042659955	-578.12211	1733.9244	0	732.635047229961
13.182567	4.7863009e-9	0.05	495201.69	150289.25	-0.2168152	-0.042659987	-0.042659953	-527.27296	1581.3597	0	733.8492100431085
13.182567	5.2480746e-9	0.05	451630.46	137066.93	-0.21552294	-0.042659988	-0.042659951	-480.89786	1442.2191	0	735.0633728562559
13.182567	5.7543994e-9	0.05	411893.03	125008.02	-0.21423069	-0.04265999	-0.042659949	-438.60315	1315.3213	0	736.2775262737501
13.182567	6.3095734e-9	0.05	375652.08	114010.16	-0.21293843	-0.042659991	-0.042659947	-400.02981	1199.5892	0	737.4916890868976
13.182567	6.9183097e-9	0.05	342599.93	103979.98	-0.21164618	-0.042659993	-0.042659944	-364.85039	1094.0402	0	738.7058425513699
13.182567	7.5857758e-9	0.05	312456.	94832.336	-0.21035392	-0.042659995	-0.042659942	-332.76626	997.7784	0	739.9200053645175
13.182567	8.3176377e-9	0.05	284964.42	86489.582	-0.20906166	-0.042659997	-0.042659939	-303.50508	909.98661	0	741.1341682246432
13.182567	9.1201084e-9	0.05	259891.8	78880.89	-0.20776941	-0.04266	-0.042659935	-276.81845	829.91953	0	742.3483217360938
13.182567	1.e-8	0.05	237025.3	71941.672	-0.20647715	-0.042660003	-0.042659932	-252.47983	756.89748	0	743.5624845962197
13.182567	1.0964782e-8	0.05	216170.8	65613.024	-0.20518489	-0.042660005	-0.042659928	-230.28265	690.30059	0	744.7766475033238
13.182567	1.2022644e-8	0.05	197151.28	59841.219	-0.20389264	-0.042660008	-0.042659924	-210.03845	629.5635	0	745.9908010147742
13.182567	1.3182567e-8	0.05	179805.26	54577.261	-0.20260038	-0.042660012	-0.042659919	-191.57541	574.17061	0	747.2049639688565
13.182567	1.4454398e-8	0.05	163985.51	49776.467	-0.20130812	-0.042660016	-0.042659914	-174.73681	523.65169	0	748.419126922939
13.182567	1.5848932e-8	0.05	149557.72	45398.084	-0.20001587	-0.04266002	-0.042659908	-159.37971	477.5779	0	749.6332805283462
13.182567	1.7378008e-8	0.05	136399.42	41404.941	-0.19872361	-0.042660025	-0.042659902	-145.37375	435.55809	0	750.8474435294066
13.182567	1.9054607e-8	0.05	124398.91	37763.145	-0.19743135	-0.04266003	-0.042659895	-132.60005	397.23559	0	752.0616065774454
13.182567	2.0892961e-8	0.05	113454.32	34441.779	-0.1961391	-0.042660035	-0.042659888	-120.95019	362.28504	0	753.2757602298309
13.182567	2.2908677e-8	0.05	103472.72	31412.649	-0.19484684	-0.042660041	-0.042659879	-110.32527	330.40976	0	754.4899233718264
13.182567	2.5118864e-8	0.05	94369.407	28650.041	-0.19355459	-0.042660048	-0.04265987	-100.63512	301.33916	0	755.7040771181682
13.182567	2.7542287e-8	0.05	86067.081	26130.505	-0.19226233	-0.042660055	-0.042659861	-91.797477	274.82645	0	756.9182402601637
13.182567	3.0199517e-8	0.05	78495.271	23832.653	-0.19097007	-0.042660063	-0.04265985	-83.737342	250.64659	0	758.1324034961156
13.182567	3.3113112e-8	0.05	71589.698	21736.978	-0.18967782	-0.042660072	-0.042659838	-76.386297	228.59428	0	759.3465573833923
13.182567	3.6307805e-8	0.05	65291.74	19825.692	-0.18838556	-0.042660082	-0.042659825	-69.681949	208.48234	0	760.5607207133008
13.182567	3.9810717e-8	0.05	59547.935	18082.571	-0.1870933	-0.042660092	-0.042659811	-63.567399	190.14003	0	761.7748840901875
13.182567	4.3651583e-8	0.05	54309.522	16492.817	-0.18580105	-0.042660103	-0.042659795	-57.990749	173.41165	0	762.9890381653773
13.182567	4.7863009e-8	0.05	49532.032	15042.936	-0.18450879	-0.042660116	-0.042659778	-52.90467	158.15518	0	764.2032016831988
13.182567	5.2480746e-8	0.05	45174.91	13720.621	-0.18321653	-0.04266013	-0.04265976	-48.265997	144.24112	0	765.4173652479988
13.182567	5.7543994e-8	0.05	41201.168	12514.647	-0.18192428	-0.042660145	-0.042659739	-44.035364	131.55134	0	766.6315195580798
13.182567	6.3095734e-8	0.05	37577.072	11414.778	-0.18063202	-0.042660162	-0.042659716	-40.176867	119.97813	0	767.8456833577709
13.182567	6.9183097e-8	0.05	34271.856	10411.677	-0.17933976	-0.04266018	-0.042659692	-36.657761	109.42323	0	769.0598472044404
13.182567	7.5857758e-8	0.05	31257.465	9496.8302	-0.17804751	-0.0426602	-0.042659665	-33.448186	99.797048	0	770.2740017963911
13.182567	8.3176377e-8	0.05	28508.307	8662.4718	-0.17675525	-0.042660222	-0.042659635	-30.520904	91.017868	0	771.4881659249302
13.182567	9.1201084e-8	0.05	26001.045	7901.5198	-0.17546299	-0.042660246	-0.042659602	-27.851078	83.01116	0	772.7023301944039
13.182567	1.e-7	0.05	23714.394	7207.515	-0.17417074	-0.042660273	-0.042659567	-25.416053	75.708954	0	773.9164851621808
13.182567	1.0964782e-7	0.05	21628.945	6574.5673	-0.17287848	-0.042660302	-0.042659528	-23.195172	69.049265	0	775.1306497135241
13.182567	1.2022644e-7	0.05	19726.992	5997.3039	-0.17158622	-0.042660333	-0.042659485	-21.169589	62.975556	0	776.3448144527806
13.182567	1.3182567e-7	0.05	17992.39	5470.8253	-0.17029397	-0.042660368	-0.042659438	-19.322123	57.436268	0	777.5589699842967
13.182567	1.4454398e-7	0.05	16410.415	4990.6631	-0.16900171	-0.042660407	-0.042659386	-17.637099	52.384377	0	778.7731351463576
13.182567	1.5848932e-7	0.05	14967.636	4552.7417	-0.16770945	-0.042660449	-0.04265933	-16.100226	47.776997	0	779.9873004963316
13.182567	1.7378008e-7	0.05	13651.806	4153.3446	-0.16641719	-0.042660495	-0.042659268	-14.698467	43.575016	0	781.2014661281752
13.182567	1.9054607e-7	0.05	12451.755	3789.0821	-0.16512494	-0.042660545	-0.042659199	-13.419934	39.742766	0	782.4156226932132
13.182567	2.0892961e-7	0.05	11357.296	3456.8626	-0.16383268	-0.0426606	-0.042659125	-12.253785	36.247711	0	783.6297888887958
13.182567	2.2908677e-7	0.05	10359.137	3153.8667	-0.16254042	-0.042660661	-0.042659043	-11.19013	33.060183	0	784.8439554602049
13.182567	2.5118864e-7	0.05	9448.805	2877.5231	-0.16124817	-0.042660727	-0.042658953	-10.219951	30.153123	0	786.0581130117865
13.182567	2.7542287e-7	0.05	8618.5725	2625.4865	-0.15995591	-0.0426608	-0.042658855	-9.3350245	27.501853	0	787.2722803348477
13.182567	3.0199517e-7	0.05	7861.3914	2395.6184	-0.15866365	-0.04266088	-0.042658748	-8.5278478	25.083865	0	788.4864480807133
13.182567	3.3113112e-7	0.05	7170.8342	2185.9681	-0.15737139	-0.042660967	-0.042658629	-7.7915804	22.878635	0	789.7006163903181
13.182567	3.6307805e-7	0.05	6541.0384	1994.7566	-0.15607914	-0.042661063	-0.0426585	-7.1199826	20.867441	0	790.9147757740521
13.182567	3.9810717e-7	0.05	5966.6578	1820.3616	-0.15478688	-0.042661168	-0.042658358	-6.5073646	19.03321	0	792.1289451641571
13.182567	4.3651583e-7	0.05	5442.8165	1661.3033	-0.15349462	-0.042661284	-0.042658202	-5.9485365	17.360372	0	793.3431152119579
13.182567	4.7863009e-7	0.05	4965.0676	1516.2323	-0.15220236	-0.04266141	-0.042658031	-5.4387656	15.834725	0	794.5572859644326
13.182567	5.2480746e-7	0.05	4529.3554	1383.9179	-0.1509101	-0.042661549	-0.042657844	-4.9737353	14.443319	0	795.7714574685598
13.182567	5.7543994e-7	0.05	4131.9812	1263.2376	-0.14961784	-0.042661701	-0.042657639	-4.5495089	13.174341	0	796.9856298182955
13.182567	6.3095734e-7	0.05	3769.5716	1153.1678	-0.14832559	-0.042661868	-0.042657413	-4.1624962	12.01702	0	798.1997937589215
13.182567	6.9183097e-7	0.05	3439.0501	1052.7748	-0.14703333	-0.042662051	-0.042657167	-3.8094226	10.96153	0	799.4139680347663
13.182567	7.5857758e-7	0.05	3137.6109	961.20725	-0.14574107	-0.042662252	-0.042656896	-3.487302	9.998912	0	800.6281434850678
13.182567	8.3176377e-7	0.05	2862.6951	877.68851	-0.14444881	-0.042662472	-0.042656599	-3.1934108	9.1209939	0	801.8423201568042
13.182567	9.1201084e-7	0.05	2611.9689	801.51041	-0.14315655	-0.042662713	-0.042656274	-2.9252651	8.3203232	0	803.0564981439321
13.182567	1.e-6	0.05	2383.3039	732.02706	-0.14186429	-0.042662977	-0.042655917	-2.6805997	7.5901028	0	804.2706776343647
13.182567	1.0964782e-6	0.05	2174.7589	668.64939	-0.14057203	-0.042663267	-0.042655526	-2.4573484	6.9241338	0	805.4848587220583
13.182567	1.2022644e-6	0.05	1984.5636	610.84016	-0.13927977	-0.042663585	-0.042655097	-2.2536271	6.316763	0	806.699041594926
13.182567	1.3182567e-6	0.05	1811.1035	558.1094	-0.13798751	-0.042663934	-0.042654627	-2.0677174	5.7628341	0	807.9132263939027
13.182567	1.4454398e-6	0.05	1652.906	510.01029	-0.13669524	-0.042664316	-0.042654111	-1.898052	5.2576451	0	809.1274227495333
13.182567	1.5848932e-6	0.05	1508.6281	466.13527	-0.13540298	-0.042664735	-0.042653546	-1.7432017	4.7969072	0	810.3416120114452
13.182567	1.7378008e-6	0.05	1377.0452	426.11267	-0.13411072	-0.042665195	-0.042652926	-1.6018627	4.3767092	0	811.5558038571621
13.182567	1.9054607e-6	0.05	1257.0401	389.60353	-0.13281846	-0.042665699	-0.042652246	-1.4728464	3.9934842	0	812.7699985215752
13.182567	2.0892961e-6	0.05	1147.5941	356.29869	-0.13152619	-0.042666252	-0.042651501	-1.3550684	3.6439788	0	813.9842056352289
13.182567	2.2908677e-6	0.05	1047.7782	325.9162	-0.13023393	-0.042666858	-0.042650684	-1.2475398	3.325226	0	815.1984067356644
13.182567	2.5118864e-6	0.05	956.7451	298.19895	-0.12894166	-0.042667522	-0.042649788	-1.1493589	3.0345202	0	816.4126209430367
13.182567	2.7542287e-6	0.05	873.72188	272.91242	-0.12764939	-0.042668251	-0.042648805	-1.0597032	2.7693932	0	817.6268392375182
13.182567	3.0199517e-6	0.05	798.0038	249.84271	-0.12635713	-0.04266905	-0.042647728	-0.97782246	2.5275946	0	818.8410525523032
13.182567	3.3113112e-6	0.05	728.9481	228.79479	-0.12506486	-0.042669926	-0.042646547	-0.90303263	2.3070717	0	820.0552801484816
13.182567	3.6307805e-6	0.05	665.96856	209.59076	-0.12377259	-0.042670887	-0.042645252	-0.83470979	2.1059524	0	821.2695131001825
13.182567	3.9810717e-6	0.05	608.53055	192.06837	-0.12248032	-0.04267194	-0.042643832	-0.77228492	1.9225295	0	822.4837519241669
13.182567	4.3651583e-6	0.05	556.14646	176.07966	-0.12118804	-0.042673095	-0.042642276	-0.71523903	1.7552458	0	823.698006532849
13.182567	4.7863009e-6	0.05	508.37162	161.48967	-0.11989577	-0.042674362	-0.042640569	-0.66309886	1.6026813	0	824.9122588395962
13.182567	5.2480746e-6	0.05	464.80045	148.17535	-0.11860349	-0.04267575	-0.042638697	-0.61543274	1.4635409	0	826.126528293411
13.182567	5.7543994e-6	0.05	425.06309	136.02444	-0.11731122	-0.042677273	-0.042636645	-0.57184701	1.3366433	0	827.3407968076604
13.182567	6.3095734e-6	0.05	388.82219	124.93458	-0.11601894	-0.042678943	-0.042634395	-0.53198264	1.2209114	0	828.5550840192602
13.182567	6.9183097e-6	0.05	355.77011	114.8124	-0.11472665	-0.042680774	-0.042631929	-0.49551218	1.1153627	0	829.7693907738194
13.182567	7.5857758e-6	0.05	325.62626	105.57276	-0.11343437	-0.042682781	-0.042629224	-0.462137	1.0191012	0	830.983699360531
13.182567	8.3176377e-6	0.05	298.13477	97.138012	-0.11214208	-0.042684983	-0.042626258	-0.43158476	0.93130967	0	832.1980296042238
13.182567	9.1201084e-6	0.05	273.06224	89.437325	-0.11084979	-0.042687397	-0.042623006	-0.40360707	0.85124292	0	833.4123732837013
13.182567	0.00001	0.05	250.19584	82.406115	-0.1095575	-0.042690044	-0.042619441	-0.37797738	0.77822125	0	834.6267316673765
13.182567	0.000010964782	0.05	229.34145	75.985474	-0.1082652	-0.042692946	-0.042615532	-0.35448911	0.71162475	0	835.8411156072292
13.182567	0.000012022644	0.05	210.3196	70.121625	-0.10697741	-0.042710108	-0.042625225	-0.33295643	0.65088471	0	837.0506231089587
13.182567	0.000013182567	0.05	192.97348	64.765675	-0.10568554	-0.042714941	-0.042621868	-0.31320254	0.59549197	0	838.2645771037072
13.182567	0.000014454398	0.05	177.15361	59.872891	-0.10439371	-0.042720239	-0.042618187	-0.29507309	0.54497324	0	839.4785087368004
13.182567	0.000015848932	0.05	162.72571	55.402519	-0.10310191	-0.042726046	-0.042614149	-0.27842516	0.49889964	0	840.6924289541746
13.182567	0.000017378008	0.05	149.56727	51.317391	-0.10181017	-0.042732413	-0.04260972	-0.26312838	0.45688004	0	841.9063111661303
13.182567	0.000019054607	0.05	137.56662	47.583611	-0.10051847	-0.042739391	-0.042604862	-0.24906387	0.41855776	0	843.1201759491488
13.182567	0.000020892961	0.05	126.62186	44.170264	-0.099226819	-0.042747041	-0.042599533	-0.23612322	0.38360747	0	844.3340168202293
13.182567	0.000022908677	0.05	116.64009	41.049155	-0.097935231	-0.042755427	-0.042593687	-0.22420752	0.35173247	0	845.5478227864567
13.182567	0.000025118864	0.05	107.53658	38.194573	-0.096643706	-0.042764617	-0.042587274	-0.21322661	0.32266217	0	846.7615961967449
13.182567	0.000027542287	0.05	99.234047	35.583066	-0.095352252	-0.042774691	-0.042580238	-0.20309824	0.29614981	0	847.9753321653541
13.182567	0.000030199517	0.05	91.662008	33.193246	-0.094060875	-0.042785731	-0.042572519	-0.19374739	0.27197031	0	849.1890278735879
13.182567	0.000033113112	0.05	84.756183	31.005609	-0.092769581	-0.042797831	-0.042564049	-0.18510565	0.2499184	0	850.4026808785765
13.182567	0.000036307805	0.05	78.457951	29.002364	-0.091478379	-0.04281109	-0.042554755	-0.17711063	0.22980691	0	851.6162861536452
13.182567	0.000039810717	0.05	72.713845	27.16729	-0.090187278	-0.042825621	-0.042544557	-0.16970545	0.21146509	0	852.8298390009676
13.182567	0.000043651583	0.05	67.475104	25.485588	-0.088896287	-0.042841542	-0.042533364	-0.16283819	0.19473725	0	854.0433352394778
13.182567	0.000047863009	0.05	62.697256	23.943766	-0.087605416	-0.042858987	-0.04252108	-0.15646153	0.17948137	0	855.2567699834354
13.182567	0.000052480746	0.05	58.339744	22.529517	-0.086314677	-0.042878099	-0.042507596	-0.15053233	0.16556796	0	856.470137078688
13.182567	0.000057543994	0.05	54.365574	21.231616	-0.085024081	-0.042899036	-0.042492793	-0.14501119	0.1528789	0	857.6834317804305
13.182567	0.000063095734	0.05	50.741013	20.039828	-0.083733643	-0.042921972	-0.042476543	-0.13986224	0.14130647	0	858.8966460084007
13.182567	0.000069183097	0.05	47.435291	18.944818	-0.082443377	-0.042947092	-0.042458699	-0.13505273	0.13075245	0	860.109773514489
13.182567	0.000075857758	0.05	44.420347	17.938071	-0.081153298	-0.042974604	-0.042439105	-0.1305528	0.12112722	0	861.322807533825
13.182567	0.000083176377	0.05	41.670587	17.011824	-0.079863424	-0.043004731	-0.042417585	-0.12633522	0.1123491	0	862.5357394224076
13.182567	0.000091201084	0.05	39.162671	16.158995	-0.078573774	-0.043037717	-0.042393948	-0.12237516	0.10434355	0	863.7485603013439
13.182567	0.0001	0.05	36.87531	15.373127	-0.077284367	-0.043073828	-0.04236798	-0.11864997	0.09704263	0	864.9612623722419
13.182567	0.00010964782	0.05	34.789088	14.648331	-0.075995227	-0.043113355	-0.042339448	-0.11513899	0.090384355	0	866.1738340314691
13.182567	0.00012022644	0.05	32.886298	13.979235	-0.074706376	-0.043156613	-0.042308093	-0.11182339	0.084312207	0	867.3862667759595
13.182567	0.00013182567	0.05	31.150788	13.360942	-0.073417841	-0.043203946	-0.042273632	-0.10868599	0.078774643	0	868.5985485322981
13.182567	0.00014454398	0.05	29.56783	12.788984	-0.072129649	-0.043255727	-0.04223575	-0.10571113	0.073724657	0	869.8106687303748
13.182567	0.00015848932	0.05	28.123988	12.259289	-0.070841831	-0.043312362	-0.0421941	-0.10288451	0.069119383	0	871.0226145451225
13.182567	0.00017378008	0.05	26.807011	11.768142	-0.069554419	-0.04337429	-0.0421483	-0.10019312	0.064919733	0	872.2343738561481
13.182567	0.00019054607	0.05	25.605723	11.312155	-0.068267448	-0.043441989	-0.042097928	-0.097625076	0.061090057	0	873.4459336034934
13.182567	0.00020892961	0.05	24.509931	10.888239	-0.066980956	-0.043515976	-0.042042519	-0.095169539	0.057597855	0	874.6572799285696
13.182567	0.00022908677	0.05	23.510341	10.493579	-0.065694982	-0.04359681	-0.041981559	-0.092816631	0.054413486	0	875.8684003351573
13.182567	0.00025118864	0.05	22.598474	10.125606	-0.064409569	-0.043685093	-0.041914485	-0.090557345	0.051509926	0	877.079280870711
13.182567	0.00027542287	0.05	21.766599	9.7819782	-0.063124764	-0.043781478	-0.041840676	-0.088383467	0.048862535	0	878.2899065491637
13.182567	0.00030199517	0.05	21.007665	9.4605606	-0.061840614	-0.043886667	-0.041759448	-0.086287504	0.046448848	0	879.5002653440788
13.182567	0.00033113112	0.05	20.31524	9.1594067	-0.060557171	-0.044001412	-0.041670053	-0.084262629	0.044248386	0	880.7103435378019
13.182567	0.00036307805	0.05	19.683461	8.8767422	-0.059274489	-0.044126526	-0.041571674	-0.082302612	0.04224248	0	881.9201287750491
13.182567	0.00039810717	0.05	19.106981	8.6109495	-0.057992625	-0.044262874	-0.041463416	-0.080401775	0.040414114	0	883.1296095461444
13.182567	0.00043651583	0.05	18.580923	8.3605541	-0.05671164	-0.044411386	-0.04134431	-0.078554939	0.038747777	0	884.338774059543
13.182567	0.00047863009	0.05	18.100843	8.124212	-0.055431594	-0.04457305	-0.041213305	-0.076757384	0.037229336	0	885.547615315483
13.182567	0.00052480746	0.05	17.662688	7.9006983	-0.054152553	-0.044748918	-0.041069273	-0.075004803	0.03584591	0	886.7561242941368
13.182567	0.00057543994	0.05	17.262764	7.6888968	-0.052874581	-0.044940109	-0.040911007	-0.07329327	0.034585762	0	887.9642975660911
13.182567	0.00063095734	0.05	16.897704	7.4877901	-0.051597748	-0.045147802	-0.04073723	-0.071619206	0.033438199	0	889.1721293530192
13.182567	0.00069183097	0.05	16.564439	7.2964508	-0.050322121	-0.045373245	-0.040546604	-0.069979346	0.032393474	0	890.379619560964
13.182567	0.00075857758	0.05	16.260172	7.1140338	-0.049047767	-0.045617747	-0.040337747	-0.068370712	0.031442707	0	891.5867701630132
13.182567	0.00083176377	0.05	15.982354	6.9397686	-0.047774756	-0.045882678	-0.040109255	-0.066790589	0.030577803	0	892.7935813470796
13.182567	0.00091201084	0.05	15.728662	6.7729522	-0.046503152	-0.046169468	-0.03985973	-0.065236498	0.029791377	0	894.000058656599
13.182567	0.001	0.05	15.496977	6.6129433	-0.045233018	-0.0464796	-0.039587825	-0.063706182	0.02907669	0	895.2062061786804
13.182567	0.0010964782	0.05	15.285366	6.4591562	-0.043964414	-0.046814607	-0.039292283	-0.062197577	0.028427585	0	896.4120265910854
13.182567	0.0012022644	0.05	15.092064	6.3110552	-0.042697391	-0.047176064	-0.038972001	-0.060708806	0.027838426	0	897.6175237930097
13.182567	0.0013182567	0.05	14.915461	6.16815	-0.041431995	-0.047565582	-0.038626087	-0.059238152	0.027304049	0	898.8226964690625
13.182567	0.0014454398	0.05	14.754082	6.0299907	-0.040168263	-0.047984798	-0.03825393	-0.057784052	0.026819705	0	900.0275385590467
13.182567	0.0015848932	0.05	14.606576	5.896164	-0.038906221	-0.048435363	-0.037855262	-0.056345082	0.026381021	0	901.2320382244391
13.182567	0.0017378008	0.05	14.471706	5.7662896	-0.037645878	-0.048918935	-0.037430222	-0.054919943	0.025983957	0	902.4361804791723
13.182567	0.0019054607	0.05	14.348337	5.6400163	-0.036387231	-0.049437164	-0.036979398	-0.053507451	0.025624771	0	903.6399405187211
13.182567	0.0020892961	0.05	14.235431	5.5170199	-0.035130259	-0.04999168	-0.036503857	-0.052106533	0.02529999	0	904.8432879481466
13.182567	0.0022908677	0.05	14.132035	5.3970008	-0.033874916	-0.050584083	-0.036005144	-0.050716208	0.025006387	0	906.0461934060313
13.182567	0.0025118864	0.05	14.037285	5.279682	-0.032621136	-0.051215928	-0.03548526	-0.049335589	0.024740966	0	907.2486249001752
13.182567	0.0027542287	0.05	13.950395	5.1648079	-0.031368825	-0.051888715	-0.034946602	-0.047963867	0.024500947	0	908.4505581428142
13.182567	0.0030199517	0.05	13.870663	5.052143	-0.030117861	-0.052603883	-0.03439189	-0.046600306	0.024283764	0	909.651979980033
13.182567	0.0033113112	0.05	13.797467	4.9414716	-0.028868085	-0.053362798	-0.033824068	-0.045244236	0.02408706	0	910.852901498703
13.182567	0.0036307805	0.05	13.730268	4.8325965	-0.027619308	-0.054166755	-0.0332462	-0.043895043	0.023908681	0	912.0533563352636
13.182567	0.0039810717	0.05	13.668606	4.7253388	-0.026371297	-0.055016975	-0.032661364	-0.042552163	0.023746682	0	913.2534188093341
13.182567	0.0043651583	0.05	13.612105	4.6195368	-0.025123781	-0.055914612	-0.032072563	-0.041215071	0.023599319	0	914.453202467387
13.182567	0.0047863009	0.05	13.560467	4.5150452	-0.023876443	-0.056860766	-0.031482645	-0.039883278	0.023465044	0	915.6528713575323
13.182567	0.0052480746	0.05	13.513473	4.4117342	-0.022628919	-0.057856496	-0.030894253	-0.038556317	0.0233425	0	916.8526433179967
13.182567	0.0057543994	0.05	13.470974	4.3094881	-0.0213808	-0.058902848	-0.030309794	-0.037233742	0.023230512	0	918.0527895543181
13.182567	0.0063095734	0.05	13.432889	4.208204	-0.020131627	-0.06000088	-0.02973143	-0.035915117	0.02312807	0	919.2536397599779
13.182567	0.0069183097	0.05	13.399194	4.10779	-0.018880899	-0.061151703	-0.029161098	-0.034600009	0.02303432	0	920.4555736603124
13.182567	0.0075857758	0.05	13.369907	4.0081645	-0.017628076	-0.062356519	-0.028600546	-0.033287989	0.022948544	0	921.6590165025993
13.182567	0.0083176377	0.05	13.345077	3.9092536	-0.016372595	-0.063616662	-0.028051373	-0.031978622	0.022870143	0	922.8644221438803
13.182567	0.0091201084	0.05	13.324756	3.8109903	-0.015113883	-0.064933651	-0.027515095	-0.030671468	0.022798614	0	924.0722577360478
13.182567	0.01	0.05	13.308973	3.7133128	-0.013851392	-0.066309231	-0.026993197	-0.029366084	0.022733535	0	925.2829683981865
13.182567	0.010964782	0.05	13.297693	3.6161631	-0.012584639	-0.067745409	-0.026487194	-0.028062025	0.022674535	0	926.496936768285
13.182567	0.012022644	0.05	13.29077	3.5194855	-0.011313266	-0.069244482	-0.025998671	-0.026758858	0.022621268	0	927.7144247501843
13.182567	0.013182567	0.05	13.287878	3.4232257	-0.010037122	-0.070809042	-0.025529313	-0.025456167	0.022573386	0	928.935495059872
13.182567	0.014454398	0.05	13.288434	3.3273301	-0.008756369	-0.07244195	-0.02508089	-0.024153585	0.022530505	0	930.1599123362278
13.182567	0.015848932	0.05	13.291498	3.2317451	-0.0074716226	-0.074146269	-0.024655211	-0.022850816	0.022492169	0	931.3870131991362
13.182567	0.017378008	0.05	13.295657	3.1364177	-0.0061841192	-0.075925137	-0.024254009	-0.021547679	0.022457814	0	932.6155545566609
13.182567	0.019054607	0.05	13.298891	3.041296	-0.0048959216	-0.077781571	-0.023878764	-0.020244161	0.022426729	0	933.843528745562
13.182567	0.020892961	0.05	13.298424	2.9463314	-0.0036101539	-0.079718215	-0.023530453	-0.018940481	0.022398009	0	935.0679545719623
13.182567	0.022908677	0.05	13.290574	2.8514803	-0.0023312607	-0.081737054	-0.023209279	-0.017637174	0.022370508	0	936.2846465071191
13.182567	0.025118864	0.05	13.270603	2.756705	-0.0010652706	-0.083839186	-0.02291445	-0.016335187	0.02234275	0	937.487977494151
13.182567	0.027542287	0.05	13.232605	2.6619726	0.00017997207	-0.086024818	-0.022644184	-0.015035989	0.022312805	0	938.6706609876685
13.182567	0.030199517	0.05	13.169485	2.567248	0.0013946961	-0.088293733	-0.022396174	-0.013741684	0.022278078	0	939.8236246761915
13.182567	0.033113112	0.05	13.073175	2.4724835	0.0025673795	-0.090646454	-0.022168765	-0.012455125	0.022235043	0	940.9361206461857
13.182567	0.036307805	0.05	12.935306	2.3776064	0.0036854936	-0.093086108	-0.021962816	-0.011179977	0.022179019	0	941.9963370391054
13.182567	0.039810717	0.05	12.748641	2.2825207	0.0047371509	-0.095620323	-0.021783599	-0.0099206873	0.022104209	0	942.9928571024266
13.182567	0.043651583	0.05	12.50939	2.1871374	0.0057138147	-0.098261624	-0.021641199	-0.0086822633	0.022004358	0	943.9171862727978
13.182567	0.047863009	0.05	12.220027	2.0914423	0.0066136169	-0.10102443	-0.021547508	-0.0074698015	0.021874171	0	944.7670106826318
13.182567	0.052480746	0.05	11.891565	1.9955704	0.0074441863	-0.10391846	-0.021509651	-0.0062877497	0.021711092	0	945.5491633679151
13.182567	0.057543994	0.05	11.544371	1.8998305	0.0082240545	-0.10694172	-0.021522917	-0.0051390185	0.021516545	0	946.2812772925054
13.182567	0.063095734	0.05	11.207765	1.8046516	0.0089829808	-0.11007742	-0.021567766	-0.0040240773	0.02129608	0	946.9922312188697
13.182567	0.069183097	0.05	10.919577	1.7104852	0.0097624918	-0.11329723	-0.021612996	-0.0029401038	0.021058852	0	947.7225079173747
13.182567	0.075857758	0.05	10.726464	1.6177272	0.010617448	-0.11656903	-0.021623528	-0.0018801397	0.020817374	0	948.525300363549
13.182567	0.083176377	0.05	10.68468	1.5266905	0.011618245	-0.11986638	-0.021569909	-0.00083218929	0.020588035	0	949.4681334748581
13.182567	0.091201084	0.05	10.860457	1.4376196	0.012852648	-0.12317784	-0.021437544	0.0002217477	0.020392263	0	950.6341540399717
13.182567	0.1	0.05	11.329356	1.3507227	0.014426439	-0.1265147	-0.021234523	0.0013066311	0.02025794	0	952.1223711065596
13.182567	0.10964782	0.05	12.174573	1.266203	0.016462759	-0.12991692	-0.020997493	0.0024552189	0.020220674	0	954.0467620788171
13.182567	0.12022644	0.05	13.484905	1.1842839	0.019100747	-0.13345651	-0.020795042	0.0037087149	0.020324806	0	956.5348349945667
13.182567	0.13182567	0.05	15.35354	1.1052298	0.022494768	-0.13723809	-0.020728293	0.0051172443	0.020624166	0	959.7268752757165
13.182567	0.14454398	0.05	17.87911	1.0293595	0.026815856	-0.1413963	-0.020928262	0.0067403142	0.021182738	0	963.7774256376435
13.182567	0.15848932	0.05	21.159538	0.95715526	0.032245702	-0.14609767	-0.021557754	0.0086472539	0.022076617	0	968.8495483515145
13.182567	0.17378008	0.05	25.347669	0.88901558	0.039035931	-0.15150717	-0.022777924	0.010918954	0.023392283	0	975.172090765824
13.182567	0.19054607	0.05	30.562452	0.82471338	0.047413445	-0.15773657	-0.0246966	0.013650328	0.025221465	0	982.9531765649904
13.182567	0.20892961	0.05	36.958798	0.76445606	0.057657995	-0.16492526	-0.027449117	0.016949481	0.027675178	0	992.4492922914084
13.182567	0.22908677	0.05	44.703481	0.70839911	0.070076584	-0.17318863	-0.031146685	0.020940355	0.030879546	0	1003.9436628730961
13.182567	0.25118864	0.05	53.963004	0.65663585	0.084990667	-0.18260773	-0.035866052	0.025763356	0.034976283	0	1017.7347108015634
13.182567	0.27542287	0.05	64.884676	0.60918834	0.10271464	-0.19321994	-0.041640182	0.031574448	0.040121662	0	1034.1162830729793
13.182567	0.30199517	0.05	77.573925	0.56600087	0.12352839	-0.20501255	-0.048451807	0.03854217	0.046483443	0	1053.352163035182
13.182567	0.33113112	0.05	92.073319	0.52693832	0.14764972	-0.21792145	-0.056232121	0.046842463	0.054235669	0	1075.6502232267715
13.182567	0.36307805	0.05	108.34961	0.49179145	0.17521395	-0.23183647	-0.06486612	0.056651783	0.063551861	0	1101.1430083195855
13.182567	0.39810717	0.05	126.29313	0.46028996	0.20626629	-0.24661304	-0.074204267	0.068139532	0.074597629	0	1129.880021052284
13.182567	0.43651583	0.05	145.7298	0.43212137	0.2407684	-0.26208785	-0.08407812	0.081461064	0.087523941	0	1161.8331516026828
13.182567	0.47863009	0.05	166.44196	0.40695202	0.278616	-0.27809506	-0.094316562	0.096752338	0.10246208	0	1196.9124608762836
13.182567	0.52480746	0.05	188.19201	0.38444618	0.31966168	-0.29448012	-0.10475961	0.11412681	0.11952078	0	1234.9869632690124
13.182567	0.57543994	0.05	210.74383	0.36428097	0.36373726	-0.31110948	-0.11526811	0.13367457	0.13878561	0	1275.9051798941414
13.182567	0.63095734	0.05	233.8788	0.34615607	0.41067208	-0.32787594	-0.12572911	0.15546329	0.16032003	0	1319.5120708183108
13.182567	0.69183097	0.05	257.40571	0.32979911	0.46030594	-0.34470027	-0.13605741	0.17954053	0.18416777	0	1365.661120220842
13.182567	0.75857758	0.05	281.16533	0.31496773	0.51249678	-0.36153009	-0.14619453	0.20593662	0.21035578	0	1414.221600737196
13.182567	0.83176377	0.05	305.03104	0.3014495	0.56712445	-0.3783372	-0.15610594	0.23466793	0.23889741	0	1465.0822457501486
13.182567	0.91201084	0.05	328.90696	0.28906045	0.62409166	-0.39511387	-0.16577744	0.26573989	0.26979556	0	1518.1523120381955
13.182567	1.	0.05	352.72477	0.27764292	0.68332323	-0.41186903	-0.17521124	0.29914997	0.30304544	0	1573.3610592563537
13.182567	1.0964782	0.05	376.43993	0.26706288	0.74476447	-0.42862439	-0.18442216	0.33489009	0.33863712	0	1630.6564063577066
13.182567	1.2022644	0.05	400.02796	0.25720717	0.8083791	-0.44541109	-0.19343421	0.37294886	0.3765576	0	1690.0031379631537
13.182567	1.3182567	0.05	423.48087	0.24798073	0.87414714	-0.46226666	-0.20227762	0.41331328	0.41679258	0	1751.3810614039755
13.182567	1.4454398	0.05	446.80404	0.23930397	0.94206295	-0.47923265	-0.21098637	0.45597029	0.45932785	0	1814.7832812100683
13.182567	1.5848932	0.05	470.01348	0.23111037	1.0121333	-0.49635269	-0.21959631	0.50090788	0.50415047	0	1880.2144740679619
13.182567	1.7378008	0.05	493.13358	0.22334439	1.0843761	-0.51367106	-0.2281437	0.54811602	0.55124966	0	1947.6897641610951
13.182567	1.9054607	0.05	516.19514	0.21595961	1.1588184	-0.53123165	-0.23666416	0.59758743	0.60061745	0	2017.232893366297
13.182567	2.0892961	0.05	539.23381	0.20891716	1.2354961	-0.54907731	-0.24519203	0.64931809	0.6522493	0	2088.875978845927
13.182567	2.2908677	0.05	562.28885	0.20218441	1.314452	-0.56724941	-0.25375987	0.70330764	0.70614438	0	2162.6577043845746
13.182567	2.5118864	0.05	585.40206	0.19573384	1.3957359	-0.58578764	-0.26239835	0.75955972	0.76230596	0	2238.6234195132065
13.182567	2.7542287	0.05	608.61697	0.18954218	1.4794033	-0.60472997	-0.27113608	0.81808216	0.82074153	0	2316.8239260605137
13.182567	3.0199517	0.05	631.97822	0.18358959	1.5655154	-0.62411267	-0.27999972	0.87888711	0.88146296	0	2397.315472985304
13.182567	3.3113112	0.05	655.53106	0.1778591	1.6541379	-0.64397044	-0.28901406	0.94199113	0.94448658	0	2480.158625139824
13.182567	3.6307805	0.05	679.32096	0.17233606	1.7453415	-0.66433657	-0.29820217	1.0074152	1.0098332	0	2565.418726005684
13.182567	3.9810717	0.05	703.39333	0.16700777	1.8392011	-0.68524313	-0.30758558	1.0751849	1.0775281	0	2653.1651375855017
13.182567	4.3651583	0.05	727.79335	0.16186311	1.9357956	-0.70672113	-0.31718443	1.14533	1.147601	0	2743.4710454430847
13.182567	4.7863009	0.05	752.56579	0.15689228	2.035208	-0.7288007	-0.32701767	1.2178848	1.2200861	0	2836.4135432643134
13.182567	5.2480746	0.05	777.75498	0.15208657	2.137525	-0.75151133	-0.33710322	1.2928881	1.295022	0	2932.073249514478
13.182567	5.7543994	0.05	803.40469	0.14743818	2.242837	-0.77488196	-0.34745815	1.3703829	1.3724515	0	3030.5342989821947
13.182567	6.3095734	0.05	829.55817	0.14294008	2.3512383	-0.79894121	-0.35809879	1.4504164	1.4524219	0	3131.8845255248584
13.182567	6.9183097	0.05	856.25817	0.13858587	2.4628264	-0.82371745	-0.36904087	1.53304	1.5349845	0	3236.214797795947
13.182567	7.5857758	0.05	883.54693	0.1343697	2.5777029	-0.84923901	-0.38029967	1.6183096	1.6201949	0	3343.619857807093
13.182567	8.3176377	0.05	911.46623	0.13028618	2.6959727	-0.87553425	-0.39189011	1.7062847	1.7081127	0	3454.1975650477602
13.182567	9.1201084	0.05	940.05749	0.12633031	2.8177445	-0.90263168	-0.40382685	1.7970294	1.7988018	0	3568.049361570092
13.182567	10.	0.05	969.36179	0.12249741	2.9431306	-0.93056007	-0.41612435	1.8906113	1.89233	0	3685.2800812571463