14.454398	1.e-12	0.44	3.4259869e9	9.4816328e8	-0.37838556	-0.0050554075	-0.0050554075	-3.6463533e6	1.0940316e7	0	581.9574391681167
14.454398	1.0964782e-12	0.44	3.1245372e9	8.6473521e8	-0.37696863	-0.0050554071	-0.0050554071	-3.3255138e6	9.9776871e6	0	583.2887376648557
14.454398	1.2022644e-12	0.44	2.8496118e9	7.8864787e8	-0.3755517	-0.0050554074	-0.0050554074	-3.0329047e6	9.0997587e6	0	584.6200358722087
14.454398	1.3182567e-12	0.44	2.5988768e9	7.1925541e8	-0.37413477	-0.0050554075	-0.0050554075	-2.766042e6	8.2990785e6	0	585.9513341622433
14.454398	1.4454398e-12	0.44	2.3702038e9	6.5596874e8	-0.37271784	-0.0050554072	-0.0050554072	-2.5226603e6	7.5688497e6	0	587.2826326176414
14.454398	1.5848932e-12	0.44	2.1616516e9	5.9825061e8	-0.37130091	-0.0050554071	-0.005055407	-2.3006936e6	6.902873e6	0	588.6139310316986
14.454398	1.7378008e-12	0.44	1.9714497e9	5.4561104e8	-0.36988398	-0.0050554072	-0.0050554071	-2.0982575e6	6.295495e6	0	589.9452293217332
14.454398	1.9054607e-12	0.44	1.7979835e9	4.9760318e8	-0.36846705	-0.0050554074	-0.0050554073	-1.9136336e6	5.7415596e6	0	591.276527570427
14.454398	2.0892961e-12	0.44	1.6397804e9	4.538195e8	-0.36705012	-0.0050554072	-0.0050554071	-1.7452546e6	5.2363646e6	0	592.6078259844842
14.454398	2.2908677e-12	0.44	1.4954975e9	4.138883e8	-0.36563319	-0.0050554073	-0.0050554072	-1.5916912e6	4.7756213e6	0	593.9391242745187
14.454398	2.5118864e-12	0.44	1.36391e9	3.7747062e8	-0.36421625	-0.005055407	-0.0050554069	-1.4516397e6	4.3554184e6	0	595.2704321255704
14.454398	2.7542287e-12	0.44	1.2439007e9	3.442573e8	-0.36279932	-0.0050554074	-0.0050554073	-1.3239111e6	3.9721888e6	0	596.6017302915826
14.454398	3.0199517e-12	0.44	1.1344509e9	3.1396639e8	-0.36138239	-0.0050554075	-0.0050554074	-1.2074213e6	3.6226792e6	0	597.9330285816171
14.454398	3.3113112e-12	0.44	1.0346315e9	2.8634076e8	-0.35996546	-0.0050554072	-0.0050554071	-1.1011814e6	3.3039227e6	0	599.2643270370153
14.454398	3.6307805e-12	0.44	9.4359516e8	2.6114588e8	-0.35854853	-0.0050554071	-0.0050554069	-1.0042894e6	3.0132134e6	0	600.5956254510726
14.454398	3.9810717e-12	0.44	8.6056902e8	2.3816787e8	-0.3571316	-0.0050554071	-0.0050554069	-915922.83	2.7480832e6	0	601.9269237824481
14.454398	4.3651583e-12	0.44	7.8484827e8	2.1721168e8	-0.35571467	-0.0050554073	-0.0050554071	-835331.58	2.5062817e6	0	603.2582220311417
14.454398	4.7863009e-12	0.44	7.1579013e8	1.9809941e8	-0.35429774	-0.0050554072	-0.0050554069	-761831.49	2.2857561e6	0	604.589520445199
14.454398	5.2480746e-12	0.44	6.5280836e8	1.8066881e8	-0.35288081	-0.0050554073	-0.005055407	-694798.6	2.0846343e6	0	605.9208187352335
14.454398	5.7543994e-12	0.44	5.9536829e8	1.6477192e8	-0.35146388	-0.0050554075	-0.0050554072	-633663.88	1.9012091e6	0	607.2521169839272
14.454398	6.3095734e-12	0.44	5.4298234e8	1.5027378e8	-0.35004694	-0.0050554073	-0.005055407	-577908.36	1.7339233e6	0	608.5834247936382
14.454398	6.9183097e-12	0.44	4.9520578e8	1.3705131e8	-0.34863001	-0.0050554074	-0.0050554071	-527058.72	1.5813568e6	0	609.9147230836729
14.454398	7.5857758e-12	0.44	4.5163305e8	1.2499229e8	-0.34721308	-0.0050554071	-0.0050554067	-480683.3	1.4422146e6	0	611.2460215804119
14.454398	8.3176377e-12	0.44	4.1189423e8	1.1399432e8	-0.34579615	-0.0050554075	-0.0050554071	-438388.41	1.3153153e6	0	612.5773197464238
14.454398	9.1201084e-12	0.44	3.75652e8	1.0396406e8	-0.34437922	-0.0050554076	-0.0050554071	-399815.01	1.1995818e6	0	613.9086180777992
14.454398	1.e-11	0.44	3.425987e8	9.4816352e7	-0.34296229	-0.0050554073	-0.0050554068	-364635.66	1.0940317e6	0	615.2399165331974
14.454398	1.0964782e-11	0.44	3.1245373e8	8.6473543e7	-0.34154536	-0.0050554071	-0.0050554066	-332551.7	997768.73	0	616.5712149472546
14.454398	1.2022644e-11	0.44	2.8496119e8	7.886481e7	-0.34012843	-0.0050554072	-0.0050554066	-303290.79	909975.9	0	617.9025132786301
14.454398	1.3182567e-11	0.44	2.598877e8	7.1925563e7	-0.3387115	-0.0050554074	-0.0050554068	-276604.51	829907.88	0	619.233811527324
14.454398	1.4454398e-11	0.44	2.370204e8	6.5596896e7	-0.33729457	-0.0050554073	-0.0050554065	-252266.35	756884.99	0	620.5651099827219
14.454398	1.5848932e-11	0.44	2.1616517e8	5.9825082e7	-0.33587764	-0.0050554074	-0.0050554066	-230069.67	690287.31	0	621.8964082727566
14.454398	1.7378008e-11	0.44	1.9714498e8	5.4561126e7	-0.3344607	-0.0050554071	-0.0050554062	-209826.07	629549.52	0	623.2277161651492
14.454398	1.9054607e-11	0.44	1.7979836e8	4.976034e7	-0.33304377	-0.0050554075	-0.0050554065	-191363.67	574155.98	0	624.5590143725021
14.454398	2.0892961e-11	0.44	1.6397805e8	4.5381971e7	-0.33162684	-0.0050554075	-0.0050554065	-174525.77	523636.48	0	625.8903127038775
14.454398	2.2908677e-11	0.44	1.4954977e8	4.1388852e7	-0.33020991	-0.0050554072	-0.005055406	-159169.43	477562.15	0	627.2216112419574
14.454398	2.5118864e-11	0.44	1.3639101e8	3.7747084e7	-0.32879298	-0.0050554071	-0.0050554058	-145164.27	435541.86	0	628.5529096560147
14.454398	2.7542287e-11	0.44	1.2439008e8	3.4425751e7	-0.32737605	-0.0050554072	-0.0050554058	-132391.42	397218.9	0	629.88420798739
14.454398	3.0199517e-11	0.44	1.134451e8	3.139666e7	-0.32595912	-0.0050554074	-0.0050554058	-120742.44	362267.94	0	631.2155063187656
14.454398	3.3113112e-11	0.44	1.0346316e8	2.8634097e7	-0.32454219	-0.0050554072	-0.0050554055	-110118.44	330392.29	0	632.5468047741638
14.454398	3.6307805e-11	0.44	9.4359528e7	2.6114608e7	-0.32312526	-0.0050554073	-0.0050554055	-100429.24	301321.35	0	633.8781031055391
14.454398	3.9810717e-11	0.44	8.6056915e7	2.3816808e7	-0.32170833	-0.005055407	-0.005055405	-91592.585	274808.35	0	635.209401643619
14.454398	4.3651583e-11	0.44	7.8484839e7	2.1721189e7	-0.32029139	-0.0050554074	-0.0050554052	-83533.458	250628.19	0	636.5407092879664
14.454398	4.7863009e-11	0.44	7.1579025e7	1.9809962e7	-0.31887446	-0.0050554075	-0.0050554051	-76183.447	228575.63	0	637.8720076606828
14.454398	5.2480746e-11	0.44	6.5280849e7	1.8066902e7	-0.31745753	-0.0050554072	-0.0050554045	-69480.159	208463.45	0	639.2033062401035
14.454398	5.7543994e-11	0.44	5.9536843e7	1.6477212e7	-0.3160406	-0.0050554071	-0.0050554041	-63366.686	190120.93	0	640.5346047368425
14.454398	6.3095734e-11	0.44	5.4298248e7	1.5027398e7	-0.31462367	-0.0050554072	-0.0050554039	-57791.132	173392.35	0	641.8659031508998
14.454398	6.9183097e-11	0.44	4.9520591e7	1.3705152e7	-0.31320674	-0.0050554074	-0.0050554038	-52706.167	158135.71	0	643.1972015236161
14.454398	7.5857758e-11	0.44	4.5163317e7	1.2499249e7	-0.31178981	-0.0050554072	-0.0050554033	-48068.623	144221.48	0	644.5285000616959
14.454398	8.3176377e-11	0.44	4.1189436e7	1.1399453e7	-0.31037288	-0.0050554073	-0.005055403	-43839.133	131531.55	0	645.8597985170941
14.454398	9.1201084e-11	0.44	3.7565214e7	1.0396426e7	-0.30895595	-0.005055407	-0.0050554023	-39981.792	119958.21	0	647.1910971378558
14.454398	1.e-10	0.44	3.4259883e7	9.4816552e6	-0.30753902	-0.0050554074	-0.0050554023	-36463.855	109403.19	0	648.5223954692312
14.454398	1.0964782e-10	0.44	3.1245386e7	8.6473742e6	-0.30612209	-0.0050554075	-0.0050554019	-33255.458	99776.893	0	649.8536939659703
14.454398	1.2022644e-10	0.44	2.8496132e7	7.886501e6	-0.30470515	-0.0050554072	-0.005055401	-30329.365	90997.61	0	651.1850020650672
14.454398	1.3182567e-10	0.44	2.5988783e7	7.1925763e6	-0.30328822	-0.0050554071	-0.0050554003	-27660.737	82990.809	0	652.5163006858288
14.454398	1.4454398e-10	0.44	2.3702053e7	6.5597094e6	-0.30187129	-0.0050554073	-0.0050553998	-25226.919	75688.52	0	653.8475992239087
14.454398	1.5848932e-10	0.44	2.161653e7	5.9825279e6	-0.30045436	-0.0050554075	-0.0050553993	-23007.25	69028.752	0	655.1788977619885
14.454398	1.7378008e-10	0.44	1.9714511e7	5.4561322e6	-0.29903743	-0.0050554073	-0.0050553984	-20982.888	62954.972	0	656.5101964654319
14.454398	1.9054607e-10	0.44	1.7979849e7	4.9760535e6	-0.2976205	-0.0050554074	-0.0050553976	-19136.648	57415.619	0	657.8414951275342
14.454398	2.0892961e-10	0.44	1.6397819e7	4.5382166e6	-0.29620357	-0.0050554071	-0.0050553963	-17452.856	52363.669	0	659.1727939963412
14.454398	2.2908677e-10	0.44	1.495499e7	4.1389046e6	-0.29478664	-0.0050554071	-0.0050553952	-15917.221	47756.236	0	660.5040927824664
14.454398	2.5118864e-10	0.44	1.3639114e7	3.7747277e6	-0.29336971	-0.0050554072	-0.0050553942	-14516.704	43554.207	0	661.8353915272507
14.454398	2.7542287e-10	0.44	1.2439021e7	3.4425943e6	-0.29195278	-0.0050554074	-0.0050553931	-13239.417	39721.91	0	663.1666903133757
14.454398	3.0199517e-10	0.44	1.1344523e7	3.1396852e6	-0.29053584	-0.0050554073	-0.0050553917	-12074.518	36226.815	0	664.4979986191771
14.454398	3.3113112e-10	0.44	1.0346329e7	2.8634287e6	-0.28911891	-0.0050554075	-0.0050553904	-11012.117	33039.25	0	665.8292974879839
14.454398	3.6307805e-10	0.44	9.4359659e6	2.6114798e6	-0.28770198	-0.0050554072	-0.0050553884	-10043.195	30132.156	0	667.1605966461769
14.454398	3.9810717e-10	0.44	8.6057043e6	2.3816997e6	-0.28628505	-0.0050554076	-0.005055387	-9159.5283	27480.855	0	668.4918955563246
14.454398	4.3651583e-10	0.44	7.848497e6	2.1721377e6	-0.28486812	-0.0050554073	-0.0050553847	-8353.6146	25062.84	0	669.8231948385403
14.454398	4.7863009e-10	0.44	7.1579156e6	1.9810149e6	-0.28345119	-0.0050554075	-0.0050553828	-7618.6122	22857.583	0	671.1544939553924
14.454398	5.2480746e-10	0.44	6.5280979e6	1.8067088e6	-0.28203426	-0.0050554074	-0.0050553803	-6948.282	20846.366	0	672.4857933202899
14.454398	5.7543994e-10	0.44	5.9536973e6	1.6477398e6	-0.28061733	-0.0050554076	-0.0050553779	-6336.9334	19012.114	0	673.8170926438463
14.454398	6.3095734e-10	0.44	5.4298378e6	1.5027583e6	-0.2792004	-0.0050554075	-0.0050553749	-5779.3768	17339.256	0	675.1483922154481
14.454398	6.9183097e-10	0.44	4.9520722e6	1.3705336e6	-0.27778347	-0.0050554073	-0.0050553716	-5270.879	15813.591	0	676.4796919110726
14.454398	7.5857758e-10	0.44	4.5163447e6	1.2499432e6	-0.27636654	-0.0050554075	-0.0050553683	-4807.1233	14422.169	0	677.8109916066969
14.454398	8.3176377e-10	0.44	4.1189567e6	1.1399635e6	-0.27494961	-0.0050554074	-0.0050553644	-4384.1731	13153.176	0	679.1422915503665
14.454398	9.1201084e-10	0.44	3.7565343e6	1.0396608e6	-0.27353267	-0.0050554079	-0.0050553607	-3998.4376	11995.841	0	680.4736008070079
14.454398	1.e-9	0.44	3.4260013e6	948183.59	-0.27211574	-0.0050554076	-0.0050553559	-3646.6427	10940.339	0	681.8049011227454
14.454398	1.0964782e-9	0.44	3.1245516e6	864755.4	-0.27069881	-0.005055408	-0.0050553513	-3325.8017	9977.7099	0	683.1362013558012
14.454398	1.2022644e-9	0.44	2.8496262e6	788667.99	-0.26928188	-0.0050554077	-0.0050553455	-3033.1912	9099.7816	0	684.4675020849475
14.454398	1.3182567e-9	0.44	2.5988913e6	719275.44	-0.26786495	-0.0050554077	-0.0050553396	-2766.3271	8299.1015	0	685.7988028554346
14.454398	1.4454398e-9	0.44	2.3702183e6	655988.66	-0.26644802	-0.0050554078	-0.0050553331	-2522.944	7568.8725	0	687.1301038739671
14.454398	1.5848932e-9	0.44	2.1616661e6	598270.44	-0.26503109	-0.0050554077	-0.0050553258	-2300.9758	6902.8959	0	688.4614052232264
14.454398	1.7378008e-9	0.44	1.9714641e6	545630.77	-0.26361416	-0.0050554083	-0.0050553185	-2098.5383	6295.5178	0	689.7927065724859
14.454398	1.9054607e-9	0.44	1.7979979e6	497622.83	-0.26219723	-0.005055408	-0.0050553095	-1913.913	5741.5825	0	691.1240086245402
14.454398	2.0892961e-9	0.44	1.6397949e6	453839.06	-0.2607803	-0.0050554078	-0.0050552999	-1745.5327	5236.3875	0	692.4553109246397
14.454398	2.2908677e-9	0.44	1.495512e6	413907.77	-0.25936337	-0.005055408	-0.0050552896	-1591.9678	4775.6442	0	693.7866135141253
14.454398	2.5118864e-9	0.44	1.3639244e6	377489.99	-0.25794644	-0.0050554082	-0.0050552784	-1451.9148	4355.4413	0	695.1179164756788
14.454398	2.7542287e-9	0.44	1.2439151e6	344276.58	-0.2565295	-0.0050554083	-0.005055266	-1324.1849	3972.2117	0	696.4492293289763
14.454398	3.0199517e-9	0.44	1.1344653e6	313985.58	-0.25511257	-0.0050554085	-0.0050552525	-1207.6937	3622.7021	0	697.7805332413702
14.454398	3.3113112e-9	0.44	1.034646e6	286359.85	-0.25369564	-0.0050554084	-0.0050552373	-1101.4523	3303.9456	0	699.1118378565586
14.454398	3.6307805e-9	0.44	943609.6	261164.88	-0.25227871	-0.0050554086	-0.005055221	-1004.5589	3013.2362	0	700.4431429264969
14.454398	3.9810717e-9	0.44	860583.45	238186.78	-0.25086178	-0.0050554088	-0.0050552031	-916.19092	2748.1061	0	701.7744486578891
14.454398	4.3651583e-9	0.44	784862.71	217230.5	-0.24944485	-0.0050554089	-0.0050551833	-835.59826	2506.3046	0	703.1057551747579
14.454398	4.7863009e-9	0.44	715804.56	198118.14	-0.24802792	-0.0050554092	-0.0050551618	-762.09675	2285.7789	0	704.4370623944217
14.454398	5.2480746e-9	0.44	652822.8	180687.45	-0.24661099	-0.0050554092	-0.005055138	-695.06245	2084.6572	0	705.7683705649255
14.454398	5.7543994e-9	0.44	595382.74	164790.46	-0.24519406	-0.0050554094	-0.0050551121	-633.92632	1901.232	0	707.0996796035877
14.454398	6.3095734e-9	0.44	542996.79	150292.23	-0.24377713	-0.0050554094	-0.0050550833	-578.16939	1733.9462	0	708.4309898411352
14.454398	6.9183097e-9	0.44	495220.23	137069.68	-0.2423602	-0.0050554097	-0.0050550522	-527.31833	1581.3797	0	709.762301029523
14.454398	7.5857758e-9	0.44	451647.48	125010.56	-0.24094327	-0.0050554101	-0.0050550181	-480.94149	1442.2375	0	711.093613458137
14.454398	8.3176377e-9	0.44	411908.67	114012.5	-0.23952634	-0.0050554104	-0.0050549806	-438.64518	1315.3382	0	712.4249272923407
14.454398	9.1201084e-9	0.44	375666.44	103982.15	-0.23810941	-0.005055411	-0.0050549397	-400.07037	1199.6047	0	713.7562425321344
14.454398	1.e-8	0.44	342613.15	94834.346	-0.23669248	-0.0050554107	-0.0050548939	-364.8896	1094.0545	0	715.0875597976309
14.454398	1.0964782e-8	0.44	312468.17	86491.444	-0.23527555	-0.0050554113	-0.0050548447	-332.80423	997.79161	0	716.4188784687171
14.454398	1.2022644e-8	0.44	284975.63	78882.62	-0.23385862	-0.0050554118	-0.0050547905	-303.5419	909.99878	0	717.7501992068469
14.454398	1.3182567e-8	0.44	259902.14	71943.282	-0.23244169	-0.005055412	-0.0050547308	-276.85421	829.93077	0	719.081522218725
14.454398	1.4454398e-8	0.44	237034.84	65614.522	-0.23102476	-0.0050554126	-0.0050546657	-252.51462	756.90787	0	720.4128474630106
14.454398	1.5848932e-8	0.44	216179.61	59842.617	-0.22960783	-0.005055413	-0.005054594	-230.31654	690.3102	0	721.7441754357937
14.454398	1.7378008e-8	0.44	197159.42	54578.567	-0.2281909	-0.0050554138	-0.0050545158	-210.07151	629.5724	0	723.0755060957338
14.454398	1.9054607e-8	0.44	179812.8	49777.69	-0.22677397	-0.0050554146	-0.00505443	-191.6077	574.17887	0	724.4068398975803
14.454398	2.0892961e-8	0.44	163992.5	45399.229	-0.22535704	-0.0050554153	-0.0050543356	-174.76839	523.65937	0	725.7381772547421
14.454398	2.2908677e-8	0.44	149564.21	41406.018	-0.22394012	-0.0050554158	-0.0050542319	-159.41063	477.58504	0	727.069509060952
14.454398	2.5118864e-8	0.44	136405.45	37764.157	-0.22252319	-0.0050554168	-0.0050541187	-145.40406	435.56474	0	728.4008541901985
14.454398	2.7542287e-8	0.44	124404.52	34442.733	-0.22110626	-0.0050554176	-0.0050539943	-132.62979	397.24178	0	729.7322039496229
14.454398	3.0199517e-8	0.44	113459.54	31413.551	-0.21968933	-0.0050554184	-0.0050538578	-120.97939	362.29083	0	731.0635587112932
14.454398	3.3113112e-8	0.44	103477.6	28650.895	-0.2182724	-0.0050554198	-0.0050537087	-110.35398	330.41518	0	732.394918681914
14.454398	3.6307805e-8	0.44	94373.969	26131.315	-0.21685548	-0.0050554206	-0.0050535444	-100.66336	301.34424	0	733.7262755406944
14.454398	3.9810717e-8	0.44	86071.354	23833.422	-0.21543855	-0.0050554223	-0.005053365	-91.825291	274.83123	0	735.0576480376003
14.454398	4.3651583e-8	0.44	78499.28	21737.711	-0.21402162	-0.0050554236	-0.0050531678	-83.76475	250.65108	0	736.3890278931821
14.454398	4.7863009e-8	0.44	71593.466	19826.392	-0.2126047	-0.0050554251	-0.0050529517	-76.413324	228.59851	0	737.7204061665359
14.454398	5.2480746e-8	0.44	65295.289	18083.24	-0.21118777	-0.0050554269	-0.0050527149	-69.708619	208.48634	0	739.0518023931043
14.454398	5.7543994e-8	0.44	59551.283	16493.458	-0.20977085	-0.0050554292	-0.0050524555	-63.59373	190.14382	0	740.3831985670572
14.454398	6.3095734e-8	0.44	54312.688	15043.552	-0.20835392	-0.0050554307	-0.0050521702	-58.016762	173.41524	0	741.7146148439501
14.454398	6.9183097e-8	0.44	49535.032	13721.214	-0.206937	-0.0050554333	-0.0050518582	-52.930381	158.15859	0	743.0460327632034
14.454398	7.5857758e-8	0.44	45177.759	12515.219	-0.20552008	-0.0050554354	-0.0050515153	-48.291422	144.24437	0	744.377463456787
14.454398	8.3176377e-8	0.44	41203.877	11415.331	-0.20410315	-0.0050554382	-0.00505114	-44.060516	131.55444	0	745.708916940468
14.454398	9.1201084e-8	0.44	37579.654	10412.212	-0.20268623	-0.0050554419	-0.005050729	-40.201759	119.98109	0	747.0403757871879
14.454398	1.e-7	0.44	34274.324	9497.3494	-0.20126931	-0.0050554447	-0.0050502771	-36.682406	109.42607	0	748.3718515423257
14.454398	1.0964782e-7	0.44	31259.827	8662.9763	-0.19985239	-0.0050554486	-0.0050497824	-33.472594	99.799781	0	749.7033449913584
14.454398	1.2022644e-7	0.44	28510.573	7902.011	-0.19843547	-0.0050554526	-0.0050492398	-30.545085	91.020499	0	751.0348582426703
14.454398	1.3182567e-7	0.44	26003.224	7207.9943	-0.19701856	-0.0050554568	-0.0050486446	-27.875041	83.013698	0	752.3663838436291
14.454398	1.4454398e-7	0.44	23716.494	6575.0355	-0.19560164	-0.0050554615	-0.005047992	-25.439808	75.711409	0	753.697942569904
14.454398	1.5848932e-7	0.44	21630.972	5997.7621	-0.19418473	-0.0050554666	-0.0050472765	-23.218723	69.051643	0	755.029517903936
14.454398	1.7378008e-7	0.44	19728.953	5471.2743	-0.19276781	-0.0050554725	-0.0050464922	-21.192945	62.977863	0	756.3611310761438
14.454398	1.9054607e-7	0.44	17994.291	4991.1037	-0.1913509	-0.0050554789	-0.0050456322	-19.34529	57.43851	0	757.6927661477407
14.454398	2.0892961e-7	0.44	16412.261	4553.1747	-0.18993399	-0.0050554859	-0.0050446892	-17.660083	52.38656	0	759.0244355322643
14.454398	2.2908677e-7	0.44	14969.432	4153.7707	-0.18851709	-0.0050554932	-0.0050436549	-16.123031	47.779128	0	760.3561332653535
14.454398	2.5118864e-7	0.44	13653.556	3789.5018	-0.18710018	-0.0050555018	-0.0050425214	-14.721098	43.577099	0	761.6878814042446
14.454398	2.7542287e-7	0.44	12453.464	3457.2765	-0.18568328	-0.0050555108	-0.005041278	-13.442396	39.744804	0	763.0196655811044
14.454398	3.0199517e-7	0.44	11358.966	3154.2754	-0.18426638	-0.0050555205	-0.0050399146	-12.276081	36.24971	0	764.3514993670146
14.454398	3.3113112e-7	0.44	10360.773	2877.927	-0.18284948	-0.0050555317	-0.0050384202	-11.212264	33.062146	0	765.6833873094715
14.454398	3.6307805e-7	0.44	9450.4094	2625.8861	-0.18143259	-0.0050555439	-0.0050367815	-10.241927	30.155053	0	767.0153255111582
14.454398	3.9810717e-7	0.44	8620.1484	2396.014	-0.1800157	-0.0050555569	-0.0050349843	-9.356844	27.503753	0	768.3473292381325
14.454398	4.3651583e-7	0.44	7862.9413	2186.3601	-0.17859881	-0.0050555714	-0.005033014	-8.5495142	25.085739	0	769.679404526162
14.454398	4.7863009e-7	0.44	7172.3604	1995.1453	-0.17718193	-0.0050555871	-0.0050308534	-7.8130959	22.880484	0	771.011549090224
14.454398	5.2480746e-7	0.44	6542.543	1820.7473	-0.17576506	-0.0050556048	-0.0050284849	-7.1413496	20.869268	0	772.3437702063121
14.454398	5.7543994e-7	0.44	5968.143	1661.6863	-0.17434818	-0.0050556235	-0.0050258871	-6.5285851	19.035017	0	773.6760955126813
14.454398	6.3095734e-7	0.44	5444.284	1516.6129	-0.17293132	-0.0050556445	-0.0050230391	-5.9696123	17.362161	0	775.0085054626138
14.454398	6.9183097e-7	0.44	4966.5191	1384.2963	-0.17151446	-0.0050556673	-0.0050199163	-5.4596984	15.836499	0	776.3410290172717
14.454398	7.5857758e-7	0.44	4530.7923	1263.614	-0.17009761	-0.0050556924	-0.0050164921	-4.9945265	14.445079	0	777.6736677776746
14.454398	8.3176377e-7	0.44	4133.4049	1153.5424	-0.16868076	-0.00505572	-0.0050127378	-4.5701599	13.176088	0	779.0064430043074
14.454398	9.1201084e-7	0.44	3770.9835	1053.1477	-0.16726393	-0.0050557502	-0.0050086212	-4.1830081	12.018756	0	780.3393492176244
14.454398	1.e-6	0.44	3440.4513	961.57868	-0.1658471	-0.0050557836	-0.0050041077	-3.8297967	10.963257	0	781.6724195128761
14.454398	1.0964782e-6	0.44	3139.0026	878.05863	-0.16443028	-0.0050558196	-0.0049991581	-3.5075392	10.000631	0	783.005660700032
14.454398	1.2022644e-6	0.44	2864.0783	801.87935	-0.16301348	-0.0050558597	-0.0049937316	-3.213512	9.1227062	0	784.3390802505155
14.454398	1.3182567e-6	0.44	2613.3445	732.39496	-0.16159668	-0.005055903	-0.004987781	-2.9452311	8.3220299	0	785.6727164685274
14.454398	1.4454398e-6	0.44	2384.6727	669.01635	-0.1601799	-0.0050559515	-0.0049812571	-2.7004311	7.591805	0	787.0065709024705
14.454398	1.5848932e-6	0.44	2176.1219	611.20631	-0.15876313	-0.0050560039	-0.0049741032	-2.477046	6.9258329	0	788.3406763882751
14.454398	1.7378008e-6	0.44	1985.9216	558.47487	-0.15734638	-0.0050560612	-0.004966259	-2.2731914	6.31846	0	789.6750484588357
14.454398	1.9054607e-6	0.44	1812.457	510.37515	-0.15592965	-0.0050561244	-0.0049576583	-2.0871488	5.7645302	0	791.0097144818117
14.454398	2.0892961e-6	0.44	1654.2558	466.49963	-0.15451294	-0.0050561939	-0.004948228	-1.9173509	5.2593412	0	792.344704677383
14.454398	2.2908677e-6	0.44	1509.9749	426.47663	-0.15309624	-0.0050562698	-0.0049378877	-1.7623684	4.7986046	0	793.6800616792672
14.454398	2.5118864e-6	0.44	1378.3896	389.96716	-0.15167957	-0.0050563533	-0.00492655	-1.6208975	4.3784089	0	795.0158028280819
14.454398	2.7542287e-6	0.44	1258.3827	356.66209	-0.15026293	-0.0050564444	-0.0049141181	-1.4917495	3.9951873	0	796.3519681417947
14.454398	3.0199517e-6	0.44	1148.9356	326.27946	-0.14884631	-0.0050565447	-0.0049004874	-1.3738399	3.6456865	0	797.6886102586147
14.454398	3.3113112e-6	0.44	1049.1192	298.56214	-0.14742972	-0.0050566542	-0.0048855411	-1.2661799	3.3269396	0	799.0257680690312
14.454398	3.6307805e-6	0.44	958.08603	273.27562	-0.14601317	-0.0050567748	-0.0048691535	-1.1678676	3.0362408	0	800.3634841428707
14.454398	3.9810717e-6	0.44	875.0634	250.20602	-0.14459665	-0.0050569072	-0.0048511851	-1.0780803	2.7711222	0	801.7018255463082
14.454398	4.3651583e-6	0.44	799.34652	229.15828	-0.14318017	-0.0050570518	-0.0048314829	-0.99606806	2.5293333	0	803.0408461352292
14.454398	4.7863009e-6	0.44	730.29261	209.95452	-0.14176374	-0.0050572107	-0.0048098804	-0.92114653	2.3088216	0	804.380605346538
14.454398	5.2480746e-6	0.44	667.31548	192.43248	-0.14034735	-0.0050573851	-0.0047861942	-0.85269177	2.107715	0	805.7211883950536
14.454398	5.7543994e-6	0.44	609.8805	176.44421	-0.13893102	-0.0050575764	-0.0047602235	-0.79013471	1.9243065	0	807.0626595019465
14.454398	6.3095734e-6	0.44	557.50013	161.85478	-0.13751474	-0.0050577858	-0.0047317473	-0.73295632	1.757039	0	808.4051194262053
14.454398	6.9183097e-6	0.44	509.72968	148.54109	-0.13609853	-0.0050580155	-0.0047005247	-0.68068324	1.6044926	0	809.7486489666912
14.454398	7.5857758e-6	0.44	466.16365	136.39092	-0.13468239	-0.0050582677	-0.0046662911	-0.63288375	1.4653723	0	811.0933575113612
14.454398	8.3176377e-6	0.44	426.43219	125.30192	-0.13326632	-0.0050585439	-0.0046287558	-0.58916411	1.3384972	0	812.4393652381398
14.454398	9.1201084e-6	0.44	390.19803	115.18071	-0.13185034	-0.005058847	-0.0045876013	-0.5491652	1.2227901	0	813.7867846129993
14.454398	0.00001	0.44	357.15356	105.94217	-0.13043445	-0.0050591792	-0.0045424785	-0.5125595	1.1172689	0	815.1357599569358
14.454398	0.000010964782	0.44	327.01827	97.508652	-0.12901865	-0.0050595445	-0.0044930065	-0.4790483	1.0210377	0	816.4864487373436
14.454398	0.000012022644	0.44	299.53109	89.809291	-0.12761338	-0.0050618079	-0.0044406286	-0.44836477	0.93327326	0	817.8284452191142
14.454398	0.000013182567	0.44	274.46873	82.779611	-0.12619882	-0.0050624257	-0.0043813389	-0.4202497	0.8532428	0	819.1820276616124
14.454398	0.000014454398	0.44	251.61365	76.360672	-0.12478449	-0.0050631025	-0.0043163357	-0.3944816	0.7802611	0	820.5377560149959
14.454398	0.000015848932	0.44	230.77181	70.498763	-0.12337041	-0.0050638451	-0.004245071	-0.37085374	0.71370858	0	821.895838035955
14.454398	0.000017378008	0.44	211.7663	65.144905	-0.1219566	-0.0050646591	-0.0041669432	-0.34917757	0.65302027	0	823.2565036398893
14.454398	0.000019054607	0.44	194.43576	60.254427	-0.12054309	-0.0050655518	-0.0040812946	-0.3292811	0.59768099	0	824.6199965387757
14.454398	0.000020892961	0.44	178.6331	55.7866	-0.11912991	-0.0050665298	-0.0039874037	-0.31100748	0.54722096	0	825.9865868200695
14.454398	0.000022908677	0.44	164.22414	51.704275	-0.11771708	-0.0050676022	-0.003884483	-0.29421361	0.50121181	0	827.3565812518577
14.454398	0.000025118864	0.44	151.08656	47.973578	-0.11630466	-0.0050687784	-0.0037716709	-0.27876893	0.45926295	0	828.7302796532019
14.454398	0.000027542287	0.44	139.10885	44.563621	-0.11489266	-0.0050700672	-0.0036480238	-0.26455439	0.42101826	0	830.1080627209486
14.454398	0.000030199517	0.44	128.18931	41.446238	-0.11348114	-0.0050714797	-0.0035125124	-0.25146133	0.38615308	0	831.4902996028075
14.454398	0.000033113112	0.44	118.23523	38.595744	-0.11207013	-0.0050730285	-0.0033640133	-0.23939065	0.35437139	0	832.8774265352122
14.454398	0.000036307805	0.44	109.16212	35.988722	-0.1106597	-0.005074726	-0.0032013	-0.22825191	0.32540336	0	834.2698847944248
14.454398	0.000039810717	0.44	100.89293	33.603821	-0.10924988	-0.0050765865	-0.0030230367	-0.21796257	0.29900306	0	835.6681984248987
14.454398	0.000043651583	0.44	93.357451	31.421573	-0.10784074	-0.0050786253	-0.0028277699	-0.20844734	0.27494629	0	837.0729025466833
14.454398	0.000047863009	0.44	86.491687	29.42423	-0.10643234	-0.0050808598	-0.0026139204	-0.19963747	0.25302878	0	838.4845936409617
14.454398	0.000052480746	0.44	80.237327	27.595613	-0.10502476	-0.0050833085	-0.0023797757	-0.19147021	0.23306435	0	839.9039045049974
14.454398	0.000057543994	0.44	74.541238	25.920973	-0.10361807	-0.0050859919	-0.0021234827	-0.18388827	0.21488341	0	841.3315354569779
14.454398	0.000063095734	0.44	69.355013	24.386867	-0.10221235	-0.0050889315	-0.0018430408	-0.17683935	0.19833144	0	842.7682383972284
14.454398	0.000069183097	0.44	64.634559	22.981039	-0.10080769	-0.0050921518	-0.001536299	-0.17027564	0.18326772	0	844.2148180070969
14.454398	0.000075857758	0.44	60.339714	21.692322	-0.099404192	-0.0050956802	-0.0012009532	-0.16415349	0.16956406	0	845.6721309860286
14.454398	0.000083176377	0.44	56.433905	20.510535	-0.098001965	-0.0050995446	-0.0008345433	-0.15843301	0.15710378	0	847.1410919482753
14.454398	0.000091201084	0.44	52.883826	19.4264	-0.096601125	-0.0051037765	-0.00043446195	-0.1530777	0.1457806	0	848.6226698055714
14.454398	0.0001	0.44	49.659146	18.431458	-0.095201798	-0.0051084112	2.0371605e-6	-0.14805422	0.13549778	0	850.1178815214848
14.454398	0.00010964782	0.44	46.732246	17.518001	-0.093804123	-0.0051134858	0.00047782523	-0.14333203	0.12616722	0	851.627783475026
14.454398	0.00012022644	0.44	44.077961	16.678997	-0.092408251	-0.0051190407	0.00099587303	-0.13888321	0.11770869	0	853.1534619347717
14.454398	0.00013182567	0.44	41.673358	15.908029	-0.091014344	-0.0051251217	0.0015592165	-0.13468216	0.11004907	0	854.6960197751009
14.454398	0.00014454398	0.44	39.497519	15.199243	-0.089622579	-0.0051317761	0.0021709179	-0.13070545	0.10312172	0	856.2565566580377
14.454398	0.00015848932	0.44	37.531339	14.547287	-0.088233146	-0.0051390568	0.0028340078	-0.12693161	0.096865774	0	857.8361469303331
14.454398	0.00017378008	0.44	35.757344	13.947263	-0.086846252	-0.005147022	0.0035514211	-0.12334095	0.091225587	0	859.4358094153122
14.454398	0.00019054607	0.44	34.159516	13.394686	-0.08546212	-0.0051557329	0.004325925	-0.11991544	0.086150182	0	861.0564785746054
14.454398	0.00020892961	0.44	32.723132	12.885435	-0.08408099	-0.0051652578	0.0051600346	-0.11663852	0.081592723	0	862.6989686768864
14.454398	0.00022908677	0.44	31.434614	12.415722	-0.082703121	-0.0051756694	0.0060559311	-0.11349506	0.077510046	0	864.3639381019036
14.454398	0.00025118864	0.44	30.281398	11.982048	-0.08132879	-0.0051870469	0.0070153801	-0.11047118	0.073862236	0	866.0518565045509
14.454398	0.00027542287	0.44	29.251815	11.581182	-0.079958294	-0.0051994762	0.0080396611	-0.10755419	0.07061225	0	867.7629737904203
14.454398	0.00030199517	0.44	28.334992	11.210129	-0.078591953	-0.0052130502	0.0091295153	-0.10473252	0.067725594	0	869.4972957171684
14.454398	0.00033113112	0.44	27.52077	10.86611	-0.077230106	-0.0052278692	0.010285118	-0.10199561	0.065170068	0	871.254576242696
14.454398	0.00036307805	0.44	26.799641	10.546545	-0.075873115	-0.0052440401	0.011506084	-0.099333885	0.062915562	0	873.034315999294
14.454398	0.00039810717	0.44	26.162707	10.249039	-0.074521365	-0.0052616806	0.012791495	-0.09673865	0.060933918	0	874.8357736210444
14.454398	0.00043651583	0.44	25.601647	9.9713722	-0.073175264	-0.0052809144	0.014139977	-0.094202068	0.059198843	0	876.6579977416563
14.454398	0.00047863009	0.44	25.108707	9.7114957	-0.07183524	-0.0053018758	0.015549779	-0.091717085	0.057685852	0	878.4998623484314
14.454398	0.00052480746	0.44	24.676691	9.4675229	-0.070501746	-0.0053247104	0.017018884	-0.089277381	0.056372245	0	880.3601079728094
14.454398	0.00057543994	0.44	24.298957	9.2377269	-0.069175257	-0.0053495696	0.018545127	-0.086877314	0.0552371	0	882.2373932912967
14.454398	0.00063095734	0.44	23.969412	9.0205357	-0.067856267	-0.0053766208	0.020126298	-0.084511867	0.054261248	0	884.1303405252642
14.454398	0.00069183097	0.44	23.682508	8.8145266	-0.06654529	-0.0054060383	0.021760253	-0.08217659	0.053427254	0	886.0375803897533
14.454398	0.00075857758	0.44	23.433224	8.6184204	-0.065242856	-0.0054380118	0.023444987	-0.079867556	0.052719365	0	887.9577860305767
14.454398	0.00083176377	0.44	23.217054	8.4310738	-0.063949512	-0.0054727389	0.025178711	-0.0775813	0.052123456	0	889.8897039172268
14.454398	0.00091201084	0.44	23.029978	8.2514705	-0.062665818	-0.0055104339	0.026959887	-0.075314778	0.051626937	0	891.8321720704446
14.454398	0.001	0.44	22.868432	8.0787121	-0.061392338	-0.0055513224	0.028787262	-0.073065316	0.051218662	0	893.7841425742033
14.454398	0.0010964782	0.44	22.729281	7.9120085	-0.060129643	-0.0055956436	0.030659879	-0.070830568	0.050888818	0	895.7446833045108
14.454398	0.0012022644	0.44	22.609782	7.7506674	-0.058878304	-0.0056436512	0.032577076	-0.068608477	0.050628816	0	897.712984092957
14.454398	0.0013182567	0.44	22.507551	7.5940851	-0.057638885	-0.0056956133	0.034538476	-0.066397236	0.050431175	0	899.6883591695841
14.454398	0.0014454398	0.44	22.420533	7.4417368	-0.056411937	-0.0057518147	0.036543971	-0.064195255	0.05028941	0	901.6702461857391
14.454398	0.0015848932	0.44	22.346967	7.2931682	-0.055197995	-0.0058125529	0.038593707	-0.062001131	0.050197934	0	903.6582028316379
14.454398	0.0017378008	0.44	22.285362	7.1479869	-0.053997567	-0.0058781455	0.040688055	-0.059813622	0.050151955	0	905.6519051827299
14.454398	0.0019054607	0.44	22.23447	7.0058556	-0.052811128	-0.0059489236	0.0428276	-0.057631617	0.050147393	0	907.6511487895957
14.454398	0.0020892961	0.44	22.193262	6.8664854	-0.051639112	-0.006025237	0.04501311	-0.055454119	0.050180801	0	909.6558433787957
14.454398	0.0022908677	0.44	22.160911	6.7296299	-0.050481908	-0.0061074545	0.047245526	-0.05328022	0.050249297	0	911.6660124770469
14.454398	0.0025118864	0.44	22.136771	6.5950802	-0.049339847	-0.0061959615	0.049525937	-0.051109086	0.050350501	0	913.6817952903509
14.454398	0.0027542287	0.44	22.120364	6.4626603	-0.048213199	-0.0062911629	0.051855572	-0.048939936	0.050482487	0	915.7034462154227
14.454398	0.0030199517	0.44	22.111363	6.3322233	-0.047102164	-0.0063934813	0.054235781	-0.046772028	0.050643733	0	917.7313354410095
14.454398	0.0033113112	0.44	22.109581	6.2036474	-0.04600687	-0.006503358	0.05666803	-0.044604649	0.050833085	0	919.7659487599801
14.454398	0.0036307805	0.44	22.114959	6.0768336	-0.044927367	-0.0066212514	0.059153885	-0.042437093	0.05104972	0	921.8078865921758
14.454398	0.0039810717	0.44	22.127555	5.951702	-0.043863621	-0.0067476383	0.061695012	-0.040268657	0.051293115	0	923.8578696218027
14.454398	0.0043651583	0.44	22.14753	5.82819	-0.04281552	-0.0068830075	0.06429317	-0.038098627	0.05156302	0	925.9167302661781
14.454398	0.0047863009	0.44	22.175141	5.7062495	-0.041782869	-0.0070278618	0.066950208	-0.035926266	0.051859432	0	927.9854161333317
14.454398	0.0052480746	0.44	22.210728	5.5858451	-0.040765394	-0.0071827122	0.069668063	-0.033750811	0.052182569	0	930.0649854369256
14.454398	0.0057543994	0.44	22.254701	5.4669517	-0.039762753	-0.0073480711	0.072448769	-0.03157146	0.052532849	0	932.1566003817153
14.454398	0.0063095734	0.44	22.307529	5.3495531	-0.038774535	-0.0075244529	0.075294451	-0.029387369	0.052910865	0	934.2615256226619
14.454398	0.0069183097	0.44	22.369729	5.2336398	-0.037800282	-0.0077123548	0.078207344	-0.027197644	0.053317363	0	936.3811154492607
14.454398	0.0075857758	0.44	22.441854	5.1192074	-0.036839493	-0.0079122521	0.081189796	-0.02500134	0.053753225	0	938.5168112675067
14.454398	0.0083176377	0.44	22.524472	5.0062552	-0.035891649	-0.0081245886	0.084244279	-0.022797455	0.054219437	0	940.6701226582563
14.454398	0.0091201084	0.44	22.618161	4.8947844	-0.034956231	-0.0083497552	0.087373409	-0.020584935	0.054717077	0	942.8426187332266
14.454398	0.01	0.44	22.723486	4.784797	-0.034032749	-0.008588064	0.090579977	-0.018362664	0.055247287	0	945.0359137032716
14.454398	0.010964782	0.44	22.840985	4.6762943	-0.033120775	-0.0088397376	0.093866955	-0.016129476	0.055811256	0	947.2516383531778
14.454398	0.012022644	0.44	22.971147	4.5692758	-0.032219976	-0.0091048672	0.097237544	-0.013884153	0.056410191	0	949.4914288796285
14.454398	0.013182567	0.44	23.11439	4.4637382	-0.031330172	-0.0093833779	0.10069521	-0.011625432	0.057045307	0	951.7568872791281
14.454398	0.014454398	0.44	23.271028	4.3596742	-0.030451383	-0.009674997	0.10424371	-0.0093520155	0.05771779	0	954.0495479370584
14.454398	0.015848932	0.44	23.441238	4.2570724	-0.029583914	-0.0099791903	0.10788718	-0.0070625795	0.058428787	0	956.3708341445938
14.454398	0.017378008	0.44	23.625008	4.155916	-0.028728445	-0.010295116	0.11163015	-0.0047557923	0.059179369	0	958.7219797389523
14.454398	0.019054607	0.44	23.822066	4.0561818	-0.027886155	-0.01062156	0.11547765	-0.0024303355	0.059970503	0	961.1039564186188
14.454398	0.020892961	0.44	24.031782	3.9578398	-0.02705889	-0.010956872	0.11943525	-0.00008493455	0.060802998	0	963.5173324327171
14.454398	0.022908677	0.44	24.253016	3.8608497	-0.0262494	-0.011298889	0.12350913	0.0022816008	0.061677424	0	965.9620788426341
14.454398	0.025118864	0.44	24.483879	3.7651553	-0.025461679	-0.011644876	0.12770619	0.0046703145	0.062593962	0	968.4372955447647
14.454398	0.027542287	0.44	24.721363	3.6706708	-0.024701476	-0.011991483	0.13203404	0.0070820144	0.0635521	0	970.9407270185297
14.454398	0.030199517	0.44	24.960735	3.5772488	-0.023977071	-0.012334752	0.13650105	0.0095171342	0.064550004	0	973.4680538941019
14.454398	0.033113112	0.44	25.194621	3.484609	-0.023300402	-0.012670256	0.14111617	0.011975525	0.065583212	0	976.0117596486814
14.454398	0.036307805	0.44	25.411841	3.3921874	-0.022688424	-0.01299355	0.1458885	0.014456135	0.066641995	0	978.5596759714206
14.454398	0.039810717	0.44	25.59688	3.2988634	-0.02216359	-0.0133013	0.15082617	0.016956603	0.067706754	0	981.0940678146858
14.454398	0.043651583	0.44	25.733227	3.2026512	-0.021749679	-0.013593411	0.15593422	0.019472939	0.068742948	0	983.5946768341394
14.454398	0.047863009	0.44	25.815518	3.1008799	-0.021457515	-0.013875165	0.16121245	0.02199994	0.069704288	0	986.051250492682
14.454398	0.052480746	0.44	25.865738	2.9915138	-0.02126647	-0.014155686	0.16665698	0.024533129	0.070554973	0	988.4815661183884
14.454398	0.057543994	0.44	25.932079	2.8745928	-0.021125503	-0.014441892	0.17226628	0.027071579	0.071294695	0	990.932947550894
14.454398	0.063095734	0.44	26.068064	2.7519096	-0.02097545	-0.014734686	0.17804501	0.02961954	0.071955282	0	993.4629097193601
14.454398	0.069183097	0.44	26.317342	2.6256253	-0.020764692	-0.015030916	0.18400203	0.032186077	0.072579045	0	996.1236148491485
14.454398	0.075857758	0.44	26.712844	2.4974191	-0.020449622	-0.015326852	0.19014697	0.03478398	0.073204606	0	998.9600156927777
14.454398	0.083176377	0.44	27.281697	2.3683255	-0.019989271	-0.015620403	0.19648799	0.037428938	0.073863571	0	1002.0139787185046
14.454398	0.091201084	0.44	28.050124	2.2388402	-0.019340034	-0.015911972	0.20303095	0.040139221	0.074581835	0	1005.3288962487144
14.454398	0.1	0.44	29.047218	2.109054	-0.018451488	-0.016204606	0.20977923	0.04293578	0.075381746	0	1008.9535413086387
14.454398	0.10964782	0.44	30.30758	1.9787537	-0.017263211	-0.016503884	0.21673389	0.045842678	0.076284087	0	1012.9451225291343
14.454398	0.12022644	0.44	31.871525	1.8475188	-0.015703872	-0.016818169	0.2238934	0.048887663	0.077310136	0	1017.3700275307883
14.454398	0.13182567	0.44	33.778223	1.7149532	-0.013697593	-0.017160056	0.23125223	0.052102483	0.078485551	0	1022.297262502819
14.454398	0.14454398	0.44	36.045013	1.5814153	-0.011185936	-0.017548705	0.23879845	0.055521885	0.079850587	0	1027.776801798714
14.454398	0.15848932	0.44	37.537113	1.4562649	-0.0093451108	-0.018045913	0.24647776	0.059153532	0.081556904	0	1032.6810713507202
14.454398	0.17378008	0.44	40.796789	1.3559896	-0.0054382409	-0.018752607	0.25419694	0.062987494	0.083848218	0	1039.5430075214201
14.454398	0.19054607	0.44	44.817037	1.2596182	-0.00043368636	-0.019564053	0.26206865	0.067176767	0.0865549	0	1047.4993473823386
14.454398	0.20892961	0.44	49.803373	1.1678975	0.0059735701	-0.020492963	0.27008839	0.071805638	0.089772727	0	1056.834814261522
14.454398	0.22908677	0.44	56.000535	1.0815686	0.014150459	-0.021547868	0.27825604	0.076980518	0.093619512	0	1067.8941137523698
14.454398	0.25118864	0.44	63.680497	1.0013052	0.024515647	-0.022731357	0.28657771	0.082833289	0.098237501	0	1081.073136469305
14.454398	0.27542287	0.44	73.117748	0.9276393	0.037514115	-0.024038559	0.29506724	0.089522877	0.1037938	0	1096.7956926245342
14.454398	0.30199517	0.44	84.552271	0.86089045	0.053575976	-0.025456456	0.30374687	0.097233762	0.11047781	0	1115.4750957001318
14.454398	0.33113112	0.44	98.146826	0.80111554	0.073065863	-0.026964664	0.31264651	0.10617051	0.11849498	0	1137.4663072841956
14.454398	0.36307805	0.44	113.95109	0.74809729	0.096236424	-0.028537924	0.32180123	0.11654832	0.12805715	0	1163.021204928276
14.454398	0.39810717	0.44	131.88613	0.70137808	0.12320136	-0.03014982	0.33124755	0.12858098	0.13937108	0	1192.2617158399287
14.454398	0.43651583	0.44	151.75559	0.66032994	0.15393676	-0.031776597	0.34101966	0.1424686	0.15262721	0	1225.1795085173699
14.454398	0.47863009	0.44	173.27896	0.62423929	0.18830765	-0.033399926	0.35114663	0.15838757	0.16799095	0	1261.6597838595267
14.454398	0.52480746	0.44	196.13416	0.59238427	0.22610769	-0.035008032	0.36165131	0.17648439	0.18559771	0	1301.5181183421093
14.454398	0.57543994	0.44	219.99694	0.56409053	0.26709888	-0.036595352	0.37255068	0.19687361	0.20555165	0	1344.537915092461
14.454398	0.63095734	0.44	244.56944	0.53876237	0.31104262	-0.038161328	0.38385706	0.21963911	0.2279275	0	1390.5000870139204
14.454398	0.69183097	0.44	269.5963	0.51589378	0.35771976	-0.039708913	0.39557965	0.24483755	0.25277413	0	1439.202531720572
14.454398	0.75857758	0.44	294.87069	0.49506607	0.40694091	-0.041243223	0.40772583	0.27250294	0.2801191	0	1490.4703558873844
14.454398	0.83176377	0.44	320.23349	0.47593872	0.45854989	-0.042770487	0.42030227	0.30265137	0.30997327	0	1544.1595756343831
14.454398	0.91201084	0.44	345.56872	0.45823747	0.51242296	-0.04429732	0.43331565	0.33528548	0.34233507	0	1600.1566907156362
14.454398	1.	0.44	370.79741	0.44174258	0.56846608	-0.045830271	0.44677313	0.37039844	0.37719427	0	1658.376304412308
14.454398	1.0964782	0.44	395.87119	0.42627814	0.62661125	-0.047375569	0.4606826	0.40797721	0.41453513	0	1718.757788075668
14.454398	1.2022644	0.44	420.76638	0.41170315	0.68681288	-0.048939003	0.47505285	0.44800525	0.45433895	0	1781.2619407843567
14.454398	1.3182567	0.44	445.47875	0.39790418	0.74904434	-0.050525883	0.48989359	0.49046472	0.49658613	0	1845.8677561121058
14.454398	1.4454398	0.44	470.01922	0.38478951	0.81329508	-0.052141053	0.50521545	0.53533811	0.54125776	0	1912.5697161795274
14.454398	1.5848932	0.44	494.41025	0.37228452	0.87956808	-0.05378893	0.52102999	0.5826096	0.58833688	0	1981.3753998965603
14.454398	1.7378008	0.44	518.68296	0.36032807	0.94787782	-0.055473552	0.53734963	0.63226601	0.63780934	0	2052.303546706198
14.454398	1.9054607	0.44	542.87485	0.34886968	1.0182486	-0.057198629	0.55418763	0.68429752	0.68966458	0	2125.382469846523
14.454398	2.0892961	0.44	567.02802	0.33786733	1.0907131	-0.058967597	0.57155806	0.73869826	0.74389605	0	2200.6486909743426
14.454398	2.2908677	0.44	591.18773	0.32728572	1.1653113	-0.060783663	0.58947573	0.79546661	0.80050162	0	2278.1458964959957
14.454398	2.5118864	0.44	615.40134	0.31709495	1.2420899	-0.062649846	0.60795625	0.85460553	0.85948376	0	2357.9244174239775
14.454398	2.7542287	0.44	639.71749	0.30726943	1.321101	-0.064569017	0.62701592	0.91612268	0.92084976	0	2440.039943675714
14.454398	3.0199517	0.44	664.18546	0.29778706	1.4024021	-0.066543926	0.64667176	0.98003053	0.98461172	0	2524.5535364758216
14.454398	3.3113112	0.44	688.85469	0.28862858	1.4860553	-0.068577238	0.6669415	1.0463464	1.0507867	0	2611.530872569747
14.454398	3.6307805	0.44	713.7745	0.27977705	1.572127	-0.070671548	0.68784356	1.1150924	1.1193965	0	2701.0419540859743
14.454398	3.9810717	0.44	738.99378	0.27121743	1.660688	-0.072829409	0.70939707	1.1862955	1.1904679	0	2793.1612107607507
14.454398	4.3651583	0.44	764.56089	0.26293622	1.7518127	-0.075053345	0.73162187	1.2599874	1.2640324	0	2887.966748285795
14.454398	4.7863009	0.44	790.52355	0.25492125	1.8455793	-0.077345868	0.75453847	1.3362046	1.3401264	0	2985.5405196850215
14.454398	5.2480746	0.44	816.92878	0.24716143	1.9420695	-0.079709493	0.77816814	1.4149882	1.4187906	0	3085.9680806517217
14.454398	5.7543994	0.44	843.82286	0.23964659	2.0413686	-0.082146749	0.80253284	1.4963839	1.5000706	0	3189.3386545664916
14.454398	6.3095734	0.44	871.25143	0.23236732	2.1435654	-0.084660186	0.82765528	1.5804417	1.5840164	0	3295.7450633452113
14.454398	6.9183097	0.44	899.25943	0.2253149	2.2487519	-0.08725239	0.85355894	1.6672163	1.6706826	0	3405.2834538376255
14.454398	7.5857758	0.44	927.89123	0.21848115	2.3570237	-0.089925987	0.88026805	1.7567667	1.7601278	0	3518.053665385305
14.454398	8.3176377	0.44	957.19065	0.21185841	2.4684798	-0.092683652	0.90780763	1.8491561	1.8524154	0	3634.159058444923
14.454398	9.1201084	0.44	987.20107	0.20543944	2.5832225	-0.095528113	0.9362035	1.9444523	1.9476128	0	3753.706424765814
14.454398	10.	0.44	1017.9655	0.1992174	2.7013576	-0.098462163	0.96548234	2.0427268	2.0457916	0	3876.806200107564