14.454398	1.e-12	0.36	3.4259869e9	9.481633e8	-0.3763313	-0.010196816	-0.010196816	-3.6463534e6	1.0940316e7	0	582.5284934017319
14.454398	1.0964782e-12	0.36	3.1245372e9	8.6473521e8	-0.37491437	-0.010196816	-0.010196816	-3.3255138e6	9.9776871e6	0	583.8597917331074
14.454398	1.2022644e-12	0.36	2.8496118e9	7.8864787e8	-0.37349744	-0.010196817	-0.010196817	-3.0329047e6	9.0997587e6	0	585.1910897262393
14.454398	1.3182567e-12	0.36	2.5988768e9	7.1925542e8	-0.37208051	-0.010196816	-0.010196816	-2.766042e6	8.2990786e6	0	586.5223883958583
14.454398	1.4454398e-12	0.36	2.3702038e9	6.5596874e8	-0.37066358	-0.010196816	-0.010196816	-2.5226603e6	7.5688497e6	0	587.8536867272338
14.454398	1.5848932e-12	0.36	2.1616516e9	5.982506e8	-0.36924664	-0.010196817	-0.010196816	-2.3006936e6	6.9028729e6	0	589.1849944542627
14.454398	1.7378008e-12	0.36	1.9714497e9	5.4561104e8	-0.36782971	-0.010196816	-0.010196816	-2.0982575e6	6.295495e6	0	590.5162927856384
14.454398	1.9054607e-12	0.36	1.7979835e9	4.9760318e8	-0.36641278	-0.010196816	-0.010196816	-1.9136336e6	5.7415596e6	0	591.8475911170137
14.454398	2.0892961e-12	0.36	1.6397804e9	4.538195e8	-0.36499585	-0.010196816	-0.010196816	-1.7452546e6	5.2363646e6	0	593.1788894483893
14.454398	2.2908677e-12	0.36	1.4954975e9	4.1388831e8	-0.36357892	-0.010196816	-0.010196816	-1.5916912e6	4.7756213e6	0	594.5101877797648
14.454398	2.5118864e-12	0.36	1.36391e9	3.7747062e8	-0.36216199	-0.010196816	-0.010196816	-1.4516397e6	4.3554184e6	0	595.8414861111403
14.454398	2.7542287e-12	0.36	1.2439007e9	3.442573e8	-0.36074506	-0.010196816	-0.010196816	-1.3239111e6	3.9721888e6	0	597.1727844425159
14.454398	3.0199517e-12	0.36	1.1344509e9	3.1396639e8	-0.35932813	-0.010196817	-0.010196817	-1.2074213e6	3.6226792e6	0	598.5040824356478
14.454398	3.3113112e-12	0.36	1.0346315e9	2.8634075e8	-0.3579112	-0.010196817	-0.010196816	-1.1011814e6	3.3039227e6	0	599.8353811052667
14.454398	3.6307805e-12	0.36	9.4359516e8	2.6114588e8	-0.35649427	-0.010196816	-0.010196816	-1.0042894e6	3.0132134e6	0	601.1666794366423
14.454398	3.9810717e-12	0.36	8.6056901e8	2.3816787e8	-0.35507733	-0.010196816	-0.010196816	-915922.82	2.7480832e6	0	602.4979871636713
14.454398	4.3651583e-12	0.36	7.8484827e8	2.1721168e8	-0.3536604	-0.010196817	-0.010196816	-835331.58	2.5062817e6	0	603.8292854950469
14.454398	4.7863009e-12	0.36	7.1579012e8	1.9809941e8	-0.35224347	-0.010196817	-0.010196816	-761831.48	2.2857561e6	0	605.1605838264222
14.454398	5.2480746e-12	0.36	6.5280836e8	1.8066881e8	-0.35082654	-0.010196816	-0.010196816	-694798.6	2.0846343e6	0	606.4918821577978
14.454398	5.7543994e-12	0.36	5.953683e8	1.6477192e8	-0.34940961	-0.010196816	-0.010196816	-633663.89	1.9012091e6	0	607.8231804891734
14.454398	6.3095734e-12	0.36	5.4298234e8	1.5027378e8	-0.34799268	-0.010196817	-0.010196816	-577908.36	1.7339233e6	0	609.1544788205488
14.454398	6.9183097e-12	0.36	4.9520579e8	1.3705132e8	-0.34657575	-0.010196816	-0.010196816	-527058.73	1.5813569e6	0	610.4857771519244
14.454398	7.5857758e-12	0.36	4.5163305e8	1.2499229e8	-0.34515882	-0.010196816	-0.010196816	-480683.3	1.4422146e6	0	611.8170754832998
14.454398	8.3176377e-12	0.36	4.1189423e8	1.1399432e8	-0.34374189	-0.010196816	-0.010196816	-438388.41	1.3153153e6	0	613.1483738146753
14.454398	9.1201084e-12	0.36	3.7565201e8	1.0396406e8	-0.34232496	-0.010196816	-0.010196816	-399815.02	1.1995819e6	0	614.4796721460508
14.454398	1.e-11	0.36	3.4259871e8	9.4816352e7	-0.34090803	-0.010196816	-0.010196816	-364635.66	1.0940317e6	0	615.8109704774263
14.454398	1.0964782e-11	0.36	3.1245373e8	8.6473543e7	-0.33949109	-0.010196816	-0.010196816	-332551.7	997768.73	0	617.1422782044554
14.454398	1.2022644e-11	0.36	2.8496119e8	7.8864809e7	-0.33807416	-0.010196817	-0.010196816	-303290.78	909975.89	0	618.4735765358307
14.454398	1.3182567e-11	0.36	2.5988769e8	7.1925563e7	-0.33665723	-0.010196817	-0.010196816	-276604.51	829907.88	0	619.8048748672063
14.454398	1.4454398e-11	0.36	2.370204e8	6.5596896e7	-0.3352403	-0.010196816	-0.010196816	-252266.35	756884.99	0	621.1361731985819
14.454398	1.5848932e-11	0.36	2.1616517e8	5.9825082e7	-0.33382337	-0.010196817	-0.010196816	-230069.67	690287.31	0	622.4674715299573
14.454398	1.7378008e-11	0.36	1.9714498e8	5.4561125e7	-0.33240644	-0.010196816	-0.010196816	-209826.06	629549.51	0	623.7987698613329
14.454398	1.9054607e-11	0.36	1.7979836e8	4.9760339e7	-0.33098951	-0.010196817	-0.010196816	-191363.67	574155.98	0	625.1300681927082
14.454398	2.0892961e-11	0.36	1.6397806e8	4.5381971e7	-0.32957258	-0.010196816	-0.010196815	-174525.77	523636.48	0	626.4613668623273
14.454398	2.2908677e-11	0.36	1.4954977e8	4.1388852e7	-0.32815565	-0.010196816	-0.010196816	-159169.43	477562.15	0	627.7926648554593
14.454398	2.5118864e-11	0.36	1.3639101e8	3.7747083e7	-0.32673872	-0.010196817	-0.010196816	-145164.27	435541.86	0	629.1239631868348
14.454398	2.7542287e-11	0.36	1.2439008e8	3.4425751e7	-0.32532179	-0.010196816	-0.010196815	-132391.42	397218.9	0	630.4552618564537
14.454398	3.0199517e-11	0.36	1.134451e8	3.1396661e7	-0.32390485	-0.010196816	-0.010196815	-120742.44	362267.95	0	631.7865695834828
14.454398	3.3113112e-11	0.36	1.0346316e8	2.8634097e7	-0.32248792	-0.010196816	-0.010196815	-110118.44	330392.29	0	633.1178679148584
14.454398	3.6307805e-11	0.36	9.4359529e7	2.6114608e7	-0.32107099	-0.010196817	-0.010196815	-100429.24	301321.35	0	634.4491662462339
14.454398	3.9810717e-11	0.36	8.6056913e7	2.3816808e7	-0.31965406	-0.010196817	-0.010196815	-91592.583	274808.34	0	635.7804645776093
14.454398	4.3651583e-11	0.36	7.8484839e7	2.1721189e7	-0.31823713	-0.010196817	-0.010196815	-83533.457	250628.19	0	637.1117629089848
14.454398	4.7863009e-11	0.36	7.1579025e7	1.9809962e7	-0.3168202	-0.010196817	-0.010196815	-76183.447	228575.63	0	638.4430612403603
14.454398	5.2480746e-11	0.36	6.5280849e7	1.8066902e7	-0.31540327	-0.010196816	-0.010196814	-69480.158	208463.45	0	639.7743599099794
14.454398	5.7543994e-11	0.36	5.9536843e7	1.6477212e7	-0.31398634	-0.010196816	-0.010196814	-63366.686	190120.93	0	641.1056582413548
14.454398	6.3095734e-11	0.36	5.4298248e7	1.5027398e7	-0.31256941	-0.010196816	-0.010196814	-57791.132	173392.35	0	642.4369565727303
14.454398	6.9183097e-11	0.36	4.9520591e7	1.3705152e7	-0.31115248	-0.010196817	-0.010196814	-52706.166	158135.71	0	643.7682549041058
14.454398	7.5857758e-11	0.36	4.5163317e7	1.2499249e7	-0.30973554	-0.010196816	-0.010196813	-48068.622	144221.48	0	645.0995629693784
14.454398	8.3176377e-11	0.36	4.1189436e7	1.1399452e7	-0.30831861	-0.010196817	-0.010196813	-43839.132	131531.55	0	646.4308613007539
14.454398	9.1201084e-11	0.36	3.7565214e7	1.0396426e7	-0.30690168	-0.010196816	-0.010196813	-39981.791	119958.21	0	647.7621596321295
14.454398	1.e-10	0.36	3.4259883e7	9.4816552e6	-0.30548475	-0.010196817	-0.010196812	-36463.854	109403.19	0	649.0934583017483
14.454398	1.0964782e-10	0.36	3.1245386e7	8.6473743e6	-0.30406782	-0.010196816	-0.010196812	-33255.457	99776.894	0	650.4247566331239
14.454398	1.2022644e-10	0.36	2.8496132e7	7.886501e6	-0.30265089	-0.010196816	-0.010196811	-30329.365	90997.611	0	651.7560553027429
14.454398	1.3182567e-10	0.36	2.5988783e7	7.1925762e6	-0.30123396	-0.010196817	-0.010196811	-27660.736	82990.809	0	653.0873536341184
14.454398	1.4454398e-10	0.36	2.3702053e7	6.5597094e6	-0.29981703	-0.010196816	-0.01019681	-25226.918	75688.52	0	654.4186523037374
14.454398	1.5848932e-10	0.36	2.161653e7	5.9825279e6	-0.2984001	-0.010196816	-0.01019681	-23007.249	69028.753	0	655.7499506351129
14.454398	1.7378008e-10	0.36	1.9714511e7	5.4561321e6	-0.29698317	-0.010196817	-0.010196809	-20982.887	62954.972	0	657.0812493047318
14.454398	1.9054607e-10	0.36	1.7979849e7	4.9760535e6	-0.29556624	-0.010196816	-0.010196808	-19136.647	57415.62	0	658.412547974351
14.454398	2.0892961e-10	0.36	1.6397819e7	4.5382166e6	-0.2941493	-0.010196816	-0.010196808	-17452.856	52363.669	0	659.7438557013801
14.454398	2.2908677e-10	0.36	1.495499e7	4.1389045e6	-0.29273237	-0.010196817	-0.010196807	-15917.22	47756.236	0	661.075154370999
14.454398	2.5118864e-10	0.36	1.3639114e7	3.7747276e6	-0.29131544	-0.010196817	-0.010196806	-14516.703	43554.206	0	662.4064530406181
14.454398	2.7542287e-10	0.36	1.2439021e7	3.4425944e6	-0.28989851	-0.010196816	-0.010196805	-13239.416	39721.911	0	663.737751710237
14.454398	3.0199517e-10	0.36	1.1344523e7	3.1396852e6	-0.28848158	-0.010196817	-0.010196804	-12074.517	36226.815	0	665.0690503798561
14.454398	3.3113112e-10	0.36	1.0346329e7	2.8634287e6	-0.28706465	-0.010196817	-0.010196803	-11012.116	33039.25	0	666.400349049475
14.454398	3.6307805e-10	0.36	9.4359659e6	2.6114798e6	-0.28564772	-0.010196817	-0.010196801	-10043.195	30132.156	0	667.7316480573377
14.454398	3.9810717e-10	0.36	8.6057044e6	2.3816997e6	-0.28423079	-0.010196817	-0.0101968	-9159.5278	27480.855	0	669.0629467269566
14.454398	4.3651583e-10	0.36	7.848497e6	2.1721377e6	-0.28281386	-0.010196817	-0.010196798	-8353.6139	25062.84	0	670.3942457348193
14.454398	4.7863009e-10	0.36	7.1579156e6	1.9810149e6	-0.28139693	-0.010196817	-0.010196797	-7618.6116	22857.584	0	671.7255444044382
14.454398	5.2480746e-10	0.36	6.5280978e6	1.8067088e6	-0.27997999	-0.010196817	-0.010196795	-6948.2813	20846.366	0	673.0568528079543
14.454398	5.7543994e-10	0.36	5.9536973e6	1.6477398e6	-0.27856306	-0.010196817	-0.010196793	-6336.9328	19012.114	0	674.3881518158169
14.454398	6.3095734e-10	0.36	5.4298377e6	1.5027583e6	-0.27714613	-0.010196817	-0.01019679	-5779.3762	17339.256	0	675.719451161923
14.454398	6.9183097e-10	0.36	4.9520721e6	1.3705335e6	-0.2757292	-0.010196817	-0.010196788	-5270.8783	15813.591	0	677.0507501697855
14.454398	7.5857758e-10	0.36	4.5163447e6	1.2499432e6	-0.27431227	-0.010196817	-0.010196785	-4807.1227	14422.169	0	678.3820495158916
14.454398	8.3176377e-10	0.36	4.1189566e6	1.1399634e6	-0.27289534	-0.010196817	-0.010196782	-4384.1724	13153.176	0	679.7133488619976
14.454398	9.1201084e-10	0.36	3.7565344e6	1.0396607e6	-0.27147841	-0.010196817	-0.010196779	-3998.4371	11995.841	0	681.0446482081036
14.454398	1.e-9	0.36	3.4260013e6	948183.55	-0.27006148	-0.010196818	-0.010196775	-3646.6421	10940.339	0	682.3759478924533
14.454398	1.0964782e-9	0.36	3.1245516e6	864755.38	-0.26864455	-0.010196817	-0.010196771	-3325.8011	9977.7101	0	683.707247576803
14.454398	1.2022644e-9	0.36	2.8496262e6	788667.96	-0.26722762	-0.010196817	-0.010196767	-3033.1906	9099.7818	0	685.0385472611525
14.454398	1.3182567e-9	0.36	2.5988913e6	719275.4	-0.26581069	-0.010196818	-0.010196762	-2766.3264	8299.1016	0	686.3698472837457
14.454398	1.4454398e-9	0.36	2.3702183e6	655988.64	-0.26439376	-0.010196818	-0.010196757	-2522.9434	7568.8727	0	687.7011473063388
14.454398	1.5848932e-9	0.36	2.161666e6	598270.41	-0.26297682	-0.010196818	-0.010196751	-2300.9752	6902.896	0	689.032457062829
14.454398	1.7378008e-9	0.36	1.9714641e6	545630.74	-0.26155989	-0.010196818	-0.010196745	-2098.5377	6295.5179	0	690.3637574236657
14.454398	1.9054607e-9	0.36	1.7979979e6	497622.8	-0.26014296	-0.010196818	-0.010196738	-1913.9124	5741.5826	0	691.6950581227458
14.454398	2.0892961e-9	0.36	1.6397949e6	453839.02	-0.25872603	-0.010196818	-0.01019673	-1745.532	5236.3876	0	693.0263591600694
14.454398	2.2908677e-9	0.36	1.495512e6	413907.74	-0.2573091	-0.010196818	-0.010196721	-1591.9672	4775.6443	0	694.3576605356367
14.454398	2.5118864e-9	0.36	1.3639244e6	377489.96	-0.25589217	-0.010196819	-0.010196713	-1451.9142	4355.4413	0	695.6889615729605
14.454398	2.7542287e-9	0.36	1.2439151e6	344276.55	-0.25447524	-0.010196819	-0.010196702	-1324.1843	3972.2118	0	697.0202636250148
14.454398	3.0199517e-9	0.36	1.1344653e6	313985.55	-0.25305831	-0.010196819	-0.010196692	-1207.6931	3622.7022	0	698.3515653388255
14.454398	3.3113112e-9	0.36	1.0346459e6	286359.82	-0.25164138	-0.010196819	-0.010196679	-1101.4517	3303.9457	0	699.6828680673668
14.454398	3.6307805e-9	0.36	943609.6	261164.85	-0.25022445	-0.010196819	-0.010196666	-1004.5583	3013.2364	0	701.0141707959083
14.454398	3.9810717e-9	0.36	860583.45	238186.75	-0.24880752	-0.01019682	-0.010196652	-916.19031	2748.1062	0	702.3454738626931
14.454398	4.3651583e-9	0.36	784862.7	217230.47	-0.24739059	-0.010196821	-0.010196636	-835.59765	2506.3047	0	703.676777605965
14.454398	4.7863009e-9	0.36	715804.57	198118.11	-0.24597366	-0.010196821	-0.010196618	-762.09614	2285.7791	0	705.0080820257239
14.454398	5.2480746e-9	0.36	652822.8	180687.42	-0.24455673	-0.010196821	-0.010196599	-695.06185	2084.6573	0	706.3393867837265
14.454398	5.7543994e-9	0.36	595382.74	164790.43	-0.24313979	-0.010196822	-0.010196578	-633.92571	1901.2321	0	707.6707016138695
14.454398	6.3095734e-9	0.36	542996.78	150292.2	-0.24172286	-0.010196822	-0.010196555	-578.16878	1733.9463	0	709.002007724846
14.454398	6.9183097e-9	0.36	495220.22	137069.64	-0.24030593	-0.010196823	-0.01019653	-527.31772	1581.3798	0	710.3333145123097
14.454398	7.5857758e-9	0.36	451647.48	125010.52	-0.238889	-0.010196823	-0.010196502	-480.94088	1442.2376	0	711.6646223145038
14.454398	8.3176377e-9	0.36	411908.67	114012.47	-0.23747207	-0.010196824	-0.010196472	-438.64458	1315.3383	0	712.9959307931852
14.454398	9.1201084e-9	0.36	375666.45	103982.11	-0.23605514	-0.010196824	-0.010196439	-400.06977	1199.6049	0	714.3272402865971
14.454398	1.e-8	0.36	342613.15	94834.314	-0.23463821	-0.010196825	-0.010196402	-364.88899	1094.0547	0	715.6585511329831
14.454398	1.0964782e-8	0.36	312468.17	86491.412	-0.23322128	-0.010196826	-0.010196362	-332.80362	997.79172	0	716.9898629940996
14.454398	1.2022644e-8	0.36	284975.63	78882.588	-0.23180435	-0.010196827	-0.010196319	-303.54129	909.99889	0	718.3211758699466
14.454398	1.3182567e-8	0.36	259902.14	71943.25	-0.23038742	-0.010196828	-0.01019627	-276.8536	829.93088	0	719.6524907752549
14.454398	1.4454398e-8	0.36	237034.84	65614.49	-0.22897049	-0.010196829	-0.010196218	-252.51402	756.90799	0	720.9838066952938
14.454398	1.5848932e-8	0.36	216179.61	59842.584	-0.22755356	-0.01019683	-0.01019616	-230.31593	690.31031	0	722.3151246447937
14.454398	1.7378008e-8	0.36	197159.42	54578.536	-0.22613663	-0.010196831	-0.010196097	-210.07091	629.57251	0	723.6464442855113
14.454398	1.9054607e-8	0.36	179812.8	49777.658	-0.2247197	-0.010196833	-0.010196027	-191.6071	574.17898	0	724.9777662939338
14.454398	2.0892961e-8	0.36	163992.5	45399.197	-0.22330278	-0.010196835	-0.010195951	-174.76778	523.65948	0	726.3090809361638
14.454398	2.2908677e-8	0.36	149564.21	41405.986	-0.22188585	-0.010196837	-0.010195868	-159.41002	477.58515	0	727.6404073417518
14.454398	2.5118864e-8	0.36	136405.45	37764.125	-0.22046892	-0.010196838	-0.010195776	-145.40345	435.56486	0	728.9717367915318
14.454398	2.7542287e-8	0.36	124404.52	34442.701	-0.21905199	-0.010196841	-0.010195676	-132.62918	397.24189	0	730.3030689472599
14.454398	3.0199517e-8	0.36	113459.54	31413.518	-0.21763506	-0.010196843	-0.010195566	-120.97879	362.29094	0	731.6344044854234
14.454398	3.3113112e-8	0.36	103477.61	28650.863	-0.21621813	-0.010196845	-0.010195445	-110.35337	330.41529	0	732.9657437442654
14.454398	3.6307805e-8	0.36	94373.969	26131.282	-0.2148012	-0.010196848	-0.010195313	-100.66276	301.34435	0	734.2970867237864
14.454398	3.9810717e-8	0.36	86071.355	23833.39	-0.21338428	-0.010196851	-0.010195168	-91.824685	274.83134	0	735.6284247048196
14.454398	4.3651583e-8	0.36	78499.279	21737.679	-0.21196735	-0.010196855	-0.010195009	-83.764142	250.65118	0	736.9597768169157
14.454398	4.7863009e-8	0.36	71593.466	19826.359	-0.21055042	-0.010196858	-0.010194835	-76.412716	228.59862	0	738.2911340026646
14.454398	5.2480746e-8	0.36	65295.289	18083.208	-0.20913349	-0.010196862	-0.010194644	-69.708011	208.48645	0	739.6224969385537
14.454398	5.7543994e-8	0.36	59551.283	16493.426	-0.20771657	-0.010196867	-0.010194434	-63.593123	190.14393	0	740.9538569054162
14.454398	6.3095734e-8	0.36	54312.687	15043.52	-0.20629964	-0.010196872	-0.010194204	-58.016154	173.41535	0	742.2852330328026
14.454398	6.9183097e-8	0.36	49535.032	13721.182	-0.20488272	-0.010196877	-0.010193952	-52.929773	158.1587	0	743.6166072058932
14.454398	7.5857758e-8	0.36	45177.758	12515.187	-0.20346579	-0.010196883	-0.010193676	-48.290814	144.24448	0	744.9479988924818
14.454398	8.3176377e-8	0.36	41203.876	11415.298	-0.20204887	-0.01019689	-0.010193373	-44.059908	131.55455	0	746.2793903159923
14.454398	9.1201084e-8	0.36	37579.655	10412.18	-0.20063195	-0.010196896	-0.01019304	-40.201152	119.9812	0	747.6107918868084
14.454398	1.e-7	0.36	34274.324	9497.3169	-0.19921502	-0.010196904	-0.010192676	-36.681799	109.42618	0	748.9422133388273
14.454398	1.0964782e-7	0.36	31259.827	8662.9439	-0.1977981	-0.010196913	-0.010192277	-33.471986	99.79989	0	750.2736372337163
14.454398	1.2022644e-7	0.36	28510.573	7901.9787	-0.19638118	-0.010196922	-0.010191839	-30.544478	91.020608	0	751.6050743201026
14.454398	1.3182567e-7	0.36	26003.223	7207.9619	-0.19496426	-0.010196932	-0.010191358	-27.874434	83.013807	0	752.9365259509607
14.454398	1.4454398e-7	0.36	23716.494	6575.003	-0.19354734	-0.010196943	-0.010190832	-25.4392	75.711517	0	754.2679928027774
14.454398	1.5848932e-7	0.36	21630.971	5997.7296	-0.19213042	-0.010196955	-0.010190254	-23.218116	69.05175	0	755.5994772432573
14.454398	1.7378008e-7	0.36	19728.952	5471.2418	-0.1907135	-0.010196969	-0.010189621	-21.192338	62.977971	0	756.9309802871313
14.454398	1.9054607e-7	0.36	17994.29	4991.0712	-0.18929659	-0.010196983	-0.010188927	-19.344683	57.438618	0	758.2624945682069
14.454398	2.0892961e-7	0.36	16412.26	4553.1423	-0.18787968	-0.010197	-0.010188166	-17.659476	52.386668	0	759.5940315115986
14.454398	2.2908677e-7	0.36	14969.431	4153.7383	-0.18646276	-0.010197017	-0.010187331	-16.122424	47.779236	0	760.9256028806649
14.454398	2.5118864e-7	0.36	13653.555	3789.4693	-0.18504585	-0.010197037	-0.010186416	-14.720491	43.577207	0	762.2571919135596
14.454398	2.7542287e-7	0.36	12453.463	3457.2441	-0.18362894	-0.010197058	-0.010185413	-13.441789	39.744911	0	763.5888107118848
14.454398	3.0199517e-7	0.36	11358.965	3154.2429	-0.18221204	-0.010197081	-0.010184313	-12.275474	36.249816	0	764.9204529241783
14.454398	3.3113112e-7	0.36	10360.772	2877.8945	-0.18079513	-0.010197107	-0.010183106	-11.211657	33.062252	0	766.2521407241827
14.454398	3.6307805e-7	0.36	9450.4083	2625.8536	-0.17937823	-0.010197135	-0.010181784	-10.24132	30.155159	0	767.5838580265392
14.454398	3.9810717e-7	0.36	8620.147	2395.9815	-0.17796133	-0.010197165	-0.010180333	-9.3562378	27.503859	0	768.9156189623103
14.454398	4.3651583e-7	0.36	7862.9398	2186.3275	-0.17654444	-0.010197199	-0.010178743	-8.548908	25.085844	0	770.2474175182781
14.454398	4.7863009e-7	0.36	7172.3587	1995.1128	-0.17512755	-0.010197236	-0.010176999	-7.8124899	22.880589	0	771.579268163749
14.454398	5.2480746e-7	0.36	6542.5413	1820.7147	-0.17371066	-0.010197277	-0.010175088	-7.1407438	20.869372	0	772.9111752958886
14.454398	5.7543994e-7	0.36	5968.141	1661.6537	-0.17229378	-0.010197321	-0.010172991	-6.5279794	19.035121	0	774.2431359456707
14.454398	6.3095734e-7	0.36	5444.2818	1516.5802	-0.1708769	-0.01019737	-0.010170693	-5.9690069	17.362264	0	775.5751645824014
14.454398	6.9183097e-7	0.36	4966.5166	1384.2636	-0.16946002	-0.010197423	-0.010168172	-5.4590931	15.836601	0	776.9072686474385
14.454398	7.5857758e-7	0.36	4530.7897	1263.5813	-0.16804315	-0.010197482	-0.010165409	-4.9939215	14.44518	0	778.2394451717553
14.454398	8.3176377e-7	0.36	4133.402	1153.5096	-0.16662629	-0.010197546	-0.010162379	-4.5695552	13.176189	0	779.5717026114401
14.454398	9.1201084e-7	0.36	3770.9803	1053.1149	-0.16520943	-0.010197617	-0.010159056	-4.1824037	12.018856	0	780.9040591564781
14.454398	1.e-6	0.36	3440.4478	961.54584	-0.16379258	-0.010197694	-0.010155413	-3.8291926	10.963356	0	782.2365145437907
14.454398	1.0964782e-6	0.36	3138.9988	878.02574	-0.16237574	-0.010197778	-0.010151419	-3.5069355	10.000729	0	783.5690792589276
14.454398	1.2022644e-6	0.36	2864.0741	801.84642	-0.16095891	-0.010197871	-0.010147039	-3.2129087	9.1228028	0	784.901765140412
14.454398	1.3182567e-6	0.36	2613.3399	732.36196	-0.15954209	-0.010197973	-0.010142237	-2.9446282	8.3221251	0	786.234584365011
14.454398	1.4454398e-6	0.36	2384.6677	668.9833	-0.15812527	-0.010198085	-0.010136971	-2.6998287	7.591899	0	787.5675605346058
14.454398	1.5848932e-6	0.36	2176.1164	611.1732	-0.15670847	-0.010198207	-0.010131197	-2.4764441	6.9259253	0	788.9006897406048
14.454398	1.7378008e-6	0.36	1985.9155	558.44168	-0.15529168	-0.010198341	-0.010124867	-2.27259	6.3185507	0	790.233997614351
14.454398	1.9054607e-6	0.36	1812.4504	510.34188	-0.15387491	-0.010198489	-0.010117925	-2.0865481	5.764619	0	791.567493701828
14.454398	2.0892961e-6	0.36	1654.2485	466.46626	-0.15245815	-0.01019865	-0.010110314	-1.9167508	5.2594279	0	792.9012066785704
14.454398	2.2908677e-6	0.36	1509.967	426.44316	-0.1510414	-0.010198827	-0.010101969	-1.761769	4.798689	0	794.2351585304073
14.454398	2.5118864e-6	0.36	1378.3808	389.93358	-0.14962468	-0.010199021	-0.010092818	-1.620299	4.3784909	0	795.5693548195657
14.454398	2.7542287e-6	0.36	1258.3731	356.6284	-0.14820797	-0.010199234	-0.010082785	-1.4911519	3.9952666	0	796.9038400438606
14.454398	3.0199517e-6	0.36	1148.9251	326.24564	-0.14679129	-0.010199468	-0.010071784	-1.3732433	3.6457628	0	798.238624500928
14.454398	3.3113112e-6	0.36	1049.1076	298.52817	-0.14537463	-0.010199724	-0.010059721	-1.2655844	3.3270126	0	799.5737493813132
14.454398	3.6307805e-6	0.36	958.07337	273.2415	-0.14395799	-0.010200004	-0.010046495	-1.1672732	3.0363102	0	800.9092488476122
14.454398	3.9810717e-6	0.36	875.04953	250.17173	-0.14254139	-0.010200312	-0.010031993	-1.0774873	2.7711877	0	802.2451423300363
14.454398	4.3651583e-6	0.36	799.33131	229.12381	-0.14112481	-0.01020065	-0.010016092	-0.99547645	2.5293945	0	803.581490223846
14.454398	4.7863009e-6	0.36	730.27593	209.91984	-0.13970827	-0.01020102	-0.0099986567	-0.92055648	2.3088781	0	804.9183195020839
14.454398	5.2480746e-6	0.36	667.2972	192.39758	-0.13829177	-0.010201426	-0.0099795398	-0.85210344	2.1077664	0	806.255679988021
14.454398	5.7543994e-6	0.36	609.86046	176.40906	-0.13687531	-0.010201871	-0.0099585788	-0.78954826	1.9243522	0	807.5936266462306
14.454398	6.3095734e-6	0.36	557.47815	161.81935	-0.1354589	-0.010202359	-0.0099355959	-0.73237193	1.7570784	0	808.932210220758
14.454398	6.9183097e-6	0.36	509.70559	148.50537	-0.13404253	-0.010202894	-0.009910396	-0.68010111	1.6045252	0	810.2715060985681
14.454398	7.5857758e-6	0.36	466.13723	136.35488	-0.13262622	-0.010203481	-0.0098827656	-0.63230409	1.4653975	0	811.6115677033474
14.454398	8.3176377e-6	0.36	426.40322	125.26552	-0.13120997	-0.010204125	-0.0098524705	-0.58858715	1.3385142	0	812.9524742517297
14.454398	9.1201084e-6	0.36	390.16626	115.14392	-0.12979378	-0.01020483	-0.0098192532	-0.54859122	1.2227981	0	814.2943128414222
14.454398	0.00001	0.36	357.11873	105.90496	-0.12837767	-0.010205604	-0.0097828331	-0.51198879	1.1172671	0	815.6371595922521
14.454398	0.000010964782	0.36	326.98009	97.47097	-0.12696164	-0.010206453	-0.0097429006	-0.47848116	1.0210251	0	816.9811192244147
14.454398	0.000012022644	0.36	299.48946	89.771094	-0.12555486	-0.010211734	-0.009703469	-0.4478013	0.9332491	0	818.3162184509072
14.454398	0.000013182567	0.36	274.42309	82.740852	-0.12413989	-0.010213173	-0.0096558837	-0.41969052	0.85320571	0	819.6617706538545
14.454398	0.000014454398	0.36	251.5636	76.321295	-0.1227251	-0.010214751	-0.0096037115	-0.3939271	0.78020981	0	821.0087052242682
14.454398	0.000015848932	0.36	230.71694	70.458709	-0.12131053	-0.01021648	-0.0095465107	-0.37030437	0.71364174	0	822.3571339816997
14.454398	0.000017378008	0.36	211.70614	65.104109	-0.11989618	-0.010218376	-0.0094837976	-0.34863383	0.6529364	0	823.7072205345426
14.454398	0.000019054607	0.36	194.36982	60.21282	-0.11848207	-0.010220455	-0.009415043	-0.32874355	0.59757845	0	825.0591250899639
14.454398	0.000020892961	0.36	178.5608	55.744102	-0.11706824	-0.010222733	-0.0093396664	-0.3104767	0.54709795	0	826.4130064157162
14.454398	0.000022908677	0.36	164.14489	51.660802	-0.11565471	-0.010225231	-0.009257033	-0.29369024	0.50106637	0	827.769060437483
14.454398	0.000025118864	0.36	150.99969	47.929037	-0.1142415	-0.01022797	-0.0091664474	-0.27825371	0.45909294	0	829.1275035785054
14.454398	0.000027542287	0.36	139.01363	44.517911	-0.11282865	-0.010230971	-0.0090671484	-0.26404808	0.42082135	0	830.4885557271411
14.454398	0.000030199517	0.36	128.08495	41.399247	-0.11141619	-0.01023426	-0.0089583038	-0.2509648	0.3859267	0	831.8524701826923
14.454398	0.000033113112	0.36	118.12087	38.547352	-0.11000415	-0.010237867	-0.008839005	-0.23890483	0.35411274	0	833.2195260862659
14.454398	0.000036307805	0.36	109.03681	35.938798	-0.10859259	-0.010241818	-0.008708256	-0.22777783	0.3251094	0	834.5900039544929
14.454398	0.000039810717	0.36	100.75563	33.55222	-0.10718154	-0.01024615	-0.0085649737	-0.21750135	0.29867045	0	835.9642419519757
14.454398	0.000043651583	0.36	93.207041	31.368141	-0.10577105	-0.010250897	-0.0084079727	-0.20800021	0.27457142	0	837.3425940543228
14.454398	0.000047863009	0.36	86.326948	29.368798	-0.10436117	-0.010256098	-0.0082359636	-0.19920578	0.2526077	0	838.7254494144688
14.454398	0.000052480746	0.36	80.056933	27.537999	-0.10295196	-0.010261798	-0.0080475423	-0.19105543	0.23259279	0	840.1132265862278
14.454398	0.000057543994	0.36	74.343752	25.86098	-0.10154349	-0.010268043	-0.007841183	-0.183492	0.21435674	0	841.5063758919972
14.454398	0.000063095734	0.36	69.138883	24.324282	-0.10013582	-0.010274885	-0.0076152311	-0.17646333	0.19774465	0	842.9054006155941
14.454398	0.000069183097	0.36	64.398113	22.915638	-0.098729027	-0.01028238	-0.0073678951	-0.16992179	0.18261541	0	844.3108343737633
14.454398	0.000075857758	0.36	60.081157	21.623861	-0.097323193	-0.010290591	-0.0070972419	-0.16382389	0.16884045	0	845.7232539807064
14.454398	0.000083176377	0.36	56.151318	20.43876	-0.095918407	-0.010299583	-0.0068011904	-0.15812991	0.15630267	0	847.1432797337093
14.454398	0.000091201084	0.36	52.575169	19.351042	-0.094514764	-0.010309431	-0.0064775103	-0.15280357	0.14489541	0	848.5715767585991
14.454398	0.0001	0.36	49.322263	18.352238	-0.093112371	-0.010320215	-0.0061238224	-0.14781171	0.13452154	0	850.0088492708813
14.454398	0.00010964782	0.36	46.364873	17.43463	-0.091711339	-0.010332022	-0.0057376008	-0.14312403	0.12509263	0	851.455847348124
14.454398	0.00012022644	0.36	43.677746	16.591182	-0.090311793	-0.010344947	-0.0053161838	-0.1387128	0.11652813	0	852.9133538474512
14.454398	0.00013182567	0.36	41.237882	15.815479	-0.088913867	-0.010359093	-0.0048567875	-0.13455269	0.10875474	0	854.3821845032587
14.454398	0.00014454398	0.36	39.024326	15.101674	-0.087517706	-0.010374573	-0.0043565297	-0.1306205	0.10170565	0	855.8631779640612
14.454398	0.00015848932	0.36	37.017977	14.444429	-0.086123465	-0.010391511	-0.0038124617	-0.126895	0.095320019	0	857.3571859759143
14.454398	0.00017378008	0.36	35.201414	13.838875	-0.084731315	-0.010410038	-0.0032216077	-0.12335673	0.089542358	0	858.865054418228
14.454398	0.00019054607	0.36	33.558724	13.280561	-0.083341438	-0.0104303	-0.0025810204	-0.11998789	0.084322017	0	860.3876091952527
14.454398	0.00020892961	0.36	32.075356	12.765416	-0.08195403	-0.010452454	-0.0018878417	-0.11677216	0.079612698	0	861.9256328860016
14.454398	0.00022908677	0.36	30.737972	12.289713	-0.080569303	-0.010476669	-0.001139378	-0.11369458	0.07537199	0	863.4798373953821
14.454398	0.00025118864	0.36	29.534314	11.850027	-0.079187484	-0.010503129	-0.00033318033	-0.11074145	0.071560942	0	865.0508377903076
14.454398	0.00027542287	0.36	28.453081	11.443212	-0.077808814	-0.010532034	0.00053287107	-0.10790022	0.068143671	0	866.6391246306252
14.454398	0.00030199517	0.36	27.483819	11.066365	-0.076433553	-0.0105636	0.0014604845	-0.10515941	0.065087009	0	868.2450314507597
14.454398	0.00033113112	0.36	26.616822	10.716803	-0.075061978	-0.010598057	0.0024508833	-0.10250853	0.062360188	0	869.8687117779442
14.454398	0.00036307805	0.36	25.843047	10.392043	-0.073694382	-0.010635656	0.0035047501	-0.099937994	0.059934565	0	871.5101212147092
14.454398	0.00039810717	0.36	25.154046	10.089779	-0.072331076	-0.010676667	0.0046221906	-0.09743909	0.057783405	0	873.1690033085714
14.454398	0.00043651583	0.36	24.54191	9.8078723	-0.07097239	-0.010721378	0.0058027346	-0.095003898	0.055881708	0	874.8448889608596
14.454398	0.00047863009	0.36	23.999234	9.5443365	-0.069618668	-0.010770099	0.0070453626	-0.092625248	0.054206088	0	876.5371101218188
14.454398	0.00052480746	0.36	23.519092	9.2973308	-0.068270274	-0.010823164	0.0083485641	-0.090296677	0.052734692	0	878.244813872815
14.454398	0.00057543994	0.36	23.095023	9.0651537	-0.066927588	-0.010880926	0.009710427	-0.088012373	0.051447151	0	879.9669964235699
14.454398	0.00063095734	0.36	22.721023	8.8462383	-0.065591001	-0.010943765	0.011128736	-0.085767138	0.050324562	0	881.7025410931477
14.454398	0.00069183097	0.36	22.391545	8.6391495	-0.064260922	-0.011012085	0.012601094	-0.083556341	0.049349479	0	883.4502527957646
14.454398	0.00075857758	0.36	22.101498	8.4425796	-0.062937769	-0.011086313	0.014125026	-0.081375869	0.048505894	0	885.2089016403775
14.454398	0.00083176377	0.36	21.846237	8.2553446	-0.06162197	-0.011166906	0.015698086	-0.079222088	0.047779226	0	886.9772581493517
14.454398	0.00091201084	0.36	21.621561	8.0763791	-0.060313957	-0.011254344	0.017317946	-0.077091798	0.047156288	0	888.7541289995277
14.454398	0.001	0.36	21.423696	7.9047306	-0.059014167	-0.011349134	0.018982462	-0.07498219	0.046625234	0	890.5383784067276
14.454398	0.0010964782	0.36	21.249275	7.7395526	-0.057723034	-0.011451813	0.020689725	-0.072890802	0.0461755	0	892.3289528926983
14.454398	0.0012022644	0.36	21.095322	7.5800969	-0.056440986	-0.011562944	0.022438091	-0.070815487	0.045797727	0	894.1248942511138
14.454398	0.0013182567	0.36	20.959221	7.425706	-0.055168442	-0.011683113	0.024226198	-0.068754369	0.045483676	0	895.9253481164094
14.454398	0.0014454398	0.36	20.838693	7.275805	-0.053905801	-0.011812939	0.026052965	-0.066705811	0.045226137	0	897.7295739607591
14.454398	0.0015848932	0.36	20.731771	7.1298935	-0.052653442	-0.011953062	0.027917591	-0.064668387	0.045018839	0	899.5369447558311
14.454398	0.0017378008	0.36	20.636769	6.9875378	-0.051411714	-0.01210415	0.029819535	-0.062640848	0.04485636	0	901.3469496035705
14.454398	0.0019054607	0.36	20.552264	6.8483642	-0.050180931	-0.012266894	0.031758501	-0.060622096	0.044734045	0	903.1591933603737
14.454398	0.0020892961	0.36	20.477068	6.7120514	-0.048961362	-0.012442011	0.033734422	-0.058611163	0.044647925	0	904.9734006208453
14.454398	0.0022908677	0.36	20.410207	6.5783254	-0.047753232	-0.012630237	0.035747436	-0.056607185	0.044594644	0	906.7894066603881
14.454398	0.0025118864	0.36	20.350905	6.4469534	-0.046556705	-0.012832327	0.037797873	-0.054609386	0.0445714	0	908.6071690106485
14.454398	0.0027542287	0.36	20.298565	6.3177392	-0.045371891	-0.013049055	0.039886234	-0.052617054	0.044575882	0	910.4267537794442
14.454398	0.0030199517	0.36	20.252751	6.1905182	-0.044198827	-0.013281211	0.042013177	-0.05062953	0.044606221	0	912.2483487670977
14.454398	0.0033113112	0.36	20.213177	6.0651542	-0.043037485	-0.013529595	0.044179508	-0.04864619	0.044660945	0	914.0722529057203
14.454398	0.0036307805	0.36	20.179691	5.9415354	-0.041887764	-0.013795013	0.046386169	-0.04666643	0.044738938	0	915.8988797168145
14.454398	0.0039810717	0.36	20.152259	5.8195715	-0.040749488	-0.014078279	0.048634229	-0.044689656	0.044839403	0	917.7287561462106
14.454398	0.0043651583	0.36	20.130958	5.6991904	-0.03962241	-0.014380205	0.050924883	-0.042715272	0.044961828	0	919.5625184675639
14.454398	0.0047863009	0.36	20.115958	5.5803359	-0.038506215	-0.014701593	0.053259449	-0.040742669	0.045105958	0	921.4009084489269
14.454398	0.0052480746	0.36	20.107511	5.462965	-0.037400524	-0.015043232	0.055639367	-0.038771217	0.04527176	0	923.2447692562446
14.454398	0.0057543994	0.36	20.105938	5.3470457	-0.036304901	-0.015405892	0.058066201	-0.036800259	0.045459399	0	925.0950395528843
14.454398	0.0063095734	0.36	20.111611	5.2325547	-0.03521887	-0.015790304	0.060541652	-0.034829103	0.045669211	0	926.9527419241904
14.454398	0.0069183097	0.36	20.124944	5.1194753	-0.034141921	-0.016197161	0.063067556	-0.03285702	0.045901667	0	928.818976563605
14.454398	0.0075857758	0.36	20.146371	5.0077956	-0.033073538	-0.016627093	0.065645905	-0.030883236	0.046157354	0	930.6949020679526
14.454398	0.0083176377	0.36	20.176335	4.8975061	-0.03201321	-0.017080657	0.068278858	-0.028906937	0.046436944	0	932.5817288228998
14.454398	0.0091201084	0.36	20.215265	4.7885982	-0.03096047	-0.01755831	0.070968764	-0.026927265	0.046741164	0	934.4806901395074
14.454398	0.01	0.36	20.26356	4.6810626	-0.029914914	-0.018060398	0.073718178	-0.02494332	0.047070767	0	936.3930298143857
14.454398	0.010964782	0.36	20.321562	4.5748873	-0.02887625	-0.018587106	0.076529905	-0.022954168	0.047426503	0	938.3199709737074
14.454398	0.012022644	0.36	20.389539	4.470056	-0.027844339	-0.019138442	0.079407023	-0.020958844	0.047809091	0	940.2626853306292
14.454398	0.013182567	0.36	20.467645	4.3665474	-0.02681925	-0.019714187	0.082352928	-0.018956359	0.048219184	0	942.2222567301567
14.454398	0.014454398	0.36	20.555897	4.264333	-0.025801326	-0.020313853	0.085371383	-0.016945721	0.048657343	0	944.1996357117623
14.454398	0.015848932	0.36	20.654124	4.1633767	-0.024791269	-0.020936629	0.088466572	-0.01492594	0.049123999	0	946.1955779114837
14.454398	0.017378008	0.36	20.761915	4.063634	-0.023790232	-0.021581323	0.091643157	-0.012896056	0.049619427	0	948.2105769017905
14.454398	0.019054607	0.36	20.878553	3.9650505	-0.022799943	-0.022246319	0.094906331	-0.010855166	0.050143696	0	950.2447656123882
14.454398	0.020892961	0.36	21.002915	3.8675617	-0.021822864	-0.022929515	0.098261874	-0.0088024511	0.050696631	0	952.2977858809652
14.454398	0.022908677	0.36	21.13333	3.7710907	-0.020862387	-0.023628315	0.10171617	-0.0067372333	0.051277725	0	954.3686100485249
14.454398	0.025118864	0.36	21.267382	3.6755432	-0.01992312	-0.024339633	0.1052762	-0.0046590293	0.051886015	0	956.4552698759892
14.454398	0.027542287	0.36	21.401587	3.5807965	-0.019011265	-0.02506	0.10894944	-0.0025676427	0.052519805	0	958.5544668876576
14.454398	0.030199517	0.36	21.530914	3.4866717	-0.018135173	-0.025785826	0.11274363	-0.00046329073	0.053176128	0	960.6609727781839
14.454398	0.033113112	0.36	21.648108	3.3928742	-0.017306063	-0.026513899	0.11666621	0.0016532148	0.053849641	0	962.7667630957394
14.454398	0.036307805	0.36	21.74295	3.2988738	-0.016538722	-0.027242359	0.12072342	0.0037802097	0.054530522	0	964.8600551270963
14.454398	0.039810717	0.36	21.802312	3.2037041	-0.015851209	-0.02797218	0.12491879	0.0059148778	0.055201085	0	966.9250752612453
14.454398	0.043651583	0.36	21.813463	3.1057689	-0.015260973	-0.02870865	0.12925168	0.0080530837	0.055832643	0	968.9452125465382
14.454398	0.047863009	0.36	21.773773	3.0030329	-0.014774361	-0.02946055	0.13371806	0.010189836	0.056388892	0	970.9131404402882
14.454398	0.052480746	0.36	21.702846	2.8939849	-0.014374059	-0.030234702	0.13831604	0.012320901	0.056842349	0	972.8444872967013
14.454398	0.057543994	0.36	21.642389	2.7786759	-0.014019218	-0.031029509	0.14305227	0.01444513	0.057192647	0	974.7798827402075
14.454398	0.063095734	0.36	21.641221	2.6585543	-0.013659833	-0.031835233	0.1479417	0.016565953	0.057465504	0	976.7713664768476
14.454398	0.069183097	0.36	21.742507	2.5354571	-0.01324818	-0.032639979	0.15300159	0.018691364	0.057697172	0	978.8696164066432
14.454398	0.075857758	0.36	21.981538	2.4108863	-0.012739974	-0.033435098	0.15824611	0.020833193	0.057922587	0	981.1210340918828
14.454398	0.083176377	0.36	22.38902	2.2858119	-0.012090506	-0.034217944	0.1636836	0.023006467	0.058171699	0	983.5704475108064
14.454398	0.091201084	0.36	22.995087	2.1607291	-0.011250266	-0.034992873	0.16931557	0.025229166	0.058470108	0	986.2648852916167
14.454398	0.1	0.36	23.832742	2.0357658	-0.010161079	-0.035771483	0.17513646	0.027522338	0.058840829	0	989.2571260145453
14.454398	0.10964782	0.36	24.940617	1.9107689	-0.0087527153	-0.036572691	0.18113357	0.029910524	0.059306045	0	992.608859379473
14.454398	0.12022644	0.36	26.363965	1.7853783	-0.0069410631	-0.037423151	0.18728665	0.032422384	0.05988888	0	996.3922644878044
14.454398	0.13182567	0.36	28.148864	1.6591967	-0.0046334767	-0.038358257	0.1935669	0.035091156	0.060616458	0	1000.6846466155368
14.454398	0.14454398	0.36	30.318226	1.5324524	-0.001756594	-0.039418337	0.19994081	0.037953745	0.061529197	0	1005.5435997092782
14.454398	0.15848932	0.36	31.877618	1.4129516	0.00068597209	-0.040725036	0.20629373	0.041023669	0.062760703	0	1009.9873842337231
14.454398	0.17378008	0.36	35.071416	1.3151645	0.0051205813	-0.042394058	0.21251718	0.044299491	0.064532156	0	1016.2590310601145
14.454398	0.19054607	0.36	39.039301	1.2212099	0.010731803	-0.044312234	0.21873177	0.047924857	0.066712113	0	1023.6331853748472
14.454398	0.20892961	0.36	43.982113	1.1317899	0.017827286	-0.046510806	0.22491392	0.05198517	0.069396776	0	1032.390927557422
14.454398	0.22908677	0.36	50.137536	1.0476019	0.026771894	-0.049011405	0.2310499	0.05658738	0.072703827	0	1042.87042681422
14.454398	0.25118864	0.36	57.768105	0.9692831	0.03797657	-0.051821904	0.23713998	0.061863101	0.076774681	0	1055.457882274619
14.454398	0.27542287	0.36	67.137144	0.89734289	0.051872751	-0.054932752	0.24320209	0.067969969	0.081774811	0	1070.5647219009475
14.454398	0.30199517	0.36	78.473313	0.8320959	0.068872399	-0.058315156	0.24927368	0.075090057	0.087891131	0	1088.5906781339702
14.454398	0.33113112	0.36	91.930161	0.77361184	0.089320107	-0.061922566	0.25541021	0.083424497	0.095325844	0	1109.8782776022929
14.454398	0.36307805	0.36	107.55248	0.72170007	0.1134501	-0.065696107	0.26167974	0.093184353	0.10428708	0	1134.6706108543983
14.454398	0.39810717	0.36	125.26182	0.67593719	0.14136233	-0.069572987	0.26815453	0.10457906	0.11497776	0	1163.086030803338
14.454398	0.43651583	0.36	144.86712	0.63573051	0.17302513	-0.073495428	0.27490211	0.11780464	0.12758481	0	1195.1176258184855
14.454398	0.47863009	0.36	166.09595	0.60039802	0.20830142	-0.077417457	0.28197851	0.13303412	0.14227073	0	1230.6555520664233
14.454398	0.52480746	0.36	188.63496	0.56924311	0.24698674	-0.081308077	0.2894251	0.15041146	0.15916877	0	1269.5216991503617
14.454398	0.57543994	0.36	212.16757	0.54160977	0.28884726	-0.085151013	0.29726884	0.17004945	0.17838165	0	1311.505487549971
14.454398	0.63095734	0.36	236.40164	0.51691465	0.33364944	-0.088942236	0.30552478	0.19203092	0.1999832	0	1356.3925817384784
14.454398	0.69183097	0.36	261.08559	0.49465933	0.38117925	-0.092686646	0.31419937	0.21641191	0.22402181	0	1403.984068214766
14.454398	0.75857758	0.36	286.01465	0.47442946	0.43125204	-0.096394903	0.32329365	0.2432261	0.25052478	0	1454.1068080102236
14.454398	0.83176377	0.36	311.03051	0.45588671	0.48371588	-0.10008086	0.33280585	0.2724894	0.27950282	0	1506.6174542701851
14.454398	0.91201084	0.36	336.01718	0.43875777	0.53845081	-0.10375975	0.34273317	0.3042043	0.31095421	0	1561.402349653391
14.454398	1.	0.36	360.89512	0.4228231	0.59536607	-0.10744696	0.35307305	0.33836377	0.34486854	0	1618.3753533052486
14.454398	1.0964782	0.36	385.61515	0.40790672	0.65439661	-0.11115734	0.36382386	0.37495453	0.38122982	0	1677.4747951627937
14.454398	1.2022644	0.36	410.15262	0.3938674	0.71549943	-0.11490486	0.37498526	0.4139597	0.42001901	0	1738.660158913177
14.454398	1.3182567	0.36	434.50229	0.38059144	0.77865027	-0.11870241	0.38655843	0.45536099	0.46121606	0	1801.9090498283686
14.454398	1.4454398	0.36	458.67411	0.36798695	0.84384073	-0.12256182	0.398546	0.49914037	0.50480153	0	1867.2144651399017
14.454398	1.5848932	0.36	482.68959	0.35597917	0.91107574	-0.12649393	0.41095209	0.54528138	0.55075781	0	1934.5824304682783
14.454398	1.7378008	0.36	506.57896	0.34450693	0.98037163	-0.13050867	0.42378217	0.59377012	0.59907006	0	2004.030139107752
14.454398	1.9054607	0.36	530.3789	0.33351977	1.0517544	-0.13461517	0.43704298	0.64459597	0.64972688	0	2075.5842995187877
14.454398	2.0892961	0.36	554.13073	0.32297575	1.1252584	-0.13882189	0.45074243	0.69775216	0.70272086	0	2149.2798612774477
14.454398	2.2908677	0.36	577.87898	0.31283972	1.2009252	-0.14313672	0.46488952	0.75323614	0.75804891	0	2225.1589263070673
14.454398	2.5118864	0.36	601.67033	0.30308193	1.2788028	-0.14756708	0.47949423	0.81104983	0.81571248	0	2303.269969414835
14.454398	2.7542287	0.36	625.55275	0.29367703	1.358945	-0.15212	0.49456746	0.8711998	0.87571776	0	2383.6672260710143
14.454398	3.0199517	0.36	649.57489	0.28460314	1.4414106	-0.15680223	0.51012097	0.93369735	0.93807573	0	2466.40992046205
14.454398	3.3113112	0.36	673.7856	0.27584128	1.5262631	-0.16162026	0.52616735	0.99855859	1.0028022	0	2551.561973473661
14.454398	3.6307805	0.36	698.2336	0.26737475	1.6135705	-0.16658041	0.54271993	1.0658044	1.0699177	0	2639.191784335848
14.454398	3.9810717	0.36	722.9672	0.25918879	1.7034048	-0.17168889	0.5597928	1.1354603	1.1394477	0	2729.371767605093
14.454398	4.3651583	0.36	748.0342	0.25127021	1.7958418	-0.17695181	0.57740075	1.2075569	1.2114224	0	2822.1781449566743
14.454398	4.7863009	0.36	773.48173	0.2436071	1.8909611	-0.18237523	0.59555927	1.2821289	1.2858766	0	2917.6909451846714
14.454398	5.2480746	0.36	799.35624	0.23618867	1.988846	-0.18796523	0.61428453	1.359216	1.3628496	0	3015.993903480552
14.454398	5.7543994	0.36	825.70347	0.22900503	2.0895831	-0.19372787	0.63359336	1.4388624	1.4423854	0	3117.174078842172
14.454398	6.3095734	0.36	852.56845	0.22204706	2.1932626	-0.19966929	0.65350328	1.5211165	1.5245325	0	3221.3221460906752
14.454398	6.9183097	0.36	879.99556	0.2153063	2.2999782	-0.20579568	0.67403247	1.6060314	1.6093437	0	3328.532291766659
14.454398	7.5857758	0.36	908.02855	0.20877486	2.409827	-0.21211332	0.69519976	1.6936642	1.696876	0	3438.9021167912033
14.454398	8.3176377	0.36	936.71067	0.20244536	2.5229093	-0.21862859	0.71702467	1.7840764	1.7871909	0	3552.532462082541
14.454398	9.1201084	0.36	966.08466	0.1963108	2.6393291	-0.22534801	0.73952743	1.8773339	1.880354	0	3669.527885103603
14.454398	10.	0.36	996.19289	0.1903646	2.759194	-0.23227822	0.76272891	1.9735065	1.9764351	0	3789.9965422284367