14.454398	1.e-12	0.01	3.4259869e9	9.4816329e8	-0.36962018	-0.072037271	-0.072037271	-3.6463533e6	1.0940316e7	0	591.6061989738354
14.454398	1.0964782e-12	0.01	3.1245372e9	8.647352e8	-0.36820324	-0.072037271	-0.072037271	-3.3255138e6	9.977687e6	0	592.9375067008644
14.454398	1.2022644e-12	0.01	2.8496118e9	7.8864788e8	-0.36678631	-0.072037271	-0.072037271	-3.0329047e6	9.0997587e6	0	594.2688050322399
14.454398	1.3182567e-12	0.01	2.5988768e9	7.1925542e8	-0.36536938	-0.07203727	-0.07203727	-2.766042e6	8.2990786e6	0	595.6001033730112
14.454398	1.4454398e-12	0.01	2.3702038e9	6.5596874e8	-0.36395245	-0.072037271	-0.072037271	-2.5226603e6	7.5688496e6	0	596.931401694991
14.454398	1.5848932e-12	0.01	2.1616516e9	5.982506e8	-0.36253552	-0.072037271	-0.072037271	-2.3006936e6	6.9028729e6	0	598.2627000263664
14.454398	1.7378008e-12	0.01	1.9714497e9	5.4561104e8	-0.36111859	-0.07203727	-0.07203727	-2.0982575e6	6.295495e6	0	599.5939983671375
14.454398	1.9054607e-12	0.01	1.7979835e9	4.9760318e8	-0.35970166	-0.072037271	-0.072037271	-1.9136336e6	5.7415596e6	0	600.9252966891173
14.454398	2.0892961e-12	0.01	1.6397804e9	4.538195e8	-0.35828473	-0.07203727	-0.07203727	-1.7452546e6	5.2363646e6	0	602.2565950298884
14.454398	2.2908677e-12	0.01	1.4954975e9	4.138883e8	-0.3568678	-0.072037271	-0.072037271	-1.5916912e6	4.7756213e6	0	603.5878933518683
14.454398	2.5118864e-12	0.01	1.36391e9	3.7747062e8	-0.35545087	-0.072037271	-0.07203727	-1.4516396e6	4.3554184e6	0	604.9191916926395
14.454398	2.7542287e-12	0.01	1.2439007e9	3.442573e8	-0.35403393	-0.07203727	-0.07203727	-1.3239111e6	3.9721888e6	0	606.2504994196686
14.454398	3.0199517e-12	0.01	1.1344509e9	3.1396639e8	-0.352617	-0.072037271	-0.072037271	-1.2074213e6	3.6226792e6	0	607.5817977416484
14.454398	3.3113112e-12	0.01	1.0346315e9	2.8634076e8	-0.35120007	-0.07203727	-0.07203727	-1.1011814e6	3.3039228e6	0	608.9130960824195
14.454398	3.6307805e-12	0.01	9.4359515e8	2.6114587e8	-0.34978314	-0.072037271	-0.072037271	-1.0042894e6	3.0132133e6	0	610.2443944043994
14.454398	3.9810717e-12	0.01	8.6056901e8	2.3816787e8	-0.34836621	-0.07203727	-0.07203727	-915922.82	2.7480832e6	0	611.5756927451705
14.454398	4.3651583e-12	0.01	7.8484826e8	2.1721168e8	-0.34694928	-0.072037271	-0.072037271	-835331.57	2.5062817e6	0	612.9069910671504
14.454398	4.7863009e-12	0.01	7.1579013e8	1.9809941e8	-0.34553235	-0.072037271	-0.072037271	-761831.47	2.2857561e6	0	614.2382893985259
14.454398	5.2480746e-12	0.01	6.5280836e8	1.8066881e8	-0.34411542	-0.07203727	-0.07203727	-694798.6	2.0846343e6	0	615.5695877392969
14.454398	5.7543994e-12	0.01	5.953683e8	1.6477192e8	-0.34269849	-0.072037271	-0.072037271	-633663.88	1.9012091e6	0	616.9008860612768
14.454398	6.3095734e-12	0.01	5.4298234e8	1.5027378e8	-0.34128156	-0.072037271	-0.07203727	-577908.36	1.7339233e6	0	618.232184402048
14.454398	6.9183097e-12	0.01	4.9520578e8	1.3705131e8	-0.33986463	-0.072037271	-0.072037271	-527058.71	1.5813568e6	0	619.5634827240278
14.454398	7.5857758e-12	0.01	4.5163305e8	1.2499229e8	-0.33844769	-0.072037271	-0.072037271	-480683.29	1.4422146e6	0	620.8947904510569
14.454398	8.3176377e-12	0.01	4.1189423e8	1.1399432e8	-0.33703076	-0.07203727	-0.07203727	-438388.4	1.3153153e6	0	622.226088791828
14.454398	9.1201084e-12	0.01	3.75652e8	1.0396406e8	-0.33561383	-0.072037271	-0.072037271	-399815.	1.1995818e6	0	623.5573871138079
14.454398	1.e-11	0.01	3.4259871e8	9.4816352e7	-0.3341969	-0.07203727	-0.07203727	-364635.65	1.0940317e6	0	624.888685454579
14.454398	1.0964782e-11	0.01	3.1245373e8	8.6473543e7	-0.33277997	-0.07203727	-0.07203727	-332551.69	997768.74	0	626.2199837859545
14.454398	1.2022644e-11	0.01	2.8496119e8	7.8864809e7	-0.33136304	-0.072037271	-0.072037271	-303290.78	909975.9	0	627.5512821079343
14.454398	1.3182567e-11	0.01	2.598877e8	7.1925563e7	-0.32994611	-0.072037271	-0.072037271	-276604.5	829907.88	0	628.8825804393098
14.454398	1.4454398e-11	0.01	2.370204e8	6.5596895e7	-0.32852918	-0.072037271	-0.072037271	-252266.33	756884.98	0	630.2138787706855
14.454398	1.5848932e-11	0.01	2.1616517e8	5.9825082e7	-0.32711225	-0.072037271	-0.072037271	-230069.66	690287.32	0	631.545177102061
14.454398	1.7378008e-11	0.01	1.9714498e8	5.4561125e7	-0.32569532	-0.072037271	-0.072037271	-209826.05	629549.51	0	632.8764754334363
14.454398	1.9054607e-11	0.01	1.7979836e8	4.9760339e7	-0.32427838	-0.072037271	-0.072037271	-191363.66	574155.98	0	634.2077831604654
14.454398	2.0892961e-11	0.01	1.6397805e8	4.538197e7	-0.32286145	-0.072037271	-0.072037271	-174525.76	523636.48	0	635.539081491841
14.454398	2.2908677e-11	0.01	1.4954977e8	4.1388851e7	-0.32144452	-0.072037271	-0.072037271	-159169.42	477562.15	0	636.8703798232165
14.454398	2.5118864e-11	0.01	1.3639101e8	3.7747083e7	-0.32002759	-0.072037271	-0.07203727	-145164.26	435541.86	0	638.2016781639875
14.454398	2.7542287e-11	0.01	1.2439008e8	3.4425751e7	-0.31861066	-0.072037271	-0.072037271	-132391.41	397218.9	0	639.5329764859673
14.454398	3.0199517e-11	0.01	1.134451e8	3.139666e7	-0.31719373	-0.072037271	-0.072037271	-120742.43	362267.95	0	640.8642748173428
14.454398	3.3113112e-11	0.01	1.0346317e8	2.8634096e7	-0.3157768	-0.072037271	-0.07203727	-110118.43	330392.3	0	642.1955731581139
14.454398	3.6307805e-11	0.01	9.4359528e7	2.6114608e7	-0.31435987	-0.072037271	-0.072037271	-100429.23	301321.35	0	643.5268714800939
14.454398	3.9810717e-11	0.01	8.6056914e7	2.3816807e7	-0.31294294	-0.072037271	-0.072037271	-91592.574	274808.34	0	644.8581698114693
14.454398	4.3651583e-11	0.01	7.8484839e7	2.1721188e7	-0.31152601	-0.072037271	-0.072037271	-83533.448	250628.19	0	646.1894681428448
14.454398	4.7863009e-11	0.01	7.1579026e7	1.9809961e7	-0.31010908	-0.072037271	-0.072037271	-76183.438	228575.63	0	647.5207664742204
14.454398	5.2480746e-11	0.01	6.5280849e7	1.8066901e7	-0.30869214	-0.072037271	-0.072037271	-69480.148	208463.45	0	648.8520742012494
14.454398	5.7543994e-11	0.01	5.9536843e7	1.6477212e7	-0.30727521	-0.072037271	-0.072037271	-63366.675	190120.93	0	650.1833725326248
14.454398	6.3095734e-11	0.01	5.4298248e7	1.5027398e7	-0.30585828	-0.072037271	-0.072037271	-57791.122	173392.35	0	651.5146708640003
14.454398	6.9183097e-11	0.01	4.9520591e7	1.3705151e7	-0.30444135	-0.072037271	-0.072037271	-52706.157	158135.71	0	652.8459691953759
14.454398	7.5857758e-11	0.01	4.5163318e7	1.2499248e7	-0.30302442	-0.072037271	-0.072037271	-48068.613	144221.48	0	654.1772675267514
14.454398	8.3176377e-11	0.01	4.1189436e7	1.1399452e7	-0.30160749	-0.072037271	-0.072037271	-43839.122	131531.55	0	655.5085658581269
14.454398	9.1201084e-11	0.01	3.7565214e7	1.0396426e7	-0.30019056	-0.072037271	-0.072037271	-39981.782	119958.21	0	656.8398641895024
14.454398	1.e-10	0.01	3.4259884e7	9.4816547e6	-0.29877363	-0.072037271	-0.072037271	-36463.845	109403.19	0	658.1711625208778
14.454398	1.0964782e-10	0.01	3.1245386e7	8.6473736e6	-0.2973567	-0.072037271	-0.072037271	-33255.448	99776.894	0	659.5024608522534
14.454398	1.2022644e-10	0.01	2.8496132e7	7.8865004e6	-0.29593977	-0.072037271	-0.072037271	-30329.355	90997.612	0	660.8337591836289
14.454398	1.3182567e-10	0.01	2.5988783e7	7.1925756e6	-0.29452283	-0.072037271	-0.072037271	-27660.726	82990.809	0	662.1650669106579
14.454398	1.4454398e-10	0.01	2.3702053e7	6.5597088e6	-0.2931059	-0.072037271	-0.072037271	-25226.908	75688.52	0	663.4963652420333
14.454398	1.5848932e-10	0.01	2.161653e7	5.9825273e6	-0.29168897	-0.072037271	-0.072037271	-23007.24	69028.752	0	664.8276635734088
14.454398	1.7378008e-10	0.01	1.9714511e7	5.4561315e6	-0.29027204	-0.072037271	-0.072037271	-20982.878	62954.973	0	666.1589619047843
14.454398	1.9054607e-10	0.01	1.7979849e7	4.9760529e6	-0.28885511	-0.072037271	-0.072037271	-19136.637	57415.62	0	667.4902602361598
14.454398	2.0892961e-10	0.01	1.6397819e7	4.538216e6	-0.28743818	-0.072037271	-0.072037271	-17452.846	52363.67	0	668.8215585675354
14.454398	2.2908677e-10	0.01	1.495499e7	4.138904e6	-0.28602125	-0.072037271	-0.072037271	-15917.21	47756.236	0	670.1528568989108
14.454398	2.5118864e-10	0.01	1.3639114e7	3.774727e6	-0.28460432	-0.072037271	-0.072037271	-14516.693	43554.207	0	671.4841552302864
14.454398	2.7542287e-10	0.01	1.2439021e7	3.4425937e6	-0.28318739	-0.072037271	-0.072037271	-13239.407	39721.911	0	672.815453561662
14.454398	3.0199517e-10	0.01	1.1344523e7	3.1396846e6	-0.28177046	-0.072037271	-0.072037271	-12074.507	36226.816	0	674.1467518930374
14.454398	3.3113112e-10	0.01	1.0346329e7	2.8634281e6	-0.28035352	-0.072037272	-0.072037271	-11012.106	33039.25	0	675.4780596200665
14.454398	3.6307805e-10	0.01	9.4359658e6	2.6114792e6	-0.27893659	-0.072037272	-0.072037271	-10043.185	30132.156	0	676.8093579514419
14.454398	3.9810717e-10	0.01	8.6057044e6	2.381699e6	-0.27751966	-0.072037272	-0.072037271	-9159.5181	27480.855	0	678.1406562828173
14.454398	4.3651583e-10	0.01	7.848497e6	2.1721371e6	-0.27610273	-0.072037272	-0.072037271	-8353.6043	25062.84	0	679.4719546141928
14.454398	4.7863009e-10	0.01	7.1579156e6	1.9810143e6	-0.2746858	-0.072037272	-0.072037271	-7618.6019	22857.584	0	680.8032529455684
14.454398	5.2480746e-10	0.01	6.5280979e6	1.8067082e6	-0.27326887	-0.072037272	-0.072037271	-6948.2717	20846.366	0	682.1345512769439
14.454398	5.7543994e-10	0.01	5.9536972e6	1.6477391e6	-0.27185194	-0.072037272	-0.072037272	-6336.9231	19012.114	0	683.4658495989237
14.454398	6.3095734e-10	0.01	5.4298378e6	1.5027577e6	-0.27043501	-0.072037272	-0.072037272	-5779.3666	17339.256	0	684.7971479302993
14.454398	6.9183097e-10	0.01	4.9520722e6	1.370533e6	-0.26901808	-0.072037273	-0.072037272	-5270.8687	15813.592	0	686.1284462616748
14.454398	7.5857758e-10	0.01	4.5163447e6	1.2499426e6	-0.26760115	-0.072037273	-0.072037272	-4807.1131	14422.169	0	687.4597445930502
14.454398	8.3176377e-10	0.01	4.1189566e6	1.1399628e6	-0.26618421	-0.072037273	-0.072037272	-4384.1627	13153.177	0	688.7910523200792
14.454398	9.1201084e-10	0.01	3.7565344e6	1.0396601e6	-0.26476728	-0.072037273	-0.072037272	-3998.4274	11995.842	0	690.1223506514547
14.454398	1.e-9	0.01	3.4260013e6	948182.96	-0.26335035	-0.072037274	-0.072037272	-3646.6324	10940.34	0	691.4536489828301
14.454398	1.0964782e-9	0.01	3.1245516e6	864754.78	-0.26193342	-0.072037274	-0.072037273	-3325.7915	9977.7105	0	692.7849473048101
14.454398	1.2022644e-9	0.01	2.8496262e6	788667.36	-0.26051649	-0.072037274	-0.072037273	-3033.1809	9099.7823	0	694.1162456361857
14.454398	1.3182567e-9	0.01	2.5988913e6	719274.8	-0.25909956	-0.072037275	-0.072037273	-2766.3168	8299.1021	0	695.447543967561
14.454398	1.4454398e-9	0.01	2.3702183e6	655988.04	-0.25768263	-0.072037275	-0.072037273	-2522.9337	7568.8732	0	696.7788422989365
14.454398	1.5848932e-9	0.01	2.161666e6	598269.81	-0.2562657	-0.072037275	-0.072037274	-2300.9655	6902.8964	0	698.1101406209165
14.454398	1.7378008e-9	0.01	1.9714641e6	545630.15	-0.25484877	-0.072037276	-0.072037274	-2098.5281	6295.5184	0	699.441438952292
14.454398	1.9054607e-9	0.01	1.7979979e6	497622.2	-0.25343184	-0.072037276	-0.072037274	-1913.9028	5741.5831	0	700.7727372836674
14.454398	2.0892961e-9	0.01	1.6397949e6	453838.43	-0.25201491	-0.072037277	-0.072037274	-1745.5224	5236.3881	0	702.1040356150429
14.454398	2.2908677e-9	0.01	1.495512e6	413907.14	-0.25059797	-0.072037278	-0.072037275	-1591.9575	4775.6448	0	703.4353433326762
14.454398	2.5118864e-9	0.01	1.3639244e6	377489.36	-0.24918104	-0.072037278	-0.072037275	-1451.9045	4355.4418	0	704.7666416640518
14.454398	2.7542287e-9	0.01	1.2439151e6	344275.95	-0.24776411	-0.072037279	-0.072037276	-1324.1746	3972.2122	0	706.0979399860316
14.454398	3.0199517e-9	0.01	1.1344653e6	313984.95	-0.24634718	-0.07203728	-0.072037276	-1207.6834	3622.7027	0	707.4292383174071
14.454398	3.3113112e-9	0.01	1.034646e6	286359.23	-0.24493025	-0.072037281	-0.072037277	-1101.442	3303.9462	0	708.7605366393869
14.454398	3.6307805e-9	0.01	943609.59	261164.25	-0.24351332	-0.072037282	-0.072037278	-1004.5486	3013.2368	0	710.0918349613667
14.454398	3.9810717e-9	0.01	860583.46	238186.16	-0.24209639	-0.072037283	-0.072037278	-916.18066	2748.1067	0	711.4231332927424
14.454398	4.3651583e-9	0.01	784862.71	217229.88	-0.24067946	-0.072037284	-0.072037279	-835.58799	2506.3052	0	712.7544316147222
14.454398	4.7863009e-9	0.01	715804.56	198117.51	-0.23926253	-0.072037285	-0.07203728	-762.08648	2285.7795	0	714.085729936702
14.454398	5.2480746e-9	0.01	652822.8	180686.82	-0.2378456	-0.072037286	-0.07203728	-695.05219	2084.6578	0	715.4170282680775
14.454398	5.7543994e-9	0.01	595382.74	164789.83	-0.23642866	-0.072037288	-0.072037281	-633.91606	1901.2326	0	716.7483359857108
14.454398	6.3095734e-9	0.01	542996.78	150291.6	-0.23501173	-0.07203729	-0.072037282	-578.15911	1733.9468	0	718.0796343076908
14.454398	6.9183097e-9	0.01	495220.22	137069.05	-0.2335948	-0.072037292	-0.072037284	-527.30806	1581.3803	0	719.4109326202749
14.454398	7.5857758e-9	0.01	451647.48	125009.93	-0.23217787	-0.072037294	-0.072037285	-480.93122	1442.2381	0	720.7422309422548
14.454398	8.3176377e-9	0.01	411908.67	114011.87	-0.23076094	-0.072037296	-0.072037286	-438.63491	1315.3388	0	722.0735292642346
14.454398	9.1201084e-9	0.01	375666.45	103981.52	-0.22934401	-0.072037298	-0.072037288	-400.0601	1199.6053	0	723.4048275768188
14.454398	1.e-8	0.01	342613.14	94833.716	-0.22792708	-0.072037301	-0.07203729	-364.87933	1094.0551	0	724.736125889403
14.454398	1.0964782e-8	0.01	312468.17	86490.816	-0.22651015	-0.072037304	-0.072037291	-332.79396	997.79221	0	726.0674242113828
14.454398	1.2022644e-8	0.01	284975.63	78881.992	-0.22509322	-0.072037307	-0.072037293	-303.53163	909.99938	0	727.398722523967
14.454398	1.3182567e-8	0.01	259902.14	71942.653	-0.22367628	-0.072037311	-0.072037295	-276.84394	829.93136	0	728.7300302322046
14.454398	1.4454398e-8	0.01	237034.84	65613.893	-0.22225935	-0.072037315	-0.072037298	-252.50435	756.90846	0	730.0613285353933
14.454398	1.5848932e-8	0.01	216179.61	59841.988	-0.22084242	-0.072037319	-0.0720373	-230.30627	690.31079	0	731.3926268479775
14.454398	1.7378008e-8	0.01	197159.42	54577.939	-0.21942549	-0.072037324	-0.072037303	-210.06124	629.57299	0	732.7239251511659
14.454398	1.9054607e-8	0.01	179812.8	49777.061	-0.21800856	-0.072037329	-0.072037306	-191.59744	574.17946	0	734.0552234543545
14.454398	2.0892961e-8	0.01	163992.5	45398.6	-0.21659163	-0.072037335	-0.07203731	-174.75812	523.65996	0	735.3865217481474
14.454398	2.2908677e-8	0.01	149564.21	41405.389	-0.2151747	-0.072037341	-0.072037314	-159.40036	477.58563	0	736.7178200419404
14.454398	2.5118864e-8	0.01	136405.45	37763.528	-0.21375777	-0.072037348	-0.072037318	-145.39379	435.56533	0	738.0491183357332
14.454398	2.7542287e-8	0.01	124404.52	34442.105	-0.21234083	-0.072037355	-0.072037323	-132.61952	397.24238	0	739.3804260157839
14.454398	3.0199517e-8	0.01	113459.54	31412.921	-0.2109239	-0.072037363	-0.072037328	-120.96912	362.29142	0	740.7117243001811
14.454398	3.3113112e-8	0.01	103477.6	28650.266	-0.20950697	-0.072037372	-0.072037333	-110.34371	330.41577	0	742.0430225845785
14.454398	3.6307805e-8	0.01	94373.968	26130.685	-0.20809004	-0.072037382	-0.072037339	-100.65309	301.34483	0	743.3743208595799
14.454398	3.9810717e-8	0.01	86071.354	23832.793	-0.20667311	-0.072037393	-0.072037346	-91.815022	274.83182	0	744.7056191251859
14.454398	4.3651583e-8	0.01	78499.28	21737.082	-0.20525618	-0.072037404	-0.072037353	-83.754482	250.65167	0	746.0369173907918
14.454398	4.7863009e-8	0.01	71593.466	19825.763	-0.20383925	-0.072037417	-0.072037361	-76.403056	228.59911	0	747.368215647002
14.454398	5.2480746e-8	0.01	65295.289	18082.611	-0.20242231	-0.072037431	-0.07203737	-69.69835	208.48693	0	748.6995232894702
14.454398	5.7543994e-8	0.01	59551.283	16492.829	-0.20100538	-0.072037447	-0.072037379	-63.583462	190.14441	0	750.0308215362849
14.454398	6.3095734e-8	0.01	54312.687	15042.923	-0.19958845	-0.072037464	-0.07203739	-58.006493	173.41583	0	751.3621197643081
14.454398	6.9183097e-8	0.01	49535.031	13720.585	-0.19817152	-0.072037483	-0.072037401	-52.920112	158.15918	0	752.6934179923313
14.454398	7.5857758e-8	0.01	45177.757	12514.59	-0.19675459	-0.072037503	-0.072037414	-48.281153	144.24496	0	754.0247162015634
14.454398	8.3176377e-8	0.01	41203.876	11414.701	-0.19533765	-0.072037525	-0.072037428	-44.050247	131.55503	0	755.3560237970532
14.454398	9.1201084e-8	0.01	37579.654	10411.583	-0.19392072	-0.07203755	-0.072037443	-40.191491	119.98168	0	756.687321987494
14.454398	1.e-7	0.01	34274.323	9496.7202	-0.19250379	-0.072037577	-0.07203746	-36.672138	109.42666	0	758.0186201591433
14.454398	1.0964782e-7	0.01	31259.826	8662.3471	-0.19108686	-0.072037607	-0.072037478	-33.462326	99.80037	0	759.349918321397
14.454398	1.2022644e-7	0.01	28510.572	7901.3818	-0.18966992	-0.072037639	-0.072037498	-30.534817	91.021087	0	760.681225860513
14.454398	1.3182567e-7	0.01	26003.222	7207.365	-0.18825299	-0.072037675	-0.07203752	-27.864773	83.014285	0	762.0125239851841
14.454398	1.4454398e-7	0.01	23716.493	6574.4061	-0.18683606	-0.072037714	-0.072037544	-25.429539	75.711995	0	763.3438220910639
14.454398	1.5848932e-7	0.01	21630.97	5997.1327	-0.18541912	-0.072037757	-0.072037571	-23.208455	69.052228	0	764.6751295644104
14.454398	1.7378008e-7	0.01	19728.951	5470.6449	-0.18400219	-0.072037803	-0.072037599	-21.182678	62.978448	0	766.0064276327075
14.454398	1.9054607e-7	0.01	17994.289	4990.4743	-0.18258526	-0.072037855	-0.072037631	-19.335022	57.439096	0	767.3377256634221
14.454398	2.0892961e-7	0.01	16412.259	4552.5454	-0.18116832	-0.072037911	-0.072037666	-17.649815	52.387145	0	768.6690330616033
14.454398	2.2908677e-7	0.01	14969.43	4153.1414	-0.17975139	-0.072037973	-0.072037704	-16.112764	47.779713	0	770.0003310359439
14.454398	2.5118864e-7	0.01	13653.554	3788.8724	-0.17833445	-0.072038041	-0.072037746	-14.710831	43.577683	0	771.3316383683555
14.454398	2.7542287e-7	0.01	12453.461	3456.6471	-0.17691752	-0.072038115	-0.072037792	-13.43213	39.745387	0	772.6629362675309
14.454398	3.0199517e-7	0.01	11358.963	3153.6459	-0.17550058	-0.072038197	-0.072037842	-12.265815	36.250292	0	773.9942435247772
14.454398	3.3113112e-7	0.01	10360.769	2877.2974	-0.17408365	-0.072038286	-0.072037897	-11.201998	33.062726	0	775.3255413393917
14.454398	3.6307805e-7	0.01	9450.4058	2625.2565	-0.17266671	-0.072038384	-0.072037958	-10.231661	30.155632	0	776.6568484932859
14.454398	3.9810717e-7	0.01	8620.1444	2395.3844	-0.17124977	-0.072038491	-0.072038024	-9.3465788	27.504332	0	777.9881556002018
14.454398	4.3651583e-7	0.01	7862.9369	2185.7304	-0.16983284	-0.072038609	-0.072038096	-8.5392494	25.086316	0	779.3194532550903
14.454398	4.7863009e-7	0.01	7172.3555	1994.5155	-0.1684159	-0.072038738	-0.072038176	-7.8028315	22.88106	0	780.6507602304669
14.454398	5.2480746e-7	0.01	6542.5379	1820.1175	-0.16699896	-0.07203888	-0.072038263	-7.1310859	20.869842	0	781.982067140074
14.454398	5.7543994e-7	0.01	5968.1373	1661.0564	-0.16558202	-0.072039035	-0.072038359	-6.5183218	19.03559	0	783.3133739651204
14.454398	6.3095734e-7	0.01	5444.2777	1515.9829	-0.16416508	-0.072039205	-0.072038464	-5.9593496	17.362732	0	784.6446807056058
14.454398	6.9183097e-7	0.01	4966.5121	1383.6662	-0.16274814	-0.072039392	-0.07203858	-5.4494363	15.837068	0	785.9759873427389
14.454398	7.5857758e-7	0.01	4530.7847	1262.9838	-0.1613312	-0.072039597	-0.072038706	-4.9842651	14.445645	0	787.3072938859157
14.454398	8.3176377e-7	0.01	4133.3966	1152.9121	-0.15991425	-0.072039821	-0.072038844	-4.5598993	13.176653	0	788.6386097119978
14.454398	9.1201084e-7	0.01	3770.9744	1052.5173	-0.15849731	-0.072040067	-0.072038996	-4.1727484	12.019318	0	789.9699160108876
14.454398	1.e-6	0.01	3440.4413	960.94816	-0.15708036	-0.072040337	-0.072039163	-3.8195379	10.963816	0	791.3012315644959
14.454398	1.0964782e-6	0.01	3138.9916	877.42796	-0.15566342	-0.072040633	-0.072039346	-3.4972814	10.001187	0	792.6325375721204
14.454398	1.2022644e-6	0.01	2864.0662	801.24854	-0.15424647	-0.072040958	-0.072039546	-3.2032554	9.1232583	0	793.9638528156721
14.454398	1.3182567e-6	0.01	2613.3313	731.76398	-0.15282952	-0.072041313	-0.072039765	-2.9349757	8.3225782	0	795.2951678807065
14.454398	1.4454398e-6	0.01	2384.6583	668.3852	-0.15141256	-0.072041704	-0.072040006	-2.6901771	7.5923493	0	796.6264921346899
14.454398	1.5848932e-6	0.01	2176.1061	610.57495	-0.14999561	-0.072042131	-0.07204027	-2.4667934	6.9263725	0	797.95780677692
14.454398	1.7378008e-6	0.01	1985.9042	557.84328	-0.14857865	-0.072042601	-0.07204056	-2.2629404	6.3189945	0	799.2891305705166
14.454398	1.9054607e-6	0.01	1812.438	509.74333	-0.14716169	-0.072043115	-0.072040877	-2.0768996	5.7650593	0	800.6204541104303
14.454398	2.0892961e-6	0.01	1654.235	465.86754	-0.14574473	-0.072043678	-0.072041225	-1.9071037	5.2598643	0	801.9517773590788
14.454398	2.2908677e-6	0.01	1509.9521	425.84425	-0.14432777	-0.072044297	-0.072041606	-1.7521233	4.799121	0	803.2831002976709
14.454398	2.5118864e-6	0.01	1378.3645	389.33446	-0.1429108	-0.072044975	-0.072042025	-1.6106548	4.3789181	0	804.6144322748816
14.454398	2.7542287e-6	0.01	1258.3552	356.02904	-0.14149383	-0.072045718	-0.072042484	-1.4815093	3.9956885	0	805.9457638762663
14.454398	3.0199517e-6	0.01	1148.9055	325.64603	-0.14007685	-0.072046533	-0.072042987	-1.3636026	3.646179	0	807.2771044598954
14.454398	3.3113112e-6	0.01	1049.0861	297.92828	-0.13865987	-0.072047427	-0.072043538	-1.2559457	3.3274225	0	808.6084445925334
14.454398	3.6307805e-6	0.01	958.0498	272.6413	-0.13724289	-0.072048407	-0.072044143	-1.1576367	3.0367132	0	809.9397842178059
14.454398	3.9810717e-6	0.01	875.02367	249.5712	-0.1358259	-0.072049482	-0.072044806	-1.0678532	2.7715831	0	811.2711326937842
14.454398	4.3651583e-6	0.01	799.30296	228.52291	-0.1344089	-0.07205066	-0.072045534	-0.98584502	2.5297816	0	812.6024899546986
14.454398	4.7863009e-6	0.01	730.24485	209.31853	-0.1329919	-0.072051952	-0.072046331	-0.91092797	2.3092561	0	813.9338465673127
14.454398	5.2480746e-6	0.01	667.2631	191.79583	-0.13157489	-0.072053369	-0.072047205	-0.84247812	2.1081343	0	815.265211852115
14.454398	5.7543994e-6	0.01	609.82308	175.80683	-0.13015788	-0.072054922	-0.072048164	-0.77992644	1.9247092	0	816.5965763382867
14.454398	6.3095734e-6	0.01	557.43717	161.21659	-0.12874085	-0.072056626	-0.072049215	-0.72275395	1.7574235	0	817.9279587513654
14.454398	6.9183097e-6	0.01	509.66065	147.90203	-0.12732382	-0.072058493	-0.072050368	-0.67048733	1.6048571	0	819.2593402060876
14.454398	7.5857758e-6	0.01	466.08796	135.7509	-0.12590678	-0.072060541	-0.072051632	-0.62269493	1.4657149	0	820.5907300135455
14.454398	8.3176377e-6	0.01	426.3492	124.66083	-0.12448972	-0.072062787	-0.072053018	-0.57898305	1.3388157	0	821.9221374660407
14.454398	9.1201084e-6	0.01	390.10703	114.53847	-0.12307266	-0.072065249	-0.072054538	-0.53899267	1.2230823	0	823.2535436595184
14.454398	0.00001	0.01	357.05379	105.29866	-0.12165558	-0.072067948	-0.072056204	-0.50239631	1.1175322	0	824.5849672725377
14.454398	0.000010964782	0.01	326.90888	96.863753	-0.12023849	-0.072070908	-0.072058031	-0.46889536	1.0212694	0	825.9163987685101
14.454398	0.000012022644	0.01	299.41459	89.162863	-0.11882512	-0.072089386	-0.072075266	-0.43821938	0.93347391	0	827.2441903131516
14.454398	0.000013182567	0.01	274.341	82.131512	-0.11740835	-0.072094408	-0.072078926	-0.41011628	0.85340577	0	828.5753039259793
14.454398	0.000014454398	0.01	251.47359	75.710737	-0.1159916	-0.072099915	-0.072082939	-0.38436129	0.78038272	0	829.9063954308344
14.454398	0.000015848932	0.01	230.61826	69.846818	-0.11457487	-0.072105952	-0.072087338	-0.36074781	0.71378488	0	831.2374645176601
14.454398	0.000017378008	0.01	211.59794	64.490755	-0.11315816	-0.072112569	-0.072092159	-0.33908741	0.6530469	0	832.5685108482131
14.454398	0.000019054607	0.01	194.25118	59.597863	-0.11174147	-0.072119823	-0.072097444	-0.31920823	0.59765318	0	833.8995340278759
14.454398	0.000020892961	0.01	178.43073	55.127387	-0.1103248	-0.072127774	-0.072103236	-0.30095356	0.54713346	0	835.2305336526352
14.454398	0.000022908677	0.01	164.00227	51.042161	-0.10890815	-0.07213649	-0.072109585	-0.28418046	0.5010589	0	836.5615092527087
14.454398	0.000025118864	0.01	150.84333	47.308285	-0.10749154	-0.072146043	-0.072116542	-0.26875857	0.45903835	0	837.8924415576107
14.454398	0.000027542287	0.01	138.84221	43.894845	-0.10607495	-0.072156514	-0.072124167	-0.254569	0.42071511	0	839.2233487949093
14.454398	0.000030199517	0.01	127.89701	40.773646	-0.1046584	-0.07216799	-0.072132522	-0.24150332	0.38576385	0	840.5542115907667
14.454398	0.000033113112	0.01	117.91484	37.918974	-0.10324188	-0.072180568	-0.072141678	-0.22946265	0.35388787	0	841.8850386737455
14.454398	0.000036307805	0.01	108.81094	35.307377	-0.10182541	-0.072194351	-0.07215171	-0.2183568	0.32481656	0	843.215810547864
14.454398	0.000039810717	0.01	100.50804	32.917466	-0.10040897	-0.072209457	-0.072162701	-0.20810352	0.29830314	0	844.5465452245903
14.454398	0.000043651583	0.01	92.935658	30.729737	-0.098992589	-0.072226008	-0.072174742	-0.1986278	0.27412255	0	845.8772146015249
14.454398	0.000047863009	0.01	86.029502	28.726398	-0.097576255	-0.072244144	-0.072187932	-0.18986122	0.2520695	0	847.2078290232821
14.454398	0.000052480746	0.01	79.730952	26.891227	-0.096159979	-0.072264015	-0.072202379	-0.1817414	0.23195679	0	848.5383771399125
14.454398	0.000057543994	0.01	73.986537	25.209425	-0.094743765	-0.072285785	-0.072218202	-0.17421144	0.21361369	0	849.8688540750721
14.454398	0.000063095734	0.01	68.747492	23.667497	-0.093327619	-0.072309633	-0.072235531	-0.16721944	0.19688447	0	851.1992529699339
14.454398	0.000069183097	0.01	63.969346	22.253136	-0.091911548	-0.072335756	-0.072254504	-0.16071807	0.18162713	0	852.5295659509397
14.454398	0.000075857758	0.01	59.611536	20.955118	-0.090495558	-0.072364367	-0.072275276	-0.15466418	0.16771214	0	853.8597859243719
14.454398	0.000083176377	0.01	55.637067	19.763205	-0.089079657	-0.072395701	-0.072298015	-0.14901839	0.15502137	0	855.1899037952372
14.454398	0.000091201084	0.01	52.012202	18.668061	-0.087663854	-0.072430012	-0.072322901	-0.14374481	0.14344711	0	856.5199094162303
14.454398	0.0001	0.01	48.706169	17.661171	-0.086248157	-0.072467578	-0.072350134	-0.1388107	0.13289109	0	857.8497933916974
14.454398	0.00010964782	0.01	45.690904	16.734769	-0.084832577	-0.072508703	-0.072379927	-0.13418621	0.1232637	0	859.1795433851456
14.454398	0.00012022644	0.01	42.94081	15.881774	-0.083417123	-0.072553716	-0.072412517	-0.12984409	0.11448322	0	860.509148713717
14.454398	0.00013182567	0.01	40.432544	15.095725	-0.082001808	-0.072602977	-0.072448155	-0.12575953	0.1064751	0	861.8385948047529
14.454398	0.00014454398	0.01	38.144811	14.370732	-0.080586643	-0.072656876	-0.072487118	-0.12190987	0.099171376	0	863.1678687204384
14.454398	0.00015848932	0.01	36.058195	13.701423	-0.079171643	-0.072715839	-0.072529703	-0.11827447	0.09251004	0	864.4969535767841
14.454398	0.00017378008	0.01	34.154981	13.082897	-0.077756823	-0.072780327	-0.072576234	-0.11483448	0.086434546	0	865.825832236118
14.454398	0.00019054607	0.01	32.419016	12.510686	-0.076342198	-0.072850841	-0.072627058	-0.11157274	0.08089332	0	867.1544873446683
14.454398	0.00020892961	0.01	30.835564	11.980715	-0.074927785	-0.072927923	-0.072682551	-0.10847358	0.075839324	0	868.4828993970582
14.454398	0.00022908677	0.01	29.391186	11.489265	-0.073513602	-0.073012162	-0.072743119	-0.10552272	0.071229656	0	869.811047666476
14.454398	0.00025118864	0.01	28.073623	11.032947	-0.072099671	-0.073104194	-0.072809196	-0.10270714	0.067025189	0	871.1389074047704
14.454398	0.00027542287	0.01	26.871693	10.60867	-0.070686012	-0.073204705	-0.072881248	-0.10001496	0.063190233	0	872.4664554422601
14.454398	0.00030199517	0.01	25.775197	10.213614	-0.069272648	-0.073314436	-0.072959776	-0.097435353	0.059692238	0	873.7936654617196
14.454398	0.00033113112	0.01	24.77483	9.8452067	-0.067859603	-0.073434185	-0.073045312	-0.094958451	0.056501512	0	875.1205099150925
14.454398	0.00036307805	0.01	23.862107	9.501103	-0.066446904	-0.073564811	-0.073138426	-0.092575251	0.053590976	0	876.446958078592
14.454398	0.00039810717	0.01	23.029284	9.179164	-0.065034578	-0.073707234	-0.073239719	-0.090277547	0.050935928	0	877.7729789371664
14.454398	0.00043651583	0.01	22.269301	8.8774388	-0.063622655	-0.073862441	-0.073349831	-0.088057858	0.048513836	0	879.0985382906362
14.454398	0.00047863009	0.01	21.575712	8.594148	-0.062211165	-0.074031486	-0.073469433	-0.085909363	0.046304148	0	880.4236016475578
14.454398	0.00052480746	0.01	20.942642	8.3276691	-0.060800141	-0.074215495	-0.073599233	-0.083825847	0.044288118	0	881.7481313501519
14.454398	0.00057543994	0.01	20.364728	8.0765221	-0.059389618	-0.074415662	-0.073739966	-0.081801644	0.042448642	0	883.0720876078259
14.454398	0.00063095734	0.01	19.837079	7.8393573	-0.05797963	-0.074633257	-0.073892401	-0.079831591	0.04077012	0	884.3954312501005
14.454398	0.00069183097	0.01	19.355231	7.6149438	-0.056570213	-0.074869621	-0.074057327	-0.077910983	0.03923832	0	885.7181210394523
14.454398	0.00075857758	0.01	18.915115	7.4021588	-0.055161404	-0.07512617	-0.074235558	-0.076035532	0.037840259	0	887.0401145639013
14.454398	0.00083176377	0.01	18.513018	7.1999785	-0.053753242	-0.075404388	-0.074427918	-0.074201331	0.036564092	0	888.3613674383807
14.454398	0.00091201084	0.01	18.145553	7.0074694	-0.052345763	-0.07570583	-0.07463524	-0.072404824	0.035399012	0	889.6818380119586
14.454398	0.001	0.01	17.809632	6.8237797	-0.050939003	-0.076032116	-0.074858355	-0.070642769	0.034335161	0	891.0014846524939
14.454398	0.0010964782	0.01	17.502441	6.6481329	-0.049533	-0.076384929	-0.075098078	-0.068912212	0.033363545	0	892.320263999046
14.454398	0.0012022644	0.01	17.221415	6.479821	-0.048127784	-0.076766002	-0.0753552	-0.067210467	0.032475958	0	893.6381404326924
14.454398	0.0013182567	0.01	16.964219	6.3181982	-0.046723388	-0.077177121	-0.075630473	-0.065535083	0.031664914	0	894.9550758822452
14.454398	0.0014454398	0.01	16.728727	6.1626756	-0.045319835	-0.077620106	-0.07592459	-0.063883832	0.030923586	0	896.271042226513
14.454398	0.0015848932	0.01	16.513006	6.0127164	-0.043917144	-0.078096808	-0.076238173	-0.062254681	0.030245744	0	897.5860157696585
14.454398	0.0017378008	0.01	16.315303	5.8678311	-0.042515328	-0.078609097	-0.076571751	-0.06064578	0.02962571	0	898.8999793270309
14.454398	0.0019054607	0.01	16.134027	5.7275734	-0.041114387	-0.079158845	-0.076925737	-0.059055442	0.029058305	0	900.2129290182254
14.454398	0.0020892961	0.01	15.967739	5.5915364	-0.039714309	-0.079747918	-0.077300413	-0.057482128	0.028538809	0	901.5248734684519
14.454398	0.0022908677	0.01	15.815145	5.4593494	-0.038315069	-0.080378162	-0.077695906	-0.055924434	0.02806292	0	902.8358349735962
14.454398	0.0025118864	0.01	15.67508	5.3306743	-0.036916622	-0.081051387	-0.078112165	-0.054381076	0.027626724	0	904.1458562932775
14.454398	0.0027542287	0.01	15.546504	5.2052029	-0.035518901	-0.08176936	-0.078548946	-0.052850876	0.027226656	0	905.4550026709135
14.454398	0.0030199517	0.01	15.428494	5.0826546	-0.034121813	-0.082533786	-0.079005794	-0.051332755	0.026859476	0	906.763365761104
14.454398	0.0033113112	0.01	15.320236	4.9627733	-0.032725235	-0.083346305	-0.07948203	-0.049825718	0.026522243	0	908.0710675100362
14.454398	0.0036307805	0.01	15.221024	4.8453258	-0.031329008	-0.084208484	-0.079976748	-0.048328845	0.026212289	0	909.3782658210623
14.454398	0.0039810717	0.01	15.130251	4.7300995	-0.029932934	-0.085121815	-0.080488811	-0.04684128	0.025927198	0	910.6851574109801
14.454398	0.0043651583	0.01	15.047406	4.6169005	-0.028536767	-0.086087712	-0.081016865	-0.04536222	0.025664789	0	911.9919861345802
14.454398	0.0047863009	0.01	14.972071	4.5055519	-0.027140213	-0.087107519	-0.081559356	-0.04389091	0.025423098	0	913.2990428249212
14.454398	0.0052480746	0.01	14.903917	4.3958925	-0.025742919	-0.08818252	-0.082114564	-0.042426631	0.025200362	0	914.6066753090957
14.454398	0.0057543994	0.01	14.842696	4.2877748	-0.024344477	-0.089313954	-0.082680652	-0.040968691	0.024995005	0	915.915284189582
14.454398	0.0063095734	0.01	14.788239	4.1810641	-0.022944415	-0.090503036	-0.083255724	-0.03951642	0.024805625	0	917.2253307553841
14.454398	0.0069183097	0.01	14.740444	4.0756372	-0.021542203	-0.091750972	-0.083837899	-0.03806916	0.024630982	0	918.5373306493619
14.454398	0.0075857758	0.01	14.699267	3.9713808	-0.020137255	-0.093058993	-0.084425404	-0.036626261	0.024469988	0	919.8518511153042
14.454398	0.0083176377	0.01	14.664702	3.8681913	-0.018728943	-0.094428372	-0.085016666	-0.035187074	0.024321693	0	921.1694969796137
14.454398	0.0091201084	0.01	14.636763	3.765973	-0.017316619	-0.09586045	-0.085610419	-0.033750951	0.024185276	0	922.4908889755344
14.454398	0.01	0.01	14.615447	3.6646377	-0.015899643	-0.097356648	-0.086205799	-0.032317242	0.02406003	0	923.8166365427353
14.454398	0.010964782	0.01	14.600699	3.564104	-0.014477432	-0.098918479	-0.086802433	-0.0308853	0.023945348	0	925.1472909523939
14.454398	0.012022644	0.01	14.592348	3.4642962	-0.013049526	-0.10054754	-0.087400511	-0.029454488	0.023840704	0	926.4832826193968
14.454398	0.013182567	0.01	14.590044	3.3651444	-0.011615682	-0.1022455	-0.088000823	-0.028024194	0.023745633	0	927.8248324355585
14.454398	0.014454398	0.01	14.593161	3.2665836	-0.010175985	-0.10401409	-0.088604764	-0.026593854	0.023659701	0	929.1718474308868
14.454398	0.015848932	0.01	14.600693	3.1685535	-0.0087310014	-0.10585504	-0.089214311	-0.025162982	0.023582465	0	930.5237768603612
14.454398	0.017378008	0.01	14.611123	3.0709986	-0.0072819557	-0.10777011	-0.089831979	-0.023731215	0.023513434	0	931.8794465961417
14.454398	0.019054607	0.01	14.622288	2.9738676	-0.0058309387	-0.1097611	-0.090460781	-0.022298368	0.023452005	0	933.2368638858906
14.454398	0.020892961	0.01	14.631227	2.877114	-0.0043811302	-0.11182995	-0.091104231	-0.020864509	0.023397394	0	934.5930080833815
14.454398	0.022908677	0.01	14.634061	2.7806954	-0.0029370204	-0.11397889	-0.091766438	-0.019430036	0.02334855	0	935.9436217455395
14.454398	0.025118864	0.01	14.625899	2.6845747	-0.0015045931	-0.11621087	-0.092452337	-0.017995781	0.023304072	0	937.2830363336737
14.454398	0.027542287	0.01	14.600844	2.5887197	-0.000091422305	-0.11852998	-0.093168084	-0.016563102	0.023262105	0	938.604077735482
14.454398	0.030199517	0.01	14.552131	2.4931048	0.001293388	-0.12094219	-0.093921603	-0.01513398	0.023220274	0	939.8981177109531
14.454398	0.033113112	0.01	14.472469	2.3977122	0.0026395077	-0.12345589	-0.094723135	-0.01371109	0.023175633	0	941.1553542210844
14.454398	0.036307805	0.01	14.35467	2.3025361	0.0039360231	-0.1260823	-0.095585501	-0.012297822	0.023124697	0	942.3654126745397
14.454398	0.039810717	0.01	14.192604	2.207587	0.0051725065	-0.12883494	-0.096523578	-0.010898229	0.023063581	0	943.5183557865814
14.454398	0.043651583	0.01	13.98251	2.1129003	0.0063405564	-0.13172781	-0.097552416	-0.0095168602	0.022988278	0	944.6061483943369
14.454398	0.047863009	0.01	13.724614	2.0185442	0.0074357927	-0.13477187	-0.098683716	-0.0081584517	0.022895099	0	945.6245651690745
14.454398	0.052480746	0.01	13.42493	1.924626	0.0084602088	-0.1379704	-0.099921201	-0.0068274501	0.022781251	0	946.5754440603453
14.454398	0.057543994	0.01	13.097127	1.8312933	0.0094247729	-0.14131486	-0.10125646	-0.0055273516	0.022645507	0	947.4691694356625
14.454398	0.063095734	0.01	12.764353	1.7387274	0.010352192	-0.14478326	-0.10266735	-0.0042598629	0.022488949	0	948.327284053384
14.454398	0.069183097	0.01	12.46095	1.647133	0.011279781	-0.14834262	-0.10412047	-0.0030238862	0.022315826	0	949.1851615248112
14.454398	0.075857758	0.01	12.233936	1.55673	0.012262276	-0.15195535	-0.10557756	-0.0018143461	0.022134594	0	950.0945894706011
14.454398	0.083176377	0.01	12.143959	1.4677498	0.013374233	-0.15558823	-0.10700451	-0.00062089464	0.021959162	0	951.1259386107291
14.454398	0.091201084	0.01	12.265294	1.3804376	0.014711468	-0.15922239	-0.10838134	0.00057343328	0.021810269	0	952.3694220639281
14.454398	0.1	0.01	12.684549	1.2950574	0.016391067	-0.16286284	-0.10971177	0.0017935058	0.021716841	0	953.9350148269368
14.454398	0.10964782	0.01	13.498092	1.2118958	0.01854981	-0.16654635	-0.11103111	0.0030731835	0.02171715	0	955.9508988878032
14.454398	0.12022644	0.01	14.80881	1.1312638	0.021341576	-0.17034663	-0.11241145	0.0044561205	0.021859632	0	958.560976290359
14.454398	0.13182567	0.01	16.723422	1.0534946	0.024934992	-0.17437544	-0.11396278	0.0059962597	0.02220336	0	961.9226496929504
14.454398	0.14454398	0.01	19.351722	0.97893808	0.029512905	-0.17877869	-0.11582913	0.0077581519	0.022818265	0	966.2063625451552
14.454398	0.15848932	0.01	22.806598	0.90796772	0.035272692	-0.18373286	-0.11818495	0.0098172798	0.023785575	0	971.5959243653073
14.454398	0.17378008	0.01	27.217123	0.8409259	0.042440701	-0.18941948	-0.12120965	0.012260824	0.025197739	0	978.3023182170541
14.454398	0.19054607	0.01	32.715088	0.77801726	0.051258784	-0.19599136	-0.1250538	0.015188861	0.027157981	0	986.551365155876
14.454398	0.20892961	0.01	39.448556	0.71947518	0.061999922	-0.203614	-0.12988053	0.018715153	0.029783655	0	996.5980159576263
14.454398	0.22908677	0.01	47.573351	0.66546149	0.074960081	-0.21242927	-0.13582931	0.022968427	0.033205975	0	1008.7190396088891
14.454398	0.25118864	0.01	57.241155	0.61605158	0.090445681	-0.22254545	-0.14300586	0.028092606	0.037570025	0	1023.2013444157237
14.454398	0.27542287	0.01	68.581308	0.57122398	0.10875288	-0.23402858	-0.1514736	0.034245555	0.04303334	0	1040.32259430071
14.454398	0.30199517	0.01	81.679607	0.53085629	0.13014173	-0.24689675	-0.16124788	0.041595856	0.04976262	0	1060.3269808889659
14.454398	0.33113112	0.01	96.559563	0.49472984	0.15481099	-0.26111894	-0.17229488	0.050317577	0.057928566	0	1083.4015690108924
14.454398	0.36307805	0.01	113.17191	0.46254397	0.18288026	-0.27661969	-0.18453621	0.060583561	0.067699399	0	1109.6594672076276
14.454398	0.39810717	0.01	131.39592	0.43393866	0.21438441	-0.29328899	-0.19785888	0.072558261	0.079234031	0	1139.1344997378155
14.454398	0.43651583	0.01	151.0523	0.40852185	0.24928084	-0.31099543	-0.21212839	0.086391279	0.092676034	0	1171.787904832941
14.454398	0.47863009	0.01	171.92353	0.38589648	0.28746658	-0.32959951	-0.22720205	0.10221258	0.10814927	0	1207.5242761147133
14.454398	0.52480746	0.01	193.77641	0.36568284	0.32879976	-0.34896483	-0.24294016	0.12012988	0.12575559	0	1246.2116300197213
14.454398	0.57543994	0.01	216.38197	0.34753394	0.37312027	-0.36896579	-0.25921375	0.14022806	0.14557457	0	1287.700744497209
14.454398	0.63095734	0.01	239.53012	0.33114371	0.42026666	-0.38949187	-0.27590882	0.16257042	0.16766478	0	1331.840997825917
14.454398	0.69183097	0.01	263.03854	0.31624931	0.47008792	-0.4104492	-0.29292791	0.18720096	0.19206618	0	1378.4914219427328
14.454398	0.75857758	0.01	286.75659	0.30262939	0.52245057	-0.43176031	-0.31018987	0.21414734	0.21880303	0	1427.5273661220194
14.454398	0.83176377	0.01	310.56554	0.29009996	0.57724205	-0.45336313	-0.32762883	0.24342406	0.24788699	0	1478.843691779677
14.454398	0.91201084	0.01	334.3765	0.27850928	0.63437158	-0.47520965	-0.34519287	0.27503541	0.27932004	0	1532.3555929955626
14.454398	1.	0.01	358.12714	0.26773258	0.69376936	-0.4972647	-0.3628428	0.30897836	0.31309719	0	1587.9978563239065
14.454398	1.0964782	0.01	381.77796	0.25766714	0.75538503	-0.51950494	-0.38055114	0.34524487	0.34920886	0	1645.7234234462405
14.454398	1.2022644	0.01	405.30849	0.24822797	0.81918574	-0.54191803	-0.39830128	0.38382402	0.38764279	0	1705.5015857026224
14.454398	1.3182567	0.01	428.7139	0.23934419	0.88515413	-0.5645019	-0.41608677	0.42470366	0.42838577	0	1767.3160928405412
14.454398	1.4454398	0.01	452.00189	0.23095616	0.95328645	-0.58726403	-0.43391058	0.46787182	0.47142488	0	1831.1633935848433
14.454398	1.5848932	0.01	475.19009	0.22301313	1.0235909	-0.61022063	-0.45178426	0.51331778	0.51674864	0	1897.0510838516013
14.454398	1.7378008	0.01	498.30389	0.21547161	1.096086	-0.63339565	-0.46972698	0.56103294	0.56434779	0	1964.9963842764184
14.454398	1.9054607	0.01	521.37458	0.20829397	1.1707996	-0.65681967	-0.4877644	0.61101151	0.61421593	0	2035.0252206618245
14.454398	2.0892961	0.01	544.43794	0.20144753	1.2477675	-0.68052872	-0.50592746	0.66325097	0.66635007	0	2107.17093874583
14.454398	2.2908677	0.01	567.53301	0.19490378	1.3270328	-0.70456305	-0.5242512	0.71775251	0.72075093	0	2181.473704571321
14.454398	2.5118864	0.01	590.70119	0.18863784	1.4086452	-0.72896598	-0.54277355	0.77452124	0.77742327	0	2257.979858159055
14.454398	2.7542287	0.01	613.98547	0.18262792	1.49266	-0.75378284	-0.5615343	0.83356643	0.836376	0	2336.740983619835
14.454398	3.0199517	0.01	637.42988	0.17685497	1.5791379	-0.77906006	-0.58057419	0.8949016	0.89762236	0	2417.813729791482
14.454398	3.3113112	0.01	661.07899	0.1713023	1.6681449	-0.80484452	-0.5999342	0.95854465	0.96117999	0	2501.259722953215
14.454398	3.6307805	0.01	684.97764	0.16595525	1.7597511	-0.83118291	-0.61965498	1.0245178	1.0270709	0	2587.1444447027557
14.454398	3.9810717	0.01	709.17061	0.16080092	1.8540314	-0.85812141	-0.63977647	1.0928478	1.0953216	0	2675.537893222417
14.454398	4.3651583	0.01	733.7025	0.15582794	1.9510646	-0.88570546	-0.66033768	1.1635656	1.1659629	0	2766.5137397373364
14.454398	4.7863009	0.01	758.61756	0.15102622	2.0509337	-0.91397956	-0.6813765	1.2367066	1.23903	0	2860.149612170252
14.454398	5.2480746	0.01	783.95965	0.14638679	2.1537253	-0.94298733	-0.70292971	1.3123106	1.3145626	0	2956.5265313083396
14.454398	5.7543994	0.01	809.77215	0.1419016	2.25953	-0.97277146	-0.725033	1.3904215	1.3926045	0	3055.729286441434
14.454398	6.3095734	0.01	836.09798	0.1375634	2.3684421	-1.0033738	-0.74772102	1.4710875	1.4732038	0	3157.846153022648
14.454398	6.9183097	0.01	862.9796	0.13336565	2.4805595	-1.0348357	-0.77102751	1.5543611	1.5564128	0	3262.9687974903973
14.454398	7.5857758	0.01	890.45902	0.12930235	2.5959837	-1.0671976	-0.79498541	1.6402988	1.642288	0	3371.19227623488
14.454398	8.3176377	0.01	918.57788	0.12536804	2.7148201	-1.1004999	-0.81962703	1.7289612	1.7308899	0	3482.615315870421
14.454398	9.1201084	0.01	947.37747	0.12155764	2.8371776	-1.1347824	-0.84498417	1.8204131	1.8222832	0	3597.3399362818545
14.454398	10.	0.01	976.89878	0.11786647	2.9631689	-1.1700851	-0.87108826	1.9147232	1.9165365	0	3715.4717311787367