15.848932	1.e-12	0.06	4.9522013e9	1.2499408e9	-0.40853131	-0.047756296	-0.047756296	-5.2707369e6	1.5813722e7	0	553.0312770759349
15.848932	1.0964782e-12	0.06	4.5164613e9	1.1399595e9	-0.40697768	-0.047756297	-0.047756297	-4.8069692e6	1.4422285e7	0	554.4910139342813
15.848932	1.2022644e-12	0.06	4.1190617e9	1.0396555e9	-0.40542404	-0.047756296	-0.047756296	-4.3840081e6	1.3153281e7	0	555.9507603010293
15.848932	1.3182567e-12	0.06	3.7566289e9	9.4817706e8	-0.40387041	-0.047756296	-0.047756296	-3.9982629e6	1.1995935e7	0	557.4104972157497
15.848932	1.4454398e-12	0.06	3.4260863e9	8.6474776e8	-0.40231678	-0.047756296	-0.047756296	-3.6464592e6	1.0940422e7	0	558.8702341304702
15.848932	1.5848932e-12	0.06	3.1246278e9	7.8865933e8	-0.40076314	-0.047756297	-0.047756297	-3.3256103e6	9.9777837e6	0	560.3299803844703
15.848932	1.7378008e-12	0.06	2.8496945e9	7.1926587e8	-0.39920951	-0.047756296	-0.047756296	-3.0329927e6	9.099847e6	0	561.7897173555649
15.848932	1.9054607e-12	0.06	2.5989522e9	6.5597827e8	-0.39765587	-0.047756296	-0.047756296	-2.7661223e6	8.2991591e6	0	563.2494636659388
15.848932	2.0892961e-12	0.06	2.3702726e9	5.9825929e8	-0.39610224	-0.047756296	-0.047756296	-2.5227335e6	7.568923e6	0	564.7092005806593
15.848932	2.2908677e-12	0.06	2.1617143e9	5.4561896e8	-0.39454861	-0.047756297	-0.047756296	-2.3007603e6	6.9029398e6	0	566.16893749538
15.848932	2.5118864e-12	0.06	1.9715069e9	4.9761041e8	-0.39299497	-0.047756296	-0.047756296	-2.0983184e6	6.295556e6	0	567.6286838057538
15.848932	2.7542287e-12	0.06	1.7980357e9	4.5382609e8	-0.39144134	-0.047756296	-0.047756296	-1.9136892e6	5.7416153e6	0	569.0884207204742
15.848932	3.0199517e-12	0.06	1.639828e9	4.1389432e8	-0.3898877	-0.047756296	-0.047756296	-1.7453053e6	5.2364154e6	0	570.5481670308483
15.848932	3.3113112e-12	0.06	1.4955409e9	3.7747611e8	-0.38833407	-0.047756296	-0.047756296	-1.5917374e6	4.7756676e6	0	572.007903945569
15.848932	3.6307805e-12	0.06	1.3639495e9	3.442623e8	-0.38678044	-0.047756296	-0.047756296	-1.4516818e6	4.3554606e6	0	573.4676408602894
15.848932	3.9810717e-12	0.06	1.2439368e9	3.1397095e8	-0.3852268	-0.047756296	-0.047756296	-1.3239496e6	3.9722273e6	0	574.9273871706633
15.848932	4.3651583e-12	0.06	1.1344838e9	2.8634491e8	-0.38367317	-0.047756296	-0.047756296	-1.2074564e6	3.6227143e6	0	576.3871240853838
15.848932	4.7863009e-12	0.06	1.0346615e9	2.6114967e8	-0.38211954	-0.047756296	-0.047756296	-1.1012133e6	3.3039548e6	0	577.8468610001044
15.848932	5.2480746e-12	0.06	9.4362253e8	2.3817133e8	-0.3805659	-0.047756296	-0.047756296	-1.0043185e6	3.0132426e6	0	579.3066073104784
15.848932	5.7543994e-12	0.06	8.6059398e8	2.1721484e8	-0.37901227	-0.047756296	-0.047756296	-915949.43	2.7481099e6	0	580.7663442251987
15.848932	6.3095734e-12	0.06	7.8487103e8	1.9810229e8	-0.37745863	-0.047756296	-0.047756296	-835355.83	2.506306e6	0	582.2260905355729
15.848932	6.9183097e-12	0.06	7.158109e8	1.8067144e8	-0.375905	-0.047756296	-0.047756296	-761853.62	2.2857783e6	0	583.6858274502935
15.848932	7.5857758e-12	0.06	6.5282729e8	1.6477431e8	-0.37435137	-0.047756296	-0.047756296	-694818.78	2.0846545e6	0	585.1455643650138
15.848932	8.3176377e-12	0.06	5.9538557e8	1.5027596e8	-0.37279773	-0.047756296	-0.047756296	-633682.3	1.9012275e6	0	586.6053106753877
15.848932	9.1201084e-12	0.06	5.429981e8	1.370533e8	-0.3712441	-0.047756296	-0.047756296	-577925.16	1.7339401e6	0	588.0650475901083
15.848932	1.e-11	0.06	4.9522015e8	1.249941e8	-0.36969046	-0.047756296	-0.047756296	-527074.04	1.5813722e6	0	589.5247939004825
15.848932	1.0964782e-11	0.06	4.5164615e8	1.1399598e8	-0.36813683	-0.047756296	-0.047756296	-480697.27	1.4422286e6	0	590.9845308152028
15.848932	1.2022644e-11	0.06	4.1190619e8	1.0396557e8	-0.3665832	-0.047756296	-0.047756296	-438401.16	1.3153281e6	0	592.4442677299234
15.848932	1.3182567e-11	0.06	3.756629e8	9.4817728e7	-0.36502956	-0.047756296	-0.047756296	-399826.63	1.1995935e6	0	593.9040140402973
15.848932	1.4454398e-11	0.06	3.4260864e8	8.6474798e7	-0.36347593	-0.047756296	-0.047756296	-364646.26	1.0940423e6	0	595.3637509550177
15.848932	1.5848932e-11	0.06	3.124628e8	7.8865955e7	-0.36192229	-0.047756296	-0.047756296	-332561.37	997778.4	0	596.8234972653919
15.848932	1.7378008e-11	0.06	2.8496946e8	7.1926608e7	-0.36036866	-0.047756296	-0.047756296	-303299.61	909984.72	0	598.2832341801122
15.848932	1.9054607e-11	0.06	2.5989524e8	6.5597848e7	-0.35881503	-0.047756297	-0.047756296	-276612.56	829915.93	0	599.7429710948328
15.848932	2.0892961e-11	0.06	2.3702728e8	5.9825951e7	-0.35726139	-0.047756296	-0.047756296	-252273.69	756892.33	0	601.2027174052068
15.848932	2.2908677e-11	0.06	2.1617145e8	5.4561918e7	-0.35570776	-0.047756296	-0.047756296	-230076.37	690294.02	0	602.6624543199273
15.848932	2.5118864e-11	0.06	1.971507e8	4.9761062e7	-0.35415413	-0.047756296	-0.047756296	-209832.17	629555.62	0	604.122191234648
15.848932	2.7542287e-11	0.06	1.7980358e8	4.538263e7	-0.35260049	-0.047756297	-0.047756296	-191369.25	574161.55	0	605.5819375450218
15.848932	3.0199517e-11	0.06	1.6398281e8	4.1389452e7	-0.35104686	-0.047756296	-0.047756296	-174530.86	523641.56	0	607.0416744597422
15.848932	3.3113112e-11	0.06	1.495541e8	3.7747631e7	-0.34949322	-0.047756297	-0.047756296	-159174.07	477566.78	0	608.5014207701163
15.848932	3.6307805e-11	0.06	1.3639497e8	3.4426251e7	-0.34793959	-0.047756296	-0.047756296	-145168.51	435546.09	0	609.961157684837
15.848932	3.9810717e-11	0.06	1.2439369e8	3.1397116e7	-0.34638596	-0.047756296	-0.047756296	-132395.28	397222.76	0	611.4208945995574
15.848932	4.3651583e-11	0.06	1.1344839e8	2.8634512e7	-0.34483232	-0.047756296	-0.047756296	-120745.96	362271.46	0	612.8806409099312
15.848932	4.7863009e-11	0.06	1.0346617e8	2.6114987e7	-0.34327869	-0.047756297	-0.047756296	-110121.66	330395.5	0	614.3403778246519
15.848932	5.2480746e-11	0.06	9.4362267e7	2.3817153e7	-0.34172505	-0.047756296	-0.047756296	-100432.17	301324.28	0	615.800124135026
15.848932	5.7543994e-11	0.06	8.6059411e7	2.1721504e7	-0.34017142	-0.047756297	-0.047756296	-91595.262	274811.01	0	617.2598610497463
15.848932	6.3095734e-11	0.06	7.8487118e7	1.9810249e7	-0.33861779	-0.047756296	-0.047756296	-83535.903	250630.62	0	618.7195979644667
15.848932	6.9183097e-11	0.06	7.1581104e7	1.8067164e7	-0.33706415	-0.047756296	-0.047756296	-76185.679	228577.85	0	620.1793442748409
15.848932	7.5857758e-11	0.06	6.5282744e7	1.6477451e7	-0.33551052	-0.047756297	-0.047756296	-69482.194	208465.48	0	621.6390811895615
15.848932	8.3176377e-11	0.06	5.9538571e7	1.5027616e7	-0.33395688	-0.047756297	-0.047756296	-63368.544	190122.78	0	623.0988274999353
15.848932	9.1201084e-11	0.06	5.4299824e7	1.370535e7	-0.33240325	-0.047756297	-0.047756296	-57792.828	173394.03	0	624.5585644146557
15.848932	1.e-10	0.06	4.9522029e7	1.249943e7	-0.33084962	-0.047756297	-0.047756296	-52707.715	158137.24	0	626.0183013293763
15.848932	1.0964782e-10	0.06	4.5164629e7	1.1399618e7	-0.32929598	-0.047756297	-0.047756296	-48070.037	144222.88	0	627.4780476397505
15.848932	1.2022644e-10	0.06	4.1190633e7	1.0396577e7	-0.32774235	-0.047756297	-0.047756296	-43840.424	131532.83	0	628.9377845544708
15.848932	1.3182567e-10	0.06	3.7566305e7	9.4817924e6	-0.32618871	-0.047756297	-0.047756296	-39982.971	119959.37	0	630.3975308648447
15.848932	1.4454398e-10	0.06	3.4260878e7	8.6474993e6	-0.32463508	-0.047756297	-0.047756296	-36464.932	109404.25	0	631.8572677795654
15.848932	1.5848932e-10	0.06	3.1246294e7	7.8866149e6	-0.32308145	-0.047756297	-0.047756296	-33256.442	99777.863	0	633.3170046942859
15.848932	1.7378008e-10	0.06	2.849696e7	7.1926802e6	-0.32152781	-0.047756297	-0.047756296	-30330.264	90998.496	0	634.7767510046597
15.848932	1.9054607e-10	0.06	2.5989538e7	6.5598041e6	-0.31997418	-0.047756297	-0.047756296	-27661.558	82991.617	0	636.2364879193802
15.848932	2.0892961e-10	0.06	2.3702742e7	5.9826143e6	-0.31842055	-0.047756297	-0.047756296	-25227.669	75689.256	0	637.6962248341007
15.848932	2.2908677e-10	0.06	2.1617159e7	5.4562108e6	-0.31686691	-0.047756297	-0.047756296	-23007.936	69029.424	0	639.1559711444748
15.848932	2.5118864e-10	0.06	1.9715085e7	4.9761253e6	-0.31531328	-0.047756297	-0.047756295	-20983.515	62955.586	0	640.6157081155692
15.848932	2.7542287e-10	0.06	1.7980372e7	4.5382819e6	-0.31375964	-0.047756297	-0.047756296	-19137.221	57416.178	0	642.0754543695692
15.848932	3.0199517e-10	0.06	1.6398296e7	4.1389641e6	-0.31220601	-0.047756297	-0.047756295	-17453.381	52364.18	0	643.5351913406637
15.848932	3.3113112e-10	0.06	1.4955425e7	3.7747819e6	-0.31065238	-0.047756297	-0.047756295	-15917.7	47756.702	0	644.9949282553841
15.848932	3.6307805e-10	0.06	1.3639511e7	3.4426438e6	-0.30909874	-0.047756297	-0.047756295	-14517.143	43554.632	0	646.4546745657582
15.848932	3.9810717e-10	0.06	1.2439383e7	3.1397302e6	-0.30754511	-0.047756297	-0.047756295	-13239.819	39722.298	0	647.9144114804789
15.848932	4.3651583e-10	0.06	1.1344854e7	2.8634697e6	-0.30599147	-0.047756297	-0.047756295	-12074.886	36227.169	0	649.3741577908527
15.848932	4.7863009e-10	0.06	1.0346631e7	2.6115171e6	-0.30443784	-0.047756298	-0.047756295	-11012.453	33039.573	0	650.8338947055732
15.848932	5.2480746e-10	0.06	9.436241e6	2.3817337e6	-0.30288421	-0.047756298	-0.047756295	-10043.504	30132.451	0	652.2936316202938
15.848932	5.7543994e-10	0.06	8.6059555e6	2.1721687e6	-0.30133057	-0.047756298	-0.047756294	-9159.8113	27481.124	0	653.7533779870417
15.848932	6.3095734e-10	0.06	7.8487261e6	1.9810431e6	-0.29977694	-0.047756298	-0.047756294	-8353.8739	25063.086	0	655.2131149017622
15.848932	6.9183097e-10	0.06	7.1581246e6	1.8067345e6	-0.2982233	-0.047756298	-0.047756294	-7618.8501	22857.808	0	656.6728612121361
15.848932	7.5857758e-10	0.06	6.5282887e6	1.6477631e6	-0.29666967	-0.047756298	-0.047756294	-6948.5004	20846.571	0	658.1325981268567
15.848932	8.3176377e-10	0.06	5.9538714e6	1.5027795e6	-0.29511604	-0.047756299	-0.047756294	-6337.1338	19012.301	0	659.5923350415771
15.848932	9.1201084e-10	0.06	5.4299967e6	1.3705529e6	-0.2935624	-0.047756299	-0.047756293	-5779.561	17339.427	0	661.0520814083251
15.848932	1.e-9	0.06	4.9522172e6	1.2499608e6	-0.29200877	-0.047756299	-0.047756293	-5271.0482	15813.747	0	662.5118183230455
15.848932	1.0964782e-9	0.06	4.5164772e6	1.1399794e6	-0.29045514	-0.047756299	-0.047756293	-4807.279	14422.311	0	663.9715552377661
15.848932	1.2022644e-9	0.06	4.1190775e6	1.0396753e6	-0.2889015	-0.0477563	-0.047756292	-4384.3163	13153.306	0	665.4313016045141
15.848932	1.3182567e-9	0.06	3.7566448e6	948196.78	-0.28734787	-0.0477563	-0.047756292	-3998.5696	11995.96	0	666.8910385192344
15.848932	1.4454398e-9	0.06	3.4261022e6	864767.38	-0.28579423	-0.0477563	-0.047756291	-3646.7643	10940.448	0	668.3507848859824
15.848932	1.5848932e-9	0.06	3.1246437e6	788678.86	-0.2842406	-0.0477563	-0.047756291	-3325.9139	9977.8095	0	669.810521800703
15.848932	1.7378008e-9	0.06	2.8497103e6	719285.29	-0.28268697	-0.047756301	-0.047756291	-3033.2947	9099.8727	0	671.2702587154234
15.848932	1.9054607e-9	0.06	2.5989681e6	655997.6	-0.28113333	-0.047756301	-0.04775629	-2766.4227	8299.1848	0	672.7300050821713
15.848932	2.0892961e-9	0.06	2.3702884e6	598278.53	-0.2795797	-0.047756302	-0.04775629	-2523.0324	7568.9487	0	674.1897419968918
15.848932	2.2908677e-9	0.06	2.1617302e6	545638.12	-0.27802606	-0.047756302	-0.047756289	-2301.0577	6902.9656	0	675.6494883636399
15.848932	2.5118864e-9	0.06	1.9715227e6	497629.47	-0.27647243	-0.047756303	-0.047756288	-2098.6142	6295.5818	0	677.1092253347342
15.848932	2.7542287e-9	0.06	1.7980515e6	453845.06	-0.2749188	-0.047756303	-0.047756287	-1913.9834	5741.641	0	678.5689623058286
15.848932	3.0199517e-9	0.06	1.6398438e6	413913.19	-0.27336516	-0.047756304	-0.047756286	-1745.598	5236.4411	0	680.0287086725765
15.848932	3.3113112e-9	0.06	1.4955568e6	377494.89	-0.27181153	-0.047756305	-0.047756286	-1592.0285	4775.6933	0	681.488445587297
15.848932	3.6307805e-9	0.06	1.3639654e6	344280.99	-0.27025789	-0.047756306	-0.047756285	-1451.9714	4355.4863	0	682.9481919540449
15.848932	3.9810717e-9	0.06	1.2439526e6	313989.55	-0.26870426	-0.047756307	-0.047756283	-1324.2376	3972.253	0	684.4079289815132
15.848932	4.3651583e-9	0.06	1.1344997e6	286363.42	-0.26715063	-0.047756307	-0.047756282	-1207.7429	3622.7401	0	685.8676659526078
15.848932	4.7863009e-9	0.06	1.0346774e6	261168.08	-0.26559699	-0.047756309	-0.047756281	-1101.4983	3303.9805	0	687.3274123193557
15.848932	5.2480746e-9	0.06	943638.36	238189.65	-0.26404336	-0.04775631	-0.047756279	-1004.6019	3013.2683	0	688.787149346824
15.848932	5.7543994e-9	0.06	860609.81	217233.07	-0.26248972	-0.047756311	-0.047756277	-916.23125	2748.1356	0	690.2468957699457
15.848932	6.3095734e-9	0.06	784886.87	198120.43	-0.26093609	-0.047756313	-0.047756276	-835.6361	2506.3317	0	691.7066327410403
15.848932	6.9183097e-9	0.06	715826.73	180689.48	-0.25938246	-0.047756314	-0.047756274	-762.13234	2285.804	0	693.1663697685086
15.848932	7.5857758e-9	0.06	652843.13	164792.26	-0.25782882	-0.047756316	-0.047756272	-695.09595	2084.6802	0	694.6261161916304
15.848932	8.3176377e-9	0.06	595401.41	150293.82	-0.25627519	-0.047756318	-0.047756269	-633.95791	1901.2533	0	696.0858532754728
15.848932	9.1201084e-9	0.06	543013.93	137071.08	-0.25472156	-0.04775632	-0.047756266	-578.19922	1733.9658	0	697.5455903593149
15.848932	1.e-8	0.06	495235.99	125011.78	-0.25316792	-0.047756322	-0.047756263	-527.34655	1581.3979	0	699.0053368388106
15.848932	1.0964782e-8	0.06	451661.98	114013.57	-0.25161429	-0.047756325	-0.04775626	-480.96823	1442.2543	0	700.4650739226529
15.848932	1.2022644e-8	0.06	411922.01	103983.06	-0.25006065	-0.047756328	-0.047756257	-438.67056	1315.3538	0	701.9248204021487
15.848932	1.3182567e-8	0.06	375678.74	94835.132	-0.24850702	-0.04775633	-0.047756253	-400.09449	1199.6192	0	703.3845575423649
15.848932	1.4454398e-8	0.06	342624.47	86492.109	-0.24695339	-0.047756334	-0.047756249	-364.91256	1094.068	0	704.844294682581
15.848932	1.5848932e-8	0.06	312478.63	78883.175	-0.24539975	-0.047756337	-0.047756244	-332.82613	997.80413	0	706.3040412748247
15.848932	1.7378008e-8	0.06	284985.3	71943.736	-0.24384612	-0.047756341	-0.047756239	-303.56281	910.01045	0	707.7637784714149
15.848932	1.9054607e-8	0.06	259911.07	65614.884	-0.24229248	-0.047756346	-0.047756234	-276.87421	829.94165	0	709.2235250636584
15.848932	2.0892961e-8	0.06	237043.11	59842.894	-0.24073885	-0.04775635	-0.047756228	-252.53378	756.91805	0	710.6832623166223
15.848932	2.2908677e-8	0.06	216187.28	54578.769	-0.23918522	-0.047756355	-0.047756221	-230.33491	690.31973	0	712.1429996259603
15.848932	2.5118864e-8	0.06	197166.54	49777.822	-0.23763158	-0.047756361	-0.047756214	-210.08916	629.58134	0	713.6027463309518
15.848932	2.7542287e-8	0.06	179819.41	45399.298	-0.23607795	-0.047756368	-0.047756206	-191.62469	574.18727	0	715.0624836966637
15.848932	3.0199517e-8	0.06	163998.65	41406.028	-0.23452431	-0.047756374	-0.047756197	-174.78475	523.66728	0	716.5222305144028
15.848932	3.3113112e-8	0.06	149569.94	37764.115	-0.23297068	-0.047756382	-0.047756188	-159.4264	477.5925	0	717.9819679364887
15.848932	3.6307805e-8	0.06	136410.8	34442.642	-0.23141705	-0.04775639	-0.047756177	-145.41929	435.5718	0	719.4417054713225
15.848932	3.9810717e-8	0.06	124409.52	31413.416	-0.22986341	-0.047756399	-0.047756166	-132.64451	397.24847	0	720.9014524018095
15.848932	4.3651583e-8	0.06	113464.23	28650.72	-0.22830978	-0.047756409	-0.047756153	-120.99364	362.29718	0	722.3611900493911
15.848932	4.7863009e-8	0.06	103482.	26131.103	-0.22675614	-0.04775642	-0.04775614	-110.36778	330.42122	0	723.820937092626
15.848932	5.2480746e-8	0.06	94378.101	23833.177	-0.22520251	-0.047756432	-0.047756124	-100.67675	301.35	0	725.2806749093293
15.848932	5.7543994e-8	0.06	86075.245	21737.436	-0.22364888	-0.047756445	-0.047756108	-91.838285	274.83673	0	726.7404127260324
15.848932	6.3095734e-8	0.06	78502.951	19826.089	-0.22209524	-0.047756459	-0.04775609	-83.777373	250.65634	0	728.200160051137
15.848932	6.9183097e-8	0.06	71596.936	18082.911	-0.22054161	-0.047756475	-0.04775607	-76.425596	228.60356	0	729.659898093336
15.848932	7.5857758e-8	0.06	65298.577	16493.107	-0.21898797	-0.047756492	-0.047756048	-69.720561	208.4912	0	731.1196456439362
15.848932	8.3176377e-8	0.06	59554.405	15043.18	-0.21743434	-0.047756511	-0.047756024	-63.605359	190.1485	0	732.5793839116308
15.848932	9.1201084e-8	0.06	54315.657	13720.822	-0.21588071	-0.047756532	-0.047755998	-58.028091	173.41975	0	734.0391222920733
15.848932	1.e-7	0.06	49537.862	12514.81	-0.21432707	-0.047756555	-0.047755969	-52.941426	158.16296	0	735.498870237291
15.848932	1.0964782e-7	0.06	45180.462	11414.905	-0.21277344	-0.04775658	-0.047755937	-48.302195	144.2486	0	736.958608955977
15.848932	1.2022644e-7	0.06	41206.466	10411.772	-0.2112198	-0.047756607	-0.047755902	-44.07103	131.55855	0	738.4183572394381
15.848932	1.3182567e-7	0.06	37582.138	9496.896	-0.20966617	-0.047756637	-0.047755864	-40.212025	119.98509	0	739.8780962963677
15.848932	1.4454398e-7	0.06	34276.712	8662.5109	-0.20811254	-0.04775667	-0.047755823	-36.692434	109.42997	0	741.3378355224189
15.848932	1.5848932e-7	0.06	31262.127	7901.5345	-0.2065589	-0.047756706	-0.047755777	-33.482392	99.803583	0	742.7975844259934
15.848932	1.7378008e-7	0.06	28512.793	7207.5077	-0.20500527	-0.047756745	-0.047755727	-30.554662	91.024215	0	744.2573241594099
15.848932	1.9054607e-7	0.06	26005.371	6574.5396	-0.20345163	-0.047756789	-0.047755672	-27.884404	83.017335	0	745.7170735703495
15.848932	2.0892961e-7	0.06	23718.575	5997.2578	-0.201898	-0.047756836	-0.047755612	-25.448963	75.714975	0	747.1768138675052
15.848932	2.2908677e-7	0.06	21632.992	5470.7623	-0.20034437	-0.047756888	-0.047755546	-23.227677	69.055142	0	748.6365545029045
15.848932	2.5118864e-7	0.06	19730.918	4990.5848	-0.19879073	-0.047756945	-0.047755473	-21.201704	62.981305	0	750.0963049285748
15.848932	2.7542287e-7	0.06	17996.205	4552.6495	-0.1972371	-0.047757008	-0.047755394	-19.353859	57.441898	0	751.5560462968351
15.848932	3.0199517e-7	0.06	16414.129	4153.2396	-0.19568346	-0.047757077	-0.047755307	-17.668466	52.389899	0	753.0157975117401
15.848932	3.3113112e-7	0.06	14971.258	3788.9653	-0.19412983	-0.047757152	-0.047755211	-16.131233	47.78242	0	754.4755398383571
15.848932	3.6307805e-7	0.06	13655.344	3456.7352	-0.19257619	-0.047757235	-0.047755107	-14.729124	43.580351	0	755.9352920116188
15.848932	3.9810717e-7	0.06	12455.216	3153.7297	-0.19102256	-0.047757325	-0.047754992	-13.450248	39.748018	0	757.3950354093403
15.848932	4.3651583e-7	0.06	11360.687	2877.3772	-0.18946893	-0.047757424	-0.047754866	-12.283762	36.252888	0	758.8547794271748
15.848932	4.7863009e-7	0.06	10362.464	2625.3326	-0.18791529	-0.047757533	-0.047754728	-11.219778	33.065292	0	760.3145335171499
15.848932	5.2480746e-7	0.06	9452.0741	2395.4571	-0.18636166	-0.047757653	-0.047754577	-10.249277	30.15817	0	761.7742789443325
15.848932	5.7543994e-7	0.06	8621.7886	2185.8001	-0.18480802	-0.047757783	-0.047754411	-9.364032	27.506843	0	763.2340346127774
15.848932	6.3095734e-7	0.06	7864.5592	1994.5825	-0.18325439	-0.047757927	-0.047754229	-8.5565425	25.088805	0	764.6937817875514
15.848932	6.9183097e-7	0.06	7173.9577	1820.1819	-0.18170075	-0.047758085	-0.04775403	-7.8199665	22.883527	0	766.1535393163358
15.848932	7.5857758e-7	0.06	6544.1219	1661.1185	-0.18014712	-0.047758257	-0.047753811	-7.1480647	20.87229	0	767.613288576945
15.848932	8.3176377e-7	0.06	5969.7046	1516.0429	-0.17859348	-0.047758446	-0.047753571	-6.5351462	19.03802	0	769.07304841706
15.848932	9.1201084e-7	0.06	5445.8298	1383.7243	-0.17703985	-0.047758654	-0.047753308	-5.9760211	17.365146	0	770.5328001581216
15.848932	1.e-6	0.06	4968.0504	1263.0401	-0.17548621	-0.047758881	-0.04775302	-5.4659564	15.839467	0	771.992562704185
15.848932	1.0964782e-6	0.06	4532.3104	1152.9668	-0.17393258	-0.04775913	-0.047752704	-5.000635	14.448031	0	773.4523174330645
15.848932	1.2022644e-6	0.06	4134.9107	1052.5706	-0.17237894	-0.047759404	-0.047752357	-4.5761202	13.179026	0	774.9120833051892
15.848932	1.3182567e-6	0.06	3772.478	961.0001	-0.17082531	-0.047759704	-0.047751977	-4.1888214	12.02168	0	776.3718416419996
15.848932	1.4454398e-6	0.06	3441.9354	877.4787	-0.16927167	-0.047760032	-0.047751561	-3.835464	10.966168	0	777.8316114039247
15.848932	1.5848932e-6	0.06	3140.4769	801.29817	-0.16771804	-0.047760393	-0.047751104	-3.5130616	10.003529	0	779.2913740815271
15.848932	1.7378008e-6	0.06	2865.5436	731.8126	-0.1661644	-0.047760788	-0.047750603	-3.2188903	9.1255923	0	780.7511486352356
15.848932	1.9054607e-6	0.06	2614.8014	668.4329	-0.16461076	-0.047761222	-0.047750054	-2.9504662	8.3249045	0	782.2109258948922
15.848932	2.0892961e-6	0.06	2386.1217	610.62182	-0.16305713	-0.047761697	-0.047749452	-2.7055238	7.5946684	0	783.6706967467131
15.848932	2.2908677e-6	0.06	2177.5635	557.88939	-0.16150349	-0.047762218	-0.047748791	-2.481997	6.9286854	0	785.130480320249
15.848932	2.5118864e-6	0.06	1987.356	509.78874	-0.15994985	-0.04776279	-0.047748068	-2.2780014	6.3213016	0	786.5902673889677
15.848932	2.7542287e-6	0.06	1813.8848	465.91232	-0.15839622	-0.047763417	-0.047747274	-2.0918185	5.767361	0	788.0500490645816
15.848932	3.0199517e-6	0.06	1655.6772	425.88845	-0.15684258	-0.047764104	-0.047746404	-1.9218809	5.2621612	0	789.509844420267
15.848932	3.3113112e-6	0.06	1511.3901	389.37813	-0.15528894	-0.047764857	-0.04774545	-1.7667593	4.8014134	0	790.9696445113616
15.848932	3.6307805e-6	0.06	1379.7988	356.07224	-0.1537353	-0.047765683	-0.047744403	-1.6251501	4.3812066	0	792.4294498452307
15.848932	3.9810717e-6	0.06	1259.7861	325.68879	-0.15218166	-0.047766589	-0.047743256	-1.4958642	3.9979734	0	793.8892608164921
15.848932	4.3651583e-6	0.06	1150.3332	297.97066	-0.15062803	-0.047767582	-0.047741998	-1.3778173	3.6484607	0	795.3490686496052
15.848932	4.7863009e-6	0.06	1050.5109	272.68331	-0.14907439	-0.047768672	-0.047740619	-1.2700206	3.3297012	0	796.8088926996163
15.848932	5.2480746e-6	0.06	959.47197	249.61288	-0.14752075	-0.047769866	-0.047739107	-1.1715721	3.0389892	0	798.2687242473589
15.848932	5.7543994e-6	0.06	876.44347	228.56429	-0.14596711	-0.047771175	-0.047737449	-1.0816494	2.7738567	0	799.7285640256939
15.848932	6.3095734e-6	0.06	800.72058	209.35965	-0.14441346	-0.047772611	-0.047735631	-0.99950207	2.5320531	0	801.1884222195097
15.848932	6.9183097e-6	0.06	731.66049	191.8367	-0.14285982	-0.047774186	-0.047733638	-0.92444615	2.3115255	0	802.6482808831084
15.848932	7.5857758e-6	0.06	668.67696	175.84749	-0.14130618	-0.047775913	-0.047731452	-0.85585762	2.1104021	0	804.1081504268736
15.848932	8.3176377e-6	0.06	611.23531	161.25705	-0.13975254	-0.047777806	-0.047729056	-0.79316742	1.9269754	0	805.5680318091623
15.848932	9.1201084e-6	0.06	558.84791	147.9423	-0.13819889	-0.047779882	-0.047726429	-0.73585657	1.7596883	0	807.0279356094803
15.848932	0.00001	0.06	511.07005	135.79101	-0.13664525	-0.047782158	-0.047723548	-0.68345172	1.6071207	0	808.4878443331207
15.848932	0.000010964782	0.06	467.49614	124.7008	-0.1350916	-0.047784654	-0.047720389	-0.63552122	1.4679775	0	809.9477781243647
15.848932	0.000012022644	0.06	427.75386	114.57825	-0.1335423	-0.047801074	-0.047730609	-0.59167395	1.3410739	0	811.402870579647
15.848932	0.000013182567	0.06	391.51046	105.33832	-0.13198907	-0.047805392	-0.047728128	-0.55154592	1.2253394	0	812.8623715319256
15.848932	0.000014454398	0.06	358.45607	96.903302	-0.13043588	-0.047810124	-0.047725407	-0.51481206	1.1197883	0	814.3218484313311
15.848932	0.000015848932	0.06	328.31008	89.202372	-0.12888273	-0.047815313	-0.047722422	-0.48117369	1.0235246	0	815.7813026308379
15.848932	0.000017378008	0.06	300.81658	82.170941	-0.12732962	-0.047821001	-0.047719148	-0.45035846	0.93573104	0	817.2407355397936
15.848932	0.000019054607	0.06	275.74219	75.7501	-0.12577657	-0.047827236	-0.047715557	-0.42211797	0.85566243	0	818.7001299453615
15.848932	0.000020892961	0.06	252.87404	69.886122	-0.12422358	-0.047834071	-0.047711617	-0.39622566	0.782639	0	820.1594876515067
15.848932	0.000022908677	0.06	232.01801	64.53001	-0.12267064	-0.047841564	-0.047707296	-0.37247493	0.71604089	0	821.6188198578483
15.848932	0.000025118864	0.06	212.99704	59.637079	-0.12111777	-0.047849777	-0.047702556	-0.35067734	0.65530272	0	823.0781099152883
15.848932	0.000027542287	0.06	195.64966	55.166574	-0.11956498	-0.04785878	-0.047697355	-0.33066105	0.59990889	0	824.537350795878
15.848932	0.000030199517	0.06	179.82863	51.081326	-0.11801227	-0.047868647	-0.047691649	-0.31226932	0.54938917	0	825.9965449800696
15.848932	0.000033113112	0.06	165.39963	47.347438	-0.11645964	-0.047879462	-0.047685388	-0.29535921	0.5033147	0	827.4556952865596
15.848932	0.000036307805	0.06	152.24017	43.933995	-0.11490711	-0.047891315	-0.047678518	-0.27980037	0.46129433	0	828.9147859682324
15.848932	0.000039810717	0.06	140.23854	40.812801	-0.11335469	-0.047904306	-0.047670979	-0.26547389	0.42297136	0	830.3738110118699
15.848932	0.000043651583	0.06	129.29285	37.958141	-0.11180238	-0.047918542	-0.047662705	-0.25227136	0.38802045	0	831.8327741381506
15.848932	0.000047863009	0.06	119.3102	35.346567	-0.1102502	-0.047934142	-0.047653624	-0.24009388	0.35614493	0	833.2916606146903
15.848932	0.000052480746	0.06	110.20584	32.956687	-0.10869815	-0.047951237	-0.047643656	-0.22885126	0.32707419	0	834.7504749514022
15.848932	0.000057543994	0.06	101.90248	30.768999	-0.10714626	-0.047969966	-0.047632713	-0.21846127	0.30056145	0	836.2091939222314
15.848932	0.000063095734	0.06	94.329639	28.76571	-0.10559453	-0.047990487	-0.0476207	-0.20884887	0.27638165	0	837.6678228826999
15.848932	0.000069183097	0.06	87.423025	26.930599	-0.10404298	-0.048012967	-0.047607507	-0.19994568	0.25432952	0	839.126349242632
15.848932	0.000075857758	0.06	81.12401	25.248867	-0.10249163	-0.048037593	-0.04759302	-0.19168928	0.23421785	0	840.584760637348
15.848932	0.000083176377	0.06	75.379124	23.707022	-0.1009405	-0.048064565	-0.047577108	-0.18402278	0.21587593	0	842.0430456605245
15.848932	0.000091201084	0.06	70.139597	22.292755	-0.099389598	-0.048094105	-0.047559628	-0.17689429	0.19914806	0	843.5012048571092
15.848932	0.0001	0.06	65.360956	20.994843	-0.097838956	-0.048126454	-0.047540423	-0.17025648	0.18389222	0	844.9592170117166
15.848932	0.00010964782	0.06	61.002632	19.803051	-0.096288594	-0.048161873	-0.047519319	-0.16406619	0.16997891	0	846.4170731421021
15.848932	0.00012022644	0.06	57.027633	18.708042	-0.094738538	-0.048200649	-0.047496124	-0.15828407	0.15729003	0	847.8747596433594
15.848932	0.00013182567	0.06	53.402214	17.701303	-0.093188815	-0.048243095	-0.047470625	-0.1528742	0.14571785	0	849.3322631548691
15.848932	0.00014454398	0.06	50.095605	16.77507	-0.091639456	-0.048289547	-0.047442588	-0.14780386	0.13516416	0	850.7895677416027
15.848932	0.00015848932	0.06	47.079736	15.922263	-0.090090492	-0.048340378	-0.047411753	-0.14304319	0.12553936	0	852.2466589342541
15.848932	0.00017378008	0.06	44.329011	15.136423	-0.088541958	-0.048395987	-0.047377834	-0.13856497	0.11676175	0	853.7035199709775
15.848932	0.00019054607	0.06	41.820083	14.411661	-0.086993892	-0.048456811	-0.047340511	-0.13434435	0.10875682	0	855.1601331879441
15.848932	0.00020892961	0.06	39.53166	13.742608	-0.085446334	-0.048523323	-0.047299435	-0.13035871	0.10145662	0	856.6164806770383
15.848932	0.00022908677	0.06	37.44432	13.124365	-0.083899328	-0.048596038	-0.047254215	-0.12658739	0.094799195	0	858.0725431395882
15.848932	0.00025118864	0.06	35.540354	12.552467	-0.08235292	-0.04867551	-0.047204422	-0.12301156	0.088728034	0	859.5283015399992
15.848932	0.00027542287	0.06	33.803606	12.02284	-0.08080716	-0.048762342	-0.047149576	-0.11961405	0.08319161	0	860.9837359594866
15.848932	0.00030199517	0.06	32.219344	11.531771	-0.079262101	-0.048857184	-0.047089152	-0.1163792	0.078142933	0	862.4388261973946
15.848932	0.00033113112	0.06	30.774131	11.075874	-0.0777178	-0.048960738	-0.047022564	-0.11329274	0.07353916	0	863.8935517336164
15.848932	0.00036307805	0.06	29.455714	10.652061	-0.076174317	-0.049073761	-0.046949167	-0.11034163	0.069341225	0	865.3478925554102
15.848932	0.00039810717	0.06	28.252918	10.257515	-0.074631714	-0.049197065	-0.046868248	-0.10751401	0.065513509	0	866.8018306043296
15.848932	0.00043651583	0.06	27.155551	9.8896709	-0.07309006	-0.049331525	-0.046779019	-0.10479905	0.062023536	0	868.2553454730155
15.848932	0.00047863009	0.06	26.154321	9.5461874	-0.071549423	-0.04947808	-0.046680614	-0.10218688	0.058841704	0	869.7084220908393
15.848932	0.00052480746	0.06	25.240755	9.2249313	-0.070009878	-0.04963773	-0.046572082	-0.099668492	0.055941024	0	871.161043601999
15.848932	0.00057543994	0.06	24.407126	8.9239576	-0.068471499	-0.049811547	-0.046452379	-0.097235682	0.053296899	0	872.6131993330322
15.848932	0.00063095734	0.06	23.646394	8.6414935	-0.066934366	-0.05000067	-0.046320368	-0.094880963	0.050886911	0	874.0648782158589
15.848932	0.00069183097	0.06	22.952137	8.3759232	-0.065398557	-0.050206313	-0.046174811	-0.092597508	0.048690628	0	875.5160767552961
15.848932	0.00075857758	0.06	22.318507	8.1257739	-0.063864154	-0.050429757	-0.046014373	-0.090379093	0.046689434	0	876.9667931661694
15.848932	0.00083176377	0.06	21.740173	7.8897037	-0.062331239	-0.050672358	-0.045837619	-0.08822004	0.044866368	0	878.4170313006971
15.848932	0.00091201084	0.06	21.212279	7.6664891	-0.060799893	-0.050935544	-0.045643025	-0.086115168	0.043205974	0	879.8668009679413
15.848932	0.001	0.06	20.730403	7.4550156	-0.059270194	-0.051220812	-0.045428983	-0.084059756	0.041694174	0	881.3161195310697
15.848932	0.0010964782	0.06	20.290516	7.2542668	-0.05774222	-0.051529728	-0.045193827	-0.08204949	0.040318136	0	882.7650076229373
15.848932	0.0012022644	0.06	19.888952	7.0633166	-0.056216041	-0.051863923	-0.044935853	-0.080080439	0.039066168	0	884.213495535131
15.848932	0.0013182567	0.06	19.522372	6.8813199	-0.054691723	-0.052225086	-0.044653352	-0.078149012	0.037927608	0	885.6616175993687
15.848932	0.0014454398	0.06	19.187737	6.7075056	-0.053169322	-0.052614963	-0.044344666	-0.076251931	0.036892728	0	887.1094146679518
15.848932	0.0015848932	0.06	18.882279	6.5411696	-0.051648883	-0.053035347	-0.044008232	-0.074386201	0.035952641	0	888.5569325728782
15.848932	0.0017378008	0.06	18.603477	6.3816679	-0.050130441	-0.053488069	-0.043642657	-0.072549088	0.03509922	0	890.0042169582325
15.848932	0.0019054607	0.06	18.349032	6.2284107	-0.04861401	-0.053974993	-0.043246791	-0.070738094	0.034325016	0	891.4513195001089
15.848932	0.0020892961	0.06	18.116848	6.0808571	-0.047099589	-0.054498002	-0.042819807	-0.068950935	0.033623187	0	892.8982877593055
15.848932	0.0022908677	0.06	17.905011	5.9385098	-0.045587152	-0.055058988	-0.04236128	-0.067185525	0.032987431	0	894.3451701234379
15.848932	0.0025118864	0.06	17.711774	5.8009107	-0.04407665	-0.055659844	-0.041871264	-0.065439955	0.032411929	0	895.7920095870163
15.848932	0.0027542287	0.06	17.535539	5.6676369	-0.042568002	-0.056302447	-0.041350349	-0.063712481	0.031891292	0	897.2388489942207
15.848932	0.0030199517	0.06	17.37485	5.5382976	-0.041061096	-0.056988652	-0.040799698	-0.062001511	0.031420518	0	898.6857280135005
15.848932	0.0033113112	0.06	17.228378	5.4125305	-0.039555781	-0.057720282	-0.040221054	-0.060305585	0.03099496	0	900.1326902594787
15.848932	0.0036307805	0.06	17.09492	5.2900008	-0.038051869	-0.05849911	-0.039616717	-0.05862337	0.030610299	0	901.5797827104234
15.848932	0.0039810717	0.06	16.973391	5.1703984	-0.036549123	-0.059326868	-0.038989483	-0.056953645	0.030262527	0	903.027070421839
15.848932	0.0043651583	0.06	16.862823	5.053437	-0.035047263	-0.060205227	-0.038342557	-0.055295288	0.029947936	0	904.4746357936068
15.848932	0.0047863009	0.06	16.762362	4.9388531	-0.033545952	-0.06113581	-0.037679451	-0.053647268	0.029663113	0	905.9225974740393
15.848932	0.0052480746	0.06	16.671268	4.8264051	-0.032044804	-0.062120184	-0.037003855	-0.052008631	0.029404936	0	907.3711101155932
15.848932	0.0057543994	0.06	16.588912	4.7158723	-0.030543377	-0.063159871	-0.036319524	-0.050378492	0.029170568	0	908.8203773220794
15.848932	0.0063095734	0.06	16.514773	4.6070541	-0.029041172	-0.064256362	-0.035630173	-0.048756018	0.028957455	0	910.2706585074914
15.848932	0.0069183097	0.06	16.448429	4.4997687	-0.027537641	-0.065411127	-0.034939378	-0.047140427	0.028763316	0	911.7222669604995
15.848932	0.0075857758	0.06	16.389547	4.3938519	-0.026032187	-0.066625634	-0.034250515	-0.045530972	0.02858613	0	913.1755732832602
15.848932	0.0083176377	0.06	16.337866	4.289156	-0.024524182	-0.067901366	-0.03356671	-0.043926934	0.028424119	0	914.6309912979364
15.848932	0.0091201084	0.06	16.293179	4.1855474	-0.023012981	-0.069239847	-0.03289082	-0.042327618	0.028275727	0	916.0889659638864
15.848932	0.01	0.06	16.255298	4.0829053	-0.021497952	-0.070642648	-0.03222542	-0.040732347	0.028139594	0	917.5499459235649
15.848932	0.010964782	0.06	16.224019	3.9811199	-0.019978515	-0.072111404	-0.031572808	-0.039140464	0.028014523	0	919.0143465776046
15.848932	0.012022644	0.06	16.199069	3.8800902	-0.018454209	-0.073647807	-0.030934999	-0.037551334	0.027899447	0	920.4824874721807
15.848932	0.013182567	0.06	16.180039	3.7797225	-0.016924762	-0.07525359	-0.03031373	-0.035964356	0.027793385	0	921.9545262475679
15.848932	0.014454398	0.06	16.166299	3.6799281	-0.015390205	-0.076930485	-0.029710429	-0.034378978	0.027695395	0	923.430353275281
15.848932	0.015848932	0.06	16.156902	3.5806221	-0.013851009	-0.078680154	-0.029126171	-0.032794724	0.027604519	0	924.9094654180752
15.848932	0.017378008	0.06	16.150449	3.4817215	-0.012308261	-0.080504093	-0.028561602	-0.031211234	0.027519718	0	926.390804950862
15.848932	0.019054607	0.06	16.144954	3.3831443	-0.010763872	-0.082403492	-0.028016824	-0.02962831	0.027439805	0	927.8725706141179
15.848932	0.020892961	0.06	16.137681	3.284808	-0.0092208232	-0.084379074	-0.027491254	-0.028045987	0.027363357	0	929.3519942416169
15.848932	0.022908677	0.06	16.124984	3.1866298	-0.0076834252	-0.086430916	-0.026983466	-0.026464608	0.027288629	0	930.825106132173
15.848932	0.025118864	0.06	16.102166	3.0885259	-0.0061575758	-0.088558282	-0.026491041	-0.024884927	0.027213458	0	932.2865012857797
15.848932	0.027542287	0.06	16.063389	2.9904116	-0.0046509649	-0.090759547	-0.026010505	-0.023308212	0.027135145	0	933.7291503818536
15.848932	0.030199517	0.06	16.001702	2.8922006	-0.0031731525	-0.093032285	-0.025537434	-0.021736361	0.027050336	0	935.1443205738752
15.848932	0.033113112	0.06	15.909271	2.793803	-0.0017354014	-0.095373645	-0.025066834	-0.020171997	0.026954894	0	936.5217112565824
15.848932	0.036307805	0.06	15.777951	2.6951239	-0.00035008219	-0.097781077	-0.02459389	-0.018618535	0.026843801	0	937.8499708926812
15.848932	0.039810717	0.06	15.600392	2.5960641	0.00097057566	-0.1002533	-0.024114928	-0.017080159	0.0267112	0	939.1178162136966
15.848932	0.043651583	0.06	15.371804	2.4965319	0.0022165706	-0.10279104	-0.023628168	-0.015561667	0.026550746	0	940.3159504553818
15.848932	0.047863009	0.06	15.092342	2.3964707	0.0033830117	-0.10539676	-0.023133451	-0.014068105	0.026356439	0	941.439787232833
15.848932	0.052480746	0.06	14.769658	2.2959012	0.0044733317	-0.10807269	-0.022630278	-0.012604156	0.026123945	0	942.4925799601965
15.848932	0.057543994	0.06	14.420905	2.1949579	0.0055020578	-0.1108175	-0.022114505	-0.011173298	0.025852054	0	943.488211504753
15.848932	0.063095734	0.06	14.073639	2.0938956	0.0064965817	-0.11362337	-0.021575375	-0.0097768233	0.025543774	0	944.4530245729686
15.848932	0.069183097	0.06	13.765746	1.9930552	0.0074980792	-0.11647553	-0.020995075	-0.0084128105	0.025206774	0	945.4267107084364
15.848932	0.075857758	0.06	13.544978	1.8928073	0.0085621922	-0.11935539	-0.020351898	-0.0070751387	0.024853427	0	946.4627728211082
15.848932	0.083176377	0.06	13.468494	1.7935037	0.0097598645	-0.12224688	-0.019626519	-0.0057525402	0.024500935	0	947.6289566732842
15.848932	0.091201084	0.06	13.602307	1.695456	0.01117812	-0.12514424	-0.018809867	-0.0044277054	0.024171866	0	949.0075382738635
15.848932	0.1	0.06	14.020263	1.5989404	0.01292028	-0.12806006	-0.017911076	-0.0030764573	0.023895055	0	950.6950798168488
15.848932	0.10964782	0.06	14.802425	1.5042215	0.01510534	-0.13103199	-0.016964263	-0.0016670617	0.023706697	0	952.8014620417837
15.848932	0.12022644	0.06	16.033256	1.4115845	0.017866854	-0.13412782	-0.016033562	-0.00015970556	0.023651419	0	955.4485521743723
15.848932	0.13182567	0.06	17.800651	1.3213753	0.021352484	-0.13744883	-0.015216489	0.0014938714	0.023783314	0	958.7695909540458
15.848932	0.14454398	0.06	20.197587	1.2340402	0.025726229	-0.14113128	-0.014645462	0.0033507663	0.024167007	0	962.9112012367685
15.848932	0.15848932	0.06	23.289028	1.1504302	0.031134456	-0.14537152	-0.014512833	0.0054766631	0.024882541	0	968.0000607476712
15.848932	0.17378008	0.06	27.307233	1.0713962	0.037913253	-0.15036475	-0.015009693	0.007948984	0.026021688	0	974.3411735771672
15.848932	0.19054607	0.06	32.328659	0.99625503	0.046241289	-0.15614639	-0.016167269	0.010863152	0.027668347	0	982.1006505383442
15.848932	0.20892961	0.06	38.511477	0.9253683	0.056400866	-0.16285412	-0.018118873	0.014325124	0.029934575	0	991.5362174884818
15.848932	0.22908677	0.06	46.027271	0.85904002	0.068703411	-0.17060272	-0.020974839	0.018457087	0.032947688	0	1002.934260485635
15.848932	0.25118864	0.06	55.04882	0.79749407	0.083476629	-0.17947373	-0.024812097	0.023398238	0.036850659	0	1016.5983429470826
15.848932	0.27542287	0.06	65.730906	0.74085543	0.10104272	-0.18950579	-0.029664546	0.029304007	0.041801028	0	1032.8292818090467
15.848932	0.30199517	0.06	78.187051	0.68913781	0.12169033	-0.20068774	-0.035516161	0.036343172	0.0479678	0	1051.8991822436283
15.848932	0.33113112	0.06	92.467678	0.64224079	0.14564603	-0.21295685	-0.042299205	0.044692699	0.055526251	0	1074.0247411120274
15.848932	0.36307805	0.06	108.54617	0.59995815	0.17305281	-0.22620386	-0.049899229	0.054530788	0.064651102	0	1099.3467588025267
15.848932	0.39810717	0.06	126.31747	0.56199668	0.2039616	-0.24028449	-0.058166653	0.066029143	0.075509109	0	1127.9215197895035
15.848932	0.43651583	0.06	145.60973	0.52800232	0.23833734	-0.25503535	-0.066932618	0.079345752	0.088252289	0	1159.7256021557137
15.848932	0.47863009	0.06	166.20518	0.49758834	0.27607667	-0.27029062	-0.076025649	0.094619315	0.10301282	0	1194.6715591446848
15.848932	0.52480746	0.06	187.86433	0.47036078	0.31703121	-0.2858963	-0.085285943	0.11196592	0.11990014	0	1232.628986771481
15.848932	0.57543994	0.06	210.34799	0.44593793	0.36103055	-0.3017203	-0.094575445	0.13147804	0.13900029	0	1273.4455564064724
15.848932	0.63095734	0.06	233.43386	0.42396317	0.4079012	-0.31765797	-0.10378333	0.15322542	0.16037698	0	1316.964510496883
15.848932	0.69183097	0.06	256.92696	0.40411209	0.45747992	-0.33363359	-0.11282755	0.17725727	0.18407398	0	1363.0370997624484
15.848932	0.75857758	0.06	280.66446	0.38609533	0.50962182	-0.34959904	-0.12165346	0.20360527	0.21011807	0	1411.5302711325203
15.848932	0.83176377	0.06	304.51655	0.36965878	0.56420423	-0.36553066	-0.13023066	0.23228675	0.23852229	0	1462.3304818928127
15.848932	0.91201084	0.06	328.38461	0.35458201	0.62112774	-0.3814252	-0.13854896	0.26330786	0.26928908	0	1515.3449043021365
15.848932	1.	0.06	352.19809	0.34067578	0.6803155	-0.39729551	-0.14661408	0.2966665	0.30241314	0	1570.501010304517
15.848932	1.0964782	0.06	375.9107	0.32777907	0.74171147	-0.41316651	-0.15444359	0.33235486	0.33788396	0	1627.745156167948
15.848932	1.2022644	0.06	399.49658	0.31575583	0.80527841	-0.42907158	-0.16206329	0.37036164	0.37568792	0	1687.0408980316333
15.848932	1.3182567	0.06	422.94678	0.30449172	0.87099564	-0.44504957	-0.1695042	0.41067385	0.41581013	0	1748.3670569651056
15.848932	1.4454398	0.06	446.26599	0.29389103	0.93885702	-0.46114238	-0.1768002	0.45327832	0.45823579	0	1811.7159540886726
15.848932	1.5848932	0.06	469.46978	0.28387381	1.0088691	-0.47739323	-0.1839862	0.4981629	0.50295139	0	1877.0917755417947
15.848932	1.7378008	0.06	492.58224	0.27437334	1.0810493	-0.49384533	-0.19109687	0.54531739	0.54994562	0	1944.5089340690276
15.848932	1.9054607	0.06	515.63405	0.26533392	1.1554249	-0.51054101	-0.19816574	0.5947343	0.59921005	0	2013.9911707955482
15.848932	2.0892961	0.06	538.66084	0.25670892	1.2320314	-0.52752121	-0.20522467	0.64640938	0.65073964	0	2085.570044218159
15.848932	2.2908677	0.06	561.70185	0.24845922	1.3109119	-0.54482517	-0.21230355	0.7003421	0.7045332	0	2159.284364586945
15.848932	2.5118864	0.06	584.79896	0.24055188	1.392116	-0.56249033	-0.21943019	0.75653586	0.76059358	0	2235.1791665845244
15.848932	2.7542287	0.06	607.99579	0.23295899	1.4756994	-0.58055236	-0.22663031	0.81499831	0.81892795	0	2313.3053340636443
15.848932	3.0199517	0.06	631.33707	0.2256568	1.561723	-0.59904526	-0.23392768	0.87574141	0.87954787	0	2393.718746546016
15.848932	3.3113112	0.06	654.86815	0.21862497	1.6502527	-0.61800149	-0.24134421	0.93878152	0.94246937	0	2476.480086235598
15.848932	3.6307805	0.06	678.6346	0.21184594	1.7413592	-0.63745219	-0.24890017	1.0041395	1.007713	0	2561.654637703253
15.848932	3.9810717	0.06	702.68192	0.20530446	1.8351173	-0.65742736	-0.25661432	1.0718406	1.0753038	0	2649.3116228624062
15.848932	4.3651583	0.06	727.05536	0.19898716	1.9316059	-0.67795601	-0.26450414	1.1419147	1.1452713	0	2739.524188003032
15.848932	4.7863009	0.06	751.79978	0.19288226	2.030908	-0.6990664	-0.27258596	1.2143959	1.2176495	0	2832.369396463051
15.848932	5.2480746	0.06	776.95956	0.18697927	2.1331102	-0.7207862	-0.28087517	1.2893226	1.2924767	0	2927.927747007128
15.848932	5.7543994	0.06	802.57852	0.18126878	2.238303	-0.74314262	-0.28938634	1.3667379	1.3697956	0	3026.2834489314105
15.848932	6.3095734	0.06	828.69996	0.17574229	2.3465804	-0.76616261	-0.29813334	1.4466889	1.4496534	0	3127.5240394725142
15.848932	6.9183097	0.06	855.36666	0.17039207	2.4580401	-0.78987295	-0.30712952	1.5292268	1.532101	0	3231.740561573287
15.848932	7.5857758	0.06	882.62088	0.16521102	2.5727833	-0.8143004	-0.31638775	1.6144073	1.6171941	0	3339.0273737147872
15.848932	8.3176377	0.06	910.50443	0.1601926	2.690915	-0.83947181	-0.3259206	1.7022899	1.7049921	0	3449.482421638577
15.848932	9.1201084	0.06	939.05874	0.15533073	2.8125437	-0.86541421	-0.33574034	1.7929384	1.7955586	0	3563.206956477122
15.848932	10.	0.06	968.32487	0.15061973	2.9377816	-0.89215491	-0.3458591	1.8864207	1.8889614	0	3680.305713647029