158.48932	1.e-12	0.51	5.189687e13	1.3899444e12	-1.	4.0220199e-13	9.0035649e-13	-5.5234977e10	1.7922592e11	0	4.31431317932327e-10
158.48932	1.0964782e-12	0.51	4.7330508e13	1.2676443e12	-1.	4.4104279e-13	9.8723406e-13	-5.0374897e10	1.6345598e11	0	4.730611667090687e-10
158.48932	1.2022644e-12	0.51	4.3165936e13	1.1561054e12	-1.	4.8363458e-13	1.0824606e-12	-4.5942453e10	1.4907363e11	0	5.186916609751071e-10
158.48932	1.3182567e-12	0.51	3.9367802e13	1.0543806e12	-1.	5.3021935e-13	1.1868831e-12	-4.1900015e10	1.3595677e11	0	5.687286599828983e-10
158.48932	1.4454398e-12	0.51	3.5903862e13	9.6160656e11	-1.	5.8140209e-13	1.3013485e-12	-3.8213268e10	1.2399404e11	0	6.235779990259822e-10
158.48932	1.5848932e-12	0.51	3.2744711e13	8.7699561e11	-1.	6.3742481e-13	1.4268249e-12	-3.4850914e10	1.1308391e11	0	6.837035706441796e-10
158.48932	1.7378008e-12	0.51	2.9863532e13	7.998295e11	-1.	6.988925e-13	1.5645222e-12	-3.1784412e10	1.0313375e11	0	7.496851326971427e-10
158.48932	1.9054607e-12	0.51	2.7235865e13	7.2945317e11	-1.	7.6616816e-13	1.7152874e-12	-2.8987728e10	9.4059102e10	0	8.219285492291109e-10
158.48932	2.0892961e-12	0.51	2.4839404e13	6.652692e11	-1.	8.4021979e-13	1.8809356e-12	-2.6437122e10	8.578292e10	0	9.013035768241447e-10
158.48932	2.2908677e-12	0.51	2.2653805e13	6.0673272e11	-1.	9.2153139e-13	2.0626767e-12	-2.4110942e10	7.8234953e10	0	9.88389973341896e-10
158.48932	2.5118864e-12	0.51	2.0660516e13	5.5334682e11	-1.	1.0102239e-12	2.2613577e-12	-2.198944e10	7.1351125e10	0	1.0835936028266045e-9
158.48932	2.7542287e-12	0.51	1.8842615e13	5.046583e11	-1.	1.1077495e-12	2.4796406e-12	-2.0054608e10	6.5073e10	0	1.1881900379887372e-9
158.48932	3.0199517e-12	0.51	1.7184669e13	4.6025384e11	-1.	1.2147129e-12	2.7189774e-12	-1.829002e10	5.9347281e10	0	1.302875045761276e-9
158.48932	3.3113112e-12	0.51	1.5672604e13	4.1975649e11	-1.	1.3318403e-12	2.9811831e-12	-1.6680696e10	5.4125364e10	0	1.4285183348104483e-9
158.48932	3.6307805e-12	0.51	1.4293585e13	3.8282247e11	-1.	1.4602207e-12	3.2687986e-12	-1.5212976e10	4.9362918e10	0	1.5663374493511399e-9
158.48932	3.9810717e-12	0.51	1.3035904e13	3.4913824e11	-1.	1.601306e-12	3.5843651e-12	-1.3874399e10	4.5019516e10	0	1.7175500773517352e-9
158.48932	4.3651583e-12	0.51	1.1888886e13	3.1841786e11	-1.	1.7557012e-12	3.9300603e-12	-1.2653602e10	4.1058287e10	0	1.8831997254582082e-9
158.48932	4.7863009e-12	0.51	1.0842793e13	2.9040054e11	-1.	1.9249794e-12	4.3090304e-12	-1.1540222e10	3.7445603e10	0	2.0647939845276866e-9
158.48932	5.2480746e-12	0.51	9.8887447e12	2.6484844e11	-1.	2.1108344e-12	4.7249053e-12	-1.0524808e10	3.4150796e10	0	2.264072223974791e-9
158.48932	5.7543994e-12	0.51	9.0186424e12	2.4154465e11	-1.	2.3144764e-12	5.1808311e-12	-9.5987388e9	3.1145896e10	0	2.4825419867388164e-9
158.48932	6.3095734e-12	0.51	8.2250996e12	2.2029134e11	-1.	2.5375993e-12	5.6804376e-12	-8.7541539e9	2.8405395e10	0	2.721942594316552e-9
158.48932	6.9183097e-12	0.51	7.50138e12	2.0090809e11	-1.	2.7826231e-12	6.2286858e-12	-7.9838832e9	2.5906028e10	0	2.984651250395685e-9
158.48932	7.5857758e-12	0.51	6.8413399e12	1.8323035e11	-1.	3.0509997e-12	6.8295688e-12	-7.281388e9	2.3626578e10	0	3.2725813619597503e-9
158.48932	8.3176377e-12	0.51	6.2393761e12	1.6710807e11	-1.	3.3455123e-12	7.4886525e-12	-6.6407048e9	2.1547695e10	0	3.588399987667347e-9
158.48932	9.1201084e-12	0.51	5.6903786e12	1.5240437e11	-1.	3.6680966e-12	8.2108979e-12	-6.0563948e9	1.9651732e10	0	3.93448433120616e-9
158.48932	1.e-11	0.51	5.189687e12	1.3899444e11	-1.	4.0220199e-12	9.0030809e-12	-5.5234977e9	1.7922592e10	0	4.314081257012276e-9
158.48932	1.0964782e-11	0.51	4.7330508e12	1.2676443e11	-1.	4.4099439e-12	9.8716146e-12	-5.0374898e9	1.6345598e10	0	4.730263783624196e-9
158.48932	1.2022644e-11	0.51	4.3165936e12	1.1561054e11	-1.	4.8356198e-12	1.0824243e-11	-4.5942453e9	1.4907363e10	0	5.186742668017825e-9
158.48932	1.3182567e-11	0.51	3.9367802e12	1.0543806e11	-1.	5.3020725e-12	1.1868468e-11	-4.1900015e9	1.3595677e10	0	5.687112658095738e-9
158.48932	1.4454398e-11	0.51	3.5903862e12	9.6160656e10	-1.	5.8136579e-12	1.3013485e-11	-3.8213268e9	1.2399404e10	0	6.235779990259822e-9
158.48932	1.5848932e-11	0.51	3.2744711e12	8.7699561e10	-1.	6.3744901e-12	1.4268975e-11	-3.4850914e9	1.1308391e10	0	6.837383589908288e-9
158.48932	1.7378008e-11	0.51	2.9863532e12	7.998295e10	-1.	6.4095799e-12	1.5065756e-11	-3.1784412e9	1.0313375e10	0	7.2191837776688456e-9
158.48932	1.9054607e-11	0.51	2.7235865e12	7.2945317e10	-1.	7.0280078e-12	1.6519321e-11	-2.8987728e9	9.4059102e9	0	7.915700624734949e-9
158.48932	2.0892961e-11	0.51	2.4839404e12	6.652692e10	-1.	7.7059674e-12	1.8112883e-11	-2.6437122e9	8.578292e9	0	8.679301000256065e-9
158.48932	2.2908677e-11	0.51	2.2653805e12	6.0673272e10	-1.	8.4495087e-12	1.9860478e-11	-2.4110942e9	7.8234953e9	0	9.516710651251023e-9
158.48932	2.5118864e-11	0.51	2.0660516e12	5.5334682e10	-1.	9.2646816e-12	2.1776624e-11	-2.198944e9	7.1351125e9	0	1.0434886288692984e-8
158.48932	2.7542287e-11	0.51	1.8842615e12	5.046583e10	-1.	1.0158504e-11	2.3877536e-11	-2.0054608e9	6.5073e9	0	1.1441597789178575e-8
158.48932	3.0199517e-11	0.51	1.7184669e12	4.6025384e10	-1.	1.1138357e-11	2.6181002e-11	-1.829002e9	5.9347281e9	0	1.2545368776815157e-8
158.48932	3.3113112e-11	0.51	1.5672604e12	4.1975649e10	-1.	1.2213195e-11	2.8707106e-11	-1.6680696e9	5.4125364e9	0	1.3755823069152321e-8
158.48932	3.6307805e-11	0.51	1.4293585e12	3.8282247e10	-1.	1.3391487e-11	3.1476782e-11	-1.5212976e9	4.9362918e9	0	1.5082991785318888e-8
158.48932	3.9810717e-11	0.51	1.3035904e12	3.4913824e10	-1.	1.4683518e-11	3.4513625e-11	-1.3874399e9	4.5019516e9	0	1.653818113797581e-8
158.48932	4.3651583e-11	0.51	1.1888886e12	3.1841786e10	-1.	1.6100179e-11	3.7843408e-11	-1.2653602e9	4.1058287e9	0	1.813374099018353e-8
158.48932	4.7863009e-11	0.51	1.0842793e12	2.9040054e10	-1.	1.7653449e-11	4.1494443e-11	-1.1540222e9	3.7445603e9	0	1.9883237838778528e-8
158.48932	5.2480746e-11	0.51	9.8887447e11	2.6484844e10	-1.	1.9356636e-11	4.5497829e-11	-1.0524808e9	3.4150796e9	0	2.1801573650598825e-8
158.48932	5.7543994e-11	0.51	9.0186424e11	2.4154465e10	-1.	2.1224141e-11	4.9887324e-11	-9.5987388e8	3.1145896e9	0	2.3904924527657934e-8
158.48932	6.3095734e-11	0.51	8.2250996e11	2.2029134e10	-1.	2.3271813e-11	5.4700317e-11	-8.7541539e8	2.8405395e9	0	2.621120646848013e-8
158.48932	6.9183097e-11	0.51	7.50138e11	2.0090809e10	-1.	2.5516957e-11	5.9977706e-11	-7.9838832e8	2.5906028e9	0	2.874001690834442e-8
158.48932	7.5857758e-11	0.51	6.8413399e11	1.8323035e10	-1.	2.797869e-11	6.5764139e-11	-7.281388e8	2.3626578e9	0	3.1512750201261664e-8
158.48932	8.3176377e-11	0.51	6.2393761e11	1.6710807e10	-1.	3.0678186e-11	7.2109105e-11	-6.6407048e8	2.1547695e9	0	3.455312040353099e-8
158.48932	9.1201084e-11	0.51	5.6903786e11	1.5240437e10	-1.	3.3637832e-11	7.9065965e-11	-6.0563948e8	1.9651732e9	0	3.78866969499395e-8
158.48932	1.e-10	0.51	5.189687e11	1.3899444e10	-1.	3.6883156e-11	8.6694009e-11	-5.5234977e8	1.7922592e9	0	4.154189032358395e-8
158.48932	1.0964782e-10	0.51	4.7330508e11	1.2676443e10	-1.	4.0441749e-11	9.5058334e-11	-5.0374898e8	1.6345598e9	0	4.554989359611472e-8
158.48932	1.2022644e-10	0.51	4.3165936e11	1.1561054e10	-1.	4.4343374e-11	1.0422924e-10	-4.5942453e8	1.4907363e9	0	4.994439300402534e-8
158.48932	1.3182567e-10	0.51	3.9367802e11	1.0543806e10	-1.	4.862155e-11	1.1428514e-10	-4.1900015e8	1.3595677e9	0	5.476296235758849e-8
158.48932	1.4454398e-10	0.51	3.5903862e11	9.6160656e9	-1.	5.3312575e-11	1.2531121e-10	-3.8213268e8	1.2399404e9	0	6.004641615011248e-8
158.48932	1.5848932e-10	0.51	3.2744711e11	8.7699561e9	-1.	5.8456138e-11	1.374011e-10	-3.4850914e8	1.1308391e9	0	6.583962943206136e-8
158.48932	1.7378008e-10	0.51	2.9863532e11	7.998295e9	-1.	6.4095678e-11	1.5065707e-10	-3.1784412e8	1.0313375e9	0	7.219160297930749e-8
158.48932	1.9054607e-10	0.51	2.7235865e11	7.2945317e9	-1.	7.0279594e-11	1.6519237e-10	-2.8987728e8	9.4059101e8	0	7.915660373755354e-8
158.48932	2.0892961e-10	0.51	2.4839404e11	6.652692e9	-1.	7.7060037e-11	1.811298e-10	-2.6437122e8	8.578292e8	0	8.67934748055393e-8
158.48932	2.2908677e-10	0.51	2.2653805e11	6.0673272e9	-1.	8.4494603e-11	1.9860478e-10	-2.4110942e8	7.8234953e8	0	9.516710651251024e-8
158.48932	2.5118864e-10	0.51	2.0660516e11	5.5334682e9	-1.	9.2646332e-11	2.1776563e-10	-2.198944e8	7.1351125e8	0	1.0434857058814946e-7
158.48932	2.7542287e-10	0.51	1.8842615e11	5.046583e9	-1.	1.015848e-10	2.3877536e-10	-2.0054608e8	6.5072999e8	0	1.1441597789178575e-7
158.48932	3.0199517e-10	0.51	1.7184669e11	4.6025384e9	-1.	1.1138551e-10	2.6181208e-10	-1.829002e8	5.9347281e8	0	1.2545467487550828e-7
158.48932	3.3113112e-10	0.51	1.5672604e11	4.1975649e9	-1.	1.2213171e-10	2.8707106e-10	-1.6680696e8	5.4125363e8	0	1.375582306915232e-7
158.48932	3.6307805e-10	0.51	1.4293585e11	3.8282247e9	-1.	1.3391475e-10	3.1476722e-10	-1.5212976e8	4.9362918e8	0	1.5082963034619178e-7
158.48932	3.9810717e-10	0.51	1.3035904e11	3.4913824e9	-1.	1.4683458e-10	3.4513541e-10	-1.3874399e8	4.5019516e8	0	1.6538140886996217e-7
158.48932	4.3651583e-10	0.51	1.1888886e11	3.1841786e9	-0.99999999	1.6100107e-10	3.7843359e-10	-1.2653602e8	4.1058287e8	0	9.576990722315351e-6
158.48932	4.7863009e-10	0.51	1.0842793e11	2.9040054e9	-0.99999999	1.7653437e-10	4.1494431e-10	-1.1540222e8	3.7445603e8	0	9.594485868097284e-6
158.48932	5.2480746e-10	0.51	9.8887447e10	2.6484844e9	-0.99999999	1.9356576e-10	4.5497708e-10	-1.0524808e8	3.4150796e8	0	9.61366870391111e-6
158.48932	5.7543994e-10	0.51	9.0186424e10	2.4154465e9	-0.99999999	2.122408e-10	4.9887264e-10	-9.5987389e7	3.1145896e8	0	9.63470250498048e-6
158.48932	6.3095734e-10	0.51	8.2250996e10	2.2029134e9	-0.99999999	2.3271741e-10	5.4700293e-10	-8.754154e7	2.8405394e8	0	9.6577654968929e-6
158.48932	6.9183097e-10	0.51	7.50138e10	2.0090809e9	-0.99999999	2.5516969e-10	5.9977694e-10	-7.9838833e7	2.5906028e8	0	9.683053658792943e-6
158.48932	7.5857758e-10	0.51	6.8413399e10	1.8323035e9	-0.99999999	2.7978787e-10	6.5764223e-10	-7.2813881e7	2.3626578e8	0	9.71078145173331e-6
158.48932	8.3176377e-10	0.51	6.2393761e10	1.6710807e9	-0.99999999	3.067815e-10	7.2109057e-10	-6.6407049e7	2.1547695e8	0	9.74118452124061e-6
158.48932	9.1201084e-10	0.51	5.6903786e10	1.5240437e9	-0.99999999	3.3637892e-10	7.9065977e-10	-6.0563949e7	1.9651732e8	0	9.774520574211693e-6
158.48932	1.e-9	0.51	5.189687e10	1.3899444e9	-0.99999999	3.6883205e-10	8.6694106e-10	-5.5234978e7	1.7922592e8	0	9.811072915249716e-6
158.48932	1.0964782e-9	0.51	4.7330508e10	1.2676443e9	-0.99999999	4.0441652e-10	9.5058225e-10	-5.0374898e7	1.6345598e8	0	9.851151960867668e-6
158.48932	1.2022644e-9	0.51	4.3165936e10	1.1561054e9	-0.99999999	4.4343398e-10	1.0422928e-9	-4.5942454e7	1.4907363e8	0	9.895097668922482e-6
158.48932	1.3182567e-9	0.51	3.9367802e10	1.0543806e9	-0.99999998	4.8621537e-10	1.142851e-9	-4.1900016e7	1.3595677e8	0	0.000019338936422013638
158.48932	1.4454398e-9	0.51	3.5903862e10	9.6160656e8	-0.99999998	5.331249e-10	1.2531115e-9	-3.8213269e7	1.2399404e8	0	0.000019391770864103213
158.48932	1.5848932e-9	0.51	3.2744711e10	8.7699561e8	-0.99999998	5.8455981e-10	1.3740095e-9	-3.4850915e7	1.1308391e8	0	0.000019449702565662205
158.48932	1.7378008e-9	0.51	2.9863532e10	7.998295e8	-0.99999998	6.409569e-10	1.5065712e-9	-3.1784413e7	1.0313375e8	0	0.000019513223259491326
158.48932	1.9054607e-9	0.51	2.7235865e10	7.2945317e8	-0.99999998	7.0279546e-10	1.6519227e-9	-2.8987729e7	9.4059101e7	0	0.00001958287254830629
158.48932	2.0892961e-9	0.51	2.4839404e10	6.652692e8	-0.99999997	7.7059977e-10	1.811297e-9	-2.6437123e7	8.5782919e7	0	0.000029054894806197047
158.48932	2.2908677e-9	0.51	2.2653805e10	6.0673272e8	-0.99999997	8.4494579e-10	1.9860476e-9	-2.4110943e7	7.8234952e7	0	0.000029138631506609417
158.48932	2.5118864e-9	0.51	2.0660516e10	5.5334682e8	-0.99999997	9.2646465e-10	2.177658e-9	-2.1989441e7	7.1351124e7	0	0.000029230447057804634
158.48932	2.7542287e-9	0.51	1.8842615e10	5.046583e8	-0.99999997	1.0158485e-9	2.3877547e-9	-2.0054609e7	6.5072999e7	0	0.000029331120843334
158.48932	3.0199517e-9	0.51	1.7184669e10	4.6025384e8	-0.99999996	1.1138558e-9	2.618121e-9	-1.8290021e7	5.934728e7	0	0.000038837160824808916
158.48932	3.3113112e-9	0.51	1.5672604e10	4.1975649e8	-0.99999996	1.2213185e-9	2.8707126e-9	-1.6680697e7	5.4125363e7	0	0.00003895819724549006
158.48932	3.6307805e-9	0.51	1.4293585e10	3.8282247e8	-0.99999996	1.3391493e-9	3.1476739e-9	-1.5212977e7	4.9362917e7	0	0.00003909091109828325
158.48932	3.9810717e-9	0.51	1.3035904e10	3.4913824e8	-0.99999995	1.4683481e-9	3.4513559e-9	-1.38744e7	4.5019515e7	0	0.00004863208247864968
158.48932	4.3651583e-9	0.51	1.1888886e10	3.1841786e8	-0.99999995	1.6100116e-9	3.7843365e-9	-1.2653603e7	4.1058286e7	0	0.00004879163956598061
158.48932	4.7863009e-9	0.51	1.0842793e10	2.9040054e8	-0.99999994	1.7653427e-9	4.1494424e-9	-1.1540223e7	3.7445602e7	0	0.000058362243843766286
158.48932	5.2480746e-9	0.51	9.8887447e9	2.6484844e8	-0.99999994	1.9356601e-9	4.5497735e-9	-1.0524809e7	3.4150795e7	0	0.000058554073831110844
158.48932	5.7543994e-9	0.51	9.0186424e9	2.4154465e8	-0.99999993	2.122409e-9	4.9887273e-9	-9.5987398e6	3.1145895e7	0	0.00006816006452649447
158.48932	6.3095734e-9	0.51	8.2250996e9	2.2029134e8	-0.99999992	2.3271754e-9	5.470031e-9	-8.7541549e6	2.8405394e7	0	0.00007778634827185952
158.48932	6.9183097e-9	0.51	7.50138e9	2.0090809e8	-0.99999992	2.5516974e-9	5.99777e-9	-7.9838842e6	2.5906027e7	0	0.00007803922936376378
158.48932	7.5857758e-9	0.51	6.8413399e9	1.8323035e8	-0.99999991	2.7978809e-9	6.5764243e-9	-7.281389e6	2.3626577e7	0	0.00008771216151122802
158.48932	8.3176377e-9	0.51	6.2393761e9	1.6710807e8	-0.9999999	3.0678156e-9	7.2109061e-9	-6.6407058e6	2.1547694e7	0	0.00009741184488251388
158.48932	9.1201084e-9	0.51	5.6903786e9	1.5240437e8	-0.99999989	3.3637931e-9	7.9066015e-9	-6.0563958e6	1.9651731e7	0	0.00010714086058864191
158.48932	1.e-8	0.51	5.189687e9	1.3899444e8	-0.99999988	3.6883263e-9	8.6694166e-9	-5.5234987e6	1.7922591e7	0	0.00011690203860042537
158.48932	1.0964782e-8	0.51	4.7330508e9	1.2676443e8	-0.99999987	4.0441697e-9	9.5058266e-9	-5.0374907e6	1.6345597e7	0	0.00012669848158906424
158.48932	1.2022644e-8	0.51	4.3165936e9	1.1561054e8	-0.99999985	4.4343447e-9	1.0422932e-8	-4.5942463e6	1.4907362e7	0	0.00014592924561180365
158.48932	1.3182567e-8	0.51	3.9367802e9	1.0543806e8	-0.99999984	4.8621628e-9	1.1428519e-8	-4.1900025e6	1.3595676e7	0	0.0001558067546568359
158.48932	1.4454398e-8	0.51	3.5903862e9	9.6160656e7	-0.99999982	5.3312567e-9	1.2531123e-8	-3.8213278e6	1.2399403e7	0	0.00017512640558866238
158.48932	1.5848932e-8	0.51	3.2744711e9	8.7699561e7	-0.99999981	5.8456075e-9	1.3740104e-8	-3.4850924e6	1.130839e7	0	0.00018510137652632885
158.48932	1.7378008e-8	0.51	2.9863532e9	7.998295e7	-0.99999979	6.4092156e-9	1.5065359e-8	-3.1784422e6	1.0313374e7	0	0.00020452771699217416
158.48932	1.9054607e-8	0.51	2.7235865e9	7.2945317e7	-0.99999977	7.0280447e-9	1.6519317e-8	-2.8987738e6	9.4059092e6	0	0.00022401572925074517
158.48932	2.0892961e-8	0.51	2.4839404e9	6.652692e7	-0.99999974	7.7054395e-9	1.8112412e-8	-2.6437132e6	8.578291e6	0	0.00025296606628299415
158.48932	2.2908677e-8	0.51	2.2653805e9	6.0673272e7	-0.99999972	8.449457e-9	1.9860476e-8	-2.4110952e6	7.8234943e6	0	0.00027259500765873426
158.48932	2.5118864e-8	0.51	2.0660516e9	5.5334682e7	-0.99999969	9.2644132e-9	2.1776347e-8	-2.198945e6	7.1351115e6	0	0.0003017000120594559
158.48932	2.7542287e-8	0.51	1.8842615e9	5.046583e7	-0.99999966	1.0158371e-8	2.3877433e-8	-2.0054618e6	6.507299e6	0	0.00033089376747429057
158.48932	3.0199517e-8	0.51	1.7184669e9	4.6025384e7	-0.99999963	1.1138188e-8	2.618084e-8	-1.829003e6	5.9347271e6	0	0.00036018447062341306
158.48932	3.3113112e-8	0.51	1.5672604e9	4.1975649e7	-0.99999959	1.2213181e-8	2.8707122e-8	-1.6680706e6	5.4125354e6	0	0.0003989776241897109
158.48932	3.6307805e-8	0.51	1.4293585e9	3.8282247e7	-0.99999955	1.3391371e-8	3.1476617e-8	-1.5212986e6	4.9362908e6	0	0.0004378873202591308
158.48932	3.9810717e-8	0.51	1.3035904e9	3.4913824e7	-0.99999951	1.4683451e-8	3.4513529e-8	-1.3874409e6	4.5019506e6	0	0.0004769251566553107
158.48932	4.3651583e-8	0.51	1.1888886e9	3.1841786e7	-0.99999946	1.6100108e-8	3.7843357e-8	-1.2653612e6	4.1058277e6	0	0.0005254990055979722
158.48932	4.7863009e-8	0.51	1.0842793e9	2.9040054e7	-0.99999941	1.7653418e-8	4.1494415e-8	-1.1540232e6	3.7445593e6	0	0.0005742267808907851
158.48932	5.2480746e-8	0.51	9.8887447e8	2.6484844e7	-0.99999936	1.9356588e-8	4.5497722e-8	-1.0524818e6	3.4150786e6	0	0.0006231233463749465
158.48932	5.7543994e-8	0.51	9.0186424e8	2.4154465e7	-0.99999929	2.1223941e-8	4.9887125e-8	-959874.88	3.1145886e6	0	0.0006909962276851376
158.48932	6.3095734e-8	0.51	8.2250996e8	2.2029134e7	-0.99999922	2.3271711e-8	5.4700267e-8	-875416.39	2.8405385e6	0	0.0007590721555410689
158.48932	6.9183097e-8	0.51	7.50138e8	2.0090809e7	-0.99999915	2.5516952e-8	5.9977678e-8	-798389.32	2.5906018e6	0	0.0008273705510403945
158.48932	7.5857758e-8	0.51	6.8413399e8	1.8323035e7	-0.99999907	2.7978782e-8	6.5764217e-8	-728139.8	2.3626568e6	0	0.0009053085630866509
158.48932	8.3176377e-8	0.51	6.2393761e8	1.6710807e7	-0.99999898	3.0678124e-8	7.210903e-8	-664071.48	2.1547685e6	0	0.000992909741482283
158.48932	9.1201084e-8	0.51	5.6903786e8	1.5240437e7	-0.99999888	3.3637894e-8	7.9065979e-8	-605640.48	1.9651722e6	0	0.0010901998956261085
158.48932	1.e-7	0.51	5.189687e8	1.3899444e7	-0.99999877	3.6883218e-8	8.6694122e-8	-552350.77	1.7922582e6	0	0.0011972073249361637
158.48932	1.0964782e-7	0.51	4.7330508e8	1.2676443e7	-0.99999865	4.0441644e-8	9.5058214e-8	-503749.97	1.6345588e6	0	0.0013139630586051112
158.48932	1.2022644e-7	0.51	4.3165936e8	1.1561054e7	-0.99999852	4.4343381e-8	1.0422926e-7	-459425.53	1.4907353e6	0	0.001440501120585853
158.48932	1.3182567e-7	0.51	3.9367802e8	1.0543806e7	-0.99999838	4.862155e-8	1.1428511e-7	-419001.15	1.3595667e6	0	0.0015768588150155763
158.48932	1.4454398e-7	0.51	3.5903862e8	9.6160656e6	-0.99999822	5.331247e-8	1.2531113e-7	-382133.68	1.2399394e6	0	0.0017324727007700567
158.48932	1.5848932e-7	0.51	3.2744711e8	8.7699561e6	-0.99999805	5.8455961e-8	1.3740092e-7	-348510.14	1.1308381e6	0	0.0018979919757065688
158.48932	1.7378008e-7	0.51	2.9863532e8	7.998295e6	-0.99999787	6.4095686e-8	1.5065712e-7	-317845.12	1.0313365e6	0	0.002073465822480125
158.48932	1.9054607e-7	0.51	2.7235865e8	7.2945317e6	-0.99999766	7.0279523e-8	1.6519224e-7	-289878.28	940590.02	0	0.0022777394604345737
158.48932	2.0892961e-7	0.51	2.4839404e8	6.652692e6	-0.99999743	7.7059964e-8	1.8112969e-7	-264372.22	857828.2	0	0.002501476371628849
158.48932	2.2908677e-7	0.51	2.2653805e8	6.0673272e6	-0.99999719	8.449457e-8	1.9860476e-7	-241110.42	782348.53	0	0.0027353457304474917
158.48932	2.5118864e-7	0.51	2.0660516e8	5.5334682e6	-0.99999691	9.2646454e-8	2.1776579e-7	-219895.4	713510.25	0	0.00300760557874107
158.48932	2.7542287e-7	0.51	1.8842615e8	5.046583e6	-0.99999662	1.0158482e-7	2.3877544e-7	-200547.08	650729.	0	0.0032901468992234907
158.48932	3.0199517e-7	0.51	1.7184669e8	4.6025384e6	-0.99999629	1.1138554e-7	2.6181206e-7	-182901.2	593471.81	0	0.0036112421137826497
158.48932	3.3113112e-7	0.51	1.5672604e8	4.1975649e6	-0.99999593	1.2213141e-7	2.8707082e-7	-166807.96	541252.64	0	0.0039615890902100215
158.48932	3.6307805e-7	0.51	1.4293585e8	3.8282247e6	-0.99999554	1.3391487e-7	3.1476733e-7	-152130.76	493628.18	0	0.004341291144040701
158.48932	3.9810717e-7	0.51	1.3035904e8	3.4913824e6	-0.99999511	1.4683473e-7	3.4513551e-7	-138744.99	450194.16	0	0.004759856018320815
158.48932	4.3651583e-7	0.51	1.1888886e8	3.1841786e6	-0.99999464	1.6100108e-7	3.7843357e-7	-126537.02	410581.87	0	0.00521740744147794
158.48932	4.7863009e-7	0.51	1.0842793e8	2.9040054e6	-0.99999412	1.7653418e-7	4.1494415e-7	-115403.22	374455.03	0	0.0057234765022306806
158.48932	5.2480746e-7	0.51	9.8887447e7	2.6484844e6	-0.99999355	1.9356588e-7	4.5497722e-7	-105249.08	341506.96	0	0.006278211731276894
158.48932	5.7543994e-7	0.51	9.0186424e7	2.4154465e6	-0.99999293	2.1224054e-7	4.9887237e-7	-95988.388	311457.96	0	0.0068817758528894706
158.48932	6.3095734e-7	0.51	8.2250996e7	2.2029134e6	-0.99999225	2.3271716e-7	5.4700272e-7	-87542.539	284052.95	0	0.0075437433115292385
158.48932	6.9183097e-7	0.51	7.50138e7	2.0090809e6	-0.9999915	2.5516933e-7	5.9977659e-7	-79839.832	259059.28	0	0.0082737054188385
158.48932	7.5857758e-7	0.51	6.8413399e7	1.8323035e6	-0.99999068	2.7978764e-7	6.5764199e-7	-72814.88	236264.78	0	0.009071876851500207
158.48932	8.3176377e-7	0.51	6.2393761e7	1.6710807e6	-0.99998978	3.0678093e-7	7.2108998e-7	-66408.048	215475.95	0	0.009947888568267251
158.48932	9.1201084e-7	0.51	5.6903786e7	1.5240437e6	-0.9999888	3.3637865e-7	7.906595e-7	-60564.948	196516.32	0	0.010901998817612307
158.48932	1.e-6	0.51	5.189687e7	1.3899444e6	-0.99998772	3.6883191e-7	8.6694095e-7	-55235.977	179224.92	0	0.011953281813306318
158.48932	1.0964782e-6	0.51	4.7330508e7	1.2676443e6	-0.99998653	4.0441608e-7	9.5058178e-7	-50375.897	163454.98	0	0.01311144345290528
158.48932	1.2022644e-6	0.51	4.3165936e7	1.1561054e6	-0.99998523	4.4343326e-7	1.042292e-6	-45943.452	149072.63	0	0.014376823957918528
158.48932	1.3182567e-6	0.51	3.9367802e7	1.0543806e6	-0.99998381	4.862155e-7	1.1428511e-6	-41901.015	135955.77	0	0.015759192496295614
158.48932	1.4454398e-6	0.51	3.5903862e7	961606.56	-0.99998224	5.331247e-7	1.2531113e-6	-38214.268	123993.04	0	0.0172871443941376
158.48932	1.5848932e-6	0.51	3.2744711e7	876995.61	-0.99998053	5.845596e-7	1.3740092e-6	-34851.914	113082.91	0	0.01895173279631974
158.48932	1.7378008e-6	0.51	2.9863532e7	799829.5	-0.99997865	6.4095686e-7	1.5065712e-6	-31785.412	103132.75	0	0.020781636491911427
158.48932	1.9054607e-6	0.51	2.7235865e7	729453.17	-0.99997659	7.0279522e-7	1.6519224e-6	-28988.728	94058.102	0	0.022786790257892944
158.48932	2.0892961e-6	0.51	2.4839404e7	665269.2	-0.99997433	7.7059963e-7	1.8112969e-6	-26438.122	85781.92	0	0.024986576755438236
158.48932	2.2908677e-6	0.51	2.2653805e7	606732.72	-0.99997186	8.449457e-7	1.9860476e-6	-24111.942	78233.953	0	0.027391039918246513
158.48932	2.5118864e-6	0.51	2.0660516e7	553346.82	-0.99996914	9.2646453e-7	2.1776579e-6	-21990.44	71350.125	0	0.030038473173534794
158.48932	2.7542287e-6	0.51	1.8842615e7	504658.3	-0.99996617	1.0158482e-6	2.3877544e-6	-20055.608	65072.	0	0.03292965595277223
158.48932	3.0199517e-6	0.51	1.7184669e7	460253.84	-0.9999629	1.1138553e-6	2.6181206e-6	-18291.02	59346.281	0	0.036112421137930804
158.48932	3.3113112e-6	0.51	1.5672604e7	419756.49	-0.99995932	1.2213181e-6	2.8707121e-6	-16681.696	54124.364	0	0.03959710146369696
158.48932	3.6307805e-6	0.51	1.4293585e7	382822.47	-0.9999554	1.3391487e-6	3.1476733e-6	-15213.976	49361.918	0	0.04341291144051132
158.48932	3.9810717e-6	0.51	1.3035904e7	349138.24	-0.9999511	1.4683473e-6	3.4513551e-6	-13875.399	45018.517	0	0.04759856018289521
158.48932	4.3651583e-6	0.51	1.1888886e7	318417.86	-0.99994638	1.6100108e-6	3.7843356e-6	-12654.602	41057.287	0	0.05219286567426893
158.48932	4.7863009e-6	0.51	1.0842793e7	290400.54	-0.9999412	1.7653417e-6	4.1494415e-6	-11541.222	37444.603	0	0.05723476502220248
158.48932	5.2480746e-6	0.51	9.8887448e6	264848.44	-0.99993553	1.9356587e-6	4.5497721e-6	-10525.808	34149.796	0	0.0627539303044181
158.48932	5.7543994e-6	0.51	9.0186424e6	241544.65	-0.99992931	2.1224075e-6	4.9887258e-6	-9599.7388	31144.896	0	0.0688083638817263
158.48932	6.3095734e-6	0.51	8.2250996e6	220291.34	-0.99992249	2.3271735e-6	5.4700291e-6	-8755.1538	28404.395	0	0.07544682967948704
158.48932	6.9183097e-6	0.51	7.50138e6	200908.09	-0.99991501	2.551695e-6	5.9977676e-6	-7984.8832	25905.028	0	0.08272765934975387
158.48932	7.5857758e-6	0.51	6.8413399e6	183230.35	-0.99990682	2.7978779e-6	6.5764213e-6	-7282.388	23625.578	0	0.09069997787907025
158.48932	8.3176377e-6	0.51	6.2393762e6	167108.07	-0.99989783	3.067812e-6	7.2109025e-6	-6641.7048	21546.696	0	0.09945070001643823
158.48932	9.1201084e-6	0.51	5.6903787e6	152404.37	-0.99988797	3.3637889e-6	7.9065973e-6	-6057.3947	19650.732	0	0.10904817623887485
158.48932	0.00001	0.51	5.1896871e6	138994.44	-0.99987716	3.688321e-6	8.6694114e-6	-5524.4976	17921.593	0	0.11957040165769084
158.48932	0.000010964782	0.51	4.7330509e6	126764.44	-0.99986531	4.0441634e-6	9.5058204e-6	-5038.4897	16344.599	0	0.1311050401217865
158.48932	0.000012022644	0.51	4.3165937e6	115610.54	-0.99985231	4.4343368e-6	0.000010422925	-4595.2452	14906.364	0	0.14375884632111247
158.48932	0.000013182567	0.51	3.9367803e6	105438.07	-0.99983806	4.8621533e-6	0.000011428509	-4191.0014	13594.677	0	0.15762950661889263
158.48932	0.000014454398	0.51	3.5903863e6	96160.66	-0.99982244	5.3312446e-6	0.000012531111	-3822.3267	12398.405	0	0.17283386036924772
158.48932	0.000015848932	0.51	3.2744712e6	87699.565	-0.99980531	5.845593e-6	0.000013740089	-3486.0913	11307.392	0	0.1895079308720109
158.48932	0.000017378008	0.51	2.9863533e6	79982.954	-0.99978653	6.4095646e-6	0.000015065708	-3179.441	10312.376	0	0.207788176041655
158.48932	0.000019054607	0.51	2.7235866e6	72945.322	-0.99976593	7.0279469e-6	0.000016519219	-2899.7727	9404.9111	0	0.22783971322302207
158.48932	0.000020892961	0.51	2.4839405e6	66526.925	-0.99974335	7.7059894e-6	0.000018112962	-2644.7121	8577.293	0	0.24981878593281526
158.48932	0.000022908677	0.51	2.2653807e6	60673.278	-0.99971859	8.4494478e-6	0.000019860467	-2412.094	7822.4964	0	0.27391979052382454
158.48932	0.000025118864	0.51	2.0660518e6	55334.688	-0.99969144	9.2646332e-6	0.000021776567	-2199.9439	7134.1137	0	0.30034714337154067
158.48932	0.000027542287	0.51	1.8842616e6	50465.837	-0.99966167	0.000010158466	0.000023877528	-2006.4606	6506.3013	0	0.3293247388213021
158.48932	0.000030199517	0.51	1.7184671e6	46025.391	-0.99962903	0.000011138532	0.000026181185	-1830.0018	5933.7295	0	0.36109601435592154
158.48932	0.000033113112	0.51	1.5672606e6	41975.657	-0.99959324	0.000012213153	0.000028707094	-1669.0694	5411.5379	0	0.3959334190849658
158.48932	0.000036307805	0.51	1.4293587e6	38282.256	-0.99955399	0.00001339145	0.000031476696	-1522.2974	4935.2936	0	0.4341384923294795
158.48932	0.000039810717	0.51	1.3035907e6	34913.834	-0.99951096	0.000014683425	0.000034513503	-1388.4396	4500.9536	0	0.47602316144226825
158.48932	0.000043651583	0.51	1.1888889e6	31841.797	-0.99946378	0.000016100044	0.000037843292	-1266.3599	4104.8308	0	0.5219474173824749
158.48932	0.000047863009	0.51	1.0842796e6	29040.066	-0.99941205	0.000017653333	0.000041494331	-1155.0219	3743.5626	0	0.5723006317033092
158.48932	0.000052480746	0.51	988874.79	26484.857	-0.99935532	0.000019356476	0.00004549761	-1053.4805	3414.0821	0	0.6275204585485008
158.48932	0.000057543994	0.51	901864.58	24154.479	-0.99929313	0.000021223929	0.000049887113	-960.87352	3113.5923	0	0.6880553823755551
158.48932	0.000063095734	0.51	822510.34	22029.149	-0.99922493	0.000023271543	0.000054700099	-876.41498	2839.5425	0	0.754440017832094
158.48932	0.000069183097	0.51	750138.41	20090.826	-0.99915015	0.000025516697	0.000059977423	-799.38788	2589.6061	0	0.8272294939984158
158.48932	0.000075857758	0.51	684134.44	18323.054	-0.99906816	0.000027978445	0.00006576388	-729.13832	2361.6615	0	0.9070372018380906
158.48932	0.000083176377	0.51	623938.11	16710.827	-0.99897826	0.00003067768	0.000072108585	-665.06995	2153.7735	0	0.9945443719397937
158.48932	0.000091201084	0.51	569038.41	15240.46	-0.99887969	0.000033637309	0.000079065393	-606.6389	1964.1776	0	1.090490880118448
158.48932	0.0001	0.51	518969.3	13899.468	-0.9987716	0.000036882446	0.00008669335	-553.34913	1791.264	0	1.1957036504850829
158.48932	0.00010964782	0.51	473305.74	12676.47	-0.99865309	0.000040440627	0.000095057196	-504.74828	1633.5651	0	1.3110593138596571
158.48932	0.00012022644	0.51	431660.08	11561.083	-0.99852314	0.00004434204	0.00010422792	-460.42376	1489.7421	0	1.4375502432896545
158.48932	0.00013182567	0.51	393678.81	10543.839	-0.99838066	0.000048619783	0.00011428334	-419.99931	1358.574	0	1.5762378537055681
158.48932	0.00014454398	0.51	359039.48	9616.1014	-0.99822444	0.00005331014	0.0001253088	-383.13176	1238.9474	0	1.7282999141763495
158.48932	0.00015848932	0.51	327448.06	8769.9953	-0.99805314	0.000058452889	0.00013739785	-349.50813	1129.8468	0	1.8950402694034887
158.48932	0.00017378008	0.51	298636.36	7998.338	-0.99786532	0.000064091638	0.00015065307	-318.84301	1030.3459	0	2.0778610476040456
158.48932	0.00019054607	0.51	272359.78	7294.5789	-0.99765938	0.000070274185	0.0001651869	-290.87607	939.60019	0	2.278319432149111
158.48932	0.00020892961	0.51	248395.29	6652.7437	-0.99743358	0.000077052929	0.00018112265	-265.36989	856.83926	0	2.4981093542274513
158.48932	0.00022908677	0.51	226539.42	6067.3839	-0.997186	0.000084485296	0.00019859548	-242.10796	781.36056	0	2.739099545054039
158.48932	0.00025118864	0.51	206606.66	5533.5304	-0.99691454	0.000092634229	0.00021775356	-220.8928	712.52334	0	3.0033340917167095
158.48932	0.00027542287	0.51	188427.79	5046.6512	-0.99661689	0.0001015687	0.00023875931	-201.54433	649.74325	0	3.293061218318134
158.48932	0.00030199517	0.51	171848.49	4602.6131	-0.99629054	0.00011136429	0.00026179081	-183.89828	592.48734	0	3.610724565963511
158.48932	0.00033113112	0.51	156728.02	4197.6469	-0.99593272	0.00012210381	0.0002870432	-167.80486	540.26957	0	3.9590202375312975
158.48932	0.00036307805	0.51	142938.02	3828.3146	-0.9955404	0.00013387796	0.0003147304	-153.12745	492.64665	0	4.340897621860144
158.48932	0.00039810717	0.51	130361.42	3491.4809	-0.99511026	0.00014678608	0.00034508683	-139.74146	449.21432	0	4.759588404895741
158.48932	0.00043651583	0.51	118891.47	3184.2866	-0.99463865	0.00016093695	0.0003783694	-127.53324	409.60387	0	5.218645105870087
158.48932	0.00047863009	0.51	108430.79	2904.1239	-0.99412158	0.00017644965	0.00041485958	-116.39918	373.47906	0	5.721951464853659
158.48932	0.00052480746	0.51	98890.584	2648.6143	-0.99355469	0.00019345446	0.00045486574	-106.24474	340.53321	0	6.27375175099365
158.48932	0.00057543994	0.51	90189.863	2415.5889	-0.99293318	0.00021209392	0.00049872567	-96.983727	310.48664	0	6.878717739617669
158.48932	0.00063095734	0.51	82254.766	2203.0695	-0.99225182	0.00023252384	0.00054680928	-88.537524	283.0843	0	7.5419406103616815
158.48932	0.00069183097	0.51	75017.934	2009.252	-0.99150485	0.00025491447	0.00059952158	-80.834431	258.09355	0	8.269026331656585
158.48932	0.00075857758	0.51	68417.931	1832.4912	-0.990686	0.00027945171	0.00065730586	-73.809054	235.30226	0	9.066078393208095
158.48932	0.00083176377	0.51	62398.73	1671.2864	-0.98978838	0.00030633835	0.00072064714	-67.401757	214.51695	0	9.939802811350486
158.48932	0.00091201084	0.51	56909.233	1524.2692	-0.98880448	0.00033579538	0.00079007589	-61.558146	195.56116	0	10.897509911590362
158.48932	0.001	0.51	51902.841	1390.1916	-0.98772606	0.00036806335	0.00086617195	-56.228616	178.27399	0	11.947219559173622
158.48932	0.0010964782	0.51	47337.054	1267.9153	-0.98654414	0.00040340365	0.00094956877	-51.367924	162.50867	0	13.097672586455388
158.48932	0.0012022644	0.51	43173.111	1156.4024	-0.9852489	0.00044209983	0.0010409578	-46.934807	148.13138	0	14.358426853028053
158.48932	0.0013182567	0.51	39375.666	1054.7062	-0.98382964	0.00048445879	0.0011410934	-42.891633	135.02007	0	15.739897181100428
158.48932	0.0014454398	0.51	35912.481	961.96337	-0.98227468	0.00053081176	0.001250797	-39.204078	123.06342	0	17.253451305414856
158.48932	0.0015848932	0.51	32754.157	877.3866	-0.98057132	0.00058151508	0.0013709629	-35.84084	112.15994	0	18.91145023509549
158.48932	0.0017378008	0.51	29873.882	800.2579	-0.97870575	0.00063695053	0.0015025625	-32.773368	102.21706	0	20.72733484145424
158.48932	0.0019054607	0.51	27247.205	729.9225	-0.97666298	0.0006975251	0.0016466493	-29.975621	93.150376	0	22.715694023456734
158.48932	0.0020892961	0.51	24851.827	665.78327	-0.97442681	0.00076367002	0.0018043633	-27.423852	84.882905	0	24.892295003067265
158.48932	0.0022908677	0.51	22667.413	607.29568	-0.97197969	0.00083583864	0.0019769352	-25.096396	77.34446	0	27.274216876947357
158.48932	0.0025118864	0.51	20675.417	553.96316	-0.96930277	0.00091450306	0.0021656894	-22.973498	70.471034	0	29.879805075722686
158.48932	0.0027542287	0.51	18858.928	505.33289	-0.96637582	0.0010001489	0.0023720459	-21.037137	64.204263	0	32.72874743965028
158.48932	0.0030199517	0.51	17202.523	460.99193	-0.96317722	0.0010932679	0.0025975211	-19.270875	58.490929	0	35.84208399761453
158.48932	0.0033113112	0.51	15692.138	420.56371	-0.95968402	0.0011943479	0.002843726	-17.65972	53.282505	0	39.242149730685014
158.48932	0.0036307805	0.51	14314.947	383.70486	-0.955872	0.0013038592	0.0031123628	-16.189997	48.534743	0	42.95251656898952
158.48932	0.0039810717	0.51	13059.254	350.10224	-0.9517158	0.0014222377	0.0034052178	-14.84923	44.207296	0	46.99786784605244
158.48932	0.0043651583	0.51	11914.393	319.47028	-0.94718913	0.0015498637	0.0037241519	-13.62604	40.263376	0	51.40379643787656
158.48932	0.0047863009	0.51	10870.637	291.54856	-0.94226504	0.0016870362	0.0040710877	-12.510046	36.669431	0	56.196544898898914
158.48932	0.0052480746	0.51	9919.1157	266.09956	-0.93691629	0.0018339436	0.0044479934	-11.49178	33.394866	0	61.402650108039545
158.48932	0.0057543994	0.51	9051.738	242.90661	-0.93111585	0.0019906311	0.0048568656	-10.562602	30.411773	0	67.04846524415967
158.48932	0.0063095734	0.51	8261.1248	221.77206	-0.92483748	0.0021569665	0.0052997115	-9.7146309	27.694692	0	73.15960630878422
158.48932	0.0069183097	0.51	7540.5449	202.51556	-0.9180564	0.0023326071	0.005778534	-8.9406766	25.220389	0	79.76031547756043
158.48932	0.0075857758	0.51	6883.8572	184.9725	-0.91075009	0.0025169715	0.0062953229	-8.2341796	22.967657	0	86.87270523120831
158.48932	0.0083176377	0.51	6285.4582	168.99256	-0.90289908	0.0027092202	0.0068520576	-7.5891555	20.917128	0	94.51601739267575
158.48932	0.0091201084	0.51	5740.2341	154.43848	-0.89448777	0.0029082511	0.0074507257	-7.0001449	19.051103	0	102.70586159626848
158.48932	0.01	0.51	5243.5167	141.18483	-0.8855052	0.0031127123	0.0080933627	-6.4621674	17.353406	0	111.45351084571024
158.48932	0.010964782	0.51	4791.0441	129.11694	-0.87594562	0.0033210379	0.008782115	-5.9706801	15.809238	0	120.7653961501278
158.48932	0.012022644	0.51	4378.9245	118.12998	-0.8658089	0.0035315048	0.0095193281	-5.5215394	14.405058	0	130.64276356578608
158.48932	0.013182567	0.51	4003.6033	108.12804	-0.85510058	0.0037423082	0.010307657	-5.1109664	13.128467	0	141.0816801191083
158.48932	0.014454398	0.51	3661.8342	99.023387	-0.84383165	0.0039516509	0.011150189	-4.7355155	11.968112	0	152.07329935415157
158.48932	0.015848932	0.51	3350.6525	90.735773	-0.83201794	0.004157832	0.012050577	-4.3920451	10.913597	0	163.60449834194156
158.48932	0.017378008	0.51	3067.351	83.191805	-0.81967922	0.0043593297	0.013013165	-4.0776914	9.9554066	0	175.65878342616764
158.48932	0.019054607	0.51	2809.4586	76.324398	-0.80683806	0.0045548635	0.014043094	-3.7898445	9.0848341	0	188.21741207266734
158.48932	0.020892961	0.51	2574.7208	70.072269	-0.79351854	0.0047434301	0.015146394	-3.5261257	8.293921	0	201.26064899313343
158.48932	0.022908677	0.51	2361.0817	64.379488	-0.77974485	0.0049243097	0.016330045	-3.2843675	7.5754001	0	214.76911076648224
158.48932	0.025118864	0.51	2166.6677	59.195053	-0.76554007	0.0050970438	0.017602014	-3.062595	6.9226431	0	228.72492983817907
158.48932	0.027542287	0.51	1989.7728	54.472503	-0.75092492	0.0052613884	0.018971275	-2.8590084	6.3296126	0	243.11293856049184
158.48932	0.030199517	0.51	1828.8445	50.169552	-0.73591685	0.0054172534	0.020447814	-2.6719678	5.7908158	0	257.9215265928515
158.48932	0.033113112	0.51	1682.471	46.247752	-0.72052925	0.0055646326	0.022042641	-2.4999782	5.3012617	0	273.1433889086181
158.48932	0.036307805	0.51	1549.3691	42.672165	-0.70477093	0.0057035379	0.023767794	-2.3416769	4.8564201	0	288.7760162857768
158.48932	0.039810717	0.51	1428.3737	39.41107	-0.68864578	0.0058339426	0.02563637	-2.1958207	4.4521827	0	304.82202961368455
158.48932	0.043651583	0.51	1318.427	36.435675	-0.67215274	0.0059557419	0.02766257	-2.0612756	4.0848273	0	321.2892296430552
158.48932	0.047863009	0.51	1218.5693	33.719862	-0.65528587	0.0060687369	0.029861772	-1.9370064	3.7509832	0	338.19056619640355
158.48932	0.052480746	0.51	1127.93	31.23994	-0.63803465	0.0061726438	0.032250627	-1.8220675	3.4475998	0	355.5439022995595
158.48932	0.057543994	0.51	1045.7194	28.974424	-0.62038443	0.006267129	0.034847185	-1.7155944	3.1719174	0	373.37165175372974
158.48932	0.063095734	0.51	971.22102	26.903832	-0.60231707	0.0063518673	0.037671031	-1.6167967	2.9214402	0	391.7002429819272
158.48932	0.069183097	0.51	903.78491	25.010497	-0.58381169	0.0064266154	0.040743436	-1.5249506	2.6939115	0	410.5594867108852
158.48932	0.075857758	0.51	842.82072	23.278394	-0.56484544	0.0064912895	0.044087495	-1.4393934	2.4872912	0	429.9819186323481
158.48932	0.083176377	0.51	787.79191	21.692987	-0.54539443	0.0065460354	0.047728236	-1.3595172	2.2997352	0	450.001977837733
158.48932	0.091201084	0.51	738.21034	20.241089	-0.52543444	0.0065912784	0.051692681	-1.2847646	2.1295763	0	470.6553689566098
158.48932	0.1	0.51	693.6315	18.91073	-0.50494153	0.0066277445	0.05600984	-1.2146237	1.9753074	0	491.97848614676695
158.48932	0.10964782	0.51	653.6504	17.691042	-0.48389224	0.0066564505	0.060710624	-1.1486243	1.8355654	0	514.008183492628
158.48932	0.12022644	0.51	617.8983	16.572147	-0.46226332	0.0066786665	0.065827664	-1.0863339	1.7091165	0	536.7819419566177
158.48932	0.13182567	0.51	586.04032	15.545064	-0.4400307	0.0066958612	0.071395034	-1.0273548	1.5948435	0	560.3387043990756
158.48932	0.14454398	0.51	557.774	14.60161	-0.41716758	0.0067096404	0.077447875	-0.97132026	1.4917327	0	584.7204899770239
158.48932	0.15848932	0.51	532.82873	13.734316	-0.39364162	0.006721694	0.084021917	-0.91789174	1.3988629	0	609.9748052755587
158.48932	0.17378008	0.51	510.96618	12.936344	-0.36941112	0.006733758	0.091152901	-0.86675565	1.3153942	0	636.157956482414
158.48932	0.19054607	0.51	491.98122	12.20141	-0.34442041	0.0067476002	0.098875905	-0.8176201	1.2405584	0	663.3390578180313
158.48932	0.20892961	0.51	475.70318	11.52371	-0.31859489	0.0067650268	0.10722458	-0.77021169	1.1736499	0	691.6043256874531
158.48932	0.22908677	0.51	461.99663	10.897857	-0.29183627	0.0067879066	0.1162303	-0.72427197	1.1140183	0	721.0611437098089
158.48932	0.25118864	0.51	450.76094	10.318827	-0.26401919	0.006818199	0.12592131	-0.67955407	1.0610635	0	751.8408301892639
158.48932	0.27542287	0.51	441.92741	9.7819361	-0.23499049	0.0068579703	0.13632178	-0.63581941	1.0142333	0	784.0988706950233
158.48932	0.30199517	0.51	435.45306	9.2828315	-0.20457256	0.0069093738	0.14745104	-0.59283477	0.9730272	0	818.0114039459907
158.48932	0.33113112	0.51	431.31038	8.8175329	-0.17257185	0.0069745777	0.15932279	-0.55037032	0.93700339	0	853.7668475587591
158.48932	0.36307805	0.51	429.47375	8.3824932	-0.1387921	0.007055629	0.17194455	-0.5081987	0.90579092	0	891.5532040499496
158.48932	0.39810717	0.51	429.90479	7.9746714	-0.10305036	0.0071542709	0.18531741	-0.46609557	0.87910116	0	931.5428892047231
158.48932	0.43651583	0.51	432.54001	7.5915817	-0.065192097	0.0072717505	0.19943609	-0.42384151	0.85673426	0	973.8785668137366
158.48932	0.47863009	0.51	437.28401	7.23129	-0.025101447	0.0074086741	0.21428933	-0.38122485	0.8385756	0	1018.6637031287235
158.48932	0.52480746	0.51	444.00973	6.8923453	0.017295434	0.0075649376	0.22986077	-0.33804486	0.82458116	0	1065.9598400559348
158.48932	0.57543994	0.51	452.56472	6.5736614	0.062033628	0.0077397646	0.2461301	-0.29411458	0.81475467	0	1115.7902073151276
158.48932	0.63095734	0.51	462.78079	6.2743777	0.10911698	0.0079318127	0.26307435	-0.24926285	0.80912213	0	1168.1474108088669
158.48932	0.69183097	0.51	474.48409	5.9937316	0.15852711	0.0081393344	0.28066937	-0.20333534	0.80770923	0	1223.0026091693867
158.48932	0.75857758	0.51	487.50372	5.7309627	0.21023171	0.0083603514	0.29889114	-0.1561947	0.81052504	0	1280.313937055908
158.48932	0.83176377	0.51	501.67802	5.4852541	0.26419137	0.008592823	0.31771694	-0.10771991	0.8175528	0	1340.0334792663643
158.48932	0.91201084	0.51	516.85868	5.2557092	0.32036444	0.0088347922	0.33712629	-0.057805178	0.82874707	0	1402.1122893317604
158.48932	1.	0.51	532.91299	5.0413535	0.37871063	0.0090845014	0.35710171	-0.0063584789	0.84403547	0	1466.5041361269623
158.48932	1.0964782	0.51	549.72488	4.8411533	0.43919339	0.0093404737	0.37762912	0.046699998	0.86332344	0	1533.1679317075623
158.48932	1.2022644	0.51	567.19515	4.654042	0.50178169	0.0096015618	0.39869816	0.10143952	0.88650035	0	1602.069557073267
158.48932	1.3182567	0.51	585.24105	4.4789492	0.5664512	0.0098669614	0.42030217	0.15792043	0.91344596	0	1673.1829612714425
158.48932	1.4454398	0.51	603.79561	4.3148266	0.63318519	0.0101362	0.4424382	0.21619576	0.94403649	0	1746.4910117977151
158.48932	1.5848932	0.51	622.80664	4.1606703	0.701975	0.010409107	0.46510678	0.27631269	0.97814977	0	1821.9858259806672
158.48932	1.7378008	0.51	642.23554	4.0155371	0.77282035	0.010685765	0.48831172	0.33831397	1.0156695	0	1899.6689664114324
158.48932	1.9054607	0.51	662.056	3.8785554	0.84572939	0.010966468	0.51205982	0.40223918	1.0564881	0	1979.5513489602472
158.48932	2.0892961	0.51	682.25272	3.7489306	0.9207185	0.011251665	0.53636059	0.46812587	1.1005092	0	2061.652920693449
158.48932	2.2908677	0.51	702.82001	3.6259471	0.99781205	0.011541922	0.561226	0.53601057	1.1476486	0	2146.0023145832083
158.48932	2.5118864	0.51	723.76049	3.5089662	1.077042	0.011837879	0.58667024	0.60592967	1.1978349	0	2232.6363586785938
158.48932	2.7542287	0.51	745.08391	3.3974228	1.1584475	0.01214022	0.61270945	0.67792019	1.2510099	0	2321.5995709012795
158.48932	3.0199517	0.51	766.80599	3.2908197	1.2420744	0.012449654	0.63936158	0.75202038	1.3071279	0	2412.9436315735593
158.48932	3.3113112	0.51	788.94738	3.1887214	1.3279747	0.012766888	0.66664619	0.8282703	1.3661555	0	2506.7267708217382
158.48932	3.6307805	0.51	811.53286	3.0907479	1.4162065	0.013092626	0.69458431	0.90671224	1.4280709	0	2603.0136545129008
158.48932	3.9810717	0.51	834.59047	2.9965683	1.5068329	0.013427553	0.72319833	0.98739108	1.4928632	0	2701.8742980234065
158.48932	4.3651583	0.51	858.15094	2.9058945	1.5999224	0.013772335	0.7525119	1.0703546	1.5605315	0	2803.384394147199
158.48932	4.7863009	0.51	882.2471	2.8184759	1.6955482	0.01412762	0.78254985	1.1556537	1.6310845	0	2907.624617065796
158.48932	5.2480746	0.51	906.91343	2.7340943	1.7937879	0.014494031	0.81333815	1.2433425	1.7045395	0	3014.6803213115472
158.48932	5.7543994	0.51	932.18573	2.6525588	1.8947234	0.014872174	0.84490385	1.3334787	1.780922	0	3124.641419060405
158.48932	6.3095734	0.51	958.10077	2.5737025	1.9984409	0.015262637	0.87727501	1.4261235	1.860265	0	3237.602346589436
158.48932	6.9183097	0.51	984.69614	2.4973786	2.1050302	0.015665993	0.91048076	1.5213417	1.9426087	0	3353.6614353317796
158.48932	7.5857758	0.51	1012.01	2.4234575	2.2145852	0.016082805	0.9445512	1.6192019	2.0279996	0	3472.921333741489
158.48932	8.3176377	0.51	1040.081	2.3518239	2.3272036	0.016513624	0.97951745	1.7197764	2.1164907	0	3595.488749382842
158.48932	9.1201084	0.51	1068.9483	2.2823751	2.4429865	0.016958998	1.0154116	1.8231414	2.2081407	0	3721.4740491452853
158.48932	10.	0.51	1098.6512	2.2150186	2.5620392	0.01741947	1.0522668	1.9293767	2.3030142	0	3850.9920540217636