17.378008	1.e-12	0.12	7.1582816e9	1.6477628e9	-0.45177636	-0.038190755	-0.038190755	-7.6187165e6	2.2857966e7	0	510.7860109842733
17.378008	1.0964782e-12	0.12	6.5284305e9	1.5027775e9	-0.45007283	-0.038190755	-0.038190755	-6.9483521e6	2.0846713e7	0	512.3865887449588
17.378008	1.2022644e-12	0.12	5.9539993e9	1.3705494e9	-0.44836931	-0.038190755	-0.038190755	-6.3369725e6	1.9012429e7	0	513.9871571099908
17.378008	1.3182567e-12	0.12	5.4301119e9	1.2499559e9	-0.44666578	-0.038190755	-0.038190755	-5.7793876e6	1.7339541e7	0	515.5877348706763
17.378008	1.4454398e-12	0.12	4.9523209e9	1.1399733e9	-0.44496226	-0.038190755	-0.038190755	-5.2708642e6	1.5813849e7	0	517.1883032357083
17.378008	1.5848932e-12	0.12	4.5165704e9	1.039668e9	-0.44325873	-0.038190755	-0.038190755	-4.8070853e6	1.4422402e7	0	518.7888809963938
17.378008	1.7378008e-12	0.12	4.1191611e9	9.4818851e8	-0.44155521	-0.038190755	-0.038190755	-4.3841139e6	1.3153387e7	0	520.3894493614257
17.378008	1.9054607e-12	0.12	3.7567196e9	8.6475821e8	-0.43985168	-0.038190755	-0.038190755	-3.9983595e6	1.1996031e7	0	521.9900271221112
17.378008	2.0892961e-12	0.12	3.426169e9	7.8866886e8	-0.43814815	-0.038190755	-0.038190755	-3.6465472e6	1.0940511e7	0	523.5906048827967
17.378008	2.2908677e-12	0.12	3.1247032e9	7.1927455e8	-0.43644463	-0.038190755	-0.038190755	-3.3256906e6	9.9778642e6	0	525.1911732478287
17.378008	2.5118864e-12	0.12	2.8497632e9	6.5598619e8	-0.4347411	-0.038190755	-0.038190755	-3.0330659e6	9.0999204e6	0	526.7917510085142
17.378008	2.7542287e-12	0.12	2.599015e9	5.9826652e8	-0.43303758	-0.038190755	-0.038190755	-2.7661891e6	8.299226e6	0	528.3923193735463
17.378008	3.0199517e-12	0.12	2.3703298e9	5.4562555e8	-0.43133405	-0.038190755	-0.038190755	-2.5227944e6	7.568984e6	0	529.9928971342317
17.378008	3.3113112e-12	0.12	2.1617665e9	4.9761642e8	-0.42963053	-0.038190755	-0.038190755	-2.3008159e6	6.9029955e6	0	531.5934654992636
17.378008	3.6307805e-12	0.12	1.9715545e9	4.5383157e8	-0.427927	-0.038190755	-0.038190755	-2.0983691e6	6.2956067e6	0	533.1940432599494
17.378008	3.9810717e-12	0.12	1.7980791e9	4.1389932e8	-0.42622347	-0.038190755	-0.038190755	-1.9137354e6	5.7416616e6	0	534.7946210206346
17.378008	4.3651583e-12	0.12	1.6398676e9	3.7748066e8	-0.42451995	-0.038190755	-0.038190755	-1.7453475e6	5.2364576e6	0	536.3951893856669
17.378008	4.7863009e-12	0.12	1.495577e9	3.4426646e8	-0.42281642	-0.038190755	-0.038190755	-1.5917758e6	4.7757061e6	0	537.9957671463524
17.378008	5.2480746e-12	0.12	1.3639824e9	3.1397474e8	-0.4211129	-0.038190755	-0.038190755	-1.4517169e6	4.3554957e6	0	539.5963355113843
17.378008	5.7543994e-12	0.12	1.2439668e9	2.8634837e8	-0.41940937	-0.038190755	-0.038190755	-1.3239815e6	3.9722593e6	0	541.1969132720698
17.378008	6.3095734e-12	0.12	1.1345112e9	2.6115282e8	-0.41770585	-0.038190755	-0.038190755	-1.2074856e6	3.6227436e6	0	542.7974816371019
17.378008	6.9183097e-12	0.12	1.0346865e9	2.3817421e8	-0.41600232	-0.038190755	-0.038190755	-1.1012399e6	3.3039814e6	0	544.3980593977873
17.378008	7.5857758e-12	0.12	9.4364531e8	2.1721746e8	-0.41429879	-0.038190755	-0.038190755	-1.0043428e6	3.0132669e6	0	545.9986371584729
17.378008	8.3176377e-12	0.12	8.6061475e8	1.9810468e8	-0.41259527	-0.038190755	-0.038190755	-915971.57	2.748132e6	0	547.5992055235049
17.378008	9.1201084e-12	0.12	7.8488998e8	1.8067362e8	-0.41089174	-0.038190755	-0.038190755	-835376.03	2.5063262e6	0	549.1997832841903
17.378008	1.e-11	0.12	7.1582818e8	1.647763e8	-0.40918822	-0.038190755	-0.038190755	-761872.04	2.2857967e6	0	550.8003516492223
17.378008	1.0964782e-11	0.12	6.5284306e8	1.5027777e8	-0.40748469	-0.038190755	-0.038190755	-694835.59	2.0846713e6	0	552.4009294099078
17.378008	1.2022644e-11	0.12	5.9539994e8	1.3705496e8	-0.40578117	-0.038190755	-0.038190755	-633697.62	1.9012428e6	0	554.0014977749398
17.378008	1.3182567e-11	0.12	5.430112e8	1.2499561e8	-0.40407764	-0.038190755	-0.038190755	-577939.14	1.7339541e6	0	555.6020755356253
17.378008	1.4454398e-11	0.12	4.9523211e8	1.1399735e8	-0.40237411	-0.038190755	-0.038190755	-527086.8	1.5813849e6	0	557.2026532963108
17.378008	1.5848932e-11	0.12	4.5165705e8	1.0396683e8	-0.40067059	-0.038190755	-0.038190755	-480708.91	1.4422402e6	0	558.8032216613427
17.378008	1.7378008e-11	0.12	4.1191613e8	9.4818873e7	-0.39896706	-0.038190755	-0.038190755	-438411.77	1.3153387e6	0	560.4037994220282
17.378008	1.9054607e-11	0.12	3.7567197e8	8.6475842e7	-0.39726354	-0.038190755	-0.038190755	-399836.32	1.1996032e6	0	562.0043677870602
17.378008	2.0892961e-11	0.12	3.4261691e8	7.8866908e7	-0.39556001	-0.038190755	-0.038190755	-364655.09	1.0940511e6	0	563.6049455477457
17.378008	2.2908677e-11	0.12	3.1247034e8	7.1927476e7	-0.39385649	-0.038190755	-0.038190755	-332569.43	997786.45	0	565.2055139127777
17.378008	2.5118864e-11	0.12	2.8497634e8	6.5598641e7	-0.39215296	-0.038190755	-0.038190755	-303306.97	909992.07	0	566.8060916734632
17.378008	2.7542287e-11	0.12	2.5990151e8	5.9826673e7	-0.39044943	-0.038190755	-0.038190755	-276619.27	829922.62	0	568.4066694341487
17.378008	3.0199517e-11	0.12	2.37033e8	5.4562577e7	-0.38874591	-0.038190755	-0.038190755	-252279.81	756898.44	0	570.0072377991808
17.378008	3.3113112e-11	0.12	2.1617667e8	4.9761663e7	-0.38704238	-0.038190755	-0.038190755	-230081.96	690299.58	0	571.6078155598661
17.378008	3.6307805e-11	0.12	1.9715546e8	4.5383178e7	-0.38533886	-0.038190755	-0.038190755	-209837.27	629560.7	0	573.2083839248982
17.378008	3.9810717e-11	0.12	1.7980792e8	4.1389953e7	-0.38363533	-0.038190755	-0.038190755	-191373.9	574166.19	0	574.8089616855839
17.378008	4.3651583e-11	0.12	1.6398677e8	3.7748087e7	-0.38193181	-0.038190755	-0.038190754	-174535.11	523645.79	0	576.4095301633636
17.378008	4.7863009e-11	0.12	1.4955772e8	3.4426666e7	-0.38022828	-0.038190755	-0.038190755	-159177.94	477570.63	0	578.0101078113014
17.378008	5.2480746e-11	0.12	1.3639826e8	3.1397495e7	-0.37852476	-0.038190755	-0.038190754	-145172.04	435549.6	0	579.6106762890811
17.378008	5.7543994e-11	0.12	1.2439669e8	2.8634858e7	-0.37682123	-0.038190755	-0.038190754	-132398.51	397225.96	0	581.2112540497667
17.378008	6.3095734e-11	0.12	1.1345113e8	2.6115303e7	-0.3751177	-0.038190755	-0.038190754	-120748.91	362274.38	0	582.8118318104521
17.378008	6.9183097e-11	0.12	1.0346867e8	2.3817441e7	-0.37341418	-0.038190755	-0.038190754	-110124.35	330398.17	0	584.4124001754842
17.378008	7.5857758e-11	0.12	9.4364546e7	2.1721766e7	-0.37171065	-0.038190755	-0.038190754	-100434.63	301326.71	0	586.0129779361696
17.378008	8.3176377e-11	0.12	8.6061491e7	1.9810488e7	-0.37000713	-0.038190755	-0.038190754	-91597.506	274813.23	0	587.6135463012015
17.378008	9.1201084e-11	0.12	7.8489014e7	1.8067382e7	-0.3683036	-0.038190755	-0.038190754	-83537.951	250632.65	0	589.2141240618871
17.378008	1.e-10	0.12	7.1582834e7	1.647765e7	-0.36660008	-0.038190755	-0.038190754	-76187.551	228579.69	0	590.8146924269191
17.378008	1.0964782e-10	0.12	6.5284321e7	1.5027797e7	-0.36489655	-0.038190755	-0.038190754	-69483.904	208467.16	0	592.4152701876046
17.378008	1.2022644e-10	0.12	5.954001e7	1.3705516e7	-0.36319302	-0.038190755	-0.038190754	-63370.106	190124.31	0	594.0158479482901
17.378008	1.3182567e-10	0.12	5.4301136e7	1.2499581e7	-0.3614895	-0.038190755	-0.038190754	-57794.256	173395.44	0	595.6164163133221
17.378008	1.4454398e-10	0.12	4.9523226e7	1.1399755e7	-0.35978597	-0.038190755	-0.038190754	-52709.02	158138.52	0	597.2169940740076
17.378008	1.5848932e-10	0.12	4.5165721e7	1.0396702e7	-0.35808245	-0.038190755	-0.038190754	-48071.23	144224.05	0	598.8175624390396
17.378008	1.7378008e-10	0.12	4.1191628e7	9.481907e6	-0.35637892	-0.038190755	-0.038190754	-43841.514	131533.9	0	600.418140199725
17.378008	1.9054607e-10	0.12	3.7567213e7	8.6476037e6	-0.3546754	-0.038190755	-0.038190754	-39983.968	119960.34	0	602.0187085647572
17.378008	2.0892961e-10	0.12	3.4261707e7	7.8867102e6	-0.35297187	-0.038190755	-0.038190753	-36465.844	109405.13	0	603.6192864381904
17.378008	2.2908677e-10	0.12	3.124705e7	7.192767e6	-0.35126834	-0.038190755	-0.038190753	-33257.276	99778.671	0	605.2198641988758
17.378008	2.5118864e-10	0.12	2.849765e7	6.5598834e6	-0.34956482	-0.038190755	-0.038190753	-30331.028	90999.232	0	606.8204325639078
17.378008	2.7542287e-10	0.12	2.5990167e7	5.9826865e6	-0.34786129	-0.038190756	-0.038190753	-27662.257	82992.288	0	608.4210103245933
17.378008	3.0199517e-10	0.12	2.3703315e7	5.4562767e6	-0.34615777	-0.038190756	-0.038190753	-25228.309	75689.869	0	610.0215786896254
17.378008	3.3113112e-10	0.12	2.1617682e7	4.9761853e6	-0.34445424	-0.038190756	-0.038190752	-23008.522	69029.983	0	611.6221565630588
17.378008	3.6307805e-10	0.12	1.9715562e7	4.5383367e6	-0.34275072	-0.038190756	-0.038190752	-20984.052	62956.095	0	613.2227249280908
17.378008	3.9810717e-10	0.12	1.7980808e7	4.1390141e6	-0.34104719	-0.038190756	-0.038190752	-19137.714	57416.644	0	614.8233026887763
17.378008	4.3651583e-10	0.12	1.6398693e7	3.7748275e6	-0.33934366	-0.038190756	-0.038190752	-17453.832	52364.604	0	616.4238804494619
17.378008	4.7863009e-10	0.12	1.4955787e7	3.4426854e6	-0.33764014	-0.038190756	-0.038190751	-15918.115	47757.089	0	618.0244489272416
17.378008	5.2480746e-10	0.12	1.3639842e7	3.1397681e6	-0.33593661	-0.038190756	-0.038190751	-14517.523	43554.986	0	619.625026687927
17.378008	5.7543994e-10	0.12	1.2439685e7	2.8635043e6	-0.33423309	-0.038190756	-0.038190751	-13240.168	39722.621	0	621.2255950529591
17.378008	6.3095734e-10	0.12	1.1345129e7	2.6115487e6	-0.33252956	-0.038190756	-0.03819075	-12075.207	36227.464	0	622.8261729263925
17.378008	6.9183097e-10	0.12	1.0346882e7	2.3817625e6	-0.33082604	-0.038190756	-0.03819075	-11012.749	33039.842	0	624.4267412914244
17.378008	7.5857758e-10	0.12	9.4364702e6	2.1721949e6	-0.32912251	-0.038190757	-0.038190749	-10043.776	30132.696	0	626.0273191648579
17.378008	8.3176377e-10	0.12	8.6061647e6	1.981067e6	-0.32741898	-0.038190757	-0.038190749	-9160.0618	27481.348	0	627.6278969255434
17.378008	9.1201084e-10	0.12	7.848917e6	1.8067563e6	-0.32571546	-0.038190757	-0.038190748	-8354.1048	25063.29	0	629.2284654033231
17.378008	1.e-9	0.12	7.1582989e6	1.647783e6	-0.32401193	-0.038190757	-0.038190747	-7619.0631	22857.995	0	630.8290432767566
17.378008	1.0964782e-9	0.12	6.5284477e6	1.5027977e6	-0.32230841	-0.038190757	-0.038190747	-6948.6969	20846.741	0	632.4296116417886
17.378008	1.2022644e-9	0.12	5.9540167e6	1.3705695e6	-0.32060488	-0.038190757	-0.038190746	-6337.3157	19012.457	0	634.0301895152219
17.378008	1.3182567e-9	0.12	5.4301293e6	1.2499759e6	-0.31890136	-0.038190757	-0.038190745	-5779.7292	17339.569	0	635.6307579930017
17.378008	1.4454398e-9	0.12	4.9523383e6	1.1399932e6	-0.31719783	-0.038190758	-0.038190744	-5271.204	15813.877	0	637.231335866435
17.378008	1.5848932e-9	0.12	4.5165877e6	1.0396878e6	-0.3154943	-0.038190758	-0.038190743	-4807.4234	14422.43	0	638.8319137398684
17.378008	1.7378008e-9	0.12	4.1191785e6	948208.23	-0.31379078	-0.038190758	-0.038190742	-4384.4504	13153.415	0	640.4324822176483
17.378008	1.9054607e-9	0.12	3.7567369e6	864777.83	-0.31208725	-0.038190759	-0.03819074	-3998.6942	11996.059	0	642.0330602038293
17.378008	2.0892961e-9	0.12	3.4261864e6	788688.4	-0.31038373	-0.038190759	-0.038190739	-3646.8803	10940.539	0	643.6336286816093
17.378008	2.2908677e-9	0.12	3.1247206e6	719293.99	-0.3086802	-0.03819076	-0.038190737	-3326.0219	9977.8924	0	645.2342066677905
17.378008	2.5118864e-9	0.12	2.8497806e6	656005.54	-0.30697668	-0.03819076	-0.038190736	-3033.3955	9099.9486	0	646.8347751455702
17.378008	2.7542287e-9	0.12	2.5990323e6	598285.77	-0.30527315	-0.038190761	-0.038190734	-2766.517	8299.2542	0	648.4353531317514
17.378008	3.0199517e-9	0.12	2.3703472e6	545644.71	-0.30356962	-0.038190762	-0.038190732	-2523.1206	7569.0122	0	650.0359311179327
17.378008	3.3113112e-9	0.12	2.1617838e6	497635.49	-0.3018661	-0.038190762	-0.03819073	-2301.1404	6903.0237	0	651.6364997084603
17.378008	3.6307805e-9	0.12	1.9715718e6	453850.54	-0.30016257	-0.038190763	-0.038190727	-2098.6919	6295.6349	0	653.2370778073894
17.378008	3.9810717e-9	0.12	1.7980964e6	413918.2	-0.29845905	-0.038190763	-0.038190724	-1914.0565	5741.6898	0	654.837646510665
17.378008	4.3651583e-9	0.12	1.6398849e6	377499.46	-0.29675552	-0.038190764	-0.038190722	-1745.6668	5236.4858	0	656.438224496846
17.378008	4.7863009e-9	0.12	1.4955944e6	344285.16	-0.295052	-0.038190765	-0.038190718	-1592.0935	4775.7343	0	658.0387933128695
17.378008	5.2480746e-9	0.12	1.3639998e6	313993.35	-0.29334847	-0.038190766	-0.038190715	-1452.0328	4355.5239	0	659.6393714117985
17.378008	5.7543994e-9	0.12	1.2439841e6	286366.89	-0.29164495	-0.038190767	-0.038190711	-1324.2958	3972.2875	0	661.2399402278218
17.378008	6.3095734e-9	0.12	1.1345285e6	261171.24	-0.28994142	-0.038190768	-0.038190707	-1207.7981	3622.7717	0	662.8405184394987
17.378008	6.9183097e-9	0.12	1.0347039e6	238192.54	-0.28823789	-0.03819077	-0.038190702	-1101.5508	3304.0096	0	664.4410967639235
17.378008	7.5857758e-9	0.12	943662.67	217235.7	-0.28653437	-0.038190771	-0.038190697	-1004.652	3013.295	0	666.0416656926946
17.378008	8.3176377e-9	0.12	860632.11	198122.83	-0.28483084	-0.038190772	-0.038190691	-916.27904	2748.1602	0	667.6422441298673
17.378008	9.1201084e-9	0.12	784907.35	180691.67	-0.28312732	-0.038190774	-0.038190685	-835.68181	2506.3544	0	669.2428131713863
17.378008	1.e-8	0.12	715845.53	164794.26	-0.28142379	-0.038190776	-0.038190678	-762.1761	2285.8248	0	670.8433917213066
17.378008	1.0964782e-8	0.12	652860.42	150295.65	-0.27972027	-0.038190778	-0.038190671	-695.13796	2084.6995	0	672.4439608755735
17.378008	1.2022644e-8	0.12	595417.3	137072.74	-0.27801674	-0.03819078	-0.038190663	-633.99829	1901.271	0	674.0445395382418
17.378008	1.3182567e-8	0.12	543028.56	125013.3	-0.27631322	-0.038190783	-0.038190654	-578.2381	1733.9823	0	675.6451089180043
17.378008	1.4454398e-8	0.12	495249.47	114014.95	-0.27460969	-0.038190785	-0.038190644	-527.38406	1581.4131	0	677.2456878061682
17.378008	1.5848932e-8	0.12	451674.41	103984.33	-0.27290616	-0.038190788	-0.038190634	-481.00447	1442.2684	0	678.8462666943321
17.378008	1.7378008e-8	0.12	411933.49	94836.285	-0.27120264	-0.038190791	-0.038190622	-438.70563	1315.3669	0	680.4468364123383
17.378008	1.9054607e-8	0.12	375689.33	86493.162	-0.26949911	-0.038190795	-0.038190609	-400.12848	1199.6313	0	682.0474156387457
17.378008	2.0892961e-8	0.12	342634.28	78884.135	-0.26779559	-0.038190799	-0.038190595	-364.94555	1094.0793	0	683.6479855822475
17.378008	2.2908677e-8	0.12	312487.7	71944.612	-0.26609206	-0.038190803	-0.03819058	-332.85819	997.81463	0	685.2485650341506
17.378008	2.5118864e-8	0.12	284993.7	65615.685	-0.26438854	-0.038190807	-0.038190562	-303.59402	910.02025	0	686.8491354286438
17.378008	2.7542287e-8	0.12	259918.87	59843.624	-0.26268501	-0.038190813	-0.038190544	-276.90462	829.9508	0	688.4497152187904
17.378008	3.0199517e-8	0.12	237050.36	54579.436	-0.26098149	-0.038190818	-0.038190524	-252.56346	756.92661	0	690.0502858387792
17.378008	3.3113112e-8	0.12	216194.02	49778.43	-0.25927796	-0.038190824	-0.038190502	-230.3639	690.32775	0	691.6508660799173
17.378008	3.6307805e-8	0.12	197172.82	45399.854	-0.25757444	-0.038190831	-0.038190477	-210.11752	629.58888	0	693.2514372636454
17.378008	3.9810717e-8	0.12	179825.28	41406.536	-0.25587091	-0.038190838	-0.03819045	-191.65244	574.19437	0	694.8520180685225
17.378008	4.3651583e-8	0.12	164004.14	37764.579	-0.25416739	-0.038190846	-0.038190421	-174.81195	523.67397	0	696.4525897032419
17.378008	4.7863009e-8	0.12	149575.08	34443.066	-0.25246386	-0.038190855	-0.038190388	-159.45308	477.59882	0	698.0531711846063
17.378008	5.2480746e-8	0.12	136415.62	31413.802	-0.25076034	-0.038190865	-0.038190353	-145.44548	435.57778	0	699.6537434958127
17.378008	5.7543994e-8	0.12	124414.05	28651.073	-0.24905681	-0.038190876	-0.038190315	-132.67025	397.25414	0	701.2543255409162
17.378008	6.3095734e-8	0.12	113468.49	26131.426	-0.24735329	-0.038190887	-0.038190272	-121.01894	362.30256	0	702.8548987541055
17.378008	6.9183097e-8	0.12	103486.03	23833.472	-0.24564976	-0.0381909	-0.038190225	-110.39268	330.42635	0	704.4554818139395
17.378008	7.5857758e-8	0.12	94381.907	21737.706	-0.24394624	-0.038190914	-0.038190174	-100.70126	301.35489	0	706.0560559291114
17.378008	8.3176377e-8	0.12	86078.852	19826.336	-0.24224271	-0.038190929	-0.038190118	-91.862435	274.84141	0	707.6566400036761
17.378008	9.1201084e-8	0.12	78506.375	18083.137	-0.24053919	-0.038190946	-0.038190057	-83.801178	250.66083	0	709.2572152463265
17.378008	1.e-7	0.12	71600.194	16493.314	-0.23883566	-0.038190964	-0.038189989	-76.449075	228.60787	0	710.8578006738652
17.378008	1.0964782e-7	0.12	65301.682	15043.369	-0.23713214	-0.038190985	-0.038189916	-69.743727	208.49534	0	712.4583772694897
17.378008	1.2022644e-7	0.12	59557.371	13720.995	-0.23542861	-0.038191007	-0.038189834	-63.628227	190.15249	0	714.058964275498
17.378008	1.3182567e-7	0.12	54318.497	12514.968	-0.23372509	-0.038191031	-0.038189746	-58.050675	173.42362	0	715.6595425623403
17.378008	1.4454398e-7	0.12	49540.587	11415.05	-0.23202157	-0.038191058	-0.038189648	-52.963737	158.1667	0	717.2601219766608
17.378008	1.5848932e-7	0.12	45183.082	10411.906	-0.23031804	-0.038191087	-0.038189542	-48.324245	144.25223	0	718.8607116886176
17.378008	1.7378008e-7	0.12	41208.989	9497.0182	-0.22861452	-0.038191119	-0.038189425	-44.092828	131.56208	0	720.4612932451471
17.378008	1.9054607e-7	0.12	37584.574	8662.623	-0.226911	-0.038191154	-0.038189296	-40.23358	119.98852	0	722.0618761546507
17.378008	2.0892961e-7	0.12	34279.068	7901.6375	-0.22520747	-0.038191193	-0.038189156	-36.713754	109.43331	0	723.6624697000342
17.378008	2.2908677e-7	0.12	31264.41	7207.6022	-0.22350395	-0.038191235	-0.038189002	-33.503484	99.80685	0	725.2630554282338
17.378008	2.5118864e-7	0.12	28515.011	6574.6266	-0.22180043	-0.038191281	-0.038188832	-30.575534	91.027413	0	726.8636429603989
17.378008	2.7542287e-7	0.12	26007.528	5997.3377	-0.22009691	-0.038191332	-0.038188647	-27.905061	83.020469	0	728.4642321837816
17.378008	3.0199517e-7	0.12	23720.676	5470.8359	-0.21839338	-0.038191388	-0.038188443	-25.469412	75.718049	0	730.064832945027
17.378008	3.3113112e-7	0.12	21635.043	4990.6525	-0.21668986	-0.038191449	-0.03818822	-23.247923	69.058164	0	731.6654264528278
17.378008	3.6307805e-7	0.12	19732.923	4552.7119	-0.21498634	-0.038191516	-0.038187976	-21.221751	62.984276	0	733.2660223283331
17.378008	3.9810717e-7	0.12	17998.168	4153.2972	-0.21328282	-0.038191589	-0.038187708	-19.373711	57.444824	0	734.8666209097868
17.378008	4.3651583e-7	0.12	16416.054	3789.0187	-0.2115793	-0.03819167	-0.038187414	-17.688128	52.392785	0	736.4672224226844
17.378008	4.7863009e-7	0.12	14973.148	3456.7844	-0.20987578	-0.038191758	-0.038187092	-16.150708	47.785269	0	738.0678270925215
17.378008	5.2480746e-7	0.12	13657.202	3153.7752	-0.20817226	-0.038191855	-0.038186738	-14.748415	43.583166	0	739.6684353702896
17.378008	5.7543994e-7	0.12	12457.046	2877.4194	-0.20646875	-0.038191961	-0.03818635	-13.469358	39.750802	0	741.2690380858307
17.378008	6.3095734e-7	0.12	11362.49	2625.3718	-0.20476523	-0.038192077	-0.038185925	-12.302695	36.255644	0	742.8696543686956
17.378008	6.9183097e-7	0.12	10364.243	2395.4935	-0.20306171	-0.038192205	-0.03818546	-11.238535	33.068023	0	744.4702751614742
17.378008	7.5857758e-7	0.12	9453.8312	2185.834	-0.2013582	-0.038192345	-0.038184949	-10.26786	30.160878	0	746.0708917449998
17.378008	8.3176377e-7	0.12	8623.5257	1994.6141	-0.19965468	-0.038192498	-0.038184389	-9.3824443	27.50953	0	747.6715232488235
17.378008	9.1201084e-7	0.12	7866.278	1820.2114	-0.19795117	-0.038192666	-0.038183774	-8.5747854	25.091472	0	749.2721515581247
17.378008	1.e-6	0.12	7175.6599	1661.1461	-0.19624766	-0.038192851	-0.038183101	-7.8380418	22.886176	0	750.872786406801
17.378008	1.0964782e-6	0.12	6545.8088	1516.0687	-0.19454414	-0.038193053	-0.038182363	-7.1659738	20.874923	0	752.4734379797404
17.378008	1.2022644e-6	0.12	5971.3778	1383.7485	-0.19284064	-0.038193275	-0.038181553	-6.5528907	19.040639	0	754.0740788792174
17.378008	1.3182567e-6	0.12	5447.4903	1263.0629	-0.19113713	-0.038193518	-0.038180665	-5.9936022	17.367751	0	755.6747379686796
17.378008	1.4454398e-6	0.12	4969.6994	1152.9883	-0.18943362	-0.038193784	-0.038179692	-5.4833752	15.842059	0	757.2754066417084
17.378008	1.5848932e-6	0.12	4533.9489	1052.5909	-0.18773012	-0.038194077	-0.038178625	-5.0178928	14.450612	0	758.8760765173807
17.378008	1.7378008e-6	0.12	4136.5398	961.01926	-0.18602661	-0.038194397	-0.038177454	-4.5932179	13.181598	0	760.4767675144822
17.378008	1.9054607e-6	0.12	3774.0983	877.49685	-0.18432311	-0.038194749	-0.038176171	-4.2057598	12.024242	0	762.0774617436884
17.378008	2.0892961e-6	0.12	3443.5477	801.31541	-0.18261961	-0.038195135	-0.038174764	-3.8522439	10.968722	0	763.6781699536273
17.378008	2.2908677e-6	0.12	3142.0821	731.82901	-0.18091612	-0.038195557	-0.038173222	-3.5296838	10.006076	0	765.278883988871
17.378008	2.5118864e-6	0.12	2867.1421	668.44855	-0.17921263	-0.038196021	-0.038171531	-3.2353554	9.1281321	0	766.8796148235433
17.378008	2.7542287e-6	0.12	2616.3939	610.63679	-0.17750914	-0.038196529	-0.038169676	-2.9667749	8.3274381	0	768.4803641488618
17.378008	3.0199517e-6	0.12	2387.7089	557.90373	-0.17580565	-0.038197086	-0.038167643	-2.7216767	7.5971965	0	770.081133543296
17.378008	3.3113112e-6	0.12	2179.1457	509.80252	-0.17410217	-0.038197697	-0.038165413	-2.4979945	6.9312084	0	771.6819157534017
17.378008	3.6307805e-6	0.12	1988.9338	465.92558	-0.17239869	-0.038198367	-0.038162968	-2.2938441	6.3238201	0	773.2827222042935
17.378008	3.9810717e-6	0.12	1815.4585	425.90124	-0.17069522	-0.038199102	-0.038160288	-2.1075067	5.7698755	0	774.8835457552743
17.378008	4.3651583e-6	0.12	1657.2471	389.39051	-0.16899175	-0.038199908	-0.038157348	-1.9374151	5.264672	0	776.4843986206946
17.378008	4.7863009e-6	0.12	1512.9567	356.08422	-0.16728829	-0.038200791	-0.038154126	-1.7821398	4.8039211	0	778.0852738853523
17.378008	5.2480746e-6	0.12	1381.3623	325.70043	-0.16558483	-0.03820176	-0.038150592	-1.6403771	4.3837114	0	779.686184327337
17.378008	5.7543994e-6	0.12	1261.3469	297.98199	-0.16388138	-0.038202821	-0.038146718	-1.5109381	4.0004757	0	781.2871237079345
17.378008	6.3095734e-6	0.12	1151.8915	272.69436	-0.16217794	-0.038203986	-0.03814247	-1.3927384	3.6509607	0	782.8880958605712
17.378008	6.9183097e-6	0.12	1052.067	249.62368	-0.16047451	-0.038205263	-0.038137812	-1.284789	3.3321994	0	784.4891048441698
17.378008	7.5857758e-6	0.12	961.02603	228.57486	-0.15877108	-0.038206663	-0.038132704	-1.1861881	3.0414858	0	786.0901645642973
17.378008	8.3176377e-6	0.12	877.99574	209.37002	-0.15706767	-0.038208199	-0.038127104	-1.096113	2.776352	0	787.6912609650559
17.378008	9.1201084e-6	0.12	802.27126	191.8469	-0.15536426	-0.038209882	-0.038120964	-1.0138137	2.5345473	0	789.2924182496492
17.378008	0.00001	0.12	733.20977	175.85753	-0.15366087	-0.038211728	-0.038114231	-0.93860581	2.314019	0	790.893623602406
17.378008	0.000010964782	0.12	670.225	161.26695	-0.15195749	-0.038213752	-0.038106849	-0.86986548	2.112895	0	792.4948927328586
17.378008	0.000012022644	0.12	612.77921	147.95203	-0.15025922	-0.038227795	-0.038110578	-0.80702683	1.9294637	0	794.0901079431003
17.378008	0.000013182567	0.12	560.39059	135.80064	-0.14855636	-0.038231367	-0.038102841	-0.7495647	1.7621762	0	795.6909285250549
17.378008	0.000014454398	0.12	512.61163	124.71035	-0.14685356	-0.038235283	-0.038094357	-0.69700868	1.6096083	0	797.2917769557264
17.378008	0.000015848932	0.12	469.03673	114.58778	-0.14515084	-0.038239575	-0.038085054	-0.64892712	1.4704651	0	798.8926425616526
17.378008	0.000017378008	0.12	429.29597	105.34781	-0.14344819	-0.038244281	-0.038074852	-0.60492628	1.3435652	0	800.4935437583142
17.378008	0.000019054607	0.12	393.05199	96.912757	-0.14174562	-0.03824944	-0.038063665	-0.56464712	1.2278314	0	802.094480846372
17.378008	0.000020892961	0.12	359.99713	89.211811	-0.14004315	-0.038255097	-0.038051399	-0.52776216	1.1222812	0	803.6954456328166
17.378008	0.000022908677	0.12	329.85078	82.18038	-0.13834078	-0.038261296	-0.038037947	-0.49397275	1.0260187	0	805.2964501816665
17.378008	0.000025118864	0.12	302.35701	75.759552	-0.13663852	-0.038268093	-0.038023196	-0.4630065	0.93822666	0	806.8974978377751
17.378008	0.000027542287	0.12	277.28245	69.895604	-0.13493638	-0.038275543	-0.038007019	-0.43461501	0.85815976	0	808.498593524464
17.378008	0.000030199517	0.12	254.41422	64.539538	-0.13323437	-0.03828371	-0.03798928	-0.40857172	0.78513836	0	810.0997431797866
17.378008	0.000033113112	0.12	233.55821	59.646669	-0.13153251	-0.038292661	-0.037969827	-0.38467001	0.71854256	0	811.7009451501082
17.378008	0.000036307805	0.12	214.53736	55.176243	-0.12983081	-0.038302471	-0.037948494	-0.36272144	0.65780705	0	813.3022087559166
17.378008	0.000039810717	0.12	197.1902	51.091091	-0.12812928	-0.038313224	-0.037925098	-0.34255414	0.60241622	0	814.9035452344134
17.378008	0.000043651583	0.12	181.36947	47.357317	-0.12642794	-0.038325009	-0.037899441	-0.32401138	0.55189985	0	816.5049581183646
17.378008	0.000047863009	0.12	166.94089	43.944007	-0.12472681	-0.038337924	-0.037871303	-0.30695021	0.50582914	0	818.1064534209884
17.378008	0.000052480746	0.12	153.78194	40.822966	-0.12302591	-0.038352077	-0.037840444	-0.29124025	0.46381296	0	819.7080394104597
17.378008	0.000057543994	0.12	141.78094	37.968482	-0.12132526	-0.038367585	-0.037806599	-0.27676261	0.42549465	0	821.3097271736497
17.378008	0.000063095734	0.12	130.836	35.357105	-0.11962488	-0.038384577	-0.037769481	-0.26340885	0.39054893	0	822.911530277882
17.378008	0.000069183097	0.12	120.85422	32.967449	-0.1179248	-0.038403195	-0.03772877	-0.25108005	0.35867913	0	824.5134566155057
17.378008	0.000075857758	0.12	111.75086	30.78001	-0.11622505	-0.038423591	-0.037684119	-0.23968603	0.32961472	0	826.1155171230613
17.378008	0.000083176377	0.12	103.44864	28.777	-0.11452565	-0.038445933	-0.037635145	-0.22914453	0.30310898	0	827.7177361916654
17.378008	0.000091201084	0.12	95.877092	26.942199	-0.11282664	-0.038470406	-0.03758143	-0.21938051	0.27893688	0	829.3201233673019
17.378008	0.0001	0.12	88.971932	25.260811	-0.11112806	-0.03849721	-0.037522513	-0.21032554	0.25689324	0	830.9226930441121
17.378008	0.00010964782	0.12	82.674551	23.719346	-0.10942994	-0.038526562	-0.037457889	-0.20191723	0.23679093	0	832.5254739727955
17.378008	0.00012022644	0.12	76.931491	22.3055	-0.10773233	-0.038558703	-0.037387006	-0.19409865	0.21845931	0	834.1284814118933
17.378008	0.00013182567	0.12	71.694002	21.008052	-0.10603527	-0.03859389	-0.037309255	-0.18681788	0.20174275	0	835.7317464422277
17.378008	0.00014454398	0.12	66.917626	19.816771	-0.10433882	-0.038632408	-0.037223973	-0.18002759	0.18649935	0	837.3352874416968
17.378008	0.00015848932	0.12	62.561821	18.722326	-0.10264302	-0.038674565	-0.03713043	-0.17368459	0.17259972	0	838.939149133611
17.378008	0.00017378008	0.12	58.589615	17.716208	-0.10094793	-0.038720697	-0.037027828	-0.16774948	0.15992587	0	840.5433651168272
17.378008	0.00019054607	0.12	54.967293	16.790657	-0.09925362	-0.038771168	-0.036915292	-0.16218635	0.1483702	0	842.1479682761332
17.378008	0.00020892961	0.12	51.664112	15.938598	-0.097560153	-0.038826376	-0.036791866	-0.15696242	0.13783463	0	843.7530072058483
17.378008	0.00022908677	0.12	48.652037	15.153581	-0.095867604	-0.03888675	-0.036656506	-0.15204782	0.12822972	0	845.3585291473186
17.378008	0.00025118864	0.12	45.905509	14.429723	-0.09417605	-0.038952758	-0.036508069	-0.14741526	0.11947394	0	846.9645906247954
17.378008	0.00027542287	0.12	43.40122	13.76166	-0.092485575	-0.039024906	-0.036345311	-0.14303988	0.11149296	0	848.571252973105
17.378008	0.00030199517	0.12	41.117921	13.144502	-0.090796268	-0.039103742	-0.036166879	-0.138899	0.10421903	0	850.1785851187612
17.378008	0.00033113112	0.12	39.036241	12.573793	-0.089108224	-0.039189858	-0.035971301	-0.13497191	0.097590391	0	851.7866637678792
17.378008	0.00036307805	0.12	37.13852	12.045468	-0.087421546	-0.039283894	-0.035756982	-0.13123973	0.091550776	0	853.3955719780361
17.378008	0.00039810717	0.12	35.40866	11.555822	-0.085736341	-0.039386538	-0.035522201	-0.12768522	0.08604889	0	855.0054032547753
17.378008	0.00043651583	0.12	33.831989	11.101478	-0.084052723	-0.039498535	-0.035265105	-0.12429266	0.081038004	0	856.6162594093985
17.378008	0.00047863009	0.12	32.395135	10.67936	-0.082370812	-0.03962068	-0.034983707	-0.12104771	0.076475543	0	858.2282517240255
17.378008	0.00052480746	0.12	31.08591	10.286661	-0.080690732	-0.039753832	-0.034675896	-0.11793726	0.072322717	0	859.8415017032473
17.378008	0.00057543994	0.12	29.893208	9.9208244	-0.079012616	-0.039898908	-0.034339432	-0.11494934	0.068544192	0	861.4561369400387
17.378008	0.00063095734	0.12	28.806906	9.5795197	-0.077336598	-0.040056887	-0.033971972	-0.11207306	0.06510778	0	863.0722957008362
17.378008	0.00069183097	0.12	27.81778	9.2606222	-0.075662819	-0.040228815	-0.033571077	-0.10929842	0.061984151	0	864.6901204989124
17.378008	0.00075857758	0.12	26.917419	8.9621945	-0.073991422	-0.040415805	-0.033134253	-0.10661633	0.059146582	0	866.3097581695403
17.378008	0.00083176377	0.12	26.098153	8.6824691	-0.072322554	-0.040619038	-0.032658982	-0.10401847	0.056570702	0	867.9313544956792
17.378008	0.00091201084	0.12	25.352983	8.4198333	-0.070656361	-0.040839762	-0.032142774	-0.10149723	0.054234283	0	869.555053042915
17.378008	0.001	0.12	24.675516	8.1728134	-0.068992987	-0.041079296	-0.031583236	-0.099045669	0.052117015	0	871.1809883194228
17.378008	0.0010964782	0.12	24.059907	7.9400624	-0.067332578	-0.041339029	-0.03097814	-0.096657442	0.050200327	0	872.8092743508538
17.378008	0.0012022644	0.12	23.500799	7.7203463	-0.065675272	-0.041620415	-0.030325514	-0.09432675	0.048467194	0	874.440003815934
17.378008	0.0013182567	0.12	22.993279	7.5125333	-0.0640212	-0.041924975	-0.029623737	-0.092048299	0.046901979	0	876.0732363958545
17.378008	0.0014454398	0.12	22.532824	7.3155831	-0.062370483	-0.042254291	-0.028871634	-0.089817257	0.04549027	0	877.7089908819221
17.378008	0.0015848932	0.12	22.115263	7.1285373	-0.060723229	-0.042610007	-0.028068573	-0.087629217	0.04421875	0	879.3472370577153
17.378008	0.0017378008	0.12	21.736742	6.9505114	-0.059079531	-0.042993816	-0.02721454	-0.085480166	0.043075069	0	880.9878891221265
17.378008	0.0019054607	0.12	21.393688	6.7806871	-0.057439458	-0.043407464	-0.026310206	-0.083366454	0.042047746	0	882.6308065913443
17.378008	0.0020892961	0.12	21.082791	6.6183068	-0.055803059	-0.043852734	-0.025356952	-0.081284769	0.041126078	0	884.2757877218967
17.378008	0.0022908677	0.12	20.800979	6.4626684	-0.054170349	-0.044331446	-0.024356861	-0.07923211	0.040300081	0	885.9225835665488
17.378008	0.0025118864	0.12	20.545411	6.3131221	-0.052541317	-0.044845443	-0.023312674	-0.077205769	0.039560446	0	887.5708954186846
17.378008	0.0027542287	0.12	20.313467	6.1690673	-0.050915909	-0.045396586	-0.022227703	-0.075203301	0.038898505	0	889.2204005939799
17.378008	0.0030199517	0.12	20.102746	6.0299508	-0.049294032	-0.045986744	-0.021105718	-0.073222512	0.038306223	0	890.8707614126481
17.378008	0.0033113112	0.12	19.911066	5.8952651	-0.047675547	-0.046617782	-0.019950808	-0.071261428	0.037776188	0	892.5216474483472
17.378008	0.0036307805	0.12	19.736461	5.7645474	-0.046060266	-0.047291555	-0.018767236	-0.069318283	0.037301605	0	894.172754695312
17.378008	0.0039810717	0.12	19.577185	5.6373779	-0.044447946	-0.048009899	-0.017559298	-0.067391489	0.036876298	0	895.8238271031939
17.378008	0.0043651583	0.12	19.431706	5.5133784	-0.042838287	-0.048774627	-0.016331188	-0.065479621	0.036494697	0	897.4746736771482
17.378008	0.0047863009	0.12	19.298702	5.3922102	-0.041230933	-0.049587516	-0.015086891	-0.063581392	0.036151823	0	899.1251796022892
17.378008	0.0052480746	0.12	19.177054	5.2735717	-0.039625466	-0.050450309	-0.013830097	-0.061695636	0.035843267	0	900.7753215773962
17.378008	0.0057543994	0.12	19.065833	5.1571961	-0.038021407	-0.051364713	-0.012564138	-0.059821288	0.035565155	0	902.4251739784623
17.378008	0.0063095734	0.12	18.964286	5.0428474	-0.036418221	-0.052332399	-0.011291962	-0.057957362	0.035314112	0	904.0749070923116
17.378008	0.0069183097	0.12	18.871821	4.9303183	-0.034815314	-0.05335501	-0.010016114	-0.056102941	0.035087217	0	905.724792077504
17.378008	0.0075857758	0.12	18.78798	4.8194262	-0.033212052	-0.054434155	-0.0087387338	-0.054257159	0.034881961	0	907.3751833606394
17.378008	0.0083176377	0.12	18.712421	4.7100096	-0.031607757	-0.055571431	-0.0074615879	-0.052419187	0.034696187	0	909.0265187979618
17.378008	0.0091201084	0.12	18.644885	4.6019254	-0.030001737	-0.056768421	-0.0061860815	-0.050588227	0.034528044	0	910.679290135426
17.378008	0.01	0.12	18.585168	4.4950452	-0.028393306	-0.058026699	-0.0049132907	-0.048763502	0.034375934	0	912.3340205869092
17.378008	0.010964782	0.12	18.533077	4.389252	-0.026781817	-0.059347839	-0.0036439902	-0.046944256	0.034238451	0	913.9912307054399
17.378008	0.012022644	0.12	18.488386	4.2844375	-0.025166717	-0.060733396	-0.0023786639	-0.045129751	0.034114328	0	915.6513855119758
17.378008	0.013182567	0.12	18.450777	4.1804991	-0.023547609	-0.062184895	-0.0011175162	-0.043319277	0.034002377	0	917.3148349683019
17.378008	0.014454398	0.12	18.419769	4.0773368	-0.021924344	-0.063703786	0.00013955301	-0.041512162	0.033901425	0	918.9817303568417
17.378008	0.015848932	0.12	18.394633	3.9748512	-0.020297138	-0.065291379	0.0013929868	-0.039707791	0.033810244	0	920.6519186866662
17.378008	0.017378008	0.12	18.374284	3.8729407	-0.018666725	-0.066948739	0.0026436627	-0.037905639	0.03372748	0	922.3248092564222
17.378008	0.019054607	0.12	18.357161	3.7714994	-0.01703454	-0.068676555	0.0038930085	-0.036105308	0.033651573	0	923.9992147700736
17.378008	0.020892961	0.12	18.341084	3.6704157	-0.015402949	-0.070474945	0.0051431809	-0.034306584	0.033580672	0	925.6731553792733
17.378008	0.022908677	0.12	18.3231	3.5695707	-0.013775499	-0.072343225	0.0063972834	-0.032509502	0.033512548	0	927.3436483586528
17.378008	0.025118864	0.12	18.299342	3.4688385	-0.012157194	-0.074279649	0.0076596229	-0.03071443	0.033444496	0	929.0064777168808
17.378008	0.027542287	0.12	18.264901	3.3680849	-0.010554749	-0.076281129	0.008935977	-0.028922166	0.033373243	0	930.6559856845645
17.378008	0.030199517	0.12	18.213782	3.2671683	-0.008976774	-0.078343002	0.010233822	-0.027134043	0.033294833	0	932.2849255407313
17.378008	0.033113112	0.12	18.139003	3.1659371	-0.0074337834	-0.080458918	0.011562441	-0.025352029	0.033204495	0	933.8844649689571
17.378008	0.036307805	0.12	18.032973	3.0642267	-0.0059378632	-0.082620958	0.0129328	-0.023578815	0.033096495	0	935.4444847752574
17.378008	0.039810717	0.12	17.888343	2.9618555	-0.0045017293	-0.084820075	0.014357109	-0.021817832	0.032964042	0	936.9544141917489
17.378008	0.043651583	0.12	17.699596	2.8586265	-0.0031368533	-0.087046865	0.015848044	-0.020073156	0.032799414	0	938.4049040922079
17.378008	0.047863009	0.12	17.465496	2.7543473	-0.0018504555	-0.089292448	0.017417867	-0.018349221	0.032594621	0	939.790553046976
17.378008	0.052480746	0.12	17.192123	2.6488766	-0.00064164879	-0.091548938	0.019077959	-0.016650247	0.032342832	0	941.1134777370611
17.378008	0.057543994	0.12	16.895601	2.5421887	0.00050227907	-0.093809115	0.020839144	-0.014979383	0.032040419	0	942.3868425253295
17.378008	0.063095734	0.12	16.603385	2.4344202	0.0016081906	-0.096065527	0.02271259	-0.013337645	0.031688892	0	943.6371456726865
17.378008	0.069183097	0.12	16.353664	2.3258643	0.0027175235	-0.098310148	0.024710154	-0.011722822	0.031295888	0	944.9046574573983
17.378008	0.075857758	0.12	16.193555	2.216911	0.0038854832	-0.10053567	0.026843092	-0.010128501	0.030875031	0	946.2425160783345
17.378008	0.083176377	0.12	16.177119	2.1079684	0.0051800981	-0.10273868	0.029118868	-0.0085432998	0.030445252	0	947.7154802128437
17.378008	0.091201084	0.12	16.363787	1.9994035	0.0066816592	-0.10492402	0.031536832	-0.0069502587	0.0300303	0	949.3989152163454
17.378008	0.1	0.12	16.817078	1.8915229	0.0084823438	-0.10710916	0.034083821	-0.0053263827	0.029658838	0	951.3779435861316
17.378008	0.10964782	0.12	17.603186	1.7845923	0.010685503	-0.10932797	0.036730396	-0.0036423064	0.029365148	0	953.7463512509264
17.378008	0.12022644	0.12	18.789033	1.6788918	0.013404208	-0.11163448	0.039427097	-0.00186212	0.029190319	0	956.6047994840675
17.378008	0.13182567	0.12	20.439914	1.5748055	0.016759493	-0.11410948	0.042097813	0.000056582275	0.029183862	0	960.0584264750371
17.378008	0.14454398	0.12	22.619938	1.4729373	0.020882271	-0.1168742	0.04462616	0.0021625148	0.029405661	0	964.2171114976567
17.378008	0.15848932	0.12	25.183176	1.3752633	0.025699182	-0.12020132	0.046744432	0.0045055074	0.029942096	0	968.9817447640594
17.378008	0.17378008	0.12	28.823908	1.2843102	0.032047649	-0.12441526	0.048133315	0.00714573	0.030900068	0	975.1031379439182
17.378008	0.19054607	0.12	33.382643	1.1969445	0.039835475	-0.12930611	0.049008012	0.010186558	0.032324998	0	982.5189296045014
17.378008	0.20892961	0.12	39.028475	1.1136859	0.049353467	-0.13498556	0.049262242	0.013726075	0.034324581	0	991.4903689731502
17.378008	0.22908677	0.12	45.950606	1.0350265	0.060928939	-0.14154445	0.048810765	0.017879993	0.037023632	0	1002.3153783167828
17.378008	0.25118864	0.12	54.34621	0.96139824	0.074913012	-0.14904253	0.047599559	0.022783096	0.040564921	0	1015.317767896736
17.378008	0.27542287	0.12	64.400244	0.89313795	0.091657818	-0.15749884	0.045615533	0.02858909	0.045108387	0	1030.8269127568362
17.378008	0.30199517	0.12	76.259556	0.83045659	0.11148567	-0.1668847	0.04289344	0.035468168	0.050828123	0	1049.1495653494908
17.378008	0.33113112	0.12	90.006834	0.77341731	0.13465616	-0.17712253	0.039517147	0.043601967	0.057906935	0	1070.5390851463028
17.378008	0.36307805	0.12	105.6418	0.72192798	0.16133956	-0.18809218	0.035613259	0.053176269	0.066528901	0	1095.169728259083
17.378008	0.39810717	0.12	123.07585	0.67575082	0.19160432	-0.1996447	0.031337396	0.064372479	0.076871028	0	1123.1233537552114
17.378008	0.43651583	0.12	142.14205	0.63452785	0.22542151	-0.21162043	0.026856076	0.077359341	0.089095438	0	1154.3915545542663
17.378008	0.47863009	0.12	162.61686	0.59781705	0.26268351	-0.2238671	0.022328619	0.092286248	0.10334335	0	1188.8911776194686
17.378008	0.52480746	0.12	184.24713	0.56513168	0.30323011	-0.23625402	0.017892996	0.10927901	0.11973157	0	1226.4872511186031
17.378008	0.57543994	0.12	206.77555	0.53597631	0.34687505	-0.24868027	0.013657627	0.12843821	0.13835152	0	1267.0169957306082
17.378008	0.63095734	0.12	229.96048	0.509875	0.39342797	-0.26107704	0.0096990317	0.14983988	0.15927042	0	1310.310183226504
17.378008	0.69183097	0.12	253.58864	0.48639019	0.44270992	-0.27340557	0.0060639181	0.17353764	0.18253381	0	1356.2039446131116
17.378008	0.75857758	0.12	277.48139	0.46513299	0.49456256	-0.2856525	0.0027738599	0.19956589	0.2081689	0	1404.5519415010313
17.378008	0.83176377	0.12	301.49615	0.44576648	0.54885254	-0.29782415	-0.00016903772	0.2279433	0.2361881	0	1455.2291202053423
17.378008	0.91201084	0.12	325.52465	0.42800436	0.60547245	-0.30994104	-0.0027765934	0.25867624	0.26659252	0	1508.133229485646
17.378008	1.	0.12	349.48948	0.4116067	0.66433972	-0.32203307	-0.0050697385	0.29176203	0.29937503	0	1563.184329465323
17.378008	1.0964782	0.12	373.33984	0.39637436	0.72539449	-0.33413567	-0.007074675	0.32719175	0.33452301	0	1620.32322354582
17.378008	1.2022644	0.12	397.04726	0.38214311	0.78859712	-0.34628697	-0.0088200066	0.36495261	0.37202065	0	1679.5094423512162
17.378008	1.3182567	0.12	420.60153	0.36877789	0.85392556	-0.35852576	-0.010334725	0.40502997	0.41185081	0	1740.7189997139326
17.378008	1.4454398	0.12	444.0071	0.35616784	0.92137304	-0.37089021	-0.011646878	0.44740892	0.45399653	0	1803.9423724476264
17.378008	1.5848932	0.12	467.28	0.34422181	0.99094587	-0.38341704	-0.012782768	0.49207559	0.49844225	0	1869.1825236708178
17.378008	1.7378008	0.12	490.44518	0.33286478	1.0626617	-0.3961411	-0.013766524	0.53901813	0.54517473	0	1936.4533162192538
17.378008	1.9054607	0.12	513.53441	0.32203469	1.1365478	-0.40909525	-0.014619927	0.5882275	0.59418379	0	2005.777916279282
17.378008	2.0892961	0.12	536.58452	0.31168006	1.2126402	-0.42231033	-0.015362412	0.63969802	0.64546279	0	2077.1879851361555
17.378008	2.2908677	0.12	559.63602	0.3017579	1.290982	-0.43581529	-0.016011172	0.69342781	0.69900906	0	2150.7220795828093
17.378008	2.5118864	0.12	582.73193	0.2922321	1.3716232	-0.44963736	-0.016581321	0.7494191	0.75482416	0	2226.425473815861
17.378008	2.7542287	0.12	605.91701	0.28307213	1.4546195	-0.46380225	-0.017086081	0.80767843	0.81291407	0	2304.3490108733376
17.378008	3.0199517	0.12	629.23699	0.27425196	1.5400319	-0.47833438	-0.017536982	0.86821677	0.87328928	0	2384.5487042589716
17.378008	3.3113112	0.12	652.73813	0.26574927	1.6279264	-0.49325704	-0.017944054	0.93104962	0.93596487	0	2467.0854344250083
17.378008	3.6307805	0.12	676.4668	0.25754471	1.7183734	-0.50859263	-0.018316011	0.99619701	1.0009605	0	2552.024364287391
17.378008	3.9810717	0.12	700.46923	0.2496214	1.8114475	-0.52436283	-0.018660416	1.0636835	1.0683004	0	2639.434732709303
17.378008	4.3651583	0.12	724.79128	0.24196447	1.9072275	-0.54058872	-0.018983831	1.1335382	1.1380135	0	2729.3898375889826
17.378008	4.7863009	0.12	749.47834	0.23456073	2.0057959	-0.557291	-0.01929195	1.2057946	1.210133	0	2821.966551081593
17.378008	5.2480746	0.12	774.57522	0.22739834	2.107239	-0.57449007	-0.019589717	1.2804908	1.2846967	0	2917.245400251509
17.378008	5.7543994	0.12	800.12616	0.22046665	2.2116467	-0.59220614	-0.01988143	1.3576691	1.3617468	0	3015.3103674334707
17.378008	6.3095734	0.12	826.17477	0.21375595	2.3191125	-0.6104594	-0.020170829	1.4373761	1.4413297	0	3116.248880310774
17.378008	6.9183097	0.12	852.76408	0.20725734	2.4297336	-0.62927003	-0.020461174	1.5196627	1.5234961	0	3220.1518970774737
17.378008	7.5857758	0.12	879.93659	0.20096263	2.5436105	-0.64865834	-0.020755317	1.6045841	1.6083011	0	3327.113522494399
17.378008	8.3176377	0.12	907.73428	0.19486419	2.6608476	-0.66864483	-0.021055754	1.6921994	1.6958036	0	3437.231565765477
17.378008	9.1201084	0.12	936.19871	0.18895493	2.7815526	-0.68925025	-0.02136468	1.782572	1.7860669	0	3550.6069705973896
17.378008	10.	0.12	965.37107	0.18322818	2.905837	-0.71049566	-0.021684033	1.8757693	1.8791583	0	3667.3442800213434