17.378008	1.e-12	0.31	7.1582816e9	1.6477628e9	-0.4562751	-0.016138017	-0.016138017	-7.6187166e6	2.2857967e7	0	506.1646322790325
17.378008	1.0964782e-12	0.31	6.5284304e9	1.5027775e9	-0.45457157	-0.016138017	-0.016138017	-6.9483521e6	2.0846713e7	0	507.76521003971817
17.378008	1.2022644e-12	0.31	5.9539993e9	1.3705494e9	-0.45286805	-0.016138017	-0.016138017	-6.3369724e6	1.9012428e7	0	509.36577840475
17.378008	1.3182567e-12	0.31	5.4301118e9	1.2499559e9	-0.45116452	-0.016138018	-0.016138018	-5.7793875e6	1.7339541e7	0	510.9663558741702
17.378008	1.4454398e-12	0.31	4.9523209e9	1.1399733e9	-0.449461	-0.016138017	-0.016138017	-5.2708641e6	1.5813849e7	0	512.5669245304675
17.378008	1.5848932e-12	0.31	4.5165703e9	1.039668e9	-0.44775747	-0.016138017	-0.016138017	-4.8070853e6	1.4422402e7	0	514.1675022911531
17.378008	1.7378008e-12	0.31	4.1191611e9	9.4818853e8	-0.44605394	-0.016138017	-0.016138017	-4.384114e6	1.3153387e7	0	515.7680800518385
17.378008	1.9054607e-12	0.31	3.7567196e9	8.647582e8	-0.44435042	-0.016138017	-0.016138017	-3.9983594e6	1.1996031e7	0	517.3686484168704
17.378008	2.0892961e-12	0.31	3.426169e9	7.8866886e8	-0.44264689	-0.016138017	-0.016138017	-3.6465472e6	1.0940511e7	0	518.969226177556
17.378008	2.2908677e-12	0.31	3.1247033e9	7.1927456e8	-0.44094337	-0.016138017	-0.016138017	-3.3256907e6	9.9778643e6	0	520.5697945425879
17.378008	2.5118864e-12	0.31	2.8497632e9	6.5598619e8	-0.43923984	-0.016138017	-0.016138017	-3.0330659e6	9.0999203e6	0	522.1703723032736
17.378008	2.7542287e-12	0.31	2.5990149e9	5.9826651e8	-0.43753632	-0.016138018	-0.016138017	-2.766189e6	8.2992259e6	0	523.7709406683057
17.378008	3.0199517e-12	0.31	2.3703298e9	5.4562556e8	-0.43583279	-0.016138017	-0.016138017	-2.5227945e6	7.5689841e6	0	525.3715184289911
17.378008	3.3113112e-12	0.31	2.1617665e9	4.9761642e8	-0.43412926	-0.016138017	-0.016138017	-2.3008159e6	6.9029955e6	0	526.9720961896766
17.378008	3.6307805e-12	0.31	1.9715545e9	4.5383157e8	-0.43242574	-0.016138017	-0.016138017	-2.0983691e6	6.2956067e6	0	528.5726645547086
17.378008	3.9810717e-12	0.31	1.798079e9	4.1389931e8	-0.43072221	-0.016138017	-0.016138017	-1.9137354e6	5.7416615e6	0	530.173242315394
17.378008	4.3651583e-12	0.31	1.6398676e9	3.7748066e8	-0.42901869	-0.016138017	-0.016138017	-1.7453475e6	5.2364576e6	0	531.7738106804262
17.378008	4.7863009e-12	0.31	1.495577e9	3.4426646e8	-0.42731516	-0.016138017	-0.016138017	-1.5917758e6	4.7757061e6	0	533.3743884411115
17.378008	5.2480746e-12	0.31	1.3639824e9	3.1397474e8	-0.42561164	-0.016138018	-0.016138017	-1.4517168e6	4.3554957e6	0	534.9749568061434
17.378008	5.7543994e-12	0.31	1.2439668e9	2.8634837e8	-0.42390811	-0.016138017	-0.016138017	-1.3239815e6	3.9722593e6	0	536.5755345668292
17.378008	6.3095734e-12	0.31	1.1345112e9	2.6115282e8	-0.42220458	-0.016138017	-0.016138017	-1.2074856e6	3.6227435e6	0	538.1761123275146
17.378008	6.9183097e-12	0.31	1.0346865e9	2.3817421e8	-0.42050106	-0.016138017	-0.016138017	-1.10124e6	3.3039814e6	0	539.7766806925466
17.378008	7.5857758e-12	0.31	9.436453e8	2.1721746e8	-0.41879753	-0.016138017	-0.016138017	-1.0043428e6	3.0132668e6	0	541.3772584532321
17.378008	8.3176377e-12	0.31	8.6061476e8	1.9810468e8	-0.41709401	-0.016138017	-0.016138017	-915971.58	2.7481321e6	0	542.9778268182641
17.378008	9.1201084e-12	0.31	7.8488999e8	1.8067362e8	-0.41539048	-0.016138017	-0.016138017	-835376.05	2.5063262e6	0	544.5784045789496
17.378008	1.e-11	0.31	7.1582818e8	1.647763e8	-0.41368696	-0.016138017	-0.016138017	-761872.04	2.2857967e6	0	546.1789729439816
17.378008	1.0964782e-11	0.31	6.5284305e8	1.5027777e8	-0.41198343	-0.016138018	-0.016138017	-694835.59	2.0846713e6	0	547.7795507046669
17.378008	1.2022644e-11	0.31	5.9539994e8	1.3705496e8	-0.4102799	-0.016138017	-0.016138017	-633697.63	1.9012429e6	0	549.3801284653526
17.378008	1.3182567e-11	0.31	5.430112e8	1.2499561e8	-0.40857638	-0.016138018	-0.016138017	-577939.14	1.7339541e6	0	550.9806968303845
17.378008	1.4454398e-11	0.31	4.9523211e8	1.1399736e8	-0.40687285	-0.016138017	-0.016138017	-527086.8	1.5813849e6	0	552.58127459107
17.378008	1.5848932e-11	0.31	4.5165705e8	1.0396683e8	-0.40516933	-0.016138017	-0.016138017	-480708.91	1.4422402e6	0	554.1818429561022
17.378008	1.7378008e-11	0.31	4.1191613e8	9.4818874e7	-0.4034658	-0.016138017	-0.016138017	-438411.77	1.3153387e6	0	555.7824207167877
17.378008	1.9054607e-11	0.31	3.7567197e8	8.6475843e7	-0.40176228	-0.016138017	-0.016138017	-399836.33	1.1996032e6	0	557.3829890818196
17.378008	2.0892961e-11	0.31	3.4261691e8	7.8866907e7	-0.40005875	-0.016138018	-0.016138017	-364655.1	1.0940511e6	0	558.983566842505
17.378008	2.2908677e-11	0.31	3.1247034e8	7.1927477e7	-0.39835522	-0.016138017	-0.016138017	-332569.44	997786.45	0	560.5841446031906
17.378008	2.5118864e-11	0.31	2.8497634e8	6.5598641e7	-0.3966517	-0.016138017	-0.016138017	-303306.97	909992.06	0	562.1847129682226
17.378008	2.7542287e-11	0.31	2.5990151e8	5.9826673e7	-0.39494817	-0.016138017	-0.016138017	-276619.28	829922.63	0	563.7852907289082
17.378008	3.0199517e-11	0.31	2.37033e8	5.4562576e7	-0.39324465	-0.016138017	-0.016138017	-252279.81	756898.43	0	565.3858590939401
17.378008	3.3113112e-11	0.31	2.1617667e8	4.9761664e7	-0.39154112	-0.016138017	-0.016138016	-230081.96	690299.58	0	566.9864371458908
17.378008	3.6307805e-11	0.31	1.9715546e8	4.5383179e7	-0.3898376	-0.016138017	-0.016138016	-209837.28	629560.7	0	568.5870055109228
17.378008	3.9810717e-11	0.31	1.7980792e8	4.1389953e7	-0.38813407	-0.016138017	-0.016138016	-191373.91	574166.19	0	570.1875832716083
17.378008	4.3651583e-11	0.31	1.6398677e8	3.7748087e7	-0.38643054	-0.016138018	-0.016138017	-174535.11	523645.78	0	571.7881607410285
17.378008	4.7863009e-11	0.31	1.4955772e8	3.4426667e7	-0.38472702	-0.016138017	-0.016138016	-159177.95	477570.63	0	573.388729397326
17.378008	5.2480746e-11	0.31	1.3639826e8	3.1397495e7	-0.38302349	-0.016138018	-0.016138016	-145172.05	435549.6	0	574.9893071580113
17.378008	5.7543994e-11	0.31	1.2439669e8	2.8634858e7	-0.38131997	-0.016138017	-0.016138016	-132398.52	397225.96	0	576.5898755230432
17.378008	6.3095734e-11	0.31	1.1345113e8	2.6115303e7	-0.37961644	-0.016138017	-0.016138016	-120748.92	362274.38	0	578.1904532837289
17.378008	6.9183097e-11	0.31	1.0346867e8	2.3817441e7	-0.37791292	-0.016138017	-0.016138016	-110124.35	330398.17	0	579.7910216487608
17.378008	7.5857758e-11	0.31	9.4364546e7	2.1721767e7	-0.37620939	-0.016138017	-0.016138015	-100434.64	301326.71	0	581.3915997007116
17.378008	8.3176377e-11	0.31	8.6061491e7	1.9810489e7	-0.37450586	-0.016138017	-0.016138015	-91597.511	274813.23	0	582.9921774613971
17.378008	9.1201084e-11	0.31	7.8489014e7	1.8067382e7	-0.37280234	-0.016138017	-0.016138015	-83537.956	250632.65	0	584.592745826429
17.378008	1.e-10	0.31	7.1582833e7	1.647765e7	-0.37109881	-0.016138017	-0.016138015	-76187.555	228579.69	0	586.1933235871146
17.378008	1.0964782e-10	0.31	6.5284322e7	1.5027798e7	-0.36939529	-0.016138017	-0.016138014	-69483.909	208467.16	0	587.793892243412
17.378008	1.2022644e-10	0.31	5.954001e7	1.3705516e7	-0.36769176	-0.016138017	-0.016138014	-63370.111	190124.31	0	589.3944700040973
17.378008	1.3182567e-10	0.31	5.4301136e7	1.2499581e7	-0.36598824	-0.016138018	-0.016138014	-57794.26	173395.43	0	590.9950383691292
17.378008	1.4454398e-10	0.31	4.9523226e7	1.1399755e7	-0.36428471	-0.016138018	-0.016138014	-52709.025	158138.52	0	592.5956161298149
17.378008	1.5848932e-10	0.31	4.516572e7	1.0396702e7	-0.36258118	-0.016138018	-0.016138014	-48071.234	144224.04	0	594.1961938905002
17.378008	1.7378008e-10	0.31	4.1191628e7	9.4819072e6	-0.36087766	-0.016138017	-0.016138013	-43841.519	131533.9	0	595.7967625467976
17.378008	1.9054607e-10	0.31	3.7567213e7	8.647604e6	-0.35917413	-0.016138017	-0.016138012	-39983.973	119960.34	0	597.3973405987483
17.378008	2.0892961e-10	0.31	3.4261707e7	7.8867105e6	-0.35747061	-0.016138017	-0.016138012	-36465.848	109405.13	0	598.9979089637803
17.378008	2.2908677e-10	0.31	3.124705e7	7.1927673e6	-0.35576708	-0.016138017	-0.016138011	-33257.281	99778.671	0	600.598487015731
17.378008	2.5118864e-10	0.31	2.849765e7	6.5598836e6	-0.35406356	-0.016138018	-0.016138011	-30331.032	90999.231	0	602.1990553807632
17.378008	2.7542287e-10	0.31	2.5990167e7	5.9826868e6	-0.35236003	-0.016138017	-0.01613801	-27662.262	82992.288	0	603.7996334327139
17.378008	3.0199517e-10	0.31	2.3703316e7	5.456277e6	-0.35065651	-0.016138018	-0.01613801	-25228.314	75689.869	0	605.4002017977459
17.378008	3.3113112e-10	0.31	2.1617682e7	4.9761856e6	-0.34895298	-0.016138018	-0.016138009	-23008.527	69029.983	0	607.0007798496966
17.378008	3.6307805e-10	0.31	1.9715562e7	4.538337e6	-0.34724945	-0.016138018	-0.016138008	-20984.057	62956.095	0	608.6013579016472
17.378008	3.9810717e-10	0.31	1.7980808e7	4.1390144e6	-0.34554593	-0.016138018	-0.016138008	-19137.718	57416.644	0	610.2019262666794
17.378008	4.3651583e-10	0.31	1.6398693e7	3.7748277e6	-0.3438424	-0.016138018	-0.016138007	-17453.837	52364.603	0	611.8025043186301
17.378008	4.7863009e-10	0.31	1.4955787e7	3.4426856e6	-0.34213888	-0.016138018	-0.016138006	-15918.119	47757.089	0	613.4030729749273
17.378008	5.2480746e-10	0.31	1.3639842e7	3.1397684e6	-0.34043535	-0.016138018	-0.016138005	-14517.528	43554.985	0	615.0036510268781
17.378008	5.7543994e-10	0.31	1.2439685e7	2.8635046e6	-0.33873183	-0.016138018	-0.016138003	-13240.173	39722.621	0	616.6042199744406
17.378008	6.3095734e-10	0.31	1.1345129e7	2.6115489e6	-0.3370283	-0.016138018	-0.016138002	-12075.212	36227.463	0	618.2047980263914
17.378008	6.9183097e-10	0.31	1.0346882e7	2.3817627e6	-0.33532477	-0.016138018	-0.016138001	-11012.754	33039.842	0	619.8053760783422
17.378008	7.5857758e-10	0.31	9.4364703e6	2.1721952e6	-0.33362125	-0.016138018	-0.016137999	-10043.781	30132.696	0	621.4059450259047
17.378008	8.3176377e-10	0.31	8.6061647e6	1.9810673e6	-0.33191772	-0.016138018	-0.016137997	-9160.0667	27481.348	0	623.0065233691207
17.378008	9.1201084e-10	0.31	7.8489171e6	1.8067566e6	-0.3302142	-0.016138018	-0.016137995	-8354.1098	25063.29	0	624.6070923166832
17.378008	1.e-9	0.31	7.158299e6	1.6477833e6	-0.32851067	-0.016138018	-0.016137993	-7619.0681	22857.995	0	626.2076706598991
17.378008	1.0964782e-9	0.31	6.5284477e6	1.5027979e6	-0.32680715	-0.016138018	-0.016137991	-6948.7019	20846.741	0	627.8082396074617
17.378008	1.2022644e-9	0.31	5.9540167e6	1.3705697e6	-0.32510362	-0.016138018	-0.016137988	-6337.3206	19012.456	0	629.4088182419432
17.378008	1.3182567e-9	0.31	5.4301293e6	1.2499761e6	-0.32340009	-0.016138018	-0.016137985	-5779.7341	17339.569	0	631.0093968764243
17.378008	1.4454398e-9	0.31	4.9523383e6	1.1399935e6	-0.32169657	-0.016138019	-0.016137982	-5271.2089	15813.877	0	632.609966115252
17.378008	1.5848932e-9	0.31	4.5165877e6	1.0396881e6	-0.31999304	-0.016138019	-0.016137979	-4807.4283	14422.43	0	634.2105447497335
17.378008	1.7378008e-9	0.31	4.1191785e6	948208.49	-0.31828952	-0.016138019	-0.016137975	-4384.4553	13153.415	0	635.8111142798264
17.378008	1.9054607e-9	0.31	3.7567369e6	864778.08	-0.31658599	-0.016138019	-0.016137971	-3998.6991	11996.059	0	637.411693205573
17.378008	2.0892961e-9	0.31	3.4261864e6	788688.64	-0.31488247	-0.016138019	-0.016137967	-3646.8851	10940.539	0	639.0122627356659
17.378008	2.2908677e-9	0.31	3.1247206e6	719294.24	-0.31317894	-0.01613802	-0.016137962	-3326.0268	9977.8922	0	640.6128419526779
17.378008	2.5118864e-9	0.31	2.8497806e6	656005.78	-0.31147542	-0.01613802	-0.016137957	-3033.4004	9099.9482	0	642.213411774036
17.378008	2.7542287e-9	0.31	2.5990323e6	598286.02	-0.30977189	-0.01613802	-0.016137951	-2766.5219	8299.2539	0	643.8139912823132
17.378008	3.0199517e-9	0.31	2.3703472e6	545644.96	-0.30806836	-0.016138021	-0.016137945	-2523.1255	7569.0119	0	645.4145707905901
17.378008	3.3113112e-9	0.31	2.1617839e6	497635.74	-0.30636484	-0.016138021	-0.016137937	-2301.1453	6903.0235	0	647.0151414857442
17.378008	3.6307805e-9	0.31	1.9715718e6	453850.8	-0.30466131	-0.016138021	-0.01613793	-2098.6968	6295.6347	0	648.6157212852866
17.378008	3.9810717e-9	0.31	1.7980964e6	413918.45	-0.30295779	-0.016138021	-0.016137921	-1914.0614	5741.6895	0	650.2162922717058
17.378008	4.3651583e-9	0.31	1.639885e6	377499.71	-0.30125426	-0.016138022	-0.016137912	-1745.6718	5236.4856	0	651.8168726537788
17.378008	4.7863009e-9	0.31	1.4955944e6	344285.41	-0.29955074	-0.016138022	-0.016137901	-1592.0985	4775.7341	0	653.4174442227287
17.378008	5.2480746e-9	0.31	1.3639998e6	313993.6	-0.29784721	-0.016138023	-0.016137891	-1452.0378	4355.5237	0	655.0180248960665
17.378008	5.7543994e-9	0.31	1.2439841e6	286367.14	-0.29614369	-0.016138023	-0.016137878	-1324.3008	3972.2873	0	656.6185970475469
17.378008	6.3095734e-9	0.31	1.1345286e6	261171.5	-0.29444016	-0.016138024	-0.016137865	-1207.8031	3622.7715	0	658.2191785946809
17.378008	6.9183097e-9	0.31	1.0347039e6	238192.79	-0.29273664	-0.016138025	-0.016137851	-1101.5557	3304.0093	0	659.8197510374264
17.378008	7.5857758e-9	0.31	943662.66	217235.95	-0.29103311	-0.016138025	-0.016137834	-1004.6569	3013.2947	0	661.4203337496214
17.378008	8.3176377e-9	0.31	860632.12	198123.08	-0.28932959	-0.016138026	-0.016137816	-916.28397	2748.16	0	663.0209073574281
17.378008	9.1201084e-9	0.31	784907.34	180691.93	-0.28762606	-0.016138027	-0.016137797	-835.68673	2506.3541	0	664.6214906521534
17.378008	1.e-8	0.31	715845.54	164794.52	-0.28592254	-0.016138027	-0.016137776	-762.18103	2285.8246	0	666.2220651337558
17.378008	1.0964782e-8	0.31	652860.42	150295.9	-0.28421901	-0.016138029	-0.016137753	-695.14288	2084.6993	0	667.8226495935422
17.378008	1.2022644e-8	0.31	595417.3	137072.99	-0.28251548	-0.01613803	-0.016137727	-634.00321	1901.2708	0	669.4232349271246
17.378008	1.3182567e-8	0.31	543028.56	125013.55	-0.28081196	-0.016138031	-0.016137699	-578.24302	1733.982	0	671.0238114475837
17.378008	1.4454398e-8	0.31	495249.47	114015.2	-0.27910844	-0.016138032	-0.016137668	-527.38898	1581.4129	0	672.6243888418387
17.378008	1.5848932e-8	0.31	451674.41	103984.58	-0.27740491	-0.016138034	-0.016137634	-481.00939	1442.2681	0	674.224976505543
17.378008	1.7378008e-8	0.31	411933.49	94836.537	-0.27570139	-0.016138035	-0.016137598	-438.71055	1315.3666	0	675.8255553561244
17.378008	1.9054607e-8	0.31	375689.34	86493.414	-0.27399786	-0.016138037	-0.016137557	-400.1334	1199.6311	0	677.4261450586855
17.378008	2.0892961e-8	0.31	342634.27	78884.387	-0.27229434	-0.016138039	-0.016137513	-364.95047	1094.079	0	679.026726239389
17.378008	2.2908677e-8	0.31	312487.7	71944.864	-0.27059081	-0.016138041	-0.016137464	-332.8631	997.81437	0	680.627318272072
17.378008	2.5118864e-8	0.31	284993.7	65615.936	-0.26888729	-0.016138043	-0.016137411	-303.59894	910.01999	0	682.2279020741627
17.378008	2.7542287e-8	0.31	259918.87	59843.877	-0.26718376	-0.016138046	-0.016137352	-276.90954	829.95055	0	683.8284970194984
17.378008	3.0199517e-8	0.31	237050.36	54579.687	-0.26548024	-0.016138049	-0.016137288	-252.56837	756.92635	0	685.429084025507
17.378008	3.3113112e-8	0.31	216194.03	49778.683	-0.26377672	-0.016138052	-0.016137218	-230.36882	690.3275	0	687.029672779107
17.378008	3.6307805e-8	0.31	197172.82	45400.105	-0.26207319	-0.016138055	-0.016137141	-210.12244	629.58862	0	688.6302729672175
17.378008	3.9810717e-8	0.31	179825.28	41406.788	-0.26036967	-0.016138059	-0.016137056	-191.65736	574.1941	0	690.2308660897965
17.378008	4.3651583e-8	0.31	164004.14	37764.83	-0.25866615	-0.016138063	-0.016136963	-174.81687	523.67371	0	691.8314615424974
17.378008	4.7863009e-8	0.31	149575.08	34443.318	-0.25696262	-0.016138068	-0.016136862	-159.458	477.59855	0	693.4320687209741
17.378008	5.2480746e-8	0.31	136415.62	31414.055	-0.2552591	-0.016138072	-0.01613675	-145.4504	435.57752	0	695.0326697077152
17.378008	5.7543994e-8	0.31	124414.05	28651.325	-0.25355558	-0.016138077	-0.016136628	-132.67516	397.25388	0	696.6332736071085
17.378008	6.3095734e-8	0.31	113468.5	26131.678	-0.25185206	-0.016138083	-0.016136494	-121.02386	362.3023	0	698.2338810016852
17.378008	6.9183097e-8	0.31	103486.03	23833.724	-0.25014854	-0.01613809	-0.016136347	-110.3976	330.42609	0	699.8344921827102
17.378008	7.5857758e-8	0.31	94381.908	21737.958	-0.24844501	-0.016138096	-0.016136186	-100.70618	301.35463	0	701.4351168371023
17.378008	8.3176377e-8	0.31	86078.852	19826.588	-0.24674149	-0.016138104	-0.016136009	-91.867353	274.84115	0	703.0357367560852
17.378008	9.1201084e-8	0.31	78506.375	18083.389	-0.24503797	-0.016138113	-0.016135816	-83.806097	250.66057	0	704.6363613353119
17.378008	1.e-7	0.31	71600.194	16493.565	-0.24333445	-0.016138122	-0.016135603	-76.453993	228.60761	0	706.2369917398441
17.378008	1.0964782e-7	0.31	65301.683	15043.621	-0.24163093	-0.016138132	-0.01613537	-69.748646	208.49508	0	707.8376279696812
17.378008	1.2022644e-7	0.31	59557.37	13721.247	-0.23992742	-0.016138144	-0.016135115	-63.633145	190.15223	0	709.4382612117007
17.378008	1.3182567e-7	0.31	54318.497	12515.22	-0.2382239	-0.016138155	-0.016134835	-58.055593	173.42336	0	711.0389111310051
17.378008	1.4454398e-7	0.31	49540.587	11415.302	-0.23652038	-0.016138169	-0.016134528	-52.968656	158.16644	0	712.6395689144715
17.378008	1.5848932e-7	0.31	45183.082	10412.157	-0.23481686	-0.016138183	-0.016134191	-48.329163	144.25197	0	714.2402354358954
17.378008	1.7378008e-7	0.31	41208.99	9497.2701	-0.23311335	-0.016138199	-0.016133822	-44.097746	131.56182	0	715.8409018821544
17.378008	1.9054607e-7	0.31	37584.574	8662.8749	-0.23140983	-0.016138217	-0.016133418	-40.238498	119.98826	0	717.4415879183508
17.378008	2.0892961e-7	0.31	34279.068	7901.8893	-0.22970632	-0.016138236	-0.016132974	-36.718672	109.43306	0	719.0422762095043
17.378008	2.2908677e-7	0.31	31264.411	7207.8541	-0.22800281	-0.016138257	-0.016132487	-33.508402	99.806591	0	720.6429770250635
17.378008	2.5118864e-7	0.31	28515.011	6574.8784	-0.2262993	-0.016138281	-0.016131954	-30.580452	91.027153	0	722.2436912388248
17.378008	2.7542287e-7	0.31	26007.529	5997.5896	-0.22459579	-0.016138306	-0.016131369	-27.909979	83.02021	0	723.8444205983797
17.378008	3.0199517e-7	0.31	23720.677	5471.0878	-0.22289228	-0.016138334	-0.016130728	-25.474329	75.717791	0	725.4451662687889
17.378008	3.3113112e-7	0.31	21635.044	4990.9044	-0.22118878	-0.016138364	-0.016130024	-23.252841	69.057906	0	727.0459208932558
17.378008	3.6307805e-7	0.31	19732.924	4552.9638	-0.21948527	-0.016138398	-0.016129253	-21.226669	62.984018	0	728.6467044281485
17.378008	3.9810717e-7	0.31	17998.17	4153.5492	-0.21778177	-0.016138435	-0.016128407	-19.378628	57.444567	0	730.2475004122822
17.378008	4.3651583e-7	0.31	16416.055	3789.2706	-0.21607827	-0.016138475	-0.01612748	-17.693045	52.392528	0	731.8483199889018
17.378008	4.7863009e-7	0.31	14973.149	3457.0364	-0.21437477	-0.016138519	-0.016126464	-16.155625	47.785013	0	733.4491654881294
17.378008	5.2480746e-7	0.31	13657.204	3154.0272	-0.21267128	-0.016138567	-0.016125349	-14.753332	43.58291	0	735.0500304269642
17.378008	5.7543994e-7	0.31	12457.047	2877.6714	-0.21096779	-0.01613862	-0.016124127	-13.474275	39.750546	0	736.6509265311815
17.378008	6.3095734e-7	0.31	11362.492	2625.6238	-0.2092643	-0.016138678	-0.016122787	-12.307612	36.255389	0	738.2518570046996
17.378008	6.9183097e-7	0.31	10364.245	2395.7456	-0.20756081	-0.016138742	-0.016121317	-11.243452	33.067768	0	739.8528253427011
17.378008	7.5857758e-7	0.31	9453.8334	2186.0861	-0.20585733	-0.016138812	-0.016119706	-10.272777	30.160623	0	741.4538253534504
17.378008	8.3176377e-7	0.31	8623.5281	1994.8662	-0.20415386	-0.016138889	-0.01611794	-9.3873604	27.509276	0	743.0548611146614
17.378008	9.1201084e-7	0.31	7866.2806	1820.4635	-0.20245038	-0.016138973	-0.016116002	-8.5797013	25.091219	0	744.6559563691504
17.378008	1.e-6	0.31	7175.6628	1661.3982	-0.20074692	-0.016139065	-0.016113879	-7.8429574	22.885924	0	746.2570867164052
17.378008	1.0964782e-6	0.31	6545.8119	1516.3209	-0.19904346	-0.016139167	-0.01611155	-7.1708892	20.874672	0	747.8582770643034
17.378008	1.2022644e-6	0.31	5971.3811	1384.0007	-0.19734	-0.016139278	-0.016108996	-6.5578057	19.040388	0	749.4595329468845
17.378008	1.3182567e-6	0.31	5447.4941	1263.3152	-0.19563656	-0.016139399	-0.016106197	-5.9985169	17.367502	0	751.0608413981471
17.378008	1.4454398e-6	0.31	4969.7035	1153.2405	-0.19393312	-0.016139533	-0.016103127	-5.4882895	15.841812	0	752.6622287822947
17.378008	1.5848932e-6	0.31	4533.9534	1052.8432	-0.19222968	-0.016139679	-0.016099761	-5.0228066	14.450366	0	754.2637023809586
17.378008	1.7378008e-6	0.31	4136.5447	961.27167	-0.19052626	-0.016139839	-0.01609607	-4.5981313	13.181353	0	755.8652518495248
17.378008	1.9054607e-6	0.31	3774.1037	877.74932	-0.18882285	-0.016140015	-0.016092023	-4.2106727	12.023999	0	757.4668956128695
17.378008	2.0892961e-6	0.31	3443.5537	801.56794	-0.18711945	-0.016140208	-0.016087586	-3.8571563	10.96848	0	759.0686435740115
17.378008	2.2908677e-6	0.31	3142.0886	732.0816	-0.18541606	-0.01614042	-0.01608272	-3.5345955	10.005836	0	760.6705070922959
17.378008	2.5118864e-6	0.31	2867.1492	668.70123	-0.18371268	-0.016140652	-0.016077386	-3.2402665	9.1278945	0	762.2724975270677
17.378008	2.7542287e-6	0.31	2616.4018	610.88955	-0.18200932	-0.016140906	-0.016071536	-2.9716853	8.3272028	0	763.8746194634058
17.378008	3.0199517e-6	0.31	2387.7175	558.15659	-0.18030597	-0.016141185	-0.016065122	-2.7265862	7.5969638	0	765.4768962776964
17.378008	3.3113112e-6	0.31	2179.1551	510.05547	-0.17860264	-0.01614149	-0.016058089	-2.5029032	6.9309784	0	767.0793345938748
17.378008	3.6307805e-6	0.31	1988.9441	466.17865	-0.17689933	-0.016141825	-0.016050378	-2.2987518	6.3235931	0	768.6819515965917
17.378008	3.9810717e-6	0.31	1815.4698	426.15443	-0.17519605	-0.016142193	-0.016041923	-2.1124133	5.7696517	0	770.2847571137002
17.378008	4.3651583e-6	0.31	1657.2595	389.64383	-0.17349278	-0.016142596	-0.016032653	-1.9423206	5.2644519	0	771.8877906163411
17.378008	4.7863009e-6	0.31	1512.9703	356.33769	-0.17178954	-0.016143039	-0.016022488	-1.787044	4.803705	0	773.4910566144277
17.378008	5.2480746e-6	0.31	1381.3772	325.95406	-0.17008632	-0.016143523	-0.016011342	-1.6452799	4.3834996	0	775.094589552426
17.378008	5.7543994e-6	0.31	1261.3632	298.23579	-0.16838314	-0.016144055	-0.015999121	-1.5158394	4.0002687	0	776.6983980179632
17.378008	6.3095734e-6	0.31	1151.9094	272.94836	-0.16667999	-0.016144638	-0.015985721	-1.397638	3.650759	0	778.3025216982795
17.378008	6.9183097e-6	0.31	1052.0866	249.87789	-0.16497687	-0.016145277	-0.015971028	-1.2896868	3.3320035	0	779.9069937976146
17.378008	7.5857758e-6	0.31	961.04756	228.8293	-0.1632738	-0.016145978	-0.015954918	-1.1910838	3.0412961	0	781.5118316415536
17.378008	8.3176377e-6	0.31	878.01934	209.62471	-0.16157077	-0.016146746	-0.015937255	-1.1010066	2.7761692	0	783.1170842378251
17.378008	9.1201084e-6	0.31	802.29714	192.10187	-0.15986778	-0.016147589	-0.015917886	-1.0187048	2.5343721	0	784.7227961500134
17.378008	0.00001	0.31	733.23814	176.11281	-0.15816485	-0.016148513	-0.01589665	-0.94349425	2.3138521	0	786.3289954805184
17.378008	0.000010964782	0.31	670.25611	161.52256	-0.15646198	-0.016149526	-0.015873365	-0.874751	2.1127373	0	787.935735239617
17.378008	0.000012022644	0.31	612.81174	148.20802	-0.15476722	-0.016156548	-0.015853745	-0.81191085	1.9293143	0	789.5337876365548
17.378008	0.000013182567	0.31	560.42626	136.05703	-0.15306525	-0.016158336	-0.01582632	-0.75444537	1.7620376	0	791.1408876250086
17.378008	0.000014454398	0.31	512.65074	124.96718	-0.15136343	-0.016160295	-0.01579625	-0.70188569	1.6094816	0	792.7486170752688
17.378008	0.000015848932	0.31	469.07961	114.8451	-0.14966178	-0.016162443	-0.015763279	-0.65380011	1.4703513	0	794.3570317599344
17.378008	0.000017378008	0.31	429.34299	105.60565	-0.1479603	-0.016164798	-0.015727127	-0.60979487	1.3434657	0	795.9662132332776
17.378008	0.000019054607	0.31	393.10356	97.171186	-0.14625902	-0.01616738	-0.015687489	-0.56951088	1.2277475	0	797.576222144242
17.378008	0.000020892961	0.31	360.05366	89.470879	-0.14455796	-0.016170211	-0.015644029	-0.53262062	1.1222144	0	799.1871375666475
17.378008	0.000022908677	0.31	329.91277	82.440149	-0.14285714	-0.016173314	-0.015596376	-0.49882541	1.0259707	0	800.7990487685977
17.378008	0.000025118864	0.31	302.42498	76.020089	-0.14115657	-0.016176716	-0.015544128	-0.46785279	0.93819921	0	802.4120634430733
17.378008	0.000027542287	0.31	277.35698	70.156984	-0.13945629	-0.016180445	-0.015486843	-0.43945433	0.85815488	0	804.0262727467045
17.378008	0.000030199517	0.31	254.49594	64.801841	-0.13775632	-0.016184532	-0.015424035	-0.41340338	0.78515821	0	805.6417994430999
17.378008	0.000033113112	0.31	233.64781	59.909985	-0.13605669	-0.016189013	-0.015355173	-0.38949328	0.71858953	0	807.2587700071513
17.378008	0.000036307805	0.31	214.63559	55.440668	-0.13435744	-0.016193924	-0.015279674	-0.36753551	0.65788374	0	808.8773166638902
17.378008	0.000039810717	0.31	197.29791	51.356734	-0.13265859	-0.016199307	-0.015196902	-0.34735812	0.60252551	0	810.4976058667141
17.378008	0.000043651583	0.31	181.48758	47.624293	-0.13096019	-0.016205206	-0.015106157	-0.3288043	0.55204487	0	812.1197945230367
17.378008	0.000047863009	0.31	167.07037	44.212445	-0.12926228	-0.016211671	-0.015006676	-0.31173101	0.50601332	0	813.7440672856361
17.378008	0.000052480746	0.31	153.92391	41.093006	-0.1275649	-0.016218757	-0.01489762	-0.29600776	0.46404007	0	815.3706309434501
17.378008	0.000057543994	0.31	141.93659	38.240278	-0.12586811	-0.016226521	-0.014778074	-0.28151554	0.42576881	0	816.9996956302693
17.378008	0.000063095734	0.31	131.00664	35.630824	-0.12417196	-0.016235029	-0.014647038	-0.26814579	0.39087464	0	818.6315056330847
17.378008	0.000069183097	0.31	121.04129	33.243275	-0.12247651	-0.01624435	-0.014503415	-0.25579947	0.35906134	0	820.2663240959636
17.378008	0.000075857758	0.31	111.95593	31.058144	-0.12078183	-0.016254562	-0.01434601	-0.24438625	0.33005882	0	821.9044333113159
17.378008	0.000083176377	0.31	103.67344	29.057662	-0.11908798	-0.01626575	-0.014173519	-0.23382369	0.30362087	0	823.5461567151173
17.378008	0.000091201084	0.31	96.123485	27.225626	-0.11739505	-0.016278004	-0.013984518	-0.22403659	0.27952303	0	825.1918245082145
17.378008	0.0001	0.31	89.241978	25.547266	-0.11570312	-0.016291427	-0.013777457	-0.21495633	0.25756068	0	826.8418129865303
17.378008	0.00010964782	0.31	82.970488	24.009114	-0.11401228	-0.016306125	-0.013550649	-0.20652029	0.23754736	0	828.4965289536742
17.378008	0.00012022644	0.31	77.255758	22.598889	-0.11232263	-0.016322221	-0.013302265	-0.19867133	0.21931309	0	830.1564111772689
17.378008	0.00013182567	0.31	72.049256	21.305399	-0.11063429	-0.016339844	-0.01303032	-0.19135729	0.20270301	0	831.8219250710107
17.378008	0.00014454398	0.31	67.306754	20.11844	-0.10894735	-0.016359136	-0.012732668	-0.18453053	0.18757601	0	833.4936111292627
17.378008	0.00015848932	0.31	62.987954	19.028711	-0.10726197	-0.016380251	-0.012406999	-0.1781476	0.17380354	0	835.1719918443162
17.378008	0.00017378008	0.31	59.056145	18.027733	-0.10557826	-0.016403357	-0.012050825	-0.17216877	0.16126849	0	836.8576885319457
17.378008	0.00019054607	0.31	55.47788	17.107779	-0.10389639	-0.01642864	-0.011661492	-0.16655778	0.14986421	0	838.5513144840377
17.378008	0.00020892961	0.31	52.222693	16.261807	-0.10221651	-0.016456296	-0.011236171	-0.16128148	0.13949357	0	840.2535527552063
17.378008	0.00022908677	0.31	49.262835	15.483395	-0.10053879	-0.016486541	-0.01077187	-0.15630959	0.13006812	0	841.9651150849951
17.378008	0.00025118864	0.31	46.573027	14.766693	-0.098863433	-0.016519612	-0.010265447	-0.15161442	0.12150732	0	843.6867258970804
17.378008	0.00027542287	0.31	44.130236	14.106365	-0.097190625	-0.016555761	-0.0097136328	-0.14717063	0.11373782	0	845.4191626366902
17.378008	0.00030199517	0.31	41.913472	13.497545	-0.095520587	-0.016595264	-0.0091130628	-0.14295506	0.10669277	0	847.1631976509708
17.378008	0.00033113112	0.31	39.90359	12.935793	-0.093853546	-0.016638418	-0.008460318	-0.13894651	0.10031127	0	848.9196134945066
17.378008	0.00036307805	0.31	38.083118	12.417054	-0.092189751	-0.016685546	-0.0077519817	-0.13512556	0.094537732	0	850.6891713815344
17.378008	0.00039810717	0.31	36.436085	11.937624	-0.090529463	-0.016736994	-0.0069847088	-0.13147445	0.089321402	0	852.4726003969137
17.378008	0.00043651583	0.31	34.947868	11.494111	-0.088872959	-0.016793136	-0.0061553065	-0.12797689	0.08461583	0	854.2705702327601
17.378008	0.00047863009	0.31	33.60505	11.083406	-0.087220533	-0.016854375	-0.005260827	-0.12461798	0.08037842	0	856.0836632485896
17.378008	0.00052480746	0.31	32.395281	10.702654	-0.085572496	-0.016921142	-0.0042986659	-0.12138409	0.076570005	0	857.9123458108179
17.378008	0.00057543994	0.31	31.307161	10.349227	-0.083929174	-0.016993903	-0.0032666673	-0.11826274	0.073154448	0	859.756939559911
17.378008	0.00063095734	0.31	30.330127	10.0207	-0.082290908	-0.017073153	-0.0021632163	-0.11524252	0.070098297	0	861.6175944683512
17.378008	0.00069183097	0.31	29.45436	9.7148307	-0.080658055	-0.017159422	-0.00098732376	-0.11231305	0.067370474	0	863.494263213426
17.378008	0.00075857758	0.31	28.670702	9.42954	-0.079030982	-0.017253278	0.00026131646	-0.10946483	0.064942011	0	865.3866901425984
17.378008	0.00083176377	0.31	27.970593	9.1629002	-0.077410072	-0.01735532	0.0015823019	-0.10668927	0.062785853	0	867.2943981797233
17.378008	0.00091201084	0.31	27.346022	8.9131213	-0.075795712	-0.017466191	0.0029745284	-0.10397858	0.060876689	0	869.2167021095622
17.378008	0.001	0.31	26.789499	8.6785437	-0.0741883	-0.017586568	0.0044362437	-0.10132572	0.059190852	0	871.1527176126444
17.378008	0.0010964782	0.31	26.294031	8.4576312	-0.072588238	-0.017717165	0.0059651312	-0.09872436	0.057706254	0	873.101392238601
17.378008	0.0012022644	0.31	25.853113	8.2489664	-0.070995925	-0.01785874	0.0075584208	-0.096168849	0.056402345	0	875.0615442669649
17.378008	0.0013182567	0.31	25.460728	8.0512482	-0.069411759	-0.018012086	0.0092130235	-0.093654134	0.055260104	0	877.0319000323434
17.378008	0.0014454398	0.31	25.111349	7.8632879	-0.067836131	-0.018178034	0.010925671	-0.091175732	0.05426203	0	879.01114022244
17.378008	0.0015848932	0.31	24.799928	7.6840064	-0.066269415	-0.018357459	0.012693042	-0.08872968	0.053392129	0	880.9979460605109
17.378008	0.0017378008	0.31	24.521904	7.5124307	-0.064711969	-0.018551266	0.01451189	-0.086312483	0.052635897	0	882.9910355894992
17.378008	0.0019054607	0.31	24.273182	7.347689	-0.063164125	-0.018760399	0.016379137	-0.083921073	0.051980278	0	884.9892003592431
17.378008	0.0020892961	0.31	24.050128	7.1890054	-0.061626183	-0.018985837	0.01829195	-0.081552758	0.051413614	0	886.9913333456599
17.378008	0.0022908677	0.31	23.849543	7.035694	-0.060098407	-0.019228592	0.020247794	-0.079205183	0.050925574	0	888.9964481460672
17.378008	0.0025118864	0.31	23.668642	6.887152	-0.058581015	-0.019489703	0.022244468	-0.076876285	0.050507069	0	891.0036988603847
17.378008	0.0027542287	0.31	23.505027	6.7428529	-0.057074174	-0.019770237	0.024280114	-0.074564255	0.050150172	0	893.0123874103485
17.378008	0.0030199517	0.31	23.356659	6.602339	-0.055577994	-0.020071289	0.026353219	-0.072267501	0.04984801	0	895.0219697594342
17.378008	0.0033113112	0.31	23.221829	6.4652151	-0.054092521	-0.020393971	0.028462608	-0.069984615	0.04959468	0	897.0320604509568
17.378008	0.0036307805	0.31	23.099131	6.3311412	-0.052617733	-0.020739414	0.030607431	-0.067714341	0.049385151	0	899.0424325798842
17.378008	0.0039810717	0.31	22.987429	6.1998263	-0.051153533	-0.021108763	0.032787132	-0.065455548	0.049215171	0	901.0530153405718
17.378008	0.0043651583	0.31	22.885839	6.0710228	-0.049699751	-0.021503169	0.035001447	-0.063207202	0.049081193	0	903.0638915651011
17.378008	0.0047863009	0.31	22.793692	5.9445204	-0.048256135	-0.021923791	0.037250365	-0.060968348	0.048980284	0	905.075294820022
17.378008	0.0052480746	0.31	22.710519	5.8201415	-0.04682236	-0.022371784	0.039534125	-0.058738084	0.048910062	0	907.0876000764704
17.378008	0.0057543994	0.31	22.636021	5.6977367	-0.045398021	-0.022848299	0.041853188	-0.056515546	0.048868625	0	909.1013221316966
17.378008	0.0063095734	0.31	22.570049	5.5771801	-0.043982647	-0.02335447	0.044208235	-0.054299893	0.048854488	0	911.1171018726222
17.378008	0.0069183097	0.31	22.51258	5.4583658	-0.042575701	-0.023891416	0.046600144	-0.05209029	0.048866527	0	913.1356995767369
17.378008	0.0075857758	0.31	22.463695	5.3412044	-0.041176595	-0.024460223	0.049029992	-0.049885901	0.048903922	0	915.1579814011495
17.378008	0.0083176377	0.31	22.423552	5.2256192	-0.039784705	-0.025061942	0.051499052	-0.047685877	0.048966107	0	917.1849044153132
17.378008	0.0091201084	0.31	22.392369	5.1115437	-0.038399385	-0.025697573	0.054008785	-0.045489351	0.049052716	0	919.2175011169861
17.378008	0.01	0.31	22.370393	4.9989182	-0.037019998	-0.026368054	0.056560854	-0.043295432	0.049163535	0	921.2568543834213
17.378008	0.010964782	0.31	22.357873	4.887687	-0.035645943	-0.02707424	0.059157134	-0.041103207	0.049298451	0	923.304075015754
17.378008	0.012022644	0.31	22.355035	4.777796	-0.034276695	-0.027816884	0.061799719	-0.038911735	0.049457401	0	925.3602661952441
17.378008	0.013182567	0.31	22.362039	4.6691898	-0.03291185	-0.028596607	0.064490959	-0.036720061	0.049640317	0	927.4264919796503
17.378008	0.014454398	0.31	22.378949	4.5618087	-0.031551188	-0.029413862	0.067233483	-0.034527214	0.049847066	0	929.5037248097144
17.378008	0.015848932	0.31	22.40568	4.4555866	-0.030194746	-0.030268892	0.070030242	-0.032332227	0.050077389	0	931.5927894452963
17.378008	0.017378008	0.31	22.441947	4.3504473	-0.028842912	-0.031161665	0.072884576	-0.030134149	0.050330834	0	933.6942941610037
17.378008	0.019054607	0.31	22.4872	4.2463022	-0.027496532	-0.032091816	0.075800266	-0.02793207	0.050606666	0	935.8085453584926
17.378008	0.020892961	0.31	22.540547	4.1430459	-0.026157056	-0.03305855	0.078781633	-0.025725148	0.05090378	0	937.9354392251873
17.378008	0.022908677	0.31	22.600666	4.0405525	-0.024826693	-0.034060558	0.081833627	-0.023512653	0.051220579	0	940.07434202426
17.378008	0.025118864	0.31	22.665702	3.9386703	-0.023508601	-0.035095906	0.084961931	-0.021294006	0.051554834	0	942.2239418687989
17.378008	0.027542287	0.31	22.733161	3.8372142	-0.022207091	-0.036161933	0.08817307	-0.019068841	0.051903487	0	944.3820887983916
17.378008	0.030199517	0.31	22.799826	3.7359557	-0.020927814	-0.037255164	0.091474502	-0.016837073	0.052262398	0	946.5456455855438
17.378008	0.033113112	0.31	22.861731	3.6346085	-0.019677878	-0.038371242	0.094874682	-0.014598968	0.052626006	0	948.710396447508
17.378008	0.036307805	0.31	22.914316	3.5328088	-0.018465755	-0.039504926	0.098383071	-0.012355213	0.052986895	0	950.8711370472495
17.378008	0.039810717	0.31	22.952971	3.4300948	-0.017300738	-0.040650108	0.10201012	-0.01010695	0.053335381	0	953.0221800171876
17.378008	0.043651583	0.31	22.974269	3.3258968	-0.016191554	-0.041799865	0.10576723	-0.0078557312	0.053659375	0	955.1586464857248
17.378008	0.047863009	0.31	22.978214	3.2195648	-0.015143766	-0.042946461	0.10966673	-0.0056032965	0.053945115	0	957.2789006601915
17.378008	0.052480746	0.31	22.971317	3.1104644	-0.014156027	-0.044081299	0.11372196	-0.0033510943	0.054179419	0	959.3880936136622
17.378008	0.057543994	0.31	22.969409	2.9981362	-0.013216269	-0.045195019	0.11794716	-0.0010994955	0.054353417	0	961.5017116380617
17.378008	0.063095734	0.31	22.998468	2.8824423	-0.012299673	-0.046278085	0.12235688	0.0011531838	0.054466247	0	963.6473117153229
17.378008	0.069183097	0.31	23.092722	2.763595	-0.011369321	-0.047322214	0.12696456	0.0034116026	0.05452649	0	965.8634953241115
17.378008	0.075857758	0.31	23.291349	2.6420398	-0.010378421	-0.048322424	0.13178051	0.0056840437	0.054550672	0	968.1972295510993
17.378008	0.083176377	0.31	23.635879	2.518275	-0.0092721101	-0.049279062	0.13680986	0.0079827618	0.05456026	0	970.7015558669038
17.378008	0.091201084	0.31	24.169421	2.3926988	-0.0079876411	-0.050199254	0.14205111	0.010324158	0.054579025	0	973.4349924685658
17.378008	0.1	0.31	24.937523	2.2655297	-0.0064531688	-0.051097298	0.14749577	0.012728966	0.05463174	0	976.4625697745253
17.378008	0.10964782	0.31	25.989374	2.1367934	-0.0045866331	-0.051993143	0.15312985	0.015222561	0.054744255	0	979.8573138103931
17.378008	0.12022644	0.31	27.375561	2.00637	-0.0022997261	-0.052906337	0.15893998	0.017835258	0.054944666	0	983.6983014026341
17.378008	0.13182567	0.31	29.134779	1.8741158	0.00048397363	-0.053844429	0.16492492	0.020601915	0.055265176	0	988.0569743099534
17.378008	0.14454398	0.31	31.278102	1.7400522	0.0038247852	-0.054850372	0.17104825	0.023559772	0.055743421	0	992.9793983973352
17.378008	0.15848932	0.31	32.195014	1.6165617	0.0061247151	-0.05630635	0.1769345	0.026708551	0.056608145	0	996.8547929666498
17.378008	0.17378008	0.31	35.308835	1.5105307	0.011062802	-0.058452145	0.18235081	0.030011586	0.057950052	0	1003.072031245445
17.378008	0.19054607	0.31	39.191854	1.4077969	0.017195989	-0.060937581	0.18765448	0.033656128	0.059694452	0	1010.3793360492641
17.378008	0.20892961	0.31	44.039079	1.3091426	0.02482885	-0.063809925	0.19280559	0.037726825	0.061940458	0	1019.0512471519424
17.378008	0.22908677	0.31	50.081355	1.2153886	0.034321103	-0.067104002	0.19777686	0.042329246	0.064808825	0	1029.4177974057993
17.378008	0.25118864	0.31	57.57391	1.1273374	0.046076581	-0.070836165	0.20255975	0.047592928	0.06844393	0	1041.8559268995136
17.378008	0.27542287	0.31	66.773293	1.0456963	0.060518324	-0.074998735	0.20716994	0.053672726	0.073013711	0	1056.767676398003
17.378008	0.30199517	0.31	77.903386	0.97099112	0.078049952	-0.07955683	0.2116506	0.060747355	0.078706608	0	1074.5448471890431
17.378008	0.33113112	0.31	91.116497	0.90349044	0.099009561	-0.084449702	0.21607099	0.069014282	0.085725056	0	1095.525275591012
17.378008	0.36307805	0.31	106.46064	0.84316402	0.12362832	-0.089597646	0.22051959	0.078680998	0.094275987	0	1119.9519311363758
17.378008	0.39810717	0.31	123.86477	0.78969196	0.15200712	-0.094913326	0.22509278	0.089953894	0.10455987	0	1147.9476796584754
17.378008	0.43651583	0.31	143.14779	0.74252319	0.18411863	-0.10031427	0.22988237	0.10302683	0.11676039	0	1179.513582960113
17.378008	0.47863009	0.31	164.04771	0.70096326	0.21983189	-0.1057328	0.23496562	0.11807166	0.13103654	0	1214.5490987169242
17.378008	0.52480746	0.31	186.26017	0.66426472	0.2589489	-0.11112125	0.24040011	0.13523215	0.14751826	0	1252.8849640431936
17.378008	0.57543994	0.31	209.47509	0.63169939	0.3012414	-0.11645236	0.2462233	0.15462169	0.16630548	0	1294.317624548713
17.378008	0.63095734	0.31	233.4042	0.60260436	0.34648018	-0.12171638	0.25245545	0.17632416	0.18746981	0	1338.6376234937466
17.378008	0.69183097	0.31	257.79752	0.57640374	0.39445428	-0.12691678	0.25910393	0.20039695	0.211058	0	1385.6488967970138
17.378008	0.75857758	0.31	282.45021	0.55261293	0.44498116	-0.13206587	0.26616759	0.22687517	0.23709618	0	1435.179601244478
17.378008	0.83176377	0.31	307.20285	0.53083266	0.49791026	-0.1371812	0.27364041	0.25577605	0.26559422	0	1487.0865224601869
17.378008	0.91201084	0.31	331.93775	0.51073828	0.55312254	-0.14228283	0.28151417	0.28710331	0.29654982	0	1541.2554203844518
17.378008	1.	0.31	356.57343	0.49206777	0.61052796	-0.14739154	0.28978035	0.32085094	0.32995213	0	1597.5992149731564
17.378008	1.0964782	0.31	381.05876	0.47461031	0.67006203	-0.15252769	0.29843118	0.35700649	0.36578479	0	1656.0550505258202
17.378008	1.2022644	0.31	405.36722	0.45819632	0.73168226	-0.15771058	0.30746036	0.39555375	0.40402845	0	1716.5811699395938
17.378008	1.3182567	0.31	429.4919	0.44268911	0.79536492	-0.16295822	0.31686327	0.43647488	0.44466277	0	1779.153931683227
17.378008	1.4454398	0.31	453.44121	0.42797806	0.86110209	-0.1682872	0.32663715	0.47975219	0.48766798	0	1843.7650905070348
17.378008	1.5848932	0.31	477.23532	0.41397317	0.92889928	-0.17371273	0.336781	0.52536938	0.53302614	0	1910.4195321508364
17.378008	1.7378008	0.31	500.9033	0.40060083	0.99877335	-0.17924882	0.34729551	0.57331259	0.58072203	0	1979.1332986594616
17.378008	1.9054607	0.31	524.4808	0.38780036	1.0707509	-0.18490834	0.35818292	0.62357118	0.63074386	0	2049.9320349054
17.378008	2.0892961	0.31	548.00825	0.37552135	1.1448669	-0.19070322	0.36944691	0.67613822	0.68308379	0	2122.849669345091
17.378008	2.2908677	0.31	571.52938	0.36372164	1.2211635	-0.19664457	0.38109244	0.73101092	0.73773824	0	2197.9272493337207
17.378008	2.5118864	0.31	595.09018	0.35236561	1.2996895	-0.20274285	0.39312564	0.7881909	0.79470819	0	2275.2124111164026
17.378008	2.7542287	0.31	618.738	0.34142293	1.3804991	-0.20900795	0.40555371	0.84768437	0.85399926	0	2354.758176244969
17.378008	3.0199517	0.31	642.52093	0.33086751	1.463652	-0.21544931	0.41838482	0.90950221	0.91562187	0	2436.6230164079757
17.378008	3.3113112	0.31	666.48732	0.32067674	1.5492124	-0.22207605	0.43162803	0.97366003	0.9795912	0	2520.869890564136
17.378008	3.6307805	0.31	690.68539	0.31083079	1.6372489	-0.228897	0.44529323	1.0401782	1.0459272	0	2607.5661335098644
17.378008	3.9810717	0.31	715.16305	0.30131215	1.7278342	-0.23592081	0.45939108	1.1090817	1.1146547	0	2696.7831565337638
17.378008	4.3651583	0.31	739.96767	0.29210523	1.821045	-0.243156	0.47393298	1.1804004	1.1858031	0	2788.5963447221247
17.378008	4.7863009	0.31	765.14599	0.28319596	1.9169616	-0.25061102	0.488931	1.2541686	1.2594065	0	2883.084660744223
17.378008	5.2480746	0.31	790.74411	0.27457164	2.015668	-0.25829428	0.5043979	1.3304251	1.3355035	0	2980.3307446341564
17.378008	5.7543994	0.31	816.80738	0.26622062	2.1172518	-0.26621422	0.52034706	1.4092134	1.4141373	0	3080.420799445745
17.378008	6.3095734	0.31	843.38049	0.25813222	2.2218039	-0.27437931	0.5367925	1.4905812	1.4953556	0	3183.4443152082254
17.378008	6.9183097	0.31	870.50746	0.2502965	2.3294188	-0.28279814	0.55374885	1.5745807	1.5792101	0	3289.4943420579075
17.378008	7.5857758	0.31	898.23173	0.24270425	2.4401944	-0.29147938	0.57123134	1.6612684	1.6657574	0	3398.667299412441
17.378008	8.3176377	0.31	926.59618	0.23534681	2.5542321	-0.30043185	0.58925582	1.7507048	1.7550577	0	3511.063075752664
17.378008	9.1201084	0.31	955.6432	0.22821604	2.6716368	-0.30966454	0.60783873	1.8429548	1.8471758	0	3626.7850198846418
17.378008	10.	0.31	985.41483	0.22130424	2.7925169	-0.31918662	0.62699712	1.9380874	1.9421806	0	3745.93994676497