19.054607	1.e-12	0.47	1.0347073e10	2.1721962e9	-0.50851429	-0.003772216	-0.003772216	-1.1012617e7	3.3040036e7	0	460.11714871638014
19.054607	1.0964782e-12	0.47	9.4366424e9	1.9810665e9	-0.50664641	-0.0037722163	-0.0037722163	-1.0043626e7	3.013287e7	0	461.8721439098594
19.054607	1.2022644e-12	0.47	8.6063201e9	1.8067541e9	-0.50477853	-0.0037722162	-0.0037722162	-9.1598957e6	2.7481504e7	0	463.6271392799771
19.054607	1.3182567e-12	0.47	7.8490572e9	1.6477793e9	-0.50291065	-0.0037722164	-0.0037722164	-8.3539242e6	2.506343e7	0	465.3821345176158
19.054607	1.4454398e-12	0.47	7.1584253e9	1.5027926e9	-0.50104278	-0.0037722163	-0.0037722162	-7.6188695e6	2.285812e7	0	467.1371205362394
19.054607	1.5848932e-12	0.47	6.5285615e9	1.3705632e9	-0.4991749	-0.0037722164	-0.0037722163	-6.9484916e6	2.0846853e7	0	468.89211581803795
19.054607	1.7378008e-12	0.47	5.9541189e9	1.2499685e9	-0.49730702	-0.0037722159	-0.0037722158	-6.3370998e6	1.9012556e7	0	470.6471113647938
19.054607	1.9054607e-12	0.47	5.4302209e9	1.1399848e9	-0.49543914	-0.0037722163	-0.0037722162	-5.7795037e6	1.7339657e7	0	472.4021065141135
19.054607	2.0892961e-12	0.47	4.9524203e9	1.0396785e9	-0.49357126	-0.0037722164	-0.0037722163	-5.27097e6	1.5813955e7	0	474.15710179591196
19.054607	2.2908677e-12	0.47	4.5166611e9	9.4819805e8	-0.49170338	-0.0037722159	-0.0037722159	-4.8071819e6	1.4422499e7	0	475.91209729850823
19.054607	2.5118864e-12	0.47	4.1192438e9	8.6476689e8	-0.4898355	-0.0037722164	-0.0037722163	-4.384202e6	1.3153475e7	0	477.66709244782794
19.054607	2.7542287e-12	0.47	3.756795e9	7.8867678e8	-0.48796762	-0.0037722166	-0.0037722165	-3.9984398e6	1.1996112e7	0	479.42208768546675
19.054607	3.0199517e-12	0.47	3.4262378e9	7.1928178e8	-0.48609975	-0.0037722159	-0.0037722159	-3.6466205e6	1.0940584e7	0	481.17707388072876
19.054607	3.3113112e-12	0.47	3.124766e9	6.5599278e8	-0.48423187	-0.0037722166	-0.0037722164	-3.3257574e6	9.9779311e6	0	482.9320689858889
19.054607	3.6307805e-12	0.47	2.8498204e9	5.9827253e8	-0.48236399	-0.0037722165	-0.0037722164	-3.0331269e6	9.0999813e6	0	484.6870643118468
19.054607	3.9810717e-12	0.47	2.5990672e9	5.4563104e8	-0.48049611	-0.0037722162	-0.003772216	-2.7662446e6	8.2992817e6	0	486.44205981444316
19.054607	4.3651583e-12	0.47	2.3703774e9	4.9762142e8	-0.47862823	-0.0037722159	-0.0037722157	-2.5228452e6	7.5690349e6	0	488.1970552728799
19.054607	4.7863009e-12	0.47	2.1618099e9	4.5383613e8	-0.47676035	-0.0037722167	-0.0037722165	-2.3008621e6	6.9030418e6	0	489.9520502455614
19.054607	5.2480746e-12	0.47	1.9715941e9	4.1390347e8	-0.47489247	-0.0037722162	-0.0037722161	-2.0984113e6	6.295649e6	0	491.7070457481576
19.054607	5.7543994e-12	0.47	1.7981152e9	3.7748446e8	-0.47302459	-0.0037722159	-0.0037722157	-1.9137739e6	5.7417001e6	0	493.4620412507538
19.054607	6.3095734e-12	0.47	1.6399005e9	3.4426992e8	-0.47115671	-0.0037722161	-0.0037722159	-1.7453826e6	5.2364928e6	0	495.2170364883927
19.054607	6.9183097e-12	0.47	1.495607e9	3.139779e8	-0.46928884	-0.0037722163	-0.0037722161	-1.5918078e6	4.7757381e6	0	496.97202233037814
19.054607	7.5857758e-12	0.47	1.3640098e9	2.8635125e8	-0.46742096	-0.003772216	-0.0037722158	-1.4517461e6	4.355525e6	0	498.7270177888148
19.054607	8.3176377e-12	0.47	1.2439918e9	2.6115545e8	-0.46555308	-0.0037722161	-0.0037722159	-1.3240082e6	3.972286e6	0	500.4820130706132
19.054607	9.1201084e-12	0.47	1.134534e9	2.381766e8	-0.4636852	-0.0037722163	-0.003772216	-1.2075098e6	3.6227678e6	0	502.23700835241164
19.054607	1.e-11	0.47	1.0347073e9	2.1721964e8	-0.46181732	-0.0037722162	-0.0037722159	-1.1012621e6	3.3040036e6	0	503.99200372252926
19.054607	1.0964782e-11	0.47	9.4366426e8	1.9810667e8	-0.45994944	-0.0037722163	-0.0037722159	-1.004363e6	3.0132871e6	0	505.7469990484872
19.054607	1.2022644e-11	0.47	8.6063204e8	1.8067543e8	-0.45808156	-0.0037722157	-0.0037722153	-915990.01	2.7481505e6	0	507.50199463940265
19.054607	1.3182567e-11	0.47	7.8490574e8	1.6477796e8	-0.45621368	-0.0037722163	-0.0037722159	-835392.85	2.506343e6	0	509.25698970040315
19.054607	1.4454398e-11	0.47	7.1584255e8	1.5027928e8	-0.45434581	-0.0037722162	-0.0037722157	-761887.37	2.285812e6	0	511.0119757190269
19.054607	1.5848932e-11	0.47	6.5285616e8	1.3705634e8	-0.45247793	-0.0037722166	-0.0037722161	-694849.58	2.0846853e6	0	512.7669708683467
19.054607	1.7378008e-11	0.47	5.954119e8	1.2499687e8	-0.45061005	-0.0037722163	-0.0037722157	-633710.39	1.9012556e6	0	514.5219663709429
19.054607	1.9054607e-11	0.47	5.4302211e8	1.139985e8	-0.44874217	-0.0037722164	-0.0037722158	-577950.79	1.7339657e6	0	516.2769616527412
19.054607	2.0892961e-11	0.47	4.9524205e8	1.0396787e8	-0.44687429	-0.0037722159	-0.0037722153	-527097.43	1.5813956e6	0	518.0319571994971
19.054607	2.2908677e-11	0.47	4.5166612e8	9.4819826e7	-0.44500641	-0.0037722164	-0.0037722156	-480718.6	1.4422499e6	0	519.7869523929764
19.054607	2.5118864e-11	0.47	4.119244e8	8.6476711e7	-0.44313853	-0.0037722165	-0.0037722157	-438420.61	1.3153475e6	0	521.541947674775
19.054607	2.7542287e-11	0.47	3.7567952e8	7.8867701e7	-0.44127065	-0.003772216	-0.0037722151	-399844.39	1.1996112e6	0	523.2969432656903
19.054607	3.0199517e-11	0.47	3.4262379e8	7.1928199e7	-0.43940278	-0.0037722164	-0.0037722154	-364662.46	1.0940584e6	0	525.0519290635161
19.054607	3.3113112e-11	0.47	3.1247661e8	6.5599299e7	-0.4375349	-0.0037722166	-0.0037722156	-332576.15	997793.14	0	526.8069243011549
19.054607	3.6307805e-11	0.47	2.8498206e8	5.9827275e7	-0.43566702	-0.0037722161	-0.003772215	-303313.1	909998.17	0	528.5619198920704
19.054607	3.9810717e-11	0.47	2.5990673e8	5.4563124e7	-0.43379914	-0.0037722166	-0.0037722153	-276624.87	829928.19	0	530.3169150855495
19.054607	4.3651583e-11	0.47	2.3703776e8	4.9762163e7	-0.43193126	-0.0037722167	-0.0037722153	-252284.92	756903.5	0	532.0719104115077
19.054607	4.7863009e-11	0.47	2.1618101e8	4.5383634e7	-0.43006338	-0.0037722162	-0.0037722147	-230086.62	690304.21	0	533.8269060024231
19.054607	5.2480746e-11	0.47	1.9715942e8	4.1390369e7	-0.4281955	-0.003772216	-0.0037722144	-209841.53	629564.93	0	535.5819014608599
19.054607	5.7543994e-11	0.47	1.7981153e8	3.7748467e7	-0.42632762	-0.003772216	-0.0037722141	-191377.79	574170.04	0	537.3368969192965
19.054607	6.3095734e-11	0.47	1.6399007e8	3.4427013e7	-0.42445974	-0.0037722164	-0.0037722144	-174538.65	523649.3	0	539.0918921127758
19.054607	6.9183097e-11	0.47	1.4956072e8	3.1397811e7	-0.42259187	-0.0037722161	-0.0037722139	-159181.18	477573.84	0	540.8468782638781
19.054607	7.5857758e-11	0.47	1.36401e8	2.8635146e7	-0.42072399	-0.0037722162	-0.0037722138	-145175.	435552.52	0	542.6018736339958
19.054607	8.3176377e-11	0.47	1.2439919e8	2.6115565e7	-0.41885611	-0.0037722164	-0.0037722137	-132401.21	397228.62	0	544.3568690041132
19.054607	9.1201084e-11	0.47	1.1345341e8	2.3817681e7	-0.41698823	-0.0037722162	-0.0037722133	-120751.38	362276.81	0	546.1118645067095
19.054607	1.e-10	0.47	1.0347075e8	2.1721985e7	-0.41512035	-0.0037722163	-0.0037722131	-110126.6	330400.38	0	547.8668599209867
19.054607	1.0964782e-10	0.47	9.4366442e7	1.9810687e7	-0.41325247	-0.0037722165	-0.003772213	-100436.69	301328.73	0	549.6218552911043
19.054607	1.2022644e-10	0.47	8.606322e7	1.8067564e7	-0.41138459	-0.0037722162	-0.0037722124	-91599.385	274815.07	0	551.3768508820198
19.054607	1.3182567e-10	0.47	7.8490591e7	1.6477816e7	-0.40951671	-0.0037722164	-0.0037722122	-83539.669	250634.33	0	553.1318462962968
19.054607	1.4454398e-10	0.47	7.1584272e7	1.5027949e7	-0.40764884	-0.003772216	-0.0037722114	-76189.12	228581.23	0	554.8868325798778
19.054607	1.5848932e-10	0.47	6.5285633e7	1.3705654e7	-0.40578096	-0.0037722164	-0.0037722113	-69485.338	208468.56	0	556.6418279499956
19.054607	1.7378008e-10	0.47	5.9541207e7	1.2499707e7	-0.40391308	-0.0037722165	-0.003772211	-63371.418	190125.59	0	558.3968234084323
19.054607	1.9054607e-10	0.47	5.4302228e7	1.139987e7	-0.4020452	-0.0037722162	-0.0037722101	-57795.456	173396.6	0	560.1518191318264
19.054607	2.0892961e-10	0.47	4.9524222e7	1.0396807e7	-0.40017732	-0.0037722166	-0.0037722099	-52710.117	158139.58	0	561.9068145461034
19.054607	2.2908677e-10	0.47	4.5166629e7	9.4820024e6	-0.39830944	-0.0037722167	-0.0037722094	-48072.233	144225.01	0	563.6618100928594
19.054607	2.5118864e-10	0.47	4.1192457e7	8.6476909e6	-0.39644156	-0.0037722162	-0.0037722082	-43842.433	131534.78	0	565.4168059487322
19.054607	2.7542287e-10	0.47	3.7567969e7	7.8867897e6	-0.39457368	-0.0037722161	-0.0037722073	-39984.81	119961.15	0	567.1718016721263
19.054607	3.0199517e-10	0.47	3.4262397e7	7.1928395e6	-0.39270581	-0.0037722162	-0.0037722066	-36466.615	109405.87	0	568.9267879115479
19.054607	3.3113112e-10	0.47	3.1247679e7	6.5599494e6	-0.39083793	-0.0037722164	-0.0037722059	-33257.982	99779.342	0	570.6817835466229
19.054607	3.6307805e-10	0.47	2.8498223e7	5.9827468e6	-0.38897005	-0.0037722162	-0.0037722047	-30331.675	90999.844	0	572.4367794024959
19.054607	3.9810717e-10	0.47	2.599069e7	5.4563318e6	-0.38710217	-0.0037722163	-0.0037722037	-27662.85	82992.847	0	574.1917751700495
19.054607	4.3651583e-10	0.47	2.3703793e7	4.9762355e6	-0.38523429	-0.0037722165	-0.0037722027	-25228.853	75690.378	0	575.9467709376032
19.054607	4.7863009e-10	0.47	2.1618118e7	4.5383825e6	-0.38336641	-0.0037722164	-0.0037722012	-23009.022	69030.448	0	577.7017669259546
19.054607	5.2480746e-10	0.47	1.971596e7	4.1390559e6	-0.38149853	-0.0037722158	-0.0037721991	-20984.511	62956.52	0	579.4567631792637
19.054607	5.7543994e-10	0.47	1.798117e7	3.7748656e6	-0.37963065	-0.0037722162	-0.0037721979	-19138.135	57417.031	0	581.2117590351367
19.054607	6.3095734e-10	0.47	1.6399024e7	3.4427202e6	-0.37776278	-0.003772216	-0.003772196	-17454.22	52364.958	0	582.9667458044728
19.054607	6.9183097e-10	0.47	1.4956089e7	3.1397999e6	-0.3758949	-0.0037722162	-0.0037721942	-15918.472	47757.412	0	584.7217419253031
19.054607	7.5857758e-10	0.47	1.3640117e7	2.8635333e6	-0.37402702	-0.0037722164	-0.0037721923	-14517.852	43555.279	0	586.4767380902931
19.054607	8.3176377e-10	0.47	1.2439936e7	2.6115751e6	-0.37215914	-0.0037722163	-0.0037721899	-13240.471	39722.89	0	588.2317344760809
19.054607	9.1201084e-10	0.47	1.1345359e7	2.3817866e6	-0.37029126	-0.0037722165	-0.0037721875	-12075.486	36227.709	0	589.9867308618684
19.054607	1.e-9	0.47	1.0347092e7	2.1722169e6	-0.36842338	-0.0037722162	-0.0037721844	-11013.007	33040.066	0	591.7417275567732
19.054607	1.0964782e-9	0.47	9.4366613e6	1.9810871e6	-0.3665555	-0.0037722168	-0.003772182	-10044.014	30132.901	0	593.496723942561
19.054607	1.2022644e-9	0.47	8.6063392e6	1.8067747e6	-0.36468763	-0.0037722162	-0.003772178	-9160.282	27481.535	0	595.2517116392484
19.054607	1.3182567e-9	0.47	7.8490762e6	1.6477998e6	-0.36281975	-0.0037722166	-0.0037721747	-8354.3085	25063.46	0	597.0067084224722
19.054607	1.4454398e-9	0.47	7.1584443e6	1.502813e6	-0.36095187	-0.0037722167	-0.0037721708	-7619.252	22858.15	0	598.7617054706534
19.054607	1.5848932e-9	0.47	6.5285806e6	1.3705834e6	-0.35908399	-0.0037722161	-0.0037721657	-6948.8723	20846.884	0	600.5167030487496
19.054607	1.7378008e-9	0.47	5.9541378e6	1.2499886e6	-0.35721611	-0.0037722165	-0.0037721613	-6337.4785	19012.586	0	602.2717003177288
19.054607	1.9054607e-9	0.47	5.4302399e6	1.1400049e6	-0.35534823	-0.0037722166	-0.0037721561	-5779.8806	17339.688	0	604.0266979399845
19.054607	2.0892961e-9	0.47	4.9524393e6	1.0396985e6	-0.35348035	-0.0037722168	-0.0037721504	-5271.345	15813.986	0	605.781695783038
19.054607	2.2908677e-9	0.47	4.5166801e6	948217.95	-0.35161247	-0.0037722166	-0.0037721439	-4807.555	14422.529	0	607.5366939793682
19.054607	2.5118864e-9	0.47	4.1192628e6	864786.71	-0.3497446	-0.0037722167	-0.003772137	-4384.5733	13153.505	0	609.2916829566831
19.054607	2.7542287e-9	0.47	3.7568141e6	788696.51	-0.34787672	-0.0037722163	-0.0037721288	-3998.8092	11996.142	0	611.046681903726
19.054607	3.0199517e-9	0.47	3.4262568e6	719301.4	-0.34600884	-0.0037722169	-0.003772121	-3646.988	10940.614	0	612.8016806741306
19.054607	3.3113112e-9	0.47	3.124785e6	656012.31	-0.34414096	-0.0037722171	-0.0037721119	-3326.1231	9977.9616	0	614.5566800186095
19.054607	3.6307805e-9	0.47	2.8498395e6	598291.97	-0.34227308	-0.0037722168	-0.0037721015	-3033.4907	9100.0119	0	616.3116799371629
19.054607	3.9810717e-9	0.47	2.5990862e6	545650.39	-0.3404052	-0.0037722169	-0.0037720904	-2766.6066	8299.3122	0	618.0666801648334
19.054607	4.3651583e-9	0.47	2.3703964e6	497640.68	-0.33853733	-0.0037722171	-0.0037720784	-2523.2052	7569.0653	0	619.8216713942863
19.054607	4.7863009e-9	0.47	2.1618289e6	453855.3	-0.33666945	-0.0037722169	-0.0037720649	-2301.2204	6903.0723	0	621.5766726817866
19.054607	5.2480746e-9	0.47	1.9716131e6	413922.55	-0.33480157	-0.0037722171	-0.0037720505	-2098.7676	6295.6795	0	623.3316743667228
19.054607	5.7543994e-9	0.47	1.7981342e6	377503.44	-0.33293369	-0.0037722168	-0.0037720341	-1914.1284	5741.7307	0	625.0866769348506
19.054607	6.3095734e-9	0.47	1.6399195e6	344288.81	-0.33106581	-0.0037722174	-0.003772017	-1745.7352	5236.5232	0	626.8416798120954
19.054607	6.9183097e-9	0.47	1.4956261e6	313996.7	-0.32919793	-0.0037722171	-0.0037719974	-1592.1586	4775.7687	0	628.5966837933292
19.054607	7.5857758e-9	0.47	1.3640289e6	286369.95	-0.32733006	-0.0037722177	-0.0037719768	-1452.0949	4355.5554	0	630.3516788205055
19.054607	8.3176377e-9	0.47	1.2440108e6	261174.06	-0.32546218	-0.0037722173	-0.0037719531	-1324.3552	3972.3165	0	632.1066846122822
19.054607	9.1201084e-9	0.47	1.134553e6	238195.12	-0.3235943	-0.0037722179	-0.0037719282	-1207.855	3622.7983	0	633.8616909339733
19.054607	1.e-8	0.47	1.0347263e6	217238.07	-0.32172642	-0.0037722181	-0.0037719005	-1101.6054	3304.034	0	635.6166984921325
19.054607	1.0964782e-8	0.47	943683.29	198125.01	-0.31985854	-0.0037722178	-0.0037718695	-1004.7044	3013.3176	0	637.3717075075576
19.054607	1.2022644e-8	0.47	860651.07	180693.68	-0.31799067	-0.003772218	-0.0037718361	-916.32956	2748.181	0	639.1267081871592
19.054607	1.3182567e-8	0.47	784924.78	164796.11	-0.31612279	-0.0037722179	-0.0037717992	-835.73055	2506.3735	0	640.8817198079989
19.054607	1.4454398e-8	0.47	715861.58	150297.35	-0.31425491	-0.0037722189	-0.0037717598	-762.2232	2285.8425	0	642.6367325328281
19.054607	1.5848932e-8	0.47	652875.2	137074.31	-0.31238703	-0.0037722187	-0.0037717153	-695.18355	2084.7158	0	644.3917475097953
19.054607	1.7378008e-8	0.47	595430.93	125014.75	-0.31051916	-0.0037722191	-0.0037716672	-634.04249	1901.2861	0	646.1467546808537
19.054607	1.9054607e-8	0.47	543041.14	114016.29	-0.30865128	-0.003772219	-0.0037716138	-578.28102	1733.9962	0	647.9017735880229
19.054607	2.0892961e-8	0.47	495261.09	103985.57	-0.3067834	-0.0037722196	-0.003771556	-527.42579	1581.426	0	649.6567944382132
19.054607	2.2908677e-8	0.47	451685.16	94837.43	-0.30491553	-0.0037722198	-0.0037714922	-481.0451	1442.2804	0	651.4118085423245
19.054607	2.5118864e-8	0.47	411943.44	86494.224	-0.30304765	-0.0037722197	-0.0037714219	-438.74525	1315.378	0	653.166834912461
19.054607	2.7542287e-8	0.47	375698.56	78885.121	-0.30117977	-0.0037722203	-0.0037713455	-400.16716	1199.6417	0	654.9218639763315
19.054607	3.0199517e-8	0.47	342642.83	71945.528	-0.2993119	-0.0037722205	-0.0037712613	-364.98336	1094.0889	0	656.6768870889953
19.054607	3.3113112e-8	0.47	312495.65	65616.535	-0.29744402	-0.0037722213	-0.0037711696	-332.89519	997.82364	0	658.4319229092803
19.054607	3.6307805e-8	0.47	285001.1	59844.417	-0.29557615	-0.0037722221	-0.003771069	-303.63026	910.02866	0	660.1869532641138
19.054607	3.9810717e-8	0.47	259925.77	54580.177	-0.29370827	-0.0037722222	-0.0037709578	-276.94018	829.9587	0	661.9419976955152
19.054607	4.3651583e-8	0.47	237056.8	49779.123	-0.2918404	-0.0037722229	-0.0037708364	-252.59836	756.93402	0	663.6970372355395
19.054607	4.7863009e-8	0.47	216200.04	45400.502	-0.28997252	-0.0037722235	-0.0037707033	-230.39819	690.33471	0	665.4520913378869
19.054607	5.2480746e-8	0.47	197178.46	41407.144	-0.28810465	-0.0037722241	-0.0037705572	-210.15124	629.59543	0	667.2071417853253
19.054607	5.7543994e-8	0.47	179830.57	37765.15	-0.28623678	-0.0037722249	-0.0037703972	-191.68563	574.20054	0	668.9621983709441
19.054607	6.3095734e-8	0.47	164009.11	34443.604	-0.2843689	-0.0037722257	-0.0037702217	-174.84463	523.6798	0	670.71727119695
19.054607	6.9183097e-8	0.47	149579.76	31414.31	-0.28250103	-0.0037722269	-0.0037700296	-159.48529	477.60434	0	672.4723419577915
19.054607	7.5857758e-8	0.47	136420.04	28651.553	-0.28063316	-0.0037722281	-0.0037698188	-145.47724	435.58302	0	674.2274209764723
19.054607	8.3176377e-8	0.47	124418.23	26131.88	-0.27876529	-0.0037722292	-0.0037695874	-132.70159	397.25912	0	675.9825090920253
19.054607	9.1201084e-8	0.47	113472.45	23833.904	-0.27689742	-0.0037722306	-0.0037693339	-121.04988	362.30731	0	677.7376069668433
19.054607	1.e-7	0.47	103489.78	21738.116	-0.27502955	-0.003772232	-0.0037690559	-110.42324	330.43088	0	679.4927156607566
19.054607	1.0964782e-7	0.47	94385.479	19826.727	-0.27316168	-0.003772233	-0.0037687505	-100.73147	301.35924	0	681.2478364543922
19.054607	1.2022644e-7	0.47	86082.257	18083.511	-0.27129381	-0.0037722348	-0.0037684163	-91.892298	274.84558	0	683.0029699659846
19.054607	1.3182567e-7	0.47	78509.628	16493.671	-0.26942594	-0.0037722369	-0.0037680499	-83.830715	250.66483	0	684.7581176969588
19.054607	1.4454398e-7	0.47	71603.309	15043.712	-0.26755808	-0.0037722383	-0.0037676474	-76.478301	228.61173	0	686.513271973885
19.054607	1.5848932e-7	0.47	65304.67	13721.325	-0.26569021	-0.0037722409	-0.0037672071	-69.772653	208.49906	0	688.2684523387825
19.054607	1.7378008e-7	0.47	59560.244	12515.286	-0.26382235	-0.0037722432	-0.0037667237	-63.656866	190.15609	0	690.0236423408019
19.054607	1.9054607e-7	0.47	54321.265	11415.357	-0.26195449	-0.0037722456	-0.0037661936	-58.079038	173.42711	0	691.7788529653412
19.054607	2.0892961e-7	0.47	49543.259	10412.202	-0.26008663	-0.0037722487	-0.0037656128	-52.991833	158.17008	0	693.5340859787832
19.054607	2.2908677e-7	0.47	45185.666	9497.3058	-0.25821877	-0.0037722517	-0.0037649756	-48.352084	144.25552	0	695.2893438982234
19.054607	2.5118864e-7	0.47	41211.494	8662.9022	-0.25635092	-0.003772255	-0.0037642769	-44.120417	131.56529	0	697.0446195801466
19.054607	2.7542287e-7	0.47	37587.006	7901.9089	-0.25448306	-0.0037722593	-0.0037635115	-40.260927	119.99165	0	698.7999341121575
19.054607	3.0199517e-7	0.47	34281.434	7207.8668	-0.25261521	-0.0037722631	-0.0037626713	-36.740866	109.43638	0	700.5552722798743
19.054607	3.3113112e-7	0.47	31266.717	6574.8847	-0.25074736	-0.0037722678	-0.0037617506	-33.530367	99.809848	0	702.3106459960462
19.054607	3.6307805e-7	0.47	28517.261	5997.5901	-0.24887952	-0.0037722725	-0.0037607406	-30.602194	91.030351	0	704.0660497510618
19.054607	3.9810717e-7	0.47	26009.729	5471.0831	-0.24701168	-0.003772278	-0.0037596335	-27.931503	83.023355	0	705.8214963850214
19.054607	4.3651583e-7	0.47	23722.831	4990.8949	-0.24514384	-0.0037722843	-0.0037584199	-25.49564	75.720887	0	707.5769900489245
19.054607	4.7863009e-7	0.47	21637.157	4552.9499	-0.243276	-0.0037722906	-0.0037570886	-23.273942	69.060958	0	709.332535688643
19.054607	5.2480746e-7	0.47	19734.998	4153.5312	-0.24140817	-0.0037722979	-0.0037556293	-21.247565	62.98703	0	711.0881284569598
19.054607	5.7543994e-7	0.47	18000.21	3789.249	-0.23954035	-0.0037723056	-0.0037540289	-19.399323	57.447543	0	712.8437741387784
19.054607	6.3095734e-7	0.47	16418.063	3457.0115	-0.23767253	-0.0037723148	-0.0037522747	-17.713541	52.39547	0	714.5994877380177
19.054607	6.9183097e-7	0.47	14975.129	3153.9993	-0.23580471	-0.0037723238	-0.0037503503	-16.175926	47.787925	0	716.3552764968476
19.054607	7.5857758e-7	0.47	13659.158	2877.6408	-0.2339369	-0.0037723341	-0.0037482407	-14.77344	43.585795	0	718.1111376435505
19.054607	8.3176377e-7	0.47	12458.977	2625.5907	-0.2320691	-0.0037723457	-0.0037459278	-13.494192	39.753407	0	719.8670791710085
19.054607	9.1201084e-7	0.47	11364.4	2395.7102	-0.23020131	-0.0037723582	-0.0037433915	-12.327341	36.258227	0	721.6231099552958
19.054607	1.e-6	0.47	10366.134	2186.0486	-0.22833352	-0.003772372	-0.0037406107	-11.262995	33.070586	0	723.3792487097351
19.054607	1.0964782e-6	0.47	9455.7041	1994.8268	-0.22646574	-0.0037723869	-0.0037375613	-10.292136	30.163423	0	725.13549668113
19.054607	1.2022644e-6	0.47	8625.3825	1820.4224	-0.22459797	-0.0037724032	-0.0037342177	-9.4065368	27.51206	0	726.8918651743304
19.054607	1.3182567e-6	0.47	7868.1204	1661.3556	-0.22273022	-0.0037724213	-0.0037305517	-8.5986966	25.093988	0	728.6483572466823
19.054607	1.4454398e-6	0.47	7177.4893	1516.2769	-0.22086247	-0.0037724413	-0.0037265322	-7.8617732	22.88868	0	730.4050054231192
19.054607	1.5848932e-6	0.47	6547.6263	1383.9554	-0.21899474	-0.0037724633	-0.003722125	-7.1895264	20.877416	0	732.1618060149076
19.054607	1.7378008e-6	0.47	5973.1846	1263.2687	-0.21712702	-0.0037724871	-0.0037172923	-6.5762655	19.043123	0	733.9187851100191
19.054607	1.9054607e-6	0.47	5449.2879	1153.1931	-0.21525931	-0.0037725128	-0.0037119928	-6.0168005	17.370227	0	735.6759609463567
19.054607	2.0892961e-6	0.47	4971.4885	1052.7948	-0.21339163	-0.0037725415	-0.0037061827	-5.5063977	15.844529	0	737.4333340745054
19.054607	2.2908677e-6	0.47	4535.7305	961.2224	-0.21152396	-0.0037725733	-0.0036998124	-5.0407403	14.453077	0	739.1909451889198
19.054607	2.5118864e-6	0.47	4138.3147	877.69931	-0.20965631	-0.0037726078	-0.003692827	-4.615891	13.184058	0	740.9488091375517
19.054607	2.7542287e-6	0.47	3775.8674	801.51727	-0.20778869	-0.0037726455	-0.0036851676	-4.2282592	12.0267	0	742.7069425347343
19.054607	3.0199517e-6	0.47	3445.3119	732.03035	-0.20592109	-0.0037726869	-0.0036767694	-3.8745702	10.971178	0	744.4653833915238
19.054607	3.3113112e-6	0.47	3143.8421	668.64947	-0.20405351	-0.003772732	-0.0036675605	-3.5518373	10.008532	0	746.224163458652
19.054607	3.6307805e-6	0.47	2868.8986	610.83733	-0.20218597	-0.0037727823	-0.0036574642	-3.2573366	9.1305887	0	747.9832978152034
19.054607	3.9810717e-6	0.47	2618.1476	558.10399	-0.20031846	-0.0037728366	-0.0036463929	-2.9885841	8.3298966	0	749.7428345406158
19.054607	4.3651583e-6	0.47	2389.4603	510.00255	-0.19845098	-0.0037728966	-0.0036342539	-2.7433141	7.599658	0	751.502814570812
19.054607	4.7863009e-6	0.47	2180.8955	466.12545	-0.19658354	-0.0037729625	-0.003620944	-2.5194603	6.933674	0	753.2632740828165
19.054607	5.2480746e-6	0.47	1990.6827	426.10102	-0.19471615	-0.0037730349	-0.0036063502	-2.3151384	6.326291	0	755.0242535812913
19.054607	5.7543994e-6	0.47	1817.2071	389.59027	-0.1928488	-0.0037731137	-0.0035903478	-2.1286296	5.7723531	0	756.7858175288754
19.054607	6.3095734e-6	0.47	1658.996	356.28403	-0.1909815	-0.0037732001	-0.0035728015	-1.9583666	5.2671576	0	758.5480162778157
19.054607	6.9183097e-6	0.47	1514.7065	325.90033	-0.18911426	-0.0037732959	-0.0035535636	-1.8029198	4.806416	0	760.3109056561457
19.054607	7.5857758e-6	0.47	1383.1136	298.18206	-0.18724708	-0.0037733998	-0.0035324688	-1.6609855	4.3862172	0	762.074558659637
19.054607	8.3176377e-6	0.47	1263.1003	272.89468	-0.18537997	-0.003773514	-0.0035093392	-1.5313747	4.0029939	0	763.8390444525135
19.054607	9.1201084e-6	0.47	1153.6477	249.82431	-0.18351293	-0.0037736394	-0.0034839785	-1.413003	3.653493	0	765.6044497200144
19.054607	0.00001	0.47	1053.8267	228.77587	-0.18164597	-0.0037737776	-0.003456172	-1.3048813	3.3347475	0	767.3708598770856
19.054607	0.000010964782	0.47	962.78997	209.57149	-0.17977911	-0.003773928	-0.0034256822	-1.2061077	3.0440517	0	769.1383610114025
19.054607	0.000012022644	0.47	879.75954	192.04885	-0.17792267	-0.0037750265	-0.0033931849	-1.1158648	2.7789313	0	770.8969583781693
19.054607	0.000013182567	0.47	804.04028	176.0601	-0.176057	-0.003775298	-0.00335662	-1.0333923	2.537148	0	772.6660241678451
19.054607	0.000014454398	0.47	734.9848	161.47023	-0.17419155	-0.0037755953	-0.003316528	-0.95801076	2.3166436	0	774.4364408053883
19.054607	0.000015848932	0.47	672.00688	148.15617	-0.17232632	-0.0037759211	-0.0032725691	-0.88909609	2.1155461	0	776.2083583450228
19.054607	0.000017378008	0.47	614.5719	136.00569	-0.17046136	-0.0037762787	-0.0032243712	-0.82607916	1.9321483	0	777.9818941262467
19.054607	0.000019054607	0.47	562.19226	124.91641	-0.16859667	-0.0037766713	-0.003171526	-0.76844084	1.7648935	0	779.7572284525901
19.054607	0.000020892961	0.47	514.42336	114.79499	-0.16673229	-0.0037771012	-0.0031135846	-0.71570773	1.6123617	0	781.5345219737552
19.054607	0.000022908677	0.47	470.85965	105.55627	-0.16486824	-0.0037775724	-0.0030500569	-0.66744802	1.4732581	0	783.3139723244948
19.054607	0.000025118864	0.47	431.13134	97.122628	-0.16300457	-0.0037780895	-0.0029804056	-0.62326789	1.346402	0	785.0957697959186
19.054607	0.000027542287	0.47	394.90115	89.423238	-0.16114129	-0.0037786559	-0.0029040407	-0.58280815	1.2307162	0	786.8801655338449
19.054607	0.000030199517	0.47	361.86154	82.393524	-0.15927846	-0.0037792775	-0.0028203175	-0.54574118	1.125219	0	788.6673878611095
19.054607	0.000033113112	0.47	331.73203	75.974594	-0.15741612	-0.0037799585	-0.0027285279	-0.5117682	1.0290145	0	790.4577118890244
19.054607	0.000036307805	0.47	304.25684	70.112737	-0.1555543	-0.0037807048	-0.0026278975	-0.48061664	0.94128624	0	792.2514514023496
19.054607	0.000039810717	0.47	279.20274	64.758974	-0.15369307	-0.0037815237	-0.0025175792	-0.45203793	0.86128937	0	794.0489147072411
19.054607	0.000043651583	0.47	256.35704	59.868639	-0.15183247	-0.0037824207	-0.0023966434	-0.42580531	0.78834483	0	795.8504747284608
19.054607	0.000047863009	0.47	235.5258	55.400998	-0.14997256	-0.0037834042	-0.0022640748	-0.40171196	0.72183337	0	797.6565234442165
19.054607	0.000052480746	0.47	216.53218	51.318907	-0.14811342	-0.003784482	-0.0021187616	-0.37956919	0.66119036	0	799.4674766553958
19.054607	0.000057543994	0.47	199.21494	47.588493	-0.14625512	-0.003785664	-0.0019594898	-0.3592049	0.60590098	0	801.2838046896215
19.054607	0.000063095734	0.47	183.42705	44.17887	-0.14439772	-0.003786959	-0.0017849306	-0.34046208	0.55549584	0	803.1060379653582
19.054607	0.000069183097	0.47	169.0345	41.061875	-0.14254133	-0.0037883777	-0.0015936341	-0.32319747	0.50954705	0	804.9347134000434
19.054607	0.000075857758	0.47	155.91509	38.211826	-0.14068603	-0.0037899328	-0.0013840196	-0.30728037	0.46766448	0	806.7704538587955
19.054607	0.000083176377	0.47	143.95744	35.605309	-0.13883192	-0.0037916366	-0.0011543623	-0.29259153	0.42949254	0	808.6139270493677
19.054607	0.000091201084	0.47	133.06	33.220975	-0.13697912	-0.0037935041	-0.00090278641	-0.27902211	0.39470712	0	810.465848564743
19.054607	0.0001	0.47	123.13026	31.039363	-0.13512775	-0.0037955493	-0.0006272505	-0.26647279	0.36301282	0	812.3270071438195
19.054607	0.00010964782	0.47	114.08387	29.042727	-0.13327794	-0.0037977904	-0.00032554235	-0.25485291	0.33414046	0	814.1982575499726
19.054607	0.00012022644	0.47	105.84399	27.214894	-0.13142984	-0.0038002446	4.7364928e-6	-0.24407969	0.30784478	0	816.0805179948782
19.054607	0.00013182567	0.47	98.340621	25.541119	-0.12958359	-0.0038029318	0.0003661751	-0.23407757	0.28390235	0	817.9748002623102
19.054607	0.00014454398	0.47	91.509969	24.007962	-0.12773938	-0.0038058747	0.00076156072	-0.22477752	0.26210962	0	819.8821566718004
19.054607	0.00015848932	0.47	85.293941	22.603174	-0.12589739	-0.0038090971	0.0011938845	-0.21611648	0.24228123	0	821.8037389793715
19.054607	0.00017378008	0.47	79.639627	21.31559	-0.12405781	-0.0038126241	0.0016663424	-0.20803683	0.22424837	0	823.740779989846
19.054607	0.00019054607	0.47	74.498838	20.135035	-0.12222087	-0.003816485	0.0021823285	-0.20048593	0.20785733	0	825.6945624143767
19.054607	0.00020892961	0.47	69.827691	19.052232	-0.12038681	-0.0038207097	0.0027454279	-0.1934156	0.19296817	0	827.6664439220752
19.054607	0.00022908677	0.47	65.586218	18.058726	-0.11855586	-0.003825332	0.0033593957	-0.1867818	0.17945343	0	829.6578666489788
19.054607	0.00025118864	0.47	61.738011	17.146807	-0.11672832	-0.0038303875	0.0040281313	-0.18054422	0.16719708	0	831.6702706838113
19.054607	0.00027542287	0.47	58.249888	16.309442	-0.11490448	-0.0038359165	0.0047556356	-0.17466597	0.15609336	0	833.7051503329155
19.054607	0.00030199517	0.47	55.091589	15.54021	-0.11308466	-0.0038419609	0.0055459622	-0.16911325	0.14604589	0	835.763994987768
19.054607	0.00033113112	0.47	52.235487	14.833248	-0.1112692	-0.0038485668	0.0064031479	-0.1638551	0.13696668	0	837.8482678297297
19.054607	0.00036307805	0.47	49.656321	14.183192	-0.10945847	-0.0038557851	0.0073311309	-0.15886315	0.12877534	0	839.959360311864
19.054607	0.00039810717	0.47	47.33095	13.58513	-0.10765287	-0.0038636695	0.0083336588	-0.15411142	0.12139824	0	842.0985515321306
19.054607	0.00043651583	0.47	45.238117	13.034555	-0.10585282	-0.0038722785	0.0094141822	-0.14957607	0.11476779	0	844.2669706432553
19.054607	0.00047863009	0.47	43.35824	12.527322	-0.10405876	-0.0038816759	0.010575744	-0.14523529	0.10882176	0	846.465547968083
19.054607	0.00052480746	0.47	41.673216	12.059611	-0.10227118	-0.0038919275	0.011820873	-0.14106909	0.10350266	0	848.6949398268357
19.054607	0.00057543994	0.47	40.166251	11.627892	-0.10049059	-0.0039031083	0.013151485	-0.13705921	0.098757188	0	850.9555130502545
19.054607	0.00063095734	0.47	38.821708	11.228899	-0.098717518	-0.0039152964	0.014568804	-0.13318898	0.094535745	0	853.2473120609892
19.054607	0.00069183097	0.47	37.624995	10.8596	-0.096952533	-0.0039285772	0.016073321	-0.12944318	0.090792069	0	855.5700190698512
19.054607	0.00075857758	0.47	36.56246	10.517182	-0.095196231	-0.00394304	0.017664784	-0.12580801	0.087482923	0	857.9229628137724
19.054607	0.00083176377	0.47	35.621332	10.199034	-0.093449231	-0.0039587828	0.01934223	-0.12227095	0.084567866	0	860.3051364451275
19.054607	0.00091201084	0.47	34.789672	9.902735	-0.091712181	-0.0039759085	0.021104065	-0.11882068	0.082009124	0	862.715227222001
19.054607	0.001	0.47	34.056352	9.6260482	-0.089985753	-0.0039945282	0.022948171	-0.11544703	0.079771497	0	865.1516684567546
19.054607	0.0010964782	0.47	33.411037	9.3669123	-0.088270637	-0.0040147614	0.024872041	-0.11214088	0.077822318	0	867.6127047688403
19.054607	0.0012022644	0.47	32.84419	9.123439	-0.086567545	-0.0040367339	0.026872935	-0.10889406	0.07613144	0	870.0964572154712
19.054607	0.0013182567	0.47	32.347063	8.893907	-0.084877203	-0.0040605799	0.028948021	-0.10569932	0.074671214	0	872.6009930731398
19.054607	0.0014454398	0.47	31.911687	8.6767572	-0.083200343	-0.0040864423	0.031094519	-0.10255023	0.073416459	0	875.1243969439238
19.054607	0.0015848932	0.47	31.530866	8.4705863	-0.081537703	-0.0041144757	0.033309815	-0.099441082	0.072344409	0	877.6648210973967
19.054607	0.0017378008	0.47	31.198146	8.2741393	-0.079890022	-0.004144841	0.035591557	-0.096366861	0.071434638	0	880.2205325616446
19.054607	0.0019054607	0.47	30.907788	8.0863002	-0.078258028	-0.004177712	0.037937721	-0.093323135	0.070668943	0	882.7899535433668
19.054607	0.0020892961	0.47	30.654731	7.9060827	-0.076642432	-0.0042132719	0.040346656	-0.090306006	0.07003122	0	885.3716869370745
19.054607	0.0022908677	0.47	30.434542	7.7326196	-0.075043926	-0.0042517168	0.042817102	-0.087312038	0.069507314	0	887.9645261529453
19.054607	0.0025118864	0.47	30.243377	7.565152	-0.073463167	-0.0042932558	0.045348197	-0.084338204	0.069084866	0	890.5674732410382
19.054607	0.0027542287	0.47	30.077929	7.4030186	-0.071900773	-0.0043381095	0.047939466	-0.081381823	0.068753144	0	893.1797377920029
19.054607	0.0030199517	0.47	29.935378	7.2456459	-0.070357312	-0.0043865174	0.050590796	-0.078440517	0.068502894	0	895.8007362324045
19.054607	0.0033113112	0.47	29.813352	7.0925379	-0.068833297	-0.0044387305	0.053302424	-0.075512162	0.068326182	0	898.430091223403
19.054607	0.0036307805	0.47	29.709878	6.9432672	-0.067329173	-0.0044950182	0.0560749	-0.072594844	0.068216254	0	901.0676275360605
19.054607	0.0039810717	0.47	29.623345	6.7974669	-0.06584531	-0.0045556684	0.058909059	-0.069686828	0.068167406	0	903.713366263619
19.054607	0.0043651583	0.47	29.552466	6.6548228	-0.064382	-0.0046209871	0.061805998	-0.066786518	0.068174861	0	906.3675174834955
19.054607	0.0047863009	0.47	29.496243	6.5150669	-0.062939443	-0.0046913007	0.064767045	-0.063892431	0.068234665	0	909.0304797217286
19.054607	0.0052480746	0.47	29.45394	6.3779709	-0.061517749	-0.004766956	0.067793738	-0.061003167	0.06834359	0	911.7028288003386
19.054607	0.0057543994	0.47	29.425051	6.2433413	-0.060116931	-0.0048483216	0.070887804	-0.05811739	0.068499045	0	914.3853151407751
19.054607	0.0063095734	0.47	29.409274	6.1110139	-0.058736903	-0.0049357851	0.074051143	-0.055233801	0.068699005	0	917.0788585775156
19.054607	0.0069183097	0.47	29.406489	5.9808502	-0.057377481	-0.0050297533	0.077285812	-0.052351121	0.068941935	0	919.7845403529693
19.054607	0.0075857758	0.47	29.416735	5.852733	-0.056038385	-0.0051306516	0.080594012	-0.049468076	0.069226733	0	922.5035954976017
19.054607	0.0083176377	0.47	29.440186	5.726563	-0.054719247	-0.0052389187	0.083978086	-0.046583381	0.069552669	0	925.237404430221
19.054607	0.0091201084	0.47	29.477128	5.6022555	-0.053419614	-0.0053550059	0.087440507	-0.043695729	0.069919336	0	927.9874848401324
19.054607	0.01	0.47	29.527945	5.4797378	-0.052138967	-0.0054793604	0.090983887	-0.040803779	0.070326597	0	930.7554778097589
19.054607	0.010964782	0.47	29.593092	5.3589458	-0.050876732	-0.0056124277	0.094610976	-0.037906149	0.070774537	0	933.5431370378262
19.054607	0.012022644	0.47	29.673071	5.239822	-0.049632305	-0.0057546321	0.098324669	-0.035001411	0.071263417	0	936.3523084413991
19.054607	0.013182567	0.47	29.768416	5.1223126	-0.048405075	-0.0059063627	0.10212802	-0.032088083	0.071793626	0	939.1849147282189
19.054607	0.014454398	0.47	29.87966	5.0063649	-0.047194465	-0.0060679448	0.10602427	-0.029164634	0.072365629	0	942.0429292392031
19.054607	0.015848932	0.47	30.007311	4.8919248	-0.045999966	-0.0062396317	0.11001686	-0.02622948	0.07297991	0	944.9283497439683
19.054607	0.017378008	0.47	30.151818	4.7789337	-0.0448212	-0.0064215449	0.11410947	-0.02328099	0.073636914	0	947.8431564704463
19.054607	0.019054607	0.47	30.313539	4.6673249	-0.043657977	-0.0066136571	0.11830606	-0.020317492	0.07433696	0	950.7892766550829
19.054607	0.020892961	0.47	30.492692	4.5570202	-0.042510383	-0.0068157312	0.12261093	-0.017337289	0.075080157	0	953.7685283568304
19.054607	0.022908677	0.47	30.689312	4.4479236	-0.041378869	-0.0070272586	0.12702875	-0.014338666	0.075866275	0	956.7825500837027
19.054607	0.025118864	0.47	30.903194	4.3399151	-0.040264364	-0.0072474052	0.13156466	-0.01131992	0.076694583	0	959.8327387814621
19.054607	0.027542287	0.47	31.133846	4.232841	-0.039168389	-0.0074749249	0.13622434	-0.0082793814	0.077563635	0	962.9201736348697
19.054607	0.030199517	0.47	31.380457	4.1265013	-0.038093152	-0.0077080982	0.14101409	-0.0052154416	0.07847098	0	966.0455621366341
19.054607	0.033113112	0.47	31.641921	4.0206327	-0.037041587	-0.0079446768	0.14594083	-0.0021265892	0.079412791	0	969.2092034443626
19.054607	0.036307805	0.47	31.916986	3.9148882	-0.036017221	-0.0081818519	0.15101221	0.00098856978	0.080383427	0	972.4111619182816
19.054607	0.039810717	0.47	32.204647	3.8088157	-0.03502375	-0.0084162904	0.15623655	0.0041313168	0.081374999	0	975.6516390012024
19.054607	0.043651583	0.47	32.504947	3.7018438	-0.034064056	-0.008644287	0.16162268	0.0073028739	0.082377141	0	978.9318261559453
19.054607	0.047863009	0.47	32.820314	3.5932902	-0.033138508	-0.0088619915	0.1671797	0.010504573	0.083377347	0	982.2553952038978
19.054607	0.052480746	0.47	33.157403	3.4824117	-0.032242527	-0.0090657607	0.17291671	0.013738175	0.084362307	0	985.6306669357998
19.054607	0.057543994	0.47	33.528954	3.3685016	-0.031363945	-0.0092524778	0.17884239	0.017006377	0.085320386	0	989.072907033632
19.054607	0.063095734	0.47	33.954871	3.2510067	-0.030481121	-0.0094197324	0.18496491	0.020313474	0.086244657	0	992.6060564681209
19.054607	0.069183097	0.47	34.461889	3.1296038	-0.029562598	-0.0095658059	0.19129191	0.023666055	0.087135159	0	996.2630449377403
19.054607	0.075857758	0.47	35.082133	3.0041901	-0.02856815	-0.0096894462	0.19783072	0.027073608	0.087999292	0	1000.0849042948469
19.054607	0.083176377	0.47	35.851609	2.8747895	-0.027450067	-0.0097895856	0.2045887	0.030548968	0.088850378	0	1004.1197113467476
19.054607	0.091201084	0.47	36.8097	2.7414266	-0.026153525	-0.0098649836	0.21157354	0.034108666	0.089705446	0	1008.4223726952355
19.054607	0.1	0.47	37.999795	2.6040191	-0.024615745	-0.0099138169	0.21879371	0.037773282	0.090583404	0	1013.05561362912
19.054607	0.10964782	0.47	39.469579	2.4623262	-0.022765368	-0.0099334746	0.22625867	0.041567868	0.091504425	0	1018.0906580876708
19.054607	0.12022644	0.47	41.265375	2.3160177	-0.020527745	-0.0099216184	0.23397781	0.045522182	0.092491568	0	1023.6017902684594
19.054607	0.13182567	0.47	43.404804	2.1650537	-0.017852802	-0.0098813516	0.24195528	0.049669497	0.093577297	0	1029.637890589037
19.054607	0.14454398	0.47	45.809241	2.0107577	-0.014787528	-0.0098323839	0.25017887	0.05404076	0.094819401	0	1036.1494179294978
19.054607	0.15848932	0.47	45.498412	1.865225	-0.014507764	-0.0098810121	0.25854997	0.058585765	0.096412969	0	1040.108916375726
19.054607	0.17378008	0.47	48.662198	1.7480365	-0.010458102	-0.010197107	0.26690665	0.063195779	0.098646372	0	1047.6041125455856
19.054607	0.19054607	0.47	52.544945	1.6337994	-0.0053982458	-0.010563969	0.27547378	0.068149694	0.10128353	0	1056.1413860006526
19.054607	0.20892961	0.47	57.349579	1.5234387	0.00096714919	-0.010988533	0.28425285	0.073527572	0.10442327	0	1065.998890261616
19.054607	0.22908677	0.47	63.321444	1.4179706	0.0089995244	-0.011475733	0.29324759	0.079431489	0.10818827	0	1077.5178703241727
19.054607	0.25118864	0.47	70.737625	1.3184328	0.019118326	-0.01202753	0.30246498	0.085989264	0.11272739	0	1091.0955056139323
19.054607	0.27542287	0.47	79.882967	1.2257811	0.031777126	-0.012642037	0.31191613	0.093356512	0.11821564	0	1107.1628628036087
19.054607	0.30199517	0.47	91.012598	1.140765	0.047422535	-0.013313086	0.32161667	0.10171567	0.12485065	0	1126.146463878923
19.054607	0.33113112	0.47	104.30717	1.0638145	0.066441644	-0.014030592	0.33158648	0.11127089	0.1328453	0	1148.4187850535752
19.054607	0.36307805	0.47	119.83378	0.99497455	0.089111731	-0.014781858	0.34184832	0.12223873	0.14241704	0	1174.2503978471455
19.054607	0.39810717	0.47	137.52726	0.9339141	0.11556898	-0.01555355	0.35242591	0.13483588	0.15377588	0	1203.7797306776056
19.054607	0.43651583	0.47	157.19948	0.88000527	0.14580659	-0.0163337	0.36334192	0.14926644	0.16711315	0	1237.0104045358585
19.054607	0.47863009	0.47	178.57242	0.8324409	0.17970008	-0.017113146	0.37461652	0.1657113	0.1825934	0	1273.8343683731314
19.054607	0.52480746	0.47	201.32213	0.79035212	0.21704762	-0.017886087	0.38626689	0.1843215	0.20035003	0	1314.06957632921
19.054607	0.57543994	0.47	225.11985	0.75289846	0.25761131	-0.018649872	0.39830739	0.20521579	0.22048475	0	1357.4988471217885
19.054607	0.63095734	0.47	249.66214	0.71932217	0.30115001	-0.019404353	0.41075023	0.22848174	0.24306976	0	1403.9010058460426
19.054607	0.69183097	0.47	274.68808	0.68897146	0.34744074	-0.02015111	0.42360627	0.25417914	0.26815164	0	1453.0713439496892
19.054607	0.75857758	0.47	299.98589	0.66130297	0.3962899	-0.020892764	0.43688572	0.28234463	0.29575601	0	1504.832470273212
19.054607	0.83176377	0.47	325.39227	0.63587262	0.44753723	-0.021632449	0.45059866	0.31299648	0.32589212	0	1559.0382613584231
19.054607	0.91201084	0.47	350.78789	0.61232168	0.50105533	-0.022373454	0.46475542	0.34613913	0.35855716	0	1615.5735782634629
19.054607	1.	0.47	376.09114	0.59036216	0.55674691	-0.023119007	0.47936681	0.38176726	0.39373995	0	1674.351784325104
19.054607	1.0964782	0.47	401.25164	0.56976325	0.61454123	-0.023872156	0.49444427	0.41986912	0.43142405	0	1735.3114665454614
19.054607	1.2022644	0.47	426.24415	0.55033976	0.67439032	-0.024635714	0.5099999	0.46042928	0.4715903	0	1798.4128972828407
19.054607	1.3182567	0.47	451.0633	0.53194263	0.73626557	-0.025412251	0.52604652	0.50343088	0.5142188	0	1863.634856829638
19.054607	1.4454398	0.47	475.71914	0.51445127	0.80015472	-0.026204099	0.54259765	0.5488573	0.5592905	0	1930.9717964887227
19.054607	1.5848932	0.47	500.2335	0.49776755	0.86605927	-0.027013378	0.55966753	0.59669353	0.60678837	0	2000.4314139310945
19.054607	1.7378008	0.47	524.63704	0.48181103	0.93399243	-0.027842021	0.57727106	0.64692713	0.65669837	0	2072.0327005911727
19.054607	1.9054607	0.47	548.96696	0.46651528	1.0039774	-0.028691802	0.59542386	0.69954901	0.70901005	0	2145.804352110138
19.054607	2.0892961	0.47	573.26512	0.45182498	1.0760458	-0.029564361	0.61414219	0.75455399	0.76371711	0	2221.783257890675
19.054607	2.2908677	0.47	597.57668	0.43769363	1.1502369	-0.030461229	0.633443	0.81194114	0.82081767	0	2300.013799711438
19.054607	2.5118864	0.47	621.94892	0.42408181	1.2265963	-0.031383848	0.65334387	0.87171407	0.88031455	0	2380.5465850050496
19.054607	2.7542287	0.47	646.43047	0.4109558	1.3051756	-0.032333593	0.67386306	0.93388112	0.9422154	0	2463.438158881316
19.054607	3.0199517	0.47	671.07062	0.39828646	1.3860314	-0.033311779	0.69501949	0.9984554	1.0065327	0	2548.7500557299654
19.054607	3.3113112	0.47	695.91891	0.38604835	1.4692253	-0.034319687	0.71683276	1.0654549	1.0732841	0	2636.548808052561
19.054607	3.6307805	0.47	721.02471	0.37421909	1.554823	-0.035358566	0.73932311	1.1349024	1.1424917	0	2726.905083189862
19.054607	3.9810717	0.47	746.43706	0.36277881	1.6428946	-0.036429647	0.76251151	1.2068257	1.2141829	0	2819.8940049350335
19.054607	4.3651583	0.47	772.20444	0.35170966	1.7335139	-0.037534149	0.78641959	1.281257	1.2883898	0	2915.5944649262124
19.054607	4.7863009	0.47	798.37471	0.34099553	1.8267586	-0.038673292	0.81106971	1.3582336	1.3651491	0	3014.0893414712673
19.054607	5.2480746	0.47	824.99506	0.33062173	1.9227097	-0.039848297	0.83648498	1.4377974	1.4445024	0	3115.464944640513
19.054607	5.7543994	0.47	852.11196	0.32057477	2.0214521	-0.041060397	0.8626892	1.5199946	1.5264959	0	3219.8115535101683
19.054607	6.3095734	0.47	879.77122	0.31084219	2.1230737	-0.042310835	0.889707	1.6048762	1.6111801	0	3327.2226323769464
19.054607	6.9183097	0.47	908.01801	0.3014124	2.2276661	-0.043600879	0.91756374	1.6924976	1.6986103	0	3437.7954442942273
19.054607	7.5857758	0.47	936.89689	0.29227456	2.3353243	-0.044931813	0.94628561	1.7829186	1.788846	0	3551.630813362023
19.054607	8.3176377	0.47	966.45191	0.28341847	2.4461465	-0.046304953	0.97589964	1.8762033	1.8819511	0	3668.8329412298676
19.054607	9.1201084	0.47	996.72669	0.27483452	2.5602344	-0.047721641	1.0064337	1.9724202	1.9779939	0	3789.5096889664183
19.054607	10.	0.47	1027.7644	0.2665136	2.6776934	-0.04918325	1.0379165	2.0716419	2.0770468	0	3913.772764972529