19.054607	1.e-12	0.57	1.0347073e10	2.1721962e9	-0.51275472	0.0043803468	0.0043803469	-1.1012617e7	3.3040035e7	0	460.1446866749334
19.054607	1.0964782e-12	0.57	9.4366423e9	1.9810665e9	-0.51088684	0.0043803465	0.0043803466	-1.0043626e7	3.013287e7	0	461.89968184022575
19.054607	1.2022644e-12	0.57	8.6063202e9	1.8067541e9	-0.50901896	0.0043803469	0.004380347	-9.1598958e6	2.7481504e7	0	463.65467738040456
19.054607	1.3182567e-12	0.57	7.8490572e9	1.6477793e9	-0.50715108	0.0043803465	0.0043803466	-8.3539242e6	2.506343e7	0	465.4096724921417
19.054607	1.4454398e-12	0.57	7.1584253e9	1.5027926e9	-0.50528321	0.0043803471	0.0043803472	-7.6188695e6	2.285812e7	0	467.1646587437775
19.054607	1.5848932e-12	0.57	6.5285615e9	1.3705632e9	-0.50341533	0.0043803467	0.0043803468	-6.9484916e6	2.0846853e7	0	468.9196538555145
19.054607	1.7378008e-12	0.57	5.9541188e9	1.2499685e9	-0.50154745	0.0043803465	0.0043803466	-6.3370997e6	1.9012556e7	0	470.67464907436215
19.054607	1.9054607e-12	0.57	5.4302209e9	1.1399848e9	-0.49967957	0.0043803471	0.0043803472	-5.7795037e6	1.7339657e7	0	472.4296447216514
19.054607	2.0892961e-12	0.57	4.9524203e9	1.0396785e9	-0.49781169	0.0043803467	0.0043803468	-5.27097e6	1.5813955e7	0	474.1846398333886
19.054607	2.2908677e-12	0.57	4.516661e9	9.4819805e8	-0.49594381	0.0043803473	0.0043803474	-4.8071819e6	1.4422499e7	0	475.939635480678
19.054607	2.5118864e-12	0.57	4.1192438e9	8.647669e8	-0.49407593	0.0043803465	0.0043803466	-4.384202e6	1.3153475e7	0	477.69463037819423
19.054607	2.7542287e-12	0.57	3.756795e9	7.8867679e8	-0.49220805	0.0043803471	0.0043803472	-3.9984398e6	1.1996112e7	0	479.44962602548355
19.054607	3.0199517e-12	0.57	3.4262378e9	7.1928178e8	-0.49034018	0.0043803463	0.0043803464	-3.6466205e6	1.0940584e7	0	481.2046115273462
19.054607	3.3113112e-12	0.57	3.124766e9	6.5599279e8	-0.4884723	0.0043803469	0.004380347	-3.3257575e6	9.9779312e6	0	482.9596071746356
19.054607	3.6307805e-12	0.57	2.8498205e9	5.9827253e8	-0.48660442	0.0043803465	0.0043803467	-3.0331269e6	9.0999814e6	0	484.7146023399279
19.054607	3.9810717e-12	0.57	2.5990671e9	5.4563103e8	-0.48473654	0.0043803471	0.0043803473	-2.7662446e6	8.2992817e6	0	486.46959798721724
19.054607	4.3651583e-12	0.57	2.3703774e9	4.9762142e8	-0.48286866	0.0043803467	0.0043803469	-2.5228451e6	7.5690348e6	0	488.2245930989543
19.054607	4.7863009e-12	0.57	2.1618099e9	4.5383613e8	-0.48100078	0.004380347	0.0043803472	-2.3008622e6	6.9030418e6	0	489.979588585578
19.054607	5.2480746e-12	0.57	1.971594e9	4.1390347e8	-0.4791329	0.0043803466	0.0043803468	-2.0984113e6	6.2956489e6	0	491.7345836973151
19.054607	5.7543994e-12	0.57	1.7981152e9	3.7748446e8	-0.47726502	0.0043803472	0.0043803474	-1.9137739e6	5.7417001e6	0	493.4895793446045
19.054607	6.3095734e-12	0.57	1.6399005e9	3.4426992e8	-0.47539715	0.0043803464	0.0043803467	-1.7453825e6	5.2364927e6	0	495.24456490002234
19.054607	6.9183097e-12	0.57	1.495607e9	3.139779e8	-0.47352927	0.004380347	0.0043803473	-1.5918078e6	4.7757381e6	0	496.9995605473117
19.054607	7.5857758e-12	0.57	1.3640098e9	2.8635125e8	-0.47166139	0.0043803466	0.0043803469	-1.451746e6	4.3555249e6	0	498.75455565904895
19.054607	8.3176377e-12	0.57	1.2439918e9	2.6115545e8	-0.46979351	0.0043803472	0.0043803475	-1.3240082e6	3.972286e6	0	500.50955130633815
19.054607	9.1201084e-12	0.57	1.134534e9	2.381766e8	-0.46792563	0.0043803464	0.0043803468	-1.2075098e6	3.6227679e6	0	502.2645462574096
19.054607	1.e-11	0.57	1.0347073e9	2.1721964e8	-0.46605775	0.004380347	0.0043803474	-1.1012621e6	3.3040036e6	0	504.0195419046989
19.054607	1.0964782e-11	0.57	9.4366426e8	1.9810667e8	-0.46418987	0.0043803466	0.004380347	-1.004363e6	3.0132871e6	0	505.77453701643606
19.054607	1.2022644e-11	0.57	8.6063203e8	1.8067543e8	-0.46232199	0.0043803469	0.0043803474	-915990.	2.7481505e6	0	507.52953255661504
19.054607	1.3182567e-11	0.57	7.8490574e8	1.6477796e8	-0.46045412	0.0043803465	0.004380347	-835392.85	2.506343e6	0	509.28451827269845
19.054607	1.4454398e-11	0.57	7.1584255e8	1.5027928e8	-0.45858624	0.0043803471	0.0043803477	-761887.38	2.285812e6	0	511.0395139735431
19.054607	1.5848932e-11	0.57	6.5285616e8	1.3705634e8	-0.45671836	0.0043803463	0.0043803469	-694849.58	2.0846853e6	0	512.7945088710594
19.054607	1.7378008e-11	0.57	5.954119e8	1.2499687e8	-0.45485048	0.0043803469	0.0043803476	-633710.39	1.9012556e6	0	514.549504571904
19.054607	1.9054607e-11	0.57	5.4302211e8	1.139985e8	-0.4529826	0.0043803465	0.0043803472	-577950.79	1.7339657e6	0	516.3044996836409
19.054607	2.0892961e-11	0.57	4.9524205e8	1.0396787e8	-0.45111472	0.0043803471	0.0043803479	-527097.42	1.5813955e6	0	518.0594953844856
19.054607	2.2908677e-11	0.57	4.5166612e8	9.4819826e7	-0.44924684	0.0043803467	0.0043803476	-480718.6	1.4422499e6	0	519.8144905497779
19.054607	2.5118864e-11	0.57	4.119244e8	8.6476712e7	-0.44737896	0.004380347	0.004380348	-438420.61	1.3153475e6	0	521.5694860899569
19.054607	2.7542287e-11	0.57	3.7567952e8	7.88677e7	-0.44551108	0.0043803462	0.0043803473	-399844.39	1.1996112e6	0	523.3244810410283
19.054607	3.0199517e-11	0.57	3.4262379e8	7.19282e7	-0.44364321	0.0043803468	0.004380348	-364662.46	1.0940584e6	0	525.0794673462192
19.054607	3.3113112e-11	0.57	3.1247662e8	6.55993e7	-0.44177533	0.0043803464	0.0043803477	-332576.15	997793.14	0	526.8344625115117
19.054607	3.6307805e-11	0.57	2.8498206e8	5.9827274e7	-0.43990745	0.004380347	0.0043803484	-303313.09	909998.16	0	528.5894582123562
19.054607	3.9810717e-11	0.57	2.5990673e8	5.4563125e7	-0.43803957	0.0043803466	0.0043803481	-276624.87	829928.19	0	530.3444533776485
19.054607	4.3651583e-11	0.57	2.3703776e8	4.9762163e7	-0.43617169	0.0043803469	0.0043803486	-252284.92	756903.51	0	532.0994489713827
19.054607	4.7863009e-11	0.57	2.1618101e8	4.5383634e7	-0.43430381	0.0043803465	0.0043803484	-230086.62	690304.21	0	533.8544441902302
19.054607	5.2480746e-11	0.57	1.9715942e8	4.1390368e7	-0.43243593	0.0043803471	0.0043803491	-209841.53	629564.92	0	535.6094398910748
19.054607	5.7543994e-11	0.57	1.7981153e8	3.7748467e7	-0.43056805	0.0043803463	0.0043803485	-191377.78	574170.04	0	537.3644348957014
19.054607	6.3095734e-11	0.57	1.6399007e8	3.4427013e7	-0.42870018	0.0043803469	0.0043803493	-174538.65	523649.3	0	539.1194212544478
19.054607	6.9183097e-11	0.57	1.4956072e8	3.1397811e7	-0.4268323	0.0043803465	0.0043803492	-159181.18	477573.84	0	540.8744165268504
19.054607	7.5857758e-11	0.57	1.36401e8	2.8635146e7	-0.42496442	0.0043803471	0.00438035	-145175.	435552.52	0	542.6294122812503
19.054607	8.3176377e-11	0.57	1.2439919e8	2.6115565e7	-0.42309654	0.0043803467	0.0043803499	-132401.21	397228.62	0	544.3844075536531
19.054607	9.1201084e-11	0.57	1.1345341e8	2.3817681e7	-0.42122866	0.0043803463	0.0043803498	-120751.37	362276.81	0	546.139402826056
19.054607	1.e-10	0.57	1.0347075e8	2.1721985e7	-0.41936078	0.0043803469	0.0043803508	-110126.6	330400.38	0	547.8943986875661
19.054607	1.0964782e-10	0.57	9.4366443e7	1.9810688e7	-0.4174929	0.0043803465	0.0043803507	-100436.69	301328.73	0	549.6493939599688
19.054607	1.2022644e-10	0.57	8.606322e7	1.8067564e7	-0.41562502	0.0043803471	0.0043803517	-91599.385	274815.07	0	551.4043898214791
19.054607	1.3182567e-10	0.57	7.8490591e7	1.6477816e7	-0.41375715	0.0043803463	0.0043803514	-83539.669	250634.33	0	553.159375591118
19.054607	1.4454398e-10	0.57	7.1584272e7	1.5027948e7	-0.41188927	0.0043803469	0.0043803525	-76189.119	228581.23	0	554.9143715061834
19.054607	1.5848932e-10	0.57	6.5285633e7	1.3705654e7	-0.41002139	0.0043803465	0.0043803526	-69485.339	208468.56	0	556.6693668856966
19.054607	1.7378008e-10	0.57	5.9541207e7	1.2499707e7	-0.40815351	0.0043803471	0.0043803538	-63371.418	190125.59	0	558.4243628543175
19.054607	1.9054607e-10	0.57	5.4302228e7	1.139987e7	-0.40628563	0.0043803467	0.0043803541	-57795.456	173396.6	0	560.1793583409411
19.054607	2.0892961e-10	0.57	4.9524222e7	1.0396807e7	-0.40441775	0.0043803473	0.0043803554	-52710.118	158139.58	0	561.9343543631169
19.054607	2.2908677e-10	0.57	4.5166629e7	9.4820024e6	-0.40254987	0.0043803465	0.0043803553	-48072.234	144225.02	0	563.6893496355196
19.054607	2.5118864e-10	0.57	4.1192457e7	8.6476908e6	-0.40068199	0.0043803471	0.0043803568	-43842.433	131534.78	0	565.444345764806
19.054607	2.7542287e-10	0.57	3.7567969e7	7.8867896e6	-0.39881412	0.0043803467	0.0043803573	-39984.809	119961.15	0	567.1993319628868
19.054607	3.0199517e-10	0.57	3.4262397e7	7.1928395e6	-0.39694624	0.004380347	0.0043803586	-36466.614	109405.87	0	568.9543279850626
19.054607	3.3113112e-10	0.57	3.1247679e7	6.5599494e6	-0.39507836	0.0043803466	0.0043803594	-33257.982	99779.342	0	570.7093237394623
19.054607	3.6307805e-10	0.57	2.8498223e7	5.9827468e6	-0.39321048	0.0043803472	0.0043803612	-30331.675	90999.844	0	572.4643200294145
19.054607	3.9810717e-10	0.57	2.599069e7	5.4563317e6	-0.3913426	0.0043803468	0.0043803621	-27662.85	82992.846	0	574.2193158373695
19.054607	4.3651583e-10	0.57	2.3703793e7	4.9762355e6	-0.38947472	0.0043803474	0.0043803642	-25228.854	75690.379	0	575.9743122879873
19.054607	4.7863009e-10	0.57	2.1618118e7	4.5383826e6	-0.38760684	0.0043803466	0.0043803651	-23009.022	69030.448	0	577.7293080959422
19.054607	5.2480746e-10	0.57	1.9715959e7	4.1390559e6	-0.38573896	0.0043803472	0.0043803674	-20984.511	62956.52	0	579.4843046536704
19.054607	5.7543994e-10	0.57	1.798117e7	3.7748656e6	-0.38387109	0.0043803464	0.0043803686	-19138.135	57417.031	0	581.2392912266378
19.054607	6.3095734e-10	0.57	1.6399024e7	3.4427201e6	-0.38200321	0.004380347	0.0043803713	-17454.22	52364.957	0	582.9942879985867
19.054607	6.9183097e-10	0.57	1.4956089e7	3.1397999e6	-0.38013533	0.0043803466	0.0043803733	-15918.471	47757.411	0	584.7492843956492
19.054607	7.5857758e-10	0.57	1.3640117e7	2.8635333e6	-0.37826745	0.0043803472	0.0043803764	-14517.852	43555.279	0	586.5042813818192
19.054607	8.3176377e-10	0.57	1.2439936e7	2.6115751e6	-0.37639957	0.0043803468	0.0043803789	-13240.471	39722.89	0	588.2592780466578
19.054607	9.1201084e-10	0.57	1.1345359e7	2.3817866e6	-0.37453169	0.0043803474	0.0043803825	-12075.486	36227.709	0	590.0142753006039
19.054607	1.e-9	0.57	1.0347092e7	2.1722169e6	-0.37266381	0.0043803466	0.0043803851	-11013.007	33040.066	0	591.7692720189978
19.054607	1.0964782e-9	0.57	9.4366614e6	1.9810871e6	-0.37079594	0.0043803472	0.0043803895	-10044.014	30132.901	0	593.524260305732
19.054607	1.2022644e-9	0.57	8.6063392e6	1.8067747e6	-0.36892806	0.0043803475	0.0043803938	-9160.282	27481.535	0	595.2792579345647
19.054607	1.3182567e-9	0.57	7.8490763e6	1.6477998e6	-0.36706018	0.0043803471	0.0043803979	-8354.3086	25063.46	0	597.034255456287
19.054607	1.4454398e-9	0.57	7.1584444e6	1.502813e6	-0.3651923	0.0043803477	0.0043804034	-7619.252	22858.15	0	598.7892537277825
19.054607	1.5848932e-9	0.57	6.5285805e6	1.3705834e6	-0.36332442	0.0043803469	0.004380408	-6948.8722	20846.883	0	600.5442515172808
19.054607	1.7378008e-9	0.57	5.9541379e6	1.2499886e6	-0.36145654	0.0043803475	0.0043804145	-6337.4785	19012.586	0	602.2992503243283
19.054607	1.9054607e-9	0.57	5.4302399e6	1.1400049e6	-0.35958866	0.0043803471	0.0043804205	-5779.8805	17339.687	0	604.0542488635999
19.054607	2.0892961e-9	0.57	4.9524393e6	1.0396985e6	-0.35772078	0.0043803477	0.0043804282	-5271.345	15813.985	0	605.8092483133103
19.054607	2.2908677e-9	0.57	4.51668e6	948217.94	-0.35585291	0.0043803473	0.0043804356	-4807.555	14422.529	0	607.5642382067012
19.054607	2.5118864e-9	0.57	4.1192629e6	864786.71	-0.35398503	0.0043803479	0.0043804447	-4384.5733	13153.505	0	609.3192384061847
19.054607	2.7542287e-9	0.57	3.756814e6	788696.5	-0.35211715	0.0043803475	0.0043804536	-3998.8092	11996.142	0	611.0742384985579
19.054607	3.0199517e-9	0.57	3.4262568e6	719301.4	-0.35024927	0.0043803481	0.0043804645	-3646.988	10940.614	0	612.8292396620354
19.054607	3.3113112e-9	0.57	3.124785e6	656012.31	-0.34838139	0.0043803477	0.0043804753	-3326.1231	9977.9615	0	614.5842407719576
19.054607	3.6307805e-9	0.57	2.8498395e6	598291.97	-0.34651351	0.0043803483	0.0043804882	-3033.4907	9100.0117	0	616.3392430065396
19.054607	3.9810717e-9	0.57	2.5990862e6	545650.38	-0.34464564	0.0043803485	0.0043805018	-2766.6066	8299.312	0	618.0942362203549
19.054607	4.3651583e-9	0.57	2.3703965e6	497640.67	-0.34277776	0.0043803481	0.0043805162	-2523.2052	7569.0652	0	619.8492392582652
19.054607	4.7863009e-9	0.57	2.1618289e6	453855.29	-0.34090988	0.0043803487	0.0043805331	-2301.2203	6903.0722	0	621.6042436350562
19.054607	5.2480746e-9	0.57	1.9716131e6	413922.54	-0.339042	0.0043803483	0.0043805504	-2098.7676	6295.6793	0	623.3592482260681
19.054607	5.7543994e-9	0.57	1.7981342e6	377503.43	-0.33717412	0.0043803489	0.0043805705	-1914.1283	5741.7304	0	625.1142543166262
19.054607	6.3095734e-9	0.57	1.6399195e6	344288.8	-0.33530625	0.0043803492	0.0043805922	-1745.7351	5236.5231	0	626.8692518684147
19.054607	6.9183097e-9	0.57	1.4956261e6	313996.69	-0.33343837	0.0043803495	0.004380616	-1592.1586	4775.7685	0	628.6242599405161
19.054607	7.5857758e-9	0.57	1.3640289e6	286369.95	-0.33157049	0.0043803498	0.004380642	-1452.0949	4355.5553	0	630.3792691908325
19.054607	8.3176377e-9	0.57	1.2440108e6	261174.05	-0.32970261	0.0043803494	0.0043806698	-1324.3552	3972.3163	0	632.1342794051432
19.054607	9.1201084e-9	0.57	1.134553e6	238195.12	-0.32783473	0.0043803506	0.0043807019	-1207.855	3622.7982	0	633.8892919223284
19.054607	1.e-8	0.57	1.0347263e6	217238.07	-0.32596686	0.0043803502	0.0043807354	-1101.6054	3304.0339	0	635.6442957936331
19.054607	1.0964782e-8	0.57	943683.29	198125.	-0.32409898	0.0043803508	0.0043807732	-1004.7044	3013.3174	0	637.3993113634663
19.054607	1.2022644e-8	0.57	860651.07	180693.67	-0.3222311	0.0043803511	0.0043808142	-916.32954	2748.1808	0	639.1543286470664
19.054607	1.3182567e-8	0.57	784924.78	164796.1	-0.32036322	0.0043803517	0.0043808595	-835.73052	2506.3734	0	640.9093482335414
19.054607	1.4454398e-8	0.57	715861.58	150297.34	-0.31849535	0.0043803523	0.0043809091	-762.22318	2285.8424	0	642.6643607272375
19.054607	1.5848932e-8	0.57	652875.2	137074.3	-0.31662747	0.0043803526	0.0043809631	-695.18352	2084.7157	0	644.419384973017
19.054607	1.7378008e-8	0.57	595430.94	125014.74	-0.31475959	0.0043803533	0.0043810226	-634.04247	1901.286	0	646.174412164334
19.054607	1.9054607e-8	0.57	543041.14	114016.28	-0.31289172	0.0043803539	0.0043810878	-578.28099	1733.9961	0	647.929433012645
19.054607	2.0892961e-8	0.57	495261.09	103985.56	-0.31102384	0.0043803545	0.0043811593	-527.42576	1581.4259	0	649.6844666305888
19.054607	2.2908677e-8	0.57	451685.16	94837.422	-0.30915596	0.0043803557	0.0043812381	-481.04508	1442.2803	0	651.4395041580641
19.054607	2.5118864e-8	0.57	411943.44	86494.215	-0.30728809	0.0043803563	0.0043813239	-438.74522	1315.3779	0	653.1945360387515
19.054607	2.7542287e-8	0.57	375698.55	78885.112	-0.30542021	0.0043803569	0.0043814178	-400.16713	1199.6416	0	654.9495816530657
19.054607	3.0199517e-8	0.57	342642.83	71945.519	-0.30355234	0.0043803581	0.0043815214	-364.98333	1094.0888	0	656.7046230665833
19.054607	3.3113112e-8	0.57	312495.65	65616.527	-0.30168446	0.0043803587	0.0043816342	-332.89516	997.82351	0	658.4596788028352
19.054607	3.6307805e-8	0.57	285001.1	59844.41	-0.29981659	0.00438036	0.0043817585	-303.63024	910.02853	0	660.2147313022841
19.054607	3.9810717e-8	0.57	259925.77	54580.168	-0.29794871	0.0043803612	0.0043818946	-276.94015	829.95856	0	661.9697995169033
19.054607	4.3651583e-8	0.57	237056.79	49779.115	-0.29608084	0.0043803624	0.0043820438	-252.59833	756.93388	0	663.7248653516035
19.054607	4.7863009e-8	0.57	216200.04	45400.494	-0.29421297	0.0043803642	0.0043822079	-230.39816	690.33457	0	665.4799391660322
19.054607	5.2480746e-8	0.57	197178.46	41407.136	-0.29234509	0.004380366	0.0043823876	-210.15121	629.59529	0	667.2350307307295
19.054607	5.7543994e-8	0.57	179830.57	37765.142	-0.29047722	0.0043803673	0.0043825838	-191.6856	574.2004	0	668.9901217363853
19.054607	6.3095734e-8	0.57	164009.1	34443.596	-0.28860935	0.0043803697	0.0043828001	-174.8446	523.67967	0	670.7452235066413
19.054607	6.9183097e-8	0.57	149579.76	31414.302	-0.28674148	0.0043803721	0.004383037	-159.48526	477.6042	0	672.5003363092736
19.054607	7.5857758e-8	0.57	136420.04	28651.545	-0.28487361	0.0043803746	0.0043832965	-145.47721	435.58288	0	674.255461215387
19.054607	8.3176377e-8	0.57	124418.23	26131.872	-0.28300574	0.004380377	0.0043835809	-132.70156	397.25899	0	676.0105994567513
19.054607	9.1201084e-8	0.57	113472.45	23833.896	-0.28113787	0.0043803794	0.0043838924	-121.04986	362.30718	0	677.7657522115813
19.054607	1.e-7	0.57	103489.78	21738.108	-0.27927	0.0043803831	0.004384235	-110.42321	330.43075	0	679.5209216220866
19.054607	1.0964782e-7	0.57	94385.479	19826.719	-0.27740214	0.0043803867	0.0043846103	-100.73144	301.3591	0	681.276099149497
19.054607	1.2022644e-7	0.57	86082.257	18083.503	-0.27553427	0.0043803904	0.0043850214	-91.892269	274.84544	0	683.0313052453309
19.054607	1.3182567e-7	0.57	78509.628	16493.663	-0.27366641	0.004380394	0.0043854719	-83.830685	250.66469	0	684.7865230462704
19.054607	1.4454398e-7	0.57	71603.309	15043.704	-0.27179855	0.0043803989	0.0043859666	-76.478271	228.61159	0	686.5417645186194
19.054607	1.5848932e-7	0.57	65304.671	13721.317	-0.26993069	0.0043804038	0.0043865086	-69.772623	208.49893	0	688.2970313225894
19.054607	1.7378008e-7	0.57	59560.244	12515.278	-0.26806283	0.0043804099	0.0043871037	-63.656836	190.15596	0	690.0523265643843
19.054607	1.9054607e-7	0.57	54321.266	11415.349	-0.26619497	0.004380416	0.0043877556	-58.079008	173.42697	0	691.8076522255467
19.054607	2.0892961e-7	0.57	49543.26	10412.194	-0.26432712	0.004380422	0.0043884698	-52.991803	158.16995	0	693.5630018559608
19.054607	2.2908677e-7	0.57	45185.667	9497.2976	-0.26245926	0.00438043	0.0043892542	-48.352054	144.25538	0	695.3183984777963
19.054607	2.5118864e-7	0.57	41211.495	8662.894	-0.26059141	0.0043804379	0.0043901134	-44.120387	131.56515	0	697.0738257632865
19.054607	2.7542287e-7	0.57	37587.007	7901.9008	-0.25872357	0.0043804464	0.0043910554	-40.260897	119.99152	0	698.8292879968496
19.054607	3.0199517e-7	0.57	34281.435	7207.8587	-0.25685572	0.0043804561	0.0043920887	-36.740835	109.43624	0	700.5848085219864
19.054607	3.3113112e-7	0.57	31266.718	6574.8766	-0.25498788	0.0043804671	0.0043932219	-33.530337	99.809714	0	702.3403731531396
19.054607	3.6307805e-7	0.57	28517.263	5997.582	-0.25312004	0.004380478	0.0043944635	-30.602163	91.030217	0	704.0959958381567
19.054607	3.9810717e-7	0.57	26009.73	5471.075	-0.25125221	0.0043804914	0.0043958261	-27.931472	83.023221	0	705.8516739293424
19.054607	4.3651583e-7	0.57	23722.833	4990.8868	-0.24938438	0.0043805048	0.004397319	-25.495609	75.720754	0	707.6074218029862
19.054607	4.7863009e-7	0.57	21637.158	4552.9419	-0.24751656	0.0043805206	0.004398957	-23.273911	69.060825	0	709.3632379896078
19.054607	5.2480746e-7	0.57	19735.	4153.5232	-0.24564874	0.004380537	0.0044007521	-21.247534	62.986898	0	711.1191383114877
19.054607	5.7543994e-7	0.57	18000.212	3789.241	-0.24378093	0.0043805553	0.0044027207	-19.399291	57.447411	0	712.8751221560296
19.054607	6.3095734e-7	0.57	16418.066	3457.0036	-0.24191312	0.0043805754	0.0044048793	-17.71351	52.395339	0	714.631207755499
19.054607	6.9183097e-7	0.57	14975.132	3153.9913	-0.24004532	0.0043805973	0.004407246	-16.175894	47.787795	0	716.3873954077378
19.054607	7.5857758e-7	0.57	13659.16	2877.6328	-0.23817753	0.0043806216	0.0044098413	-14.773408	43.585665	0	718.1436960915676
19.054607	8.3176377e-7	0.57	12458.98	2625.5827	-0.23630975	0.0043806484	0.0044126871	-13.49416	39.753278	0	719.9001215355822
19.054607	9.1201084e-7	0.57	11364.403	2395.7023	-0.23444197	0.0043806776	0.0044158074	-12.327308	36.258099	0	721.6566939886892
19.054607	1.e-6	0.57	10366.137	2186.0407	-0.23257421	0.0043807092	0.0044192283	-11.262962	33.070459	0	723.4134086374954
19.054607	1.0964782e-6	0.57	9455.7077	1994.819	-0.23070646	0.0043807445	0.0044229798	-10.292102	30.163297	0	725.1702909442221
19.054607	1.2022644e-6	0.57	8625.3865	1820.4146	-0.22883872	0.0043807828	0.0044270929	-9.4065033	27.511935	0	726.9273575109885
19.054607	1.3182567e-6	0.57	7868.1247	1661.3478	-0.22697099	0.0043808242	0.0044316022	-8.5986626	25.093864	0	728.6846268679027
19.054607	1.4454398e-6	0.57	7177.4941	1516.2692	-0.22510328	0.0043808704	0.0044365474	-7.8617388	22.888558	0	730.4421108807353
19.054607	1.5848932e-6	0.57	6547.6316	1383.9477	-0.22323558	0.0043809215	0.0044419701	-7.1894915	20.877296	0	732.1998412241137
19.054607	1.7378008e-6	0.57	5973.1904	1263.2611	-0.2213679	0.0043809762	0.0044479146	-6.5762301	19.043003	0	733.957832227349
19.054607	1.9054607e-6	0.57	5449.2942	1153.1855	-0.21950024	0.004381037	0.0044544335	-6.0167645	17.37011	0	735.716112060489
19.054607	2.0892961e-6	0.57	4971.4954	1052.7873	-0.2176326	0.0043811039	0.0044615816	-5.5063611	15.844414	0	737.4747100717979
19.054607	2.2908677e-6	0.57	4535.7381	961.21497	-0.21576499	0.0043811769	0.0044694189	-5.0407029	14.452964	0	739.2336489987563
19.054607	2.5118864e-6	0.57	4138.323	877.69196	-0.2138974	0.0043812572	0.0044780125	-4.6158529	13.183947	0	740.992974172574
19.054607	2.7542287e-6	0.57	3775.8766	801.51	-0.21202983	0.0043813453	0.0044874354	-4.2282202	12.026592	0	742.7527246885654
19.054607	3.0199517e-6	0.57	3445.322	732.02317	-0.2101623	0.0043814414	0.0044977668	-3.8745303	10.971073	0	744.5129241711613
19.054607	3.3113112e-6	0.57	3143.853	668.64238	-0.2082948	0.0043815472	0.0045090953	-3.5517963	10.008429	0	746.2736294659449
19.054607	3.6307805e-6	0.57	2868.9106	610.83036	-0.20642734	0.0043816627	0.0045215163	-3.2572945	9.1304896	0	748.0348822689468
19.054607	3.9810717e-6	0.57	2618.1607	558.09714	-0.20455992	0.0043817898	0.0045351361	-2.9885408	8.329801	0	749.7967395093716
19.054607	4.3651583e-6	0.57	2389.4748	509.99583	-0.20269254	0.0043819296	0.0045500703	-2.7432694	7.5995665	0	751.5592630970591
19.054607	4.7863009e-6	0.57	2180.9114	466.11888	-0.20082521	0.0043820815	0.0045664439	-2.5194141	6.933587	0	753.322510580387
19.054607	5.2480746e-6	0.57	1990.7001	426.09462	-0.19895794	0.0043822493	0.0045843982	-2.3150906	6.3262089	0	755.0865482372346
19.054607	5.7543994e-6	0.57	1817.2261	389.58403	-0.19709072	0.0043824328	0.0046040843	-2.12858	5.7722762	0	756.8514663852005
19.054607	6.3095734e-6	0.57	1659.0169	356.27798	-0.19522357	0.004382634	0.0046256694	-1.958315	5.2670866	0	758.6173357773138
19.054607	6.9183097e-6	0.57	1514.7294	325.89451	-0.19335649	0.0043828552	0.0046493374	-1.8028661	4.8063515	0	760.384254901633
19.054607	7.5857758e-6	0.57	1383.1387	298.17647	-0.19148948	0.004383097	0.004675288	-1.6609295	4.3861597	0	762.1523307079424
19.054607	8.3176377e-6	0.57	1263.1278	272.88934	-0.18962256	0.0043833619	0.0047037416	-1.5313161	4.0029441	0	763.9216624406508
19.054607	9.1201084e-6	0.57	1153.6779	249.81924	-0.18775573	0.0043836524	0.0047349398	-1.4129415	3.6534517	0	765.6923794891816
19.054607	0.00001	0.57	1053.8598	228.77112	-0.185889	0.0043839719	0.0047691486	-1.3048167	3.3347156	0	767.4646149147798
19.054607	0.000010964782	0.57	962.82627	209.56707	-0.18402238	0.0043843212	0.0048066559	-1.2060397	3.0440299	0	769.2385135072844
19.054607	0.000012022644	0.57	879.7994	192.04479	-0.18216778	0.0043868851	0.0048499619	-1.1157931	2.7789207	0	771.0042240311113
19.054607	0.000013182567	0.57	804.084	176.05644	-0.18030256	0.0043875159	0.004895264	-1.0333165	2.5371498	0	772.7809817548002
19.054607	0.000014454398	0.57	735.03273	161.46701	-0.1784376	0.004388206	0.0049449336	-0.95793043	2.3166587	0	774.5598342159483
19.054607	0.000015848932	0.57	672.05943	148.15344	-0.17657292	0.0043889639	0.0049993941	-0.88901085	2.1155759	0	776.34098937607
19.054607	0.000017378008	0.57	614.6295	136.00349	-0.17470854	0.0043897942	0.0050591052	-0.82598851	1.9321943	0	778.124674637228
19.054607	0.000019054607	0.57	562.25543	124.91479	-0.17284451	0.0043907046	0.0051245731	-0.76834429	1.7649572	0	779.9111141177036
19.054607	0.000020892961	0.57	514.49262	114.794	-0.17098084	0.0043917027	0.0051963519	-0.7156047	1.6124448	0	781.7005951713445
19.054607	0.000022908677	0.57	470.93559	105.55599	-0.16911758	0.0043927966	0.0052750485	-0.66733787	1.4733625	0	783.4933958465435
19.054607	0.000025118864	0.57	431.21459	97.123108	-0.16725476	0.0043939956	0.005361328	-0.62314994	1.3465296	0	785.2898441521412
19.054607	0.000027542287	0.57	394.99242	89.424557	-0.16539243	0.0043953103	0.0054559198	-0.58268165	1.2308695	0	787.0902837416811
19.054607	0.000030199517	0.57	361.9616	82.395762	-0.16353063	0.0043967511	0.0055596212	-0.54560532	1.1254002	0	788.8951040283573
19.054607	0.000033113112	0.57	331.84173	75.977839	-0.16166942	0.0043983306	0.0056733065	-0.51162206	1.0292265	0	790.704716871581
19.054607	0.000036307805	0.57	304.3771	70.117085	-0.15980884	0.0044000611	0.0057979313	-0.48045924	0.94153182	0	792.5195964624675
19.054607	0.000039810717	0.57	279.33457	64.764531	-0.15794896	0.0044019592	0.0059345444	-0.45186818	0.86157182	0	794.3402387186416
19.054607	0.000043651583	0.57	256.50154	59.87552	-0.15608985	0.0044040372	0.0060842872	-0.42562202	0.78866766	0	796.1671891498665
19.054607	0.000047863009	0.57	235.68419	55.409328	-0.15423158	0.0044063166	0.0062484155	-0.40151383	0.72220044	0	798.0010545330825
19.054607	0.000052480746	0.57	216.70577	51.328824	-0.15237423	0.0044088138	0.0064282946	-0.37935481	0.66160587	0	799.8424908925481
19.054607	0.000057543994	0.57	199.40518	47.600148	-0.15051788	0.00441155	0.0066254182	-0.3589727	0.60636954	0	801.6922230174303
19.054607	0.000063095734	0.57	183.63552	44.192425	-0.14866264	0.004414548	0.0068414159	-0.34021035	0.55602248	0	803.5510202914861
19.054607	0.000069183097	0.57	169.26292	41.077508	-0.1468086	0.0044178334	0.0070780642	-0.32292434	0.51013723	0	805.4197495624054
19.054607	0.000075857758	0.57	156.16532	38.22973	-0.14495588	0.0044214324	0.0073372952	-0.3069838	0.46832416	0	807.2993328228474
19.054607	0.000083176377	0.57	144.23152	35.625694	-0.1431046	0.0044253752	0.0076212108	-0.29226927	0.43022822	0	809.1907830022435
19.054607	0.000091201084	0.57	133.36015	33.244068	-0.14125489	0.0044296937	0.0079320902	-0.27867173	0.39552582	0	811.0951985877853
19.054607	0.0001	0.57	123.45886	31.065408	-0.13940691	0.004434425	0.0082724042	-0.26609162	0.36392219	0	813.0137524915149
19.054607	0.00010964782	0.57	114.44352	29.071988	-0.13756082	0.0044396055	0.0086448168	-0.25443802	0.33514876	0	814.9477210941684
19.054607	0.00012022644	0.57	106.23749	27.247652	-0.13571678	0.0044452791	0.009052201	-0.24362791	0.3089609	0	816.8984927069032
19.054607	0.00013182567	0.57	98.770959	25.577675	-0.13387499	0.0044514917	0.0094976374	-0.23358544	0.28513585	0	818.8675292389089
19.054607	0.00014454398	0.57	91.980363	24.048635	-0.13203566	0.004458293	0.0099844158	-0.22424126	0.26347074	0	820.8563952412524
19.054607	0.00015848932	0.57	85.807814	22.6483	-0.13019901	0.0044657383	0.010516034	-0.215532	0.24378086	0	822.866757264215
19.054607	0.00017378008	0.57	80.200602	21.365519	-0.12836528	0.0044738869	0.011096183	-0.20739971	0.22589806	0	824.9003665354655
19.054607	0.00019054607	0.57	75.110725	20.190128	-0.12653473	0.0044828033	0.011728731	-0.19979135	0.20966921	0	826.9590503912249
19.054607	0.00020892961	0.57	70.494463	19.112857	-0.12470767	0.0044925585	0.012417697	-0.19265838	0.19495488	0	829.0446699507247
19.054607	0.00022908677	0.57	66.311973	18.125253	-0.12288438	0.0045032296	0.013167207	-0.18595636	0.18162804	0	831.159171824249
19.054607	0.00025118864	0.57	62.526929	17.219595	-0.12106522	0.0045149	0.013981441	-0.17964458	0.16957288	0	833.3044563766746
19.054607	0.00027542287	0.57	59.106164	16.388834	-0.11925054	0.0045276594	0.014864566	-0.17368572	0.15868371	0	835.4824264063523
19.054607	0.00030199517	0.57	56.01936	15.626521	-0.11744073	0.0045416067	0.015820658	-0.16804559	0.14886395	0	837.6948983937646
19.054607	0.00033113112	0.57	53.238741	14.926747	-0.11563622	0.0045568483	0.016853601	-0.16269283	0.14002513	0	839.9435484107486
19.054607	0.00036307805	0.57	50.738795	14.284091	-0.11383745	0.0045734985	0.017966984	-0.15759868	0.13208605	0	842.229885145573
19.054607	0.00039810717	0.57	48.49602	13.693566	-0.11204491	0.0045916811	0.019163995	-0.15273681	0.12497194	0	844.5551555517882
19.054607	0.00043651583	0.57	46.488688	13.150575	-0.11025912	0.0046115318	0.020447311	-0.14808309	0.11861368	0	846.920304728784
19.054607	0.00047863009	0.57	44.696641	12.650871	-0.10848064	0.0046331923	0.021819002	-0.14361542	0.11294722	0	849.325915113121
19.054607	0.00052480746	0.57	43.101115	12.190518	-0.10671005	0.0046568215	0.023280462	-0.13931365	0.10791294	0	851.7721883167317
19.054607	0.00057543994	0.57	41.684595	11.765868	-0.10494799	0.004682582	0.02483236	-0.13515937	0.10345522	0	854.2588813022473
19.054607	0.00063095734	0.57	40.430702	11.373534	-0.10319512	0.0047106561	0.026474647	-0.13113585	0.099522096	0	856.7853477144765
19.054607	0.00069183097	0.57	39.324113	11.010369	-0.10145214	0.0047412331	0.028206585	-0.1272279	0.096064977	0	859.3505346201139
19.054607	0.00075857758	0.57	38.350511	10.67346	-0.09971981	0.0047745197	0.030026835	-0.1234218	0.093038483	0	861.9530108450317
19.054607	0.00083176377	0.57	37.496555	10.360112	-0.097998899	0.0048107311	0.031933562	-0.11970517	0.090400353	0	864.591071125098
19.054607	0.00091201084	0.57	36.749865	10.067846	-0.096290228	0.0048501007	0.033924587	-0.1160669	0.088111395	0	867.2627771088087
19.054607	0.001	0.57	36.099015	9.7943878	-0.09459465	0.0048928717	0.035997522	-0.11249704	0.086135463	0	869.9660484481483
19.054607	0.0010964782	0.57	35.533533	9.537667	-0.09291305	0.0049393066	0.038149933	-0.10898671	0.084439433	0	872.6987500936068
19.054607	0.0012022644	0.57	35.043881	9.2958079	-0.091246344	0.0049896749	0.040379465	-0.10552802	0.082993159	0	875.4587601777762
19.054607	0.0013182567	0.57	34.621443	9.0671223	-0.089595472	0.005044266	0.042683968	-0.10211397	0.081769411	0	878.2440440718908
19.054607	0.0014454398	0.57	34.258491	8.8501001	-0.087961398	0.0051033808	0.045061583	-0.098738358	0.080743763	0	881.0527004433217
19.054607	0.0015848932	0.57	33.948143	8.6433982	-0.0863451	0.0051673305	0.047510806	-0.095395693	0.079894464	0	883.8830049265732
19.054607	0.0017378008	0.57	33.684318	8.4458284	-0.084747568	0.0052364412	0.050030531	-0.092081124	0.07920227	0	886.7334350311606
19.054607	0.0019054607	0.57	33.461682	8.2563449	-0.083169795	0.0053110478	0.05262007	-0.088790358	0.078650267	0	889.6026893087442
19.054607	0.0020892961	0.57	33.275584	8.0740313	-0.081612773	0.0053914974	0.055279153	-0.085519589	0.078223672	0	892.489691111389
19.054607	0.0022908677	0.57	33.122003	7.8980875	-0.080077477	0.005478143	0.058007916	-0.082265439	0.07790964	0	895.3935971979852
19.054607	0.0025118864	0.57	32.997486	7.7278175	-0.078564868	0.0055713432	0.060806881	-0.079024894	0.07769707	0	898.313784204505
19.054607	0.0027542287	0.57	32.899097	7.5626177	-0.077075873	0.0056714598	0.06367693	-0.075795253	0.07757642	0	901.2498535109535
19.054607	0.0030199517	0.57	32.824359	7.4019659	-0.075611383	0.0057788626	0.06661928	-0.072574078	0.077539538	0	904.2016197316913
19.054607	0.0033113112	0.57	32.771211	7.2454114	-0.074172239	0.0058939102	0.069635441	-0.069359156	0.077579498	0	907.1691013761558
19.054607	0.0036307805	0.57	32.737965	7.0925663	-0.072759229	0.0060169638	0.072727203	-0.066148457	0.077690464	0	910.152516705378
19.054607	0.0039810717	0.57	32.723262	6.9430974	-0.07137307	0.0061483736	0.075896592	-0.062940098	0.077867558	0	913.1522770798592
19.054607	0.0043651583	0.57	32.726046	6.7967189	-0.070014407	0.0062884827	0.079145858	-0.059732316	0.078106749	0	916.1689814725103
19.054607	0.0047863009	0.57	32.745521	6.6531862	-0.068683802	0.0064376192	0.082477442	-0.056523436	0.078404752	0	919.203409130645
19.054607	0.0052480746	0.57	32.781134	6.5122907	-0.067381728	0.0065960856	0.085893953	-0.053311854	0.078758939	0	922.2565128956724
19.054607	0.0057543994	0.57	32.832543	6.3738542	-0.066108563	0.0067641778	0.089398165	-0.050096004	0.079167265	0	925.3294232338301
19.054607	0.0063095734	0.57	32.899595	6.2377253	-0.064864587	0.0069421586	0.092992983	-0.046874347	0.079628195	0	928.4234328461048
19.054607	0.0069183097	0.57	32.982307	6.1037748	-0.063649977	0.007130262	0.096681437	-0.043645351	0.080140643	0	931.5399981527456
19.054607	0.0075857758	0.57	33.080844	5.9718928	-0.062464812	0.0073287043	0.10046668	-0.040407472	0.080703925	0	934.6807335243325
19.054607	0.0083176377	0.57	33.195498	5.8419854	-0.061309066	0.0075376544	0.10435195	-0.037159149	0.081317694	0	937.8473975077485
19.054607	0.0091201084	0.57	33.326674	5.7139716	-0.060182623	0.0077572734	0.10834062	-0.033898778	0.081981916	0	941.0419055103116
19.054607	0.01	0.57	33.474871	5.5877812	-0.059085274	0.0079876646	0.11243613	-0.03062472	0.082696804	0	944.2662962009185
19.054607	0.010964782	0.57	33.640661	5.4633521	-0.058016731	0.0082289197	0.11664201	-0.027335276	0.083462795	0	947.5227306738307
19.054607	0.012022644	0.57	33.824674	5.3406279	-0.056976643	0.008481095	0.12096192	-0.024028693	0.084280502	0	950.813498837719
19.054607	0.013182567	0.57	34.027578	5.2195559	-0.055964608	0.0087442292	0.12539957	-0.02070315	0.085150676	0	954.1409652967
19.054607	0.014454398	0.57	34.250058	5.100085	-0.054980198	0.0090183324	0.12995881	-0.017356764	0.086074164	0	957.5075940609038
19.054607	0.015848932	0.57	34.492795	4.982163	-0.054022987	0.0093034158	0.13464358	-0.013987582	0.087051861	0	960.9158954610328
19.054607	0.017378008	0.57	34.756437	4.8657348	-0.05309259	0.0095994865	0.13945797	-0.010593585	0.088084666	0	964.368421638447
19.054607	0.019054607	0.57	35.041574	4.7507388	-0.052188703	0.009906573	0.14440618	-0.0071726946	0.089173411	0	967.8677075404607
19.054607	0.020892961	0.57	35.348696	4.6371041	-0.051311165	0.010224733	0.14949259	-0.0037227786	0.090318788	0	971.4162501559483
19.054607	0.022908677	0.57	35.678157	4.5247456	-0.050460021	0.010554076	0.15472176	-0.00024166352	0.091521246	0	975.0164493227267
19.054607	0.025118864	0.57	36.030123	4.4135581	-0.04963561	0.010894786	0.16009844	0.0032728505	0.092780852	0	978.6705304013274
19.054607	0.027542287	0.57	36.404518	4.3034082	-0.048838646	0.011247136	0.16562761	0.0068229677	0.094097103	0	982.3804895922924
19.054607	0.030199517	0.57	36.800986	4.1941222	-0.0480703	0.011611499	0.17131451	0.010410873	0.095468663	0	986.1480329583852
19.054607	0.033113112	0.57	37.218875	4.0854707	-0.047332222	0.011988304	0.17716454	0.014038699	0.096893009	0	989.974502198925
19.054607	0.036307805	0.57	37.657325	3.977147	-0.046626436	0.012377967	0.18318326	0.017708504	0.098365985	0	993.8609733041508
19.054607	0.039810717	0.57	38.115541	3.8687437	-0.045954939	0.012780686	0.18937615	0.021422262	0.099881299	0	997.8085047883857
19.054607	0.043651583	0.57	38.593439	3.7597306	-0.04531878	0.013196082	0.19574829	0.0251819	0.10143012	0	1001.8188316530054
19.054607	0.047863009	0.57	39.092849	3.6494501	-0.044716346	0.01362264	0.20230375	0.028989412	0.10300112	0	1005.8956491145746
19.054607	0.052480746	0.57	39.619342	3.5371514	-0.044140794	0.0140571	0.20904503	0.032847141	0.10458141	0	1010.046725499407
19.054607	0.057543994	0.57	40.184375	3.4220769	-0.043577062	0.014494044	0.21597267	0.036758246	0.10615877	0	1014.2865017390195
19.054607	0.063095734	0.57	40.806945	3.3035869	-0.042999619	0.014926188	0.22308547	0.040727374	0.1077249	0	1018.6383232136629
19.054607	0.069183097	0.57	41.513873	3.1812626	-0.042372115	0.015345645	0.23038185	0.044761415	0.10927817	0	1023.1354969512563
19.054607	0.075857758	0.57	42.338672	3.0549242	-0.041649073	0.015746041	0.23786191	0.048870236	0.11082482	0	1027.820805120446
19.054607	0.083176377	0.57	43.319947	2.924549	-0.040778245	0.016124651	0.24552958	0.053067248	0.11237779	0	1032.7454428519793
19.054607	0.091201084	0.57	44.50056	2.7901392	-0.039702022	0.01648411	0.25339438	0.057369853	0.11395453	0	1037.96863602352
19.054607	0.1	0.57	45.927785	2.6516017	-0.038357319	0.016833226	0.26147218	0.061799872	0.11557498	0	1043.5581563293722
19.054607	0.10964782	0.57	47.652575	2.508699	-0.036675694	0.01718655	0.2697848	0.066383964	0.11726097	0	1049.5899952513046
19.054607	0.12022644	0.57	49.720988	2.3611553	-0.034590779	0.017561496	0.27835718	0.071153677	0.11903846	0	1056.1398665355687
19.054607	0.13182567	0.57	52.141271	2.2091253	-0.032071136	0.017971346	0.28721031	0.076143644	0.12094523	0	1063.2485494793548
19.054607	0.14454398	0.57	54.820303	2.0542582	-0.029191941	0.018420512	0.29635656	0.081384849	0.12304569	0	1070.8520360992375
19.054607	0.15848932	0.57	54.725648	1.9084051	-0.029272106	0.018969788	0.30586493	0.086825196	0.1255281	0	1075.868944785533
19.054607	0.17378008	0.57	58.197744	1.7902142	-0.025759306	0.019761577	0.31588625	0.092354723	0.12866069	0	1084.5363904159722
19.054607	0.19054607	0.57	62.403669	1.6750313	-0.021323293	0.02068242	0.32631577	0.098259106	0.13222914	0	1094.289867420127
19.054607	0.20892961	0.57	67.545609	1.563768	-0.015682827	0.021750445	0.33718059	0.10461983	0.13633342	0	1105.4081326229928
19.054607	0.22908677	0.57	73.867444	1.4574239	-0.0084878982	0.022979135	0.3485034	0.1115403	0.1410972	0	1118.2321947853507
19.054607	0.25118864	0.57	81.643988	1.3570183	0.0006739069	0.024374827	0.36030008	0.11914947	0.14667012	0	1133.158047911396
19.054607	0.27542287	0.57	91.15715	1.2634898	0.012255348	0.025934342	0.37257724	0.12760382	0.15322769	0	1150.614629327493
19.054607	0.30199517	0.57	102.65888	1.1775745	0.026709869	0.027643585	0.38533088	0.13708637	0.16096786	0	1171.0258370012536
19.054607	0.33113112	0.57	116.32713	1.099696	0.044439321	0.029478068	0.39854694	0.14780156	0.17010366	0	1194.7617064374688
19.054607	0.36307805	0.57	132.22751	1.0299009	0.065742271	0.031405823	0.41220417	0.15996601	0.18085264	0	1222.09138035869
19.054607	0.39810717	0.57	150.29499	0.96786571	0.090779668	0.033392177	0.42627895	0.17379642	0.19342496	0	1253.1534311243017
19.054607	0.43651583	0.57	170.3431	0.91297371	0.1195691	0.0354049	0.44075045	0.18949696	0.20801229	0	1287.9532282563223
19.054607	0.47863009	0.57	192.09649	0.8644291	0.15200677	0.037418147	0.45560457	0.20724886	0.22477969	0	1326.3856964033996
19.054607	0.52480746	0.57	215.23418	0.82137258	0.1879058	0.039414293	0.47083579	0.22720374	0.24386137	0	1368.2722952236395
19.054607	0.57543994	0.57	239.43016	0.78297071	0.22703718	0.041383808	0.48644705	0.24948123	0.26536006	0	1413.3994293798519
19.054607	0.63095734	0.57	264.38324	0.74847018	0.2691633	0.04332387	0.50244838	0.27417	0.28934915	0	1461.5492203382857
19.054607	0.69183097	0.57	289.83423	0.7172217	0.3140607	0.045236541	0.51885512	0.30133119	0.31587661	0	1512.5199281973373
19.054607	0.75857758	0.57	315.57255	0.68868295	0.36153258	0.047127023	0.53568612	0.33100288	0.34496954	0	1566.1367416560297
19.054607	0.83176377	0.57	341.43576	0.66240995	0.41141389	0.049002273	0.55296241	0.36320491	0.37663874	0	1622.2558481171527
19.054607	0.91201084	0.57	367.30514	0.63804355	0.4635717	0.050870018	0.57070626	0.39794335	0.41088302	0	1680.7642779073267
19.054607	1.	0.57	393.09955	0.615295	0.51790296	0.052738111	0.58894046	0.43521456	0.44769289	0	1741.577414053001
19.054607	1.0964782	0.57	418.76897	0.59393261	0.57433131	0.054614154	0.60768806	0.4750085	0.4870536	0	1804.6358558233992
19.054607	1.2022644	0.57	444.28851	0.57377026	0.63280344	0.056505303	0.62697211	0.51731153	0.52894773	0	1869.9018594690651
19.054607	1.3182567	0.57	469.65315	0.55465794	0.6932858	0.058418185	0.64681564	0.56210856	0.57335716	0	1937.3562363408123
19.054607	1.4454398	0.57	494.87328	0.53647416	0.75576157	0.060358888	0.66724163	0.60938481	0.62026463	0	2006.9954899401464
19.054607	1.5848932	0.57	519.9711	0.51911991	0.8202281	0.062332987	0.68827308	0.65912711	0.66965498	0	2078.829448120628
19.054607	1.7378008	0.57	544.9777	0.50251394	0.8866948	0.064345596	0.70993308	0.71132494	0.72151604	0	2152.879318093643
19.054607	1.9054607	0.57	569.9307	0.48658905	0.95518133	0.066401422	0.73224485	0.76597114	0.77583928	0	2229.1760072372053
19.054607	2.0892961	0.57	594.87246	0.47128918	1.0257162	0.068504824	0.75523183	0.82306252	0.83262038	0	2307.758855904171
19.054607	2.2908677	0.57	619.84861	0.45656715	1.0983355	0.070659867	0.7789178	0.88260019	0.89185948	0	2388.674508440516
19.054607	2.5118864	0.57	644.90701	0.44238289	1.1730822	0.072870369	0.80332685	0.94458984	0.95356147	0	2471.9762394230193
19.054607	2.7542287	0.57	670.09684	0.42870206	1.2500051	0.075139951	0.82848353	1.009042	1.0177361	0	2557.723047448486
19.054607	3.0199517	0.57	695.468	0.41549492	1.3291583	0.077472069	0.85441287	1.0759718	1.0843982	0	2645.9791678751562
19.054607	3.3113112	0.57	721.07066	0.4027355	1.410601	0.079870057	0.88114046	1.1453997	1.1535673	0	2736.813927753815
19.054607	3.6307805	0.57	746.95486	0.39040086	1.4943965	0.08233715	0.90869246	1.2173508	1.2252682	0	2830.3008116179635
19.054607	3.9810717	0.57	773.17033	0.37847062	1.5806126	0.084876514	0.93709567	1.2918551	1.2995305	0	2926.5178747986192
19.054607	4.3651583	0.57	799.76626	0.36692645	1.6693209	0.087491263	0.96637761	1.3689474	1.3763888	0	3025.547128572748
19.054607	4.7863009	0.57	826.79128	0.35575176	1.7605967	0.090184488	0.99656648	1.4486675	1.4558823	0	3127.4744247846415
19.054607	5.2480746	0.57	854.29334	0.3449314	1.8545189	0.092959263	1.0276913	1.5310598	1.5380551	0	3232.3894368666943
19.054607	5.7543994	0.57	882.31974	0.33445146	1.95117	0.095818669	1.0597818	1.6161734	1.6229562	0	3340.385600928659
19.054607	6.3095734	0.57	910.91711	0.32429904	2.0506358	0.098765803	1.0928688	1.704062	1.7106389	0	3451.5600373978955
19.054607	6.9183097	0.57	940.13149	0.31446215	2.1530056	0.10180379	1.1269837	1.7947838	1.8011611	0	3566.013465800793
19.054607	7.5857758	0.57	970.00834	0.30492956	2.258372	0.10493579	1.1621589	1.8884014	1.8945855	0	3683.8502417816453
19.054607	8.3176377	0.57	1000.5926	0.29569069	2.3668309	0.10816502	1.198428	1.9849822	1.9909789	0	3805.1784642131006
19.054607	9.1201084	0.57	1031.929	0.28673556	2.4784818	0.11149475	1.2358253	2.0845976	2.0904126	0	3930.109989289642
19.054607	10.	0.57	1064.0615	0.2780547	2.5934273	0.11492831	1.2743862	2.1873234	2.1929624	0	4058.7601749658115