2.0892961	1.e-12	0.51	1.4837019e6	2.8518984e6	-0.048484417	-0.0012829816	-0.0012829787	-1579.1856	4762.5343	0	893.3962961828818
2.0892961	1.0964782e-12	0.51	1.3531524e6	2.6009643e6	-0.048279608	-0.0012829817	-0.0012829785	-1440.2387	4343.4832	0	893.5887277184859
2.0892961	1.2022644e-12	0.51	1.2340899e6	2.3721097e6	-0.048074799	-0.0012829816	-0.0012829781	-1313.5176	3961.304	0	893.7811593499252
2.0892961	1.3182567e-12	0.51	1.1255035e6	2.1633918e6	-0.04786999	-0.0012829817	-0.0012829778	-1197.9466	3612.7524	0	893.9735909334469
2.0892961	1.4454398e-12	0.51	1.0264716e6	1.9730388e6	-0.047665181	-0.0012829816	-0.0012829774	-1092.5446	3294.8696	0	894.1660225648864
2.0892961	1.5848932e-12	0.51	936153.41	1.7994348e6	-0.047460372	-0.0012829816	-0.0012829771	-996.41672	3004.957	0	894.358454148408
2.0892961	1.7378008e-12	0.51	853782.24	1.641106e6	-0.047255563	-0.0012829816	-0.0012829766	-908.74707	2740.5536	0	894.5508858277653
2.0892961	1.9054607e-12	0.51	778658.84	1.4967085e6	-0.047050755	-0.0012829816	-0.0012829761	-828.79139	2499.4148	0	894.7433165675573
2.0892961	2.0892961e-12	0.51	710145.49	1.3650163e6	-0.046845946	-0.0012829816	-0.0012829756	-755.87092	2279.4936	0	894.9357482469145
2.0892961	2.2908677e-12	0.51	647660.57	1.2449117e6	-0.046641137	-0.0012829817	-0.001282975	-689.36664	2078.9231	0	895.1281799741897
2.0892961	2.5118864e-12	0.51	590673.64	1.1353749e6	-0.046436328	-0.0012829816	-0.0012829744	-628.714	1896.0007	0	895.3206117014648
2.0892961	2.7542287e-12	0.51	538700.95	1.0354762e6	-0.046231519	-0.0012829816	-0.0012829736	-573.39811	1729.1734	0	895.5130435245757
2.0892961	3.0199517e-12	0.51	491301.28	944367.46	-0.04602671	-0.0012829816	-0.0012829729	-522.94941	1577.0251	0	895.7054752997686
2.0892961	3.3113112e-12	0.51	448072.28	861275.31	-0.045821902	-0.0012829816	-0.001282972	-476.93963	1438.2642	0	895.8979062312319
2.0892961	3.6307805e-12	0.51	408646.96	785494.36	-0.045617093	-0.0012829816	-0.0012829711	-434.97819	1311.7128	0	896.0903381022606
2.0892961	3.9810717e-12	0.51	372690.64	716381.3	-0.045412284	-0.0012829816	-0.0012829701	-396.70889	1196.2965	0	896.282770021207
2.0892961	4.3651583e-12	0.51	339898.09	653349.43	-0.045207475	-0.0012829817	-0.001282969	-361.80685	1091.0356	0	896.4752019880714
2.0892961	4.7863009e-12	0.51	309990.93	595863.68	-0.045002666	-0.0012829816	-0.0012829677	-329.9758	995.03655	0	896.6676340507714
2.0892961	5.2480746e-12	0.51	282715.27	543436.04	-0.044797857	-0.0012829816	-0.0012829665	-300.94551	907.48435	0	896.8600660655536
2.0892961	5.7543994e-12	0.51	257839.57	495621.46	-0.044593049	-0.0012829816	-0.001282965	-274.46956	827.63579	0	897.0524972845238
2.0892961	6.3095734e-12	0.51	235152.67	452014.03	-0.04438824	-0.0012829816	-0.0012829634	-250.32318	754.81305	0	897.2449294909775
2.0892961	6.9183097e-12	0.51	214461.97	412243.58	-0.044183431	-0.0012829816	-0.0012829616	-228.30141	688.39792	0	897.4373617932664
2.0892961	7.5857758e-12	0.51	195591.82	375972.49	-0.043978622	-0.0012829816	-0.0012829597	-208.2173	627.82659	0	897.6297941434734
2.0892961	8.3176377e-12	0.51	178382.05	342892.85	-0.043773813	-0.0012829816	-0.0012829576	-189.90035	572.58489	0	897.822226589516
2.0892961	9.1201084e-12	0.51	162686.54	312723.86	-0.043569005	-0.0012829816	-0.0012829552	-173.19508	522.20386	0	898.0146582397467
2.0892961	1.e-11	0.51	148372.07	285209.4	-0.043364196	-0.0012829816	-0.0012829527	-157.95967	476.25581	0	898.2070908774608
2.0892961	1.0964782e-11	0.51	135317.12	260115.9	-0.043159387	-0.0012829816	-0.0012829499	-144.0648	434.3507	0	898.3995236589283
2.0892961	1.2022644e-11	0.51	123410.87	237230.36	-0.042954578	-0.0012829817	-0.0012829469	-131.3925	396.13278	0	898.5919565362315
2.0892961	1.3182567e-11	0.51	112552.23	216358.48	-0.042749769	-0.0012829816	-0.0012829435	-119.83521	361.27762	0	898.7843896052059
2.0892961	1.4454398e-11	0.51	102649.04	197323.1	-0.04254496	-0.0012829816	-0.0012829398	-109.29482	329.48934	0	898.9768228179339
2.0892961	1.5848932e-11	0.51	93617.221	179962.62	-0.042340152	-0.0012829816	-0.0012829358	-99.681856	300.49808	0	899.16925523485
2.0892961	1.7378008e-11	0.51	85380.105	164129.66	-0.042135343	-0.0012829816	-0.0012829314	-90.914707	274.05774	0	899.3616887830028
2.0892961	1.9054607e-11	0.51	77867.764	149689.82	-0.041930534	-0.0012829816	-0.0012829265	-82.918954	249.94386	0	899.5541225707445
2.0892961	2.0892961e-11	0.51	71016.429	136520.52	-0.041725725	-0.0012829816	-0.0012829212	-75.626723	227.95174	0	899.746556550158
2.0892961	2.2908677e-11	0.51	64767.937	124509.98	-0.041520916	-0.0012829816	-0.0012829153	-68.976111	207.89469	0	899.9389908170783
2.0892961	2.5118864e-11	0.51	59069.244	113556.22	-0.041316107	-0.0012829816	-0.001282909	-62.910662	189.60244	0	900.1314252756699
2.0892961	2.7542287e-11	0.51	53871.975	103566.26	-0.041111299	-0.0012829816	-0.0012829019	-57.37889	172.91972	0	900.3238591780389
2.0892961	3.0199517e-11	0.51	49132.009	94455.306	-0.04090649	-0.0012829816	-0.0012828943	-52.333835	157.70489	0	900.5162942595623
2.0892961	3.3113112e-11	0.51	44809.108	86146.008	-0.040701681	-0.0012829816	-0.0012828858	-47.732673	143.8288	0	900.7087297723461
2.0892961	3.6307805e-11	0.51	40866.576	78567.83	-0.040496872	-0.0012829816	-0.0012828766	-43.536345	131.17366	0	900.901165620555
2.0892961	3.9810717e-11	0.51	37270.945	71656.442	-0.040292063	-0.0012829816	-0.0012828664	-39.70923	119.63203	0	901.0936019479421
2.0892961	4.3651583e-11	0.51	33991.689	65353.172	-0.040087255	-0.0012829816	-0.0012828554	-36.218842	109.10594	0	901.2860377191066
2.0892961	4.7863009e-11	0.51	31000.973	59604.514	-0.039882446	-0.0012829816	-0.0012828432	-33.035552	99.506033	0	901.4784750048503
2.0892961	5.2480746e-11	0.51	28273.407	54361.668	-0.039677637	-0.0012829816	-0.0012828298	-30.132339	90.750814	0	901.670912865608
2.0892961	5.7543994e-11	0.51	25785.838	49580.126	-0.039472828	-0.0012829816	-0.0012828152	-27.484559	82.765958	0	901.8633513013798
2.0892961	6.3095734e-11	0.51	23517.147	45219.301	-0.039268019	-0.0012829816	-0.0012827991	-25.069738	75.483684	0	902.055790455919
2.0892961	6.9183097e-11	0.51	21448.077	41242.173	-0.039063211	-0.0012829816	-0.0012827815	-22.867376	68.84217	0	902.2482293896604
2.0892961	7.5857758e-11	0.51	19561.063	37614.98	-0.038858402	-0.0012829816	-0.0012827622	-20.858781	62.785038	0	902.4406700775703
2.0892961	8.3176377e-11	0.51	17840.085	34306.934	-0.038653593	-0.0012829816	-0.001282741	-19.026901	57.260868	0	902.633111675919
2.0892961	9.1201084e-11	0.51	16270.535	31289.952	-0.038448784	-0.0012829816	-0.0012827178	-17.35619	52.222765	0	902.8255542326244
2.0892961	1.e-10	0.51	14839.088	28538.423	-0.038243976	-0.0012829816	-0.0012826923	-15.832465	47.62796	0	903.0179969518746
2.0892961	1.0964782e-10	0.51	13533.593	26028.99	-0.038039167	-0.0012829816	-0.0012826645	-14.442793	43.437448	0	903.2104417128003
2.0892961	1.2022644e-10	0.51	12342.967	23740.353	-0.037834358	-0.0012829815	-0.0012826338	-13.175379	39.615656	0	903.402887863343
2.0892961	1.3182567e-10	0.51	11257.104	21653.083	-0.037629549	-0.0012829816	-0.0012826003	-12.019466	36.13014	0	903.5953353555853
2.0892961	1.4454398e-10	0.51	10266.785	19749.461	-0.037424741	-0.0012829815	-0.0012825635	-10.965243	32.951312	0	903.7877834895505
2.0892961	1.5848932e-10	0.51	9363.6026	18013.33	-0.037219932	-0.0012829816	-0.0012825231	-10.003762	30.052187	0	903.9802342881231
2.0892961	1.7378008e-10	0.51	8539.8909	16429.951	-0.037015123	-0.0012829815	-0.0012824789	-9.1268624	27.408153	0	904.1726869075734
2.0892961	1.9054607e-10	0.51	7788.657	14985.885	-0.036810315	-0.0012829815	-0.0012824304	-8.3271028	24.996765	0	904.3651406479252
2.0892961	2.0892961e-10	0.51	7103.5234	13668.872	-0.036605506	-0.0012829815	-0.0012823772	-7.5976953	22.797553	0	904.5575975799804
2.0892961	2.2908677e-10	0.51	6478.6742	12467.735	-0.036400697	-0.0012829815	-0.0012823189	-6.9324497	20.791848	0	904.7500569558451
2.0892961	2.5118864e-10	0.51	5908.805	11372.276	-0.036195889	-0.0012829815	-0.0012822549	-6.3257205	18.962623	0	904.9425181234608
2.0892961	2.7542287e-10	0.51	5389.078	10373.197	-0.03599108	-0.0012829815	-0.0012821849	-5.7723589	17.294351	0	905.1349831057121
2.0892961	3.0199517e-10	0.51	4915.0815	9462.019	-0.035786272	-0.0012829815	-0.001282108	-5.2676691	15.772868	0	905.3274504547283
2.0892961	3.3113112e-10	0.51	4482.7914	8631.0062	-0.035581463	-0.0012829815	-0.0012820237	-4.8073685	14.385259	0	905.5199222892295
2.0892961	3.6307805e-10	0.51	4088.5383	7873.1056	-0.035376655	-0.0012829814	-0.0012819313	-4.3875514	13.119745	0	905.7123970655099
2.0892961	3.9810717e-10	0.51	3728.9751	7181.8839	-0.035171846	-0.0012829815	-0.00128183	-4.0046555	11.965582	0	905.9048770460427
2.0892961	4.3651583e-10	0.51	3401.0496	6551.474	-0.034967038	-0.0012829814	-0.0012817188	-3.6554324	10.912974	0	906.0973608308757
2.0892961	4.7863009e-10	0.51	3101.978	5976.5253	-0.034762229	-0.0012829814	-0.001281597	-3.336919	9.9529828	0	906.2898506345641
2.0892961	5.2480746e-10	0.51	2829.2214	5452.1578	-0.034557421	-0.0012829814	-0.0012814634	-3.0464134	9.077461	0	906.4823451529917
2.0892961	5.7543994e-10	0.51	2580.4645	4973.9208	-0.034352612	-0.0012829814	-0.0012813169	-2.7814511	8.2789755	0	906.6748467923851
2.0892961	6.3095734e-10	0.51	2353.5955	4537.7554	-0.034147804	-0.0012829813	-0.0012811563	-2.5397845	7.5507482	0	906.8673542486274
2.0892961	6.9183097e-10	0.51	2146.6886	4139.9598	-0.033942996	-0.0012829814	-0.0012809803	-2.319364	6.886597	0	907.0598690842161
2.0892961	7.5857758e-10	0.51	1957.9871	3777.1577	-0.033738188	-0.0012829813	-0.0012807872	-2.11832	6.2808839	0	907.252392113754
2.0892961	8.3176377e-10	0.51	1785.8894	3446.2702	-0.03353338	-0.0012829813	-0.0012805754	-1.9349478	5.7284671	0	907.4449241039267
2.0892961	9.1201084e-10	0.51	1628.9345	3144.4891	-0.033328571	-0.0012829813	-0.0012803433	-1.7676922	5.2246569	0	907.6374667609849
2.0892961	1.e-9	0.51	1485.7898	2869.2534	-0.033123764	-0.0012829812	-0.0012800888	-1.6151353	4.7651767	0	907.830018272507
2.0892961	1.0964782e-9	0.51	1355.2404	2618.2273	-0.032918956	-0.0012829812	-0.0012798097	-1.4759837	4.3461257	0	908.0225825113813
2.0892961	1.2022644e-9	0.51	1236.1779	2389.2808	-0.032714148	-0.0012829811	-0.0012795037	-1.3490579	3.9639467	0	908.2151596401527
2.0892961	1.3182567e-9	0.51	1127.5916	2180.4709	-0.03250934	-0.0012829811	-0.0012791681	-1.2332822	3.6153954	0	908.4077509526024
2.0892961	1.4454398e-9	0.51	1028.5598	1990.026	-0.032304533	-0.001282981	-0.0012788002	-1.1276755	3.2975129	0	908.600356802947
2.0892961	1.5848932e-9	0.51	938.24171	1816.3301	-0.032099725	-0.0012829809	-0.0012783967	-1.0313429	3.0076006	0	908.7929806516053
2.0892961	1.7378008e-9	0.51	855.87065	1657.9094	-0.031894918	-0.0012829809	-0.0012779544	-0.94346857	2.7431976	0	908.9856221528174
2.0892961	1.9054607e-9	0.51	780.74736	1513.42	-0.031690111	-0.0012829808	-0.0012774694	-0.86330815	2.5020591	0	909.1782841149443
2.0892961	2.0892961e-9	0.51	712.23413	1381.6359	-0.031485304	-0.0012829808	-0.0012769376	-0.79018295	2.2821384	0	909.3709685026167
2.0892961	2.2908677e-9	0.51	649.74935	1261.4394	-0.031280497	-0.0012829807	-0.0012763545	-0.72347392	2.0815683	0	909.5636774721376
2.0892961	2.5118864e-9	0.51	592.76258	1151.8108	-0.03107569	-0.0012829806	-0.0012757151	-0.66261651	1.8986463	0	909.7564134193983
2.0892961	2.7542287e-9	0.51	540.79005	1051.8202	-0.030870883	-0.0012829805	-0.0012750141	-0.60709585	1.7318196	0	909.9491788840442
2.0892961	3.0199517e-9	0.51	493.39057	960.61965	-0.030666077	-0.0012829805	-0.0012742454	-0.55644235	1.5796719	0	910.1419758494973
2.0892961	3.3113112e-9	0.51	450.16177	877.43568	-0.030461271	-0.0012829803	-0.0012734025	-0.51022775	1.4409117	0	910.3348083699823
2.0892961	3.6307805e-9	0.51	410.73667	801.56293	-0.030256466	-0.0012829802	-0.0012724784	-0.46806147	1.3143609	0	910.5276788601825
2.0892961	3.9810717e-9	0.51	374.78059	732.3581	-0.03005166	-0.00128298	-0.001271465	-0.42958731	1.1989454	0	910.7205930805726
2.0892961	4.3651583e-9	0.51	341.9883	669.23447	-0.029846855	-0.0012829799	-0.0012703539	-0.39448038	1.0936854	0	910.9135531771203
2.0892961	4.7863009e-9	0.51	312.08143	611.65699	-0.02964205	-0.0012829797	-0.0012691357	-0.36244442	0.99768726	0	911.1065645936667
2.0892961	5.2480746e-9	0.51	284.80609	559.13765	-0.029437246	-0.0012829795	-0.0012677998	-0.33320919	0.91013608	0	911.2996314699373
2.0892961	5.7543994e-9	0.51	259.93074	511.23139	-0.029232442	-0.0012829793	-0.0012663351	-0.30652826	0.83028865	0	911.4927600643764
2.0892961	6.3095734e-9	0.51	237.24422	467.53233	-0.029027639	-0.0012829791	-0.0012647291	-0.28217688	0.75746713	0	911.685955427148
2.0892961	6.9183097e-9	0.51	216.55394	427.67027	-0.028822836	-0.0012829788	-0.0012629682	-0.25995005	0.69105334	0	911.8792250146427
2.0892961	7.5857758e-9	0.51	197.68425	391.30761	-0.028618034	-0.0012829786	-0.0012610374	-0.23966085	0.6304835	0	912.0725750749701
2.0892961	8.3176377e-9	0.51	180.47498	358.13645	-0.028413232	-0.0012829783	-0.0012589203	-0.22113876	0.57524341	0	912.26601440622
2.0892961	9.1201084e-9	0.51	164.78003	327.87598	-0.028208431	-0.001282978	-0.001256599	-0.2042283	0.52486416	0	912.4595506461194
2.0892961	1.e-8	0.51	150.46617	300.27009	-0.028003631	-0.0012829777	-0.0012540537	-0.18878764	0.47891806	0	912.6531932823989
2.0892961	1.0964782e-8	0.51	137.41188	275.08523	-0.027798831	-0.0012829772	-0.0012512629	-0.17468745	0.43701508	0	912.8469535569579
2.0892961	1.2022644e-8	0.51	125.50635	252.10838	-0.027594033	-0.0012829768	-0.0012482028	-0.16180978	0.3987995	0	913.0408409951104
2.0892961	1.3182567e-8	0.51	114.64852	231.14526	-0.027389235	-0.0012829763	-0.0012448477	-0.15004704	0.36394691	0	913.2348697908697
2.0892961	1.4454398e-8	0.51	104.7462	212.01871	-0.027184439	-0.0012829758	-0.0012411688	-0.13930111	0.33216145	0	913.429051865441
2.0892961	1.5848932e-8	0.51	95.715339	194.56715	-0.026979644	-0.0012829753	-0.0012371351	-0.12948252	0.30317327	0	913.623403012918
2.0892961	1.7378008e-8	0.51	87.479275	178.6432	-0.02677485	-0.0012829747	-0.0012327124	-0.12050964	0.27673632	0	913.8179396211992
2.0892961	1.9054607e-8	0.51	79.968089	164.11246	-0.026570057	-0.001282974	-0.0012278631	-0.11230806	0.25262615	0	914.0126797073901
2.0892961	2.0892961e-8	0.51	73.118019	150.85238	-0.026365267	-0.0012829733	-0.0012225461	-0.10480988	0.2306381	0	914.2076410865893
2.0892961	2.2908677e-8	0.51	66.870914	138.75116	-0.026160478	-0.0012829725	-0.0012167165	-0.097953183	0.21058551	0	914.4028471530344
2.0892961	2.5118864e-8	0.51	61.173743	127.70686	-0.02595569	-0.0012829716	-0.0012103246	-0.091681512	0.19229815	0	914.598321721888
2.0892961	2.7542287e-8	0.51	55.978141	117.62651	-0.025750905	-0.0012829707	-0.0012033166	-0.085943359	0.17562079	0	914.7940886938139
2.0892961	3.0199517e-8	0.51	51.240003	108.42531	-0.025546123	-0.0012829696	-0.0011956329	-0.080691754	0.16041184	0	914.9901766278404
2.0892961	3.3113112e-8	0.51	46.919107	100.02594	-0.025341342	-0.0012829685	-0.0011872088	-0.075883853	0.1465422	0	915.1866184059356
2.0892961	3.6307805e-8	0.51	42.978772	92.357875	-0.025136565	-0.0012829671	-0.0011779728	-0.071480581	0.13389412	0	915.3834454706548
2.0892961	3.9810717e-8	0.51	39.385549	85.356803	-0.02493179	-0.0012829658	-0.0011678471	-0.067446296	0.12236023	0	915.5806969812019
2.0892961	4.3651583e-8	0.51	36.108935	78.964076	-0.024727019	-0.0012829642	-0.0011567461	-0.063748491	0.11184264	0	915.7784120761115
2.0892961	4.7863009e-8	0.51	33.121113	73.126205	-0.024522252	-0.0012829626	-0.0011445764	-0.060357512	0.10225204	0	915.9766355106392
2.0892961	5.2480746e-8	0.51	30.39672	67.794414	-0.024317488	-0.0012829608	-0.0011312354	-0.057246314	0.093507018	0	916.1754173880471
2.0892961	5.7543994e-8	0.51	27.912628	62.924223	-0.024112729	-0.0012829587	-0.0011166111	-0.054390223	0.085533344	0	916.3748094971772
2.0892961	6.3095734e-8	0.51	25.647749	58.475069	-0.023907975	-0.0012829565	-0.0011005811	-0.051766733	0.078263324	0	916.5748704894571
2.0892961	6.9183097e-8	0.51	23.582856	54.409965	-0.023703226	-0.0012829542	-0.0010830112	-0.049355312	0.071635239	0	916.7756646706182
2.0892961	7.5857758e-8	0.51	21.700418	50.695182	-0.023498483	-0.0012829515	-0.001063755	-0.047137228	0.065592821	0	916.9772612528025
2.0892961	8.3176377e-8	0.51	19.984454	47.299966	-0.023293746	-0.0012829486	-0.0010426525	-0.045095391	0.060084771	0	917.1797369045426
2.0892961	9.1201084e-8	0.51	18.420395	44.196274	-0.023089016	-0.0012829453	-0.0010195293	-0.043214207	0.055064325	0	917.3831742549737
2.0892961	1.e-7	0.51	16.994963	41.358537	-0.022884294	-0.0012829419	-0.00099419529	-0.041479446	0.050488859	0	917.5876634611222
2.0892961	1.0964782e-7	0.51	15.696053	38.763445	-0.022679581	-0.001282938	-0.00096644336	-0.03987812	0.04631952	0	917.7933028260469
2.0892961	1.2022644e-7	0.51	14.512636	36.389745	-0.022474876	-0.0012829338	-0.00093604858	-0.038398378	0.042520904	0	918.0002010708943
2.0892961	1.3182567e-7	0.51	13.43466	34.21806	-0.022270182	-0.0012829293	-0.0009027669	-0.037029396	0.039060746	0	918.2084723204391
2.0892961	1.4454398e-7	0.51	12.452967	32.230731	-0.022065499	-0.0012829242	-0.00086633366	-0.035761296	0.035909654	0	918.4182433940182
2.0892961	1.5848932e-7	0.51	11.559217	30.411656	-0.021860829	-0.0012829186	-0.00082646343	-0.034585053	0.03304085	0	918.6296491843711
2.0892961	1.7378008e-7	0.51	10.745809	28.746161	-0.021656172	-0.0012829125	-0.00078284877	-0.033492425	0.030429944	0	918.8428370100828
2.0892961	1.9054607e-7	0.51	10.005826	27.220871	-0.02145153	-0.0012829058	-0.00073515975	-0.032475881	0.028054726	0	919.057963087329
2.0892961	2.0892961e-7	0.51	9.3329658	25.823596	-0.021246904	-0.0012828983	-0.0006830438	-0.031528537	0.025894973	0	919.2751954204473
2.0892961	2.2908677e-7	0.51	8.7214931	24.543225	-0.021042297	-0.0012828903	-0.00062612678	-0.030644098	0.023932271	0	919.4947104705216
2.0892961	2.5118864e-7	0.51	8.1661858	23.36963	-0.020837709	-0.0012828814	-0.00056401302	-0.029816807	0.022149859	0	919.716697834041
2.0892961	2.7542287e-7	0.51	7.6622895	22.29358	-0.020633144	-0.0012828716	-0.00049628842	-0.029041394	0.020532476	0	919.94135218049
2.0892961	3.0199517e-7	0.51	7.2054756	21.306655	-0.020428603	-0.0012828607	-0.00042252276	-0.028313036	0.019066226	0	920.1688787224039
2.0892961	3.3113112e-7	0.51	6.791801	20.401178	-0.02022409	-0.0012828487	-0.00034227463	-0.027627313	0.017738454	0	920.3994852156271
2.0892961	3.6307805e-7	0.51	6.4176721	19.570138	-0.020019606	-0.0012828356	-0.00025509673	-0.026980175	0.016537621	0	920.6333850570607
2.0892961	3.9810717e-7	0.51	6.0798103	18.807132	-0.019815157	-0.001282821	-0.00016054323	-0.026367909	0.015453204	0	920.8707862413867
2.0892961	4.3651583e-7	0.51	5.77522	18.106305	-0.019610744	-0.001282805	-0.000058179313	-0.025787109	0.014475585	0	921.1118961839229
2.0892961	4.7863009e-7	0.51	5.5011594	17.46229	-0.019406373	-0.0012827873	0.000052409536	-0.025234649	0.013595961	0	921.3569078738823
2.0892961	5.2480746e-7	0.51	5.2551125	16.870166	-0.019202049	-0.0012827675	0.00017160534	-0.024707662	0.012806252	0	921.6059996705808
2.0892961	5.7543994e-7	0.51	5.0347634	16.325405	-0.018997778	-0.0012827456	0.00029974576	-0.024203517	0.012099019	0	921.8593277364596
2.0892961	6.3095734e-7	0.51	4.8379737	15.82383	-0.018793566	-0.0012827213	0.00043711244	-0.0237198	0.011467393	0	922.1170213918276
2.0892961	6.9183097e-7	0.51	4.6627614	15.361585	-0.018589421	-0.0012826942	0.00058392057	-0.023254301	0.010905005	0	922.3791762345469
2.0892961	7.5857758e-7	0.51	4.5072833	14.935093	-0.018385354	-0.0012826638	0.00074031032	-0.022804996	0.010405928	0	922.645849095825
2.0892961	8.3176377e-7	0.51	4.3698205	14.541037	-0.018181374	-0.0012826299	0.00090634217	-0.022370036	0.0099646303	0	922.9170605002788
2.0892961	9.1201084e-7	0.51	4.2487663	14.17633	-0.017977496	-0.0012825917	0.0010819966	-0.021947733	0.0095759398	0	923.1927870008672
2.0892961	1.e-6	0.51	4.142618	13.838104	-0.017773736	-0.0012825486	0.0012671773	-0.021536555	0.0092350116	0	923.4729674148796
2.0892961	1.0964782e-6	0.51	4.0499709	13.523695	-0.017570114	-0.0012825	0.0014617201	-0.02113511	0.0089373095	0	923.757504284303
2.0892961	1.2022644e-6	0.51	3.9695145	13.230627	-0.017366654	-0.0012824446	0.0016654054	-0.020742139	0.0086785919	0	924.0462698320079
2.0892961	1.3182567e-6	0.51	3.9000298	12.956613	-0.017163386	-0.0012823814	0.0018779727	-0.020356507	0.0084549017	0	924.3391110450794
2.0892961	1.4454398e-6	0.51	3.8403878	12.699536	-0.016960346	-0.0012823088	0.0020991372	-0.019977195	0.0082625567	0	924.635857629177
2.0892961	1.5848932e-6	0.51	3.7895469	12.457451	-0.016757582	-0.0012822251	0.0023286066	-0.019603291	0.0080981392	0	924.9363244213384
2.0892961	1.7378008e-6	0.51	3.7465504	12.228565	-0.016555151	-0.0012821282	0.0025660951	-0.019233978	0.0079584814	0	925.2403209171721
2.0892961	1.9054607e-6	0.51	3.7105218	12.011231	-0.016353125	-0.0012820153	0.0028113378	-0.018868532	0.0078406456	0	925.5476525336342
2.0892961	2.0892961e-6	0.51	3.6806596	11.80393	-0.016151594	-0.001281883	0.0030641002	-0.018506309	0.0077418973	0	925.8581223425247
2.0892961	2.2908677e-6	0.51	3.6562291	11.605254	-0.015950671	-0.0012817271	0.0033241856	-0.018146742	0.0076596723	0	926.1715299185819
2.0892961	2.5118864e-6	0.51	3.6365548	11.413884	-0.0157505	-0.0012815423	0.0035914406	-0.017789331	0.0075915369	0	926.4876664584399
2.0892961	2.7542287e-6	0.51	3.6210094	11.228568	-0.015551257	-0.0012813223	0.0038657567	-0.017433641	0.0075351424	0	926.8063146077486
2.0892961	3.0199517e-6	0.51	3.6090042	11.048097	-0.015353161	-0.0012810596	0.0041470716	-0.017079297	0.0074881759	0	927.1272387488866
2.0892961	3.3113112e-6	0.51	3.5999776	10.871281	-0.015156482	-0.001280744	0.004435369	-0.016725979	0.0074483104	0	927.450177388602
2.0892961	3.6307805e-6	0.51	3.5933854	10.696926	-0.014961548	-0.0012803645	0.0047306753	-0.016373422	0.0074131575	0	927.7748349997685
2.0892961	3.9810717e-6	0.51	3.5886926	10.523819	-0.01476875	-0.001279907	0.005033059	-0.016021414	0.0073802312	0	928.1008770360494
2.0892961	4.3651583e-6	0.51	3.5853682	10.350719	-0.014578549	-0.0012793554	0.0053426266	-0.015669795	0.0073469304	0	928.4279213903105
2.0892961	4.7863009e-6	0.51	3.5828855	10.176361	-0.014391468	-0.0012786907	0.005659521	-0.015318456	0.0073105513	0	928.7555451444568
2.0892961	5.2480746e-6	0.51	3.5807284	9.9994804	-0.014208091	-0.0012778922	0.0059839169	-0.014967341	0.0072683407	0	929.083283304778
2.0892961	5.7543994e-6	0.51	3.5784063	9.8188603	-0.014029034	-0.001276936	0.0063160195	-0.014616441	0.0072175988	0	929.4106554264115
2.0892961	6.3095734e-6	0.51	3.575476	9.6333949	-0.013854928	-0.0012757979	0.00665606	-0.014265795	0.0071558282	0	929.7371794296508
2.0892961	6.9183097e-6	0.51	3.5715687	9.4421708	-0.013686373	-0.0012744513	0.0070042942	-0.013915482	0.0070809196	0	930.0624141491028
2.0892961	7.5857758e-6	0.51	3.5664189	9.2445494	-0.013523902	-0.0012728704	0.0073609982	-0.013565611	0.0069913431	0	930.3859910975717
2.0892961	8.3176377e-6	0.51	3.5598873	9.0402348	-0.013367944	-0.0012710298	0.0077264672	-0.013216311	0.0068863113	0	930.7076486549656
2.0892961	9.1201084e-6	0.51	3.5519742	8.8293126	-0.013218794	-0.0012689043	0.0081010136	-0.012867721	0.0067658774	0	931.0272593448158
2.0892961	0.00001	0.51	3.5428191	8.6122478	-0.0130766	-0.0012664711	0.0084849643	-0.012519969	0.0066309462	0	931.344840754846
2.0892961	0.000010964782	0.51	3.5326863	8.3898445	-0.012941366	-0.0012637082	0.0088786611	-0.012173164	0.0064831959	0	931.6605529099478
2.0892961	0.000012022644	0.51	3.5219403	8.1631734	-0.012812963	-0.0012605944	0.0092824596	-0.011827387	0.0063249289	0	931.9746874098647
2.0892961	0.000013182567	0.51	3.5110146	7.9334837	-0.012691157	-0.0012571089	0.00969673	-0.011482675	0.0061588833	0	932.2876415047058
2.0892961	0.000014454398	0.51	3.5003806	7.7021116	-0.012575638	-0.0012532315	0.010121855	-0.011139024	0.0059880359	0	932.5998898412761
2.0892961	0.000015848932	0.51	3.4902475	7.4801105	-0.012470405	-0.0012489023	0.010558271	-0.010800434	0.0058329657	0	932.9078842111633
2.0892961	0.000017378008	0.51	3.4818152	7.2499317	-0.012366156	-0.0012441952	0.011006295	-0.010458718	0.0056628364	0	933.2205163507832
2.0892961	0.000019054607	0.51	3.4750484	7.0217923	-0.012267048	-0.0012390314	0.011466407	-0.010117751	0.0054964941	0	933.534110492574
2.0892961	0.000020892961	0.51	3.4703443	6.7967377	-0.0121727	-0.0012333861	0.011939049	-0.009777349	0.0053364457	0	933.8492364077546
2.0892961	0.000022908677	0.51	3.4680566	6.5756688	-0.012082749	-0.0012272325	0.012424677	-0.0094372924	0.0051849151	0	934.1664536638652
2.0892961	0.000025118864	0.51	3.4684932	6.3593391	-0.011996855	-0.0012205414	0.012923763	-0.0090973289	0.0050438296	0	934.4863078852959
2.0892961	0.000027542287	0.51	3.4719173	6.1483583	-0.011914706	-0.0012132811	0.013436796	-0.0087571782	0.0049148258	0	934.8093265346383
2.0892961	0.000030199517	0.51	3.4785508	5.9432025	-0.011836021	-0.001205417	0.01396428	-0.0084165361	0.0047992664	0	935.1360151356334
2.0892961	0.000033113112	0.51	3.4885772	5.7442259	-0.011760545	-0.0011969119	0.014506737	-0.0080750788	0.0046982626	0	935.4668634085334
2.0892961	0.000036307805	0.51	3.5021465	5.5516744	-0.011688054	-0.0011877262	0.015064704	-0.0077324661	0.0046127016	0	935.8023391347384
2.0892961	0.000039810717	0.51	3.5193791	5.3656994	-0.01161835	-0.0011778152	0.01563874	-0.0073883445	0.0045432737	0	936.1428962088737
2.0892961	0.000043651583	0.51	3.5403698	5.1863708	-0.011551261	-0.0011671316	0.01622942	-0.0070423502	0.0044904979	0	936.4889717637182
2.0892961	0.000047863009	0.51	3.5651921	5.0136887	-0.011486643	-0.0011556225	0.016837342	-0.0066941109	0.0044547469	0	936.8409876453227
2.0892961	0.000052480746	0.51	3.5939006	4.8475946	-0.011424373	-0.0011432296	0.017463122	-0.0063432481	0.0044362688	0	937.1993545940759
2.0892961	0.000057543994	0.51	3.6265341	4.6879796	-0.011364354	-0.0011298898	0.018107401	-0.0059893792	0.0044352046	0	937.5644709011253
2.0892961	0.000063095734	0.51	3.663118	4.5346927	-0.011306512	-0.0011155296	0.018770844	-0.0056321177	0.0044516046	0	937.936724747895
2.0892961	0.000069183097	0.51	3.7036651	4.3875458	-0.011250798	-0.0011000667	0.019454145	-0.0052710758	0.0044854381	0	938.3164947228474
2.0892961	0.000075857758	0.51	3.7481761	4.2463165	-0.011197193	-0.0010834043	0.020158028	-0.0049058648	0.0045365999	0	938.7041456028337
2.0892961	0.000083176377	0.51	3.7966389	4.1107486	-0.011145712	-0.0010654257	0.020883257	-0.0045360967	0.0046049078	0	939.1000293866166
2.0892961	0.000091201084	0.51	3.8490248	3.9805457	-0.011096412	-0.0010459835	0.021630644	-0.0041613853	0.0046900891	0	939.5044816117743
2.0892961	0.0001	0.51	3.9052815	3.8553567	-0.011049419	-0.0010248799	0.022401074	-0.0037813483	0.0047917454	0	939.9178079658931
2.0892961	0.00010964782	0.51	3.9653183	3.7347429	-0.01100496	-0.0010018275	0.023195538	-0.0033956104	0.0049092765	0	940.3402700333622
2.0892961	0.00012022644	0.51	4.0289758	3.618111	-0.010963446	-0.00097636368	0.024015227	-0.0030038079	0.0050417264	0	940.7720523542118
2.0892961	0.00013182567	0.51	4.0959675	3.5045759	-0.010925642	-0.00094766813	0.024861708	-0.0026055991	0.0051874691	0	941.2131870333903
2.0892961	0.00014454398	0.51	4.165767	3.3926969	-0.010893013	-0.00091413944	0.025737353	-0.0022006795	0.0053436051	0	941.6634342186549
2.0892961	0.00015848932	0.51	4.2374261	3.2800479	-0.010868383	-0.000872554	0.026646181	-0.0017888167	0.0055049725	0	942.1220663951594
2.0892961	0.00017378008	0.51	4.3094541	3.1629322	-0.010856718	-0.00081688433	0.027595034	-0.001369897	0.0056634638	0	942.5876962194993
2.0892961	0.00019054607	0.51	4.380268	3.0374664	-0.010864541	-0.00073857082	0.028593315	-0.00094396605	0.0058103984	0	943.0587006207197
2.0892961	0.00020892961	0.51	4.4494398	2.9025733	-0.010896408	-0.00063074702	0.029648757	-0.00051117799	0.005943227	0	943.5345044250998
2.0892961	0.00022908677	0.51	4.5182512	2.761282	-0.010951889	-0.00049268422	0.030762981	-0.00007164211	0.0060685757	0	944.0162883938111
2.0892961	0.00025118864	0.51	4.5887039	2.6182909	-0.011027097	-0.00032862807	0.031932663	0.0003747033	0.0061969541	0	944.5061118286048
2.0892961	0.00027542287	0.51	4.6625073	2.4775033	-0.011117579	-0.00014419834	0.033153129	0.00082810789	0.0063372916	0	945.0059189344772
2.0892961	0.00030199517	0.51	4.7408169	2.341409	-0.011219625	0.000055524753	0.034420277	0.0012889606	0.0064955137	0	945.5172299093732
2.0892961	0.00033113112	0.51	4.8243454	2.2113722	-0.011330407	0.00026641915	0.03573099	0.0017577412	0.0066751334	0	946.0412082452527
2.0892961	0.00036307805	0.51	4.9135192	2.088029	-0.011447799	0.0004852173	0.037083038	0.0022349838	0.0068780998	0	946.5787828903774
2.0892961	0.00039810717	0.51	5.0085952	1.9715812	-0.011570189	0.00070933749	0.038474906	0.0027212557	0.0071054286	0	947.1307424689235
2.0892961	0.00043651583	0.51	5.1097338	1.8619818	-0.011696341	0.00093674389	0.03990566	0.0032171438	0.0073576025	0	947.6978007311048
2.0892961	0.00047863009	0.51	5.2170435	1.7590473	-0.011825311	0.0011658513	0.041374849	0.0037232482	0.0076348129	0	948.2806285171861
2.0892961	0.00052480746	0.51	5.3306067	1.6625232	-0.011956383	0.0013954538	0.042882436	0.0042401778	0.0079371034	0	948.8798808263591
2.0892961	0.00057543994	0.51	5.4504948	1.5721229	-0.01208903	0.0016246713	0.044428744	0.004768549	0.0082644529	0	949.4962075841638
2.0892961	0.00063095734	0.51	5.5767758	1.4875487	-0.012222884	0.0018529059	0.046014419	0.0053089848	0.0086168226	0	950.1302640998491
2.0892961	0.00069183097	0.51	5.7095193	1.4085042	-0.012357718	0.002079813	0.047640395	0.0058621164	0.0089941841	0	950.7827112073085
2.0892961	0.00075857758	0.51	5.8487967	1.3346991	-0.012493425	0.0023052616	0.049307859	0.0064285802	0.0093965288	0	951.45421822471
2.0892961	0.00083176377	0.51	5.994682	1.2658532	-0.012630013	0.0025293257	0.051018245	0.0070090203	0.0098238774	0	952.1454647772539
2.0892961	0.00091201084	0.51	6.1472504	1.2016973	-0.012767604	0.0027522788	0.052773227	0.0076040883	0.010276283	0	952.8571383824897
2.0892961	0.001	0.51	6.306575	1.1419732	-0.012906442	0.0029745977	0.054574727	0.0082144426	0.01075383	0	953.5899307672191
2.0892961	0.0010964782	0.51	6.4727238	1.0864342	-0.01304691	0.0031969923	0.056424942	0.0088407489	0.011256635	0	954.3445348327009
2.0892961	0.0012022644	0.51	6.6457525	1.0348435	-0.013189559	0.0034204442	0.05832639	0.0094836793	0.011784844	0	955.1216394494584
2.0892961	0.0013182567	0.51	6.8256944	0.98697243	-0.013335148	0.0036462527	0.06028195	0.01014391	0.012338624	0	955.9219110417987
2.0892961	0.0014454398	0.51	7.0125474	0.9425952	-0.013484683	0.0038760852	0.062294921	0.010822119	0.012918153	0	956.7459852162856
2.0892961	0.0015848932	0.51	7.2062529	0.90147979	-0.013639438	0.004111963	0.064369005	0.011518982	0.013523588	0	957.5944388848347
2.0892961	0.0017378008	0.51	7.4066746	0.86337201	-0.013800931	0.0043561489	0.066508197	0.012235163	0.014155029	0	958.4677601046678
2.0892961	0.0019054607	0.51	7.6135819	0.82797326	-0.013970793	0.0046108426	0.068716484	0.012971312	0.014812462	0	959.3663269286942
2.0892961	0.0020892961	0.51	7.8266602	0.7949168	-0.014150484	0.0048776289	0.070997291	0.013728048	0.015495692	0	960.2904087772787
2.0892961	0.0022908677	0.51	8.0455834	0.76376102	-0.014340884	0.0051568052	0.073352816	0.014505961	0.016204324	0	961.2402320668787
2.0892961	0.0025118864	0.51	8.2701792	0.7340279	-0.014541879	0.0054469347	0.075783577	0.015305612	0.016937858	0	962.2161521223184
2.0892961	0.0027542287	0.51	8.5006608	0.70530569	-0.01475221	0.0057450815	0.078288657	0.016127566	0.017695942	0	963.2189124498462
2.0892961	0.0030199517	0.51	8.737789	0.67738174	-0.014969741	0.0060477571	0.080866648	0.01697243	0.018478712	0	964.2498452779635
2.0892961	0.0033113112	0.51	8.9828067	0.65031541	-0.015192015	0.006351986	0.083516719	0.017840913	0.019287009	0	965.310860921544
2.0892961	0.0036307805	0.51	9.2371289	0.62438067	-0.015416723	0.0066556336	0.086238947	0.018733861	0.020122286	0	966.4041657337121
2.0892961	0.0039810717	0.51	9.5019769	0.59991097	-0.015641775	0.0069567819	0.089033694	0.019652246	0.020986258	0	967.5318968686042
2.0892961	0.0043651583	0.51	9.7781709	0.57714967	-0.015865072	0.0072527849	0.091900664	0.020597145	0.021880543	0	968.6958846371049
2.0892961	0.0047863009	0.51	10.066125	0.55617767	-0.016084215	0.0075396093	0.094838247	0.021569694	0.022806457	0	969.8976115793798
2.0892961	0.0052480746	0.51	10.365972	0.53692262	-0.016296442	0.0078118892	0.097843576	0.022571051	0.023764997	0	971.1382989706578
2.0892961	0.0057543994	0.51	10.677715	0.51921475	-0.016498863	0.0080636816	0.10091329	0.023602387	0.024756956	0	972.4190516364386
2.0892961	0.0063095734	0.51	11.001346	0.50285033	-0.016688882	0.0082895041	0.10404455	0.024664863	0.025783043	0	973.7409483010961
2.0892961	0.0069183097	0.51	11.33692	0.48764013	-0.016864604	0.0084853067	0.10723605	0.025759649	0.026844006	0	975.1051436340708
2.0892961	0.0075857758	0.51	11.684581	0.47343295	-0.017025012	0.0086488794	0.11048841	0.026887922	0.027940687	0	976.5128902638886
2.0892961	0.0083176377	0.51	12.04456	0.46011898	-0.017169899	0.0087797325	0.11380405	0.028050877	0.029074036	0	977.9655422921307
2.0892961	0.0091201084	0.51	12.417167	0.44762225	-0.017299664	0.0088786879	0.11718679	0.029249735	0.030245105	0	979.464555293438
2.0892961	0.01	0.51	12.802773	0.4358898	-0.017415064	0.0089473729	0.12064135	0.030485753	0.031455034	0	981.0114797385511
2.0892961	0.010964782	0.51	13.201797	0.42488212	-0.01751702	0.0089878085	0.12417295	0.031760225	0.032705028	0	982.607951598657
2.0892961	0.012022644	0.51	13.614695	0.41456659	-0.017606493	0.0090021719	0.12778706	0.033074489	0.033996354	0	984.2556890569117
2.0892961	0.013182567	0.51	14.041954	0.40491302	-0.017684415	0.0089926206	0.13148922	0.034429928	0.035330326	0	985.9564710863485
2.0892961	0.014454398	0.51	14.48409	0.39589132	-0.017751665	0.0089612655	0.13528505	0.035827976	0.036708313	0	987.7121647912311
2.0892961	0.015848932	0.51	14.941642	0.38747029	-0.017809055	0.0089101259	0.13918017	0.037270115	0.038131726	0	989.5247002267015
2.0892961	0.017378008	0.51	15.415174	0.37961744	-0.017857372	0.0088412241	0.14318032	0.038757887	0.039602036	0	991.3960884384348
2.0892961	0.019054607	0.51	15.905274	0.3722998	-0.017897432	0.008756676	0.14729147	0.040292884	0.041120761	0	993.3284234357266
2.0892961	0.020892961	0.51	16.412538	0.3654877	-0.01793048	0.008659454	0.15152052	0.041876762	0.042689491	0	995.3238417901828
2.0892961	0.022908677	0.51	16.93749	0.35916803	-0.017960201	0.0085571476	0.15587916	0.043511228	0.044309904	0	997.3844827981488
2.0892961	0.025118864	0.51	17.480219	0.35337146	-0.018001453	0.0084783006	0.16040012	0.045198029	0.045983815	0	999.5120699043459
2.0892961	0.027542287	0.51	18.039971	0.34809492	-0.018090649	0.0084917444	0.16515659	0.046938873	0.047712926	0	1001.7074617775475
2.0892961	0.030199517	0.51	18.617044	0.34306313	-0.018244963	0.0086305704	0.17018611	0.048735425	0.049498289	0	1003.9725106768849
2.0892961	0.033113112	0.51	19.213788	0.33798648	-0.018440272	0.0088513077	0.17544983	0.050589488	0.051341063	0	1006.3112656592339
2.0892961	0.036307805	0.51	19.832549	0.33281187	-0.018653088	0.0091120661	0.18091062	0.052503111	0.053243179	0	1008.7280033441979
2.0892961	0.039810717	0.51	20.475028	0.32761198	-0.018870713	0.0093909953	0.18655152	0.054478539	0.055207045	0	1011.2265274681397
2.0892961	0.043651583	0.51	21.142477	0.32247865	-0.019086383	0.0096770796	0.19236657	0.056518165	0.057235255	0	1013.8103373482493
2.0892961	0.047863009	0.51	21.83593	0.31747827	-0.019295995	0.0099641168	0.19835478	0.058624486	0.059330457	0	1016.4828136346118
2.0892961	0.052480746	0.51	22.556365	0.31264239	-0.019496594	0.010248076	0.2045175	0.060800098	0.061495316	0	1019.2473796335807
2.0892961	0.057543994	0.51	23.304811	0.3079734	-0.019685679	0.010525938	0.21085725	0.063047697	0.063732532	0	1022.107592727484
2.0892961	0.063095734	0.51	22.878698	0.32415112	-0.020415542	0.0093415196	0.21592355	0.065355171	0.066075981	0	1023.8494999081165
2.0892961	0.069183097	0.51	21.364201	0.35860591	-0.021611147	0.0063109528	0.21933844	0.067513071	0.068310497	0	1024.3624921600413
2.0892961	0.075857758	0.51	19.982963	0.39002904	-0.022701552	0.0027791059	0.22245286	0.069481099	0.070348401	0	1024.830347974421
2.0892961	0.083176377	0.51	19.796794	0.39241046	-0.023464426	0.0007004808	0.22722757	0.071351471	0.072224067	0	1026.4015155544776
2.0892961	0.091201084	0.51	21.052724	0.3640918	-0.023777661	0.00079155628	0.23438551	0.073352072	0.074161697	0	1029.5371405267738
2.0892961	0.1	0.51	22.517741	0.33739789	-0.023848505	0.00088453029	0.24176554	0.075485795	0.076236062	0	1033.0069283987982
2.0892961	0.10964782	0.51	24.224948	0.31227114	-0.023624045	0.00098111888	0.24937625	0.0777747	0.078469092	0	1036.8647105337573
2.0892961	0.12022644	0.51	26.216272	0.28865895	-0.023038656	0.0010834714	0.25722687	0.080244496	0.080886382	0	1041.176568723717
2.0892961	0.13182567	0.51	28.546436	0.26651437	-0.022008695	0.0011941088	0.26532723	0.082925593	0.083518236	0	1046.0258013562168
2.0892961	0.14454398	0.51	31.288099	0.24579668	-0.020425496	0.0013158393	0.27368765	0.085854597	0.086401171	0	1051.5194523599293
2.0892961	0.15848932	0.51	34.538042	0.22647176	-0.018146683	0.0014516532	0.28231891	0.089076367	0.089579968	0	1057.7964588335078
2.0892961	0.17378008	0.51	38.423835	0.20851215	-0.014986313	0.0016045899	0.29123205	0.092646701	0.093110367	0	1065.0368165055738
2.0892961	0.19054607	0.51	43.109787	0.19189655	-0.010705141	0.0017775629	0.30043823	0.096635667	0.097062384	0	1073.4706593184342
2.0892961	0.20892961	0.51	48.800053	0.17660838	-0.0050034048	0.0019731236	0.30994853	0.10113138	0.1015241	0	1083.3849427443283
2.0892961	0.22908677	0.51	55.735731	0.16263301	0.0024800633	0.0021931536	0.31977361	0.10624384	0.10660549	0	1095.1241154806974
2.0892961	0.25118864	0.51	64.182235	0.14995331	0.01215768	0.0024384965	0.32992337	0.11210804	0.11244148	0	1109.080413834075
2.0892961	0.27542287	0.51	74.404156	0.13854364	0.024467791	0.0027085973	0.34040657	0.11888517	0.11919325	0	1125.66988983766
2.0892961	0.30199517	0.51	86.628431	0.12836321	0.039833775	0.0030012709	0.35123068	0.12676088	0.12704632	0	1145.2939149100146
2.0892961	0.33113112	0.51	101.00276	0.11935059	0.058614027	0.0033127454	0.36240184	0.13593952	0.13620491	0	1168.2921667296887
2.0892961	0.36307805	0.51	117.56185	0.1114218	0.081056282	0.0036380623	0.37392533	0.14663454	0.14688231	0	1194.8999385802394
2.0892961	0.39810717	0.51	136.21439	0.10447312	0.10727145	0.0039717753	0.38580627	0.15905668	0.15928899	0	1225.223891047677
2.0892961	0.43651583	0.51	156.75615	0.098388266	0.13723524	0.0043087271	0.39805037	0.17340192	0.17362071	0	1259.2439372583406
2.0892961	0.47863009	0.51	178.90381	0.093047551	0.17081436	0.0046446713	0.41066462	0.18984207	0.19004898	0	1296.8381901241137
2.0892961	0.52480746	0.51	202.33702	0.08833632	0.20780534	0.0049765907	0.42365757	0.20851898	0.20871541	0	1337.8195732579406
2.0892961	0.57543994	0.51	226.73631	0.084150873	0.24797319	0.0053027169	0.4370394	0.22954286	0.22972999	0	1381.9721762336094
2.0892961	0.63095734	0.51	251.81018	0.080401444	0.29108187	0.0056223513	0.4508217	0.25299383	0.25317262	0	1429.0797777227328
2.0892961	0.69183097	0.51	277.31011	0.077012768	0.33691388	0.0059356022	0.46501727	0.27892546	0.27909671	0	1478.944155744291
2.0892961	0.75857758	0.51	303.03576	0.073923106	0.38528056	0.0062431212	0.47963986	0.30736929	0.30753367	0	1531.3946406013702
2.0892961	0.83176377	0.51	328.83383	0.071082523	0.43602561	0.0065458917	0.49470395	0.33833956	0.33849763	0	1586.2913167319612
2.0892961	0.91201084	0.51	354.59334	0.068450957	0.48902455	0.0068450636	0.51022458	0.37183762	0.37198983	0	1643.5244338833568
2.0892961	1.	0.51	380.2395	0.065996379	0.54418215	0.0071418463	0.52621733	0.40785575	0.4080025	0	1703.0119828456357
2.0892961	1.0964782	0.51	405.72743	0.063693185	0.60142893	0.0074374404	0.54269819	0.44638041	0.44652204	0	1764.6963446797508
2.0892961	1.2022644	0.51	431.03628	0.061520864	0.66071764	0.0077329979	0.55968357	0.4873949	0.48753171	0	1828.5409882392871
2.0892961	1.3182567	0.51	456.16421	0.059462916	0.72201997	0.0080296028	0.57719028	0.53088145	0.53101367	0	1894.5273694168864
2.0892961	1.4454398	0.51	481.12409	0.057505994	0.78532361	0.0083282629	0.59523556	0.57682283	0.57695071	0	1962.6521831974746
2.0892961	1.5848932	0.51	505.94001	0.055639233	0.85062982	0.0086299109	0.61383707	0.62520368	0.62532741	0	2032.9250757226744
2.0892961	1.7378008	0.51	530.64448	0.05385372	0.9179514	0.008935408	0.63301291	0.67601143	0.67613118	0	2105.366746556711
2.0892961	1.9054607	0.51	555.27621	0.052142089	0.98731098	0.0092455506	0.65278167	0.72923699	0.72935294	0	2180.0073659885816
2.0892961	2.0892961	0.51	579.87833	0.050498197	1.0587397	0.0095610779	0.67316244	0.78487532	0.78498762	0	2256.8853395975766
2.0892961	2.2908677	0.51	604.49702	0.048916877	1.132276	0.009882679	0.69417482	0.84292577	0.84303455	0	2336.0461761709885
2.0892961	2.5118864	0.51	629.18047	0.047393745	1.207965	0.010211	0.71583895	0.90339231	0.9034977	0	2417.541919548945
2.0892961	2.7542287	0.51	653.9781	0.04592504	1.2858574	0.010546653	0.73817556	0.9662837	0.96638582	0	2501.4301390614414
2.0892961	3.0199517	0.51	678.93987	0.044507511	1.3660091	0.010890214	0.76120597	1.0316136	1.0317125	0	2587.7735724935064
2.0892961	3.3113112	0.51	704.11592	0.043138319	1.4484809	0.01124224	0.78495211	1.0994005	1.0994964	0	2676.6398537991627
2.0892961	3.6307805	0.51	729.55621	0.041814961	1.5333379	0.011603266	0.80943659	1.1696679	1.1697609	0	2768.1009829047052
2.0892961	3.9810717	0.51	755.31025	0.040535209	1.6206492	0.01197381	0.83468264	1.2424441	1.2425343	0	2862.233015088387
2.0892961	4.3651583	0.51	781.42703	0.039297065	1.710488	0.012354379	0.86071423	1.3177624	1.3178497	0	2959.116212438364
2.0892961	4.7863009	0.51	807.95486	0.038098722	1.802931	0.012745469	0.88755603	1.3956605	1.3957452	0	3058.8344609463456
2.0892961	5.2480746	0.51	834.94135	0.036938531	1.8980585	0.013147571	0.91523348	1.4761812	1.4762634	0	3161.4753980066134
2.0892961	5.7543994	0.51	862.43344	0.035814977	1.9959545	0.013561172	0.94377276	1.5593717	1.5594514	0	3267.1304919972063
2.0892961	6.3095734	0.51	890.47733	0.034726659	2.096706	0.013986757	0.97320087	1.6452839	1.6453612	0	3375.894422918446
2.0892961	6.9183097	0.51	919.11861	0.033672274	2.2004039	0.014424812	1.0035456	1.7339741	1.734049	0	3487.865913626394
2.0892961	7.5857758	0.51	948.40227	0.032650604	2.3071421	0.014875826	1.0348357	1.825503	1.8255756	0	3603.1469656843624
2.0892961	8.3176377	0.51	978.37278	0.031660502	2.4170181	0.015340289	1.0671007	1.9199359	1.9200063	0	3721.8433368500146
2.0892961	9.1201084	0.51	1009.0741	0.030700886	2.5301326	0.015818699	1.1003711	2.0173421	2.0174104	0	3844.064256293116
2.0892961	10.	0.51	1040.55	0.029770732	2.6465899	0.01631156	1.1346783	2.1177956	2.1178618	0	3969.9227668791864