2.7542287	1.e-12	0.05	4.4959667e6	6.5447182e6	-0.063193003	-0.010001775	-0.010001775	-4785.2196	14399.876	0	879.7215279573292
2.7542287	1.0964782e-12	0.05	4.1003706e6	5.968856e6	-0.062923012	-0.010001775	-0.010001775	-4364.1777	13132.843	0	879.975202145741
2.7542287	1.2022644e-12	0.05	3.7395826e6	5.4436634e6	-0.062653022	-0.010001775	-0.010001775	-3980.183	11977.296	0	880.2288753945875
2.7542287	1.3182567e-12	0.05	3.4105402e6	4.964682e6	-0.062383031	-0.010001775	-0.010001775	-3629.9756	10923.424	0	880.4825495829994
2.7542287	1.4454398e-12	0.05	3.1104498e6	4.5278458e6	-0.06211304	-0.010001775	-0.010001775	-3310.5826	9962.2813	0	880.7362237714111
2.7542287	1.5848932e-12	0.05	2.8367642e6	4.1294465e6	-0.06184305	-0.010001775	-0.010001775	-3019.2927	9085.7091	0	880.9898970202576
2.7542287	1.7378008e-12	0.05	2.5871599e6	3.766102e6	-0.061573059	-0.010001775	-0.010001775	-2753.6331	8286.2654	0	881.2435712086694
2.7542287	1.9054607e-12	0.05	2.3595182e6	3.4347278e6	-0.061303069	-0.010001775	-0.010001775	-2511.3487	7557.1644	0	881.4972444575159
2.7542287	2.0892961e-12	0.05	2.1519064e6	3.132511e6	-0.061033078	-0.010001775	-0.010001775	-2290.3827	6892.2162	0	881.7509186459278
2.7542287	2.2908677e-12	0.05	1.9625622e6	2.8568859e6	-0.060763087	-0.010001775	-0.010001775	-2088.8592	6285.7762	0	882.0045928343397
2.7542287	2.5118864e-12	0.05	1.7898782e6	2.6055129e6	-0.060493097	-0.010001775	-0.010001775	-1905.0677	5732.6965	0	882.2582660831862
2.7542287	2.7542287e-12	0.05	1.6323886e6	2.376258e6	-0.060223106	-0.010001775	-0.010001775	-1737.4477	5228.2817	0	882.5119402715981
2.7542287	3.0199517e-12	0.05	1.4887563e6	2.167175e6	-0.059953115	-0.010001775	-0.010001775	-1584.5765	4768.2499	0	882.7656144600099
2.7542287	3.3113112e-12	0.05	1.3577622e6	1.976489e6	-0.059683125	-0.010001775	-0.010001775	-1445.1562	4348.696	0	883.0192877088565
2.7542287	3.6307805e-12	0.05	1.238294e6	1.8025813e6	-0.059413134	-0.010001775	-0.010001775	-1318.0034	3966.0583	0	883.2729618972681
2.7542287	3.9810717e-12	0.05	1.1293378e6	1.6439756e6	-0.059143143	-0.010001775	-0.010001775	-1202.0387	3617.0885	0	883.52663608568
2.7542287	4.3651583e-12	0.05	1.0299686e6	1.4993255e6	-0.058873153	-0.010001775	-0.010001775	-1096.2775	3298.8243	0	883.7803093345266
2.7542287	4.7863009e-12	0.05	939342.76	1.367403e6	-0.058603162	-0.010001775	-0.010001774	-999.8222	3008.5639	0	884.0339835699167
2.7542287	5.2480746e-12	0.05	856691.01	1.2470883e6	-0.058333172	-0.010001775	-0.010001774	-911.85386	2743.8433	0	884.2876568187633
2.7542287	5.7543994e-12	0.05	781311.74	1.1373599e6	-0.058063181	-0.010001775	-0.010001774	-831.62578	2502.4152	0	884.5413310071751
2.7542287	6.3095734e-12	0.05	712565.02	1.0372865e6	-0.05779319	-0.010001775	-0.010001774	-758.45687	2282.2302	0	884.7950051955869
2.7542287	6.9183097e-12	0.05	649867.27	946018.38	-0.0575232	-0.010001775	-0.010001774	-691.726	2081.419	0	885.0486784444334
2.7542287	7.5857758e-12	0.05	592686.23	862780.88	-0.057253209	-0.010001775	-0.010001774	-630.8667	1898.2771	0	885.3023526328453
2.7542287	8.3176377e-12	0.05	540536.51	786867.38	-0.056983218	-0.010001775	-0.010001774	-575.36234	1731.2497	0	885.556026821257
2.7542287	9.1201084e-12	0.05	492975.4	717633.43	-0.056713228	-0.010001775	-0.010001774	-524.74174	1578.9189	0	885.8097000701035
2.7542287	1.e-11	0.05	449599.15	654491.31	-0.056443237	-0.010001775	-0.010001774	-478.57517	1439.9915	0	886.0633742585155
2.7542287	1.0964782e-11	0.05	410039.54	596905.	-0.056173247	-0.010001775	-0.010001774	-436.47074	1313.2882	0	886.3170475073618
2.7542287	1.2022644e-11	0.05	373960.75	544385.66	-0.055903256	-0.010001775	-0.010001773	-398.07103	1197.7335	0	886.5707217427521
2.7542287	1.3182567e-11	0.05	341056.49	496487.44	-0.055633265	-0.010001775	-0.010001773	-363.05004	1092.3463	0	886.824395931164
2.7542287	1.4454398e-11	0.05	311047.46	452803.74	-0.055363275	-0.010001775	-0.010001773	-331.1105	996.23204	0	887.0780691800104
2.7542287	1.5848932e-11	0.05	283678.9	412963.72	-0.055093284	-0.010001775	-0.010001773	-301.98127	908.57481	0	887.3317433684223
2.7542287	1.7378008e-11	0.05	258718.47	376629.18	-0.054823293	-0.010001775	-0.010001773	-275.41507	828.63045	0	887.585417556834
2.7542287	1.9054607e-11	0.05	235954.3	343491.69	-0.054553303	-0.010001775	-0.010001772	-251.18639	755.72035	0	887.839090852659
2.7542287	2.0892961e-11	0.05	215193.12	313269.92	-0.054283312	-0.010001775	-0.010001772	-229.08954	689.22552	0	888.0927650410707
2.7542287	2.2908677e-11	0.05	196258.7	285707.34	-0.054013322	-0.010001775	-0.010001772	-208.93695	628.58154	0	888.3464382899173
2.7542287	2.5118864e-11	0.05	178990.3	260569.95	-0.053743331	-0.010001775	-0.010001771	-190.55755	573.27356	0	888.6001125253074
2.7542287	2.7542287e-11	0.05	163241.34	237644.37	-0.05347334	-0.010001776	-0.010001771	-173.79531	522.83207	0	888.8537867137192
2.7542287	3.0199517e-11	0.05	148878.11	216735.99	-0.05320335	-0.010001776	-0.010001771	-158.50794	476.82891	0	889.1074599625657
2.7542287	3.3113112e-11	0.05	135778.7	197667.31	-0.052933359	-0.010001776	-0.01000177	-144.56568	434.87351	0	889.361134197956
2.7542287	3.6307805e-11	0.05	123831.88	180276.46	-0.052663368	-0.010001776	-0.01000177	-131.85015	396.60973	0	889.6148083863677
2.7542287	3.9810717e-11	0.05	112936.26	164415.81	-0.052393378	-0.010001776	-0.010001769	-120.25343	361.71276	0	889.8684816821925
2.7542287	4.3651583e-11	0.05	102999.34	149950.71	-0.052123387	-0.010001776	-0.010001769	-109.67708	329.88634	0	890.1221558706042
2.7542287	4.7863009e-11	0.05	93936.754	136758.38	-0.051853397	-0.010001776	-0.010001768	-100.0313	300.8603	0	890.3758291664291
2.7542287	5.2480746e-11	0.05	85671.581	124726.82	-0.051583406	-0.010001776	-0.010001767	-91.234226	274.38824	0	890.6295034018192
2.7542287	5.7543994e-11	0.05	78133.653	113753.9	-0.051313415	-0.010001776	-0.010001767	-83.211173	250.24543	0	890.883177590231
2.7542287	6.3095734e-11	0.05	71258.98	103746.47	-0.051043425	-0.010001776	-0.010001766	-75.894038	228.22692	0	891.1368508860558
2.7542287	6.9183097e-11	0.05	64989.205	94619.583	-0.050773434	-0.010001776	-0.010001765	-69.220709	208.14581	0	891.3905251214459
2.7542287	7.5857758e-11	0.05	59271.102	86295.751	-0.050503443	-0.010001776	-0.010001764	-63.134537	189.83162	0	891.644199356836
2.7542287	8.3176377e-11	0.05	54056.13	78704.318	-0.050233453	-0.010001776	-0.010001763	-57.583858	173.12888	0	891.8978726526607
2.7542287	9.1201084e-11	0.05	49300.018	71780.84	-0.049963462	-0.010001776	-0.010001761	-52.521554	157.89579	0	892.1515469350292
2.7542287	1.e-10	0.05	44962.393	65466.545	-0.049693471	-0.010001776	-0.01000176	-47.904655	144.00306	0	892.4052211704192
2.7542287	1.0964782e-10	0.05	41006.433	59707.832	-0.049423481	-0.010001777	-0.010001759	-43.693969	131.33273	0	892.658894466244
2.7542287	1.2022644e-10	0.05	37398.553	54455.814	-0.04915349	-0.010001777	-0.010001757	-39.853754	119.77726	0	892.9125687486123
2.7542287	1.3182567e-10	0.05	34108.129	49665.91	-0.0488835	-0.010001777	-0.010001755	-36.351413	109.23854	0	893.1662420914154
2.7542287	1.4454398e-10	0.05	31107.225	45297.456	-0.048613509	-0.010001777	-0.010001753	-33.157215	99.627114	0	893.4199163737838
2.7542287	1.5848932e-10	0.05	28370.369	41313.372	-0.048343518	-0.010001777	-0.010001751	-30.244049	90.861391	0	893.6735906561522
2.7542287	1.7378008e-10	0.05	25874.326	37679.835	-0.048073528	-0.010001777	-0.010001749	-27.587186	82.866956	0	893.9272639989553
2.7542287	1.9054607e-10	0.05	23597.908	34366.002	-0.047803537	-0.010001778	-0.010001747	-25.164075	75.575943	0	894.1809382813237
2.7542287	2.0892961e-10	0.05	21521.791	31343.743	-0.047533547	-0.010001778	-0.010001744	-22.954147	68.926462	0	894.4346116711049
2.7542287	2.2908677e-10	0.05	19628.349	28587.401	-0.047263556	-0.010001778	-0.010001741	-20.938645	62.862063	0	894.6882860004516
2.7542287	2.5118864e-10	0.05	17901.509	26073.58	-0.046993565	-0.010001778	-0.010001737	-19.100462	57.331265	0	894.9419603767765
2.7542287	2.7542287e-10	0.05	16326.613	23780.939	-0.046723575	-0.010001779	-0.010001734	-17.423995	52.287117	0	895.1956337665578
2.7542287	3.0199517e-10	0.05	14890.29	21690.018	-0.046453584	-0.010001779	-0.01000173	-15.895016	47.6868	0	895.4493081428827
2.7542287	3.3113112e-10	0.05	13580.348	19783.067	-0.046183593	-0.010001779	-0.010001725	-14.500546	43.491261	0	895.7029825661859
2.7542287	3.6307805e-10	0.05	12385.667	18043.9	-0.045913603	-0.01000178	-0.010001721	-13.228751	39.664884	0	895.9566560029455
2.7542287	3.9810717e-10	0.05	11296.105	16457.751	-0.045643612	-0.01000178	-0.010001715	-12.068836	36.175186	0	896.2103304732269
2.7542287	4.3651583e-10	0.05	10302.413	15011.159	-0.045373622	-0.010001781	-0.01000171	-11.010957	32.992544	0	896.4640039569647
2.7542287	4.7863009e-10	0.05	9396.1542	13691.843	-0.045103631	-0.010001781	-0.010001703	-10.046137	30.08994	0	896.7176784742245
2.7542287	5.2480746e-10	0.05	8569.6369	12488.604	-0.04483364	-0.010001782	-0.010001696	-9.1661862	27.442734	0	896.9713529914842
2.7542287	5.7543994e-10	0.05	7815.8441	11391.23	-0.04456365	-0.010001782	-0.010001689	-8.363638	25.028453	0	897.2250265691786
2.7542287	6.3095734e-10	0.05	7128.3768	10390.404	-0.044293659	-0.010001783	-0.01000168	-7.6316815	22.826602	0	897.4787011803948
2.7542287	6.9183097e-10	0.05	6501.3993	9477.6317	-0.044023668	-0.010001784	-0.010001671	-6.9641056	20.818491	0	897.732375791611
2.7542287	7.5857758e-10	0.05	5929.589	8645.1656	-0.043753678	-0.010001785	-0.010001661	-6.3552454	18.987072	0	897.9860495102403
2.7542287	8.3176377e-10	0.05	5408.0917	7885.9393	-0.043483687	-0.010001785	-0.01000165	-5.7999344	17.316798	0	898.239724215413
2.7542287	9.1201084e-10	0.05	4932.4807	7193.5087	-0.043213697	-0.010001786	-0.010001638	-5.2934611	15.793489	0	898.4933980279988
2.7542287	1.e-9	0.05	4498.7182	6561.9963	-0.042943706	-0.010001788	-0.010001625	-4.8315282	14.404216	0	898.7470728271281
2.7542287	1.0964782e-9	0.05	4103.122	5986.042	-0.042673715	-0.010001789	-0.010001611	-4.4102166	13.137183	0	899.0007476732358
2.7542287	1.2022644e-9	0.05	3742.3341	5460.7574	-0.042403725	-0.01000179	-0.010001595	-4.0259521	11.981636	0	899.2544216737346
2.7542287	1.3182567e-9	0.05	3413.2916	4981.684	-0.042133734	-0.010001792	-0.010001577	-3.6754749	10.927764	0	899.5080967077552
2.7542287	1.4454398e-9	0.05	3113.2013	4544.7558	-0.041863744	-0.010001793	-0.010001558	-3.3558122	9.9666214	0	899.7617708491887
2.7542287	1.5848932e-9	0.05	2839.5157	4146.2645	-0.041593753	-0.010001795	-0.010001537	-3.0642527	9.090049	0	900.0154460241442
2.7542287	1.7378008e-9	0.05	2589.9114	3782.8279	-0.041323762	-0.010001797	-0.010001514	-2.7983234	8.2906054	0	900.2691212930563
2.7542287	1.9054607e-9	0.05	2362.2696	3451.3617	-0.041053772	-0.010001799	-0.010001489	-2.5557692	7.5615043	0	900.5227957163594
2.7542287	2.0892961e-9	0.05	2154.6579	3149.0529	-0.040783781	-0.010001801	-0.010001461	-2.3345335	6.8965561	0	900.7764712201628
2.7542287	2.2908677e-9	0.05	1965.3137	2873.3359	-0.040513791	-0.010001804	-0.010001431	-2.1327403	6.2901162	0	901.0301458783573
2.7542287	2.5118864e-9	0.05	1792.6297	2621.8708	-0.0402438	-0.010001806	-0.010001398	-1.948679	5.7370364	0	901.2838216170519
2.7542287	2.7542287e-9	0.05	1635.1401	2392.5239	-0.039973809	-0.010001809	-0.010001362	-1.7807893	5.2326216	0	901.5374974966815
2.7542287	3.0199517e-9	0.05	1491.5078	2183.3489	-0.039703819	-0.010001813	-0.010001322	-1.6276484	4.7725899	0	901.7911726246587
2.7542287	3.3113112e-9	0.05	1360.5136	1992.5709	-0.039433828	-0.010001816	-0.010001278	-1.4879584	4.353036	0	902.0448488801143
2.7542287	3.6307805e-9	0.05	1241.0455	1818.5712	-0.039163838	-0.01000182	-0.01000123	-1.3605359	3.9703983	0	902.2985243839175
2.7542287	3.9810717e-9	0.05	1132.0893	1659.8735	-0.038893847	-0.010001824	-0.010001177	-1.2443014	3.6214286	0	902.5522010621776
2.7542287	4.3651583e-9	0.05	1032.7201	1515.1314	-0.038623857	-0.010001829	-0.01000112	-1.1382705	3.3031644	0	902.8058769887853
2.7542287	4.7863009e-9	0.05	942.09424	1383.1169	-0.038353866	-0.010001834	-0.010001056	-1.0415455	3.0129039	0	903.0595541838063
2.7542287	5.2480746e-9	0.05	859.44251	1262.7101	-0.038083876	-0.01000184	-0.010000987	-0.95330743	2.7481833	0	903.3132306741534
2.7542287	5.7543994e-9	0.05	784.06323	1152.8897	-0.037813885	-0.010001846	-0.010000911	-0.87280962	2.5067552	0	903.5669084329135
2.7542287	6.3095734e-9	0.05	715.31651	1052.7243	-0.037543895	-0.010001853	-0.010000828	-0.79937098	2.2865702	0	903.8205855809562
2.7542287	6.9183097e-9	0.05	652.61876	961.36418	-0.037273904	-0.010001861	-0.010000736	-0.7323704	2.0857591	0	904.0742640913687
2.7542287	7.5857758e-9	0.05	595.43773	878.03467	-0.037003914	-0.010001869	-0.010000636	-0.67124138	1.9026172	0	904.3279420380419
2.7542287	8.3176377e-9	0.05	543.28802	802.02916	-0.036733923	-0.010001878	-0.010000526	-0.6154673	1.7355898	0	904.5816213940632
2.7542287	9.1201084e-9	0.05	495.7269	732.7032	-0.036463933	-0.010001888	-0.010000406	-0.56457697	1.5832589	0	904.8353002803019
2.7542287	1.e-8	0.05	452.35066	669.46907	-0.036193942	-0.010001899	-0.010000273	-0.51814068	1.4443316	0	905.0889807168231
2.7542287	1.0964782e-8	0.05	412.79105	611.79075	-0.035923952	-0.010001911	-0.010000129	-0.47576652	1.3176283	0	905.3426607305402
2.7542287	1.2022644e-8	0.05	376.71226	559.1794	-0.035653961	-0.010001924	-0.0099999698	-0.43709708	1.2020736	0	905.5963423978923
2.7542287	1.3182567e-8	0.05	343.80801	511.18917	-0.035383971	-0.010001938	-0.0099997956	-0.40180637	1.0966864	0	905.8500238303529
2.7542287	1.4454398e-8	0.05	313.79899	467.41346	-0.035113981	-0.010001954	-0.0099996046	-0.3695971	1.0005722	0	906.1037060520486
2.7542287	1.5848932e-8	0.05	286.43043	427.48144	-0.03484399	-0.010001971	-0.0099993952	-0.34019815	0.91291496	0	906.3573900777095
2.7542287	1.7378008e-8	0.05	261.47001	391.05489	-0.034574	-0.01000199	-0.0099991656	-0.31336222	0.83297062	0	906.6110741127663
2.7542287	1.9054607e-8	0.05	238.70584	357.82539	-0.03430401	-0.010002011	-0.0099989138	-0.28886381	0.76006053	0	906.8647591907405
2.7542287	2.0892961e-8	0.05	217.94466	327.51161	-0.03403402	-0.010002034	-0.0099986378	-0.26649723	0.69356572	0	907.1184454055889
2.7542287	2.2908677e-8	0.05	199.01025	299.85702	-0.033764029	-0.010002059	-0.0099983351	-0.24607492	0.63292176	0	907.3721338143224
2.7542287	2.5118864e-8	0.05	181.74186	274.62763	-0.033494039	-0.010002086	-0.0099980032	-0.22742579	0.57761381	0	907.6258226552558
2.7542287	2.7542287e-8	0.05	165.99291	251.61005	-0.033224049	-0.010002116	-0.0099976393	-0.21039382	0.52717236	0	907.8795129994938
2.7542287	3.0199517e-8	0.05	151.62969	230.60966	-0.032954059	-0.010002149	-0.0099972403	-0.19483673	0.48116921	0	908.1332049926691
2.7542287	3.3113112e-8	0.05	138.53028	211.44898	-0.032684069	-0.010002185	-0.0099968028	-0.18062473	0.43921385	0	908.3868987945076
2.7542287	3.6307805e-8	0.05	126.58348	193.96613	-0.032414079	-0.010002225	-0.0099963231	-0.16763947	0.40095012	0	908.640594578829
2.7542287	3.9810717e-8	0.05	115.68787	178.01347	-0.032144089	-0.010002268	-0.0099957972	-0.15577302	0.36605318	0	908.8942925335464
2.7542287	4.3651583e-8	0.05	105.75096	163.45637	-0.031874099	-0.010002316	-0.0099952205	-0.14492693	0.3342268	0	909.1479928747597
2.7542287	4.7863009e-8	0.05	96.688392	150.17204	-0.03160411	-0.010002368	-0.0099945881	-0.13501142	0.3052008	0	909.4016948930973
2.7542287	5.2480746e-8	0.05	88.423236	138.04849	-0.03133412	-0.010002426	-0.0099938947	-0.1259446	0.2787288	0	909.6554007166744
2.7542287	5.7543994e-8	0.05	80.885325	126.98357	-0.031064131	-0.010002488	-0.0099931345	-0.11765181	0.25458605	0	909.9091087388346
2.7542287	6.3095734e-8	0.05	74.010671	116.88414	-0.030794141	-0.010002557	-0.0099923009	-0.11006494	0.2325676	0	910.1628211487649
2.7542287	6.9183097e-8	0.05	67.740917	107.66525	-0.030524152	-0.010002633	-0.0099913869	-0.10312186	0.21248656	0	910.4165363961824
2.7542287	7.5857758e-8	0.05	62.022836	99.249428	-0.030254163	-0.010002716	-0.0099903848	-0.096765947	0.19417244	0	910.6702557823855
2.7542287	8.3176377e-8	0.05	56.807889	91.566001	-0.029984174	-0.010002806	-0.0099892859	-0.090945519	0.17746977	0	910.9239797160848
2.7542287	9.1201084e-8	0.05	52.051806	84.550533	-0.029714185	-0.010002906	-0.0099880811	-0.085613467	0.16223678	0	911.1777086247827
2.7542287	1.e-7	0.05	47.71421	78.144249	-0.029444196	-0.010003015	-0.00998676	-0.080726814	0.14834414	0	911.431442997053
2.7542287	1.0964782e-7	0.05	43.758282	72.293548	-0.029174207	-0.010003135	-0.0099853115	-0.076246372	0.13567392	0	911.6851833543546
2.7542287	1.2022644e-7	0.05	40.150439	66.949547	-0.028904219	-0.010003266	-0.0099837233	-0.072136398	0.12411857	0	911.938929334955
2.7542287	1.3182567e-7	0.05	36.860055	62.067661	-0.028634231	-0.01000341	-0.0099819818	-0.068364294	0.11357998	0	912.1926825173236
2.7542287	1.4454398e-7	0.05	33.859194	57.607228	-0.028364243	-0.010003568	-0.0099800724	-0.06490033	0.10396869	0	912.4464435873433
2.7542287	1.5848932e-7	0.05	31.122386	53.531168	-0.028094256	-0.010003741	-0.0099779788	-0.061717393	0.095203124	0	912.7002123711945
2.7542287	1.7378008e-7	0.05	28.626396	49.805659	-0.027824268	-0.010003931	-0.0099756832	-0.058790753	0.087208859	0	912.9539915842213
2.7542287	1.9054607e-7	0.05	26.350036	46.399858	-0.027554281	-0.01000414	-0.0099731663	-0.05609786	0.079918034	0	913.2077802539732
2.7542287	2.0892961e-7	0.05	24.27398	43.285634	-0.027284295	-0.010004368	-0.0099704066	-0.053618145	0.073268756	0	913.4615793904832
2.7542287	2.2908677e-7	0.05	22.380607	40.437332	-0.027014308	-0.010004619	-0.0099673807	-0.051332849	0.06720458	0	913.7153919721732
2.7542287	2.5118864e-7	0.05	20.653844	37.831555	-0.026744323	-0.010004893	-0.0099640629	-0.049224864	0.061674027	0	913.9692163876889
2.7542287	2.7542287e-7	0.05	19.07903	35.446965	-0.026474337	-0.010005195	-0.0099604252	-0.047278589	0.056630148	0	914.2230567711177
2.7542287	3.0199517e-7	0.05	17.642798	33.2641	-0.026204353	-0.010005525	-0.0099564367	-0.045479792	0.052030125	0	914.4769117553919
2.7542287	3.3113112e-7	0.05	16.332956	31.265212	-0.025934368	-0.010005888	-0.0099520636	-0.043815495	0.047834909	0	914.7307857470732
2.7542287	3.6307805e-7	0.05	15.138384	29.434114	-0.025664385	-0.010006286	-0.0099472688	-0.042273863	0.044008886	0	914.9846776703594
2.7542287	3.9810717e-7	0.05	14.048942	27.756043	-0.025394402	-0.010006722	-0.0099420116	-0.0408441	0.040519577	0	915.2385913163964
2.7542287	4.3651583e-7	0.05	13.055381	26.217537	-0.02512442	-0.0100072	-0.0099362476	-0.03951636	0.037337361	0	915.4925278314539
2.7542287	4.7863009e-7	0.05	12.149267	24.806317	-0.024854438	-0.010007725	-0.009929928	-0.038281666	0.034435223	0	915.7464904476368
2.7542287	5.2480746e-7	0.05	11.322907	23.511184	-0.024584458	-0.010008301	-0.0099229992	-0.037131826	0.031788528	0	916.0004798038499
2.7542287	5.7543994e-7	0.05	10.569287	22.321926	-0.024314479	-0.010008932	-0.0099154026	-0.036059373	0.029374808	0	916.2544995925842
2.7542287	6.3095734e-7	0.05	9.88201	21.22923	-0.0240445	-0.010009625	-0.009907074	-0.035057494	0.027173573	0	916.5085537694106
2.7542287	6.9183097e-7	0.05	9.2552403	20.224601	-0.023774523	-0.010010385	-0.009897943	-0.034119976	0.025166135	0	916.7626437624681
2.7542287	7.5857758e-7	0.05	8.6836579	19.300292	-0.023504548	-0.010011219	-0.0098879324	-0.033241152	0.023335455	0	917.016773198479
2.7542287	8.3176377e-7	0.05	8.1624105	18.44924	-0.023234573	-0.010012134	-0.0098769578	-0.032415854	0.02166599	0	917.2709479215398
2.7542287	9.1201084e-7	0.05	7.6870733	17.665001	-0.022964601	-0.010013138	-0.0098649267	-0.031639368	0.020143569	0	917.5251694584441
2.7542287	1.e-6	0.05	7.2536108	16.9417	-0.02269463	-0.010014239	-0.0098517379	-0.030907394	0.018755267	0	917.7794444425232
2.7542287	1.0964782e-6	0.05	6.8583435	16.273978	-0.022424662	-0.010015448	-0.0098372803	-0.030216011	0.0174893	0	918.0337762139324
2.7542287	1.2022644e-6	0.05	6.4979159	15.656949	-0.022154695	-0.010016775	-0.0098214329	-0.029561641	0.01633492	0	918.2881723361722
2.7542287	1.3182567e-6	0.05	6.1692682	15.086157	-0.021884731	-0.010018232	-0.0098040628	-0.028941022	0.015282327	0	918.5426371735239
2.7542287	1.4454398e-6	0.05	5.8696103	14.557538	-0.02161477	-0.010019831	-0.0097850249	-0.028351176	0.014322586	0	918.797177542534
2.7542287	1.5848932e-6	0.05	5.5963984	14.067386	-0.021344812	-0.010021587	-0.0097641607	-0.027789389	0.013447548	0	919.0518008892581
2.7542287	1.7378008e-6	0.05	5.3473129	13.612322	-0.021074857	-0.010023514	-0.0097412972	-0.027253184	0.012649785	0	919.3065153409364
2.7542287	1.9054607e-6	0.05	5.1202391	13.189264	-0.020804906	-0.010025632	-0.0097162454	-0.026740301	0.011922523	0	919.5613288368961
2.7542287	2.0892961e-6	0.05	4.9132491	12.795403	-0.020534959	-0.010027957	-0.0096887996	-0.026248678	0.011259589	0	919.8162510405665
2.7542287	2.2908677e-6	0.05	4.7245855	12.428178	-0.020265017	-0.010030512	-0.0096587353	-0.025776434	0.010655352	0	920.0712915590038
2.7542287	2.5118864e-6	0.05	4.552646	12.08525	-0.01999508	-0.01003332	-0.009625809	-0.025321851	0.010104682	0	920.326461831416
2.7542287	2.7542287e-6	0.05	4.3959705	11.764492	-0.019725149	-0.010036406	-0.0095897561	-0.024883364	0.0096029028	0	920.5817733486872
2.7542287	3.0199517e-6	0.05	4.2532282	11.463961	-0.019455224	-0.0100398	-0.0095502899	-0.024459543	0.0091457508	0	920.8372395794868
2.7542287	3.3113112e-6	0.05	4.1232062	11.181886	-0.019185307	-0.010043532	-0.0095071007	-0.024049081	0.0087293423	0	921.0928731938535
2.7542287	3.6307805e-6	0.05	4.0047996	10.916653	-0.018915398	-0.01004764	-0.0094598548	-0.023650787	0.0083501374	0	921.3486898684351
2.7542287	3.9810717e-6	0.05	3.8970013	10.666791	-0.018645498	-0.010052161	-0.0094081938	-0.023263572	0.0080049112	0	921.6047055006774
2.7542287	4.3651583e-6	0.05	3.7988941	10.430959	-0.018375609	-0.010057141	-0.0093517347	-0.022886442	0.0076907254	0	921.8609362041261
2.7542287	4.7863009e-6	0.05	3.7096423	10.207933	-0.018105732	-0.010062629	-0.0092900698	-0.022518489	0.007404903	0	922.1174001922557
2.7542287	5.2480746e-6	0.05	3.6284846	9.996598	-0.017835868	-0.010068681	-0.0092227686	-0.022158883	0.0071450049	0	922.3741167496447
2.7542287	5.7543994e-6	0.05	3.5547274	9.7959368	-0.01756602	-0.01007536	-0.0091493794	-0.021806864	0.0069088086	0	922.6311042776807
2.7542287	6.3095734e-6	0.05	3.4877385	9.6050218	-0.01729619	-0.010082737	-0.009069433	-0.021461738	0.0066942883	0	922.888382939436
2.7542287	6.9183097e-6	0.05	3.4269416	9.423006	-0.01702638	-0.010090893	-0.0089824478	-0.021122872	0.0064995963	0	923.1459734805137
2.7542287	7.5857758e-6	0.05	3.3718111	9.2491161	-0.016756594	-0.010099921	-0.0088879364	-0.020789683	0.0063230466	0	923.40389503986
2.7542287	8.3176377e-6	0.05	3.3218667	9.082645	-0.016486834	-0.010109926	-0.0087854152	-0.020461641	0.006163098	0	923.6621684570339
2.7542287	9.1201084e-6	0.05	3.2766694	8.9229456	-0.016217106	-0.010121029	-0.0086744152	-0.020138258	0.0060183397	0	923.9208101274511
2.7542287	0.00001	0.05	3.2358165	8.769424	-0.015947415	-0.01013337	-0.0085544969	-0.01981909	0.0058874768	0	924.1798360002336
2.7542287	0.000010964782	0.05	3.1989381	8.6215346	-0.015677766	-0.010147112	-0.0084252664	-0.019503729	0.0057693168	0	924.4392598822939
2.7542287	0.000012022644	0.05	3.1627648	8.4787819	-0.015413842	-0.010175104	-0.0082990555	-0.019194994	0.005659588	0	924.6931628971489
2.7542287	0.000013182567	0.05	3.13257	8.3406943	-0.015144831	-0.010193301	-0.0081513552	-0.018886462	0.0055633329	0	924.9528550157211
2.7542287	0.000014454398	0.05	3.1053751	8.2068397	-0.014875936	-0.010213627	-0.0079936973	-0.018580739	0.0054766756	0	925.212905935509
2.7542287	0.000015848932	0.05	3.0809027	8.0768139	-0.014607171	-0.010236382	-0.0078260712	-0.018277547	0.005398712	0	925.4733030005675
2.7542287	0.000017378008	0.05	3.0588912	7.9502378	-0.014338556	-0.010261915	-0.0076486127	-0.017976631	0.0053285843	0	925.7340210399408
2.7542287	0.000019054607	0.05	3.0390924	7.8267533	-0.014070109	-0.010290633	-0.0074616199	-0.017677763	0.0052654719	0	925.9950291372312
2.7542287	0.000020892961	0.05	3.0212701	7.7060207	-0.013801854	-0.01032301	-0.0072655654	-0.017380737	0.0052085847	0	926.2562825409411
2.7542287	0.000022908677	0.05	3.005198	7.587717	-0.013533816	-0.010359599	-0.0070611022	-0.01708537	0.0051571577	0	926.5177270851278
2.7542287	0.000025118864	0.05	2.9906597	7.4715333	-0.013266023	-0.010401039	-0.0068490635	-0.016791501	0.0051104468	0	926.7792973196694
2.7542287	0.000027542287	0.05	2.9774478	7.3571748	-0.012998506	-0.010448064	-0.0066304561	-0.016498992	0.0050677277	0	927.04091682032
2.7542287	0.000030199517	0.05	2.9653646	7.2443605	-0.012731295	-0.010501508	-0.006406447	-0.01620772	0.0050282969	0	927.3025025764811
2.7542287	0.000033113112	0.05	2.9542231	7.132824	-0.012464424	-0.010562307	-0.0061783432	-0.015917585	0.0049914752	0	927.5639612423352
2.7542287	0.000036307805	0.05	2.9438487	7.0223163	-0.012197923	-0.010631494	-0.0059475644	-0.015628504	0.0049566159	0	927.8251979358752
2.7542287	0.000039810717	0.05	2.9340816	6.9126084	-0.01193182	-0.01071018	-0.0057156083	-0.015340408	0.0049231152	0	928.0861159899202
2.7542287	0.000043651583	0.05	2.9247797	6.8034963	-0.011666139	-0.010799538	-0.005484008	-0.015053246	0.0048904276	0	928.3466208325201
2.7542287	0.000047863009	0.05	2.9158224	6.6948063	-0.01140089	-0.01090076	-0.0052542818	-0.014766978	0.0048580831	0	928.6066317409176
2.7542287	0.000052480746	0.05	2.9071134	6.5864003	-0.011136077	-0.011015011	-0.0050278763	-0.014481575	0.0048257062	0	928.8660769980896
2.7542287	0.000057543994	0.05	2.8985836	6.4781816	-0.010871686	-0.011143383	-0.0048061069	-0.014197017	0.0047930335	0	929.1249079627381
2.7542287	0.000063095734	0.05	2.8901931	6.3700974	-0.010607687	-0.011286833	-0.0045900994	-0.013913288	0.0047599263	0	929.3830999336897
2.7542287	0.000069183097	0.05	2.8819307	6.2621404	-0.010344036	-0.011446138	-0.0043807395	-0.013630375	0.0047263755	0	929.6406526431686
2.7542287	0.000075857758	0.05	2.8738119	6.1543458	-0.010080673	-0.011621856	-0.0041786354	-0.013348266	0.0046924974	0	929.8975938929133
2.7542287	0.000083176377	0.05	2.865875	6.0467852	-0.0098175247	-0.011814303	-0.0039840981	-0.013066943	0.0046585182	0	930.1539779428227
2.7542287	0.000091201084	0.05	2.8581752	5.9395583	-0.0095545121	-0.01202355	-0.0037971408	-0.012786388	0.0046247504	0	930.4098783984465
2.7542287	0.0001	0.05	2.8507784	5.8327822	-0.009291552	-0.012249435	-0.0036174953	-0.012506573	0.0045915635	0	930.6653860311934
2.7542287	0.00010964782	0.05	2.8437545	5.7265805	-0.0090285628	-0.012491594	-0.0034446438	-0.012227465	0.0045593528	0	930.9206018349424
2.7542287	0.00012022644	0.05	2.8371714	5.6210732	-0.0087654684	-0.01274949	-0.0032778593	-0.011949025	0.0045285103	0	931.1756314638171
2.7542287	0.00013182567	0.05	2.8310905	5.5163689	-0.008502202	-0.013022462	-0.00311625	-0.011671206	0.0044994005	0	931.4305795760024
2.7542287	0.00014454398	0.05	2.8255633	5.4125588	-0.0082387073	-0.013309764	-0.0029588042	-0.011393957	0.0044723425	0	931.6855465969401
2.7542287	0.00015848932	0.05	2.8206296	5.3097131	-0.0079749405	-0.013610599	-0.0028044321	-0.01111722	0.0044475986	0	931.9406248765089
2.7542287	0.00017378008	0.05	2.8163163	5.20788	-0.0077108694	-0.01392416	-0.0026520031	-0.010840937	0.0044253697	0	932.195897782342
2.7542287	0.00019054607	0.05	2.8126382	5.107086	-0.0074464741	-0.014249656	-0.0025003755	-0.010565045	0.0044057949	0	932.451437646878
2.7542287	0.00020892961	0.05	2.8095987	5.0073373	-0.0071817444	-0.014586333	-0.0023484249	-0.010289483	0.0043889554	0	932.7073068760476
2.7542287	0.00022908677	0.05	2.8071907	4.9086226	-0.00691668	-0.014933501	-0.0021950632	-0.010014188	0.0043748797	0	932.9635568687729
2.7542287	0.00025118864	0.05	2.8053984	4.8109149	-0.0066512884	-0.015290542	-0.0020392561	-0.0097390982	0.0043635503	0	933.2202291679362
2.7542287	0.00027542287	0.05	2.804198	4.7141746	-0.0063855838	-0.015656927	-0.0018800386	-0.0094641552	0.0043549104	0	933.4773557657376
2.7542287	0.00030199517	0.05	2.8035587	4.6183516	-0.0061195865	-0.016032228	-0.0017165276	-0.0091893019	0.0043488692	0	933.7349590755082
2.7542287	0.00033113112	0.05	2.8034436	4.5233866	-0.0058533222	-0.016416131	-0.0015479339	-0.0089144854	0.0043453067	0	933.9930520256676
2.7542287	0.00036307805	0.05	2.8038093	4.4292126	-0.0055868215	-0.016808448	-0.0013735767	-0.0086396561	0.0043440758	0	934.2516378483205
2.7542287	0.00039810717	0.05	2.804606	4.3357553	-0.0053201208	-0.017209131	-0.0011928999	-0.0083647694	0.004345003	0	934.5107084679028
2.7542287	0.00043651583	0.05	2.805776	4.2429323	-0.0050532625	-0.017618297	-0.0010054917	-0.0080897859	0.0043478864	0	934.770243392494
2.7542287	0.00047863009	0.05	2.8072522	4.1506518	-0.0047862962	-0.018036254	-0.00081111492	-0.0078146721	0.0043524904	0	935.0302071619582
2.7542287	0.00052480746	0.05	2.8089562	4.0588099	-0.0045192809	-0.018463537	-0.00060974298	-0.0075394017	0.004358537	0	935.2905455906224
2.7542287	0.00057543994	0.05	2.8107942	3.9672862	-0.004252286	-0.018900969	-0.00040161857	-0.0072639568	0.0043656905	0	935.5511820714953
2.7542287	0.00063095734	0.05	2.8126535	3.8759362	-0.0039853941	-0.019349744	-0.0001873375	-0.0069883297	0.0043735354	0	935.8120110063577
2.7542287	0.00069183097	0.05	2.8143974	3.7845809	-0.0037187011	-0.019811552	0.000032024912	-0.0067125248	0.0043815427	0	936.0728917743155
2.7542287	0.00075857758	0.05	2.8158606	3.6929919	-0.0034523153	-0.020288772	0.00025472576	-0.0064365612	0.0043890235	0	936.3336407417376
2.7542287	0.00083176377	0.05	2.8168406	3.6008635	-0.0031863532	-0.020784772	0.00047804895	-0.006160476	0.0043950449	0	936.5940208518695
2.7542287	0.00091201084	0.05	2.8170008	3.5076515	-0.0029209997	-0.021304923	0.00069729666	-0.0058843306	0.0043979498	0	936.8536376835399
2.7542287	0.001	0.05	2.8148734	3.4111458	-0.00265727	-0.021863495	0.00089889162	-0.0056082569	0.0043911281	0	937.1108995533833
2.7542287	0.0010964782	0.05	2.8042695	3.3025747	-0.0023999288	-0.022507274	0.0010367589	-0.0053327364	0.004348385	0	937.3591651939902
2.7542287	0.0012022644	0.05	2.7827231	3.1785363	-0.0021508702	-0.023273111	0.0010747816	-0.0050588443	0.0042586725	0	937.5949582652413
2.7542287	0.0013182567	0.05	2.7602747	3.0527003	-0.0019017434	-0.024127213	0.0010475073	-0.0047871889	0.0041614539	0	937.8277478749163
2.7542287	0.0014454398	0.05	2.7429334	2.9332913	-0.0016475896	-0.025036331	0.00098896205	-0.0045175056	0.0040811035	0	938.0637916245518
2.7542287	0.0015848932	0.05	2.7317442	2.8218682	-0.0013876616	-0.02598247	0.00091794174	-0.0042492197	0.0040227651	0	938.3046745557255
2.7542287	0.0017378008	0.05	2.7261715	2.7177775	-0.0011225041	-0.026955309	0.00084558777	-0.0039817488	0.003985106	0	938.5504082908608
2.7542287	0.0019054607	0.05	2.7253831	2.6198786	-0.00085285393	-0.02794848	0.00077911758	-0.003714583	0.0039652923	0	938.8006395928477
2.7542287	0.0020892961	0.05	2.7286181	2.5270665	-0.00057933727	-0.028957913	0.00072347326	-0.0034472916	0.0039605158	0	939.0550122954817
2.7542287	0.0022908677	0.05	2.7352732	2.4384104	-0.00030240747	-0.02998101	0.00068214975	-0.0031795113	0.0039684108	0	939.3132646330373
2.7542287	0.0025118864	0.05	2.744904	2.3531675	-0.000022351171	-0.031016181	0.00065766165	-0.0029109296	0.0039871125	0	939.5752454191146
2.7542287	0.0027542287	0.05	2.7572025	2.2707608	0.00026068825	-0.032062554	0.0006518339	-0.0026412711	0.0040152052	0	939.8409056741718
2.7542287	0.0030199517	0.05	2.7719724	2.1907481	0.00054668718	-0.033119792	0.0006659829	-0.0023702847	0.0040516437	0	940.1102850544437
2.7542287	0.0033113112	0.05	2.7891081	2.1127937	0.00083572315	-0.034187976	0.00070103661	-0.0020977339	0.0040956799	0	940.3834999993246
2.7542287	0.0036307805	0.05	2.8085778	2.036644	0.0011279618	-0.035267537	0.00075760411	-0.001823389	0.0041468008	0	940.6607347519423
2.7542287	0.0039810717	0.05	2.8304129	1.9621095	0.0014236501	-0.036359224	0.00083600699	-0.00154702	0.0042046803	0	940.9422364644921
2.7542287	0.0043651583	0.05	2.8547014	1.88905	0.0017231163	-0.037464109	0.00093627552	-0.0012683913	0.0042691433	0	941.2283149713323
2.7542287	0.0047863009	0.05	2.8815875	1.8173643	0.002026776	-0.038583637	0.0010581006	-0.00098725567	0.0043401406	0	941.5193462348401
2.7542287	0.0052480746	0.05	2.9112753	1.7469831	0.0023351478	-0.039719716	0.0012007436	-0.00070334919	0.0044177327	0	941.8157828140484
2.7542287	0.0057543994	0.05	2.9440401	1.6778646	0.0026488778	-0.040874866	0.00136289	-0.00041638416	0.0045020845	0	942.1181700082572
2.7542287	0.0063095734	0.05	2.9802436	1.6099924	0.0029687724	-0.042052386	0.0015424826	-0.00012604209	0.0045934671	0	942.4271688392732
2.7542287	0.0069183097	0.05	3.02035	1.5433763	0.0032958315	-0.043256493	0.0017365832	0.00016803596	0.0046922677	0	942.743580746944
2.7542287	0.0075857758	0.05	3.064933	1.4780514	0.0036312652	-0.044492296	0.0019413998	0.00046625978	0.0047989988	0	943.0683645577096
2.7542287	0.0083176377	0.05	3.1146618	1.4140745	0.003976473	-0.045765481	0.0021526062	0.00076910052	0.0049142986	0	943.4026319558964
2.7542287	0.0091201084	0.05	3.1702582	1.351515	0.0043329746	-0.047081683	0.0023659655	0.0010770976	0.0050389097	0	943.7476117567447
2.7542287	0.01	0.05	3.2324401	1.2904413	0.0047023187	-0.048445822	0.0025779984	0.0013908618	0.0051736433	0	944.1045956136267
2.7542287	0.010964782	0.05	3.3018773	1.2309098	0.0050860168	-0.049861778	0.0027863121	0.0017110719	0.0053193437	0	944.47489126997
2.7542287	0.012022644	0.05	3.3791758	1.1729621	0.0054855277	-0.051332535	0.0029894529	0.0020384694	0.0054768741	0	944.8598010713999
2.7542287	0.013182567	0.05	3.4648759	1.116629	0.0059022671	-0.052860526	0.0031865657	0.002373852	0.0056471227	0	945.2606149894658
2.7542287	0.014454398	0.05	3.5594397	1.061937	0.0063375957	-0.054447815	0.0033772133	0.0027180667	0.0058310139	0	945.678590951841
2.7542287	0.015848932	0.05	3.6632098	1.0089122	0.0067927586	-0.056095949	0.0035615233	0.0030720002	0.0060295115	0	946.1149048057695
2.7542287	0.017378008	0.05	3.7763381	0.95758221	0.0072687726	-0.057805524	0.0037406281	0.0034365646	0.0062436077	0	946.570565099489
2.7542287	0.019054607	0.05	3.8986849	0.9079755	0.0077662633	-0.059575534	0.0039173134	0.0038126732	0.0064742998	0	947.0462904924431
2.7542287	0.020892961	0.05	4.0296938	0.86012125	0.0082852577	-0.061402593	0.0040968005	0.0042012063	0.0067225537	0	947.5423516405239
2.7542287	0.022908677	0.05	4.1682419	0.81404961	0.0088249339	-0.063280069	0.0042876124	0.0046029633	0.0069892569	0	948.0583767107437
2.7542287	0.025118864	0.05	4.312469	0.76979484	0.009383329	-0.065197154	0.0045025072	0.005018599	0.0072751648	0	948.5931207837124
2.7542287	0.027542287	0.05	4.45958	0.72740483	0.009956997	-0.067137877	0.0047594648	0.0054485414	0.0075808458	0	949.144190781785
2.7542287	0.030199517	0.05	4.6055872	0.6869648	0.010540575	-0.069079957	0.0050828392	0.0058928891	0.0079066481	0	949.7076920186734
2.7542287	0.033113112	0.05	4.7448356	0.64865737	0.011126039	-0.070992826	0.0055053325	0.0063512735	0.0082527386	0	950.2776217100101
2.7542287	0.036307805	0.05	4.8686293	0.61292258	0.011700751	-0.072832034	0.0060735964	0.0068226419	0.0086193546	0	950.8442972449441
2.7542287	0.039810717	0.05	4.7230093	0.58281393	0.011998439	-0.074725424	0.0066620579	0.0073047396	0.0090131922	0	951.1516394766154
2.7542287	0.043651583	0.05	4.3550819	0.55757999	0.012037805	-0.076860596	0.0070854556	0.0077568686	0.0093913507	0	951.208516896593
2.7542287	0.047863009	0.05	4.0195282	0.53456636	0.012073707	-0.079112154	0.0074715988	0.0081692151	0.0097362355	0	951.2603895103316
2.7542287	0.052480746	0.05	3.7134996	0.51357769	0.01210645	-0.081479304	0.0078237656	0.0085452796	0.010050774	0	951.3076978847216
2.7542287	0.057543994	0.05	3.4343982	0.49443578	0.012136313	-0.083961621	0.0081449455	0.0088882545	0.010337637	0	951.3508446000264
2.7542287	0.063095734	0.05	3.1882501	0.47624599	0.01217725	-0.086641874	0.008355013	0.0092016765	0.010597737	0	951.3991761939673
2.7542287	0.069183097	0.05	3.1593522	0.44462861	0.01252993	-0.09108005	0.0068967048	0.0095121979	0.010815576	0	951.6620333088883
2.7542287	0.075857758	0.05	3.2278466	0.41451881	0.012983157	-0.095517687	0.0055312908	0.0098242538	0.011039368	0	952.0237249096327
2.7542287	0.083176377	0.05	3.4493813	0.38586433	0.013607664	-0.099944242	0.0042722118	0.010150023	0.01128114	0	952.5513406975995
2.7542287	0.091201084	0.05	3.8909908	0.35861823	0.014493091	-0.10436458	0.0031175858	0.010507704	0.011558952	0	953.3290148976635
2.7542287	0.1	0.05	4.6296524	0.3327397	0.015747768	-0.10880435	0.0020448461	0.01092257	0.011897959	0	954.4574704797209
2.7542287	0.10964782	0.05	5.7501264	0.30819486	0.017497513	-0.11331443	0.0010062889	0.011427842	0.01233128	0	956.0526806351008
2.7542287	0.12022644	0.05	7.3428011	0.28495727	0.019884103	-0.11797321	-0.000073209673	0.012065338	0.012900658	0	958.2443249310293
2.7542287	0.13182567	0.05	9.5025668	0.26300827	0.023064515	-0.12288567	-0.0012952546	0.012885962	0.013656941	0	961.1751202914758
2.7542287	0.14454398	0.05	12.329618	0.24233701	0.027212017	-0.12817887	-0.0027834184	0.013950162	0.014660546	0	965.0020581026514
2.7542287	0.15848932	0.05	15.932404	0.22293984	0.032519575	-0.13399439	-0.0046756978	0.015328584	0.015982106	0	969.8999596847286
2.7542287	0.17378008	0.05	20.431856	0.20481904	0.039204904	-0.14047892	-0.0071150937	0.017103077	0.017703481	0	976.0666645733502
2.7542287	0.19054607	0.05	25.964982	0.18798054	0.047515187	-0.14777412	-0.01023944	0.019368116	0.019919159	0	983.7279421526001
2.7542287	0.20892961	0.05	32.685268	0.17243049	0.057728632	-0.15600631	-0.014171132	0.022232429	0.022737889	0	993.1394371002273
2.7542287	0.22908677	0.05	40.757434	0.15817065	0.070149791	-0.16527635	-0.019006979	0.025820411	0.026284071	0	1004.5827479895129
2.7542287	0.25118864	0.05	50.345052	0.14519312	0.085096449	-0.17564995	-0.024808511	0.030272682	0.030698299	0	1018.3535640224072
2.7542287	0.27542287	0.05	61.59149	0.13347517	0.10287794	-0.18714942	-0.031593721	0.035745078	0.036136345	0	1034.7416794269204
2.7542287	0.30199517	0.05	74.597345	0.12297518	0.12376778	-0.19974865	-0.039332056	0.042405583	0.042766071	0	1054.0055156863302
2.7542287	0.33113112	0.05	89.399907	0.11363113	0.14797659	-0.21337336	-0.047944659	0.050429079	0.050762176	0	1076.3466695594582
2.7542287	0.36307805	0.05	105.96088	0.10536196	0.17563249	-0.22790776	-0.057311017	0.059990454	0.060299311	0	1101.8911796508985
2.7542287	0.39810717	0.05	124.1665	0.098071954	0.20677428	-0.24320686	-0.067281263	0.071257086	0.071544573	0	1130.682541588246
2.7542287	0.43651583	0.05	143.84004	0.091656762	0.24135866	-0.2591119	-0.077691615	0.084381971	0.084650653	0	1162.6877663864539
2.7542287	0.47863009	0.05	164.76277	0.086010003	0.27927815	-0.27546562	-0.088379633	0.099498533	0.099750661	0	1197.8135007114765
2.7542287	0.52480746	0.05	186.69748	0.081028913	0.32038371	-0.29212465	-0.099196604	0.11671766	0.11695518	0	1235.9266980226448
2.7542287	0.57543994	0.05	209.40952	0.076618428	0.36450688	-0.30896769	-0.11001574	0.13612695	0.13635155	0	1276.8750354216775
2.7542287	0.63095734	0.05	232.68242	0.07269352	0.41147762	-0.32589961	-0.1207362	0.15779181	0.1580049	0	1320.5034865519333
2.7542287	0.69183097	0.05	256.32746	0.069180046	0.46113684	-0.34285209	-0.13128383	0.18175771	0.1819605	0	1366.6660595883295
2.7542287	0.75857758	0.05	280.18796	0.066014549	0.51334385	-0.35978209	-0.14160955	0.20805318	0.2082467	0	1415.2328727751428
2.7542287	0.83176377	0.05	304.13975	0.063143428	0.56797993	-0.37666891	-0.15168644	0.236693	0.2368781	0	1466.0936455689825
2.7542287	0.91201084	0.05	328.08919	0.06052182	0.62494913	-0.39351073	-0.16150624	0.2676813	0.26785871	0	1519.158614715006
2.7542287	1.	0.05	351.96996	0.058112394	0.6841775	-0.41032083	-0.17107564	0.30101437	0.30118472	0	1574.3579850709714
2.7542287	1.0964782	0.05	375.73923	0.055884206	0.74561137	-0.42712416	-0.18041274	0.33668323	0.33684704	0	1631.6404798579015
2.7542287	1.2022644	0.05	399.37401	0.053811653	0.80921535	-0.44395411	-0.1895439	0.37467565	0.37483339	0	1690.9716095109293
2.7542287	1.3182567	0.05	422.86752	0.051873574	0.87497023	-0.46084979	-0.19850098	0.414978	0.41513007	0	1752.3318282520784
2.7542287	1.4454398	0.05	446.2262	0.050052472	0.94287095	-0.4778538	-0.20731908	0.45757667	0.45772339	0	1815.7147329434883
2.7542287	1.5848932	0.05	469.46692	0.04833387	1.0129249	-0.49501045	-0.21603482	0.50245917	0.50260086	0	1881.1255466289404
2.7542287	1.7378008	0.05	492.61477	0.046705763	1.0851501	-0.51236444	-0.22468492	0.54961513	0.54975204	0	1948.5794752340587
2.7542287	1.9054607	0.05	515.70113	0.045158178	1.1595742	-0.52995992	-0.23330534	0.59903692	0.59916929	0	2018.1008084022712
2.7542287	2.0892961	0.05	538.76216	0.043682798	1.2362332	-0.54783987	-0.24193058	0.65072026	0.65084831	0	2089.7217497359497
2.7542287	2.2908677	0.05	561.83748	0.042272664	1.3151702	-0.56604571	-0.25059336	0.70466458	0.7047885	0	2163.4812573727663
2.7542287	2.5118864	0.05	584.96922	0.040921927	1.3964351	-0.58461714	-0.25932438	0.76087334	0.7609933	0	2239.424773390873
2.7542287	2.7542287	0.05	608.20119	0.039625645	1.4800837	-0.60359212	-0.26815231	0.8193542	0.81947036	0	2317.603378669872
2.7542287	3.0199517	0.05	631.57824	0.038379615	1.5661769	-0.6230069	-0.27710384	0.88011917	0.88023168	0	2398.073038889618
2.7542287	3.3113112	0.05	655.1458	0.037180245	1.6547809	-0.64289615	-0.28620378	0.94318471	0.9432937	0	2480.8947877454634
2.7542287	3.6307805	0.05	678.94947	0.03602444	1.7459663	-0.66329313	-0.29547523	1.0085717	1.0086773	0	2566.1338733531406
2.7542287	3.9810717	0.05	703.0348	0.034909516	1.8398079	-0.68422988	-0.30493972	1.0763056	1.0764079	0	2653.8595637587296
2.7542287	4.3651583	0.05	727.44707	0.033833125	1.9363849	-0.70573737	-0.31461743	1.1464161	1.1465153	0	2744.145324516512
2.7542287	4.7863009	0.05	752.23112	0.0327932	2.0357801	-0.72784576	-0.32452735	1.2189376	1.2190338	0	2837.068059520169
2.7542287	5.2480746	0.05	777.43135	0.031787905	2.1380803	-0.75058449	-0.33468743	1.2939087	1.2940019	0	2932.708479782177
2.7542287	5.7543994	0.05	803.09159	0.030815596	2.243376	-0.77398251	-0.34511476	1.3713722	1.3714626	0	3031.1508131081214
2.7542287	6.3095734	0.05	829.25516	0.029874792	2.3517612	-0.79806843	-0.35582573	1.4513755	1.4514631	0	3132.4826086670964
2.7542287	6.9183097	0.05	855.96481	0.028964145	2.4633339	-0.82287063	-0.3668361	1.53397	1.5340549	0	3236.795203485908
2.7542287	7.5857758	0.05	883.26284	0.028082423	2.5781953	-0.84841745	-0.37816122	1.6192112	1.6192935	0	3344.182960461568
2.7542287	8.3176377	0.05	911.19106	0.027228491	2.6964504	-0.87473724	-0.38981603	1.707159	1.7072388	0	3454.7438321005116
2.7542287	9.1201084	0.05	939.7909	0.026401297	2.8182079	-0.90185853	-0.40181524	1.797877	1.7979544	0	3568.5792581059677
2.7542287	10.	0.05	969.10347	0.025599859	2.94358	-0.92981011	-0.41417338	1.8914333	1.8915083	0	3685.79397511598