2.2908677	1.e-12	0.34	2.147481e6	3.7621295e6	-0.052773751	-0.0029887578	-0.0029887562	-2285.6649	6887.2369	0	889.026197370732
2.2908677	1.0964782e-12	0.34	1.9585262e6	3.4311049e6	-0.052549182	-0.0029887578	-0.0029887561	-2084.5559	6281.235	0	889.2371946537613
2.2908677	1.2022644e-12	0.34	1.7861973e6	3.1292069e6	-0.052324614	-0.0029887578	-0.0029887559	-1901.1423	5728.5547	0	889.4481910291707
2.2908677	1.3182567e-12	0.34	1.6290315e6	2.8538726e6	-0.052100045	-0.0029887578	-0.0029887557	-1733.8671	5224.5042	0	889.6591883441452
2.2908677	1.4454398e-12	0.34	1.4856946e6	2.6027648e6	-0.051875477	-0.0029887578	-0.0029887555	-1581.3102	4764.8048	0	889.8701847195545
2.2908677	1.5848932e-12	0.34	1.3549698e6	2.3737517e6	-0.051650908	-0.0029887578	-0.0029887553	-1442.1767	4345.5539	0	890.0811820345291
2.2908677	1.7378008e-12	0.34	1.2357473e6	2.1648893e6	-0.05142634	-0.0029887578	-0.002988755	-1315.2854	3963.1926	0	890.2921784418836
2.2908677	1.9054607e-12	0.34	1.1270152e6	1.9744046e6	-0.051201772	-0.0029887578	-0.0029887547	-1199.5592	3614.4749	0	890.503174849238
2.2908677	2.0892961e-12	0.34	1.0278502e6	1.8006803e6	-0.050977203	-0.0029887578	-0.0029887545	-1094.0155	3296.4405	0	890.7141721642126
2.2908677	2.2908677e-12	0.34	937410.75	1.642242e6	-0.050752635	-0.0029887579	-0.0029887542	-997.75858	3006.3897	0	890.9251685715672
2.2908677	2.5118864e-12	0.34	854928.97	1.4977445e6	-0.050528066	-0.0029887578	-0.0029887538	-909.97119	2741.8603	0	891.1361659504321
2.2908677	2.7542287e-12	0.34	779704.68	1.3659611e6	-0.050303498	-0.0029887579	-0.0029887534	-829.90811	2500.6066	0	891.3471623897319
2.2908677	3.0199517e-12	0.34	711099.33	1.2457733e6	-0.05007893	-0.0029887578	-0.002988753	-756.88971	2280.5806	0	891.5581588290315
2.2908677	3.3113112e-12	0.34	648530.5	1.1361608e6	-0.049854361	-0.0029887578	-0.0029887525	-690.2961	2079.9145	0	891.7691562398418
2.2908677	3.6307805e-12	0.34	591467.05	1.0361929e6	-0.049629793	-0.0029887578	-0.002988752	-629.56199	1896.9049	0	891.9801527110866
2.2908677	3.9810717e-12	0.34	539424.56	945021.07	-0.049405224	-0.0029887578	-0.0029887514	-574.17181	1729.9981	0	892.191150153842
2.2908677	4.3651583e-12	0.34	491961.25	861871.39	-0.049180656	-0.0029887578	-0.0029887508	-523.65534	1577.7773	0	892.4021466570323
2.2908677	4.7863009e-12	0.34	448674.19	786037.97	-0.048956087	-0.0029887578	-0.0029887501	-477.58375	1438.9503	0	892.6131441317331
2.2908677	5.2480746e-12	0.34	409195.92	716877.06	-0.048731519	-0.0029887579	-0.0029887495	-435.56594	1312.3385	0	892.8241406349232
2.2908677	5.7543994e-12	0.34	373191.32	653801.55	-0.048506951	-0.0029887578	-0.0029887486	-397.24523	1196.8672	0	893.035137233949
2.2908677	6.3095734e-12	0.34	340354.73	596276.01	-0.048282382	-0.0029887578	-0.0029887477	-362.2963	1091.5562	0	893.24613477254
2.2908677	6.9183097e-12	0.34	310407.41	543812.07	-0.048057814	-0.0029887579	-0.0029887468	-330.42248	995.51135	0	893.4571313715659
2.2908677	7.5857758e-12	0.34	283095.12	495964.39	-0.047833245	-0.0029887578	-0.0029887457	-301.35319	907.91742	0	893.6681289740475
2.2908677	8.3176377e-12	0.34	258186.02	452326.77	-0.047608677	-0.0029887579	-0.0029887445	-274.84167	828.03081	0	893.8791256689088
2.2908677	9.1201084e-12	0.34	235468.65	412528.79	-0.047384108	-0.0029887578	-0.0029887432	-250.66285	755.17336	0	894.0901233352811
2.2908677	1.e-11	0.34	214750.17	376232.58	-0.04715954	-0.0029887578	-0.0029887418	-228.61149	688.72657	0	894.301120094033
2.2908677	1.0964782e-11	0.34	195854.68	343130.04	-0.046934972	-0.0029887579	-0.0029887403	-208.50038	628.12638	0	894.5121168847301
2.2908677	1.2022644e-11	0.34	178621.79	312940.16	-0.046710403	-0.0029887578	-0.0029887386	-190.15882	572.85835	0	894.7231146788829
2.2908677	1.3182567e-11	0.34	162905.21	285406.65	-0.046485835	-0.0029887579	-0.0029887368	-173.43109	522.4533	0	894.9341115654158
2.2908677	1.4454398e-11	0.34	148571.52	260295.79	-0.046261266	-0.0029887579	-0.0029887347	-158.17521	476.48336	0	895.1451094873495
2.2908677	1.5848932e-11	0.34	135499.04	237394.39	-0.046036698	-0.0029887579	-0.0029887325	-144.26165	434.55827	0	895.3561065016631
2.2908677	1.7378008e-11	0.34	123576.79	216508.07	-0.04581213	-0.0029887579	-0.0029887301	-131.57232	396.32213	0	895.5671035798674
2.2908677	1.9054607e-11	0.34	112703.58	197459.51	-0.045587561	-0.0029887579	-0.0029887274	-119.99949	361.45036	0	895.7781016934724
2.2908677	2.0892961e-11	0.34	102787.08	180087.	-0.045362993	-0.002988758	-0.0029887245	-109.44493	329.64693	0	895.9890989314026
2.2908677	2.2908677e-11	0.34	93743.138	164243.09	-0.045138424	-0.0029887579	-0.0029887212	-99.819031	300.64186	0	896.2000972366792
2.2908677	2.5118864e-11	0.34	85494.96	149793.25	-0.044913856	-0.0029887579	-0.0029887177	-91.04009	274.18891	0	896.4110946662809
2.2908677	2.7542287e-11	0.34	77972.531	136614.84	-0.044689287	-0.002988758	-0.0029887138	-83.03358	250.06354	0	896.6220931632286
2.2908677	3.0199517e-11	0.34	71111.995	124595.97	-0.044464719	-0.002988758	-0.0029887096	-75.731537	228.06094	0	896.8330908164467
2.2908677	3.3113112e-11	0.34	64855.111	113634.63	-0.044240151	-0.002988758	-0.002988705	-69.071973	207.99433	0	897.0440885974457
2.2908677	3.6307805e-11	0.34	59148.766	103637.76	-0.044015582	-0.002988758	-0.0029886999	-62.998361	189.69337	0	897.2550874777362
2.2908677	3.9810717e-11	0.34	53944.517	94520.496	-0.043791014	-0.002988758	-0.0029886943	-57.45914	173.00269	0	897.4660855781874
2.2908677	4.3651583e-11	0.34	49198.187	86205.447	-0.043566445	-0.002988758	-0.0029886881	-52.407292	157.78061	0	897.6770848098752
2.2908677	4.7863009e-11	0.34	44869.481	78622.021	-0.043341877	-0.0029887581	-0.0029886814	-47.79993	143.89791	0	897.888083261724
2.2908677	5.2480746e-11	0.34	40921.655	71705.848	-0.043117309	-0.0029887581	-0.002988674	-43.597948	131.23673	0	898.0990819371891
2.2908677	5.7543994e-11	0.34	37321.194	65398.215	-0.04289274	-0.0029887581	-0.0029886659	-39.765674	119.68961	0	898.3100817758364
2.2908677	6.3095734e-11	0.34	34037.535	59645.576	-0.042668172	-0.0029887582	-0.0029886571	-36.270579	109.1585	0	898.5210808985346
2.2908677	6.9183097e-11	0.34	31042.803	54399.1	-0.042443603	-0.0029887582	-0.0029886474	-33.082995	99.554016	0	898.7320812483052
2.2908677	7.5857758e-11	0.34	28311.574	49614.249	-0.042219035	-0.0029887582	-0.0029886368	-30.175864	90.794623	0	898.9430809460175
2.2908677	8.3176377e-11	0.34	25820.664	45250.405	-0.041994467	-0.0029887582	-0.002988625	-27.52451	82.805963	0	899.1540810270726
2.2908677	9.1201084e-11	0.34	23548.927	41270.522	-0.041769898	-0.0029887584	-0.0029886123	-25.106425	75.520216	0	899.3650823352
2.2908677	1.e-10	0.34	21477.078	37640.82	-0.04154533	-0.0029887583	-0.0029885982	-22.901087	68.875538	0	899.576083150995
2.2908677	1.0964782e-10	0.34	19587.53	34330.482	-0.041320762	-0.0029887585	-0.0029885829	-20.889774	62.815518	0	899.7870843501328
2.2908677	1.2022644e-10	0.34	17864.241	31311.412	-0.041096193	-0.0029887585	-0.002988566	-19.055416	57.288715	0	899.9980869999592
2.2908677	1.3182567e-10	0.34	16292.583	28557.978	-0.040871625	-0.0029887585	-0.0029885474	-17.382441	52.248211	0	900.2090892532896
2.2908677	1.4454398e-10	0.34	14859.214	26046.808	-0.040647057	-0.0029887586	-0.0029885271	-15.85665	47.651216	0	900.4200920496883
2.2908677	1.5848932e-10	0.34	13551.966	23756.586	-0.040422488	-0.0029887587	-0.0029885049	-14.465093	43.458707	0	900.6310963926117
2.2908677	1.7378008e-10	0.34	12359.741	21667.871	-0.04019792	-0.0029887588	-0.0029884805	-13.195958	39.635094	0	900.8421004987647
2.2908677	1.9054607e-10	0.34	11272.419	19762.932	-0.039973351	-0.0029887589	-0.0029884538	-12.038473	36.147917	0	901.0531062792231
2.2908677	2.0892961e-10	0.34	10280.77	18025.599	-0.039748783	-0.002988759	-0.0029884244	-10.982814	32.967574	0	901.2641119826372
2.2908677	2.2908677e-10	0.34	9376.3756	16441.124	-0.039524215	-0.0029887591	-0.0029883922	-10.020022	30.067066	0	901.4751185805173
2.2908677	2.5118864e-10	0.34	8551.5577	14996.058	-0.039299647	-0.0029887593	-0.002988357	-9.141926	27.421772	0	901.6861261367542
2.2908677	2.7542287e-10	0.34	7799.3149	13678.133	-0.039075078	-0.0029887594	-0.0029883183	-8.3410729	25.009235	0	901.8971357506393
2.2908677	3.0199517e-10	0.34	7113.2614	12476.164	-0.03885051	-0.0029887595	-0.0029882759	-7.6106666	22.808975	0	902.1081456069323
2.2908677	3.3113112e-10	0.34	6487.573	11379.947	-0.038625942	-0.0029887597	-0.0029882294	-6.9445082	20.802314	0	902.3191567729791
2.2908677	3.6307805e-10	0.34	5916.9385	10380.177	-0.038401373	-0.0029887599	-0.0029881784	-6.3369448	18.972217	0	902.5301703161265
2.2908677	3.9810717e-10	0.34	5396.5137	9468.3679	-0.038176805	-0.00298876	-0.0029881225	-5.7828206	17.30315	0	902.7411844850244
2.2908677	4.3651583e-10	0.34	4921.8806	8636.7799	-0.037952237	-0.0029887602	-0.0029880612	-5.2774336	15.780942	0	902.9522003789641
2.2908677	4.7863009e-10	0.34	4489.01	7878.3545	-0.037727669	-0.0029887606	-0.0029879941	-4.8164953	14.392671	0	903.1632181257269
2.2908677	5.2480746e-10	0.34	4094.2274	7186.6543	-0.037503101	-0.0029887608	-0.0029879203	-4.396095	13.126554	0	903.3742380128194
2.2908677	5.7543994e-10	0.34	3734.1813	6555.8081	-0.037278533	-0.002988761	-0.0029878395	-4.0126655	11.971841	0	903.5852601360775
2.2908677	6.3095734e-10	0.34	3405.8154	5980.4613	-0.037053964	-0.0029887614	-0.002987751	-3.6629538	10.918731	0	903.796285658683
2.2908677	6.9183097e-10	0.34	3106.3422	5455.7309	-0.036829396	-0.0029887617	-0.0029876538	-3.3439933	9.9582825	0	904.0073130209576
2.2908677	7.5857758e-10	0.34	2833.2194	4977.1629	-0.036604828	-0.0029887621	-0.0029875473	-3.0530781	9.0823433	0	904.2183433541377
2.2908677	8.3176377e-10	0.34	2584.1284	4540.6956	-0.03638026	-0.0029887625	-0.0029874305	-2.7877405	8.2834773	0	904.4293769776757
2.2908677	9.1201084e-10	0.34	2356.9547	4142.6245	-0.036155692	-0.002988763	-0.0029873025	-2.5457299	7.5549027	0	904.6404141790786
2.2908677	1.e-9	0.34	2149.7699	3779.5713	-0.035931124	-0.0029887634	-0.002987162	-2.324994	6.890435	0	904.851455373634
2.2908677	1.0964782e-9	0.34	1960.815	3448.4547	-0.035706556	-0.002988764	-0.0029870081	-2.1236605	6.2844331	0	905.0625008488494
2.2908677	1.2022644e-9	0.34	1788.4862	3146.4648	-0.035481989	-0.0029887646	-0.0029868392	-1.9400226	5.7317529	0	905.2735501762825
2.2908677	1.3182567e-9	0.34	1631.3204	2871.0385	-0.035257421	-0.0029887653	-0.0029866542	-1.772523	5.2277025	0	905.4846055864618
2.2908677	1.4454398e-9	0.34	1487.9835	2619.8387	-0.035032853	-0.002988766	-0.0029864512	-1.6197417	4.7680032	0	905.6956667467812
2.2908677	1.5848932e-9	0.34	1357.2587	2390.7337	-0.034808285	-0.0029887668	-0.0029862287	-1.4803838	4.3487524	0	905.9067341364187
2.2908677	1.7378008e-9	0.34	1238.0363	2181.7793	-0.034583718	-0.0029887676	-0.0029859846	-1.3532682	3.9663912	0	906.1178074866588
2.2908677	1.9054607e-9	0.34	1129.3042	1991.2025	-0.03435915	-0.0029887686	-0.0029857171	-1.2373175	3.6176736	0	906.3288892516462
2.2908677	2.0892961e-9	0.34	1030.1393	1817.3863	-0.034134583	-0.0029887696	-0.0029854237	-1.1315495	3.2996394	0	906.5399783508807
2.2908677	2.2908677e-9	0.34	939.6999	1658.856	-0.033910016	-0.0029887708	-0.0029851021	-1.0350682	3.0095888	0	906.7510764586677
2.2908677	2.5118864e-9	0.34	857.21818	1514.2665	-0.033685448	-0.002988772	-0.0029847494	-0.94705637	2.7450596	0	906.9621854409843
2.2908677	2.7542287e-9	0.34	781.99396	1382.3913	-0.033460881	-0.0029887734	-0.0029843626	-0.86676888	2.5038061	0	907.173304377056
2.2908677	3.0199517e-9	0.34	713.38867	1262.1115	-0.033236314	-0.0029887748	-0.0029839386	-0.79352606	2.2837803	0	907.3844351967502
2.2908677	3.3113112e-9	0.34	650.81991	1152.407	-0.033011747	-0.0029887765	-0.0029834736	-0.72670803	2.0831145	0	907.5955791139857
2.2908677	3.6307805e-9	0.34	593.75654	1052.3471	-0.032787181	-0.0029887783	-0.0029829638	-0.6657495	1.9001051	0	907.8067364031149
2.2908677	3.9810717e-9	0.34	541.71414	961.08341	-0.032562614	-0.0029887803	-0.0029824049	-0.61013487	1.7331986	0	908.0179103169135
2.2908677	4.3651583e-9	0.34	494.25092	877.8418	-0.032338048	-0.0029887825	-0.0029817919	-0.55939395	1.5809781	0	908.2291005735119
2.2908677	4.7863009e-9	0.34	450.96397	801.91646	-0.032113482	-0.0029887849	-0.0029811199	-0.51309791	1.4421514	0	908.4403096777912
2.2908677	5.2480746e-9	0.34	411.48583	732.66365	-0.031888916	-0.0029887875	-0.002980383	-0.47085563	1.31554	0	908.6515395145195
2.2908677	5.7543994e-9	0.34	375.48135	669.49625	-0.03166435	-0.0029887903	-0.002979575	-0.43231044	1.2000692	0	908.8627920643005
2.2908677	6.3095734e-9	0.34	342.6449	611.87881	-0.031439785	-0.0029887935	-0.0029786891	-0.39713702	1.0947585	0	909.0740685598441
2.2908677	6.9183097e-9	0.34	312.69773	559.323	-0.03121522	-0.0029887969	-0.0029777177	-0.3650387	0.99871421	0	909.2853723685524
2.2908677	7.5857758e-9	0.34	285.38561	511.38345	-0.030990655	-0.0029888007	-0.0029766526	-0.33574488	0.91112081	0	909.4967061099335
2.2908677	8.3176377e-9	0.34	260.4767	467.65399	-0.030766091	-0.0029888048	-0.0029754847	-0.30900881	0.8312348	0	909.7080717514375
2.2908677	9.1201084e-9	0.34	237.75953	427.76417	-0.030541527	-0.0029888094	-0.0029742041	-0.28460544	0.758378	0	909.9194733952064
2.2908677	1.e-8	0.34	217.04126	391.37614	-0.030316963	-0.0029888144	-0.0029728	-0.26232949	0.69193192	0	910.1309144913247
2.2908677	1.0964782e-8	0.34	198.14602	358.18181	-0.0300924	-0.0029888198	-0.0029712604	-0.24199378	0.63133252	0	910.342397933653
2.2908677	1.2022644e-8	0.34	180.9134	327.90015	-0.029867837	-0.0029888258	-0.0029695724	-0.22342759	0.57606534	0	910.5539287826908
2.2908677	1.3182567e-8	0.34	165.19711	300.27489	-0.029643275	-0.0029888324	-0.0029677214	-0.20647521	0.52566124	0	910.7655107628748
2.2908677	1.4454398e-8	0.34	150.86375	275.0723	-0.029418714	-0.0029888396	-0.0029656919	-0.19099464	0.47969233	0	910.9771488257147
2.2908677	1.5848932e-8	0.34	137.79161	252.07921	-0.029194153	-0.0029888475	-0.0029634666	-0.17685637	0.43776837	0	911.188849437299
2.2908677	1.7378008e-8	0.34	125.86975	231.10121	-0.028969593	-0.0029888561	-0.0029610266	-0.16394228	0.39953347	0	911.4006176957093
2.2908677	1.9054607e-8	0.34	114.99696	211.96101	-0.028745034	-0.0029888657	-0.0029583513	-0.15214466	0.36466306	0	911.6124601816616
2.2908677	2.0892961e-8	0.34	105.08093	194.49691	-0.028520476	-0.0029888761	-0.0029554178	-0.14136526	0.33286112	0	911.8243842106112
2.2908677	2.2908677e-8	0.34	96.037494	178.56143	-0.028295918	-0.0029888875	-0.0029522014	-0.13151448	0.30385769	0	912.0363986125938
2.2908677	2.5118864e-8	0.34	87.789873	164.02007	-0.028071362	-0.0029889	-0.0029486747	-0.1225106	0.27740653	0	912.248510261469
2.2908677	2.7542287e-8	0.34	80.268057	150.75019	-0.027846807	-0.0029889137	-0.0029448078	-0.11427909	0.25328313	0	912.4607296484239
2.2908677	3.0199517e-8	0.34	73.408191	138.6399	-0.027622253	-0.0029889288	-0.0029405679	-0.10675199	0.23128269	0	912.6730672514911
2.2908677	3.3113112e-8	0.34	67.152042	127.5872	-0.027397701	-0.0029889453	-0.0029359191	-0.099867304	0.21121844	0	912.8855335994401
2.2908677	3.6307805e-8	0.34	61.446503	117.49903	-0.02717315	-0.0029889634	-0.0029308219	-0.09356849	0.19292007	0	913.0981422501986
2.2908677	3.9810717e-8	0.34	56.243138	108.29053	-0.026948601	-0.0029889833	-0.0029252331	-0.087803985	0.17623223	0	913.3109060645374
2.2908677	4.3651583e-8	0.34	51.497775	99.884326	-0.026724053	-0.0029890051	-0.0029191054	-0.082526761	0.16101327	0	913.5238410921115
2.2908677	4.7863009e-8	0.34	47.170131	92.209827	-0.026499508	-0.002989029	-0.0029123869	-0.077693925	0.14713398	0	913.7369620333606
2.2908677	5.2480746e-8	0.34	43.22347	85.20267	-0.026274965	-0.0029890552	-0.0029050205	-0.073266358	0.13447655	0	913.9502880685717
2.2908677	5.7543994e-8	0.34	39.624286	78.804152	-0.026050424	-0.0029890839	-0.0028969439	-0.069208382	0.12293353	0	914.1638390996179
2.2908677	6.3095734e-8	0.34	36.342027	72.960739	-0.025825887	-0.0029891154	-0.0028880889	-0.065487453	0.11240693	0	914.3776350340102
2.2908677	6.9183097e-8	0.34	33.348829	67.623605	-0.025601352	-0.00298915	-0.0028783805	-0.062073891	0.10280738	0	914.5917017097953
2.2908677	7.5857758e-8	0.34	30.619282	62.748226	-0.02537682	-0.002989188	-0.0028677368	-0.058940624	0.094053399	0	914.806064350545
2.2908677	8.3176377e-8	0.34	28.130216	58.293998	-0.025152292	-0.0029892295	-0.0028560678	-0.056062961	0.08607067	0	915.0207507673933
2.2908677	9.1201084e-8	0.34	25.860501	54.223888	-0.024927768	-0.0029892751	-0.0028432752	-0.053418379	0.078791426	0	915.2357923624934
2.2908677	1.e-7	0.34	23.790868	50.504128	-0.024703248	-0.0029893252	-0.0028292513	-0.050986336	0.072153875	0	915.4512235408495
2.2908677	1.0964782e-7	0.34	21.903748	47.103923	-0.024478733	-0.0029893801	-0.0028138781	-0.04874809	0.066101667	0	915.6670810582577
2.2908677	1.2022644e-7	0.34	20.183121	43.995188	-0.024254223	-0.0029894403	-0.0027970267	-0.04668655	0.060583426	0	915.8834060921096
2.2908677	1.3182567e-7	0.34	18.61438	41.152315	-0.024029718	-0.0029895063	-0.0027785561	-0.04478612	0.055552305	0	916.1002436851677
2.2908677	1.4454398e-7	0.34	17.184207	38.551951	-0.02380522	-0.0029895787	-0.0027583121	-0.043032575	0.05096559	0	916.3176412178335
2.2908677	1.5848932e-7	0.34	15.880461	36.172805	-0.023580729	-0.0029896582	-0.0027361264	-0.041412935	0.046784345	0	916.5356524539154
2.2908677	1.7378008e-7	0.34	14.692072	33.995458	-0.023356245	-0.0029897454	-0.0027118151	-0.039915357	0.042973071	0	916.7543361406765
2.2908677	1.9054607e-7	0.34	13.608952	32.002208	-0.02313177	-0.0029898411	-0.0026851779	-0.038529036	0.039499408	0	916.9737543852657
2.2908677	2.0892961e-7	0.34	12.621904	30.176913	-0.022907303	-0.002989946	-0.0026559966	-0.037244111	0.036333863	0	917.1939778317225
2.2908677	2.2908677e-7	0.34	11.722545	28.504859	-0.022682847	-0.0029900612	-0.0026240337	-0.03605158	0.033449555	0	917.4150795312528
2.2908677	2.5118864e-7	0.34	10.903239	26.972627	-0.022458401	-0.0029901876	-0.0025890317	-0.034943228	0.030821988	0	917.6371426823682
2.2908677	2.7542287e-7	0.34	10.157025	25.567988	-0.022233968	-0.0029903263	-0.0025507111	-0.033911554	0.028428844	0	917.8602537532681
2.2908677	3.0199517e-7	0.34	9.4775644	24.279794	-0.022009547	-0.0029904786	-0.0025087697	-0.032949709	0.026249788	0	918.0845102219785
2.2908677	3.3113112e-7	0.34	8.8590806	23.097882	-0.021785142	-0.0029906458	-0.0024628822	-0.032051435	0.024266299	0	918.3100122480446
2.2908677	3.6307805e-7	0.34	8.2963142	22.01299	-0.021560752	-0.0029908293	-0.0024126984	-0.031211019	0.022461509	0	918.5368726431991
2.2908677	3.9810717e-7	0.34	7.7844756	21.016675	-0.02133638	-0.002991031	-0.002357844	-0.030423235	0.020820056	0	918.7652081597109
2.2908677	4.3651583e-7	0.34	7.3192038	20.101242	-0.021112027	-0.0029912525	-0.0022979201	-0.029683309	0.019327956	0	918.9951452875057
2.2908677	4.7863009e-7	0.34	6.8965286	19.25968	-0.020887696	-0.0029914959	-0.0022325046	-0.028986874	0.017972474	0	919.2268160486686
2.2908677	5.2480746e-7	0.34	6.5128352	18.485593	-0.020663389	-0.0029917634	-0.0021611539	-0.028329935	0.01674202	0	919.4603602730733
2.2908677	5.7543994e-7	0.34	6.1648326	17.773153	-0.020439108	-0.0029920576	-0.0020834054	-0.027708832	0.015626036	0	919.6959238601855
2.2908677	6.3095734e-7	0.34	5.8495235	17.117044	-0.020214856	-0.0029923813	-0.0019987825	-0.027120218	0.014614912	0	919.9336562422369
2.2908677	6.9183097e-7	0.34	5.5641765	16.512414	-0.019990636	-0.0029927377	-0.0019067992	-0.026561023	0.013699886	0	920.1737098543099
2.2908677	7.5857758e-7	0.34	5.3063009	15.954833	-0.019766453	-0.0029931302	-0.0018069683	-0.026028434	0.01287297	0	920.4162356356987
2.2908677	8.3176377e-7	0.34	5.073622	15.440251	-0.019542309	-0.0029935629	-0.0016988105	-0.025519871	0.012126868	0	920.6613848207214
2.2908677	9.1201084e-7	0.34	4.8640593	14.964959	-0.019318209	-0.0029940404	-0.0015818646	-0.025032968	0.011454905	0	920.9093000429142
2.2908677	1.e-6	0.34	4.6757054	14.525558	-0.01909416	-0.0029945678	-0.0014557002	-0.024565554	0.010850961	0	921.1601122175551
2.2908677	1.0964782e-6	0.34	4.5068066	14.118921	-0.018870166	-0.002995151	-0.0013199302	-0.024115636	0.010309409	0	921.4139412463367
2.2908677	1.2022644e-6	0.34	4.355745	13.74217	-0.018646236	-0.0029957971	-0.0011742254	-0.023681387	0.0098250559	0	921.6708838368411
2.2908677	1.3182567e-6	0.34	4.2210231	13.392646	-0.018422377	-0.0029965138	-0.0010183252	-0.023261135	0.0093930912	0	921.9310166613593
2.2908677	1.4454398e-6	0.34	4.1012492	13.067885	-0.018198599	-0.0029973107	-0.00085204981	-0.022853345	0.0090090431	0	922.1943877585522
2.2908677	1.5848932e-6	0.34	3.9951259	12.765603	-0.017974913	-0.0029981986	-0.00067530636	-0.022456617	0.0086687392	0	922.4610164607286
2.2908677	1.7378008e-6	0.34	3.9014402	12.483672	-0.017751333	-0.0029991907	-0.00048809282	-0.022069673	0.0083682742	0	922.7308902624616
2.2908677	1.9054607e-6	0.34	3.8190564	12.220114	-0.017527876	-0.0030003025	-0.00029049586	-0.02169135	0.0081039858	0	923.003965504216
2.2908677	2.0892961e-6	0.34	3.7469108	11.973087	-0.01730456	-0.0030015528	-0.000082684857	-0.021320592	0.0078724356	0	923.2801711659575
2.2908677	2.2908677e-6	0.34	3.6840073	11.740874	-0.01708141	-0.0030029645	0.00013509947	-0.020956446	0.0076703956	0	923.5594068603336
2.2908677	2.5118864e-6	0.34	3.6294158	11.521881	-0.016858455	-0.0030045652	0.00036255934	-0.020598051	0.0074948378	0	923.8415502131478
2.2908677	2.7542287e-6	0.34	3.5822694	11.314628	-0.016635729	-0.0030063893	0.00059935583	-0.020244636	0.007342924	0	924.1264610094738
2.2908677	3.0199517e-6	0.34	3.541763	11.117742	-0.016413278	-0.0030084786	0.0008451256	-0.019895511	0.0072119963	0	924.4139799595363
2.2908677	3.3113112e-6	0.34	3.50715	10.929948	-0.016191154	-0.0030108855	0.0010994959	-0.019550062	0.007099563	0	924.7039391301223
2.2908677	3.6307805e-6	0.34	3.4777393	10.750063	-0.015969425	-0.0030136747	0.0013620972	-0.019207746	0.0070032811	0	924.99615658361
2.2908677	3.9810717e-6	0.34	3.4528903	10.576983	-0.015748172	-0.0030169268	0.0016325727	-0.018868084	0.0069209337	0	925.2904422346536
2.2908677	4.3651583e-6	0.34	3.432007	10.409665	-0.015527497	-0.0030207425	0.0019105832	-0.018530659	0.0068504012	0	925.5865918893951
2.2908677	4.7863009e-6	0.34	3.4145307	10.247119	-0.015307525	-0.0030252465	0.0021958097	-0.018195109	0.0067896284	0	925.884386196908
2.2908677	5.2480746e-6	0.34	3.3999323	10.088387	-0.015088408	-0.0030305936	0.0024879505	-0.017861128	0.0067365868	0	926.1835859645244
2.2908677	5.7543994e-6	0.34	3.387704	9.9325272	-0.014870333	-0.0030369748	0.0027867172	-0.017528457	0.0066892363	0	926.4839233635039
2.2908677	6.3095734e-6	0.34	3.3773513	9.778597	-0.014653521	-0.0030446234	0.0030918272	-0.017196889	0.0066454886	0	926.7851004727072
2.2908677	6.9183097e-6	0.34	3.368387	9.625643	-0.014438234	-0.0030538214	0.0034029961	-0.016866264	0.0066031782	0	927.0867802738014
2.2908677	7.5857758e-6	0.34	3.360327	9.4726938	-0.014224775	-0.0030649054	0.0037199291	-0.016536469	0.0065600488	0	927.3885839039713
2.2908677	8.3176377e-6	0.34	3.3526912	9.318764	-0.014013484	-0.0030782698	0.0040423146	-0.01620744	0.0065137633	0	927.6900923696866
2.2908677	9.1201084e-6	0.34	3.3450095	9.1628721	-0.01380473	-0.0030943662	0.0043698215	-0.015879158	0.0064619466	0	927.9908532007032
2.2908677	0.00001	0.34	3.3368347	9.0040735	-0.013598897	-0.0031136997	0.0047021001	-0.015551649	0.0064022691	0	928.290393891486
2.2908677	0.000010964782	0.34	3.3277625	8.8415096	-0.013396361	-0.0031368176	0.0050387897	-0.015224983	0.0063325689	0	928.588245939048
2.2908677	0.000012022644	0.34	3.3144706	8.6780016	-0.013204635	-0.003167065	0.0053767603	-0.0149042	0.0062546827	0	928.8763505034686
2.2908677	0.000013182567	0.34	3.3027794	8.5068246	-0.013009873	-0.0031993941	0.0057213011	-0.014579851	0.0061616648	0	929.1694064532614
2.2908677	0.000014454398	0.34	3.289534	8.3305403	-0.012819167	-0.003237168	0.0060693143	-0.014256724	0.0060549721	0	929.45976079188
2.2908677	0.000015848932	0.34	3.2747327	8.1491994	-0.01263259	-0.0032809185	0.0064205549	-0.013934971	0.0059345752	0	929.7472666652596
2.2908677	0.000017378008	0.34	3.2585033	7.9631545	-0.012450091	-0.0033311331	0.0067748427	-0.013614741	0.0058011865	0	930.031914425944
2.2908677	0.000019054607	0.34	3.2410923	7.7730367	-0.012271501	-0.0033882472	0.0071320682	-0.013296163	0.0056562158	0	930.313827880459
2.2908677	0.000020892961	0.34	3.2228455	7.5797065	-0.012096536	-0.0034526433	0.0074921925	-0.012979335	0.0055016618	0	930.5932614386724
2.2908677	0.000022908677	0.34	3.2041806	7.3841886	-0.011924824	-0.0035246545	0.0078552429	-0.012664321	0.0053399608	0	930.8705733399404
2.2908677	0.000025118864	0.34	3.185558	7.1876001	-0.011755921	-0.0036045722	0.0082213042	-0.012351137	0.0051738178	0	931.1462078408267
2.2908677	0.000027542287	0.34	3.1674539	6.9910831	-0.011589341	-0.0036926547	0.0085905099	-0.012039758	0.0050060454	0	931.420664216962
2.2908677	0.000030199517	0.34	3.1503366	6.7957483	-0.011424568	-0.0037891339	0.0089630349	-0.011730109	0.0048394253	0	931.6944831562605
2.2908677	0.000033113112	0.34	3.1346494	6.602631	-0.011261084	-0.0038942232	0.0093390872	-0.011422071	0.0046766006	0	931.9682177996349
2.2908677	0.000036307805	0.34	3.120798	6.4126621	-0.011098378	-0.0040081194	0.009718906	-0.011115484	0.0045200013	0	932.24242467795
2.2908677	0.000039810717	0.34	3.1091435	6.2266506	-0.010935958	-0.004131005	0.010102759	-0.01081015	0.0043717983	0	932.5176515747168
2.2908677	0.000043651583	0.34	3.0999993	6.0452766	-0.010773362	-0.0042630481	0.010490944	-0.010505838	0.0042338806	0	932.7944277019978
2.2908677	0.000047863009	0.34	3.0936304	5.869091	-0.010610158	-0.0044043978	0.010883792	-0.010202288	0.0041078512	0	933.073264690709
2.2908677	0.000052480746	0.34	3.090255	5.6985207	-0.010445958	-0.0045551829	0.011281667	-0.009899217	0.0039950339	0	933.3546433728136
2.2908677	0.000057543994	0.34	3.0900475	5.5338764	-0.01028041	-0.0047155047	0.011684978	-0.0095963232	0.0038964888	0	933.6390251312725
2.2908677	0.000063095734	0.34	3.0931413	5.3753626	-0.010113211	-0.0048854339	0.012094179	-0.0092932888	0.0038130315	0	933.9268396856942
2.2908677	0.000069183097	0.34	3.099633	5.2230871	-0.0099441018	-0.005065004	0.012509776	-0.0089897852	0.0037452538	0	934.2184922142401
2.2908677	0.000075857758	0.34	3.1095852	5.0770716	-0.00977287	-0.0052542078	0.012932334	-0.008685476	0.0036935449	0	934.5143627710945
2.2908677	0.000083176377	0.34	3.1230296	4.9372606	-0.0095993539	-0.0054529927	0.013362478	-0.0083800203	0.0036581106	0	934.8148029416113
2.2908677	0.000091201084	0.34	3.1399699	4.8035293	-0.0094234412	-0.0056612589	0.013800897	-0.0080730751	0.0036389893	0	935.1201383415579
2.2908677	0.0001	0.34	3.1603824	4.6756898	-0.0092450716	-0.0058788585	0.014248344	-0.0077642989	0.0036360645	0	935.4306661742462
2.2908677	0.00010964782	0.34	3.1842168	4.5534941	-0.0090642399	-0.0061055954	0.014705642	-0.0074533534	0.00364907	0	935.746654234592
2.2908677	0.00012022644	0.34	3.2113932	4.4366317	-0.0088809992	-0.0063412294	0.015173672	-0.0071399069	0.0036775801	0	936.0683340690805
2.2908677	0.00013182567	0.34	3.241793	4.3247151	-0.0086954741	-0.0065854794	0.015653377	-0.0068236372	0.0037209724	0	936.395889851311
2.2908677	0.00014454398	0.34	3.2752368	4.2172352	-0.0085078875	-0.0068380274	0.016145757	-0.0065042365	0.0037783136	0	936.7294316043866
2.2908677	0.00015848932	0.34	3.3114173	4.1134258	-0.0083186415	-0.007098515	0.01665187	-0.0061814198	0.0038480199	0	937.0689195095275
2.2908677	0.00017378008	0.34	3.3496849	4.0118087	-0.008128586	-0.0073664892	0.017172891	-0.0058549463	0.0039267288	0	937.4139303864999
2.2908677	0.00019054607	0.34	3.3882956	3.9085823	-0.0079399903	-0.0076410832	0.017710429	-0.0055246817	0.0040053045	0	937.7628460782757
2.2908677	0.00020892961	0.34	3.4222976	3.7930799	-0.0077594344	-0.007919712	0.018267835	-0.005190797	0.0040575688	0	938.1105547292377
2.2908677	0.00022908677	0.34	3.4429647	3.6466905	-0.0075994182	-0.0081962849	0.018851986	-0.0048541659	0.0040372701	0	938.4475087393776
2.2908677	0.00025118864	0.34	3.4481641	3.4654529	-0.0074655777	-0.0084661709	0.019468324	-0.0045163043	0.0039332346	0	938.7701511773582
2.2908677	0.00027542287	0.34	3.445621	3.2666325	-0.0073503497	-0.0087317176	0.020115336	-0.0041783854	0.0037863855	0	939.0851048326276
2.2908677	0.00030199517	0.34	3.4426223	3.0660545	-0.007245095	-0.0089974822	0.020789325	-0.003840783	0.0036349345	0	939.3993057833038
2.2908677	0.00033113112	0.34	3.4431776	2.872127	-0.0071444491	-0.0092670652	0.021487576	-0.0035033227	0.0034995567	0	939.7169270149325
2.2908677	0.00036307805	0.34	3.4492712	2.6887382	-0.0070452776	-0.0095430406	0.022208427	-0.0031655475	0.0033901895	0	940.0403825715582
2.2908677	0.00039810717	0.34	3.4618561	2.5175022	-0.0069456477	-0.0098272983	0.022950927	-0.002826862	0.0033113638	0	940.3711846460299
2.2908677	0.00043651583	0.34	3.4813434	2.3588679	-0.0068443193	-0.010121226	0.023714656	-0.0024866063	0.0032648341	0	940.7103642234053
2.2908677	0.00047863009	0.34	3.5078305	2.2126469	-0.0067405314	-0.010425744	0.024499692	-0.002144097	0.0032508244	0	941.0586612301896
2.2908677	0.00052480746	0.34	3.5412018	2.0782652	-0.0066339508	-0.010741213	0.025306698	-0.0017986522	0.0032686169	0	941.416600526378
2.2908677	0.00057543994	0.34	3.5811613	1.9548751	-0.0065247278	-0.011067232	0.026137136	-0.00144961	0.0033168069	0	941.7845079344429
2.2908677	0.00063095734	0.34	3.6272307	1.8413958	-0.0064136135	-0.011402342	0.026993553	-0.0010963466	0.0033933827	0	942.1624913916517
2.2908677	0.00069183097	0.34	3.6787542	1.7365409	-0.006302042	-0.011743832	0.027879786	-0.00073829376	0.0034957762	0	942.5504292055004
2.2908677	0.00075857758	0.34	3.7349794	1.6389185	-0.0061919594	-0.012088024	0.028800665	-0.00037495359	0.0036210913	0	942.9480358420788
2.2908677	0.00083176377	0.34	3.7952706	1.5472717	-0.0060851801	-0.012431508	0.029760798	-5.898605e-6	0.0037666914	0	943.3550785898412
2.2908677	0.00091201084	0.34	3.859386	1.4607933	-0.0059824256	-0.012773022	0.030762672	0.00036925373	0.0039309901	0	943.7716740300561
2.2908677	0.001	0.34	3.9276118	1.3792871	-0.005882688	-0.013114769	0.031805353	0.0007508885	0.0041138949	0	944.1984707822673
2.2908677	0.0010964782	0.34	4.0006412	1.3030472	-0.0057833866	-0.013462196	0.032884696	0.0011394399	0.0043165565	0	944.636569453326
2.2908677	0.0012022644	0.34	4.079312	1.2325684	-0.005681103	-0.013822574	0.033994777	0.0015354199	0.0045406938	0	945.087289418479
2.2908677	0.0013182567	0.34	4.1643699	1.1682776	-0.005572416	-0.014203279	0.035129605	0.0019394198	0.0047879385	0	945.5519312804579
2.2908677	0.0014454398	0.34	4.256327	1.1103651	-0.0054545688	-0.014610322	0.036284599	0.0023520927	0.0050594079	0	946.0316218224041
2.2908677	0.0015848932	0.34	4.3554135	1.0587163	-0.0053258893	-0.015047344	0.037457589	0.0027741287	0.0053555128	0	946.5272388802241
2.2908677	0.0017378008	0.34	4.4616003	1.0129265	-0.0051859076	-0.01551528	0.038649158	0.0032062271	0.0056759654	0	947.0394101963197
2.2908677	0.0019054607	0.34	4.5746733	0.97237858	-0.0050351817	-0.016012703	0.039862297	0.0036490744	0.006019948	0	947.5685669748129
2.2908677	0.0020892961	0.34	4.6943285	0.93635108	-0.0048749355	-0.016536633	0.041101599	0.0041033312	0.0063863618	0	948.1150265257131
2.2908677	0.0022908677	0.34	4.8202539	0.90411758	-0.0047066801	-0.017083415	0.04237238	0.0045696274	0.0067740656	0	948.6790672798166
2.2908677	0.0025118864	0.34	4.952181	0.87501298	-0.0045319446	-0.017649336	0.043680069	0.0050485638	0.0071820385	0	949.2609868538434
2.2908677	0.0027542287	0.34	5.0899051	0.84846191	-0.0043521618	-0.01823089	0.045029935	0.0055407184	0.0076094557	0	949.8611222323023
2.2908677	0.0030199517	0.34	5.2332816	0.8239796	-0.0041686769	-0.018824745	0.046427132	0.0060466515	0.0080556956	0	950.4798559686203
2.2908677	0.0033113112	0.34	5.3822085	0.80115439	-0.0039828751	-0.019427408	0.04787703	0.0065669125	0.0085203037	0	951.1176020352916
2.2908677	0.0036307805	0.34	5.5365923	0.77961712	-0.0037964455	-0.020034551	0.04938589	0.0071020407	0.0090029193	0	951.7747735028263
2.2908677	0.0039810717	0.34	5.6962778	0.7589835	-0.0036119943	-0.020639436	0.050962447	0.0076525644	0.0095031336	0	952.4517120911422
2.2908677	0.0043651583	0.34	5.8608511	0.73871067	-0.003434716	-0.021228658	0.052622162	0.0082189867	0.010020126	0	953.1484762787868
2.2908677	0.0047863009	0.34	6.0291544	0.71775752	-0.0032763881	-0.021772052	0.054397319	0.008801739	0.01055179	0	953.8643135302884
2.2908677	0.0052480746	0.34	6.1991069	0.69451246	-0.0031565274	-0.022220133	0.056339589	0.0094010876	0.011094462	0	954.5973929522322
2.2908677	0.0057543994	0.34	6.3697083	0.66837022	-0.0030852186	-0.02254835	0.058475776	0.010017125	0.011646759	0	955.3468019072114
2.2908677	0.0063095734	0.34	6.5419478	0.64046977	-0.0030537607	-0.022781209	0.060783696	0.010649957	0.012211564	0	956.1136288253095
2.2908677	0.0069183097	0.34	6.7158789	0.61184918	-0.0030526798	-0.022948263	0.063236193	0.011299769	0.012791592	0	956.8981000102372
2.2908677	0.0075857758	0.34	6.888072	0.58221777	-0.0030846622	-0.023054736	0.065830512	0.011966586	0.013386161	0	957.6968114167313
2.2908677	0.0083176377	0.34	7.0558828	0.55096549	-0.0031590248	-0.023085089	0.068584737	0.012650055	0.013993431	0	958.5067861823106
2.2908677	0.0091201084	0.34	7.2253384	0.51973547	-0.0032675671	-0.023047764	0.071493051	0.013349984	0.014617214	0	959.3338709590702
2.2908677	0.01	0.34	7.4033617	0.49076528	-0.0033866417	-0.022991782	0.074509138	0.014066905	0.015263499	0	960.185488275692
2.2908677	0.010964782	0.34	7.5938388	0.46513444	-0.0034933927	-0.022971931	0.077581003	0.014801859	0.01593596	0	961.0665028257325
2.2908677	0.012022644	0.34	7.800148	0.44329223	-0.0035720166	-0.023022901	0.080676832	0.015556237	0.016637082	0	961.9815999773053
2.2908677	0.013182567	0.34	8.0238072	0.42521356	-0.0036159724	-0.023157291	0.08378699	0.01633169	0.017368455	0	962.9338475052343
2.2908677	0.014454398	0.34	8.2637407	0.41039083	-0.0036246252	-0.023378505	0.086911135	0.01712988	0.018130504	0	963.9237326869018
2.2908677	0.015848932	0.34	8.5180637	0.39812761	-0.003600458	-0.023683871	0.09005509	0.01795231	0.018923033	0	964.9507827518144
2.2908677	0.017378008	0.34	8.7851526	0.38771799	-0.003550121	-0.02405826	0.093237236	0.018800309	0.019745651	0	966.0146212537193
2.2908677	0.019054607	0.34	9.0639063	0.37855284	-0.0034823533	-0.024479262	0.096483337	0.019675067	0.020598062	0	967.1152676040367
2.2908677	0.020892961	0.34	9.3538678	0.37022577	-0.0034036902	-0.024929258	0.099814466	0.020577701	0.021480394	0	968.2533132779454
2.2908677	0.022908677	0.34	9.6550737	0.36251438	-0.003317585	-0.025398315	0.10324412	0.02150931	0.0223932	0	969.4298253210225
2.2908677	0.025118864	0.34	9.9678205	0.35530074	-0.0032256778	-0.025881074	0.10678134	0.022471008	0.023337309	0	970.6461509196491
2.2908677	0.027542287	0.34	10.292526	0.34851479	-0.0031288544	-0.026374029	0.11043341	0.023463945	0.024313701	0	971.9037846968017
2.2908677	0.030199517	0.34	10.62967	0.34210752	-0.0030277334	-0.026874244	0.11420718	0.024489319	0.025323452	0	973.2043336850547
2.2908677	0.033113112	0.34	10.979776	0.33604	-0.0029228401	-0.027378909	0.11810949	0.025548372	0.026367712	0	974.5494893839077
2.2908677	0.036307805	0.34	11.343407	0.3302788	-0.0028146704	-0.027885135	0.12214739	0.026642404	0.027447697	0	975.9410380010477
2.2908677	0.039810717	0.34	11.721169	0.32479395	-0.0027037112	-0.028389893	0.12632817	0.027772769	0.028564689	0	977.3808508687822
2.2908677	0.043651583	0.34	12.113713	0.3195576	-0.0025904585	-0.028889938	0.13065951	0.028940885	0.029720037	0	978.8709153557397
2.2908677	0.047863009	0.34	12.521743	0.31454303	-0.0024754263	-0.029381747	0.13514949	0.030148234	0.030915159	0	980.4133296992595
2.2908677	0.052480746	0.34	12.946019	0.30972374	-0.0023591456	-0.029861497	0.13980661	0.03139637	0.032151545	0	982.0103103340026
2.2908677	0.057543994	0.34	13.387375	0.30507279	-0.0022421433	-0.030325071	0.14463985	0.032686928	0.033430762	0	983.6642308839125
2.2908677	0.063095734	0.34	13.846725	0.3005626	-0.0021248863	-0.030768172	0.14965848	0.034021624	0.034754462	0	985.3776139879974
2.2908677	0.069183097	0.34	13.578806	0.31009954	-0.0028505712	-0.031080808	0.15497766	0.035389613	0.036145704	0	986.3950094551994
2.2908677	0.075857758	0.34	12.636613	0.33203295	-0.0043148615	-0.031777309	0.16008836	0.036665757	0.037475327	0	986.6518374826217
2.2908677	0.083176377	0.34	11.777322	0.35203646	-0.0056503101	-0.033104355	0.16474937	0.037829614	0.038687956	0	986.8860662386369
2.2908677	0.091201084	0.34	10.99364	0.37027987	-0.0068682536	-0.035028023	0.16900027	0.038891064	0.039793888	0	987.0996881655263
2.2908677	0.1	0.34	11.640164	0.35410728	-0.0067193297	-0.036653688	0.17374149	0.039963894	0.040827286	0	988.7542051515204
2.2908677	0.10964782	0.34	13.009063	0.32733371	-0.0058055621	-0.038074509	0.17888588	0.041169805	0.041967916	0	991.2561363273344
2.2908677	0.12022644	0.34	14.677424	0.30217127	-0.0044714831	-0.039562023	0.18416809	0.042524163	0.043260923	0	994.197004435621
2.2908677	0.13182567	0.34	16.703327	0.2785741	-0.0026131146	-0.041152236	0.1895585	0.044059057	0.044738282	0	997.6650415215724
2.2908677	0.14454398	0.34	19.161414	0.25650185	-0.00010109442	-0.042885169	0.19502366	0.045813037	0.046438445	0	1001.7711061303911
2.2908677	0.15848932	0.34	22.148807	0.23592024	0.0032268881	-0.044802974	0.20052821	0.047833019	0.048408244	0	1006.656403903685
2.2908677	0.17378008	0.34	25.79145	0.21680131	0.0075745911	-0.046947693	0.20603711	0.050176802	0.050705411	0	1012.5011853238254
2.2908677	0.19054607	0.34	30.249589	0.19912285	0.013195241	-0.049358545	0.21151834	0.052916177	0.053401682	0	1019.5331443006958
2.2908677	0.20892961	0.34	35.720291	0.18286693	0.02039659	-0.052068579	0.21694631	0.056140444	0.056586314	0	1028.0332593555183
2.2908677	0.22908677	0.34	42.434025	0.16801698	0.029539399	-0.055100618	0.22230585	0.059959924	0.060369586	0	1038.3356428394056
2.2908677	0.25118864	0.34	50.641983	0.15455321	0.041025169	-0.058462794	0.22759675	0.064508689	0.064885524	0	1050.8174640949824
2.2908677	0.27542287	0.34	60.591935	0.14244649	0.055270022	-0.062144559	0.2328377	0.069945517	0.070292833	0	1065.8756674967938
2.2908677	0.30199517	0.34	72.493803	0.13165179	0.07266542	-0.066114663	0.23806838	0.076451926	0.076772922	0	1083.8907330399322
2.2908677	0.33113112	0.34	86.481576	0.12210288	0.093532565	-0.070322729	0.24334783	0.084226592	0.084524305	0	1105.1833114529575
2.2908677	0.36307805	0.34	102.58288	0.11371049	0.11808297	-0.07470512	0.24874863	0.093476294	0.093753546	0	1129.9753188637992
2.2908677	0.39810717	0.34	120.70745	0.1063653	0.14639807	-0.079194036	0.25434781	0.10440474	0.10466409	0	1158.3678761811648
2.2908677	0.43651583	0.34	140.65919	0.099945034	0.17843423	-0.08372715	0.2602172	0.11720142	0.11744511	0	1190.3429317238972
2.2908677	0.47863009	0.34	162.16704	0.094323619	0.21404907	-0.088254935	0.26641612	0.13203261	0.1322626	0	1225.7856600830946
2.2908677	0.52480746	0.34	184.92362	0.089379775	0.25303828	-0.09274411	0.27298798	0.14903594	0.14925387	0	1264.5179660829256
2.2908677	0.57543994	0.34	208.62071	0.085003168	0.29517161	-0.097177394	0.27996049	0.16831858	0.16852584	0	1306.3323668225407
2.2908677	0.63095734	0.34	232.97515	0.081097677	0.34022071	-0.10155086	0.28734831	0.18995858	0.19015631	0	1351.0189957237983
2.2908677	0.69183097	0.34	257.74373	0.077582206	0.38797712	-0.10587039	0.29515667	0.21400809	0.21419725	0	1398.3836617289426
2.2908677	0.75857758	0.34	282.72889	0.074389858	0.43826137	-0.11014819	0.30338477	0.24049764	0.24067902	0	1448.257485482834
2.2908677	0.83176377	0.34	307.77821	0.071466267	0.49092602	-0.11440005	0.31202862	0.26944065	0.2696149	0	1500.5006628559147
2.2908677	0.91201084	0.34	332.78036	0.068767648	0.54585483	-0.11864329	0.32108306	0.30083762	0.3010053	0	1555.0023303984508
2.2908677	1.	0.34	357.65942	0.066258897	0.60296008	-0.12289545	0.33054308	0.33467996	0.33484152	0	1611.678468982322
2.2908677	1.0964782	0.34	382.36893	0.063911901	0.66217916	-0.12717348	0.34040466	0.3709531	0.37110893	0	1670.4689682230462
2.2908677	1.2022644	0.34	406.88632	0.061704117	0.72347101	-0.13149332	0.35066518	0.40963914	0.40978958	0	1731.3344126025377
2.2908677	1.3182567	0.34	431.20793	0.059617406	0.78681295	-0.13586975	0.36132361	0.45071892	0.45086428	0	1794.2531637428729
2.2908677	1.4454398	0.34	455.34485	0.057637107	0.85219783	-0.14031634	0.37238054	0.49417371	0.49431424	0	1859.2186922286087
2.2908677	1.5848932	0.34	479.31946	0.055751301	0.91963164	-0.14484555	0.38383816	0.5399864	0.54012234	0	1926.237325656551
2.2908677	1.7378008	0.34	503.16265	0.053950233	0.98913156	-0.14946878	0.3957001	0.58814255	0.58827409	0	1995.3263653709678
2.2908677	1.9054607	0.34	526.91156	0.052225859	1.0607243	-0.15419656	0.40797138	0.63863104	0.63875838	0	2066.512510812497
2.2908677	2.0892961	0.34	550.60786	0.050571495	1.1344449	-0.15903864	0.42065829	0.69144465	0.69156796	0	2139.8306937054604
2.2908677	2.2908677	0.34	574.29632	0.04898154	1.2103354	-0.16400411	0.43376825	0.7465804	0.74669983	0	2215.322783712637
2.2908677	2.5118864	0.34	598.02379	0.047451257	1.2884443	-0.16910153	0.44730973	0.80403979	0.80415549	0	2293.0370555137956
2.2908677	2.7542287	0.34	621.83837	0.045976609	1.3688259	-0.17433902	0.4612922	0.863829	0.86394111	0	2373.0275527199565
2.2908677	3.0199517	0.34	645.78877	0.044554115	1.4515393	-0.17972436	0.47572599	0.92595896	0.9260676	0	2455.3531035847273
2.2908677	3.3113112	0.34	669.92388	0.043180756	1.5366485	-0.18526504	0.49062228	0.99044538	0.99055066	0	2540.077411766314
2.2908677	3.6307805	0.34	694.2924	0.041853879	1.6242217	-0.19096835	0.50599305	1.0573087	1.0574108	0	2627.268382659173
2.2908677	3.9810717	0.34	718.94267	0.040571138	1.7143314	-0.19684146	0.52185101	1.1265743	1.1266732	0	2716.998194988881
2.2908677	4.3651583	0.34	743.92241	0.039330441	1.8070537	-0.20289139	0.53820961	1.1982721	1.198368	0	2809.3426463109195
2.2908677	4.7863009	0.34	769.27874	0.038129899	1.9024686	-0.20912517	0.55508295	1.2724366	1.2725296	0	2904.381406129575
2.2908677	5.2480746	0.34	795.05803	0.036967801	2.0006596	-0.21554975	0.57248585	1.3491071	1.3491972	0	3002.197662433461
2.2908677	5.7543994	0.34	821.30594	0.035842581	2.1017137	-0.22217216	0.59043376	1.4283273	1.4284147	0	3102.8780929448085
2.2908677	6.3095734	0.34	848.06744	0.034752795	2.2057215	-0.22899945	0.60894277	1.5101453	1.51023	0	3206.5129622705313
2.2908677	6.9183097	0.34	875.38682	0.033697108	2.312777	-0.23603874	0.62802966	1.5946137	1.5946958	0	3313.1959499617656
2.2908677	7.5857758	0.34	903.30773	0.032674272	2.4229774	-0.24329727	0.64771181	1.6817892	1.6818689	0	3423.023933850097
2.2908677	8.3176377	0.34	931.87332	0.031683119	2.5364238	-0.25078238	0.66800727	1.771733	1.7718103	0	3536.097670104962
2.2908677	9.1201084	0.34	961.12623	0.030722548	2.6532203	-0.25850156	0.68893475	1.8645104	1.8645853	0	3652.5209444303155
2.2908677	10.	0.34	991.1087	0.029791519	2.7734749	-0.26646246	0.71051358	1.9601908	1.9602635	0	3772.4014048953486