2.5118864	1.e-12	0.14	3.1075371e6	4.9623026e6	-0.057528151	-0.0062241147	-0.0062241141	-3307.4783	9959.0184	0	884.6951779988392
2.5118864	1.0964782e-12	0.14	2.8341077e6	4.5256757e6	-0.057281916	-0.0062241147	-0.0062241141	-3016.4612	9082.733	0	884.9265318727964
2.5118864	1.2022644e-12	0.14	2.5847372e6	4.1274674e6	-0.057035682	-0.0062241147	-0.006224114	-2751.0504	8283.5513	0	885.1578848203424
2.5118864	1.3182567e-12	0.14	2.3573085e6	3.764297e6	-0.056789448	-0.0062241147	-0.006224114	-2508.9928	7554.6888	0	885.3892377547343
2.5118864	1.4454398e-12	0.14	2.1498912e6	3.4330817e6	-0.056543213	-0.0062241147	-0.0062241139	-2288.2337	6889.9585	0	885.6205916418454
2.5118864	1.5848932e-12	0.14	1.9607243e6	3.1310098e6	-0.056296979	-0.0062241147	-0.0062241138	-2086.899	6283.7172	0	885.8519445893912
2.5118864	1.7378008e-12	0.14	1.788202e6	2.8555168e6	-0.056050744	-0.0062241147	-0.0062241138	-1903.2795	5730.8185	0	886.0832984633486
2.5118864	1.9054607e-12	0.14	1.6308598e6	2.6042643e6	-0.05580451	-0.0062241147	-0.0062241137	-1735.8166	5226.5689	0	886.3146514108944
2.5118864	2.0892961e-12	0.14	1.4873621e6	2.3751192e6	-0.055558276	-0.0062241147	-0.0062241136	-1583.0885	4766.6878	0	886.5460043584401
2.5118864	2.2908677e-12	0.14	1.3564905e6	2.1661365e6	-0.055312041	-0.0062241147	-0.0062241135	-1443.7988	4347.2713	0	886.7773582455513
2.5118864	2.5118864e-12	0.14	1.2371343e6	1.9755419e6	-0.055065807	-0.0062241147	-0.0062241133	-1316.7651	3964.7589	0	887.0087112062511
2.5118864	2.7542287e-12	0.14	1.1282801e6	1.8017176e6	-0.054819573	-0.0062241147	-0.0062241132	-1200.909	3615.9035	0	887.2400641537969
2.5118864	3.0199517e-12	0.14	1.0290039e6	1.6431879e6	-0.054573338	-0.0062241147	-0.0062241131	-1095.2469	3297.7435	0	887.471418040908
2.5118864	3.3113112e-12	0.14	938462.95	1.4986072e6	-0.054327104	-0.0062241147	-0.0062241129	-998.88189	3007.5781	0	887.7027710016077
2.5118864	3.6307805e-12	0.14	855888.61	1.3667479e6	-0.054080869	-0.0062241147	-0.0062241127	-910.99596	2742.9442	0	887.9341249018728
2.5118864	3.9810717e-12	0.14	780579.9	1.2464908e6	-0.053834635	-0.0062241147	-0.0062241126	-830.84301	2501.5951	0	888.1654778494186
2.5118864	4.3651583e-12	0.14	711897.56	1.1368151e6	-0.053588401	-0.0062241147	-0.0062241123	-757.74264	2281.4823	0	888.3968308232722
2.5118864	4.7863009e-12	0.14	649258.51	1.0367896e6	-0.053342166	-0.0062241147	-0.0062241121	-691.07429	2080.7369	0	888.6281847235373
2.5118864	5.2480746e-12	0.14	592131.02	945565.25	-0.053095932	-0.0062241148	-0.0062241119	-630.27199	1897.6549	0	888.859537684237
2.5118864	5.7543994e-12	0.14	540030.13	862367.65	-0.052849697	-0.0062241148	-0.0062241116	-574.81963	1730.6822	0	889.0908915976561
2.5118864	6.3095734e-12	0.14	492513.55	786490.54	-0.052603463	-0.0062241148	-0.0062241113	-524.24645	1578.4013	0	889.3222445715097
2.5118864	6.9183097e-12	0.14	449177.92	717289.77	-0.052357229	-0.0062241148	-0.006224111	-478.12313	1439.5194	0	889.5535975453633
2.5118864	7.5857758e-12	0.14	409655.35	654177.93	-0.052110994	-0.0062241148	-0.0062241106	-436.05816	1312.8576	0	889.7849514719362
2.5118864	8.3176377e-12	0.14	373610.34	596619.23	-0.05186476	-0.0062241148	-0.0062241102	-397.69442	1197.3407	0	890.0163044589438
2.5118864	9.1201084e-12	0.14	340736.9	544125.06	-0.051618526	-0.0062241148	-0.0062241098	-362.70625	1091.9881	0	890.2476574459514
2.5118864	1.e-11	0.14	310755.97	496249.81	-0.051372291	-0.0062241148	-0.0062241093	-330.79664	995.90529	0	890.4790113856782
2.5118864	1.0964782e-11	0.14	283413.03	452587.04	-0.051126057	-0.0062241148	-0.0062241088	-301.6947	908.27674	0	890.7103643858395
2.5118864	1.2022644e-11	0.14	258475.98	412766.12	-0.050879822	-0.0062241148	-0.0062241082	-275.15341	828.35858	0	890.9417183387203
2.5118864	1.3182567e-11	0.14	235733.12	376449.	-0.050633588	-0.0062241148	-0.0062241076	-250.94743	755.47234	0	891.1730713520357
2.5118864	1.4454398e-11	0.14	214991.38	343327.39	-0.050387354	-0.0062241148	-0.0062241069	-228.8713	688.9993	0	891.4044243785049
2.5118864	1.5848932e-11	0.14	196074.69	313120.1	-0.050141119	-0.0062241149	-0.0062241062	-208.7376	628.37516	0	891.6357783445397
2.5118864	1.7378008e-11	0.14	178822.46	285570.73	-0.049894885	-0.0062241149	-0.0062241053	-190.37544	573.0853	0	891.8671313973168
2.5118864	1.9054607e-11	0.14	163088.25	260445.4	-0.049648651	-0.0062241149	-0.0062241044	-173.62892	522.66034	0	892.0984844500939
2.5118864	2.0892961e-11	0.14	148738.47	237530.81	-0.049402416	-0.0062241149	-0.0062241035	-158.35589	476.67223	0	892.3298384424364
2.5118864	2.2908677e-11	0.14	135651.32	216632.45	-0.049156182	-0.006224115	-0.0062241024	-144.4267	434.73058	0	892.5611915215214
2.5118864	2.5118864e-11	0.14	123715.69	197572.91	-0.048909947	-0.006224115	-0.0062241012	-131.7231	396.47934	0	892.7925455533257
2.5118864	2.7542287e-11	0.14	112830.27	180190.39	-0.048663713	-0.006224115	-0.0062240999	-120.13727	361.59379	0	893.0238986587184
2.5118864	3.0199517e-11	0.14	102902.65	164337.35	-0.048417479	-0.006224115	-0.0062240985	-109.57084	329.77779	0	893.2552517772651
2.5118864	3.3113112e-11	0.14	93848.556	149879.19	-0.048171244	-0.0062241151	-0.0062240969	-99.934119	300.76126	0	893.4866058616851
2.5118864	3.6307805e-11	0.14	85591.121	136693.18	-0.04792501	-0.0062241151	-0.0062240952	-91.145303	274.29786	0	893.7179590196935
2.5118864	3.9810717e-11	0.14	78060.252	124667.39	-0.047678776	-0.0062241151	-0.0062240933	-83.129788	250.16296	0	893.9493122040097
2.5118864	4.3651583e-11	0.14	71192.017	113699.73	-0.047432541	-0.0062241152	-0.0062240913	-75.819528	228.15167	0	894.1806663410454
2.5118864	4.7863009e-11	0.14	64928.111	103697.1	-0.047186307	-0.0062241153	-0.006224089	-69.15247	208.07713	0	894.4120195779772
2.5118864	5.2480746e-11	0.14	59215.363	94574.58	-0.046940072	-0.0062241153	-0.0062240865	-63.07202	189.76894	0	894.6433737807826
2.5118864	5.7543994e-11	0.14	54005.274	86254.738	-0.046693838	-0.0062241153	-0.0062240838	-57.526562	173.07167	0	894.87472707033
2.5118864	6.3095734e-11	0.14	49253.616	78666.942	-0.046447604	-0.0062241154	-0.0062240809	-52.469022	157.84357	0	895.1060803861855
2.5118864	6.9183097e-11	0.14	44920.053	71746.784	-0.046201369	-0.0062241155	-0.0062240776	-47.85647	143.95539	0	895.3374346942219
2.5118864	7.5857758e-11	0.14	40967.796	65435.516	-0.045955135	-0.0062241155	-0.006224074	-43.64975	131.28921	0	895.5687881021547
2.5118864	8.3176377e-11	0.14	37363.295	59679.563	-0.045708901	-0.0062241156	-0.00622407	-39.813154	119.73752	0	895.8001415627032
2.5118864	9.1201084e-11	0.14	34075.951	54430.063	-0.045462666	-0.0062241157	-0.0062240658	-36.314116	109.20225	0	896.0314959891248
2.5118864	1.e-10	0.14	31077.858	49642.455	-0.045216432	-0.0062241158	-0.006224061	-33.122933	99.593976	0	896.2628495549046
2.5118864	1.0964782e-10	0.14	28343.564	45276.095	-0.044970198	-0.0062241159	-0.0062240559	-30.212518	90.831122	0	896.4942031601462
2.5118864	1.2022644e-10	0.14	25849.859	41293.921	-0.044723963	-0.006224116	-0.0062240502	-27.558167	82.839305	0	896.7255577838765
2.5118864	1.3182567e-10	0.14	23575.572	37662.126	-0.044477729	-0.0062241162	-0.0062240439	-25.137348	75.550681	0	896.9569115469651
2.5118864	1.4454398e-10	0.14	21501.399	34349.881	-0.044231494	-0.0062241163	-0.0062240371	-22.929513	68.903377	0	897.1882663153887
2.5118864	1.5848932e-10	0.14	19609.73	31329.071	-0.04398526	-0.0062241165	-0.0062240296	-20.915922	62.840964	0	897.4196202363241
2.5118864	1.7378008e-10	0.14	17884.507	28574.05	-0.043739026	-0.0062241166	-0.0062240214	-19.079483	57.311977	0	897.6509742493371
2.5118864	1.9054607e-10	0.14	16311.085	26061.434	-0.043492791	-0.0062241168	-0.0062240125	-17.40461	52.269482	0	897.8823292939927
2.5118864	2.0892961e-10	0.14	14876.107	23769.892	-0.043246557	-0.006224117	-0.0062240026	-15.877085	47.670671	0	898.1136835306222
2.5118864	2.2908677e-10	0.14	13567.392	21679.973	-0.043000323	-0.0062241172	-0.0062239918	-14.483945	43.476506	0	898.3450378856369
2.5118864	2.5118864e-10	0.14	12373.83	19773.937	-0.042754088	-0.0062241175	-0.0062239799	-13.213364	39.651382	0	898.57639332491
2.5118864	2.7542287e-10	0.14	11285.288	18035.602	-0.042507854	-0.0062241178	-0.0062239669	-12.054559	36.162827	0	898.8077479693109
2.5118864	3.0199517e-10	0.14	10292.526	16450.214	-0.04226162	-0.0062241181	-0.0062239526	-10.997694	32.981227	0	899.0391027847126
2.5118864	3.3113112e-10	0.14	9387.1162	15004.315	-0.042015385	-0.0062241184	-0.006223937	-10.0338	30.079573	0	899.2704587106805
2.5118864	3.6307805e-10	0.14	8561.3728	13685.632	-0.041769151	-0.0062241187	-0.0062239199	-9.1546973	27.433234	0	899.501813894392
2.5118864	3.9810717e-10	0.14	7808.2858	12482.97	-0.041522917	-0.0062241191	-0.0062239011	-8.3529241	25.019744	0	899.7331693017198
2.5118864	4.3651583e-10	0.14	7121.4623	11386.121	-0.041276682	-0.0062241196	-0.0062238805	-7.6216766	22.818615	0	899.9645258853834
2.5118864	4.7863009e-10	0.14	6495.0719	10385.775	-0.041030448	-0.00622412	-0.0062238579	-6.9547492	20.811161	0	900.1958817925602
2.5118864	5.2480746e-10	0.14	5923.7969	9473.4404	-0.040784214	-0.0062241206	-0.0062238331	-6.3464825	18.980342	0	900.4272379891231
2.5118864	5.7543994e-10	0.14	5402.7881	8641.3733	-0.040537979	-0.0062241211	-0.0062238059	-5.7917151	17.310615	0	900.6585954409452
2.5118864	6.3095734e-10	0.14	4927.6223	7882.5109	-0.040291745	-0.0062241217	-0.0062237761	-5.2857395	15.787805	0	900.8899522952037
2.5118864	6.9183097e-10	0.14	4494.266	7190.4121	-0.040045511	-0.0062241224	-0.0062237435	-4.8242626	14.398986	0	901.1213095177718
2.5118864	7.5857758e-10	0.14	4099.0403	6559.2025	-0.039799277	-0.0062241231	-0.0062237076	-4.4033691	13.132369	0	901.3526671744193
2.5118864	8.3176377e-10	0.14	3738.5903	5983.5243	-0.039553042	-0.0062241239	-0.0062236683	-4.0194879	11.9772	0	901.5840262178651
2.5118864	9.1201084e-10	0.14	3409.8558	5458.4914	-0.039306808	-0.0062241249	-0.0062236253	-3.6693624	10.923673	0	901.8153848084404
2.5118864	1.e-9	0.14	3110.0465	4979.6477	-0.039060574	-0.0062241259	-0.0062235781	-3.3500226	9.9628454	0	902.04674395148
2.5118864	1.0964782e-9	0.14	2836.6172	4542.9289	-0.03881434	-0.0062241269	-0.0062235263	-3.0587595	9.0865601	0	902.2781036995998
2.5118864	1.2022644e-9	0.14	2587.2466	4144.6284	-0.038568105	-0.0062241282	-0.0062234696	-2.7931027	8.2873783	0	902.509465031827
2.5118864	1.3182567e-9	0.14	2359.818	3781.3661	-0.038321871	-0.0062241295	-0.0062234073	-2.5507991	7.558516	0	902.7408261611079
2.5118864	1.4454398e-9	0.14	2152.4006	3450.0588	-0.038075637	-0.0062241308	-0.006223339	-2.3297941	6.8937857	0	902.9721880796235
2.5118864	1.5848932e-9	0.14	1963.2337	3147.8948	-0.037829403	-0.0062241324	-0.0062232642	-2.1282133	6.2875444	0	903.2035508531437
2.5118864	1.7378008e-9	0.14	1790.7114	2872.3099	-0.037583169	-0.0062241341	-0.0062231822	-1.9443479	5.7346457	0	903.4349145737459
2.5118864	1.9054607e-9	0.14	1633.3693	2620.9654	-0.037336935	-0.006224136	-0.0062230922	-1.7766389	5.2303962	0	903.6662793466612
2.5118864	2.0892961e-9	0.14	1489.8715	2391.7283	-0.037090701	-0.0062241381	-0.0062229936	-1.6236648	4.770515	0	903.8976452508131
2.5118864	2.2908677e-9	0.14	1359.	2182.6535	-0.036844467	-0.0062241403	-0.0062228854	-1.4841292	4.3510985	0	904.1290124177409
2.5118864	2.5118864e-9	0.14	1239.6438	1991.967	-0.036598233	-0.0062241428	-0.0062227668	-1.3568495	3.9685862	0	904.3603809526759
2.5118864	2.7542287e-9	0.14	1130.7896	1818.0507	-0.036351999	-0.0062241454	-0.0062226367	-1.2407473	3.6197308	0	904.5917510003111
2.5118864	3.0199517e-9	0.14	1031.5134	1659.429	-0.036105765	-0.0062241484	-0.0062224942	-1.1348392	3.3015708	0	904.8231226790318
2.5118864	3.3113112e-9	0.14	940.97244	1514.7562	-0.035859531	-0.0062241517	-0.0062223378	-1.0382283	3.0114055	0	905.0544961861465
2.5118864	3.6307805e-9	0.14	858.3981	1382.8049	-0.035613297	-0.0062241553	-0.0062221664	-0.95009632	2.7467716	0	905.2858716663485
2.5118864	3.9810717e-9	0.14	783.08942	1262.4559	-0.035367063	-0.0062241592	-0.0062219784	-0.86969738	2.5054226	0	905.5172493301004
2.5118864	4.3651583e-9	0.14	714.40708	1152.6881	-0.035120829	-0.0062241635	-0.0062217723	-0.796351	2.2853097	0	905.748629374711
2.5118864	4.7863009e-9	0.14	651.76805	1052.5706	-0.034874596	-0.0062241682	-0.0062215463	-0.72943664	2.0845644	0	905.9800110973852
2.5118864	5.2480746e-9	0.14	594.64058	961.25429	-0.034628362	-0.0062241734	-0.0062212986	-0.66838835	1.9014825	0	906.2113966140245
2.5118864	5.7543994e-9	0.14	542.5397	877.96469	-0.034382129	-0.0062241791	-0.0062210269	-0.61268997	1.7345098	0	906.4427843480378
2.5118864	6.3095734e-9	0.14	495.02315	801.99559	-0.034135895	-0.0062241852	-0.0062207289	-0.56187079	1.582229	0	906.6741764810961
2.5118864	6.9183097e-9	0.14	451.68753	732.70283	-0.033889662	-0.0062241921	-0.0062204023	-0.51550146	1.4433472	0	906.9055714366086
2.5118864	7.5857758e-9	0.14	412.16499	669.49899	-0.033643429	-0.0062241995	-0.0062200441	-0.47319047	1.3166855	0	907.1369705487583
2.5118864	8.3176377e-9	0.14	376.12	611.84829	-0.033397195	-0.0062242077	-0.0062196515	-0.43458071	1.2011686	0	907.3683751254201
2.5118864	9.1201084e-9	0.14	343.24659	559.26213	-0.033150962	-0.0062242167	-0.0062192209	-0.39934653	1.0958161	0	907.5997837610042
2.5118864	1.e-8	0.14	313.26569	511.29489	-0.03290473	-0.0062242266	-0.0062187487	-0.3671909	0.9997334	0	907.8311969290515
2.5118864	1.0964782e-8	0.14	285.92279	467.54015	-0.032658497	-0.0062242373	-0.006218231	-0.33784294	0.91210498	0	908.0626170216956
2.5118864	1.2022644e-8	0.14	260.98577	427.62724	-0.032412264	-0.0062242492	-0.0062176634	-0.31105562	0.83218692	0	908.2940436781431
2.5118864	1.3182567e-8	0.14	238.24295	391.21814	-0.032166032	-0.0062242622	-0.006217041	-0.28660361	0.75930081	0	908.5254766033706
2.5118864	1.4454398e-8	0.14	217.50125	358.00456	-0.0319198	-0.0062242764	-0.0062163585	-0.26428144	0.69282792	0	908.756917434101
2.5118864	1.5848932e-8	0.14	198.58461	327.7053	-0.031673567	-0.006224292	-0.0062156102	-0.24390171	0.63220393	0	908.9883678596728
2.5118864	1.7378008e-8	0.14	181.33244	300.06396	-0.031427336	-0.0062243091	-0.0062147897	-0.22529349	0.57691424	0	909.2198259032405
2.5118864	1.9054607e-8	0.14	165.59828	274.84666	-0.031181104	-0.0062243279	-0.0062138901	-0.20830093	0.52648947	0	909.4512952911201
2.5118864	2.0892961e-8	0.14	151.24856	251.84011	-0.030934873	-0.0062243485	-0.0062129037	-0.19278184	0.48050157	0	909.6827751570326
2.5118864	2.2908677e-8	0.14	138.16148	230.8498	-0.030688642	-0.0062243711	-0.0062118221	-0.17860659	0.43856014	0	909.9142675454718
2.5118864	2.5118864e-8	0.14	126.22593	211.69831	-0.030442411	-0.0062243958	-0.0062106361	-0.16565693	0.40030914	0	910.1457736665984
2.5118864	2.7542287e-8	0.14	115.3406	194.22385	-0.030196181	-0.0062244229	-0.0062093357	-0.15382502	0.36542387	0	910.3772938962383
2.5118864	3.0199517e-8	0.14	105.41307	178.27886	-0.029949951	-0.0062244527	-0.0062079099	-0.1430125	0.33360817	0	910.6088306208876
2.5118864	3.3113112e-8	0.14	96.359073	163.72878	-0.029703721	-0.0062244853	-0.0062063465	-0.13312968	0.30459196	0	910.8403854453236
2.5118864	3.6307805e-8	0.14	88.101748	150.45084	-0.029457492	-0.0062245211	-0.0062046324	-0.12409476	0.27812892	0	911.0719591531439
2.5118864	3.9810717e-8	0.14	80.570999	138.33314	-0.029211264	-0.0062245604	-0.0062027528	-0.11583313	0.25399441	0	911.3035536911282
2.5118864	4.3651583e-8	0.14	73.702897	127.27358	-0.028965036	-0.0062246034	-0.0062006919	-0.10827674	0.23198355	0	911.5351720771603
2.5118864	4.7863009e-8	0.14	67.439137	117.17905	-0.028718809	-0.0062246506	-0.0061984322	-0.10136354	0.21190948	0	911.7668156736097
2.5118864	5.2480746e-8	0.14	61.726548	107.96465	-0.028472582	-0.0062247024	-0.0061959546	-0.095036934	0.1936018	0	911.9984879324396
2.5118864	5.7543994e-8	0.14	56.516634	99.552943	-0.028226356	-0.0062247591	-0.0061932378	-0.089245302	0.17690509	0	912.2301907158687
2.5118864	6.3095734e-8	0.14	51.765167	91.873291	-0.027980131	-0.0062248214	-0.0061902591	-0.08394157	0.16167761	0	912.4619270098357
2.5118864	6.9183097e-8	0.14	47.431814	84.861291	-0.027733907	-0.0062248896	-0.006186993	-0.079082805	0.14779011	0	912.6937001685885
2.5118864	7.5857758e-8	0.14	43.479788	78.458199	-0.027487684	-0.0062249644	-0.0061834118	-0.074629853	0.13512467	0	912.925513835762
2.5118864	8.3176377e-8	0.14	39.875539	72.610439	-0.027241462	-0.0062250466	-0.0061794852	-0.070547	0.1235738	0	913.1573719969922
2.5118864	9.1201084e-8	0.14	36.588472	67.269153	-0.026995241	-0.0062251366	-0.0061751798	-0.066801679	0.11303943	0	913.3892790456867
2.5118864	1.e-7	0.14	33.590682	62.389779	-0.026749022	-0.0062252353	-0.0061704592	-0.063364185	0.10343213	0	913.6212388303051
2.5118864	1.0964782e-7	0.14	30.856721	57.931678	-0.026502803	-0.0062253436	-0.0061652833	-0.060207428	0.094670353	0	913.853258504698
2.5118864	1.2022644e-7	0.14	28.36338	53.857787	-0.026256587	-0.0062254624	-0.0061596083	-0.0573067	0.086679714	0	914.0853410115842
2.5118864	1.3182567e-7	0.14	26.089494	50.134305	-0.026010372	-0.0062255926	-0.0061533859	-0.054639467	0.079392383	0	914.3174945834352
2.5118864	1.4454398e-7	0.14	24.015759	46.730405	-0.025764159	-0.0062257354	-0.0061465636	-0.052185177	0.072746496	0	914.549725186491
2.5118864	1.5848932e-7	0.14	22.12457	43.617972	-0.025517948	-0.0062258921	-0.0061390834	-0.049925086	0.066685636	0	914.7820404500222
2.5118864	1.7378008e-7	0.14	20.399875	40.771368	-0.02527174	-0.006226064	-0.0061308822	-0.047842098	0.061158353	0	915.0144477345838
2.5118864	1.9054607e-7	0.14	18.827031	38.167209	-0.025025534	-0.0062262524	-0.0061218904	-0.045920621	0.056117725	0	915.2469571348659
2.5118864	2.0892961e-7	0.14	17.392687	35.784169	-0.024779331	-0.0062264591	-0.0061120321	-0.044146433	0.051520961	0	915.4795776951245
2.5118864	2.2908677e-7	0.14	16.084666	33.602802	-0.02453313	-0.0062266858	-0.0061012238	-0.042506565	0.047329041	0	915.7123213384439
2.5118864	2.5118864e-7	0.14	14.891865	31.60537	-0.024286934	-0.0062269346	-0.0060893745	-0.040989185	0.043506376	0	915.9451972161908
2.5118864	2.7542287e-7	0.14	13.804158	29.775701	-0.02404074	-0.0062272075	-0.006076384	-0.039583502	0.040020519	0	916.1782213272837
2.5118864	3.0199517e-7	0.14	12.812311	28.099043	-0.023794551	-0.0062275067	-0.006062143	-0.038279674	0.036841875	0	916.4114052302558
2.5118864	3.3113112e-7	0.14	11.907904	26.561945	-0.023548366	-0.0062278351	-0.0060465316	-0.037068724	0.033943461	0	916.6447656362162
2.5118864	3.6307805e-7	0.14	11.083259	25.15214	-0.023302186	-0.0062281954	-0.0060294189	-0.035942461	0.031300673	0	916.8783188240743
2.5118864	3.9810717e-7	0.14	10.331377	23.858441	-0.023056011	-0.0062285906	-0.0060106613	-0.034893415	0.028891074	0	917.1120836828519
2.5118864	4.3651583e-7	0.14	9.6458727	22.67065	-0.022809843	-0.0062290243	-0.0059901022	-0.033914771	0.026694209	0	917.3460789324489
2.5118864	4.7863009e-7	0.14	9.020928	21.579462	-0.02256368	-0.0062295002	-0.0059675704	-0.033000311	0.024691427	0	917.5803289714985
2.5118864	5.2480746e-7	0.14	8.4512369	20.576398	-0.022317525	-0.0062300225	-0.0059428788	-0.032144365	0.022865725	0	917.8148555922791
2.5118864	5.7543994e-7	0.14	7.9319628	19.653722	-0.022071377	-0.0062305956	-0.0059158235	-0.031341754	0.021201603	0	918.0496865551889
2.5118864	6.3095734e-7	0.14	7.4586966	18.804384	-0.021825238	-0.0062312248	-0.0058861822	-0.030587758	0.019684931	0	918.2848492222497
2.5118864	6.9183097e-7	0.14	7.0274199	18.021954	-0.021579108	-0.0062319155	-0.0058537129	-0.029878065	0.018302832	0	918.520375425936
2.5118864	7.5857758e-7	0.14	6.6344702	17.30057	-0.021332989	-0.0062326739	-0.0058181528	-0.029208743	0.017043567	0	918.7562978556048
2.5118864	8.3176377e-7	0.14	6.2765101	16.634889	-0.021086881	-0.0062335067	-0.0057792167	-0.028576199	0.015896443	0	918.9926540262221
2.5118864	9.1201084e-7	0.14	5.9504985	16.02004	-0.020840786	-0.0062344213	-0.0057365958	-0.027977156	0.014851712	0	919.229482677946
2.5118864	1.e-6	0.14	5.6536652	15.45158	-0.020594705	-0.0062354262	-0.0056899568	-0.027408619	0.013900499	0	919.4668267132093
2.5118864	1.0964782e-6	0.14	5.3834866	14.925464	-0.020348639	-0.0062365305	-0.0056389409	-0.026867854	0.013034714	0	919.7047323886939
2.5118864	1.2022644e-6	0.14	5.1376641	14.438	-0.02010259	-0.0062377444	-0.0055831634	-0.026352362	0.012246993	0	919.9432484283795
2.5118864	1.3182567e-6	0.14	4.9141048	13.985826	-0.01985656	-0.0062390792	-0.0055222136	-0.02585986	0.011530627	0	920.1824269762637
2.5118864	1.4454398e-6	0.14	4.7109026	13.565876	-0.019610552	-0.0062405476	-0.0054556556	-0.02538826	0.01087951	0	920.4223225515657
2.5118864	1.5848932e-6	0.14	4.5263221	13.175356	-0.019364566	-0.0062421639	-0.0053830297	-0.024935654	0.010288079	0	920.6629956228321
2.5118864	1.7378008e-6	0.14	4.3587828	12.811718	-0.019118606	-0.0062439438	-0.0053038547	-0.024500294	0.0097512683	0	920.9045057284402
2.5118864	1.9054607e-6	0.14	4.2068453	12.472638	-0.018872675	-0.0062459053	-0.0052176325	-0.024080582	0.0092644655	0	921.146915569344
2.5118864	2.0892961e-6	0.14	4.0691979	12.155996	-0.018626777	-0.0062480685	-0.0051238524	-0.023675053	0.008823466	0	921.3902885643254
2.5118864	2.2908677e-6	0.14	3.9446444	11.859856	-0.018380914	-0.0062504563	-0.0050219993	-0.023282366	0.0084244353	0	921.6346905900695
2.5118864	2.5118864e-6	0.14	3.832093	11.582449	-0.018135093	-0.0062530949	-0.0049115625	-0.022901292	0.0080638724	0	921.8801822466621
2.5118864	2.7542287e-6	0.14	3.7305451	11.322154	-0.017889317	-0.0062560141	-0.0047920467	-0.022530704	0.0077385744	0	922.1268258667477
2.5118864	3.0199517e-6	0.14	3.6390858	11.077488	-0.017643592	-0.0062592483	-0.004662985	-0.022169569	0.0074456058	0	922.374677228563
2.5118864	3.3113112e-6	0.14	3.5568743	10.847087	-0.017397927	-0.0062628372	-0.0045239541	-0.02181694	0.0071822669	0	922.6237835565415
2.5118864	3.6307805e-6	0.14	3.4831353	10.629693	-0.017152328	-0.0062668272	-0.004374589	-0.021471948	0.0069460658	0	922.8741872250805
2.5118864	3.9810717e-6	0.14	3.417151	10.424145	-0.016906807	-0.0062712726	-0.0042145991	-0.021133799	0.0067346929	0	923.1259151846723
2.5118864	4.3651583e-6	0.14	3.3582541	10.229368	-0.016661373	-0.0062762373	-0.0040437831	-0.020801766	0.0065459965	0	923.3789854580598
2.5118864	4.7863009e-6	0.14	3.3058211	10.044357	-0.016416041	-0.0062817973	-0.0038620408	-0.020475184	0.0063779614	0	923.6333971319852
2.5118864	5.2480746e-6	0.14	3.2592672	9.8681791	-0.016170827	-0.0062880431	-0.0036693826	-0.02015345	0.006228691	0	923.8891338053961
2.5118864	5.7543994e-6	0.14	3.2180416	9.6999561	-0.015925751	-0.0062950832	-0.0034659334	-0.019836013	0.0060963904	0	924.1461602577454
2.5118864	6.3095734e-6	0.14	3.1816239	9.5388642	-0.015680836	-0.0063030486	-0.0032519338	-0.019522379	0.0059793534	0	924.404423230711
2.5118864	6.9183097e-6	0.14	3.1495214	9.3841269	-0.015436111	-0.0063120977	-0.0030277343	-0.019212098	0.0058759504	0	924.6638493724261
2.5118864	7.5857758e-6	0.14	3.1212663	9.2350098	-0.01519161	-0.0063224227	-0.0027937881	-0.018904772	0.0057846182	0	924.9243471241261
2.5118864	8.3176377e-6	0.14	3.0964143	9.0908165	-0.014947375	-0.0063342572	-0.0025506406	-0.018600046	0.0057038501	0	925.1858052826149
2.5118864	9.1201084e-6	0.14	3.0745423	8.9508836	-0.014703455	-0.0063478857	-0.0022989189	-0.018297606	0.0056321853	0	925.4480953209898
2.5118864	0.00001	0.14	3.0552468	8.8145762	-0.01445991	-0.0063636536	-0.0020393228	-0.017997181	0.0055681985	0	925.7110688142332
2.5118864	0.000010964782	0.14	3.0381413	8.6812827	-0.014216811	-0.006381979	-0.0017726177	-0.017698537	0.0055104882	0	925.9745583731408
2.5118864	0.000012022644	0.14	3.0193012	8.5508447	-0.013980862	-0.0064126789	-0.0015089457	-0.017405622	0.0054546829	0	926.2309310684029
2.5118864	0.000013182567	0.14	3.0052284	8.4219585	-0.013739456	-0.0064383065	-0.0012311497	-0.017110348	0.0054053861	0	926.4942888307207
2.5118864	0.000014454398	0.14	2.9922734	8.2943915	-0.013498809	-0.0064682701	-0.00094888347	-0.016816395	0.0053582943	0	926.7575214731879
2.5118864	0.000015848932	0.14	2.9801098	8.1676008	-0.013259035	-0.0065033669	-0.00066313968	-0.016523671	0.0053120492	0	927.0203913103874
2.5118864	0.000017378008	0.14	2.968428	8.0410628	-0.013020254	-0.0065445027	-0.00037496662	-0.016232113	0.0052653134	0	927.2826477033029
2.5118864	0.000019054607	0.14	2.95694	7.9142838	-0.012782588	-0.006592684	-0.0000854592	-0.015941688	0.0052167998	0	927.544032001432
2.5118864	0.000020892961	0.14	2.9453877	7.7868167	-0.012546147	-0.0066489969	0.00020426035	-0.015652391	0.0051653193	0	927.8042932354069
2.5118864	0.000022908677	0.14	2.9335535	7.6582832	-0.012311023	-0.0067145753	0.00049307272	-0.015364238	0.0051098432	0	928.0631977321309
2.5118864	0.000025118864	0.14	2.9212724	7.5283991	-0.012077279	-0.0067905577	0.00077990111	-0.015077267	0.0050495755	0	928.3205446576309
2.5118864	0.000027542287	0.14	2.9084431	7.3969989	-0.011844932	-0.0068780348	0.0010637603	-0.014791525	0.0049840243	0	928.5761884442957
2.5118864	0.000030199517	0.14	2.8950361	7.2640544	-0.011613952	-0.0069779983	0.0013438047	-0.01450707	0.0049130585	0	928.830046050897
2.5118864	0.000033113112	0.14	2.8810977	7.1296832	-0.011384252	-0.0070912909	0.001619374	-0.014223955	0.0048369375	0	929.0821123630044
2.5118864	0.000036307805	0.14	2.8667454	6.9941431	-0.011155692	-0.007218571	0.0018900258	-0.013942229	0.0047563036	0	929.3324607268478
2.5118864	0.000039810717	0.14	2.8521585	6.857813	-0.010928085	-0.0073602916	0.0021555535	-0.013661922	0.0046721377	0	929.5812396651593
2.5118864	0.000043651583	0.14	2.8375623	6.7211629	-0.010701207	-0.0075166953	0.0024159885	-0.013383048	0.0045856836	0	929.8286637709062
2.5118864	0.000047863009	0.14	2.8232105	6.5847166	-0.010474813	-0.0076878234	0.0026715889	-0.013105595	0.0044983537	0	930.0749971878543
2.5118864	0.000052480746	0.14	2.8093662	6.4490146	-0.01024865	-0.007873537	0.0029228164	-0.012829526	0.0044116295	0	930.3205383576617
2.5118864	0.000057543994	0.14	2.7962853	6.3145793	-0.010022475	-0.0080735409	0.0031703105	-0.012554779	0.0043269699	0	930.5655997139944
2.5118864	0.000063095734	0.14	2.7842035	6.1818874	-0.0097960581	-0.0082874125	0.0034148582	-0.012281267	0.0042457359	0	930.8105007842369
2.5118864	0.000069183097	0.14	2.7733263	6.05135	-0.0095692006	-0.0085146295	0.0036573652	-0.012008882	0.0041691354	0	931.055547395031
2.5118864	0.000075857758	0.14	2.7638238	5.9233016	-0.0093417343	-0.0087545954	0.0038988296	-0.011737496	0.0040981887	0	931.3010288704935
2.5118864	0.000083176377	0.14	2.7558281	5.7979949	-0.0091135262	-0.0090066615	0.0041403187	-0.01146697	0.0040337134	0	931.5472105645497
2.5118864	0.000091201084	0.14	2.7494341	5.6756027	-0.0088844789	-0.0092701488	0.0043829473	-0.011197149	0.0039763238	0	931.7943306307077
2.5118864	0.0001	0.14	2.7447014	5.5562228	-0.0086545289	-0.0095443631	0.0046278612	-0.010927874	0.003926442	0	932.0425994489244
2.5118864	0.00010964782	0.14	2.7416585	5.4398864	-0.0084236442	-0.0098286127	0.0048762203	-0.010658981	0.0038843154	0	932.2921996575501
2.5118864	0.00012022644	0.14	2.740306	5.326567	-0.0081918206	-0.010122219	0.0051291864	-0.010390302	0.0038500393	0	932.5432880249421
2.5118864	0.00013182567	0.14	2.7406213	5.2161902	-0.0079590786	-0.010424532	0.0053879109	-0.010121674	0.0038235796	0	932.7959967441873
2.5118864	0.00014454398	0.14	2.7425625	5.1086427	-0.0077254597	-0.010734935	0.0056535245	-0.0098529356	0.0038047949	0	933.0504355546393
2.5118864	0.00015848932	0.14	2.7460711	5.0037802	-0.0074910232	-0.011052862	0.0059271271	-0.0095839291	0.0037934562	0	933.3066934199827
2.5118864	0.00017378008	0.14	2.7510749	4.901434	-0.0072558446	-0.011377798	0.0062097793	-0.0093145048	0.0037892622	0	933.5648389134552
2.5118864	0.00019054607	0.14	2.7574885	4.8014144	-0.0070200135	-0.011709299	0.0065024915	-0.0090445201	0.003791849	0	933.8249207571574
2.5118864	0.00020892961	0.14	2.7652128	4.7035127	-0.0067836345	-0.012046999	0.0068062108	-0.0087738416	0.0038007917	0	934.0869652532821
2.5118864	0.00022908677	0.14	2.7741318	4.6074969	-0.0065468293	-0.012390633	0.0071218019	-0.0085023463	0.003815593	0	934.3509717986277
2.5118864	0.00025118864	0.14	2.7841037	4.513099	-0.0063097431	-0.012740068	0.0074500138	-0.0082299238	0.003835647	0	934.6169024911287
2.5118864	0.00027542287	0.14	2.7949402	4.4199807	-0.0060725605	-0.013095376	0.0077914082	-0.0079564796	0.0038601435	0	934.8846577725608
2.5118864	0.00030199517	0.14	2.8063517	4.3276344	-0.0058355451	-0.013457017	0.0081461783	-0.0076819418	0.0038877975	0	935.1540153868619
2.5118864	0.00033113112	0.14	2.8177719	4.2350555	-0.0055991604	-0.013826427	0.0085135616	-0.0074062782	0.0039159556	0	935.4244395468909
2.5118864	0.00036307805	0.14	2.8277356	4.1395397	-0.0053644807	-0.014208182	0.008889674	-0.0071295474	0.003937329	0	935.6944099663835
2.5118864	0.00039810717	0.14	2.8321834	4.0333292	-0.0051342499	-0.014616486	0.0092610224	-0.0068520617	0.0039308657	0	935.959573701085
2.5118864	0.00043651583	0.14	2.8256121	3.9056518	-0.0049119646	-0.01507489	0.0096047892	-0.006574655	0.0038669325	0	936.2136440591057
2.5118864	0.00047863009	0.14	2.8104184	3.7609661	-0.0046958548	-0.015586031	0.0099190935	-0.0062983716	0.0037564051	0	936.4580366591304
2.5118864	0.00052480746	0.14	2.7934892	3.6126098	-0.0044813581	-0.016134474	0.010220145	-0.0060237097	0.003634443	0	936.6991703842547
2.5118864	0.00057543994	0.14	2.7787686	3.4682998	-0.0042659323	-0.016708831	0.010520132	-0.0057506183	0.0035217281	0	936.9410370361218
2.5118864	0.00063095734	0.14	2.76764	3.3308614	-0.0040487933	-0.017302875	0.010826105	-0.0054787986	0.0034261122	0	937.1853007446925
2.5118864	0.00069183097	0.14	2.7602208	3.2007909	-0.0038301141	-0.017912718	0.011142799	-0.0052078857	0.0033492872	0	937.4324218030315
2.5118864	0.00075857758	0.14	2.7559653	3.0774966	-0.0036107168	-0.018535073	0.011474375	-0.0049375387	0.0032900126	0	937.682175128864
2.5118864	0.00083176377	0.14	2.753824	2.9597612	-0.0033921692	-0.019165739	0.011825931	-0.0046674942	0.0032452966	0	937.9337582582154
2.5118864	0.00091201084	0.14	2.751938	2.8456234	-0.003177569	-0.019796747	0.012206361	-0.0043976264	0.003210022	0	938.1854306086927
2.5118864	0.001	0.14	2.7464969	2.7314371	-0.002973863	-0.020409393	0.012635324	-0.0041280745	0.0031743019	0	938.4332511358522
2.5118864	0.0010964782	0.14	2.731378	2.6115518	-0.0027930329	-0.020970214	0.013147264	-0.0038594816	0.0031223866	0	938.6704929839883
2.5118864	0.0012022644	0.14	2.7046218	2.4840226	-0.0026406144	-0.021463565	0.013758834	-0.0035929658	0.0030479588	0	938.8941455226413
2.5118864	0.0013182567	0.14	2.6733552	2.3549341	-0.0025049779	-0.021925438	0.014435088	-0.0033293762	0.0029664361	0	939.1105387539043
2.5118864	0.0014454398	0.14	2.648289	2.233361	-0.0023649316	-0.022426316	0.015106611	-0.003068638	0.002902154	0	939.3304529687339
2.5118864	0.0015848932	0.14	2.6400114	2.1281455	-0.0021961069	-0.023052715	0.015687995	-0.0028096096	0.0028798932	0	939.5655495636802
2.5118864	0.0017378008	0.14	2.6520503	2.0423577	-0.0019885998	-0.023835972	0.016149041	-0.0025503693	0.0029097838	0	939.8211616432092
2.5118864	0.0019054607	0.14	2.6771261	1.9696836	-0.0017577482	-0.024711059	0.016555949	-0.0022892394	0.0029766227	0	940.0915861396026
2.5118864	0.0020892961	0.14	2.709073	1.9042605	-0.0015167345	-0.025625216	0.016962686	-0.0020252842	0.0030656722	0	940.3715360998445
2.5118864	0.0022908677	0.14	2.7455454	1.8434528	-0.0012702211	-0.026560366	0.017388576	-0.0017579646	0.0031704249	0	940.6591727569629
2.5118864	0.0025118864	0.14	2.785626	1.7859732	-0.0010198167	-0.027510471	0.01784094	-0.0014868879	0.0032878324	0	940.9539476302887
2.5118864	0.0027542287	0.14	2.8288569	1.7310373	-0.00076623202	-0.028472906	0.018323724	-0.001211725	0.0034161268	0	941.2557120054183
2.5118864	0.0030199517	0.14	2.8749784	1.6781091	-0.00050982815	-0.029446321	0.01883964	-0.00093218106	0.0035541694	0	941.5644833488717
2.5118864	0.0033113112	0.14	2.9238451	1.6268052	-0.00025077577	-0.03043004	0.01939077	-0.00064798054	0.0037012112	0	941.8803751601431
2.5118864	0.0036307805	0.14	2.9753896	1.5768471	0.00001088261	-0.031423823	0.019978797	-0.00035885818	0.0038567729	0	942.2035688786973
2.5118864	0.0039810717	0.14	3.0296016	1.5280313	0.00027520185	-0.032427762	0.020605123	-0.000064552374	0.0040205717	0	942.5343004669762
2.5118864	0.0043651583	0.14	3.0865159	1.4802087	0.00054231628	-0.033442213	0.021270928	0.00023519967	0.0041924723	0	942.8728513529891
2.5118864	0.0047863009	0.14	3.1462042	1.4332714	0.00081242982	-0.034467753	0.021977218	0.00054066617	0.0043724538	0	943.2195454612862
2.5118864	0.0052480746	0.14	3.2087704	1.3871419	0.0010858105	-0.035505165	0.022724843	0.00085212385	0.0045605865	0	943.5747464318448
2.5118864	0.0057543994	0.14	3.2743471	1.3417669	0.001362788	-0.036555418	0.023514518	0.0011698611	0.0047570155	0	943.938858071061
2.5118864	0.0063095734	0.14	3.3430946	1.2971113	0.0016437536	-0.037619658	0.024346829	0.0014941807	0.0049619504	0	944.3123250940063
2.5118864	0.0069183097	0.14	3.4151993	1.2531551	0.0019291603	-0.038699211	0.025222239	0.0018254023	0.005175657	0	944.6956340264102
2.5118864	0.0075857758	0.14	3.4908735	1.2098899	0.0022195233	-0.039795559	0.026141109	0.0021638654	0.0053984526	0	945.0893164179738
2.5118864	0.0083176377	0.14	3.5703542	1.1673173	0.0025154189	-0.040910336	0.027103704	0.0025099311	0.0056307022	0	945.4939485980831
2.5118864	0.0091201084	0.14	3.6539018	1.125446	0.0028174815	-0.042045299	0.028110225	0.0028639852	0.0058728154	0	945.9101530663645
2.5118864	0.01	0.14	3.7417971	1.0842907	0.0031263978	-0.04320229	0.02916085	0.0032264401	0.0061252434	0	946.3385984363129
2.5118864	0.010964782	0.14	3.8343373	1.0438693	0.0034428964	-0.044383187	0.03025578	0.0035977363	0.0063884747	0	946.7799957146108
2.5118864	0.012022644	0.14	3.9318304	1.0042003	0.003767736	-0.045589854	0.031395297	0.0039783443	0.0066630295	0	947.2350948435297
2.5118864	0.013182567	0.14	4.034589	0.96529967	0.0041016971	-0.046824124	0.03257978	0.0043687647	0.0069494508	0	947.7046790071628
2.5118864	0.014454398	0.14	4.1429301	0.92717614	0.0044455912	-0.048087866	0.03380964	0.0047695294	0.0072482938	0	948.1895647253813
2.5118864	0.015848932	0.14	4.2571865	0.88982769	0.0048003135	-0.049383272	0.035085036	0.0051812016	0.0075601166	0	948.6906140118117
2.5118864	0.017378008	0.14	4.3777461	0.85323936	0.0051669829	-0.050713536	0.036405197	0.0056043794	0.0078854771	0	949.2087767294399
2.5118864	0.019054607	0.14	4.5051371	0.81738739	0.0055472124	-0.052084072	0.037767206	0.006039705	0.0082249541	0	949.745184697478
2.5118864	0.020892961	0.14	4.6401673	0.78225445	0.0059435277	-0.053504313	0.039164207	0.0064878847	0.0085792074	0	950.3013091437249
2.5118864	0.022908677	0.14	4.78409	0.74785863	0.0063598279	-0.054989481	0.040583633	0.0069497246	0.0089490916	0	950.8791604749514
2.5118864	0.025118864	0.14	4.9386801	0.71428748	0.0068015186	-0.056560612	0.042007187	0.0074261793	0.0093357953	0	951.4814108338041
2.5118864	0.027542287	0.14	5.1060002	0.68170419	0.0072746678	-0.05824	0.043415398	0.0079183955	0.0097409016	0	952.111200304057
2.5118864	0.030199517	0.14	5.2877488	0.65028575	0.0077839845	-0.060041727	0.044797093	0.0084277106	0.010166221	0	952.7714836120309
2.5118864	0.033113112	0.14	5.48462	0.62012381	0.0083310569	-0.061964447	0.04615662	0.0089555823	0.010613456	0	953.4643249076347
2.5118864	0.036307805	0.14	5.6962554	0.59119612	0.0089145146	-0.063993677	0.047511555	0.0095034829	0.01108402	0	954.1907485425958
2.5118864	0.039810717	0.14	5.9215397	0.56342726	0.0095311479	-0.066108171	0.048886335	0.01007281	0.011579108	0	954.9509532161942
2.5118864	0.043651583	0.14	6.1586283	0.53675524	0.010176144	-0.068281904	0.050310274	0.010664819	0.012099811	0	955.7442729269272
2.5118864	0.047863009	0.14	5.6802039	0.51169932	0.0097519584	-0.068396529	0.053905109	0.011253108	0.012621114	0	955.8185843718937
2.5118864	0.052480746	0.14	5.2438756	0.48884805	0.0093650965	-0.068942748	0.057183638	0.011789634	0.013096548	0	955.8863572500504
2.5118864	0.057543994	0.14	4.8459395	0.46800744	0.0090122743	-0.069896332	0.060173691	0.012278951	0.013530149	0	955.9481667633045
2.5118864	0.063095734	0.14	4.4830174	0.44900058	0.0086904967	-0.071235616	0.062900652	0.012725214	0.013925597	0	956.0045378092345
2.5118864	0.069183097	0.14	4.1520286	0.43166612	0.008397032	-0.072941285	0.06538767	0.013132211	0.014286251	0	956.055948776934
2.5118864	0.075857758	0.14	3.8501632	0.4158569	0.0081293889	-0.074996178	0.067655858	0.013503396	0.014615171	0	956.1028361132994
2.5118864	0.083176377	0.14	3.5748587	0.40143872	0.0078852956	-0.077385116	0.069724469	0.013841921	0.01491515	0	956.1455978370043
2.5118864	0.091201084	0.14	4.0066799	0.37486994	0.0085089812	-0.080583819	0.071121986	0.014201662	0.01520386	0	956.9154194129515
2.5118864	0.1	0.14	4.8307573	0.34698409	0.0096217629	-0.083929929	0.072515099	0.014632396	0.015560042	0	958.1441994388663
2.5118864	0.10964782	0.14	5.9843579	0.32062939	0.0111698	-0.08733885	0.073992871	0.015159519	0.016016707	0	959.7930663298368
2.5118864	0.12022644	0.14	7.5371586	0.29578514	0.013271498	-0.090876467	0.075494024	0.015818698	0.016609466	0	961.9652093349398
2.5118864	0.13182567	0.14	9.5660507	0.27243223	0.01606247	-0.094625713	0.076940374	0.016652765	0.0173811	0	964.7777615671163
2.5118864	0.14454398	0.14	12.158205	0.25055305	0.019699116	-0.098682757	0.07824065	0.017712562	0.018382405	0	968.3656653374373
2.5118864	0.15848932	0.14	15.415624	0.23013135	0.02436394	-0.10315173	0.079295776	0.019058162	0.019673408	0	972.8873627078135
2.5118864	0.17378008	0.14	19.460266	0.2111521	0.030271846	-0.10813846	0.080005115	0.020760574	0.02132508	0	978.5315323248833
2.5118864	0.19054607	0.14	24.438117	0.19360096	0.037675659	-0.11374356	0.080273442	0.022903917	0.023421501	0	985.5231939827966
2.5118864	0.20892961	0.14	30.519972	0.17746295	0.046868322	-0.12005472	0.080018591	0.025587849	0.026062289	0	994.1267787281618
2.5118864	0.22908677	0.14	37.896445	0.16272015	0.058178654	-0.12713838	0.079179841	0.028929815	0.02936484	0	1004.6432463111341
2.5118864	0.25118864	0.14	46.76521	0.14934808	0.07195794	-0.13503101	0.077726601	0.033066426	0.033465702	0	1017.3986280315813
2.5118864	0.27542287	0.14	57.310072	0.13731132	0.088556298	-0.14373139	0.075666173	0.038153196	0.038520292	0	1032.7228431295812
2.5118864	0.30199517	0.14	69.674379	0.12655908	0.10829109	-0.15319593	0.073048382	0.044361898	0.044700248	0	1050.9206278818385
2.5118864	0.33113112	0.14	83.934645	0.11702227	0.13141371	-0.16333967	0.069964666	0.051875277	0.052188131	0	1072.2402110566577
2.5118864	0.36307805	0.14	100.08208	0.10861334	0.15808341	-0.17404403	0.066540245	0.060879498	0.061169871	0	1096.8476916473949
2.5118864	0.39810717	0.14	118.01827	0.10122932	0.18835604	-0.18517075	0.062920253	0.071555439	0.071826071	0	1124.8146351816988
2.5118864	0.43651583	0.14	137.56658	0.094757554	0.22219006	-0.19657857	0.059253008	0.084070349	0.084323679	0	1156.121521738431
2.5118864	0.47863009	0.14	158.49525	0.08908263	0.25946677	-0.20813881	0.05567451	0.098571237	0.098809395	0	1190.6747142348113
2.5118864	0.52480746	0.14	180.54517	0.084092804	0.30001737	-0.21974636	0.052297379	0.11518083	0.11540565	0	1228.3304279787199
2.5118864	0.57543994	0.14	203.45565	0.079684839	0.34364972	-0.23132513	0.049205464	0.13399618	0.13420921	0	1268.9191643099123
2.5118864	0.63095734	0.14	226.984	0.075766869	0.3901701	-0.24282831	0.046453573	0.15508955	0.15529211	0	1312.2661200264643
2.5118864	0.69183097	0.14	250.91775	0.072259478	0.43939818	-0.25423517	0.044070702	0.17851081	0.178704	0	1358.2056774179757
2.5118864	0.75857758	0.14	275.08035	0.069095489	0.4911757	-0.26554597	0.04206507	0.20429075	0.20447548	0	1406.5902219924205
2.5118864	0.83176377	0.14	299.33213	0.066218965	0.54537027	-0.27677662	0.040429562	0.23244466	0.2326217	0	1457.294428792067
2.5118864	0.91201084	0.14	323.5681	0.063583836	0.60187595	-0.2879536	0.039146723	0.26297587	0.26314586	0	1510.2164642478915
2.5118864	1.	0.14	347.71421	0.061152431	0.66061181	-0.29910992	0.038192887	0.29587895	0.29604244	0	1565.2771763306166
2.5118864	1.0964782	0.14	371.72295	0.058894074	0.72151969	-0.31028191	0.037541328	0.33114258	0.33130003	0	1622.4184044041915
2.5118864	1.2022644	0.14	395.56889	0.056783832	0.7845615	-0.32150703	0.037164517	0.36875189	0.36890369	0	1681.6007392832012
2.5118864	1.3182567	0.14	419.24457	0.054801437	0.84971661	-0.33282232	0.037035627	0.4086904	0.40883691	0	1742.8012689337247
2.5118864	1.4454398	0.14	442.75691	0.052930384	0.91697943	-0.34426353	0.037129461	0.45094167	0.45108318	0	1806.0114267935191
2.5118864	1.5848932	0.14	466.12403	0.0511572	0.98635732	-0.35586458	0.037422968	0.4954905	0.49562727	0	1871.235095954636
2.5118864	1.7378008	0.14	489.37277	0.049470838	1.0578687	-0.36765738	0.037895454	0.54232391	0.54245617	0	1938.4868611396737
2.5118864	1.9054607	0.14	512.53647	0.047862197	1.1315417	-0.37967178	0.038528619	0.59143187	0.59155982	0	2007.7907451555002
2.5118864	2.0892961	0.14	535.65331	0.04632374	1.2074125	-0.39193571	0.039306465	0.64280789	0.64293173	0	2079.1786371131734
2.5118864	2.2908677	0.14	558.76492	0.044849182	1.285525	-0.40447532	0.040215141	0.69644939	0.69656929	0	2152.689961982805
2.5118864	2.5118864	0.14	581.91532	0.043433246	1.3659293	-0.41731517	0.041242753	0.752358	0.75247412	0	2228.3702274617917
2.5118864	2.7542287	0.14	605.15007	0.042071471	1.4486812	-0.43047847	0.042379171	0.81053975	0.81065223	0	2306.2705288050856
2.5118864	3.0199517	0.14	628.5156	0.040760052	1.5338419	-0.44398726	0.043615828	0.87100518	0.87111415	0	2386.4472405162155
2.5118864	3.3113112	0.14	652.05874	0.03949572	1.6214774	-0.45786262	0.044945541	0.9337694	0.93387499	0	2468.9614290625746
2.5118864	3.6307805	0.14	675.82636	0.038275641	1.7116582	-0.47212487	0.04636234	0.99885211	0.99895444	0	2553.8785485126186
2.5118864	3.9810717	0.14	699.86511	0.037097336	1.8044588	-0.48679367	0.047861322	1.0662776	1.0663768	0	2641.2679515484747
2.5118864	4.3651583	0.14	724.22119	0.035958621	1.8999579	-0.50188825	0.049438511	1.1360748	1.1361709	0	2731.2030589635324
2.5118864	4.7863009	0.14	748.9403	0.03485755	1.9982378	-0.51742748	0.051090746	1.2082769	1.2083701	0	2823.760781190845
2.5118864	5.2480746	0.14	774.0675	0.033792381	2.0993847	-0.53343003	0.052815572	1.2829219	1.2830122	0	2919.021785834973
2.5118864	5.7543994	0.14	799.64725	0.032761538	2.2034883	-0.54991443	0.054611158	1.3600518	1.3601394	0	3017.0701110596297
2.5118864	6.3095734	0.14	825.72334	0.031763583	2.310642	-0.5668992	0.056476218	1.4397132	1.4397981	0	3117.993343109158
2.5118864	6.9183097	0.14	852.33898	0.0307972	2.4209426	-0.58440293	0.058409939	1.5219569	1.5220392	0	3221.8823249681113
2.5118864	7.5857758	0.14	879.53678	0.02986117	2.5344904	-0.60244432	0.060411933	1.6068378	1.6069177	0	3328.8312440039053
2.5118864	8.3176377	0.14	907.35886	0.028954364	2.6513896	-0.62104229	0.062482183	1.6944152	1.6944926	0	3438.938000689842
2.5118864	9.1201084	0.14	935.84687	0.028075723	2.7717476	-0.640216	0.064620998	1.7847521	1.7848272	0	3552.3035449901104
2.5118864	10.	0.14	965.0421	0.027224256	2.8956755	-0.65998495	0.066828984	1.8779161	1.8779888	0	3669.032342327819