2.5118864	1.e-12	0.01	3.1075371e6	4.9623022e6	-0.057151802	-0.013655867	-0.013655867	-3307.4772	9959.0185	0	885.7391913561652
2.5118864	1.0964782e-12	0.01	2.8341077e6	4.5256754e6	-0.056905567	-0.013655867	-0.013655867	-3016.46	9082.7331	0	885.9705452301224
2.5118864	1.2022644e-12	0.01	2.5847372e6	4.127467e6	-0.056659333	-0.013655867	-0.013655867	-2751.0493	8283.5514	0	886.2018981645143
2.5118864	1.3182567e-12	0.01	2.3573085e6	3.7642966e6	-0.056413098	-0.013655867	-0.013655867	-2508.9917	7554.689	0	886.4332520384716
2.5118864	1.4454398e-12	0.01	2.1498912e6	3.4330814e6	-0.056166864	-0.013655867	-0.013655867	-2288.2326	6889.9587	0	886.6646049728635
2.5118864	1.5848932e-12	0.01	1.9607243e6	3.1310094e6	-0.05592063	-0.013655867	-0.013655867	-2086.8979	6283.7173	0	886.8959579072554
2.5118864	1.7378008e-12	0.01	1.788202e6	2.8555165e6	-0.055674395	-0.013655867	-0.013655867	-1903.2784	5730.8187	0	887.1273117812126
2.5118864	1.9054607e-12	0.01	1.6308598e6	2.6042639e6	-0.055428161	-0.013655867	-0.013655867	-1735.8155	5226.5691	0	887.3586647156045
2.5118864	2.0892961e-12	0.01	1.4873621e6	2.3751189e6	-0.055181926	-0.013655867	-0.013655867	-1583.0874	4766.688	0	887.5900185895617
2.5118864	2.2908677e-12	0.01	1.3564905e6	2.1661361e6	-0.054935692	-0.013655867	-0.013655867	-1443.7977	4347.2715	0	887.8213715239536
2.5118864	2.5118864e-12	0.01	1.2371343e6	1.9755416e6	-0.054689458	-0.013655867	-0.013655867	-1316.764	3964.7591	0	888.0527244583456
2.5118864	2.7542287e-12	0.01	1.1282801e6	1.8017172e6	-0.054443223	-0.013655867	-0.013655867	-1200.9078	3615.9036	0	888.2840783323028
2.5118864	3.0199517e-12	0.01	1.0290039e6	1.6431876e6	-0.054196989	-0.013655867	-0.013655867	-1095.2458	3297.7436	0	888.5154312666947
2.5118864	3.3113112e-12	0.01	938462.95	1.4986068e6	-0.053950755	-0.013655867	-0.013655867	-998.88079	3007.5783	0	888.7467842010866
2.5118864	3.6307805e-12	0.01	855888.61	1.3667476e6	-0.05370452	-0.013655867	-0.013655867	-910.99485	2742.9444	0	888.9781380750438
2.5118864	3.9810717e-12	0.01	780579.9	1.2464905e6	-0.053458286	-0.013655867	-0.013655867	-830.8419	2501.5953	0	889.2094910094357
2.5118864	4.3651583e-12	0.01	711897.56	1.1368147e6	-0.053212051	-0.013655867	-0.013655867	-757.74153	2281.4824	0	889.440844883393
2.5118864	4.7863009e-12	0.01	649258.51	1.0367892e6	-0.052965817	-0.013655867	-0.013655867	-691.07317	2080.737	0	889.6721978177849
2.5118864	5.2480746e-12	0.01	592131.02	945564.91	-0.052719583	-0.013655867	-0.013655867	-630.27089	1897.6551	0	889.9035507521768
2.5118864	5.7543994e-12	0.01	540030.13	862367.31	-0.052473348	-0.013655867	-0.013655867	-574.81852	1730.6824	0	890.134904626134
2.5118864	6.3095734e-12	0.01	492513.55	786490.19	-0.052227114	-0.013655867	-0.013655867	-524.24534	1578.4014	0	890.3662575605259
2.5118864	6.9183097e-12	0.01	449177.92	717289.43	-0.05198088	-0.013655867	-0.013655867	-478.12202	1439.5196	0	890.5976104949178
2.5118864	7.5857758e-12	0.01	409655.35	654177.57	-0.051734645	-0.013655867	-0.013655867	-436.05704	1312.8578	0	890.8289643688751
2.5118864	8.3176377e-12	0.01	373610.34	596618.88	-0.051488411	-0.013655867	-0.013655867	-397.6933	1197.3409	0	891.060317303267
2.5118864	9.1201084e-12	0.01	340736.9	544124.71	-0.051242176	-0.013655867	-0.013655867	-362.70514	1091.9882	0	891.2916711772242
2.5118864	1.e-11	0.01	310755.97	496249.45	-0.050995942	-0.013655867	-0.013655867	-330.79553	995.90546	0	891.5230241116161
2.5118864	1.0964782e-11	0.01	283413.04	452586.69	-0.050749708	-0.013655867	-0.013655867	-301.69359	908.27693	0	891.7543770460081
2.5118864	1.2022644e-11	0.01	258475.98	412765.77	-0.050503473	-0.013655867	-0.013655867	-275.15229	828.35875	0	891.9857309199654
2.5118864	1.3182567e-11	0.01	235733.12	376448.65	-0.050257239	-0.013655867	-0.013655867	-250.94632	755.47251	0	892.2170838543572
2.5118864	1.4454398e-11	0.01	214991.38	343327.04	-0.050011004	-0.013655867	-0.013655867	-228.87019	688.99947	0	892.4484377283145
2.5118864	1.5848932e-11	0.01	196074.69	313119.75	-0.04976477	-0.013655867	-0.013655867	-208.73649	628.37534	0	892.6797906627064
2.5118864	1.7378008e-11	0.01	178822.46	285570.38	-0.049518536	-0.013655867	-0.013655867	-190.37432	573.08548	0	892.9111435970983
2.5118864	1.9054607e-11	0.01	163088.25	260445.05	-0.049272301	-0.013655867	-0.013655867	-173.62781	522.66052	0	893.1424974710555
2.5118864	2.0892961e-11	0.01	148738.47	237530.46	-0.049026067	-0.013655867	-0.013655867	-158.35478	476.67241	0	893.3738504054475
2.5118864	2.2908677e-11	0.01	135651.32	216632.1	-0.048779833	-0.013655867	-0.013655866	-144.42559	434.73076	0	893.605203349235
2.5118864	2.5118864e-11	0.01	123715.69	197572.56	-0.048533598	-0.013655867	-0.013655866	-131.72199	396.47952	0	893.8365572231922
2.5118864	2.7542287e-11	0.01	112830.27	180190.05	-0.048287364	-0.013655867	-0.013655866	-120.13616	361.59397	0	894.0679101575842
2.5118864	3.0199517e-11	0.01	102902.65	164337.	-0.048041129	-0.013655867	-0.013655866	-109.56973	329.77797	0	894.2992640315414
2.5118864	3.3113112e-11	0.01	93848.557	149878.84	-0.047794895	-0.013655868	-0.013655866	-99.933008	300.76144	0	894.5306169659333
2.5118864	3.6307805e-11	0.01	85591.121	136692.83	-0.047548661	-0.013655868	-0.013655866	-91.144193	274.29805	0	894.7619699003252
2.5118864	3.9810717e-11	0.01	78060.251	124667.04	-0.047302426	-0.013655868	-0.013655866	-83.128676	250.16314	0	894.9933237742824
2.5118864	4.3651583e-11	0.01	71192.017	113699.38	-0.047056192	-0.013655868	-0.013655866	-75.818417	228.15185	0	895.2246767086743
2.5118864	4.7863009e-11	0.01	64928.111	103696.75	-0.046809958	-0.013655868	-0.013655866	-69.151359	208.07731	0	895.4560296430662
2.5118864	5.2480746e-11	0.01	59215.362	94574.23	-0.046563723	-0.013655868	-0.013655866	-63.070909	189.76912	0	895.6873835170235
2.5118864	5.7543994e-11	0.01	54005.273	86254.388	-0.046317489	-0.013655868	-0.013655866	-57.525451	173.07185	0	895.9187364514154
2.5118864	6.3095734e-11	0.01	49253.616	78666.595	-0.046071254	-0.013655868	-0.013655865	-52.467912	157.84375	0	896.1500903347683
2.5118864	6.9183097e-11	0.01	44920.053	71746.436	-0.04582502	-0.013655868	-0.013655865	-47.855359	143.95557	0	896.3814432691602
2.5118864	7.5857758e-11	0.01	40967.796	65435.167	-0.045578786	-0.013655868	-0.013655865	-43.648638	131.28939	0	896.6127962035522
2.5118864	8.3176377e-11	0.01	37363.295	59679.214	-0.045332551	-0.013655868	-0.013655865	-39.812043	119.7377	0	896.8441500775093
2.5118864	9.1201084e-11	0.01	34075.951	54429.715	-0.045086317	-0.013655868	-0.013655865	-36.313005	109.20243	0	897.0755030119012
2.5118864	1.e-10	0.01	31077.858	49642.106	-0.044840083	-0.013655869	-0.013655865	-33.121822	99.594155	0	897.3068559462931
2.5118864	1.0964782e-10	0.01	28343.564	45275.747	-0.044593848	-0.013655869	-0.013655864	-30.211407	90.831301	0	897.5382098296461
2.5118864	1.2022644e-10	0.01	25849.859	41293.572	-0.044347614	-0.013655869	-0.013655864	-27.557055	82.839484	0	897.7695627640379
2.5118864	1.3182567e-10	0.01	23575.572	37661.777	-0.044101379	-0.013655869	-0.013655864	-25.136237	75.55086	0	898.0009166379951
2.5118864	1.4454398e-10	0.01	21501.398	34349.533	-0.043855145	-0.013655869	-0.013655864	-22.928401	68.903556	0	898.232269572387
2.5118864	1.5848932e-10	0.01	19609.73	31328.722	-0.043608911	-0.013655869	-0.013655863	-20.914811	62.841143	0	898.4636225161746
2.5118864	1.7378008e-10	0.01	17884.507	28573.701	-0.043362676	-0.01365587	-0.013655863	-19.078372	57.312156	0	898.6949763901318
2.5118864	1.9054607e-10	0.01	16311.085	26061.085	-0.043116442	-0.01365587	-0.013655862	-17.403499	52.269661	0	898.9263293339194
2.5118864	2.0892961e-10	0.01	14876.108	23769.544	-0.042870207	-0.01365587	-0.013655862	-15.875974	47.67085	0	899.1576832078766
2.5118864	2.2908677e-10	0.01	13567.392	21679.625	-0.042623973	-0.013655871	-0.013655862	-14.482834	43.476684	0	899.3890361422685
2.5118864	2.5118864e-10	0.01	12373.83	19773.588	-0.042377739	-0.013655871	-0.013655861	-13.212253	39.651561	0	899.6203890860561
2.5118864	2.7542287e-10	0.01	11285.288	18035.254	-0.042131504	-0.013655871	-0.01365586	-12.053448	36.163006	0	899.8517429694091
2.5118864	3.0199517e-10	0.01	10292.526	16449.866	-0.04188527	-0.013655872	-0.01365586	-10.996583	32.981406	0	900.083095903801
2.5118864	3.3113112e-10	0.01	9387.1164	15003.967	-0.041639036	-0.013655872	-0.013655859	-10.032689	30.079753	0	900.3144488475887
2.5118864	3.6307805e-10	0.01	8561.3728	13685.283	-0.041392801	-0.013655873	-0.013655858	-9.1535861	27.433413	0	900.5458027309414
2.5118864	3.9810717e-10	0.01	7808.2858	12482.621	-0.041146567	-0.013655873	-0.013655858	-8.351813	25.019923	0	900.7771556653333
2.5118864	4.3651583e-10	0.01	7121.4623	11385.772	-0.040900332	-0.013655874	-0.013655857	-7.6205654	22.818794	0	901.0085095486863
2.5118864	4.7863009e-10	0.01	6495.0719	10385.426	-0.040654098	-0.013655874	-0.013655856	-6.9536381	20.81134	0	901.2398624924739
2.5118864	5.2480746e-10	0.01	5923.7969	9473.0916	-0.040407863	-0.013655875	-0.013655855	-6.3453714	18.980521	0	901.4712163758267
2.5118864	5.7543994e-10	0.01	5402.7881	8641.0246	-0.040161629	-0.013655876	-0.013655853	-5.790604	17.310794	0	901.7025693290099
2.5118864	6.3095734e-10	0.01	4927.6223	7882.1622	-0.039915395	-0.013655877	-0.013655852	-5.2846284	15.787984	0	901.9339222727975
2.5118864	6.9183097e-10	0.01	4494.266	7190.0635	-0.03966916	-0.013655878	-0.01365585	-4.8231516	14.399165	0	902.1652761655461
2.5118864	7.5857758e-10	0.01	4099.0403	6558.8538	-0.039422926	-0.013655879	-0.013655849	-4.402258	13.132548	0	902.3966291093336
2.5118864	8.3176377e-10	0.01	3738.5902	5983.1755	-0.039176692	-0.01365588	-0.013655847	-4.0183768	11.977379	0	902.6279820625167
2.5118864	9.1201084e-10	0.01	3409.8558	5458.1427	-0.038930457	-0.013655881	-0.013655845	-3.6682513	10.923852	0	902.8593359552654
2.5118864	1.e-9	0.01	3110.0465	4979.2989	-0.038684223	-0.013655882	-0.013655843	-3.3489114	9.9630242	0	903.0906889084486
2.5118864	1.0964782e-9	0.01	2836.6171	4542.5801	-0.038437988	-0.013655884	-0.013655841	-3.0576483	9.0867388	0	903.3220428011971
2.5118864	1.2022644e-9	0.01	2587.2466	4144.2798	-0.038191754	-0.013655885	-0.013655838	-2.7919916	8.2875573	0	903.5533957637759
2.5118864	1.3182567e-9	0.01	2359.8179	3781.0174	-0.037945519	-0.013655887	-0.013655836	-2.549688	7.5586948	0	903.7847496565246
2.5118864	1.4454398e-9	0.01	2152.4005	3449.71	-0.037699285	-0.013655889	-0.013655832	-2.3286829	6.8939644	0	904.016102628499
2.5118864	1.5848932e-9	0.01	1963.2336	3147.5461	-0.037453051	-0.013655891	-0.013655829	-2.1271022	6.2877231	0	904.2474555910778
2.5118864	1.7378008e-9	0.01	1790.7114	2871.9611	-0.037206816	-0.013655893	-0.013655825	-1.9432368	5.7348244	0	904.4788095026177
2.5118864	1.9054607e-9	0.01	1633.3692	2620.6166	-0.036960582	-0.013655896	-0.013655821	-1.7755278	5.2305748	0	904.7101624745923
2.5118864	2.0892961e-9	0.01	1489.8715	2391.3796	-0.036714347	-0.013655899	-0.013655817	-1.6225538	4.7706938	0	904.9415163861321
2.5118864	2.2908677e-9	0.01	1358.9999	2182.3048	-0.036468113	-0.013655902	-0.013655812	-1.4830181	4.3512773	0	905.1728693675022
2.5118864	2.5118864e-9	0.01	1239.6437	1991.6182	-0.036221878	-0.013655905	-0.013655807	-1.3557384	3.9687648	0	905.4042232884378
2.5118864	2.7542287e-9	0.01	1130.7895	1817.7019	-0.035975644	-0.013655909	-0.013655801	-1.2396363	3.6199094	0	905.6355762792036
2.5118864	3.0199517e-9	0.01	1031.5133	1659.0802	-0.035729409	-0.013655913	-0.013655795	-1.1337282	3.3017494	0	905.8669302095348
2.5118864	3.3113112e-9	0.01	940.97234	1514.4074	-0.035483175	-0.013655917	-0.013655788	-1.0371172	3.0115841	0	906.0982832096962
2.5118864	3.6307805e-9	0.01	858.39798	1382.4562	-0.03523694	-0.013655922	-0.01365578	-0.94898529	2.7469501	0	906.3296371588187
2.5118864	3.9810717e-9	0.01	783.08927	1262.1071	-0.034990706	-0.013655928	-0.013655772	-0.86858635	2.5056011	0	906.5609901683758
2.5118864	4.3651583e-9	0.01	714.40693	1152.3393	-0.034744471	-0.013655933	-0.013655763	-0.79523999	2.2854882	0	906.7923441268939
2.5118864	4.7863009e-9	0.01	651.76788	1052.2218	-0.034498237	-0.01365594	-0.013655753	-0.72832564	2.0847428	0	907.0236971552423
2.5118864	5.2480746e-9	0.01	594.64039	960.90544	-0.034252002	-0.013655947	-0.013655742	-0.66727737	1.9016609	0	907.2550511325519
2.5118864	5.7543994e-9	0.01	542.5395	877.61583	-0.034005768	-0.013655955	-0.013655729	-0.61157901	1.7346881	0	907.4864041890872
2.5118864	6.3095734e-9	0.01	495.02293	801.64671	-0.033759533	-0.013655963	-0.013655716	-0.56075985	1.5824072	0	907.7177581851879
2.5118864	6.9183097e-9	0.01	451.6873	732.35394	-0.033513299	-0.013655972	-0.013655702	-0.51439055	1.4435253	0	907.9491112511191
2.5118864	7.5857758e-9	0.01	412.16473	669.15008	-0.033267064	-0.013655982	-0.013655686	-0.47207958	1.3168636	0	908.1804652754068
2.5118864	8.3176377e-9	0.01	376.11972	611.49936	-0.033020829	-0.013655994	-0.013655668	-0.43346985	1.2013467	0	908.4118193184858
2.5118864	9.1201084e-9	0.01	343.24628	558.91318	-0.032774595	-0.013656006	-0.013655649	-0.39823569	1.095994	0	908.6431724313951
2.5118864	1.e-8	0.01	313.26535	510.94592	-0.03252836	-0.013656019	-0.013655628	-0.3660801	0.99991124	0	908.8745265026611
2.5118864	1.0964782e-8	0.01	285.92241	467.19114	-0.032282125	-0.013656034	-0.013655605	-0.33673217	0.9122827	0	909.1058805927183
2.5118864	1.2022644e-8	0.01	260.98536	427.27821	-0.032035891	-0.01365605	-0.01365558	-0.30994488	0.83236453	0	909.3372337620016
2.5118864	1.3182567e-8	0.01	238.2425	390.86908	-0.031789656	-0.013656068	-0.013655552	-0.28549292	0.7594783	0	909.5685878990372
2.5118864	1.4454398e-8	0.01	217.50076	357.65546	-0.031543421	-0.013656087	-0.013655521	-0.2631708	0.69300526	0	909.7999420642597
2.5118864	1.5848932e-8	0.01	198.58407	327.35616	-0.031297186	-0.013656108	-0.013655488	-0.24279112	0.63238112	0	910.0312962482735
2.5118864	1.7378008e-8	0.01	181.33184	299.71478	-0.031050951	-0.013656131	-0.013655451	-0.22418296	0.57709126	0	910.26265046987
2.5118864	1.9054607e-8	0.01	165.59763	274.49743	-0.030804716	-0.013656157	-0.013655411	-0.20719045	0.52666631	0	910.4940047196533
2.5118864	2.0892961e-8	0.01	151.24785	251.49084	-0.030558481	-0.013656185	-0.013655367	-0.19167144	0.4806782	0	910.7253590070193
2.5118864	2.2908677e-8	0.01	138.1607	230.50047	-0.030312246	-0.013656216	-0.013655319	-0.17749626	0.43873655	0	910.956713331968
2.5118864	2.5118864e-8	0.01	126.22507	211.34891	-0.030066011	-0.013656249	-0.013655266	-0.16454668	0.4004853	0	911.188067703895
2.5118864	2.7542287e-8	0.01	115.33965	193.87439	-0.029819776	-0.013656286	-0.013655208	-0.15271485	0.36559976	0	911.4194221228
2.5118864	3.0199517e-8	0.01	105.41204	177.92933	-0.029573541	-0.013656327	-0.013655145	-0.14190243	0.33378377	0	911.6507765886834
2.5118864	3.3113112e-8	0.01	96.357939	163.37916	-0.029327305	-0.013656371	-0.013655075	-0.13201972	0.30476723	0	911.8821320599017
2.5118864	3.6307805e-8	0.01	88.100506	150.10114	-0.02908107	-0.01365642	-0.013654999	-0.12298492	0.27830384	0	912.1134866479287
2.5118864	3.9810717e-8	0.01	80.569637	137.98334	-0.028834834	-0.013656473	-0.013654915	-0.11472341	0.25416894	0	912.3448422506862
2.5118864	4.3651583e-8	0.01	73.701402	126.92367	-0.028588599	-0.013656531	-0.013654823	-0.10716717	0.23215765	0	912.5761969890435
2.5118864	4.7863009e-8	0.01	67.437499	116.82902	-0.028342363	-0.013656596	-0.013654723	-0.10025412	0.21208312	0	912.8075527421314
2.5118864	5.2480746e-8	0.01	61.724752	107.6145	-0.028096127	-0.013656666	-0.013654612	-0.09392768	0.19377492	0	913.0389085985717
2.5118864	5.7543994e-8	0.01	56.514663	99.202644	-0.027849891	-0.013656743	-0.013654491	-0.088136231	0.17707765	0	913.2702645489683
2.5118864	6.3095734e-8	0.01	51.763007	91.522839	-0.027603655	-0.013656828	-0.013654359	-0.082832702	0.16184956	0	913.5016206027173
2.5118864	6.9183097e-8	0.01	47.429446	84.510669	-0.027357418	-0.01365692	-0.013654213	-0.077974159	0.14796138	0	913.7329777275704
2.5118864	7.5857758e-8	0.01	43.477191	78.107391	-0.027111181	-0.013657022	-0.013654054	-0.07352145	0.13529521	0	913.9643349745672
2.5118864	8.3176377e-8	0.01	39.872692	72.259428	-0.026864945	-0.013657134	-0.013653879	-0.069438864	0.12374352	0	914.1956914323291
2.5118864	9.1201084e-8	0.01	36.58535	66.917918	-0.026618707	-0.013657256	-0.013653687	-0.065693835	0.11320826	0	914.427049928948
2.5118864	1.e-7	0.01	33.587259	62.038299	-0.02637247	-0.01365739	-0.013653477	-0.062256661	0.10359999	0	914.6584076551233
2.5118864	1.0964782e-7	0.01	30.852968	57.579929	-0.026126232	-0.013657537	-0.013653247	-0.059100256	0.094837141	0	914.8897665087769
2.5118864	1.2022644e-7	0.01	28.359266	53.505745	-0.025879994	-0.013657698	-0.013652994	-0.056199913	0.086845331	0	915.1211255785305
2.5118864	1.3182567e-7	0.01	26.084983	49.78194	-0.025633756	-0.013657875	-0.013652717	-0.053533102	0.079556713	0	915.3524848737799
2.5118864	1.4454398e-7	0.01	24.010812	46.377686	-0.025387517	-0.013658069	-0.013652413	-0.051079276	0.072909418	0	915.5838453622772
2.5118864	1.5848932e-7	0.01	22.119147	43.264865	-0.025141278	-0.013658282	-0.013652081	-0.048819692	0.066847012	0	915.8152061138528
2.5118864	1.7378008e-7	0.01	20.393929	40.417835	-0.024895039	-0.013658515	-0.013651716	-0.046737262	0.061318035	0	916.0465671754849
2.5118864	1.9054607e-7	0.01	18.820511	37.813209	-0.024648799	-0.013658771	-0.013651315	-0.044816395	0.056275549	0	916.277929514926
2.5118864	2.0892961e-7	0.01	17.385539	35.429658	-0.024402558	-0.013659052	-0.013650877	-0.043042877	0.051676749	0	916.5092931415714
2.5118864	2.2908677e-7	0.01	16.076829	33.247731	-0.024156317	-0.013659359	-0.013650396	-0.041403742	0.047482596	0	916.7406571722303
2.5118864	2.5118864e-7	0.01	14.883273	31.249685	-0.023910075	-0.013659697	-0.013649868	-0.039887167	0.043657486	0	916.97202258405
2.5118864	2.7542287e-7	0.01	13.794737	29.419342	-0.023663832	-0.013660067	-0.013649291	-0.038482367	0.040168945	0	917.203389395822
2.5118864	3.0199517e-7	0.01	12.801983	27.741947	-0.023417589	-0.013660473	-0.013648657	-0.037179506	0.036987362	0	917.4347567431464
2.5118864	3.3113112e-7	0.01	11.896581	26.204039	-0.023171345	-0.013660919	-0.013647962	-0.035969616	0.034085725	0	917.6661256031712
2.5118864	3.6307805e-7	0.01	11.070846	24.793348	-0.0229251	-0.013661407	-0.013647201	-0.034844516	0.031439405	0	917.8974960228742
2.5118864	3.9810717e-7	0.01	10.317768	23.498679	-0.022678853	-0.013661943	-0.013646366	-0.033796744	0.029025936	0	918.1288690169862
2.5118864	4.3651583e-7	0.01	9.6309553	22.309823	-0.022432606	-0.013662531	-0.013645451	-0.032819497	0.02682483	0	918.3602427627507
2.5118864	4.7863009e-7	0.01	9.0045761	21.217471	-0.022186357	-0.013663176	-0.013644449	-0.03190657	0.024817401	0	918.5916192050676
2.5118864	5.2480746e-7	0.01	8.4333137	20.21313	-0.021940107	-0.013663884	-0.013643349	-0.031052302	0.022986609	0	918.8229975077239
2.5118864	5.7543994e-7	0.01	7.9123185	19.289058	-0.021693856	-0.01366466	-0.013642145	-0.030251531	0.021316912	0	919.0543777270937
2.5118864	6.3095734e-7	0.01	7.4371677	18.43819	-0.021447603	-0.013665512	-0.013640824	-0.029499552	0.019794135	0	919.2857609248853
2.5118864	6.9183097e-7	0.01	7.0038278	17.654087	-0.021201348	-0.013666446	-0.013639377	-0.028792069	0.018405353	0	919.5171471856604
2.5118864	7.5857758e-7	0.01	6.6086201	16.930874	-0.020955091	-0.013667472	-0.013637791	-0.028125168	0.017138774	0	919.7485366315616
2.5118864	8.3176377e-7	0.01	6.2481897	16.263193	-0.020708832	-0.013668597	-0.013636053	-0.027495278	0.015983649	0	919.9799293847332
2.5118864	9.1201084e-7	0.01	5.9194769	15.646157	-0.020462571	-0.013669833	-0.013634149	-0.026899141	0.01493017	0	920.2113255767138
2.5118864	1.e-6	0.01	5.6196912	15.075312	-0.020216307	-0.013671188	-0.013632062	-0.026333788	0.013969394	0	920.4427263067951
2.5118864	1.0964782e-6	0.01	5.3462878	14.546593	-0.01997004	-0.013672677	-0.013629775	-0.025796509	0.013093165	0	920.6741317347029
2.5118864	1.2022644e-6	0.01	5.0969456	14.056293	-0.01972377	-0.013674311	-0.01362727	-0.025284833	0.012294045	0	920.9055420295595
2.5118864	1.3182567e-6	0.01	4.869548	13.601032	-0.019477497	-0.013676104	-0.013624526	-0.024796508	0.011565251	0	921.1369573886732
2.5118864	1.4454398e-6	0.01	4.6621646	13.177728	-0.01923122	-0.013678074	-0.013621521	-0.024329479	0.010900595	0	921.368378958314
2.5118864	1.5848932e-6	0.01	4.4730349	12.783568	-0.018984939	-0.013680238	-0.013618228	-0.02388187	0.010294434	0	921.5998069921643
2.5118864	1.7378008e-6	0.01	4.3005533	12.415989	-0.018738653	-0.013682614	-0.013614623	-0.023451973	0.0097416245	0	921.8312426552852
2.5118864	1.9054607e-6	0.01	4.1432557	12.072651	-0.018492363	-0.013685225	-0.013610675	-0.023038227	0.0092374718	0	922.0626852993769
2.5118864	2.0892961e-6	0.01	3.9998067	11.751423	-0.018246067	-0.013688094	-0.013606353	-0.022639213	0.0087776965	0	922.2941370948348
2.5118864	2.2908677e-6	0.01	3.8689884	11.450358	-0.017999766	-0.013691248	-0.013601622	-0.022253631	0.0083583954	0	922.525597430942
2.5118864	2.5118864e-6	0.01	3.7496905	11.167684	-0.017753458	-0.013694714	-0.013596444	-0.021880301	0.0079760089	0	922.7570685438634
2.5118864	2.7542287e-6	0.01	3.6409	10.901782	-0.017507144	-0.013698527	-0.013590779	-0.021518141	0.0076272907	0	922.9885498698605
2.5118864	3.0199517e-6	0.01	3.5416934	10.651177	-0.017260822	-0.013702721	-0.013584581	-0.02116617	0.0073092803	0	923.2200437202634
2.5118864	3.3113112e-6	0.01	3.4512285	10.414522	-0.017014492	-0.013707336	-0.013577803	-0.020823488	0.0070192778	0	923.4515505366685
2.5118864	3.6307805e-6	0.01	3.3687372	10.190592	-0.016768153	-0.013712416	-0.013570393	-0.020489277	0.006754821	0	923.6830717472145
2.5118864	3.9810717e-6	0.01	3.2935191	9.9782669	-0.016521804	-0.013718011	-0.013562295	-0.020162791	0.0065136643	0	923.9146088176237
2.5118864	4.3651583e-6	0.01	3.2249356	9.7765254	-0.016275444	-0.013724175	-0.013553449	-0.019843349	0.0062937601	0	924.1461632512006
2.5118864	4.7863009e-6	0.01	3.1624042	9.584437	-0.016029074	-0.013730971	-0.013543789	-0.019530328	0.006093241	0	924.3777347284929
2.5118864	5.2480746e-6	0.01	3.105394	9.4011525	-0.01578269	-0.013738468	-0.013533247	-0.019223162	0.0059104038	0	924.6093276466665
2.5118864	5.7543994e-6	0.01	3.0534209	9.2258976	-0.015536294	-0.013746743	-0.01352175	-0.018921334	0.0057436954	0	924.8409408124735
2.5118864	6.3095734e-6	0.01	3.0060431	9.0579659	-0.015289882	-0.013755883	-0.01350922	-0.018624372	0.0055916994	0	925.0725787170361
2.5118864	6.9183097e-6	0.01	2.9628584	8.8967134	-0.015043455	-0.013765989	-0.013495575	-0.018331846	0.0054531238	0	925.3042411912324
2.5118864	7.5857758e-6	0.01	2.9234995	8.7415522	-0.014797011	-0.01377717	-0.013480729	-0.018043363	0.0053267903	0	925.5359309222197
2.5118864	8.3176377e-6	0.01	2.8876319	8.5919463	-0.014550549	-0.013789555	-0.013464597	-0.017758565	0.0052116242	0	925.7676496481937
2.5118864	9.1201084e-6	0.01	2.8549504	8.4474065	-0.014304066	-0.013803288	-0.013447086	-0.017477123	0.0051066447	0	925.9994010616462
2.5118864	0.00001	0.01	2.8251769	8.3074866	-0.014057562	-0.013818535	-0.013428109	-0.017198741	0.0050109571	0	926.231185979999
2.5118864	0.000010964782	0.01	2.7980576	8.1717791	-0.013811036	-0.013835484	-0.013407578	-0.016923146	0.0049237446	0	926.463006169635
2.5118864	0.000012022644	0.01	2.7708683	8.0398716	-0.013569677	-0.013867789	-0.013398845	-0.016652761	0.0048414804	0	926.6898607751879
2.5118864	0.000013182567	0.01	2.7481475	7.9115039	-0.013323596	-0.013889907	-0.013376042	-0.01638227	0.0047687861	0	926.9212842051679
2.5118864	0.000014454398	0.01	2.7274241	7.7863269	-0.013077534	-0.013914536	-0.013351518	-0.016113907	0.0047024942	0	927.1527059533261
2.5118864	0.000015848932	0.01	2.7085206	7.6640569	-0.012831494	-0.013942002	-0.01332522	-0.015847484	0.0046420328	0	927.3841236989357
2.5118864	0.000017378008	0.01	2.6912747	7.544434	-0.012585479	-0.013972677	-0.013297118	-0.015582833	0.0045868782	0	927.6155349051708
2.5118864	0.000019054607	0.01	2.6755375	7.4272205	-0.012339491	-0.014006989	-0.013267205	-0.015319796	0.0045365495	0	927.8469377586697
2.5118864	0.000020892961	0.01	2.661173	7.3121984	-0.012093534	-0.014045424	-0.013235513	-0.015058234	0.0044906048	0	928.0783282005103
2.5118864	0.000022908677	0.01	2.6480564	7.1991674	-0.011847613	-0.014088538	-0.013202115	-0.014798018	0.0044486373	0	928.3097008469832
2.5118864	0.000025118864	0.01	2.6360731	7.0879435	-0.01160173	-0.014136959	-0.013167134	-0.014539032	0.0044102719	0	928.5410526632925
2.5118864	0.000027542287	0.01	2.6251182	6.9783577	-0.01135589	-0.014191394	-0.013130755	-0.014281169	0.0043751622	0	928.7723772134151
2.5118864	0.000030199517	0.01	2.6150952	6.8702543	-0.011110097	-0.01425263	-0.01309323	-0.014024333	0.0043429884	0	929.0036683713853
2.5118864	0.000033113112	0.01	2.605916	6.7634904	-0.010864355	-0.014321528	-0.013054885	-0.013768438	0.0043134551	0	929.2349193159583
2.5118864	0.000036307805	0.01	2.5974999	6.6579351	-0.010618667	-0.014399023	-0.013016116	-0.013513404	0.004286291	0	929.4661235077597
2.5118864	0.000039810717	0.01	2.5897739	6.5534688	-0.010373034	-0.014486101	-0.012977395	-0.013259161	0.0042612479	0	929.6972755724754
2.5118864	0.000043651583	0.01	2.582672	6.4499837	-0.010127458	-0.014583781	-0.012939249	-0.013005645	0.0042381015	0	929.9283686794655
2.5118864	0.000047863009	0.01	2.5761353	6.3473832	-0.0098819365	-0.014693084	-0.012902252	-0.012752796	0.0042166522	0	930.159399784538
2.5118864	0.000052480746	0.01	2.5701123	6.2455825	-0.0096364661	-0.014814994	-0.012867	-0.012500563	0.004196726	0	930.3903664824059
2.5118864	0.000057543994	0.01	2.5645583	6.1445088	-0.0093910404	-0.014950415	-0.012834077	-0.012248897	0.0041781761	0	930.6212692992254
2.5118864	0.000063095734	0.01	2.5594355	6.0441009	-0.0091456499	-0.015100132	-0.012804033	-0.011997753	0.0041608831	0	930.8521119932584
2.5118864	0.000069183097	0.01	2.5547127	5.9443088	-0.0089002825	-0.015264769	-0.012777348	-0.011747093	0.0041447542	0	931.0829014233317
2.5118864	0.000075857758	0.01	2.5503645	5.8450933	-0.0086549233	-0.015444759	-0.01275441	-0.011496876	0.0041297224	0	931.3136479434554
2.5118864	0.000083176377	0.01	2.5463705	5.7464242	-0.0084095555	-0.015640333	-0.012735497	-0.011247068	0.0041157426	0	931.5443647263357
2.5118864	0.000091201084	0.01	2.5427147	5.6482788	-0.0081641609	-0.015851511	-0.012720772	-0.010997636	0.0041027881	0	931.7750673405706
2.5118864	0.0001	0.01	2.5393838	5.55064	-0.0079187204	-0.016078119	-0.012710276	-0.010748545	0.0040908456	0	932.0057733466365
2.5118864	0.00010964782	0.01	2.5363669	5.4534945	-0.0076732152	-0.016319811	-0.012703945	-0.010499766	0.0040799109	0	932.2365010096836
2.5118864	0.00012022644	0.01	2.5336542	5.3568308	-0.007427627	-0.016576102	-0.012701619	-0.010251267	0.0040699837	0	932.4672690270626
2.5118864	0.00013182567	0.01	2.5312367	5.2606384	-0.0071819382	-0.016846404	-0.012703057	-0.010003019	0.0040610648	0	932.6980961994759
2.5118864	0.00014454398	0.01	2.5291055	5.164906	-0.006936133	-0.01713006	-0.012707959	-0.009754995	0.004053153	0	932.9290001907522
2.5118864	0.00015848932	0.01	2.5272518	5.0696218	-0.0066901965	-0.017426385	-0.012715978	-0.0095071658	0.0040462439	0	933.1599982607071
2.5118864	0.00017378008	0.01	2.5256668	4.9747724	-0.0064441151	-0.01773469	-0.012726742	-0.009259505	0.004040329	0	933.3911066826123
2.5118864	0.00019054607	0.01	2.5243417	4.8803435	-0.006197876	-0.018054312	-0.01273986	-0.0090119868	0.0040353958	0	933.6223411566049
2.5118864	0.00020892961	0.01	2.5232679	4.7863199	-0.0059514673	-0.018384633	-0.012754946	-0.0087645861	0.0040314285	0	933.8537164902347
2.5118864	0.00022908677	0.01	2.5224372	4.6926856	-0.0057048773	-0.018725098	-0.01277162	-0.0085172787	0.0040284088	0	934.0852472467648
2.5118864	0.00025118864	0.01	2.5218421	4.5994245	-0.005458094	-0.019075229	-0.012789529	-0.0082700411	0.0040263169	0	934.3169480176449
2.5118864	0.00027542287	0.01	2.5214755	4.5065202	-0.0052111054	-0.019434638	-0.012808354	-0.0080228506	0.004025132	0	934.5488330748727
2.5118864	0.00030199517	0.01	2.5213315	4.413957	-0.0049638985	-0.019803035	-0.012827824	-0.0077756851	0.0040248338	0	934.78091717902
2.5118864	0.00033113112	0.01	2.5214049	4.3217191	-0.0047164591	-0.020180241	-0.012847729	-0.007528523	0.0040254021	0	935.013215645002
2.5118864	0.00036307805	0.01	2.5216915	4.2297917	-0.0044687723	-0.020566201	-0.012867935	-0.0072813432	0.0040268179	0	935.2457437313597
2.5118864	0.00039810717	0.01	2.5221878	4.1381599	-0.0042208212	-0.020960998	-0.012888407	-0.0070341251	0.0040290625	0	935.4785176455955
2.5118864	0.00043651583	0.01	2.522891	4.0468094	-0.0039725877	-0.021364872	-0.012909225	-0.0067868481	0.004032118	0	935.7115536421902
2.5118864	0.00047863009	0.01	2.5237989	3.9557259	-0.0037240515	-0.021778239	-0.012930611	-0.0065394921	0.0040359664	0	935.9448687084852
2.5118864	0.00052480746	0.01	2.5249098	3.864895	-0.0034751907	-0.022201723	-0.012952961	-0.0062920372	0.0040405888	0	936.1784797002827
2.5118864	0.00057543994	0.01	2.5262223	3.7743017	-0.003225981	-0.022636177	-0.012976873	-0.0060444635	0.0040459654	0	936.4124038304201
2.5118864	0.00063095734	0.01	2.5277353	3.6839308	-0.0029763954	-0.023082717	-0.01300318	-0.0057967513	0.0040520749	0	936.6466586405824
2.5118864	0.00069183097	0.01	2.529449	3.5937667	-0.0027264031	-0.023542742	-0.013032972	-0.0055488809	0.0040588956	0	936.8812628281202
2.5118864	0.00075857758	0.01	2.5313654	3.5037947	-0.0024759688	-0.024017946	-0.013067615	-0.0053008326	0.0040664076	0	937.1162367252275
2.5118864	0.00083176377	0.01	2.5334904	3.4140023	-0.0022250497	-0.024510304	-0.013108729	-0.0050525864	0.0040745978	0	937.3516053243426
2.5118864	0.00091201084	0.01	2.5358365	3.3243818	-0.0019735933	-0.025022021	-0.013158151	-0.0048041211	0.0040834667	0	937.5874006928311
2.5118864	0.001	0.01	2.5384255	3.2349322	-0.0017215335	-0.025555485	-0.013217877	-0.0045554142	0.0040930342	0	937.8236661822381
2.5118864	0.0010964782	0.01	2.5412835	3.1456454	-0.0014687923	-0.026113629	-0.013290435	-0.0043064404	0.0041033036	0	938.0604513264489
2.5118864	0.0012022644	0.01	2.5443739	3.0563684	-0.0012153128	-0.026703886	-0.013382831	-0.004057174	0.0041138919	0	938.2977437607834
2.5118864	0.0013182567	0.01	2.5473384	2.96625	-0.00096117888	-0.027355532	-0.0135239	-0.003807606	0.0041225323	0	938.5351937508315
2.5118864	0.0014454398	0.01	2.5498158	2.874285	-0.00070639653	-0.028110496	-0.013755114	-0.0035577726	0.0041265014	0	938.7724060120547
2.5118864	0.0015848932	0.01	2.552547	2.7816837	-0.0004503811	-0.02895073	-0.014057953	-0.0033076924	0.0041290161	0	939.0101038688379
2.5118864	0.0017378008	0.01	2.5563316	2.6899255	-0.00019259311	-0.02983873	-0.014394421	-0.0030572971	0.0041341	0	939.2491511951462
2.5118864	0.0019054607	0.01	2.5614988	2.5995788	0.000067239075	-0.030754909	-0.014744428	-0.0028064645	0.0041433946	0	939.4899919684925
2.5118864	0.0020892961	0.01	2.5681698	2.5107633	0.00032929602	-0.031690715	-0.015098897	-0.0025550524	0.0041573624	0	939.7328811258408
2.5118864	0.0022908677	0.01	2.576414	2.4234504	0.00059375993	-0.032642431	-0.015453578	-0.0023029097	0.0041760779	0	939.9780297922233
2.5118864	0.0025118864	0.01	2.5863055	2.337574	0.00086084793	-0.033608653	-0.015806512	-0.0020498789	0.0041995219	0	940.2256603768516
2.5118864	0.0027542287	0.01	2.5979446	2.2530694	0.0011308257	-0.034589257	-0.016157002	-0.0017957937	0.0042276878	0	940.4760290522187
2.5118864	0.0030199517	0.01	2.6114664	2.1698866	0.0014040161	-0.035584944	-0.016505162	-0.0015404764	0.0042606196	0	940.7294380952887
2.5118864	0.0033113112	0.01	2.6270473	2.0879944	0.0016808065	-0.03659702	-0.016851696	-0.0012837345	0.0042984262	0	940.9862448509514
2.5118864	0.0036307805	0.01	2.6449099	2.0073805	0.0019616578	-0.037627261	-0.017197755	-0.0010253553	0.0043412877	0	941.2468715504793
2.5118864	0.0039810717	0.01	2.6653263	1.9280513	0.0022471111	-0.03867779	-0.017544822	-0.00076510238	0.0043894577	0	941.5118126589292
2.5118864	0.0043651583	0.01	2.68862	1.8500302	0.002537793	-0.039750939	-0.017894567	-0.00050270987	0.0044432642	0	941.7816412172078
2.5118864	0.0047863009	0.01	2.7151639	1.7733543	0.0028344177	-0.040849112	-0.018248718	-0.00023787791	0.0045031063	0	942.0570120271994
2.5118864	0.0052480746	0.01	2.7453762	1.6980707	0.0031377861	-0.041974698	-0.018608964	0.00002973233	0.0045694493	0	942.3386617175336
2.5118864	0.0057543994	0.01	2.779717	1.6242331	0.003448786	-0.043130076	-0.018976964	0.00030050266	0.0046428182	0	942.6274088469393
2.5118864	0.0063095734	0.01	2.8186854	1.5518984	0.0037683949	-0.044317698	-0.01935443	0.00057486187	0.0047237937	0	942.9241557551867
2.5118864	0.0069183097	0.01	2.8628193	1.4811251	0.0040976836	-0.045540215	-0.019743251	0.00085328974	0.0048130122	0	943.2298907804637
2.5118864	0.0075857758	0.01	2.9126918	1.4119725	0.0044378178	-0.046800552	-0.020145568	0.0011363204	0.0049111666	0	943.5456890580044
2.5118864	0.0083176377	0.01	2.9689045	1.3445008	0.0047900538	-0.048101931	-0.020563793	0.0014245457	0.0050190091	0	943.8727083014421
2.5118864	0.0091201084	0.01	3.0320734	1.2787698	0.005155725	-0.049447802	-0.021000548	0.0017186173	0.0051373519	0	944.2121766918106
2.5118864	0.01	0.01	3.102806	1.2148387	0.0055362168	-0.050841716	-0.021458524	0.0020192471	0.0052670648	0	944.5653706192423
2.5118864	0.010964782	0.01	3.1816673	1.1527648	0.0059329259	-0.05228712	-0.02194029	0.0023272047	0.0054090705	0	944.9335782372281
2.5118864	0.012022644	0.01	3.2691334	1.0926021	0.0063472018	-0.05378709	-0.022448012	0.0026433113	0.0055643348	0	945.3180471382217
2.5118864	0.013182567	0.01	3.365529	1.0344002	0.0067802653	-0.055343991	-0.02298312	0.0029684278	0.005733851	0	945.7199109078183
2.5118864	0.014454398	0.01	3.4709476	0.97820278	0.0072331008	-0.056959047	-0.023545876	0.0033034364	0.0059186183	0	946.1400919924872
2.5118864	0.015848932	0.01	3.5851532	0.92404701	0.007706319	-0.058631831	-0.024134863	0.0036492132	0.006119612	0	946.5791774984286
2.5118864	0.017378008	0.01	3.7074625	0.87196269	0.0081999879	-0.060359676	-0.02474639	0.0040065903	0.006337744	0	947.0372659954435
2.5118864	0.019054607	0.01	3.8366115	0.82197298	0.0087134334	-0.062137012	-0.025373836	0.0043763053	0.0065738138	0	947.5137863311509
2.5118864	0.020892961	0.01	3.9706093	0.77409654	0.009245014	-0.063954676	-0.026006955	0.0047589379	0.0068284508	0	948.0072924768948
2.5118864	0.022908677	0.01	4.1065871	0.72835384	0.0097918728	-0.065799218	-0.02663118	0.0051548304	0.0071020522	0	948.5152370549112
2.5118864	0.025118864	0.01	4.2406328	0.68478222	0.010349662	-0.0676522	-0.027226923	0.0055639945	0.0073947295	0	949.0337190650325
2.5118864	0.027542287	0.01	4.3675553	0.64347267	0.010912169	-0.069489244	-0.027768621	0.0059859982	0.007706294	0	949.5571415446553
2.5118864	0.030199517	0.01	4.4802893	0.60466399	0.011470512	-0.071277727	-0.028222428	0.0064198172	0.0080363596	0	950.0774774675426
2.5118864	0.033113112	0.01	4.5676716	0.56900133	0.012010417	-0.072968267	-0.028537709	0.0068635664	0.0083847663	0	950.581791226803
2.5118864	0.036307805	0.01	4.6040436	0.53833932	0.012500001	-0.074456971	-0.028609269	0.0073137235	0.0087529499	0	951.041115036153
2.5118864	0.039810717	0.01	4.481936	0.51869812	0.012812736	-0.075415371	-0.028107309	0.00776144	0.0091481565	0	951.3396662481161
2.5118864	0.043651583	0.01	4.3683308	0.49039103	0.013143667	-0.07898335	-0.030170332	0.008192653	0.0095036918	0	951.6312140996865
2.5118864	0.047863009	0.01	4.309811	0.45854663	0.013537878	-0.083624806	-0.033260821	0.0086182431	0.0098441473	0	951.9725639320858
2.5118864	0.052480746	0.01	4.2253901	0.42848406	0.013898374	-0.088405392	-0.036442962	0.0090367686	0.010182302	0	952.2813751882752
2.5118864	0.057543994	0.01	4.1267164	0.40000795	0.014235092	-0.093285842	-0.039675988	0.0094461775	0.010515581	0	952.5673673617441
2.5118864	0.063095734	0.01	4.0362686	0.37304992	0.014571267	-0.098236572	-0.042928758	0.0098460898	0.010843422	0	952.852663843445
2.5118864	0.069183097	0.01	3.9878539	0.34754378	0.014944942	-0.10322916	-0.046171249	0.010238869	0.011168012	0	953.1732906036935
2.5118864	0.075857758	0.01	4.0282662	0.32342627	0.01541197	-0.10823986	-0.049378074	0.010630817	0.011495483	0	953.581963713438
2.5118864	0.083176377	0.01	4.2182384	0.30063766	0.0160484	-0.11325439	-0.052533238	0.011033504	0.011837245	0	954.150286461459
2.5118864	0.091201084	0.01	4.6323119	0.27912219	0.016951766	-0.11827386	-0.055636098	0.011465134	0.012211355	0	954.969904456008
2.5118864	0.1	0.01	5.3573677	0.2588285	0.018240888	-0.12332141	-0.058708007	0.011951844	0.012643811	0	956.1522562265833
2.5118864	0.10964782	0.01	6.4899028	0.23970987	0.020054114	-0.12844852	-0.061798561	0.012528783	0.013169637	0	957.8268627733952
2.5118864	0.12022644	0.01	8.132698	0.22172451	0.022546601	-0.13373913	-0.06498979	0.013240894	0.013833665	0	960.1387335119975
2.5118864	0.13182567	0.01	10.392069	0.20483575	0.02588786	-0.13931013	-0.068396605	0.014143386	0.014691006	0	963.2460554404947
2.5118864	0.14454398	0.01	13.377012	0.18901209	0.030261092	-0.14530712	-0.072162564	0.015302019	0.015807334	0	967.3196090493465
2.5118864	0.15848932	0.01	17.200907	0.17422707	0.035865241	-0.15189586	-0.076451322	0.016793426	0.017259214	0	972.5447775818704
2.5118864	0.17378008	0.01	21.985124	0.16045887	0.042919318	-0.15925094	-0.081435297	0.018705715	0.019134695	0	979.1257162051496
2.5118864	0.19054607	0.01	27.862515	0.1476894	0.051666953	-0.16754347	-0.087283382	0.021139434	0.021534275	0	987.2897443652985
2.5118864	0.20892961	0.01	34.977948	0.13590283	0.062378042	-0.17692913	-0.094148935	0.024208756	0.024572086	0	997.2890060933905
2.5118864	0.22908677	0.01	43.483289	0.12508332	0.075344272	-0.1875369	-0.10215857	0.028042468	0.028376873	0	1009.3963707663995
2.5118864	0.25118864	0.01	53.525455	0.1152122	0.090866464	-0.19945896	-0.11140202	0.032784129	0.033092143	0	1023.8936362723023
2.5118864	0.27542287	0.01	65.228334	0.10626468	0.10923392	-0.21274241	-0.12192384	0.038590733	0.038874827	0	1041.0522021226425
2.5118864	0.30199517	0.01	78.671968	0.098206919	0.13069893	-0.22738434	-0.13371854	0.045629442	0.045891993	0	1061.1091628417096
2.5118864	0.33113112	0.01	93.874441	0.090994126	0.15545228	-0.24333208	-0.14673076	0.054072344	0.054315613	0	1084.2442944877462
2.5118864	0.36307805	0.01	110.7821	0.084570297	0.18360625	-0.26048939	-0.16086148	0.064089823	0.064315918	0	1110.5640218158603
2.5118864	0.39810717	0.01	129.27145	0.078869907	0.21518975	-0.27872783	-0.17597943	0.075843513	0.076054368	0	1140.0967410277547
2.5118864	0.43651583	0.01	149.16228	0.073821086	0.25015605	-0.29790098	-0.19193523	0.089480016	0.089677374	0	1172.7999497573446
2.5118864	0.47863009	0.01	170.23788	0.069349532	0.28839996	-0.3178583	-0.20857531	0.1051263	0.10531171	0	1208.5762580159708
2.5118864	0.52480746	0.01	192.26716	0.065382304	0.3297789	-0.33845638	-0.22575314	0.12288722	0.12306201	0	1247.2930793211378
2.5118864	0.57543994	0.01	215.02404	0.061850858	0.37413323	-0.35956645	-0.24333672	0.14284506	0.14301042	0	1288.801661686634
2.5118864	0.63095734	0.01	238.30165	0.058693046	0.42130261	-0.38107824	-0.26121246	0.16506081	0.16521773	0	1332.9524224565212
2.5118864	0.69183097	0.01	261.92086	0.055854099	0.47113747	-0.40290109	-0.27928627	0.1895765	0.18972582	0	1379.605714878437
2.5118864	0.75857758	0.01	285.73396	0.05328677	0.52350585	-0.42496329	-0.29748291	0.2164181	0.21656056	0	1428.6382608377658
2.5118864	0.83176377	0.01	309.62479	0.050950931	0.57829658	-0.44721062	-0.3157445	0.24559868	0.24573489	0	1479.9461526749722
2.5118864	0.91201084	0.01	333.50667	0.048812847	0.63542012	-0.46960452	-0.33402875	0.27712137	0.27725187	0	1533.4456590508037
2.5118864	1.	0.01	357.31907	0.04684433	0.69480774	-0.49212044	-0.35230722	0.31098215	0.31110738	0	1589.0724708511407
2.5118864	1.0964782	0.01	381.02396	0.045021899	0.75640995	-0.51474622	-0.37056375	0.34717215	0.34729252	0	1646.7802408205719
2.5118864	1.2022644	0.01	404.60212	0.043326002	0.82019462	-0.53748077	-0.38879314	0.38567977	0.3857956	0	1706.5388295818
2.5118864	1.3182567	0.01	428.0497	0.04174034	0.88614496	-0.56033283	-0.40699989	0.42649228	0.42660387	0	1768.3324195521577
2.5118864	1.4454398	0.01	451.37521	0.040251299	0.9542577	-0.58331987	-0.42519707	0.4695972	0.46970481	0	1832.1578155517598
2.5118864	1.5848932	0.01	474.59696	0.038847474	1.0245414	-0.60646689	-0.44340519	0.5149834	0.51508726	0	1898.0228675551484
2.5118864	1.7378008	0.01	497.74089	0.037519281	1.097015	-0.62980536	-0.46165105	0.56264192	0.56274223	0	1965.9451191265387
2.5118864	1.9054607	0.01	520.83878	0.036258636	1.1717065	-0.65337206	-0.47996663	0.61256666	0.61266359	0	2035.9505776227322
2.5118864	2.0892961	0.01	543.9268	0.035058703	1.2486519	-0.67720793	-0.49838792	0.66475483	0.66484855	0	2108.072729246759
2.5118864	2.2908677	0.01	567.04436	0.033913675	1.3278947	-0.70135703	-0.51695389	0.71920738	0.71929804	0	2182.3520789427275
2.5118864	2.5118864	0.01	590.23314	0.032818608	1.4094844	-0.72586556	-0.53570545	0.77592923	0.77601697	0	2258.8347508192783
2.5118864	2.7542287	0.01	613.53639	0.031769273	1.4934766	-0.75078097	-0.55468464	0.83492948	0.83501441	0	2337.572589716598
2.5118864	3.0199517	0.01	636.99835	0.030762039	1.5799321	-0.77615123	-0.57393384	0.8962215	0.89630374	0	2418.62232302017
2.5118864	3.3113112	0.01	660.66378	0.029793779	1.668917	-0.80202429	-0.59349523	0.95982306	0.95990271	0	2502.045659690967
2.5118864	3.6307805	0.01	684.57766	0.028861782	1.7605014	-0.82844764	-0.61341032	1.0257563	1.0258334	0	2587.908073246446
2.5118864	3.9810717	0.01	708.78493	0.027963692	1.8547603	-0.85546798	-0.63371972	1.0940478	1.0941225	0	2676.279649530368
2.5118864	4.3651583	0.01	733.33028	0.027097446	1.9517725	-0.88313112	-0.65446288	1.1647284	1.1648008	0	2767.2340556337826
2.5118864	4.7863009	0.01	758.25808	0.026261227	2.0516211	-0.91148183	-0.67567807	1.2378336	1.2379038	0	2860.8490098656166
2.5118864	5.2480746	0.01	783.61224	0.025453427	2.1543926	-0.9405639	-0.69740234	1.3134029	1.3134709	0	2957.2054365196805
2.5118864	5.7543994	0.01	809.43623	0.024672612	2.2601777	-0.97042017	-0.71967159	1.3914803	1.3915463	0	3056.3882168692608
2.5118864	6.3095734	0.01	835.77302	0.023917497	2.3690707	-1.0010926	-0.74252066	1.4721139	1.4721779	0	3158.485624582294
2.5118864	6.9183097	0.01	862.66512	0.023186918	2.4811694	-1.0326225	-0.76598345	1.5553562	1.5554182	0	3263.5892306373557
2.5118864	7.5857758	0.01	890.15458	0.022479819	2.5965755	-1.0650506	-0.79009305	1.6412636	1.6413237	0	3371.7942779283667
2.5118864	8.3176377	0.01	918.28308	0.021795232	2.7153943	-1.0984171	-0.8148819	1.7298966	1.7299549	0	3483.1993978916826
2.5118864	9.1201084	0.01	947.09193	0.021132267	2.8377346	-1.132762	-0.84038192	1.8213201	1.8213766	0	3597.9065153281254
2.5118864	10.	0.01	976.62217	0.020490097	2.9637093	-1.1681253	-0.86662466	1.9156027	1.9156574	0	3716.0214107328393