20.892961	1.e-12	0.09	1.495632e10	2.8635362e9	-0.54870632	-0.052779749	-0.052779749	-1.591834e7	4.7757648e7	0	419.5568023011993
20.892961	1.0964782e-12	0.09	1.3640326e10	2.6115761e9	-0.54665823	-0.052779749	-0.052779749	-1.4517699e7	4.3555492e7	0	421.48111669888067
20.892961	1.2022644e-12	0.09	1.2440125e10	2.3817857e9	-0.54461014	-0.052779749	-0.052779749	-1.3240298e7	3.9723081e7	0	423.4054310965623
20.892961	1.3182567e-12	0.09	1.1345529e10	2.1722144e9	-0.54256205	-0.052779749	-0.052779749	-1.2075296e7	3.6227881e7	0	425.3297454942437
20.892961	1.4454398e-12	0.09	1.0347245e10	1.981083e9	-0.54051396	-0.052779749	-0.052779749	-1.1012801e7	3.304022e7	0	427.2540598919253
20.892961	1.5848932e-12	0.09	9.4368001e9	1.8067692e9	-0.53846588	-0.052779749	-0.052779749	-1.0043794e7	3.0133039e7	0	429.1783648939533
20.892961	1.7378008e-12	0.09	8.606464e9	1.6477931e9	-0.53641779	-0.052779749	-0.052779749	-9.1600489e6	2.7481658e7	0	431.10267929163473
20.892961	1.9054607e-12	0.09	7.8491883e9	1.5028052e9	-0.5343697	-0.052779749	-0.052779749	-8.3540638e6	2.506357e7	0	433.0269936893163
20.892961	2.0892961e-12	0.09	7.1585449e9	1.3705746e9	-0.53232161	-0.052779749	-0.052779749	-7.6189969e6	2.2858247e7	0	434.9513080869977
20.892961	2.2908677e-12	0.09	6.5286706e9	1.2499789e9	-0.53027352	-0.052779749	-0.052779749	-6.9486078e6	2.0846969e7	0	436.87562248467924
20.892961	2.5118864e-12	0.09	5.9542183e9	1.1399943e9	-0.52822543	-0.052779749	-0.052779749	-6.3372056e6	1.9012662e7	0	438.7999368823607
20.892961	2.7542287e-12	0.09	5.4303116e9	1.0396872e9	-0.52617734	-0.052779749	-0.052779749	-5.7796003e6	1.7339754e7	0	440.7242512800422
20.892961	3.0199517e-12	0.09	4.9525031e9	9.4820598e8	-0.52412926	-0.052779749	-0.052779749	-5.2710582e6	1.5814043e7	0	442.6485562820702
20.892961	3.3113112e-12	0.09	4.5167364e9	8.6477412e8	-0.52208117	-0.052779749	-0.052779749	-4.8072622e6	1.4422579e7	0	444.5728706797517
20.892961	3.6307805e-12	0.09	4.1193126e9	7.8868338e8	-0.52003308	-0.052779749	-0.052779749	-4.3842753e6	1.3153548e7	0	446.49718507743324
20.892961	3.9810717e-12	0.09	3.7568578e9	7.192878e8	-0.51798499	-0.052779749	-0.052779749	-3.9985066e6	1.1996179e7	0	448.42149947511473
20.892961	4.3651583e-12	0.09	3.426295e9	6.5599826e8	-0.5159369	-0.052779749	-0.052779749	-3.6466814e6	1.0940645e7	0	450.3458138727962
20.892961	4.7863009e-12	0.09	3.1248182e9	5.9827753e8	-0.51388881	-0.052779749	-0.052779749	-3.325813e6	9.9779869e6	0	452.2701282704778
20.892961	5.2480746e-12	0.09	2.8498681e9	5.456356e8	-0.51184073	-0.052779749	-0.052779749	-3.0331776e6	9.1000322e6	0	454.19443327250576
20.892961	5.7543994e-12	0.09	2.5991105e9	4.9762558e8	-0.50979264	-0.052779749	-0.052779749	-2.7662909e6	8.2993279e6	0	456.11874767018725
20.892961	6.3095734e-12	0.09	2.370417e9	4.5383993e8	-0.50774455	-0.052779749	-0.052779749	-2.5228873e6	7.5690771e6	0	458.04306206786873
20.892961	6.9183097e-12	0.09	2.161846e9	4.1390693e8	-0.50569646	-0.052779749	-0.052779749	-2.3009006e6	6.9030803e6	0	459.9673764655503
20.892961	7.5857758e-12	0.09	1.971627e9	3.7748761e8	-0.50364837	-0.052779749	-0.052779749	-2.0984463e6	6.295684e6	0	461.8916908632318
20.892961	8.3176377e-12	0.09	1.7981452e9	3.442728e8	-0.50160028	-0.052779749	-0.052779749	-1.9138059e6	5.7417321e6	0	463.81600526091324
20.892961	9.1201084e-12	0.09	1.6399279e9	3.1398052e8	-0.4995522	-0.052779749	-0.052779749	-1.7454117e6	5.2365219e6	0	465.74031026294125
20.892961	1.e-11	0.09	1.495632e9	2.8635364e8	-0.49750411	-0.052779749	-0.052779749	-1.5918344e6	4.7757647e6	0	467.66462466062274
20.892961	1.0964782e-11	0.09	1.3640326e9	2.6115763e8	-0.49545602	-0.052779749	-0.052779749	-1.4517703e6	4.3555492e6	0	469.5889390583043
20.892961	1.2022644e-11	0.09	1.2440125e9	2.3817859e8	-0.49340793	-0.052779749	-0.052779749	-1.3240303e6	3.9723081e6	0	471.5132534559857
20.892961	1.3182567e-11	0.09	1.1345529e9	2.1722146e8	-0.49135984	-0.052779749	-0.052779749	-1.20753e6	3.622788e6	0	473.43756785366725
20.892961	1.4454398e-11	0.09	1.0347246e9	1.9810833e8	-0.48931175	-0.052779749	-0.052779749	-1.1012805e6	3.304022e6	0	475.3618822513488
20.892961	1.5848932e-11	0.09	9.4368002e8	1.8067694e8	-0.48726367	-0.052779749	-0.052779749	-1.0043798e6	3.0133039e6	0	477.28618725337685
20.892961	1.7378008e-11	0.09	8.6064641e8	1.6477933e8	-0.48521558	-0.052779749	-0.052779749	-916005.34	2.7481658e6	0	479.2105016510583
20.892961	1.9054607e-11	0.09	7.8491885e8	1.5028054e8	-0.48316749	-0.052779749	-0.052779749	-835406.84	2.506357e6	0	481.1348160487397
20.892961	2.0892961e-11	0.09	7.158545e8	1.3705748e8	-0.4811194	-0.052779749	-0.052779749	-761900.13	2.2858247e6	0	483.0591304464213
20.892961	2.2908677e-11	0.09	6.5286707e8	1.2499791e8	-0.47907131	-0.052779749	-0.052779749	-694861.22	2.084697e6	0	484.9834448441028
20.892961	2.5118864e-11	0.09	5.9542185e8	1.1399945e8	-0.47702322	-0.052779749	-0.052779749	-633721.01	1.9012662e6	0	486.9077592417843
20.892961	2.7542287e-11	0.09	5.4303118e8	1.0396874e8	-0.47497514	-0.052779749	-0.052779749	-577960.47	1.7339754e6	0	488.8320642438123
20.892961	3.0199517e-11	0.09	4.9525033e8	9.4820619e7	-0.47292705	-0.052779749	-0.052779749	-527106.26	1.5814044e6	0	490.7563786414937
20.892961	3.3113112e-11	0.09	4.5167366e8	8.6477434e7	-0.47087896	-0.052779749	-0.052779749	-480726.66	1.4422579e6	0	492.6806930391752
20.892961	3.6307805e-11	0.09	4.1193128e8	7.8868359e7	-0.46883087	-0.052779749	-0.052779749	-438427.97	1.3153549e6	0	494.6050074368567
20.892961	3.9810717e-11	0.09	3.756858e8	7.19288e7	-0.46678278	-0.052779749	-0.052779749	-399851.1	1.1996179e6	0	496.52932183453834
20.892961	4.3651583e-11	0.09	3.4262952e8	6.5599847e7	-0.46473469	-0.052779749	-0.052779749	-364668.58	1.0940645e6	0	498.4536362322197
20.892961	4.7863009e-11	0.09	3.1248184e8	5.9827774e7	-0.46268661	-0.052779749	-0.052779749	-332581.74	997798.71	0	500.3779412342477
20.892961	5.2480746e-11	0.09	2.8498682e8	5.456358e7	-0.46063852	-0.052779749	-0.052779749	-303318.19	910003.24	0	502.3022556319292
20.892961	5.7543994e-11	0.09	2.5991107e8	4.9762579e7	-0.45859043	-0.052779749	-0.052779749	-276629.52	829932.82	0	504.22657002961074
20.892961	6.3095734e-11	0.09	2.3704172e8	4.5384014e7	-0.45654234	-0.052779749	-0.052779749	-252289.16	756907.74	0	506.15088442729234
20.892961	6.9183097e-11	0.09	2.1618462e8	4.1390714e7	-0.45449425	-0.052779749	-0.052779749	-230090.49	690308.06	0	508.07519882497377
20.892961	7.5857758e-11	0.09	1.9716272e8	3.7748782e7	-0.45244616	-0.052779749	-0.052779749	-209845.06	629568.44	0	509.99951322265525
20.892961	8.3176377e-11	0.09	1.7981454e8	3.44273e7	-0.45039808	-0.052779749	-0.052779749	-191381.01	574173.25	0	511.9238182246832
20.892961	9.1201084e-11	0.09	1.6399281e8	3.1398073e7	-0.44834999	-0.052779749	-0.052779749	-174541.6	523652.22	0	513.8481326223648
20.892961	1.e-10	0.09	1.4956322e8	2.8635385e7	-0.4463019	-0.052779749	-0.052779749	-159183.87	477576.51	0	515.7724470200462
20.892961	1.0964782e-10	0.09	1.3640328e8	2.6115783e7	-0.44425381	-0.052779749	-0.052779749	-145177.45	435554.96	0	517.6967614177278
20.892961	1.2022644e-10	0.09	1.2440127e8	2.3817879e7	-0.44220572	-0.05277975	-0.052779749	-132403.45	397230.84	0	519.6210758154092
20.892961	1.3182567e-10	0.09	1.1345531e8	2.1722166e7	-0.44015763	-0.052779749	-0.052779749	-120753.42	362278.84	0	521.5453902130907
20.892961	1.4454398e-10	0.09	1.0347248e8	1.9810853e7	-0.43810955	-0.052779749	-0.052779749	-110128.47	330402.23	0	523.4696952151188
20.892961	1.5848932e-10	0.09	9.436802e7	1.8067714e7	-0.43606146	-0.05277975	-0.052779749	-100438.39	301330.42	0	525.3940096128002
20.892961	1.7378008e-10	0.09	8.606466e7	1.6477953e7	-0.43401337	-0.052779749	-0.052779748	-91600.944	274816.61	0	527.3183240950427
20.892961	1.9054607e-10	0.09	7.8491905e7	1.5028074e7	-0.43196528	-0.052779749	-0.052779749	-83541.092	250635.73	0	529.2426384081632
20.892961	2.0892961e-10	0.09	7.1585469e7	1.3705768e7	-0.42991719	-0.05277975	-0.052779749	-76190.419	228582.5	0	531.1669528058447
20.892961	2.2908677e-10	0.09	6.5286726e7	1.2499811e7	-0.4278691	-0.05277975	-0.052779748	-69486.527	208469.73	0	533.0912672880871
20.892961	2.5118864e-10	0.09	5.9542204e7	1.1399965e7	-0.42582102	-0.05277975	-0.052779748	-63372.504	190126.65	0	535.0155722901152
20.892961	2.7542287e-10	0.09	5.4303136e7	1.0396893e7	-0.42377293	-0.05277975	-0.052779748	-57796.447	173397.57	0	536.9398866877967
20.892961	3.0199517e-10	0.09	4.9525051e7	9.4820812e6	-0.42172484	-0.05277975	-0.052779748	-52711.025	158140.47	0	538.8642010854782
20.892961	3.3113112e-10	0.09	4.5167385e7	8.6477626e6	-0.41967675	-0.05277975	-0.052779748	-48073.063	144225.82	0	540.7885154831596
20.892961	3.6307805e-10	0.09	4.1193147e7	7.886855e6	-0.41762866	-0.05277975	-0.052779748	-43843.191	131535.52	0	542.7128298808411
20.892961	3.9810717e-10	0.09	3.7568598e7	7.1928991e6	-0.41558057	-0.05277975	-0.052779748	-39985.503	119961.82	0	544.6371442785228
20.892961	4.3651583e-10	0.09	3.4262971e7	6.5600038e6	-0.41353248	-0.05277975	-0.052779748	-36467.249	109406.48	0	546.5614586762042
20.892961	4.7863009e-10	0.09	3.1248202e7	5.9827963e6	-0.4114844	-0.05277975	-0.052779748	-33258.563	99779.901	0	548.4857636782322
20.892961	5.2480746e-10	0.09	2.8498701e7	5.4563769e6	-0.40943631	-0.05277975	-0.052779747	-30332.207	91000.355	0	550.4100781604744
20.892961	5.7543994e-10	0.09	2.5991126e7	4.9762766e6	-0.40738822	-0.05277975	-0.052779747	-27663.338	82993.313	0	552.334392558156
20.892961	6.3095734e-10	0.09	2.3704191e7	4.53842e6	-0.40534013	-0.05277975	-0.052779747	-25229.3	75690.805	0	554.2587069558375
20.892961	6.9183097e-10	0.09	2.1618481e7	4.13909e6	-0.40329204	-0.052779751	-0.052779747	-23009.431	69030.837	0	556.183021353519
20.892961	7.5857758e-10	0.09	1.9716291e7	3.7748966e6	-0.40124395	-0.052779751	-0.052779747	-20984.886	62956.875	0	558.1073357512005
20.892961	8.3176377e-10	0.09	1.7981473e7	3.4427484e6	-0.39919587	-0.052779751	-0.052779746	-19138.48	57417.355	0	560.0316408377894
20.892961	9.1201084e-10	0.09	1.63993e7	3.1398256e6	-0.39714778	-0.052779751	-0.052779746	-17454.536	52365.253	0	561.9559552354708
20.892961	1.e-9	0.09	1.4956341e7	2.8635567e6	-0.39509969	-0.052779751	-0.052779746	-15918.761	47757.681	0	563.8802696331525
20.892961	1.0964782e-9	0.09	1.3640347e7	2.6115965e6	-0.3930516	-0.052779751	-0.052779746	-14518.118	43555.526	0	565.8045840308339
20.892961	1.2022644e-9	0.09	1.2440146e7	2.381806e6	-0.39100351	-0.052779752	-0.052779746	-13240.716	39723.115	0	567.7288984285153
20.892961	1.3182567e-9	0.09	1.134555e7	2.1722346e6	-0.38895542	-0.052779751	-0.052779745	-12075.711	36227.915	0	569.6532129107577
20.892961	1.4454398e-9	0.09	1.0347266e7	1.9811032e6	-0.38690734	-0.052779752	-0.052779745	-11013.214	33040.254	0	571.5775179127858
20.892961	1.5848932e-9	0.09	9.436821e6	1.8067893e6	-0.38485925	-0.052779752	-0.052779744	-10044.205	30133.073	0	573.5018323950281
20.892961	1.7378008e-9	0.09	8.6064848e6	1.6478131e6	-0.38281116	-0.052779752	-0.052779744	-9160.4581	27481.692	0	575.4261467927097
20.892961	1.9054607e-9	0.09	7.8492092e6	1.502825e6	-0.38076307	-0.052779753	-0.052779743	-8354.471	25063.604	0	577.3504612749521
20.892961	2.0892961e-9	0.09	7.1585658e6	1.3705944e6	-0.37871498	-0.052779753	-0.052779743	-7619.402	22858.281	0	579.2747756726335
20.892961	2.2908677e-9	0.09	6.5286914e6	1.2499986e6	-0.37666689	-0.052779754	-0.052779742	-6949.0109	20847.003	0	581.199090154876
20.892961	2.5118864e-9	0.09	5.9542391e6	1.1400139e6	-0.37461881	-0.052779754	-0.052779741	-6337.6066	19012.696	0	583.1233952414648
20.892961	2.7542287e-9	0.09	5.4303325e6	1.0397067e6	-0.37257072	-0.052779755	-0.052779741	-5779.9993	17339.788	0	585.0477096391463
20.892961	3.0199517e-9	0.09	4.9525239e6	948225.36	-0.37052263	-0.052779755	-0.05277974	-5271.4551	15814.078	0	586.9720241213886
20.892961	3.3113112e-9	0.09	4.5167573e6	864793.41	-0.36847454	-0.052779756	-0.052779739	-4807.6571	14422.613	0	588.8963386036311
20.892961	3.6307805e-9	0.09	4.1193335e6	788702.58	-0.36642645	-0.052779756	-0.052779738	-4384.6681	13153.582	0	590.8206530858735
20.892961	3.9810717e-9	0.09	3.7568786e6	719306.9	-0.36437836	-0.052779757	-0.052779737	-3998.8974	11996.213	0	592.7449675681158
20.892961	4.3651583e-9	0.09	3.4263159e6	656017.29	-0.36233028	-0.052779758	-0.052779736	-3647.0702	10940.679	0	594.6692726547046
20.892961	4.7863009e-9	0.09	3.124839e6	598296.45	-0.36028219	-0.052779759	-0.052779734	-3326.1997	9978.0209	0	596.593587221508
20.892961	5.2480746e-9	0.09	2.8498889e6	545654.43	-0.3582341	-0.05277976	-0.052779733	-3033.5622	9100.0662	0	598.5179017037505
20.892961	5.7543994e-9	0.09	2.5991314e6	497644.32	-0.35618601	-0.052779761	-0.052779732	-2766.6735	8299.362	0	600.4422161859927
20.892961	6.3095734e-9	0.09	2.3704379e6	453858.57	-0.35413792	-0.052779762	-0.05277973	-2523.2679	7569.1111	0	602.366530752796
20.892961	6.9183097e-9	0.09	2.1618669e6	413925.49	-0.35208983	-0.052779763	-0.052779728	-2301.2792	6903.1145	0	604.2908453195994
20.892961	7.5857758e-9	0.09	1.9716479e6	377506.08	-0.35004175	-0.052779764	-0.052779726	-2098.8229	6295.7182	0	606.2151504907491
20.892961	8.3176377e-9	0.09	1.7981661e6	344291.17	-0.34799366	-0.052779766	-0.052779724	-1914.1803	5741.7662	0	608.1394650575523
20.892961	9.1201084e-9	0.09	1.6399488e6	313998.8	-0.34594557	-0.052779767	-0.052779721	-1745.7841	5236.556	0	610.0637797089164
20.892961	1.e-8	0.09	1.4956529e6	286371.83	-0.34389748	-0.052779769	-0.052779718	-1592.2048	4775.7989	0	611.9880943602807
20.892961	1.0964782e-8	0.09	1.3640535e6	261175.72	-0.34184939	-0.052779771	-0.052779716	-1452.1386	4355.5833	0	613.9124089270839
20.892961	1.2022644e-8	0.09	1.2440334e6	238196.6	-0.3398013	-0.052779773	-0.052779712	-1324.3966	3972.3423	0	615.8367236630088
20.892961	1.3182567e-8	0.09	1.1345738e6	217239.37	-0.33775322	-0.052779775	-0.052779709	-1207.8943	3622.8222	0	617.7610289187196
20.892961	1.4454398e-8	0.09	1.0347454e6	198126.15	-0.33570513	-0.052779778	-0.052779705	-1101.6427	3304.0561	0	619.6853436546445
20.892961	1.5848932e-8	0.09	943700.89	180694.67	-0.33365704	-0.052779781	-0.052779701	-1004.74	3013.338	0	621.6096583905694
20.892961	1.7378008e-8	0.09	860667.28	164796.97	-0.33160895	-0.052779784	-0.052779696	-916.36342	2748.1999	0	623.5339732110555
20.892961	1.9054607e-8	0.09	784939.73	150298.08	-0.32956086	-0.052779787	-0.052779691	-835.76288	2506.3911	0	625.4582880315414
20.892961	2.0892961e-8	0.09	715875.38	137074.94	-0.32751277	-0.052779791	-0.052779685	-762.25412	2285.8589	0	627.3826029365881
20.892961	2.2908677e-8	0.09	652887.94	125015.27	-0.32546469	-0.052779795	-0.052779679	-695.21317	2084.7311	0	629.3069084459814
20.892961	2.5118864e-8	0.09	595442.72	114016.72	-0.3234166	-0.052779799	-0.052779672	-634.07091	1901.3003	0	631.2312234355891
20.892961	2.7542287e-8	0.09	543052.05	103985.92	-0.32136851	-0.052779804	-0.052779665	-578.30832	1734.0095	0	633.1555384251967
20.892961	3.0199517e-8	0.09	495271.19	94837.703	-0.31932042	-0.052779809	-0.052779657	-527.45206	1581.4385	0	635.0798534993654
20.892961	3.3113112e-8	0.09	451694.54	86494.427	-0.31727233	-0.052779815	-0.052779648	-481.07042	1442.292	0	637.0041686580948
20.892961	3.6307805e-8	0.09	411952.15	78885.259	-0.31522425	-0.052779822	-0.052779638	-438.76968	1315.389	0	638.9284745057315
20.892961	3.9810717e-8	0.09	375706.67	71945.609	-0.31317616	-0.052779828	-0.052779627	-400.19077	1199.652	0	640.8527898335827
20.892961	4.3651583e-8	0.09	342650.39	65616.565	-0.31112807	-0.052779836	-0.052779615	-365.0062	1094.0986	0	642.7771052459949
20.892961	4.7863009e-8	0.09	312502.71	59844.398	-0.30907998	-0.052779845	-0.052779603	-332.91731	997.83281	0	644.7014206584071
20.892961	5.2480746e-8	0.09	285007.7	54580.113	-0.30703189	-0.052779854	-0.052779588	-303.65172	910.03735	0	646.6257363245016
20.892961	5.7543994e-8	0.09	259931.95	49779.02	-0.3049838	-0.052779864	-0.052779573	-276.961	829.96693	0	648.5500519905963
20.892961	6.3095734e-8	0.09	237062.59	45400.362	-0.30293572	-0.052779875	-0.052779556	-252.6186	756.94184	0	650.4743584301594
20.892961	6.9183097e-8	0.09	216205.49	41406.97	-0.30088763	-0.052779887	-0.052779537	-230.41788	690.34216	0	652.3986744344976
20.892961	7.5857758e-8	0.09	197183.59	37764.946	-0.29883954	-0.0527799	-0.052779517	-210.17041	629.60254	0	654.3229905233967
20.892961	8.3176377e-8	0.09	179835.41	34443.373	-0.29679145	-0.052779915	-0.052779494	-191.70431	574.20735	0	656.2473068659785
20.892961	9.1201084e-8	0.09	164013.68	31414.053	-0.29474336	-0.052779931	-0.05277947	-174.86285	523.68633	0	658.1716232931212
20.892961	1.e-7	0.09	149584.09	28651.273	-0.29269528	-0.052779949	-0.052779443	-159.50307	477.61061	0	660.0959305782931
20.892961	1.0964782e-7	0.09	136424.15	26131.58	-0.29064719	-0.052779968	-0.052779413	-145.49461	435.58906	0	662.0202475128009
20.892961	1.2022644e-7	0.09	124422.14	23833.584	-0.2885991	-0.052779989	-0.052779381	-132.71857	397.26494	0	663.9445646164307
20.892961	1.3182567e-7	0.09	113476.18	21737.779	-0.28655101	-0.052780012	-0.052779345	-121.06649	362.31294	0	665.8688820583038
20.892961	1.4454398e-7	0.09	103493.35	19826.373	-0.28450293	-0.052780037	-0.052779306	-110.43949	330.43634	0	667.7931903582064
20.892961	1.5848932e-7	0.09	94388.892	18083.143	-0.28245484	-0.052780065	-0.052779264	-100.74737	301.36452	0	669.7175083074449
20.892961	1.7378008e-7	0.09	86085.532	16493.29	-0.28040675	-0.052780096	-0.052779217	-91.907876	274.85071	0	671.6418266794876
20.892961	1.9054607e-7	0.09	78512.777	15043.318	-0.27835866	-0.052780129	-0.052779165	-83.845979	250.66984	0	673.566145474335
20.892961	2.0892961e-7	0.09	71606.341	13720.92	-0.27631058	-0.052780166	-0.052779109	-76.49326	228.61661	0	675.4904552117725
20.892961	2.2908677e-7	0.09	65307.598	12514.871	-0.27426249	-0.052780206	-0.052779047	-69.787321	208.50383	0	677.4147748522286
20.892961	2.5118864e-7	0.09	59563.075	11414.933	-0.2722144	-0.05278025	-0.05277898	-63.671252	190.16076	0	679.3390949154891
20.892961	2.7542287e-7	0.09	54324.009	10411.77	-0.27016632	-0.052780298	-0.052778905	-58.093151	173.43168	0	681.2634062595832
20.892961	3.0199517e-7	0.09	49545.923	9496.8657	-0.26811823	-0.052780351	-0.052778824	-53.005681	158.17457	0	683.1877275066961
20.892961	3.3113112e-7	0.09	45188.258	8662.4552	-0.26607014	-0.05278041	-0.052778734	-48.365674	144.25993	0	685.112049514857
20.892961	3.6307805e-7	0.09	41214.019	7901.4555	-0.26402205	-0.052780473	-0.052778637	-44.133756	131.56962	0	687.036372114944
20.892961	3.9810717e-7	0.09	37589.471	7207.4076	-0.26197397	-0.052780543	-0.052778529	-40.274022	119.99593	0	688.9606862495472
20.892961	4.3651583e-7	0.09	34283.843	6574.4202	-0.25992588	-0.05278062	-0.052778412	-36.753722	109.44059	0	690.8850105408519
20.892961	4.7863009e-7	0.09	31269.075	5997.1208	-0.2578778	-0.052780704	-0.052778283	-33.54299	99.814007	0	692.8093264512336
20.892961	5.2480746e-7	0.09	28519.574	5470.6094	-0.25582971	-0.052780796	-0.052778141	-30.614587	91.03446	0	694.7336528565602
20.892961	5.7543994e-7	0.09	26011.998	4990.417	-0.25378162	-0.052780897	-0.052777986	-27.943672	83.027418	0	696.6579803611783
20.892961	6.3095734e-7	0.09	23725.063	4552.4684	-0.25173354	-0.052781008	-0.052777816	-25.507588	75.724908	0	698.5822997385562
20.892961	6.9183097e-7	0.09	21639.353	4153.0464	-0.24968545	-0.052781129	-0.05277763	-23.285673	69.064941	0	700.5066298645618
20.892961	7.5857758e-7	0.09	19737.163	3788.7611	-0.24763737	-0.052781262	-0.052777425	-21.259083	62.99098	0	702.4309522015704
20.892961	8.3176377e-7	0.09	18002.345	3456.5208	-0.24558929	-0.052781409	-0.052777201	-19.410629	57.451459	0	704.3552761452358
20.892961	9.1201084e-7	0.09	16420.172	3153.506	-0.2435412	-0.052781569	-0.052776955	-17.72464	52.399358	0	706.2796113448941
20.892961	1.e-6	0.09	14977.213	2877.1451	-0.24149312	-0.052781744	-0.052776685	-16.186819	47.791786	0	708.2039391783602
20.892961	1.0964782e-6	0.09	13661.219	2625.0928	-0.23944504	-0.052781937	-0.05277639	-14.78413	43.589631	0	710.1282691258481
20.892961	1.2022644e-6	0.09	12461.018	2395.2103	-0.23739695	-0.052782148	-0.052776066	-13.504682	39.75722	0	712.0526109212553
20.892961	1.3182567e-6	0.09	11366.422	2185.5469	-0.23534887	-0.052782379	-0.052775711	-12.337631	36.262019	0	713.9769459423964
20.892961	1.4454398e-6	0.09	10368.139	1994.3235	-0.23330079	-0.052782633	-0.052775321	-11.273088	33.074359	0	715.901283923168
20.892961	1.5848932e-6	0.09	9457.6931	1819.9176	-0.23125271	-0.052782911	-0.052774894	-10.302033	30.167177	0	717.8256250326924
20.892961	1.7378008e-6	0.09	8627.357	1660.8494	-0.22920463	-0.052783217	-0.052774426	-9.4162395	27.515797	0	719.7499696092128
20.892961	1.9054607e-6	0.09	7870.0815	1515.7693	-0.22715655	-0.052783551	-0.052773912	-8.6082065	25.097709	0	721.6743180755341
20.892961	2.0892961e-6	0.09	7179.438	1383.4467	-0.22510847	-0.052783918	-0.052773349	-7.8710913	22.892386	0	723.5986706853382
20.892961	2.2908677e-6	0.09	6549.5636	1262.7588	-0.2230604	-0.05278432	-0.052772732	-7.1986541	20.881108	0	725.5230184657767
20.892961	2.5118864e-6	0.09	5975.1115	1152.6822	-0.22101232	-0.052784762	-0.052772055	-6.5852039	19.046801	0	727.4473807155215
20.892961	2.7542287e-6	0.09	5451.2048	1052.2829	-0.21896425	-0.052785245	-0.052771312	-6.0255505	17.373893	0	729.3717391506311
20.892961	3.0199517e-6	0.09	4973.3963	960.70963	-0.21691617	-0.052785775	-0.052770498	-5.5149603	15.848183	0	731.2961129852165
20.892961	3.3113112e-6	0.09	4537.6297	877.18568	-0.2148681	-0.052786357	-0.052769606	-5.0491162	14.456719	0	733.2204840198973
20.892961	3.6307805e-6	0.09	4140.2059	801.00284	-0.21282003	-0.052786995	-0.052768628	-4.6240812	13.187688	0	735.1448623268138
20.892961	3.9810717e-6	0.09	3777.7511	731.51516	-0.21077196	-0.052787694	-0.052767555	-4.2362644	12.030319	0	737.0692486670143
20.892961	4.3651583e-6	0.09	3447.1884	668.13354	-0.20872389	-0.052788461	-0.052766379	-3.8823911	10.974785	0	738.9936437169855
20.892961	4.7863009e-6	0.09	3145.7116	610.3207	-0.20667583	-0.052789301	-0.052765089	-3.5594745	10.012127	0	740.9180390112435
20.892961	5.2480746e-6	0.09	2870.7615	557.58667	-0.20462777	-0.052790223	-0.052763675	-3.2647909	9.1341729	0	742.842444791051
20.892961	5.7543994e-6	0.09	2620.0041	509.48456	-0.20257971	-0.052791234	-0.052762124	-2.9958561	8.333469	0	744.7668621556992
20.892961	6.3095734e-6	0.09	2391.3106	465.60681	-0.20053165	-0.052792342	-0.052760424	-2.7504044	7.6032183	0	746.6912921199187
20.892961	6.9183097e-6	0.09	2182.7396	425.58172	-0.1984836	-0.052793557	-0.05275856	-2.5263695	6.9372218	0	748.6157265564693
20.892961	7.5857758e-6	0.09	1992.5207	389.07031	-0.19643555	-0.05279489	-0.052756516	-2.3218671	6.3298259	0	750.5401762139786
20.892961	8.3176377e-6	0.09	1819.039	355.7634	-0.1943875	-0.052796351	-0.052754275	-2.1351785	5.7758743	0	752.4646425299816
20.892961	9.1201084e-6	0.09	1660.8218	325.37904	-0.19233946	-0.052797953	-0.052751817	-1.9647362	5.2706645	0	754.3891178000423
20.892961	0.00001	0.09	1516.526	297.66007	-0.19029142	-0.05279971	-0.052749123	-1.8091107	4.8099078	0	756.313613026471
20.892961	0.000010964782	0.09	1384.9267	272.37197	-0.18824338	-0.052801636	-0.052746169	-1.6669984	4.3896927	0	758.238130238729
20.892961	0.000012022644	0.09	1264.9042	249.30079	-0.18619957	-0.052816513	-0.052755695	-1.5372129	4.0064482	0	760.1576177697553
20.892961	0.000013182567	0.09	1155.4445	228.25157	-0.18415195	-0.052820058	-0.052753372	-1.4186646	3.6569283	0	762.0816870066501
20.892961	0.000014454398	0.09	1055.616	209.04635	-0.18210438	-0.052823945	-0.052750825	-1.3103672	3.3381624	0	764.0057282069148
20.892961	0.000015848932	0.09	964.57127	191.52288	-0.18005685	-0.052828207	-0.052748032	-1.2114185	3.0474445	0	765.9297526265424
20.892961	0.000017378008	0.09	881.5375	175.53318	-0.17800939	-0.052832878	-0.052744969	-1.1209961	2.7823066	0	767.8537341080334
20.892961	0.000019054607	0.09	805.80978	160.94231	-0.17596198	-0.052838	-0.052741609	-1.0383497	2.5404981	0	769.7776937258387
20.892961	0.000020892961	0.09	736.74523	147.62717	-0.17391464	-0.052843615	-0.052737924	-0.96279516	2.3199661	0	771.701615056356
20.892961	0.000022908677	0.09	673.75758	135.47552	-0.17186736	-0.05284977	-0.052733883	-0.89370838	2.1188386	0	773.6255101166262
20.892961	0.000025118864	0.09	616.31213	124.38498	-0.16982017	-0.052856518	-0.05272945	-0.83052034	1.9354083	0	775.5493537638804
20.892961	0.000027542287	0.09	563.92121	114.26219	-0.16777307	-0.052863915	-0.052724589	-0.77271198	1.7681178	0	777.4731490423104
20.892961	0.000030199517	0.09	516.14007	105.022	-0.16572605	-0.052872024	-0.052719256	-0.71980998	1.6155472	0	779.3969090682484
20.892961	0.000033113112	0.09	472.56311	96.58675	-0.16367914	-0.052880912	-0.052713405	-0.67138263	1.4764012	0	781.3206095445346
20.892961	0.000036307805	0.09	432.82039	88.88561	-0.16163235	-0.052890655	-0.052706988	-0.62703621	1.3494986	0	783.2442451344376
20.892961	0.000039810717	0.09	396.57454	81.853989	-0.15958567	-0.052901335	-0.052699947	-0.58641165	1.2337622	0	785.1678301381421
20.892961	0.000043651583	0.09	363.51786	75.432979	-0.15753913	-0.05291304	-0.052692223	-0.54918147	1.1282094	0	787.0913413577799
20.892961	0.000047863009	0.09	333.36974	69.568852	-0.15549274	-0.052925869	-0.052683749	-0.51504701	1.0319442	0	789.0147750632764
20.892961	0.000052480746	0.09	305.87426	64.212611	-0.15344652	-0.052939928	-0.05267445	-0.4837359	0.94414945	0	790.9381188053903
20.892961	0.000057543994	0.09	280.79798	59.319566	-0.15140047	-0.052955337	-0.052664247	-0.4549997	0.86407981	0	792.8613792644318
20.892961	0.000063095734	0.09	257.92806	54.848963	-0.14935461	-0.052972222	-0.052653049	-0.42861187	0.79105558	0	794.7845453441337
20.892961	0.000069183097	0.09	237.07034	50.763634	-0.14730896	-0.052990725	-0.05264076	-0.4043658	0.72445686	0	796.7076063710341
20.892961	0.000075857758	0.09	218.04776	47.029679	-0.14526355	-0.053010999	-0.052627272	-0.38207302	0.66371827	0	798.6305432907471
20.892961	0.000083176377	0.09	200.69884	43.616182	-0.14321839	-0.053033211	-0.052612465	-0.36156169	0.60832422	0	800.5533568549255
20.892961	0.000091201084	0.09	184.87631	40.494948	-0.14117351	-0.053057547	-0.052596211	-0.34267508	0.55780446	0	802.4760297004016
20.892961	0.0001	0.09	170.44584	37.640262	-0.13912893	-0.053084204	-0.052578365	-0.32527023	0.51173014	0	804.3985552971956
20.892961	0.00010964782	0.09	157.28494	35.028674	-0.13708468	-0.053113405	-0.052558769	-0.30921679	0.46971012	0	806.3209188189671
20.892961	0.00012022644	0.09	145.28189	32.638795	-0.1350408	-0.053145386	-0.052537248	-0.29439585	0.43138771	0	808.243097481256
20.892961	0.00013182567	0.09	134.3348	30.451119	-0.1329973	-0.053180411	-0.05251361	-0.280699	0.39643756	0	810.1650981240978
20.892961	0.00014454398	0.09	124.35073	28.447857	-0.13095424	-0.053218762	-0.052487643	-0.26802734	0.36456302	0	812.0868823004787
20.892961	0.00015848932	0.09	115.24494	26.612785	-0.12891164	-0.053260751	-0.052459113	-0.25629069	0.33549348	0	814.0084510063379
20.892961	0.00017378008	0.09	106.94013	24.931108	-0.12686956	-0.053306716	-0.05242776	-0.24540679	0.30898219	0	815.9297698535836
20.892961	0.00019054607	0.09	99.365808	23.389331	-0.12482803	-0.053357025	-0.052393301	-0.23530064	0.28480409	0	817.8508345859847
20.892961	0.00020892961	0.09	92.457675	21.975148	-0.12278711	-0.053412081	-0.052355419	-0.22590383	0.26275394	0	819.7716156354197
20.892961	0.00022908677	0.09	86.157098	20.677336	-0.12074684	-0.053472319	-0.052313765	-0.21715397	0.24264458	0	821.6921049310221
20.892961	0.00025118864	0.09	80.410596	19.48566	-0.11870729	-0.053538213	-0.052267955	-0.20899417	0.22430528	0	823.6122691745961
20.892961	0.00027542287	0.09	75.169398	18.390787	-0.11666852	-0.053610278	-0.052217561	-0.20137254	0.20758039	0	825.532088184278
20.892961	0.00030199517	0.09	70.389021	17.384203	-0.11463058	-0.053689074	-0.052162113	-0.19424175	0.19232794	0	827.4515547254143
20.892961	0.00033113112	0.09	66.028898	16.458147	-0.11259356	-0.053775207	-0.052101088	-0.18755866	0.17841846	0	829.3706284624649
20.892961	0.00036307805	0.09	62.052029	15.605538	-0.11055753	-0.053869332	-0.05203391	-0.18128391	0.16573389	0	831.2892923329227
20.892961	0.00039810717	0.09	58.424672	14.819922	-0.10852256	-0.053972158	-0.051959939	-0.17538161	0.15416657	0	833.2075346861777
20.892961	0.00043651583	0.09	55.116057	14.095412	-0.10648874	-0.054084453	-0.051878467	-0.16981903	0.14361834	0	835.1253308304524
20.892961	0.00047863009	0.09	52.098118	13.42664	-0.10445617	-0.054207042	-0.051788713	-0.16456632	0.13399967	0	837.0426528512601
20.892961	0.00052480746	0.09	49.345266	12.808711	-0.10242493	-0.054340817	-0.051689812	-0.15959626	0.12522895	0	838.9594987285353
20.892961	0.00057543994	0.09	46.834163	12.237162	-0.10039512	-0.054486736	-0.051580809	-0.15488402	0.11723175	0	840.8758552613849
20.892961	0.00063095734	0.09	44.543532	11.707924	-0.098366852	-0.054645827	-0.05146065	-0.15040697	0.10994022	0	842.7917063456588
20.892961	0.00069183097	0.09	42.45397	11.217286	-0.096340228	-0.054819192	-0.051328173	-0.14614446	0.10329251	0	844.7070544054357
20.892961	0.00075857758	0.09	40.547791	10.761867	-0.094315358	-0.055008011	-0.0511821	-0.14207765	0.097232231	0	846.6219041573336
20.892961	0.00083176377	0.09	38.80887	10.338583	-0.092292356	-0.05521354	-0.051021031	-0.13818938	0.091708	0	848.5362668761366
20.892961	0.00091201084	0.09	37.222511	9.9446228	-0.090271337	-0.055437121	-0.050843432	-0.13446398	0.086672975	0	850.4501642282218
20.892961	0.001	0.09	35.775323	9.5774249	-0.088252414	-0.055680177	-0.050647635	-0.13088716	0.082084473	0	852.3636310902548
20.892961	0.0010964782	0.09	34.455105	9.2346539	-0.086235702	-0.055944215	-0.050431829	-0.12744589	0.077903603	0	854.276712551977
20.892961	0.0012022644	0.09	33.250741	8.9141816	-0.084221311	-0.056230829	-0.050194063	-0.12412827	0.074094933	0	856.1894702394798
20.892961	0.0013182567	0.09	32.152113	8.6140684	-0.082209349	-0.056541696	-0.049932251	-0.12092345	0.070626184	0	858.1019790737035
20.892961	0.0014454398	0.09	31.150006	8.3325465	-0.080199914	-0.056878579	-0.049644178	-0.11782152	0.067467953	0	860.0143342795972
20.892961	0.0015848932	0.09	30.236034	8.0680045	-0.078193094	-0.057243321	-0.049327527	-0.11481345	0.064593455	0	861.9266491029721
20.892961	0.0017378008	0.09	29.402569	7.8189738	-0.076188968	-0.057637845	-0.048979896	-0.11189096	0.061978287	0	863.8390524334028
20.892961	0.0019054607	0.09	28.64267	7.5841146	-0.074187593	-0.05806415	-0.048598849	-0.10904651	0.059600207	0	865.7516967059721
20.892961	0.0020892961	0.09	27.950025	7.3622048	-0.07218901	-0.058524302	-0.048181961	-0.10627321	0.057438936	0	867.664748458638
20.892961	0.0022908677	0.09	27.318892	7.1521286	-0.070193235	-0.059020433	-0.04772689	-0.10356475	0.055475967	0	869.5783906999392
20.892961	0.0025118864	0.09	26.744047	6.952866	-0.068200252	-0.05955473	-0.047231455	-0.10091536	0.053694389	0	871.4928228902043
20.892961	0.0027542287	0.09	26.220735	6.7634835	-0.066210014	-0.06012943	-0.046693741	-0.098319754	0.052078725	0	873.4082511230924
20.892961	0.0030199517	0.09	25.744626	6.5831251	-0.064222433	-0.060746808	-0.046112196	-0.095773101	0.050614777	0	875.3248893188427
20.892961	0.0033113112	0.09	25.311772	6.4110045	-0.062237379	-0.061409168	-0.045485744	-0.093270969	0.049289492	0	877.2429506084591
20.892961	0.0036307805	0.09	24.918568	6.2463978	-0.060254668	-0.062118835	-0.044813898	-0.090809298	0.048090831	0	879.1626490531152
20.892961	0.0039810717	0.09	24.561724	6.0886366	-0.058274066	-0.062878144	-0.044096848	-0.088384363	0.047007656	0	881.0841884445355
20.892961	0.0043651583	0.09	24.23823	5.9371029	-0.056295272	-0.06368943	-0.043335544	-0.085992751	0.046029638	0	883.0077712590528
20.892961	0.0047863009	0.09	23.945339	5.7912239	-0.054317924	-0.064555019	-0.042531722	-0.083631329	0.045147172	0	884.9335908216336
20.892961	0.0052480746	0.09	23.680544	5.6504682	-0.052341588	-0.065477219	-0.04168791	-0.081297221	0.044351318	0	886.8618411337316
20.892961	0.0057543994	0.09	23.441562	5.5143429	-0.050365756	-0.066458309	-0.040807377	-0.078987788	0.043633755	0	888.7927230650225
20.892961	0.0063095734	0.09	23.226328	5.3823909	-0.048389848	-0.067500542	-0.039894043	-0.076700602	0.042986747	0	890.7264500847542
20.892961	0.0069183097	0.09	23.032983	5.2541894	-0.046413208	-0.068606125	-0.038952343	-0.074433427	0.042403125	0	892.6632635202868
20.892961	0.0075857758	0.09	22.859863	5.1293482	-0.044435111	-0.069777222	-0.037987075	-0.072184202	0.041876277	0	894.6034388333895
20.892961	0.0083176377	0.09	22.705492	5.0075084	-0.042454774	-0.071015939	-0.037003223	-0.069951017	0.04140013	0	896.547290252298
20.892961	0.0091201084	0.09	22.568562	4.8883411	-0.040471363	-0.072324323	-0.036005787	-0.067732099	0.040969144	0	898.4951785701068
20.892961	0.01	0.09	22.44791	4.7715459	-0.038484029	-0.073704332	-0.034999613	-0.065525798	0.040578291	0	900.4474916957661
20.892961	0.010964782	0.09	22.34249	4.6568493	-0.036491935	-0.075157818	-0.033989236	-0.063330569	0.040223029	0	902.4046325618763
20.892961	0.012022644	0.09	22.251323	4.5440021	-0.03449431	-0.076686485	-0.032978746	-0.061144968	0.039899265	0	904.3669797193169
20.892961	0.013182567	0.09	22.173439	4.4327774	-0.032490518	-0.078291837	-0.031971649	-0.058967644	0.039603303	0	906.3348342612001
20.892961	0.014454398	0.09	22.107804	4.3229681	-0.030480158	-0.079975085	-0.030970748	-0.056797346	0.03933179	0	908.3083359290804
20.892961	0.015848932	0.09	22.05322	4.2143837	-0.028463184	-0.081737054	-0.029978006	-0.05463293	0.039081634	0	910.2873619499534
20.892961	0.017378008	0.09	22.008206	4.1068478	-0.02644007	-0.08357802	-0.028994394	-0.052473381	0.038849923	0	912.271384861227
20.892961	0.019054607	0.09	21.970862	4.0001944	-0.024412006	-0.085497543	-0.028019728	-0.050317852	0.038633819	0	914.2593021393376
20.892961	0.020892961	0.09	21.938704	3.8942654	-0.02238114	-0.087494243	-0.027052466	-0.048165706	0.038430439	0	916.2492259907922
20.892961	0.022908677	0.09	21.908495	3.788907	-0.020350841	-0.089565567	-0.026089501	-0.046016587	0.03823672	0	918.2382537505856
20.892961	0.025118864	0.09	21.876078	3.6839669	-0.018325975	-0.091707541	-0.025125941	-0.043870499	0.038049272	0	920.2222271655568
20.892961	0.027542287	0.09	21.836255	3.5792913	-0.016313156	-0.09391456	-0.024154934	-0.041727906	0.037864212	0	922.195511361641
20.892961	0.030199517	0.09	21.782751	3.4747227	-0.014320891	-0.096179264	-0.023167566	-0.039589831	0.037677011	0	924.1508672321037
20.892961	0.033113112	0.09	21.708354	3.3700979	-0.012359526	-0.098492536	-0.022152891	-0.037457963	0.037482355	0	926.0794996372425
20.892961	0.036307805	0.09	21.605339	3.2652483	-0.010440856	-0.10084371	-0.021098166	-0.035334727	0.037274066	0	927.971403963067
20.892961	0.039810717	0.09	21.466301	3.1600017	-0.008577208	-0.10322101	-0.019989299	-0.0332233	0.037045142	0	929.8161898194501
20.892961	0.043651583	0.09	21.285519	3.0541892	-0.0067798348	-0.10561214	-0.018811477	-0.031127512	0.036787994	0	931.6045370657589
20.892961	0.047863009	0.09	21.060904	2.9476578	-0.0050565312	-0.10800494	-0.017549838	-0.029051599	0.036494986	0	933.3303787218239
20.892961	0.052480746	0.09	20.796389	2.8402903	-0.0034085759	-0.11038786	-0.016189936	-0.026999723	0.036159349	0	934.9937349319263
20.892961	0.057543994	0.09	20.504382	2.7320298	-0.0018273971	-0.11275002	-0.014717829	-0.024975266	0.035776436	0	936.6038384101432
20.892961	0.063095734	0.09	20.207726	2.6229008	-0.00029157673	-0.11508101	-0.0131199	-0.022979894	0.035345124	0	938.1819642984339
20.892961	0.069183097	0.09	19.940635	2.513016	0.0012352352	-0.11737094	-0.011382881	-0.021012479	0.034869047	0	939.7633877416507
20.892961	0.075857758	0.09	19.748459	2.4025642	0.0028052652	-0.11961137	-0.0094948406	-0.019067989	0.034357439	0	941.3981878886428
20.892961	0.083176377	0.09	19.686451	2.2917837	0.0044865736	-0.12179791	-0.0074477311	-0.017136444	0.033825577	0	943.1509923877936
20.892961	0.091201084	0.09	19.817876	2.180934	0.0063622889	-0.12393422	-0.0052414335	-0.01520204	0.033295034	0	945.0999159600459
20.892961	0.1	0.09	20.211702	2.0702806	0.008529281	-0.12603711	-0.0028888406	-0.013242472	0.032794019	0	947.3348839803642
20.892961	0.10964782	0.09	20.939984	1.9601007	0.011096311	-0.12814209	-0.0004214058	-0.0112285	0.032357939	0	949.9554248825066
20.892961	0.12022644	0.09	22.075127	1.8507151	0.014181844	-0.13030957	0.0021046446	-0.0091237799	0.032030269	0	953.0680898241257
20.892961	0.13182567	0.09	23.68786	1.742542	0.017912574	-0.1326333	0.004599875	-0.0068849461	0.031863676	0	956.7843533445007
20.892961	0.14454398	0.09	25.848791	1.6361662	0.02242601	-0.13525225	0.0069297739	-0.0044617453	0.031921415	0	961.2220397243332
20.892961	0.15848932	0.09	28.399678	1.5332417	0.02763242	-0.13847202	0.0087933085	-0.0018025822	0.032291864	0	966.2713842867086
20.892961	0.17378008	0.09	32.063673	1.4359906	0.03439492	-0.14265345	0.0098343932	0.0011539447	0.033085833	0	972.7132300060316
20.892961	0.19054607	0.09	36.661337	1.3421468	0.042605411	-0.14754098	0.010313432	0.004514155	0.034359254	0	980.4680307993192
20.892961	0.20892961	0.09	42.357223	1.252329	0.052549643	-0.15326406	0.010105989	0.00837746	0.036225295	0	989.7937450559393
20.892961	0.22908677	0.09	49.334328	1.1671381	0.064548312	-0.15993251	0.0091074154	0.012860372	0.038813833	0	1000.9828384305997
20.892961	0.25118864	0.09	57.781989	1.0871116	0.07894452	-0.16762598	0.0072433651	0.018097784	0.042271708	0	1014.3513909022645
20.892961	0.27542287	0.09	67.876026	1.0126741	0.09608141	-0.17638365	0.0044801189	0.024242679	0.046761348	0	1030.2189564185524
20.892961	0.30199517	0.09	79.753705	0.94409586	0.11627228	-0.18619624	0.00083258719	0.031463594	0.0524573	0	1048.88115976021
20.892961	0.33113112	0.09	93.489102	0.8814667	0.13976906	-0.19700309	-0.0036327762	0.039939611	0.059540642	0	1070.5803250203066
20.892961	0.36307805	0.09	109.07594	0.82469382	0.16673735	-0.20869646	-0.0088022836	0.049853224	0.068191806	0	1095.4816577503934
20.892961	0.39810717	0.09	126.42354	0.77352251	0.19724489	-0.22113323	-0.014526666	0.061382149	0.078582842	0	1123.6614264263453
20.892961	0.43651583	0.09	145.3671	0.72757418	0.23126623	-0.23415153	-0.020637749	0.074691442	0.09087039	0	1155.1099400855146
20.892961	0.47863009	0.09	165.68891	0.68639131	0.26870051	-0.24758861	-0.026966291	0.08992721	0.10519038	0	1189.746745385583
20.892961	0.52480746	0.09	187.14395	0.64948002	0.30939623	-0.26129618	-0.033357286	0.10721267	0.12165505	0	1227.442605620023
20.892961	0.57543994	0.09	209.4839	0.61634433	0.35317622	-0.27515084	-0.039680463	0.12664668	0.14035223	0	1268.0420738263688
20.892961	0.63095734	0.09	232.47564	0.58651015	0.39985849	-0.28905931	-0.045835458	0.14830437	0.16134651	0	1311.3826453748852
20.892961	0.69183097	0.09	255.91317	0.55954004	0.44927102	-0.30295907	-0.051752426	0.1722393	0.1846817	0	1357.3086023888336
20.892961	0.75857758	0.09	279.62344	0.53504078	0.5012608	-0.3168157	-0.057389436	0.19848639	0.21038401	0	1405.679727696332
20.892961	0.83176377	0.09	303.46774	0.51266594	0.55569821	-0.33061849	-0.062728049	0.22706531	0.23846538	0	1456.3757940548082
20.892961	0.91201084	0.09	327.34016	0.49211511	0.6124782	-0.34437539	-0.067768216	0.25798375	0.26892684	0	1509.2981042677275
20.892961	1.	0.09	351.16437	0.47313116	0.67151953	-0.35810797	-0.072523313	0.2912405	0.30176144	0	1564.3691969597048
20.892961	1.0964782	0.09	374.88975	0.45549619	0.73276295	-0.37184713	-0.077015759	0.32682815	0.33695695	0	1621.531507113351
20.892961	1.2022644	0.09	398.48734	0.43902704	0.79616887	-0.38562945	-0.081273449	0.36473544	0.37449802	0	1680.7454785106693
20.892961	1.3182567	0.09	421.94605	0.42357064	0.86171504	-0.39949456	-0.085327005	0.40494917	0.41436804	0	1741.987616399309
20.892961	1.4454398	0.09	445.26921	0.40899951	0.92939426	-0.41348304	-0.089207793	0.44745578	0.45655063	0	1805.2485035721415
20.892961	1.5848932	0.09	468.47159	0.3952077	0.9992124	-0.4276352	-0.092946566	0.49224262	0.50103079	0	1870.531054776982
20.892961	1.7378008	0.09	491.57695	0.38210718	1.0711866	-0.44199012	-0.096572605	0.53929896	0.54779582	0	1937.8488981367586
20.892961	1.9054607	0.09	514.61587	0.36962467	1.1453439	-0.45658522	-0.10011323	0.58861673	0.59683602	0	2007.225129295253
20.892961	2.0892961	0.09	537.62409	0.35769905	1.2217197	-0.47145607	-0.10359355	0.64019114	0.64814524	0	2078.690885626681
20.892961	2.2908677	0.09	560.6411	0.34627913	1.300357	-0.48663627	-0.10703648	0.69402109	0.70172125	0	2152.2846307284926
20.892961	2.5118864	0.09	583.70906	0.33532182	1.3813055	-0.5021576	-0.1104627	0.75010949	0.75756599	0	2228.0513122795546
20.892961	2.7542287	0.09	606.87193	0.32479066	1.4646208	-0.51805015	-0.11389092	0.80846348	0.81568579	0	2306.041587979234
20.892961	3.0199517	0.09	630.17477	0.3146546	1.5503638	-0.53434247	-0.11733793	0.86909455	0.87609147	0	2386.3112575801447
20.892961	3.3113112	0.09	653.66324	0.30488699	1.6386005	-0.55106182	-0.12081888	0.93201867	0.93879839	0	2468.921051298032
20.892961	3.6307805	0.09	677.38319	0.29546479	1.7294013	-0.56823432	-0.12434742	0.99725629	1.0038265	0	2553.9359602775044
20.892961	3.9810717	0.09	701.3804	0.28636794	1.8228411	-0.58588521	-0.12793593	1.0648323	1.0712002	0	2641.425311099563
20.892961	4.3651583	0.09	725.70037	0.27757881	1.9189986	-0.60403897	-0.13159562	1.1347762	1.1409487	0	2731.462099629771
20.892961	4.7863009	0.09	750.38814	0.26908181	2.0179566	-0.6227195	-0.13533674	1.2071218	1.2131053	0	2824.123255130074
20.892961	5.2480746	0.09	775.48828	0.260863	2.1198017	-0.64195032	-0.13916873	1.2819073	1.2877081	0	2919.4893457050593
20.892961	5.7543994	0.09	801.04476	0.25290983	2.2246238	-0.66175465	-0.14310029	1.3591753	1.3647992	0	3017.6441026000243
20.892961	6.3095734	0.09	827.10102	0.24521092	2.332517	-0.68215558	-0.14713955	1.4389727	1.4444254	0	3118.6752514344366
20.892961	6.9183097	0.09	853.69991	0.2377559	2.4435786	-0.70317615	-0.15129412	1.5213506	1.5266376	0	3222.6735684085434
20.892961	7.5857758	0.09	880.88378	0.23053518	2.5579096	-0.72483947	-0.15557122	1.6063643	1.6114906	0	3329.7333390931294
20.892961	8.3176377	0.09	908.6945	0.22353992	2.6756146	-0.7471688	-0.15997771	1.6940731	1.6990439	0	3439.9522619361587
20.892961	9.1201084	0.09	937.17353	0.21676188	2.7968017	-0.77018765	-0.16452022	1.7845405	1.7893606	0	3553.431343313321
20.892961	10.	0.09	966.36199	0.21019332	2.9215829	-0.79391982	-0.16920513	1.8778341	1.8825082	0	3670.2752750453933