22.908677	1.e-12	0.17	2.161876e10	3.7749022e9	-0.60735249	-0.039988735	-0.039988735	-2.3009321e7	6.9031124e7	0	362.5307500944019
22.908677	1.0964782e-12	0.17	1.9716544e10	3.4427517e9	-0.6051068	-0.039988735	-0.039988735	-2.098475e7	6.2957133e7	0	364.6407226052436
22.908677	1.2022644e-12	0.17	1.7981702e10	3.1398268e9	-0.60286112	-0.039988735	-0.039988735	-1.913832e7	5.7417587e7	0	366.7506857204315
22.908677	1.3182567e-12	0.17	1.6399507e10	2.8635561e9	-0.60061543	-0.039988735	-0.039988735	-1.7454355e7	5.2365462e7	0	368.8606582312731
22.908677	1.4454398e-12	0.17	1.4956528e10	2.6115942e9	-0.59836975	-0.039988735	-0.039988735	-1.5918561e7	4.7757869e7	0	370.970621346461
22.908677	1.5848932e-12	0.17	1.3640516e10	2.3818023e9	-0.59612407	-0.039988735	-0.039988735	-1.4517901e7	4.3555695e7	0	373.0805844616489
22.908677	1.7378008e-12	0.17	1.2440298e10	2.1722295e9	-0.59387838	-0.039988735	-0.039988735	-1.3240483e7	3.9723265e7	0	375.19055697249047
22.908677	1.9054607e-12	0.17	1.1345687e10	1.9810968e9	-0.5916327	-0.039988735	-0.039988735	-1.2075464e7	3.6228048e7	0	377.3005200876784
22.908677	2.0892961e-12	0.17	1.0347389e10	1.8067818e9	-0.58938701	-0.039988735	-0.039988735	-1.1012954e7	3.3040373e7	0	379.41049259851997
22.908677	2.2908677e-12	0.17	9.4369311e9	1.6478045e9	-0.58714133	-0.039988735	-0.039988735	-1.0043933e7	3.0133178e7	0	381.520455713708
22.908677	2.5118864e-12	0.17	8.6065835e9	1.5028156e9	-0.58489564	-0.039988735	-0.039988735	-9.1601761e6	2.7481785e7	0	383.63042822454946
22.908677	2.7542287e-12	0.17	7.8492975e9	1.3705841e9	-0.58264996	-0.039988735	-0.039988735	-8.35418e6	2.5063686e7	0	385.74039133973747
22.908677	3.0199517e-12	0.17	7.1586443e9	1.2499876e9	-0.58040428	-0.039988736	-0.039988735	-7.6191027e6	2.2858353e7	0	387.8503544549255
22.908677	3.3113112e-12	0.17	6.5287613e9	1.1400022e9	-0.57815859	-0.039988735	-0.039988735	-6.9487044e6	2.0847066e7	0	389.96032696576697
22.908677	3.6307805e-12	0.17	5.9543011e9	1.0396944e9	-0.57591291	-0.039988735	-0.039988735	-6.3372938e6	1.901275e7	0	392.07029008095503
22.908677	3.9810717e-12	0.17	5.4303871e9	9.4821257e8	-0.57366722	-0.039988735	-0.039988735	-5.7796806e6	1.7339834e7	0	394.18026259179646
22.908677	4.3651583e-12	0.17	4.9525719e9	8.6478014e8	-0.57142154	-0.039988735	-0.039988735	-5.2711314e6	1.5814117e7	0	396.2902257069845
22.908677	4.7863009e-12	0.17	4.5167992e9	7.8868886e8	-0.56917585	-0.039988735	-0.039988735	-4.807329e6	1.4422646e7	0	398.40019821782596
22.908677	5.2480746e-12	0.17	4.1193698e9	7.1929279e8	-0.56693017	-0.039988736	-0.039988735	-4.3843362e6	1.3153609e7	0	400.51016133301397
22.908677	5.7543994e-12	0.17	3.75691e9	6.5600283e8	-0.56468449	-0.039988735	-0.039988735	-3.9985622e6	1.1996234e7	0	402.62012444820203
22.908677	6.3095734e-12	0.17	3.4263426e9	5.9828169e8	-0.5624388	-0.039988735	-0.039988735	-3.6467322e6	1.0940696e7	0	404.7300969590435
22.908677	6.9183097e-12	0.17	3.1248616e9	5.4563939e8	-0.56019312	-0.039988735	-0.039988735	-3.3258593e6	9.9780331e6	0	406.8400600742315
22.908677	7.5857758e-12	0.17	2.8499077e9	4.9762904e8	-0.55794743	-0.039988735	-0.039988735	-3.0332198e6	9.1000744e6	0	408.95003258507296
22.908677	8.3176377e-12	0.17	2.5991467e9	4.5384308e8	-0.55570175	-0.039988735	-0.039988735	-2.7663294e6	8.2993665e6	0	411.05999570026097
22.908677	9.1201084e-12	0.17	2.3704499e9	4.1390981e8	-0.55345606	-0.039988735	-0.039988735	-2.5229224e6	7.5691122e6	0	413.16996821110246
22.908677	1.e-11	0.17	2.161876e9	3.7749024e8	-0.55121038	-0.039988735	-0.039988735	-2.3009326e6	6.9031123e6	0	415.27993132629047
22.908677	1.0964782e-11	0.17	1.9716544e9	3.4427519e8	-0.5489647	-0.039988735	-0.039988735	-2.0984756e6	6.2957133e6	0	417.38989444147853
22.908677	1.2022644e-11	0.17	1.7981702e9	3.139827e8	-0.54671901	-0.039988735	-0.039988735	-1.9138325e6	5.7417587e6	0	419.49986695232
22.908677	1.3182567e-11	0.17	1.6399507e9	2.8635563e8	-0.54447333	-0.039988735	-0.039988735	-1.745436e6	5.2365462e6	0	421.609830067508
22.908677	1.4454398e-11	0.17	1.4956528e9	2.6115945e8	-0.54222764	-0.039988735	-0.039988735	-1.5918566e6	4.7757869e6	0	423.7198025783495
22.908677	1.5848932e-11	0.17	1.3640516e9	2.3818024e8	-0.53998196	-0.039988735	-0.039988735	-1.4517905e6	4.3555694e6	0	425.8297656935375
22.908677	1.7378008e-11	0.17	1.2440298e9	2.1722297e8	-0.53773628	-0.039988735	-0.039988735	-1.3240488e6	3.9723266e6	0	427.93972880872553
22.908677	1.9054607e-11	0.17	1.1345687e9	1.9810971e8	-0.53549059	-0.039988735	-0.039988735	-1.2075469e6	3.6228049e6	0	430.04970131956696
22.908677	2.0892961e-11	0.17	1.0347389e9	1.806782e8	-0.53324491	-0.039988735	-0.039988735	-1.1012959e6	3.3040373e6	0	432.15966443475503
22.908677	2.2908677e-11	0.17	9.4369313e8	1.6478048e8	-0.53099922	-0.039988735	-0.039988735	-1.0043938e6	3.0133178e6	0	434.2696369455965
22.908677	2.5118864e-11	0.17	8.6065837e8	1.5028158e8	-0.52875354	-0.039988735	-0.039988735	-916018.11	2.7481785e6	0	436.37960006078447
22.908677	2.7542287e-11	0.17	7.8492976e8	1.3705843e8	-0.52650785	-0.039988736	-0.039988735	-835418.49	2.5063686e6	0	438.489572571626
22.908677	3.0199517e-11	0.17	7.1586446e8	1.2499878e8	-0.52426217	-0.039988735	-0.039988735	-761910.77	2.2858354e6	0	440.59953568681397
22.908677	3.3113112e-11	0.17	6.5287615e8	1.1400025e8	-0.52201649	-0.039988735	-0.039988735	-694870.93	2.0847066e6	0	442.7094988020019
22.908677	3.6307805e-11	0.17	5.9543012e8	1.0396946e8	-0.5197708	-0.039988735	-0.039988735	-633729.86	1.901275e6	0	444.81947131284346
22.908677	3.9810717e-11	0.17	5.4303873e8	9.4821278e7	-0.51752512	-0.039988735	-0.039988735	-577968.55	1.7339835e6	0	446.9294344280315
22.908677	4.3651583e-11	0.17	4.9525721e8	8.6478036e7	-0.51527943	-0.039988735	-0.039988735	-527113.63	1.5814117e6	0	449.03940693887296
22.908677	4.7863009e-11	0.17	4.5167994e8	7.8868908e7	-0.51303375	-0.039988735	-0.039988735	-480733.39	1.4422646e6	0	451.149370054061
22.908677	5.2480746e-11	0.17	4.1193701e8	7.19293e7	-0.51078806	-0.039988735	-0.039988735	-438434.11	1.315361e6	0	453.2593425649025
22.908677	5.7543994e-11	0.17	3.7569102e8	6.5600304e7	-0.50854238	-0.039988735	-0.039988735	-399856.7	1.1996235e6	0	455.3693056800905
22.908677	6.3095734e-11	0.17	3.4263428e8	5.982819e7	-0.5062967	-0.039988736	-0.039988735	-364673.69	1.0940696e6	0	457.4792687952785
22.908677	6.9183097e-11	0.17	3.1248618e8	5.456396e7	-0.50405101	-0.039988735	-0.039988735	-332586.41	997803.35	0	459.58924130611996
22.908677	7.5857758e-11	0.17	2.8499079e8	4.9762925e7	-0.50180533	-0.039988735	-0.039988735	-303322.45	910007.47	0	461.69920442130797
22.908677	8.3176377e-11	0.17	2.5991469e8	4.5384329e7	-0.49955964	-0.039988736	-0.039988735	-276633.41	829936.68	0	463.80917693214946
22.908677	9.1201084e-11	0.17	2.3704502e8	4.1391002e7	-0.49731396	-0.039988735	-0.039988735	-252292.71	756911.26	0	465.91914004733746
22.908677	1.e-10	0.17	2.1618763e8	3.7749044e7	-0.49506827	-0.039988735	-0.039988734	-230093.73	690311.27	0	468.02911271790515
22.908677	1.0964782e-10	0.17	1.9716546e8	3.4427539e7	-0.49282259	-0.039988735	-0.039988735	-209848.02	629571.36	0	470.1390756733669
22.908677	1.2022644e-10	0.17	1.7981704e8	3.1398291e7	-0.49057691	-0.039988736	-0.039988735	-191383.71	574175.91	0	472.2490387885551
22.908677	1.3182567e-10	0.17	1.6399509e8	2.8635584e7	-0.48833122	-0.039988735	-0.039988734	-174544.06	523654.66	0	474.3590114591226
22.908677	1.4454398e-10	0.17	1.495653e8	2.6115964e7	-0.48608554	-0.039988736	-0.039988735	-159186.12	477578.72	0	476.4689744145846
22.908677	1.5848932e-10	0.17	1.3640518e8	2.3818045e7	-0.48383985	-0.039988736	-0.039988734	-145179.51	435556.98	0	478.5789470851521
22.908677	1.7378008e-10	0.17	1.24403e8	2.1722317e7	-0.48159417	-0.039988735	-0.039988734	-132405.33	397232.69	0	480.68891020034016
22.908677	1.9054607e-10	0.17	1.1345689e8	1.981099e7	-0.47934848	-0.039988736	-0.039988734	-120755.14	362280.52	0	482.79888271118153
22.908677	2.0892961e-10	0.17	1.0347392e8	1.806784e7	-0.4771028	-0.039988735	-0.039988734	-110130.04	330403.77	0	484.90884582636966
22.908677	2.2908677e-10	0.17	9.4369335e7	1.6478068e7	-0.47485712	-0.039988735	-0.039988734	-100439.83	301331.82	0	487.01880894155755
22.908677	2.5118864e-10	0.17	8.6065857e7	1.5028178e7	-0.47261143	-0.039988736	-0.039988734	-91602.259	274817.89	0	489.12878145239915
22.908677	2.7542287e-10	0.17	7.8492997e7	1.3705863e7	-0.47036575	-0.039988736	-0.039988734	-83542.295	250636.9	0	491.23874456758705
22.908677	3.0199517e-10	0.17	7.1586466e7	1.2499898e7	-0.46812006	-0.039988736	-0.039988733	-76191.52	228583.57	0	493.34871723815473
22.908677	3.3113112e-10	0.17	6.5287634e7	1.1400044e7	-0.46587438	-0.039988736	-0.039988734	-69487.534	208470.69	0	495.45868019361654
22.908677	3.6307805e-10	0.17	5.9543033e7	1.0396966e7	-0.4636287	-0.039988736	-0.039988733	-63373.426	190127.54	0	497.5686434685307
22.908677	3.9810717e-10	0.17	5.4303893e7	9.4821471e6	-0.46138301	-0.039988736	-0.039988733	-57797.293	173398.38	0	499.6786159793721
22.908677	4.3651583e-10	0.17	4.9525741e7	8.6478227e6	-0.45913733	-0.039988736	-0.039988733	-52711.798	158141.2	0	501.7885790945602
22.908677	4.7863009e-10	0.17	4.5168015e7	7.8869099e6	-0.45689164	-0.039988736	-0.039988732	-48073.773	144226.5	0	503.89855176512776
22.908677	5.2480746e-10	0.17	4.1193721e7	7.1929492e6	-0.45464596	-0.039988736	-0.039988732	-43843.842	131536.13	0	506.0085148803158
22.908677	5.7543994e-10	0.17	3.7569122e7	6.5600493e6	-0.45240027	-0.039988736	-0.039988732	-39986.1	119962.38	0	508.11848739115726
22.908677	6.3095734e-10	0.17	3.4263449e7	5.982838e6	-0.45015459	-0.039988736	-0.039988731	-36467.797	109407.	0	510.22845066607135
22.908677	6.9183097e-10	0.17	3.1248639e7	5.4564149e6	-0.44790891	-0.039988736	-0.039988731	-33259.066	99780.369	0	512.3384137812594
22.908677	7.5857758e-10	0.17	2.8499099e7	4.9763112e6	-0.44566322	-0.039988736	-0.03998873	-30332.669	91000.78	0	514.448386451827
22.908677	8.3176377e-10	0.17	2.5991489e7	4.5384515e6	-0.44341754	-0.039988737	-0.03998873	-27663.762	82993.701	0	516.5583495670151
22.908677	9.1201084e-10	0.17	2.3704522e7	4.1391187e6	-0.44117185	-0.039988737	-0.039988729	-25229.691	75691.158	0	518.6683222375827
22.908677	1.e-9	0.17	2.1618783e7	3.7749229e6	-0.43892617	-0.039988737	-0.039988729	-23009.791	69031.161	0	520.7782853527707
22.908677	1.0964782e-9	0.17	1.9716567e7	3.4427724e6	-0.43668048	-0.039988737	-0.039988728	-20985.218	62957.17	0	522.8882580233383
22.908677	1.2022644e-9	0.17	1.7981724e7	3.1398474e6	-0.4344348	-0.039988737	-0.039988728	-19138.785	57417.625	0	524.9982211385262
22.908677	1.3182567e-9	0.17	1.6399529e7	2.8635766e6	-0.43218912	-0.039988738	-0.039988727	-17454.818	52365.499	0	527.1081844134404
22.908677	1.4454398e-9	0.17	1.4956551e7	2.6116146e6	-0.42994343	-0.039988737	-0.039988726	-15919.022	47757.906	0	529.218157084008
22.908677	1.5848932e-9	0.17	1.3640538e7	2.3818226e6	-0.42769775	-0.039988738	-0.039988725	-14518.359	43555.732	0	531.328120358922
22.908677	1.7378008e-9	0.17	1.2440321e7	2.1722497e6	-0.42545206	-0.039988738	-0.039988724	-13240.938	39723.302	0	533.4380930294897
22.908677	1.9054607e-9	0.17	1.134571e7	1.981117e6	-0.42320638	-0.039988738	-0.039988723	-12075.917	36228.086	0	535.5480563044038
22.908677	2.0892961e-9	0.17	1.0347412e7	1.8068018e6	-0.4209607	-0.039988738	-0.039988722	-11013.405	33040.41	0	537.658019579318
22.908677	2.2908677e-9	0.17	9.4369539e6	1.6478245e6	-0.41871501	-0.039988739	-0.039988721	-10044.383	30133.215	0	539.7679922498854
22.908677	2.5118864e-9	0.17	8.6066064e6	1.5028355e6	-0.41646933	-0.039988739	-0.039988719	-9160.6232	27481.823	0	541.8779556845258
22.908677	2.7542287e-9	0.17	7.8493203e6	1.3706039e6	-0.41422364	-0.039988739	-0.039988718	-8354.6248	25063.723	0	543.9879283550932
22.908677	3.0199517e-9	0.17	7.1586672e6	1.2500073e6	-0.41197796	-0.03998874	-0.039988716	-7619.5452	22858.39	0	546.0978917897336
22.908677	3.3113112e-9	0.17	6.5287841e6	1.1400218e6	-0.40973227	-0.03998874	-0.039988714	-6949.1446	20847.103	0	548.2078646200272
22.908677	3.6307805e-9	0.17	5.9543239e6	1.0397139e6	-0.40748659	-0.039988741	-0.039988712	-6337.7318	19012.787	0	550.3178280546675
22.908677	3.9810717e-9	0.17	5.43041e6	948231.97	-0.40524091	-0.039988741	-0.03998871	-5780.1164	17339.872	0	552.4277914893077
22.908677	4.3651583e-9	0.17	4.9525947e6	864799.45	-0.40299522	-0.039988742	-0.039988707	-5271.565	15814.154	0	554.5377644793275
22.908677	4.7863009e-9	0.17	4.5168221e6	788708.09	-0.40074954	-0.039988742	-0.039988704	-4807.7604	14422.683	0	556.6477280736938
22.908677	5.2480746e-9	0.17	4.1193927e6	719311.92	-0.39850385	-0.039988743	-0.039988702	-4384.7653	13153.647	0	558.7577009039876
22.908677	5.7543994e-9	0.17	3.7569329e6	656021.87	-0.39625817	-0.039988744	-0.039988698	-3998.9891	11996.272	0	560.86766465808
22.908677	6.3095734e-9	0.17	3.4263655e6	598300.64	-0.39401249	-0.039988745	-0.039988695	-3647.1567	10940.733	0	562.9776282524464
22.908677	6.9183097e-9	0.17	3.1248845e6	545658.24	-0.3917668	-0.039988746	-0.039988691	-3326.2816	9978.0705	0	565.0876014021923
22.908677	7.5857758e-9	0.17	2.8499305e6	497647.8	-0.38952112	-0.039988747	-0.039988687	-3033.6399	9100.1117	0	567.1975651562848
22.908677	8.3176377e-9	0.17	2.5991696e6	453861.75	-0.38727543	-0.039988748	-0.039988682	-2766.7472	8299.4039	0	569.3075384657568
22.908677	9.1201084e-9	0.17	2.3704728e6	413928.39	-0.38502975	-0.039988749	-0.039988677	-2523.338	7569.1496	0	571.4175023795754
22.908677	1.e-8	0.17	2.1618989e6	377508.72	-0.38278407	-0.039988751	-0.039988671	-2301.346	6903.1497	0	573.5274664531199
22.908677	1.0964782e-8	0.17	1.9716773e6	344293.58	-0.38053838	-0.039988752	-0.039988665	-2098.8867	6295.7507	0	575.6374399223182
22.908677	1.2022644e-8	0.17	1.7981931e6	314001.01	-0.3782927	-0.039988754	-0.039988658	-1914.2414	5741.7961	0	577.7474041555889
22.908677	1.3182567e-8	0.17	1.6399736e6	286373.84	-0.37604701	-0.039988755	-0.03998865	-1745.8427	5236.5836	0	579.8573779442393
22.908677	1.4454398e-8	0.17	1.4956757e6	261177.56	-0.37380133	-0.039988757	-0.039988642	-1592.261	4775.8243	0	581.9673423372361
22.908677	1.5848932e-8	0.17	1.3640745e6	238198.27	-0.37155565	-0.039988759	-0.039988633	-1452.1927	4355.6068	0	584.0773068899591
22.908677	1.7378008e-8	0.17	1.2440527e6	217240.9	-0.36930996	-0.039988762	-0.039988624	-1324.4487	3972.3639	0	586.1872808383356
22.908677	1.9054607e-8	0.17	1.1345916e6	198127.55	-0.36706428	-0.039988764	-0.039988613	-1207.9445	3622.8423	0	588.2972457105109
22.908677	2.0892961e-8	0.17	1.0347618e6	180695.95	-0.36481859	-0.039988767	-0.039988601	-1101.6913	3304.0747	0	590.4072201380656
22.908677	2.2908677e-8	0.17	943716.02	164798.14	-0.36257291	-0.03998877	-0.039988588	-1004.787	3013.3552	0	592.5171853296931
22.908677	2.5118864e-8	0.17	860681.25	150299.15	-0.36032723	-0.039988773	-0.039988574	-916.40905	2748.2159	0	594.6271506810466
22.908677	2.7542287e-8	0.17	784952.66	137075.91	-0.35808154	-0.039988776	-0.039988558	-835.8072	2506.406	0	596.737125747506
22.908677	3.0199517e-8	0.17	715887.34	125016.16	-0.35583586	-0.039988781	-0.039988541	-762.29723	2285.8727	0	598.8470915780376
22.908677	3.3113112e-8	0.17	652899.03	114017.54	-0.35359018	-0.039988785	-0.039988522	-695.25515	2084.744	0	600.9570577280218
22.908677	3.6307805e-8	0.17	595453.01	103986.66	-0.35134449	-0.03998879	-0.039988501	-634.11183	1901.3124	0	603.0670335931115
22.908677	3.9810717e-8	0.17	543061.62	94838.386	-0.34909881	-0.039988795	-0.039988479	-578.34829	1734.0209	0	605.177000222274
22.908677	4.3651583e-8	0.17	495280.1	86495.051	-0.34685313	-0.039988801	-0.039988454	-527.49112	1581.4491	0	607.2869673306149
22.908677	4.7863009e-8	0.17	451702.83	78885.831	-0.34460744	-0.039988808	-0.039988427	-481.10863	1442.302	0	609.3969441540612
22.908677	5.2480746e-8	0.17	411959.89	71946.132	-0.34236176	-0.039988815	-0.039988398	-438.8071	1315.3984	0	611.5069119013065
22.908677	5.7543994e-8	0.17	375713.9	65617.043	-0.34011608	-0.039988822	-0.039988365	-400.22746	1199.6609	0	613.6168802874558
22.908677	6.3095734e-8	0.17	342657.17	59844.838	-0.33787039	-0.03998883	-0.039988329	-365.04221	1094.107	0	615.7268585484375
22.908677	6.9183097e-8	0.17	312509.07	54580.515	-0.33562471	-0.03998884	-0.03998829	-332.95268	997.84074	0	617.8368278929436
22.908677	7.5857758e-8	0.17	285013.67	49779.388	-0.33337903	-0.03998885	-0.039988247	-303.68648	910.04485	0	619.9467978763544
22.908677	8.3176377e-8	0.17	259937.57	45400.7	-0.33113334	-0.039988861	-0.0399882	-276.99519	829.97406	0	622.056777894323
22.908677	9.1201084e-8	0.17	237067.9	41407.281	-0.32888766	-0.039988873	-0.039988148	-252.65225	756.94864	0	624.1667493152688
22.908677	1.e-7	0.17	216210.51	37765.232	-0.32664198	-0.039988886	-0.039988091	-230.45103	690.34866	0	626.276721534845
22.908677	1.0964782e-7	0.17	197188.35	34443.635	-0.3243963	-0.0399889	-0.039988029	-210.20308	629.60876	0	628.3866945530517
22.908677	1.2022644e-7	0.17	179839.92	31414.295	-0.32215062	-0.039988917	-0.039987961	-191.73652	574.2133	0	630.4966685296154
22.908677	1.3182567e-7	0.17	164017.98	28651.495	-0.31990494	-0.039988934	-0.039987886	-174.89463	523.69205	0	632.6066436242614
22.908677	1.4454398e-7	0.17	149588.19	26131.784	-0.31765925	-0.039988953	-0.039987805	-159.53444	477.61611	0	634.7166290729178
22.908677	1.5848932e-7	0.17	136428.06	23833.772	-0.31541357	-0.039988974	-0.039987715	-145.52559	435.59437	0	636.8266065634557
22.908677	1.7378008e-7	0.17	124425.89	21737.952	-0.31316789	-0.039988998	-0.039987617	-132.74917	397.27008	0	638.9365853318023
22.908677	1.9054607e-7	0.17	113479.78	19826.534	-0.31092221	-0.039989023	-0.039987508	-121.09673	362.31791	0	641.0465658571363
22.908677	2.0892961e-7	0.17	103496.8	18083.291	-0.30867653	-0.039989051	-0.03998739	-110.46939	330.44116	0	643.1565478200052
22.908677	2.2908677e-7	0.17	94392.22	16493.427	-0.30643085	-0.039989081	-0.03998726	-100.77694	301.36921	0	645.2665316995875
22.908677	2.5118864e-7	0.17	86088.743	15043.446	-0.30418517	-0.039989114	-0.039987118	-91.93712	274.85528	0	647.376517495883
22.908677	2.7542287e-7	0.17	78515.882	13721.039	-0.30193949	-0.039989151	-0.039986962	-83.874913	250.67429	0	649.4865055283442
22.908677	3.0199517e-7	0.17	71609.352	12514.981	-0.29969382	-0.039989191	-0.039986791	-76.521895	228.62096	0	651.5964865610433
22.908677	3.3113112e-7	0.17	65310.522	11415.035	-0.29744814	-0.039989235	-0.039986603	-69.815666	208.50809	0	653.70647970474
22.908677	3.6307805e-7	0.17	59565.919	10411.865	-0.29520246	-0.039989283	-0.039986398	-63.699313	190.16493	0	655.8164755637803
22.908677	3.9810717e-7	0.17	54326.78	9496.9545	-0.29295679	-0.039989336	-0.039986172	-58.120937	173.43577	0	657.9264653814156
22.908677	4.3651583e-7	0.17	49548.628	8662.5381	-0.29071111	-0.039989394	-0.039985924	-53.0332	158.1786	0	660.036468108679
22.908677	4.7863009e-7	0.17	45190.901	7901.5332	-0.28846544	-0.039989458	-0.039985654	-48.39293	144.26389	0	662.1464649542629
22.908677	5.2480746e-7	0.17	41216.607	7207.4804	-0.28621976	-0.039989527	-0.039985356	-44.160756	131.57352	0	664.2564756678314
22.908677	5.7543994e-7	0.17	37592.008	6574.4886	-0.28397409	-0.039989604	-0.03998503	-40.30077	119.99977	0	666.3664814580776
22.908677	6.3095734e-7	0.17	34286.335	5997.1852	-0.28172842	-0.039989687	-0.039984673	-36.780224	109.44439	0	668.4764921998333
22.908677	6.9183097e-7	0.17	31271.525	5470.6701	-0.27948275	-0.039989779	-0.039984281	-33.569249	99.817759	0	670.5865085320027
22.908677	7.5857758e-7	0.17	28521.985	4990.4744	-0.27723708	-0.03998988	-0.039983851	-30.640608	91.038171	0	672.6965309337642
22.908677	8.3176377e-7	0.17	26014.376	4552.5228	-0.27499141	-0.03998999	-0.03998338	-27.969459	83.031093	0	674.8065598842965
22.908677	9.1201084e-7	0.17	23727.408	4153.098	-0.27274575	-0.039990111	-0.039982863	-25.533144	75.728551	0	676.916586786576
22.908677	1.e-6	0.17	21641.669	3788.8101	-0.27050009	-0.039990244	-0.039982297	-23.311	69.068552	0	679.0266215154348
22.908677	1.0964782e-6	0.17	19739.453	3456.5676	-0.26825442	-0.03999039	-0.039981675	-21.284184	62.994562	0	681.1366745846095
22.908677	1.2022644e-6	0.17	18004.611	3153.5507	-0.26600876	-0.039990549	-0.039980994	-19.435508	57.455017	0	683.246727681971
22.908677	1.3182567e-6	0.17	16422.416	2877.1878	-0.26376311	-0.039990724	-0.039980248	-17.749297	52.402892	0	685.3567817658762
22.908677	1.4454398e-6	0.17	14979.437	2625.1338	-0.26151745	-0.039990917	-0.039979429	-16.211257	47.795299	0	687.4668569054411
22.908677	1.5848932e-6	0.17	13663.425	2395.2498	-0.2592718	-0.039991127	-0.039978531	-14.808351	43.593124	0	689.5769352677148
22.908677	1.7378008e-6	0.17	12463.207	2185.5849	-0.25702615	-0.039991358	-0.039977547	-13.528687	39.760695	0	691.687027366434
22.908677	1.9054607e-6	0.17	11368.596	1994.3601	-0.25478051	-0.039991611	-0.039976467	-12.361423	36.265479	0	693.7971254032063
22.908677	2.0892961e-6	0.17	10370.299	1819.953	-0.25253487	-0.039991889	-0.039975284	-11.296667	33.077803	0	695.9072398917679
22.908677	2.2908677e-6	0.17	9459.8408	1660.8837	-0.25028923	-0.039992193	-0.039973986	-10.325401	30.170609	0	698.017372748832
22.908677	2.5118864e-6	0.17	8629.4931	1515.8027	-0.2480436	-0.039992527	-0.039972563	-9.4393976	27.519216	0	700.1275161760063
22.908677	2.7542287e-6	0.17	7872.2072	1383.4791	-0.24579797	-0.039992892	-0.039971003	-8.6311558	25.101118	0	702.2376814856575
22.908677	3.0199517e-6	0.17	7181.5542	1262.7905	-0.24355235	-0.039993294	-0.039969292	-7.8938328	22.895786	0	704.3478615182979
22.908677	3.3113112e-6	0.17	6551.6712	1152.713	-0.24130673	-0.039993734	-0.039967417	-7.2211885	20.884499	0	706.4580677460203
22.908677	3.6307805e-6	0.17	5977.2111	1052.3131	-0.23906112	-0.039994216	-0.03996536	-6.6075321	19.050183	0	708.568293648241
22.908677	3.9810717e-6	0.17	5453.2974	960.73918	-0.23681552	-0.039994745	-0.039963105	-6.0476732	17.377268	0	710.678541780578
22.908677	4.3651583e-6	0.17	4975.4823	877.21466	-0.23456993	-0.039995325	-0.039960632	-5.5368781	15.851551	0	712.7888153375533
22.908677	4.7863009e-6	0.17	4539.7098	801.0313	-0.23232434	-0.039995961	-0.039957921	-5.0708299	14.460081	0	714.8991269093426
22.908677	5.2480746e-6	0.17	4142.2807	731.54316	-0.23007877	-0.039996658	-0.039954948	-4.6455912	13.191045	0	717.0094615380656
22.908677	5.7543994e-6	0.17	3779.8209	668.1611	-0.2278332	-0.039997423	-0.039951689	-4.2575713	12.033671	0	719.119841848456
22.908677	6.3095734e-6	0.17	3449.2538	610.34789	-0.22558765	-0.039998261	-0.039948115	-3.9034953	10.978133	0	721.2302536812638
22.908677	6.9183097e-6	0.17	3147.773	557.61352	-0.2233421	-0.03999918	-0.039944197	-3.5803765	10.015472	0	723.3407204598534
22.908677	7.5857758e-6	0.17	2872.8194	509.5111	-0.22109658	-0.040000188	-0.0399399	-3.285491	9.1375139	0	725.451219587678
22.908677	8.3176377e-6	0.17	2622.0587	465.63307	-0.21885106	-0.040001294	-0.039935189	-3.0163546	8.3368072	0	727.5617848421118
22.908677	9.1201084e-6	0.17	2393.3623	425.60774	-0.21660557	-0.040002506	-0.039930023	-2.7707016	7.6065542	0	729.672394584965
22.908677	0.00001	0.17	2184.7887	389.0961	-0.21436009	-0.040003835	-0.039924359	-2.5464658	6.9405558	0	731.7830744757671
22.908677	0.000010964782	0.17	1994.5675	355.789	-0.21211463	-0.040005292	-0.039918148	-2.3417626	6.3331583	0	733.8938229454442
22.908677	0.000012022644	0.17	1821.0804	325.40441	-0.20987441	-0.040017166	-0.039921615	-2.1548769	5.7792007	0	735.9981022633996
22.908677	0.000013182567	0.17	1662.8611	297.68528	-0.2076295	-0.040019908	-0.039915139	-1.9842346	5.2739895	0	738.1083762995534
22.908677	0.000014454398	0.17	1518.5634	272.39705	-0.20538467	-0.040022914	-0.039908037	-1.8284093	4.8132317	0	740.2186751590234
22.908677	0.000015848932	0.17	1386.9623	249.3258	-0.20313992	-0.040026211	-0.03990025	-1.6860974	4.3930159	0	742.3290082656506
22.908677	0.000017378008	0.17	1266.9408	228.27649	-0.20089525	-0.040029824	-0.039891711	-1.5561097	4.0097749	0	744.4393863210842
22.908677	0.000019054607	0.17	1157.4798	209.07119	-0.19865069	-0.040033786	-0.039882348	-1.4373619	3.6602552	0	746.5497926386433
22.908677	0.000020892961	0.17	1057.6504	191.54767	-0.19640623	-0.040038129	-0.039872081	-1.328865	3.3414899	0	748.6602493920706
22.908677	0.000022908677	0.17	966.60483	175.55793	-0.19416189	-0.04004289	-0.039860823	-1.2297169	3.0507729	0	750.7707516862304
22.908677	0.000025118864	0.17	883.57035	160.96703	-0.19191768	-0.04004811	-0.039848477	-1.1390952	2.7856362	0	752.8813056189017
22.908677	0.000027542287	0.17	807.84207	147.65189	-0.18967361	-0.040053833	-0.03983494	-1.0562496	2.5438292	0	754.9919182462205
22.908677	0.000030199517	0.17	738.77712	135.50025	-0.18742969	-0.040060106	-0.039820095	-0.9804958	2.3232992	0	757.102598860488
22.908677	0.000033113112	0.17	675.78919	124.40973	-0.18518594	-0.040066983	-0.039803817	-0.91120985	2.122174	0	759.213348636161
22.908677	0.000036307805	0.17	618.34361	114.28699	-0.18294239	-0.040074521	-0.039785965	-0.84782266	1.9387463	0	761.3241619076603
22.908677	0.000039810717	0.17	565.95269	105.04685	-0.18069903	-0.040082784	-0.03976639	-0.78981517	1.7714589	0	763.4350718698297
22.908677	0.000043651583	0.17	518.17169	96.611675	-0.1784559	-0.04009184	-0.039744923	-0.73671402	1.6188918	0	765.5460679337679
22.908677	0.000047863009	0.17	474.59499	88.910627	-0.17621301	-0.040101768	-0.039721382	-0.6880875	1.4797498	0	767.6571697739731
22.908677	0.000052480746	0.17	434.85269	81.87912	-0.17397038	-0.040112648	-0.039695565	-0.64354188	1.3528518	0	769.7683908638126
22.908677	0.000057543994	0.17	398.60739	75.458241	-0.17172805	-0.040124573	-0.039667254	-0.60271807	1.2371204	0	771.8797284409642
22.908677	0.000063095734	0.17	365.55142	69.594268	-0.16948604	-0.040137642	-0.039636204	-0.56528859	1.1315733	0	773.9912028470176
22.908677	0.000069183097	0.17	335.40415	64.238202	-0.16724438	-0.040151963	-0.039602153	-0.53095474	1.0353144	0	776.1028277432533
22.908677	0.000075857758	0.17	307.90968	59.345356	-0.1650031	-0.040167657	-0.039564808	-0.49944415	0.9475266	0	778.2146217424604
22.908677	0.000083176377	0.17	282.8346	54.874978	-0.16276225	-0.040184853	-0.039523851	-0.47050837	0.86746469	0	780.3265886592749
22.908677	0.000091201084	0.17	259.96605	50.7899	-0.16052184	-0.040203695	-0.039478931	-0.44392083	0.79444902	0	782.438775161907
22.908677	0.0001	0.17	239.1099	47.056226	-0.15828194	-0.040224337	-0.039429664	-0.4194749	0.72785974	0	784.5511768156088
22.908677	0.00010964782	0.17	220.08911	43.643043	-0.15604259	-0.040246951	-0.039375628	-0.39698211	0.66713158	0	786.6638234421841
22.908677	0.00012022644	0.17	202.74219	40.522156	-0.15380383	-0.040271722	-0.03931636	-0.37627057	0.61174902	0	788.7767514122081
22.908677	0.00013182567	0.17	186.92191	37.667857	-0.15156572	-0.040298853	-0.039251352	-0.35718355	0.56124192	0	790.8899854926229
22.908677	0.00014454398	0.17	172.49397	35.056694	-0.14932833	-0.040328566	-0.039180048	-0.33957805	0.51518151	0	793.0035487215712
22.908677	0.00015848932	0.17	159.33588	32.667286	-0.14709171	-0.040361103	-0.039101836	-0.3233237	0.47317682	0	795.1174918731645
22.908677	0.00017378008	0.17	147.33597	30.480129	-0.14485594	-0.040396728	-0.039016044	-0.30830157	0.43487125	0	797.2318471181202
22.908677	0.00019054607	0.17	136.39235	28.47744	-0.14262109	-0.040435727	-0.038921937	-0.29440319	0.39993964	0	799.3466660855544
22.908677	0.00020892961	0.17	126.41215	26.642998	-0.14038724	-0.040478415	-0.038818708	-0.28152965	0.36808545	0	801.4620025092094
22.908677	0.00022908677	0.17	117.31064	24.962014	-0.13815449	-0.040525134	-0.038705474	-0.26959071	0.33903828	0	803.577903470705
22.908677	0.00025118864	0.17	109.01057	23.421	-0.13592293	-0.040576252	-0.038581261	-0.25850409	0.31255157	0	805.6944399823903
22.908677	0.00027542287	0.17	101.4415	22.007655	-0.13369266	-0.040632174	-0.03844501	-0.24819472	0.28840046	0	807.8116872376804
22.908677	0.00030199517	0.17	94.539174	20.710764	-0.1314638	-0.040693338	-0.038295555	-0.23859416	0.26637996	0	809.9297187293766
22.908677	0.00033113112	0.17	88.245021	19.520099	-0.12923646	-0.040760219	-0.038131621	-0.22963995	0.24630314	0	812.0486347560804
22.908677	0.00036307805	0.17	82.505627	18.426335	-0.12701077	-0.040833334	-0.037951817	-0.22127513	0.22799957	0	814.1685353533145
22.908677	0.00039810717	0.17	77.272285	17.420968	-0.12478687	-0.040913241	-0.037754621	-0.21344775	0.21131389	0	816.2895320850686
22.908677	0.00043651583	0.17	72.500593	16.496246	-0.12256491	-0.041000543	-0.037538369	-0.2061104	0.19610447	0	818.411749800786
22.908677	0.00047863009	0.17	68.150066	15.645099	-0.12034504	-0.041095896	-0.037301255	-0.19921986	0.18224219	0	820.5353360310185
22.908677	0.00052480746	0.17	64.183799	14.861085	-0.11812742	-0.041200004	-0.03704131	-0.19273667	0.16960938	0	822.6604549460194
22.908677	0.00057543994	0.17	60.568152	14.138328	-0.11591223	-0.041313627	-0.0367564	-0.18662483	0.1580988	0	824.7872782795437
22.908677	0.00063095734	0.17	57.272462	13.471472	-0.11369965	-0.041437584	-0.036444216	-0.1808515	0.14761271	0	826.9160057174148
22.908677	0.00069183097	0.17	54.268785	12.855637	-0.11148987	-0.041572754	-0.036102271	-0.17538672	0.13806207	0	829.0468559810507
22.908677	0.00075857758	0.17	51.531653	12.286372	-0.1092831	-0.041720082	-0.035727893	-0.17020311	0.12936576	0	831.1800585498927
22.908677	0.00083176377	0.17	49.037866	11.759624	-0.10707954	-0.041880577	-0.03531823	-0.16527571	0.12144986	0	833.3158810497348
22.908677	0.00091201084	0.17	46.766281	11.271694	-0.1048794	-0.042055319	-0.034870257	-0.16058172	0.11424706	0	835.4546093433348
22.908677	0.001	0.17	44.697637	10.819215	-0.1026829	-0.042245461	-0.034380788	-0.1561003	0.10769603	0	837.5965456137008
22.908677	0.0010964782	0.17	42.814386	10.399115	-0.10049026	-0.042452228	-0.033846502	-0.15181245	0.10174092	0	839.7420136068652
22.908677	0.0012022644	0.17	41.100539	10.008594	-0.098301701	-0.042676921	-0.033263975	-0.14770078	0.096330829	0	841.8913525810842
22.908677	0.0013182567	0.17	39.541522	9.6450982	-0.09611745	-0.04292092	-0.032629733	-0.14374941	0.091419366	0	844.0449041435288
22.908677	0.0014454398	0.17	38.124047	9.3062968	-0.093937719	-0.043185679	-0.031940306	-0.13994383	0.086964222	0	846.2030233559437
22.908677	0.0015848932	0.17	36.835988	8.9900614	-0.091762717	-0.043472732	-0.03119232	-0.13627076	0.082926775	0	848.366052765065
22.908677	0.0017378008	0.17	35.66627	8.6944463	-0.089592641	-0.043783691	-0.030382579	-0.13271807	0.079271716	0	850.5343177611642
22.908677	0.0019054607	0.17	34.604758	8.4176701	-0.087427669	-0.044120239	-0.029508189	-0.12927466	0.07596671	0	852.7081133489701
22.908677	0.0020892961	0.17	33.642169	8.1580995	-0.08526796	-0.044484139	-0.028566674	-0.12593039	0.072982076	0	854.887685619439
22.908677	0.0022908677	0.17	32.769972	7.9142336	-0.083113647	-0.044877221	-0.027556106	-0.12267598	0.070290496	0	857.0732175623189
22.908677	0.0025118864	0.17	31.980315	7.6846904	-0.080964828	-0.045301383	-0.026475236	-0.11950297	0.067866742	0	859.2648165981158
22.908677	0.0027542287	0.17	31.265952	7.4681944	-0.078821562	-0.045758587	-0.025323601	-0.11640361	0.065687447	0	861.4625012456629
22.908677	0.0030199517	0.17	30.620181	7.2635662	-0.076683866	-0.046250853	-0.024101617	-0.11337087	0.063730901	0	863.6661890862878
22.908677	0.0033113112	0.17	30.036795	7.0697131	-0.074551699	-0.046780252	-0.022810628	-0.11039832	0.061976883	0	865.8757039702784
22.908677	0.0036307805	0.17	29.510044	6.8856227	-0.072424964	-0.047348901	-0.021452908	-0.10748015	0.060406529	0	868.0907738183012
22.908677	0.0039810717	0.17	29.034611	6.710356	-0.070303497	-0.047958958	-0.02003162	-0.10461105	0.059002242	0	870.3110475053885
22.908677	0.0043651583	0.17	28.60559	6.5430446	-0.06818706	-0.04861261	-0.018550718	-0.10178624	0.057747627	0	872.5361170910573
22.908677	0.0047863009	0.17	28.21848	6.3828865	-0.066075335	-0.049312068	-0.017014802	-0.099001399	0.05662746	0	874.7655466169849
22.908677	0.0052480746	0.17	27.86918	6.2291442	-0.063967918	-0.050059565	-0.015428958	-0.09625262	0.055627661	0	876.9989033005797
22.908677	0.0057543994	0.17	27.553986	6.0811426	-0.061864317	-0.050857334	-0.013798558	-0.093536383	0.054735293	0	879.2357913593339
22.908677	0.0063095734	0.17	27.269588	5.938267	-0.059763943	-0.051707618	-0.012129083	-0.090849508	0.053938546	0	881.4758887384323
22.908677	0.0069183097	0.17	27.013063	5.7999608	-0.057666119	-0.052612645	-0.010425941	-0.088189124	0.053226718	0	883.7189677248168
22.908677	0.0075857758	0.17	26.781863	5.6657224	-0.055570068	-0.053574633	-0.0086943172	-0.085552626	0.05259019	0	885.9649301489413
22.908677	0.0083176377	0.17	26.573796	5.5351026	-0.053474929	-0.054595766	-0.0069390461	-0.082937641	0.052020374	0	888.2138127806957
22.908677	0.0091201084	0.17	26.387001	5.4076999	-0.051379765	-0.055678192	-0.005164517	-0.080341996	0.051509661	0	890.4657949070006
22.908677	0.01	0.17	26.219915	5.2831569	-0.049283571	-0.056824002	-0.0033746067	-0.077763685	0.051051339	0	892.7212015648514
22.908677	0.010964782	0.17	26.071233	5.1611553	-0.04718531	-0.058035204	-0.0015726221	-0.075200841	0.050639515	0	894.9804788852447
22.908677	0.012022644	0.17	25.939859	5.0414113	-0.045083939	-0.059313694	0.00023873421	-0.072651715	0.050269019	0	897.2441751606541
22.908677	0.013182567	0.17	25.824849	4.9236708	-0.042978464	-0.060661206	0.0020574034	-0.070114658	0.049935301	0	899.5128954701315
22.908677	0.014454398	0.17	25.725344	4.807704	-0.040868003	-0.062079247	0.003882012	-0.067588109	0.049634325	0	901.7872491312962
22.908677	0.015848932	0.17	25.640491	4.6933014	-0.038751881	-0.063569006	0.0057119412	-0.065070588	0.049362458	0	904.0677715106453
22.908677	0.017378008	0.17	25.569351	4.5802684	-0.036629745	-0.065131225	0.0075474157	-0.062560705	0.049116347	0	906.3548301652044
22.908677	0.019054607	0.17	25.510785	4.468421	-0.03450172	-0.066766038	0.0093896392	-0.060057169	0.048892796	0	908.6484999116227
22.908677	0.020892961	0.17	25.463335	4.357581	-0.032368596	-0.06847275	0.011240978	-0.057558816	0.048688626	0	910.9484164531664
22.908677	0.022908677	0.17	25.42508	4.2475718	-0.03023206	-0.070249567	0.013105205	-0.055064645	0.048500529	0	913.2535973737288
22.908677	0.025118864	0.17	25.39349	4.1382138	-0.028094952	-0.072093268	0.014987797	-0.052573874	0.048324909	0	915.5622490956725
22.908677	0.027542287	0.17	25.365298	4.0293197	-0.025961527	-0.073998837	0.016896277	-0.050086003	0.048157702	0	917.8715753879549
22.908677	0.030199517	0.17	25.336415	3.9206911	-0.023837693	-0.075959066	0.018840596	-0.047600894	0.047994208	0	920.1776147330036
22.908677	0.033113112	0.17	25.301952	3.8121146	-0.021731112	-0.077964197	0.020833463	-0.045118846	0.047828921	0	922.475198140233
22.908677	0.036307805	0.17	25.256456	3.7033595	-0.019651075	-0.08000165	0.02289061	-0.042640671	0.047655407	0	924.7581089191306
22.908677	0.039810717	0.17	25.194461	3.5941783	-0.017607948	-0.082055963	0.025030836	-0.040167723	0.047466276	0	927.0196102264107
22.908677	0.043651583	0.17	25.111511	3.4843104	-0.015611998	-0.08410902	0.027275763	-0.03770185	0.047253325	0	929.2535091425646
22.908677	0.047863009	0.17	25.005764	3.3734924	-0.013671406	-0.0861407	0.029649188	-0.035245227	0.047007963	0	931.4559200856918
22.908677	0.052480746	0.17	24.880126	3.2614769	-0.011789454	-0.088129926	0.032176021	-0.032799994	0.046722011	0	933.6277381797014
22.908677	0.057543994	0.17	24.744675	3.1480574	-0.0099611217	-0.090056087	0.034880855	-0.030367676	0.046388909	0	935.7776084687305
22.908677	0.063095734	0.17	24.61878	3.0330962	-0.0081697439	-0.091900636	0.037786375	-0.027948368	0.046005212	0	937.9248123840441
22.908677	0.069183097	0.17	24.532296	2.9165444	-0.0063844919	-0.093648696	0.04091174	-0.025539756	0.045572032	0	940.1013756964799
22.908677	0.075857758	0.17	24.525357	2.7984424	-0.0045592963	-0.095290579	0.044271063	-0.02313609	0.045096111	0	942.3528378325561
22.908677	0.083176377	0.17	24.646856	2.6789029	-0.0026332887	-0.096823215	0.047871992	-0.020727239	0.044590326	0	944.7376102171086
22.908677	0.091201084	0.17	24.951991	2.5580836	-0.00053243259	-0.098251511	0.051714337	-0.018297946	0.044073777	0	947.3252246416072
22.908677	0.1	0.17	25.499228	2.4361714	0.0018279243	-0.099589571	0.05578886	-0.015827357	0.043571877	0	950.193741895943
22.908677	0.10964782	0.17	26.346422	2.3133962	0.0045393238	-0.10086225	0.060075721	-0.013288878	0.043116827	0	953.4260025456476
22.908677	0.12022644	0.17	27.545036	2.1900866	0.0076943447	-0.10210882	0.064540827	-0.010650501	0.042748645	0	957.1035448716987
22.908677	0.13182567	0.17	29.131787	2.0667567	0.011378529	-0.10339375	0.069125015	-0.0078758189	0.042516269	0	961.2972912974492
22.908677	0.14454398	0.17	31.12309	1.944182	0.015666827	-0.10483121	0.073719594	-0.0049258291	0.042477619	0	966.0603017371839
22.908677	0.15848932	0.17	32.587229	1.8254201	0.01965798	-0.10685829	0.077893126	-0.0017834914	0.042724278	0	970.4768728317664
22.908677	0.17378008	0.17	35.853158	1.715286	0.025955116	-0.11013165	0.080994756	0.0015649217	0.043387379	0	976.8888549146122
22.908677	0.19054607	0.17	39.945037	1.6078934	0.033556041	-0.11396995	0.083711794	0.0052726666	0.044476656	0	984.4644025816648
22.908677	0.20892961	0.17	45.03758	1.5039892	0.042751813	-0.11847243	0.085951161	0.0094290265	0.046099603	0	993.4621166980176
22.908677	0.22908677	0.17	51.3328	1.4043694	0.053878281	-0.12372211	0.087636163	0.014141805	0.04838343	0	1004.1852993126612
22.908677	0.25118864	0.17	59.048849	1.3098292	0.067304747	-0.12977603	0.088716263	0.019539527	0.051476052	0	1016.9728617100853
22.908677	0.27542287	0.17	68.399545	1.221097	0.083411117	-0.13665524	0.089177144	0.025772096	0.055545134	0	1032.1794636054371
22.908677	0.30199517	0.17	79.566149	1.1387609	0.10255476	-0.14433682	0.089048618	0.033009029	0.060774532	0	1050.1456382830575
22.908677	0.33113112	0.17	92.666807	1.0632031	0.12503286	-0.15275141	0.088407144	0.041434759	0.067357995	0	1071.1628220305272
22.908677	0.36307805	0.17	107.73207	0.99455853	0.15104979	-0.16178866	0.08737041	0.051241156	0.075490688	0	1095.4418344834965
22.908677	0.39810717	0.17	124.69457	0.93270945	0.18069921	-0.17131061	0.086083883	0.062618301	0.085359816	0	1123.0939102106167
22.908677	0.43651583	0.17	143.39643	0.87731552	0.21396565	-0.18117019	0.084702408	0.075745103	0.097135992	0	1154.129246925349
22.908677	0.47863009	0.17	163.61154	0.82787016	0.25074357	-0.19122955	0.083371805	0.090781426	0.11096673	0	1188.4719741619422
22.908677	0.52480746	0.17	185.07544	0.78376703	0.29086615	-0.20137405	0.082214954	0.10786283	0.1269728	0	1225.9849807730438
22.908677	0.57543994	0.17	207.51461	0.74436255	0.33413549	-0.21151947	0.081324531	0.12709831	0.14524751	0	1266.4971295528135
22.908677	0.63095734	0.17	230.66975	0.70902536	0.38034786	-0.22161299	0.080762065	0.14857054	0.16585815	0	1309.8268306402872
22.908677	0.69183097	0.17	254.31099	0.67716962	0.42931151	-0.23162976	0.080561414	0.17233819	0.18884908	0	1355.7993303862174
22.908677	0.75857758	0.17	278.24558	0.6482733	0.48085714	-0.24156713	0.080734456	0.19843912	0.21424545	0	1404.2574576035777
22.908677	0.83176377	0.17	302.31975	0.62188477	0.53484265	-0.2514386	0.081277221	0.22689424	0.24205716	0	1455.067065943479
22.908677	0.91201084	0.17	326.41687	0.59762161	0.59115404	-0.26126831	0.082175399	0.25771123	0.27228257	0	1508.1187592753943
22.908677	1.	0.17	350.45364	0.57516481	0.64970402	-0.2710866	0.08340874	0.29088801	0.30491179	0	1563.327288486204
22.908677	1.0964782	0.17	374.37536	0.55425089	0.71042942	-0.28092684	0.084954306	0.32641576	0.33992962	0	1620.6296374352496
22.908677	1.2022644	0.17	398.15111	0.53466355	0.77328839	-0.29082316	0.08678869	0.36428151	0.37731778	0	1679.982746603588
22.908677	1.3182567	0.17	421.76934	0.51622576	0.83825739	-0.30080907	0.088889439	0.40447024	0.41705697	0	1741.360912292544
22.908677	1.4454398	0.17	445.23388	0.49879267	0.90532869	-0.31091665	0.091235874	0.4469666	0.45912827	0	1804.7535686857436
22.908677	1.5848932	0.17	468.56064	0.4822456	0.97450796	-0.32117611	0.093809505	0.49175621	0.50351443	0	1870.1630897829566
22.908677	1.7378008	0.17	491.77477	0.46648701	1.0458124	-0.33161572	0.096594177	0.53882673	0.55020072	0	1937.603055732904
22.908677	1.9054607	0.17	514.90843	0.45143639	1.1192691	-0.34226179	0.099576039	0.58816865	0.59917567	0	2007.096706994575
22.908677	2.0892961	0.17	537.99892	0.43702693	1.1949135	-0.35313883	0.10274343	0.63977587	0.65043155	0	2078.6754791978105
22.908677	2.2908677	0.17	561.08726	0.42320283	1.2727889	-0.36426972	0.1060867	0.69364614	0.70396476	0	2152.378514165309
22.908677	2.5118864	0.17	584.21701	0.40991718	1.3529447	-0.37567593	0.10959802	0.74978138	0.75977606	0	2228.250975929648
22.908677	2.7542287	0.17	607.4334	0.39713023	1.4354364	-0.38737773	0.11327119	0.80818784	0.81787075	0	2306.344020065875
22.908677	3.0199517	0.17	630.78267	0.38480802	1.5203249	-0.39939436	0.11710146	0.86887628	0.87825875	0	2386.714107404785
22.908677	3.3113112	0.17	654.31149	0.37292132	1.6076756	-0.41174423	0.12108536	0.93186202	0.94095466	0	2469.4221312706673
22.908677	3.6307805	0.17	678.06664	0.36144471	1.6975586	-0.4244451	0.12522053	0.99716494	1.0059778	0	2554.533578240938
22.908677	3.9810717	0.17	702.09469	0.35035594	1.7900483	-0.43751419	0.1295056	1.0648095	1.073352	0	2642.118133152868
22.908677	4.3651583	0.17	726.44183	0.33963531	1.8852229	-0.45096835	0.1339401	1.1348248	1.1431058	0	2732.249194945556
22.908677	4.7863009	0.17	751.15372	0.32926527	1.9831645	-0.46482416	0.13852431	1.2072442	1.2152725	0	2825.0039466575467
22.908677	5.2480746	0.17	776.27544	0.31923003	2.0839588	-0.47909803	0.1432592	1.2821059	1.2898894	0	2920.4630639736624
22.908677	5.7543994	0.17	801.85145	0.30951528	2.1876952	-0.49380629	0.14814635	1.359452	1.3669987	0	3018.7107964034453
22.908677	6.3095734	0.17	827.92556	0.30010796	2.2944668	-0.50896529	0.15318788	1.4393294	1.4466467	0	3119.8349561003324
22.908677	6.9183097	0.17	854.54098	0.29099602	2.40437	-0.52459145	0.15838643	1.521789	1.5288841	0	3223.926538840994
22.908677	7.5857758	0.17	881.74037	0.28216834	2.5175048	-0.54070133	0.16374505	1.6068858	1.6137657	0	3331.079988325063
22.908677	8.3176377	0.17	909.56586	0.27361454	2.6339748	-0.5573117	0.16926722	1.6946793	1.7013507	0	3441.39319936966
22.908677	9.1201084	0.17	938.05914	0.26532491	2.7538872	-0.57443955	0.1749568	1.7852329	1.7917021	0	3554.9675099230894
22.908677	10.	0.17	967.26151	0.25729031	2.8773526	-0.59210221	0.18081799	1.878614	1.8848873	0	3671.90750676272