22.908677	1.e-12	0.33	2.161876e10	3.7749022e9	-0.61257389	-0.018594758	-0.018594758	-2.3009321e7	6.9031124e7	0	358.24672183950486
22.908677	1.0964782e-12	0.33	1.9716544e10	3.4427517e9	-0.6103282	-0.018594758	-0.018594758	-2.098475e7	6.2957133e7	0	360.3566943503463
22.908677	1.2022644e-12	0.33	1.7981702e10	3.1398268e9	-0.60808252	-0.018594758	-0.018594758	-1.913832e7	5.7417587e7	0	362.46665746553435
22.908677	1.3182567e-12	0.33	1.6399507e10	2.8635561e9	-0.60583683	-0.018594758	-0.018594758	-1.7454355e7	5.2365462e7	0	364.5766299763758
22.908677	1.4454398e-12	0.33	1.4956528e10	2.6115942e9	-0.60359115	-0.018594758	-0.018594758	-1.5918561e7	4.7757869e7	0	366.68659309156385
22.908677	1.5848932e-12	0.33	1.3640516e10	2.3818023e9	-0.60134547	-0.018594758	-0.018594758	-1.4517901e7	4.3555694e7	0	368.7965562067518
22.908677	1.7378008e-12	0.33	1.2440298e10	2.1722295e9	-0.59909978	-0.018594758	-0.018594758	-1.3240483e7	3.9723265e7	0	370.90652871759335
22.908677	1.9054607e-12	0.33	1.1345687e10	1.9810968e9	-0.5968541	-0.018594758	-0.018594758	-1.2075464e7	3.6228048e7	0	373.01649183278124
22.908677	2.0892961e-12	0.33	1.0347389e10	1.8067818e9	-0.59460841	-0.018594758	-0.018594758	-1.1012954e7	3.3040373e7	0	375.12646434362284
22.908677	2.2908677e-12	0.33	9.4369311e9	1.6478045e9	-0.59236273	-0.018594758	-0.018594758	-1.0043933e7	3.0133178e7	0	377.23642745881085
22.908677	2.5118864e-12	0.33	8.6065835e9	1.5028156e9	-0.59011704	-0.018594758	-0.018594758	-9.1601761e6	2.7481785e7	0	379.3463999696524
22.908677	2.7542287e-12	0.33	7.8492974e9	1.3705841e9	-0.58787136	-0.018594758	-0.018594758	-8.35418e6	2.5063686e7	0	381.45636308484035
22.908677	3.0199517e-12	0.33	7.1586443e9	1.2499876e9	-0.58562568	-0.018594758	-0.018594758	-7.6191027e6	2.2858353e7	0	383.56632620002824
22.908677	3.3113112e-12	0.33	6.5287613e9	1.1400022e9	-0.58337999	-0.018594758	-0.018594758	-6.9487044e6	2.0847066e7	0	385.67629871086984
22.908677	3.6307805e-12	0.33	5.9543011e9	1.0396944e9	-0.58113431	-0.018594758	-0.018594758	-6.3372938e6	1.901275e7	0	387.78626182605774
22.908677	3.9810717e-12	0.33	5.4303871e9	9.4821256e8	-0.57888862	-0.018594758	-0.018594758	-5.7796806e6	1.7339834e7	0	389.89623433689934
22.908677	4.3651583e-12	0.33	4.9525719e9	8.6478015e8	-0.57664294	-0.018594758	-0.018594758	-5.2711315e6	1.5814117e7	0	392.00619745208724
22.908677	4.7863009e-12	0.33	4.5167993e9	7.8868887e8	-0.57439726	-0.018594758	-0.018594757	-4.8073291e6	1.4422646e7	0	394.1161608773319
22.908677	5.2480746e-12	0.33	4.1193699e9	7.192928e8	-0.57215157	-0.018594758	-0.018594758	-4.3843363e6	1.3153609e7	0	396.2261330781168
22.908677	5.7543994e-12	0.33	3.7569099e9	6.5600282e8	-0.56990589	-0.018594758	-0.018594758	-3.9985622e6	1.1996234e7	0	398.3360961933048
22.908677	6.3095734e-12	0.33	3.4263426e9	5.9828169e8	-0.5676602	-0.018594758	-0.018594758	-3.6467321e6	1.0940696e7	0	400.44606870414634
22.908677	6.9183097e-12	0.33	3.1248616e9	5.4563939e8	-0.56541452	-0.018594758	-0.018594758	-3.3258593e6	9.9780332e6	0	402.5560318193343
22.908677	7.5857758e-12	0.33	2.8499076e9	4.9762904e8	-0.56316883	-0.018594758	-0.018594758	-3.0332198e6	9.1000743e6	0	404.66600433017584
22.908677	8.3176377e-12	0.33	2.5991467e9	4.5384308e8	-0.56092315	-0.018594758	-0.018594758	-2.7663294e6	8.2993664e6	0	406.77596744536373
22.908677	9.1201084e-12	0.33	2.3704499e9	4.1390981e8	-0.55867746	-0.018594758	-0.018594758	-2.5229224e6	7.5691121e6	0	408.88593995620533
22.908677	1.e-11	0.33	2.161876e9	3.7749024e8	-0.55643178	-0.018594758	-0.018594758	-2.3009326e6	6.9031123e6	0	410.99590307139323
22.908677	1.0964782e-11	0.33	1.9716544e9	3.4427519e8	-0.5541861	-0.018594758	-0.018594758	-2.0984756e6	6.2957133e6	0	413.10586618658124
22.908677	1.2022644e-11	0.33	1.7981702e9	3.139827e8	-0.55194041	-0.018594758	-0.018594758	-1.9138325e6	5.7417587e6	0	415.2158386974228
22.908677	1.3182567e-11	0.33	1.6399507e9	2.8635563e8	-0.54969473	-0.018594758	-0.018594758	-1.745436e6	5.2365462e6	0	417.3258018126108
22.908677	1.4454398e-11	0.33	1.4956528e9	2.6115944e8	-0.54744904	-0.018594758	-0.018594758	-1.5918566e6	4.7757869e6	0	419.4357743234523
22.908677	1.5848932e-11	0.33	1.3640516e9	2.3818025e8	-0.54520336	-0.018594758	-0.018594758	-1.4517906e6	4.3555694e6	0	421.5457374386403
22.908677	1.7378008e-11	0.33	1.2440298e9	2.1722297e8	-0.54295768	-0.018594758	-0.018594758	-1.3240488e6	3.9723266e6	0	423.6557005538283
22.908677	1.9054607e-11	0.33	1.1345687e9	1.981097e8	-0.54071199	-0.018594758	-0.018594757	-1.2075469e6	3.6228049e6	0	425.76567337472636
22.908677	2.0892961e-11	0.33	1.0347389e9	1.806782e8	-0.53846631	-0.018594758	-0.018594758	-1.1012959e6	3.3040373e6	0	427.8756361798578
22.908677	2.2908677e-11	0.33	9.4369314e8	1.6478048e8	-0.53622062	-0.018594758	-0.018594757	-1.0043938e6	3.0133179e6	0	429.98560900075586
22.908677	2.5118864e-11	0.33	8.6065837e8	1.5028158e8	-0.53397494	-0.018594758	-0.018594758	-916018.11	2.7481785e6	0	432.0955718058873
22.908677	2.7542287e-11	0.33	7.8492977e8	1.3705844e8	-0.53172925	-0.018594758	-0.018594757	-835418.5	2.5063686e6	0	434.20554462678535
22.908677	3.0199517e-11	0.33	7.1586446e8	1.2499878e8	-0.52948357	-0.018594758	-0.018594758	-761910.77	2.2858354e6	0	436.3155074319168
22.908677	3.3113112e-11	0.33	6.5287614e8	1.1400024e8	-0.52723789	-0.018594758	-0.018594758	-694870.92	2.0847066e6	0	438.42547054710485
22.908677	3.6307805e-11	0.33	5.9543012e8	1.0396946e8	-0.5249922	-0.018594758	-0.018594758	-633729.86	1.901275e6	0	440.5354430579463
22.908677	3.9810717e-11	0.33	5.4303872e8	9.4821277e7	-0.52274652	-0.018594758	-0.018594758	-577968.55	1.7339834e6	0	442.64540617313423
22.908677	4.3651583e-11	0.33	4.9525721e8	8.6478036e7	-0.52050083	-0.018594758	-0.018594757	-527113.64	1.5814117e6	0	444.7553789940324
22.908677	4.7863009e-11	0.33	4.5167994e8	7.8868908e7	-0.51825515	-0.018594758	-0.018594757	-480733.39	1.4422646e6	0	446.86534210922036
22.908677	5.2480746e-11	0.33	4.1193701e8	7.1929301e7	-0.51600947	-0.018594758	-0.018594757	-438434.11	1.315361e6	0	448.9753052244083
22.908677	5.7543994e-11	0.33	3.7569102e8	6.5600304e7	-0.51376378	-0.018594758	-0.018594757	-399856.71	1.1996235e6	0	451.08527773524986
22.908677	6.3095734e-11	0.33	3.4263428e8	5.9828191e7	-0.5115181	-0.018594758	-0.018594757	-364673.7	1.0940696e6	0	453.1952408504378
22.908677	6.9183097e-11	0.33	3.1248618e8	5.4563959e7	-0.50927241	-0.018594758	-0.018594757	-332586.41	997803.33	0	455.30521336127936
22.908677	7.5857758e-11	0.33	2.8499078e8	4.9762924e7	-0.50702673	-0.018594758	-0.018594757	-303322.45	910007.46	0	457.41517647646737
22.908677	8.3176377e-11	0.33	2.5991469e8	4.5384329e7	-0.50478104	-0.018594758	-0.018594757	-276633.41	829936.68	0	459.52514898730885
22.908677	9.1201084e-11	0.33	2.3704501e8	4.1391002e7	-0.50253536	-0.018594758	-0.018594757	-252292.71	756911.24	0	461.63511210249686
22.908677	1.e-10	0.33	2.1618762e8	3.7749044e7	-0.50028967	-0.018594758	-0.018594757	-230093.74	690311.26	0	463.74508461333835
22.908677	1.0964782e-10	0.33	1.9716546e8	3.442754e7	-0.49804399	-0.018594758	-0.018594756	-209848.03	629571.36	0	465.85504803858294
22.908677	1.2022644e-10	0.33	1.7981704e8	3.1398291e7	-0.49579831	-0.018594758	-0.018594756	-191383.72	574175.91	0	467.9650111537709
22.908677	1.3182567e-10	0.33	1.6399509e8	2.8635584e7	-0.49355262	-0.018594758	-0.018594756	-174544.07	523654.66	0	470.07498366461243
22.908677	1.4454398e-10	0.33	1.495653e8	2.6115965e7	-0.49130694	-0.018594758	-0.018594756	-159186.13	477578.72	0	472.1849467798004
22.908677	1.5848932e-10	0.33	1.3640518e8	2.3818045e7	-0.48906125	-0.018594758	-0.018594756	-145179.52	435556.98	0	474.29491929064193
22.908677	1.7378008e-10	0.33	1.24403e8	2.1722317e7	-0.48681557	-0.018594758	-0.018594756	-132405.34	397232.69	0	476.40488240583
22.908677	1.9054607e-10	0.33	1.1345689e8	1.981099e7	-0.48456989	-0.018594758	-0.018594755	-120755.15	362280.52	0	478.5148458310746
22.908677	2.0892961e-10	0.33	1.0347392e8	1.806784e7	-0.4823242	-0.018594758	-0.018594755	-110130.05	330403.77	0	480.624818341916
22.908677	2.2908677e-10	0.33	9.4369334e7	1.6478068e7	-0.48007852	-0.018594758	-0.018594754	-100439.84	301331.82	0	482.7347817671606
22.908677	2.5118864e-10	0.33	8.6065857e7	1.5028178e7	-0.47783283	-0.018594758	-0.018594754	-91602.263	274817.89	0	484.84475427800214
22.908677	2.7542287e-10	0.33	7.8492997e7	1.3705863e7	-0.47558715	-0.018594758	-0.018594754	-83542.3	250636.9	0	486.9547173931901
22.908677	3.0199517e-10	0.33	7.1586466e7	1.2499898e7	-0.47334146	-0.018594758	-0.018594753	-76191.525	228583.57	0	489.06469021408816
22.908677	3.3113112e-10	0.33	6.5287635e7	1.1400044e7	-0.47109578	-0.018594758	-0.018594753	-69487.539	208470.7	0	491.1746533292761
22.908677	3.6307805e-10	0.33	5.9543033e7	1.0396966e7	-0.4688501	-0.018594758	-0.018594752	-63373.431	190127.54	0	493.28461675452064
22.908677	3.9810717e-10	0.33	5.4303894e7	9.4821474e6	-0.46660441	-0.018594758	-0.018594752	-57797.298	173398.38	0	495.39458926536224
22.908677	4.3651583e-10	0.33	4.9525741e7	8.647823e6	-0.46435873	-0.018594758	-0.018594752	-52711.803	158141.2	0	497.50455238055014
22.908677	4.7863009e-10	0.33	4.5168015e7	7.8869102e6	-0.46211304	-0.018594758	-0.018594751	-48073.777	144226.5	0	499.61452520144826
22.908677	5.2480746e-10	0.33	4.1193721e7	7.1929493e6	-0.45986736	-0.018594758	-0.01859475	-43843.847	131536.13	0	501.72448862669273
22.908677	5.7543994e-10	0.33	3.7569122e7	6.5600496e6	-0.45762168	-0.018594758	-0.018594749	-39986.104	119962.38	0	503.83445205193743
22.908677	6.3095734e-10	0.33	3.4263449e7	5.9828381e6	-0.45537599	-0.018594758	-0.018594749	-36467.801	109406.99	0	505.94442456277886
22.908677	6.9183097e-10	0.33	3.1248639e7	5.456415e6	-0.45313031	-0.018594759	-0.018594748	-33259.071	99780.368	0	508.05438798802356
22.908677	7.5857758e-10	0.33	2.8499099e7	4.9763114e6	-0.45088462	-0.018594759	-0.018594747	-30332.673	91000.78	0	510.1643608089215
22.908677	8.3176377e-10	0.33	2.5991489e7	4.5384517e6	-0.44863894	-0.018594759	-0.018594746	-27663.767	82993.701	0	512.2743242341662
22.908677	9.1201084e-10	0.33	2.3704522e7	4.1391189e6	-0.44639325	-0.018594759	-0.018594745	-25229.695	75691.158	0	514.3842970550642
22.908677	1.e-9	0.33	2.1618783e7	3.7749231e6	-0.44414757	-0.018594759	-0.018594744	-23009.795	69031.16	0	516.4942604803089
22.908677	1.0964782e-9	0.33	1.9716567e7	3.4427725e6	-0.44190189	-0.018594759	-0.018594742	-20985.222	62957.17	0	518.6042242156099
22.908677	1.2022644e-9	0.33	1.7981724e7	3.1398476e6	-0.4396562	-0.018594759	-0.018594741	-19138.789	57417.624	0	520.7141970365079
22.908677	1.3182567e-9	0.33	1.6399529e7	2.8635768e6	-0.43741052	-0.018594759	-0.018594739	-17454.822	52365.499	0	522.824160771809
22.908677	1.4454398e-9	0.33	1.4956551e7	2.6116148e6	-0.43516483	-0.018594759	-0.018594737	-15919.026	47757.906	0	524.9341339027637
22.908677	1.5848932e-9	0.33	1.3640538e7	2.3818227e6	-0.43291915	-0.018594759	-0.018594735	-14518.363	43555.731	0	527.0440976380648
22.908677	1.7378008e-9	0.33	1.2440321e7	2.1722499e6	-0.43067346	-0.018594759	-0.018594733	-13240.943	39723.302	0	529.1540707690194
22.908677	1.9054607e-9	0.33	1.1345709e7	1.9811171e6	-0.42842778	-0.01859476	-0.01859473	-12075.922	36228.085	0	531.264034814377
22.908677	2.0892961e-9	0.33	1.0347412e7	1.806802e6	-0.4261821	-0.01859476	-0.018594727	-11013.41	33040.41	0	533.3739988597348
22.908677	2.2908677e-9	0.33	9.4369541e6	1.6478247e6	-0.42393641	-0.01859476	-0.018594724	-10044.387	30133.215	0	535.483972300746
22.908677	2.5118864e-9	0.33	8.6066064e6	1.5028357e6	-0.42169073	-0.01859476	-0.018594721	-9160.6277	27481.822	0	537.5939363461036
22.908677	2.7542287e-9	0.33	7.8493204e6	1.3706041e6	-0.41944504	-0.01859476	-0.018594717	-8354.6293	25063.723	0	539.7039100971714
22.908677	3.0199517e-9	0.33	7.1586673e6	1.2500075e6	-0.41719936	-0.01859476	-0.018594713	-7619.5499	22858.391	0	541.8138744525857
22.908677	3.3113112e-9	0.33	6.5287841e6	1.140022e6	-0.41495368	-0.018594761	-0.01859471	-6949.1492	20847.103	0	543.9238384979435
22.908677	3.6307805e-9	0.33	5.9543239e6	1.0397141e6	-0.41270799	-0.018594761	-0.018594705	-6337.7364	19012.787	0	546.0338125590677
22.908677	3.9810717e-9	0.33	5.43041e6	948232.15	-0.41046231	-0.018594761	-0.0185947	-5780.121	17339.871	0	548.1437772245386
22.908677	4.3651583e-9	0.33	4.9525947e6	864799.63	-0.40821662	-0.018594762	-0.018594694	-5271.5695	15814.154	0	550.2537515957195
22.908677	4.7863009e-9	0.33	4.5168221e6	788708.27	-0.40597094	-0.018594762	-0.018594688	-4807.7649	14422.683	0	552.3637165712469
22.908677	5.2480746e-9	0.33	4.1193927e6	719312.1	-0.40372526	-0.018594762	-0.018594681	-4384.7699	13153.647	0	554.4736818568309
22.908677	5.7543994e-9	0.33	3.7569328e6	656022.04	-0.40147957	-0.018594763	-0.018594674	-3998.9936	11996.271	0	556.5836565380682
22.908677	6.3095734e-9	0.33	3.4263655e6	598300.81	-0.39923389	-0.018594763	-0.018594666	-3647.1613	10940.733	0	558.6936221337089
22.908677	6.9183097e-9	0.33	3.1248845e6	545658.42	-0.3969882	-0.018594764	-0.018594657	-3326.2862	9978.0703	0	560.8035974350594
22.908677	7.5857758e-9	0.33	2.8499305e6	497647.98	-0.39474252	-0.018594764	-0.018594647	-3033.6444	9100.1115	0	562.9135636508131
22.908677	8.3176377e-9	0.33	2.5991696e6	453861.93	-0.39249684	-0.018594764	-0.018594636	-2766.7518	8299.4037	0	565.0235301766232
22.908677	9.1201084e-9	0.33	2.3704728e6	413928.57	-0.39025115	-0.018594765	-0.018594624	-2523.3426	7569.1494	0	567.1335064081436
22.908677	1.e-8	0.33	2.1618989e6	377508.9	-0.38800547	-0.018594766	-0.018594611	-2301.3506	6903.1495	0	569.2434735540669
22.908677	1.0964782e-8	0.33	1.9716773e6	344293.76	-0.38575979	-0.018594767	-0.018594597	-2098.8913	6295.7505	0	571.3534410100468
22.908677	1.2022644e-8	0.33	1.7981931e6	314001.19	-0.3835141	-0.018594767	-0.018594582	-1914.246	5741.796	0	573.4634181717369
22.908677	1.3182567e-8	0.33	1.6399736e6	286374.03	-0.38126842	-0.018594768	-0.018594564	-1745.8473	5236.5834	0	575.573386867943
22.908677	1.4454398e-8	0.33	1.4956757e6	261177.74	-0.37902274	-0.018594769	-0.018594546	-1592.2656	4775.8241	0	577.6833555641492
22.908677	1.5848932e-8	0.33	1.3640745e6	238198.45	-0.37677705	-0.01859477	-0.018594526	-1452.1973	4355.6066	0	579.7933342761219
22.908677	1.7378008e-8	0.33	1.2440527e6	217241.08	-0.37453137	-0.018594771	-0.018594503	-1324.4532	3972.3637	0	581.9033045226112
22.908677	1.9054607e-8	0.33	1.1345916e6	198127.73	-0.37228569	-0.018594773	-0.018594479	-1207.9491	3622.8421	0	584.0132750791565
22.908677	2.0892961e-8	0.33	1.0347618e6	180696.13	-0.37004	-0.018594774	-0.018594452	-1101.6959	3304.0745	0	586.1232559615255
22.908677	2.2908677e-8	0.33	943716.02	164798.32	-0.36779432	-0.018594776	-0.018594422	-1004.7916	3013.355	0	588.2332283784103
22.908677	2.5118864e-8	0.33	860681.26	150299.33	-0.36554864	-0.018594777	-0.01859439	-916.41362	2748.2157	0	590.3432014154084
22.908677	2.7542287e-8	0.33	784952.65	137076.09	-0.36330295	-0.018594779	-0.018594354	-835.81176	2506.4058	0	592.4531850882862
22.908677	3.0199517e-8	0.33	715887.33	125016.34	-0.36105727	-0.018594782	-0.018594316	-762.30178	2285.8725	0	594.5631599856238
22.908677	3.3113112e-8	0.33	652899.02	114017.71	-0.35881159	-0.018594784	-0.018594273	-695.2597	2084.7438	0	596.6731364332442
22.908677	3.6307805e-8	0.33	595453.01	103986.84	-0.35656591	-0.018594786	-0.018594226	-634.11639	1901.3122	0	598.7831141210906
22.908677	3.9810717e-8	0.33	543061.61	94838.563	-0.35432022	-0.018594789	-0.018594175	-578.35284	1734.0206	0	600.893102444817
22.908677	4.3651583e-8	0.33	495280.09	86495.228	-0.35207454	-0.018594792	-0.018594119	-527.49567	1581.4489	0	603.0030829231725
22.908677	4.7863009e-8	0.33	451702.83	78886.009	-0.34982886	-0.018594795	-0.018594057	-481.11319	1442.3018	0	605.1130652618677
22.908677	5.2480746e-8	0.33	411959.9	71946.311	-0.34758318	-0.018594798	-0.018593989	-438.81167	1315.3982	0	607.2230494609022
22.908677	5.7543994e-8	0.33	375713.9	65617.221	-0.3453375	-0.018594803	-0.018593915	-400.23202	1199.6606	0	609.333035520276
22.908677	6.3095734e-8	0.33	342657.17	59845.016	-0.34309182	-0.018594807	-0.018593833	-365.04677	1094.1068	0	611.4430240601024
22.908677	6.9183097e-8	0.33	312509.06	54580.693	-0.34084614	-0.018594812	-0.018593745	-332.95723	997.84051	0	613.5530144602682
22.908677	7.5857758e-8	0.33	285013.67	49779.566	-0.33860046	-0.018594817	-0.018593646	-303.69104	910.04464	0	615.6630082710561
22.908677	8.3176377e-8	0.33	259937.57	45400.878	-0.33635478	-0.018594823	-0.018593539	-276.99975	829.97385	0	617.7730045622966
22.908677	9.1201084e-8	0.33	237067.9	41407.459	-0.3341091	-0.018594829	-0.018593422	-252.65681	756.94842	0	619.8830039541027
22.908677	1.e-7	0.33	216210.51	37765.409	-0.33186342	-0.018594836	-0.018593293	-230.45559	690.34843	0	621.9930070665877
22.908677	1.0964782e-7	0.33	197188.34	34443.813	-0.32961774	-0.018594843	-0.018593152	-210.20763	629.60853	0	624.1030138997514
22.908677	1.2022644e-7	0.33	179839.92	31414.472	-0.32737206	-0.018594852	-0.018592997	-191.74108	574.21308	0	626.2130250737071
22.908677	1.3182567e-7	0.33	164017.97	28651.673	-0.32512638	-0.018594861	-0.018592827	-174.89919	523.69182	0	628.3230408985114
22.908677	1.4454398e-7	0.33	149588.19	26131.962	-0.32288071	-0.01859487	-0.01859264	-159.53901	477.6159	0	630.4330525986235
22.908677	1.5848932e-7	0.33	136428.06	23833.95	-0.32063503	-0.018594881	-0.018592436	-145.53015	435.59415	0	632.5430789653509
22.908677	1.7378008e-7	0.33	124425.89	21738.13	-0.31838936	-0.018594893	-0.018592212	-132.75373	397.26986	0	634.653102137556
22.908677	1.9054607e-7	0.33	113479.77	19826.712	-0.31614368	-0.018594906	-0.018591967	-121.10129	362.31769	0	636.7631412166027
22.908677	2.0892961e-7	0.33	103496.8	18083.469	-0.31389801	-0.018594921	-0.018591697	-110.47395	330.44094	0	638.8731786514098
22.908677	2.2908677e-7	0.33	94392.221	16493.605	-0.31165234	-0.018594936	-0.018591401	-100.7815	301.36899	0	640.9832241476877
22.908677	2.5118864e-7	0.33	86088.744	15043.624	-0.30940667	-0.018594953	-0.018591078	-91.94168	274.85506	0	643.0932780154928
22.908677	2.7542287e-7	0.33	78515.883	13721.217	-0.307161	-0.018594972	-0.018590723	-83.879472	250.67407	0	645.2033418051082
22.908677	3.0199517e-7	0.33	71609.352	12515.159	-0.30491533	-0.018594993	-0.018590334	-76.526454	228.62074	0	647.3134161366465
22.908677	3.3113112e-7	0.33	65310.521	11415.213	-0.30266966	-0.018595015	-0.018589907	-69.820224	208.50787	0	649.4235022503344
22.908677	3.6307805e-7	0.33	59565.919	10412.043	-0.300424	-0.01859504	-0.018589439	-63.703873	190.16471	0	651.5335916806881
22.908677	3.9810717e-7	0.33	54326.78	9497.1325	-0.29817833	-0.018595067	-0.018588925	-58.125496	173.43555	0	653.6437047692973
22.908677	4.3651583e-7	0.33	49548.628	8662.7161	-0.29593267	-0.018595097	-0.018588363	-53.037758	158.17838	0	655.7538233449682
22.908677	4.7863009e-7	0.33	45190.902	7901.7113	-0.29368701	-0.01859513	-0.018587746	-48.397489	144.26367	0	657.8639589737501
22.908677	5.2480746e-7	0.33	41216.608	7207.6585	-0.29144136	-0.018595166	-0.018587069	-44.165315	131.57331	0	659.9741038102725
22.908677	5.7543994e-7	0.33	37592.009	6574.6667	-0.2891957	-0.018595205	-0.018586328	-40.305329	119.99955	0	662.0842778860683
22.908677	6.3095734e-7	0.33	34286.336	5997.3633	-0.28695005	-0.018595248	-0.018585514	-36.784782	109.44417	0	664.1944652003403
22.908677	6.9183097e-7	0.33	31271.526	5470.8482	-0.2847044	-0.018595296	-0.018584622	-33.573808	99.817543	0	666.3046766990242
22.908677	7.5857758e-7	0.33	28521.987	4990.6526	-0.28245876	-0.018595348	-0.018583645	-30.645167	91.037956	0	668.4149051568628
22.908677	8.3176377e-7	0.33	26014.377	4552.7009	-0.28021312	-0.018595405	-0.018582573	-27.974017	83.030877	0	670.5251630700749
22.908677	9.1201084e-7	0.33	23727.41	4153.2761	-0.27796748	-0.018595467	-0.018581397	-25.537702	75.728335	0	672.6354532291699
22.908677	1.e-6	0.33	21641.671	3788.9883	-0.27572185	-0.018595536	-0.018580108	-23.315558	69.068337	0	674.7457690290032
22.908677	1.0964782e-6	0.33	19739.455	3456.7457	-0.27347623	-0.01859561	-0.018578694	-21.288741	62.994348	0	676.856114190254
22.908677	1.2022644e-6	0.33	18004.613	3153.7288	-0.2712306	-0.018595693	-0.018577145	-19.440065	57.454803	0	678.9665106047945
22.908677	1.3182567e-6	0.33	16422.418	2877.366	-0.26898499	-0.018595783	-0.018575445	-17.753855	52.402679	0	681.0769350465694
22.908677	1.4454398e-6	0.33	14979.439	2625.312	-0.26673938	-0.018595882	-0.018573582	-16.215815	47.795086	0	683.1874100275643
22.908677	1.5848932e-6	0.33	13663.427	2395.428	-0.26449378	-0.01859599	-0.018571539	-14.812908	43.592913	0	685.2979314230877
22.908677	1.7378008e-6	0.33	12463.21	2185.7631	-0.26224819	-0.018596109	-0.018569299	-13.533244	39.760485	0	687.4085045041008
22.908677	1.9054607e-6	0.33	11368.599	1994.5384	-0.26000261	-0.01859624	-0.018566843	-12.365979	36.265269	0	689.5191351616787
22.908677	2.0892961e-6	0.33	10370.302	1820.1313	-0.25775703	-0.018596383	-0.01856415	-11.301223	33.077595	0	691.6298393026626
22.908677	2.2908677e-6	0.33	9459.8443	1661.062	-0.25551147	-0.01859654	-0.018561197	-10.329956	30.170401	0	693.7406052670465
22.908677	2.5118864e-6	0.33	8629.4971	1515.981	-0.25326592	-0.018596712	-0.018557959	-9.4439531	27.51901	0	695.851450201898
22.908677	2.7542287e-6	0.33	7872.2116	1383.6575	-0.25102038	-0.0185969	-0.018554409	-8.6357107	25.100912	0	697.9623824787446
22.908677	3.0199517e-6	0.33	7181.559	1262.9689	-0.24877485	-0.018597107	-0.018550516	-7.8983873	22.895582	0	700.0734117093396
22.908677	3.3113112e-6	0.33	6551.6764	1152.8915	-0.24652934	-0.018597334	-0.018546248	-7.2257425	20.884296	0	702.1845384198397
22.908677	3.6307805e-6	0.33	5977.2169	1052.4916	-0.24428385	-0.018597583	-0.018541568	-6.6120855	19.049982	0	704.2957740823377
22.908677	3.9810717e-6	0.33	5453.3036	960.91774	-0.24203838	-0.018597855	-0.018536437	-6.052226	17.377069	0	706.4071307890397
22.908677	4.3651583e-6	0.33	4975.4892	877.39329	-0.23979292	-0.018598154	-0.01853081	-5.5414303	15.851354	0	708.5186318881449
22.908677	4.7863009e-6	0.33	4539.7174	801.20999	-0.23754749	-0.018598482	-0.01852464	-5.0753814	14.459886	0	710.6302731610045
22.908677	5.2480746e-6	0.33	4142.289	731.72192	-0.23530209	-0.018598841	-0.018517875	-4.650142	13.190853	0	712.74207073056
22.908677	5.7543994e-6	0.33	3779.8301	668.33995	-0.23305671	-0.018599235	-0.018510458	-4.2621212	12.033482	0	714.8540516656893
22.908677	6.3095734e-6	0.33	3449.2638	610.52681	-0.23081136	-0.018599667	-0.018502325	-3.9080442	10.977947	0	716.9662264143591
22.908677	6.9183097e-6	0.33	3147.784	557.79252	-0.22856604	-0.018600142	-0.018493408	-3.5849244	10.015288	0	719.0786160604156
22.908677	7.5857758e-6	0.33	2872.8314	509.6902	-0.22632075	-0.018600661	-0.01848363	-3.2900378	9.1373341	0	721.1912444782147
22.908677	8.3176377e-6	0.33	2622.0719	465.81228	-0.22407551	-0.018601231	-0.01847291	-3.0209001	8.3366312	0	723.3041179910308
22.908677	9.1201084e-6	0.33	2393.3767	425.78707	-0.22183031	-0.018601855	-0.018461154	-2.7752458	7.6063826	0	725.4172751398348
22.908677	0.00001	0.33	2184.8046	389.27556	-0.21958515	-0.018602541	-0.018448265	-2.5510085	6.9403888	0	727.5307460001136
22.908677	0.000010964782	0.33	1994.5849	355.96861	-0.21734005	-0.018603292	-0.018434132	-2.3463037	6.3329965	0	729.6445461968387
22.908677	0.000012022644	0.33	1821.0983	325.58417	-0.21510271	-0.018609409	-0.018423929	-2.1594174	5.7790431	0	731.7498368441455
22.908677	0.000013182567	0.33	1662.8807	297.86522	-0.21285846	-0.018610822	-0.018407447	-1.9887733	5.273838	0	733.8635667331957
22.908677	0.000014454398	0.33	1518.5849	272.57717	-0.21061435	-0.018612372	-0.018389376	-1.832946	4.8130869	0	735.9776577629794
22.908677	0.000015848932	0.33	1386.9859	249.50614	-0.2083704	-0.018614071	-0.018369561	-1.6906319	4.3928783	0	738.0921392009573
22.908677	0.000017378008	0.33	1266.9666	228.45705	-0.20612661	-0.018615933	-0.018347834	-1.5606418	4.0096453	0	740.2070631366323
22.908677	0.000019054607	0.33	1157.5082	209.252	-0.203883	-0.018617975	-0.018324011	-1.4418913	3.6601343	0	742.3224678291057
22.908677	0.000020892961	0.33	1057.6814	191.72875	-0.2016396	-0.018620214	-0.018297889	-1.3333915	3.3413785	0	744.4383880328998
22.908677	0.000022908677	0.33	966.63891	175.73931	-0.19939641	-0.018622667	-0.018269247	-1.2342402	3.050672	0	746.5548922705152
22.908677	0.000025118864	0.33	883.60773	161.14874	-0.19715346	-0.018625358	-0.018237842	-1.143615	2.7855469	0	748.6720276987372
22.908677	0.000027542287	0.33	807.88305	147.83395	-0.19491078	-0.018628308	-0.018203408	-1.0607655	2.5437524	0	750.7898486056516
22.908677	0.000030199517	0.33	738.82206	135.68271	-0.19266838	-0.018631541	-0.01816565	-0.98500756	2.3232362	0	752.9084370622919
22.908677	0.000033113112	0.33	675.83848	124.59263	-0.1904263	-0.018635086	-0.018124251	-0.91571701	2.1221262	0	755.027853773975
22.908677	0.000036307805	0.33	618.39764	114.47035	-0.18818457	-0.018638972	-0.018078857	-0.85232475	1.938715	0	757.1481803137649
22.908677	0.000039810717	0.33	566.01193	105.23074	-0.18594321	-0.018643232	-0.018029085	-0.79431171	1.7714459	0	759.2695166420189
22.908677	0.000043651583	0.33	518.23665	96.79613	-0.18370227	-0.018647901	-0.017974511	-0.74120448	1.6188988	0	761.3919472444536
22.908677	0.000047863009	0.33	474.66622	89.095708	-0.18146178	-0.018653019	-0.017914673	-0.69257129	1.4797787	0	763.5155871802414
22.908677	0.000052480746	0.33	434.93079	82.064885	-0.17922179	-0.018658628	-0.017849063	-0.64801836	1.3529046	0	765.6405469798503
22.908677	0.000057543994	0.33	398.69303	75.644757	-0.17698234	-0.018664776	-0.017777126	-0.60718652	1.2371996	0	767.7669611420602
22.908677	0.000063095734	0.33	365.64532	69.781607	-0.17474349	-0.018671514	-0.017698251	-0.56974824	1.1316813	0	769.8949627375115
22.908677	0.000069183097	0.33	335.50713	64.426443	-0.17250529	-0.018678897	-0.01761177	-0.53540477	1.0354541	0	772.0247119057226
22.908677	0.000075857758	0.33	308.0226	59.534587	-0.1702678	-0.018686989	-0.017516953	-0.5038836	0.94770101	0	774.156378614065
22.908677	0.000083176377	0.33	282.95841	55.065293	-0.16803109	-0.018695855	-0.017412997	-0.47493622	0.86767713	0	776.2901460683867
22.908677	0.000091201084	0.33	260.10181	50.981403	-0.16579524	-0.018705571	-0.017299025	-0.44833597	0.79470315	0	778.4262110230673
22.908677	0.0001	0.33	239.25875	47.249032	-0.16356032	-0.018716214	-0.017174072	-0.4238761	0.72815957	0	780.5648069131182
22.908677	0.00010964782	0.33	220.25231	43.837276	-0.16132641	-0.018727875	-0.017037088	-0.40136802	0.6674815	0	782.7061841327052
22.908677	0.00012022644	0.33	202.92114	40.717954	-0.15909363	-0.018740648	-0.01688692	-0.38063973	0.61215385	0	784.8505874292061
22.908677	0.00013182567	0.33	187.11811	37.865368	-0.15686206	-0.018754638	-0.016722306	-0.36153433	0.56170691	0	786.9983329287788
22.908677	0.00014454398	0.33	172.70907	35.256084	-0.15463181	-0.018769961	-0.01654187	-0.34390868	0.51571245	0	789.1497439170689
22.908677	0.00015848932	0.33	159.57171	32.868733	-0.15240302	-0.01878674	-0.016344103	-0.32763225	0.47377999	0	791.3051567302847
22.908677	0.00017378008	0.33	147.59449	30.683829	-0.15017581	-0.018805112	-0.016127363	-0.3125859	0.43555355	0	793.4649677334646
22.908677	0.00019054607	0.33	136.67575	28.683605	-0.14795033	-0.018825225	-0.015889854	-0.29866098	0.40070861	0	795.629592853398
22.908677	0.00020892961	0.33	126.72278	26.851862	-0.14572673	-0.018847242	-0.015629623	-0.28575834	0.36894932	0	797.7994966957546
22.908677	0.00022908677	0.33	117.65109	25.173831	-0.14350518	-0.018871337	-0.015344539	-0.27378751	0.34000603	0	799.9751802649662
22.908677	0.00025118864	0.33	109.38366	23.636044	-0.14128586	-0.018897703	-0.015032291	-0.26266594	0.31363297	0	802.1571909799925
22.908677	0.00027542287	0.33	101.85029	22.226227	-0.13906897	-0.018926546	-0.01469037	-0.25231828	0.28960617	0	804.3461188596862
22.908677	0.00030199517	0.33	94.986996	20.933188	-0.13685472	-0.018958095	-0.014316063	-0.24267576	0.26772155	0	806.5426077787864
22.908677	0.00033113112	0.33	88.735492	19.746726	-0.13464334	-0.018992595	-0.01390644	-0.23367559	0.24779317	0	808.7473501029992
22.908677	0.00036307805	0.33	83.042658	18.657543	-0.13243507	-0.019030312	-0.013458349	-0.22526044	0.22965163	0	810.9610976349351
22.908677	0.00039810717	0.33	77.860101	17.657164	-0.13023017	-0.019071534	-0.012968416	-0.21737796	0.21314265	0	813.1846522184551
22.908677	0.00043651583	0.33	73.143736	16.737863	-0.12802894	-0.019116575	-0.01243304	-0.20998033	0.19812572	0	815.4188484976469
22.908677	0.00047863009	0.33	68.853403	15.892601	-0.12583167	-0.019165772	-0.011848406	-0.20302383	0.18447286	0	817.6645968643559
22.908677	0.00052480746	0.33	64.952521	15.114959	-0.12363867	-0.019219489	-0.011210496	-0.19646853	0.17206752	0	819.9228518606038
22.908677	0.00057543994	0.33	61.407756	14.399086	-0.12145029	-0.019278121	-0.010515118	-0.1902779	0.16080358	0	822.1945843956412
22.908677	0.00063095734	0.33	58.188735	13.739646	-0.1192669	-0.01934209	-0.0097579426	-0.18441857	0.15058433	0	824.4807891891828
22.908677	0.00069183097	0.33	55.267762	13.131773	-0.11708886	-0.019411854	-0.0089345497	-0.17885996	0.14132166	0	826.7824984787279
22.908677	0.00075857758	0.33	52.619567	12.571024	-0.11491659	-0.0194879	-0.0080405021	-0.17357412	0.13293518	0	829.1006934298221
22.908677	0.00083176377	0.33	50.221068	12.053338	-0.1127505	-0.019570755	-0.0070714272	-0.16853545	0.12535152	0	831.4363445740096
22.908677	0.00091201084	0.33	48.051146	11.575003	-0.11059102	-0.019660981	-0.0060231188	-0.16372054	0.11850357	0	833.7903520581165
22.908677	0.001	0.33	46.090444	11.132618	-0.10843862	-0.019759174	-0.0048916519	-0.15910793	0.11232985	0	836.1634912584473
22.908677	0.0010964782	0.33	44.32117	10.72306	-0.10629375	-0.019865977	-0.0036735177	-0.15467801	0.10677386	0	838.556427297072
22.908677	0.0012022644	0.33	42.726926	10.343459	-0.10415691	-0.019982067	-0.0023657491	-0.15041281	0.10178355	0	840.9696103601507
22.908677	0.0013182567	0.33	41.292548	9.9911692	-0.10202858	-0.020108169	-0.00096605844	-0.14629594	0.09731081	0	843.4032987603182
22.908677	0.0014454398	0.33	40.003967	9.663744	-0.099909254	-0.020245047	0.00052705484	-0.14231243	0.09331098	0	845.8574936107716
22.908677	0.0015848932	0.33	38.848093	9.3589201	-0.09779943	-0.020393509	0.0021142129	-0.13844862	0.089742508	0	848.3319199127592
22.908677	0.0017378008	0.33	37.812712	9.0745981	-0.095699601	-0.020554408	0.0037951123	-0.13469211	0.086566615	0	850.8260203769994
22.908677	0.0019054607	0.33	36.886425	8.8088306	-0.09361025	-0.020728639	0.0055685226	-0.13103167	0.08374706	0	853.3389596874276
22.908677	0.0020892961	0.33	36.058584	8.5598111	-0.091531845	-0.020917145	0.0074323352	-0.12745712	0.081249969	0	855.8696443421859
22.908677	0.0022908677	0.33	35.319274	8.3258675	-0.08946483	-0.021120907	0.0093836645	-0.1239593	0.079043724	0	858.4167624750337
22.908677	0.0025118864	0.33	34.659285	8.1054559	-0.08740962	-0.021340957	0.011418983	-0.12052999	0.077098908	0	860.9788304418157
22.908677	0.0027542287	0.33	34.070118	7.8971573	-0.085366591	-0.021578362	0.013534297	-0.11716185	0.075388275	0	863.5542566930551
22.908677	0.0030199517	0.33	33.543975	7.699674	-0.083336073	-0.021834235	0.015725322	-0.11384831	0.073886739	0	866.141402734831
22.908677	0.0033113112	0.33	33.073765	7.5118264	-0.081318341	-0.022109726	0.017987666	-0.11058354	0.07257136	0	868.7386484182366
22.908677	0.0036307805	0.33	32.653093	7.3325487	-0.079313603	-0.022406027	0.020316992	-0.1073624	0.07142132	0	871.3444535983547
22.908677	0.0039810717	0.33	32.276253	7.1608849	-0.077321998	-0.022724364	0.02270916	-0.1041803	0.070417876	0	873.9574040414207
22.908677	0.0043651583	0.33	31.938206	6.9959823	-0.075343579	-0.023065998	0.025160338	-0.1010332	0.069544288	0	876.5762618137114
22.908677	0.0047863009	0.33	31.634549	6.8370858	-0.07337831	-0.023432226	0.027667074	-0.09791752	0.068785719	0	879.1999904243157
22.908677	0.0052480746	0.33	31.361484	6.6835299	-0.071426062	-0.023824369	0.03022636	-0.094830079	0.06812913	0	881.8277784270148
22.908677	0.0057543994	0.33	31.115778	6.5347315	-0.069486596	-0.024243781	0.032835639	-0.09176804	0.067563135	0	884.4590575632892
22.908677	0.0063095734	0.33	30.894718	6.3901818	-0.067559568	-0.024691837	0.035492832	-0.088728859	0.067077875	0	887.0935064360197
22.908677	0.0069183097	0.33	30.696064	6.2494383	-0.065644521	-0.025169936	0.038196306	-0.085710234	0.066664864	0	889.7310481041997
22.908677	0.0075857758	0.33	30.518007	6.1121173	-0.063740886	-0.025679487	0.04094488	-0.082710059	0.066316849	0	892.3718510037095
22.908677	0.0083176377	0.33	30.359121	5.9778862	-0.061847978	-0.026221915	0.043737777	-0.079726389	0.066027669	0	895.0163178228626
22.908677	0.0091201084	0.33	30.218317	5.8464568	-0.059965007	-0.026798646	0.046574619	-0.076757401	0.065792118	0	897.6650736169036
22.908677	0.01	0.33	30.094802	5.7175785	-0.058091084	-0.027411099	0.049455392	-0.073801362	0.06560582	0	900.3189493186367
22.908677	0.010964782	0.33	29.988034	5.5910325	-0.056225228	-0.028060673	0.052380435	-0.070856607	0.065465102	0	902.9789717508461
22.908677	0.012022644	0.33	29.897682	5.4666254	-0.054366391	-0.02874873	0.055350419	-0.067921511	0.06536688	0	905.646333625974
22.908677	0.013182567	0.33	29.823585	5.3441849	-0.052513477	-0.029476573	0.058366353	-0.064994476	0.065308546	0	908.3223775547187
22.908677	0.014454398	0.33	29.765708	5.2235539	-0.050665376	-0.030245408	0.061429587	-0.062073908	0.065287863	0	911.0085650309818
22.908677	0.015848932	0.33	29.724103	5.1045859	-0.048821008	-0.031056307	0.064541832	-0.059158218	0.065302852	0	913.7064412921252
22.908677	0.017378008	0.33	29.698863	4.9871406	-0.046979374	-0.031910141	0.067705214	-0.056245805	0.065351688	0	916.4176041441917
22.908677	0.019054607	0.33	29.69008	4.8710785	-0.045139625	-0.032807502	0.07092233	-0.053335059	0.065432584	0	919.1436564950637
22.908677	0.020892961	0.33	29.697792	4.7562569	-0.043301151	-0.033748589	0.07419635	-0.050424366	0.065543672	0	921.886154358918
22.908677	0.022908677	0.33	29.721937	4.6425241	-0.041463682	-0.034733073	0.077531149	-0.047512111	0.065682872	0	924.6465528875899
22.908677	0.025118864	0.33	29.76231	4.5297146	-0.039627406	-0.035759886	0.080931498	-0.044596691	0.065847746	0	927.4261547226679
22.908677	0.027542287	0.33	29.81853	4.4176426	-0.037793103	-0.036827003	0.084403287	-0.041676533	0.066035341	0	930.2260532363496
22.908677	0.030199517	0.33	29.890033	4.3060962	-0.035962256	-0.037931125	0.087953832	-0.03875011	0.066242017	0	933.0471234270542
22.908677	0.033113112	0.33	29.976128	4.1948306	-0.03413714	-0.039067325	0.091592224	-0.035815956	0.066463272	0	935.8900465078476
22.908677	0.036307805	0.33	30.076147	4.0835625	-0.032320781	-0.040228651	0.095329725	-0.032872675	0.06669359	0	938.7554712110211
22.908677	0.039810717	0.33	30.189775	3.9719648	-0.030516737	-0.041405735	0.099180162	-0.029918923	0.066926345	0	941.6443417151905
22.908677	0.043651583	0.33	30.31762	3.8596665	-0.028728508	-0.042586505	0.10316021	-0.026953346	0.067153842	0	944.5585397348607
22.908677	0.047863009	0.33	30.462125	3.7462583	-0.026958476	-0.043756083	0.10728949	-0.02397445	0.067367594	0	947.50191084524
22.908677	0.052480746	0.33	30.62883	3.6313079	-0.025206217	-0.044897111	0.11159027	-0.020980363	0.067558937	0	950.4817577616367
22.908677	0.057543994	0.33	30.827874	3.5143861	-0.023466244	-0.045990596	0.11608658	-0.017968454	0.067720035	0	953.5106865383955
22.908677	0.063095734	0.33	31.075472	3.3950994	-0.02172543	-0.047017366	0.12080279	-0.014934814	0.067845202	0	956.6085869283671
22.908677	0.069183097	0.33	31.394954	3.2731186	-0.019960621	-0.04795999	0.12576169	-0.011873601	0.067932254	0	959.8042798167933
22.908677	0.075857758	0.33	31.817072	3.148192	-0.018136951	-0.048804714	0.13098254	-0.0087763199	0.067983549	0	963.1364957786184
22.908677	0.083176377	0.33	32.379525	3.020136	-0.016207127	-0.049543009	0.13647954	-0.0056311151	0.068006465	0	966.6540724811703
22.908677	0.091201084	0.33	33.125969	2.8888121	-0.014111666	-0.050172124	0.14226129	-0.0024221341	0.06801348	0	970.4155645766261
22.908677	0.1	0.33	34.104514	2.7541175	-0.011780193	-0.050694452	0.14833141	0.00087099018	0.068022451	0	974.4882163812597
22.908677	0.10964782	0.33	35.364351	2.6160371	-0.0091353073	-0.051115768	0.1546903	0.0042734374	0.068058196	0	978.9448749334824
22.908677	0.12022644	0.33	36.945165	2.4748314	-0.0061047249	-0.051443559	0.16133685	0.0078148871	0.068156737	0	983.8531116122663
22.908677	0.13182567	0.33	38.84681	2.3314107	-0.002654238	-0.051691583	0.16826386	0.011527323	0.068372261	0	989.2428344739195
22.908677	0.14454398	0.33	40.976309	2.1876307	0.0011587135	-0.051908059	0.17542985	0.01543858	0.068777845	0	995.0472138323572
22.908677	0.15848932	0.33	40.310531	2.0500374	0.0021961155	-0.052507166	0.18242758	0.019493836	0.069478271	0	998.1916129356744
22.908677	0.17378008	0.33	43.26714	1.9283626	0.0074204983	-0.054223373	0.18852975	0.02358515	0.070602886	0	1004.9922798619874
22.908677	0.19054607	0.33	46.936296	1.808943	0.013748354	-0.05623431	0.19456607	0.027999829	0.07210585	0	1012.8093144649665
22.908677	0.20892961	0.33	51.508562	1.6926638	0.021474343	-0.05858691	0.2004972	0.032816727	0.074087606	0	1021.9073718211815
22.908677	0.22908677	0.33	57.21404	1.5805378	0.030952635	-0.061318541	0.20629356	0.038135352	0.076672352	0	1032.6100460355653
22.908677	0.25118864	0.33	64.312788	1.4736525	0.042588244	-0.064451096	0.2119413	0.044079361	0.080010262	0	1045.2935799453505
22.908677	0.27542287	0.33	73.073152	1.373081	0.056813961	-0.067984958	0.21744829	0.05079854	0.084277284	0	1060.3670491230992
22.908677	0.30199517	0.33	83.737763	1.2797603	0.074051985	-0.071894739	0.22284846	0.058468039	0.08967142	0	1078.237657339284
22.908677	0.33113112	0.33	96.482486	1.1943632	0.09466568	-0.076129162	0.22820184	0.06728386	0.096405071	0	1099.2654215133684
22.908677	0.36307805	0.33	111.37962	1.1171982	0.1189138	-0.080616642	0.23358906	0.077454416	0.10469417	0	1123.7184577988032
22.908677	0.39810717	0.33	128.37848	1.0481754	0.14692203	-0.085275863	0.23910073	0.089189237	0.11474607	0	1151.742949692003
22.908677	0.43651583	0.33	147.31116	0.98684877	0.17868122	-0.090028219	0.24482505	0.10268699	0.12674854	0	1183.3576471590925
22.908677	0.47863009	0.33	167.92076	0.93251683	0.21407061	-0.094808141	0.25083747	0.11812522	0.14086204	0	1218.4724820562728
22.908677	0.52480746	0.33	189.90136	0.88434377	0.25289539	-0.099568761	0.25719501	0.13565356	0.15721581	0	1256.9220970830743
22.908677	0.57543994	0.33	212.93702	0.84146722	0.29492565	-0.10428267	0.26393558	0.15539085	0.17590768	0	1298.5022310142779
22.908677	0.63095734	0.33	236.7317	0.80307373	0.33992792	-0.10893926	0.27108056	0.17742576	0.19700647	0	1343.0001525369885
22.908677	0.69183097	0.33	261.02745	0.76844035	0.38768605	-0.11354061	0.27863901	0.20181969	0.22055596	0	1390.2155837132877
22.908677	0.75857758	0.33	285.61218	0.73694967	0.43801237	-0.11809723	0.28661188	0.22861098	0.24657944	0	1439.9724908676776
22.908677	0.83176377	0.33	310.32039	0.70808808	0.49075176	-0.12262462	0.29499547	0.25781947	0.27508422	0	1492.1239814137743
22.908677	0.91201084	0.33	335.02947	0.68143536	0.54578139	-0.12714065	0.30378409	0.28945094	0.30606583	0	1546.5528843177794
22.908677	1.	0.33	359.65413	0.65665097	0.60300811	-0.13166388	0.31297172	0.323501	0.3395116	0	1603.1698125268158
22.908677	1.0964782	0.33	384.1403	0.63346023	0.66236492	-0.13621249	0.32255311	0.3599585	0.37540366	0	1661.9101873654654
22.908677	1.2022644	0.33	408.45925	0.61164183	0.72380738	-0.14080371	0.33252432	0.39880827	0.41372145	0	1722.7310329267057
22.908677	1.3182567	0.33	432.60238	0.59101717	0.78731015	-0.14545358	0.34288307	0.44003336	0.45444366	0	1785.6078336955986
22.908677	1.4454398	0.33	456.57688	0.57144162	0.85286406	-0.15017685	0.35362875	0.48361676	0.49754976	0	1850.531784723379
22.908677	1.5848932	0.33	480.40198	0.55279749	0.92047358	-0.15498706	0.36476239	0.5295428	0.54302122	0	1917.507405225424
22.908677	1.7378008	0.33	504.10608	0.53498843	0.99015474	-0.15989661	0.37628663	0.57779817	0.59084237	0	1986.5505749836282
22.908677	1.9054607	0.33	527.72431	0.517935	1.0619334	-0.16491691	0.38820553	0.62837268	0.64100108	0	2057.6868499875973
22.908677	2.0892961	0.33	551.29673	0.50157122	1.135844	-0.17005854	0.40052451	0.68125984	0.69348926	0	2130.9502693745703
22.908677	2.2908677	0.33	574.86683	0.48584183	1.2119281	-0.17533133	0.41325017	0.73645727	0.74830317	0	2206.381927853826
22.908677	2.5118864	0.33	598.48039	0.47070015	1.290234	-0.18074453	0.42639025	0.79396697	0.80544368	0	2284.029606269586
22.908677	2.7542287	0.33	622.18464	0.45610641	1.3708156	-0.18630688	0.43995347	0.85379551	0.8649164	0	2363.9466508874675
22.908677	3.0199517	0.33	646.0276	0.44202638	1.4537321	-0.19202676	0.45394951	0.91595413	0.92673171	0	2446.191685323743
22.908677	3.3113112	0.33	670.05757	0.42843036	1.5390474	-0.19791221	0.46838889	0.98045879	0.99090487	0	2530.8280095993473
22.908677	3.6307805	0.33	694.32276	0.41529232	1.6268297	-0.20397106	0.48328295	1.0473302	1.0574559	0	2617.9232181126026
22.908677	3.9810717	0.33	718.87108	0.40258923	1.7171515	-0.21021096	0.49864379	1.1165937	1.1264097	0	2707.549181035828
22.908677	4.3651583	0.33	743.74994	0.39030056	1.8100891	-0.21663947	0.51448422	1.1882795	1.1977959	0	2799.781559029831
22.908677	4.7863009	0.33	769.00611	0.37840781	1.9057224	-0.22326405	0.53081775	1.2624222	1.2716486	0	2894.699612230277
22.908677	5.2480746	0.33	794.68572	0.3668942	2.0041352	-0.23009217	0.54765856	1.3390611	1.3480068	0	2992.3864728155954
22.908677	5.7543994	0.33	820.83422	0.35574441	2.1054147	-0.2371313	0.5650215	1.4182399	1.4269137	0	3092.9286752243024
22.908677	6.3095734	0.33	847.49634	0.34494429	2.2096515	-0.24438897	0.58292204	1.5000068	1.5084173	0	3196.4161406521785
22.908677	6.9183097	0.33	874.7162	0.33448075	2.3169398	-0.25187278	0.60137629	1.5844143	1.5925697	0	3302.9423711664617
22.908677	7.5857758	0.33	902.5373	0.32434159	2.4273772	-0.25959044	0.620401	1.6715192	1.6794274	0	3412.604261792785
22.908677	8.3176377	0.33	931.00261	0.31451535	2.5410647	-0.26754976	0.64001354	1.7613826	1.7690512	0	3525.5020943140416
22.908677	9.1201084	0.33	960.15463	0.30499125	2.6581068	-0.27575873	0.66023194	1.8540697	1.8615061	0	3641.739643629182
22.908677	10.	0.33	990.03549	0.2957591	2.7786117	-0.2842255	0.68107484	1.9496499	1.9568612	0	3761.4243501634564