25.118864	1.e-12	0.02	3.1248977e10	4.9763189e9	-0.66531589	-0.10536918	-0.10536918	-3.3258972e7	9.9780715e7	0	312.4775683418702
25.118864	1.0964782e-12	0.02	2.8499406e10	4.5384568e9	-0.66285355	-0.10536918	-0.10536918	-3.0332543e7	9.1001094e7	0	314.7910976857892
25.118864	1.2022644e-12	0.02	2.5991767e10	4.1391218e9	-0.66039121	-0.10536918	-0.10536918	-2.7663608e7	8.2993984e7	0	317.10462702970824
25.118864	1.3182567e-12	0.02	2.3704773e10	3.7749239e9	-0.65792886	-0.10536918	-0.10536918	-2.522951e7	7.5691413e7	0	319.4181657692808
25.118864	1.4454398e-12	0.02	2.161901e10	3.4427716e9	-0.65546652	-0.10536918	-0.10536918	-2.3009587e7	6.9031389e7	0	321.7316951131997
25.118864	1.5848932e-12	0.02	1.9716772e10	3.139845e9	-0.65300417	-0.10536918	-0.10536918	-2.0984993e7	6.2957375e7	0	324.04523385277224
25.118864	1.7378008e-12	0.02	1.7981909e10	2.8635727e9	-0.65054183	-0.10536918	-0.10536918	-1.9138541e7	5.7417809e7	0	326.35876319669126
25.118864	1.9054607e-12	0.02	1.6399696e10	2.6116093e9	-0.64807949	-0.10536918	-0.10536918	-1.7454557e7	5.2365664e7	0	328.6722925406102
25.118864	2.0892961e-12	0.02	1.4956701e10	2.381816e9	-0.64561714	-0.10536918	-0.10536918	-1.5918745e7	4.7758053e7	0	330.9858312801827
25.118864	2.2908677e-12	0.02	1.3640673e10	2.172242e9	-0.6431548	-0.10536918	-0.10536918	-1.4518068e7	4.3555862e7	0	333.29936062410167
25.118864	2.5118864e-12	0.02	1.2440442e10	1.9811082e9	-0.64069246	-0.10536918	-0.10536918	-1.3240636e7	3.9723418e7	0	335.6128899680207
25.118864	2.7542287e-12	0.02	1.1345818e10	1.8067922e9	-0.63823011	-0.10536918	-0.10536918	-1.2075603e7	3.6228188e7	0	337.92642870759323
25.118864	3.0199517e-12	0.02	1.0347509e10	1.6478141e9	-0.63576777	-0.10536918	-0.10536918	-1.1013081e7	3.30405e7	0	340.23995805151225
25.118864	3.3113112e-12	0.02	9.4370401e9	1.5028243e9	-0.63330542	-0.10536918	-0.10536918	-1.0044049e7	3.0133294e7	0	342.5534967910847
25.118864	3.6307805e-12	0.02	8.606683e9	1.3705921e9	-0.63084308	-0.10536918	-0.10536918	-9.1602821e6	2.7481891e7	0	344.8670261350037
25.118864	3.9810717e-12	0.02	7.8493882e9	1.2499948e9	-0.62838074	-0.10536918	-0.10536918	-8.3542766e6	2.5063783e7	0	347.1805554789227
25.118864	4.3651583e-12	0.02	7.158727e9	1.1400088e9	-0.62591839	-0.10536918	-0.10536918	-7.6191908e6	2.2858441e7	0	349.49409421849515
25.118864	4.7863009e-12	0.02	6.5288367e9	1.0397004e9	-0.62345605	-0.10536918	-0.10536918	-6.9487847e6	2.0847146e7	0	351.80762356241416
25.118864	5.2480746e-12	0.02	5.9543699e9	9.4821805e8	-0.62099371	-0.10536918	-0.10536918	-6.337367e6	1.9012824e7	0	354.1211529063332
25.118864	5.7543994e-12	0.02	5.4304498e9	8.6478514e8	-0.61853136	-0.10536918	-0.10536918	-5.7797474e6	1.7339901e7	0	356.43469164590573
25.118864	6.3095734e-12	0.02	4.9526292e9	7.8869343e8	-0.61606902	-0.10536918	-0.10536918	-5.2711924e6	1.5814178e7	0	358.74822098982474
25.118864	6.9183097e-12	0.02	4.5168515e9	7.1929696e8	-0.61360667	-0.10536918	-0.10536918	-4.8073847e6	1.4422702e7	0	361.0617597293972
25.118864	7.5857758e-12	0.02	4.1194175e9	6.5600662e8	-0.61114433	-0.10536918	-0.10536918	-4.384387e6	1.315366e7	0	363.3752890733162
25.118864	8.3176377e-12	0.02	3.7569534e9	5.9828515e8	-0.60868199	-0.10536918	-0.10536918	-3.9986085e6	1.1996281e7	0	365.6888184172352
25.118864	9.1201084e-12	0.02	3.4263822e9	5.4564254e8	-0.60621964	-0.10536918	-0.10536918	-3.6467743e6	1.0940738e7	0	368.00235715680776
25.118864	1.e-11	0.02	3.1248977e9	4.9763192e8	-0.6037573	-0.10536918	-0.10536918	-3.3258978e6	9.9780716e6	0	370.31588650072666
25.118864	1.0964782e-11	0.02	2.8499406e9	4.538457e8	-0.60129495	-0.10536918	-0.10536918	-3.0332549e6	9.1001094e6	0	372.6294252402992
25.118864	1.2022644e-11	0.02	2.5991767e9	4.139122e8	-0.59883261	-0.10536918	-0.10536918	-2.7663614e6	8.2993984e6	0	374.9429545842182
25.118864	1.3182567e-11	0.02	2.3704774e9	3.7749242e8	-0.59637027	-0.10536918	-0.10536918	-2.5229516e6	7.5691414e6	0	377.25648392813724
25.118864	1.4454398e-11	0.02	2.161901e9	3.4427718e8	-0.59390792	-0.10536918	-0.10536918	-2.3009593e6	6.903139e6	0	379.5700226677097
25.118864	1.5848932e-11	0.02	1.9716772e9	3.1398452e8	-0.59144558	-0.10536918	-0.10536918	-2.0984998e6	6.2957376e6	0	381.8835520116287
25.118864	1.7378008e-11	0.02	1.798191e9	2.8635729e8	-0.58898324	-0.10536918	-0.10536918	-1.9138547e6	5.7417809e6	0	384.1970813555477
25.118864	1.9054607e-11	0.02	1.6399697e9	2.6116095e8	-0.58652089	-0.10536918	-0.10536918	-1.7454562e6	5.2365664e6	0	386.51062009512026
25.118864	2.0892961e-11	0.02	1.4956701e9	2.3818162e8	-0.58405855	-0.10536918	-0.10536918	-1.5918751e6	4.7758054e6	0	388.8241494390393
25.118864	2.2908677e-11	0.02	1.3640673e9	2.1722422e8	-0.5815962	-0.10536918	-0.10536918	-1.4518074e6	4.3555862e6	0	391.1376881786117
25.118864	2.5118864e-11	0.02	1.2440442e9	1.9811085e8	-0.57913386	-0.10536918	-0.10536918	-1.3240641e6	3.9723419e6	0	393.4512175225307
25.118864	2.7542287e-11	0.02	1.1345818e9	1.8067924e8	-0.57667152	-0.10536918	-0.10536918	-1.2075609e6	3.6228189e6	0	395.76474686644974
25.118864	3.0199517e-11	0.02	1.0347509e9	1.6478143e8	-0.57420917	-0.10536918	-0.10536918	-1.1013086e6	3.30405e6	0	398.0782856060222
25.118864	3.3113112e-11	0.02	9.4370405e8	1.5028245e8	-0.57174683	-0.10536918	-0.10536918	-1.0044055e6	3.0133295e6	0	400.3918149499412
25.118864	3.6307805e-11	0.02	8.6066832e8	1.3705923e8	-0.56928449	-0.10536918	-0.10536918	-916028.74	2.7481892e6	0	402.7053442938602
25.118864	3.9810717e-11	0.02	7.8493884e8	1.249995e8	-0.56682214	-0.10536918	-0.10536918	-835428.18	2.5063783e6	0	405.01888303343276
25.118864	4.3651583e-11	0.02	7.1587274e8	1.140009e8	-0.5643598	-0.10536918	-0.10536918	-761919.62	2.2858442e6	0	407.3324123773518
25.118864	4.7863009e-11	0.02	6.528837e8	1.0397006e8	-0.56189745	-0.10536918	-0.10536918	-694879.	2.0847147e6	0	409.6459511169242
25.118864	5.2480746e-11	0.02	5.9543701e8	9.4821825e7	-0.55943511	-0.10536918	-0.10536918	-633737.22	1.9012824e6	0	411.9594804608432
25.118864	5.7543994e-11	0.02	5.43045e8	8.6478534e7	-0.55697277	-0.10536918	-0.10536918	-577975.26	1.7339901e6	0	414.2730098047622
25.118864	6.3095734e-11	0.02	4.9526293e8	7.8869363e7	-0.55451042	-0.10536918	-0.10536918	-527119.75	1.5814178e6	0	416.5865485443348
25.118864	6.9183097e-11	0.02	4.5168517e8	7.1929716e7	-0.55204808	-0.10536918	-0.10536918	-480738.98	1.4422702e6	0	418.9000778882537
25.118864	7.5857758e-11	0.02	4.1194177e8	6.5600682e7	-0.54958574	-0.10536918	-0.10536918	-438439.21	1.315366e6	0	421.21360723217265
25.118864	8.3176377e-11	0.02	3.7569536e8	5.9828535e7	-0.54712339	-0.10536918	-0.10536918	-399861.36	1.1996281e6	0	423.5271459717452
25.118864	9.1201084e-11	0.02	3.4263825e8	5.4564275e7	-0.54466105	-0.10536918	-0.10536918	-364677.94	1.0940738e6	0	425.8406753156642
25.118864	1.e-10	0.02	3.1248979e8	4.9763212e7	-0.5421987	-0.10536918	-0.10536918	-332590.28	997807.2	0	428.1542140552367
25.118864	1.0964782e-10	0.02	2.8499408e8	4.5384591e7	-0.53973636	-0.10536918	-0.10536918	-303325.99	910010.98	0	430.46774339915567
25.118864	1.2022644e-10	0.02	2.599177e8	4.1391241e7	-0.53727402	-0.10536918	-0.10536918	-276636.64	829939.89	0	432.7812727430747
25.118864	1.3182567e-10	0.02	2.3704776e8	3.7749262e7	-0.53481167	-0.10536918	-0.10536918	-252295.66	756914.17	0	435.09481148264723
25.118864	1.4454398e-10	0.02	2.1619013e8	3.4427738e7	-0.53234933	-0.10536918	-0.10536918	-230096.43	690313.94	0	437.40834082656625
25.118864	1.5848932e-10	0.02	1.9716774e8	3.1398472e7	-0.52988698	-0.10536918	-0.10536918	-209850.48	629573.79	0	439.7218795661387
25.118864	1.7378008e-10	0.02	1.7981912e8	2.8635749e7	-0.52742464	-0.10536918	-0.10536918	-191385.96	574178.13	0	442.0354089100577
25.118864	1.9054607e-10	0.02	1.6399699e8	2.6116115e7	-0.5249623	-0.10536918	-0.10536918	-174546.12	523656.68	0	444.3489382539767
25.118864	2.0892961e-10	0.02	1.4956703e8	2.3818182e7	-0.52249995	-0.10536918	-0.10536918	-159188.	477580.57	0	446.66247699354915
25.118864	2.2908677e-10	0.02	1.3640676e8	2.1722442e7	-0.52003761	-0.10536918	-0.10536918	-145181.23	435558.66	0	448.97600633746816
25.118864	2.5118864e-10	0.02	1.2440444e8	1.9811105e7	-0.51757527	-0.10536918	-0.10536918	-132406.9	397234.23	0	451.2895356813872
25.118864	2.7542287e-10	0.02	1.134582e8	1.8067944e7	-0.51511292	-0.10536918	-0.10536918	-120756.57	362281.92	0	453.60307442095973
25.118864	3.0199517e-10	0.02	1.0347511e8	1.6478163e7	-0.51265058	-0.10536918	-0.10536918	-110131.35	330405.05	0	455.91660376487874
25.118864	3.3113112e-10	0.02	9.4370428e7	1.5028265e7	-0.51018823	-0.10536918	-0.10536918	-100441.03	301332.99	0	458.2301425044512
25.118864	3.6307805e-10	0.02	8.6066854e7	1.3705942e7	-0.50772589	-0.10536918	-0.10536918	-91603.35	274818.95	0	460.5436718483702
25.118864	3.9810717e-10	0.02	7.8493906e7	1.2499969e7	-0.50526355	-0.10536918	-0.10536918	-83543.293	250637.87	0	462.8572011922892
25.118864	4.3651583e-10	0.02	7.1587295e7	1.1400109e7	-0.5028012	-0.10536918	-0.10536918	-76192.433	228584.45	0	465.17073993186176
25.118864	4.7863009e-10	0.02	6.5288392e7	1.0397025e7	-0.50033886	-0.10536918	-0.10536918	-69488.37	208471.5	0	467.48426927578066
25.118864	5.2480746e-10	0.02	5.9543723e7	9.4822014e6	-0.49787652	-0.10536918	-0.10536918	-63374.19	190128.27	0	469.7977986196998
25.118864	5.7543994e-10	0.02	5.4304523e7	8.6478723e6	-0.49541417	-0.10536918	-0.10536918	-57797.992	173399.05	0	472.1113373592722
25.118864	6.3095734e-10	0.02	4.9526316e7	7.8869551e6	-0.49295183	-0.10536918	-0.10536918	-52712.439	158141.82	0	474.42486670319124
25.118864	6.9183097e-10	0.02	4.5168539e7	7.1929902e6	-0.49048948	-0.10536918	-0.10536918	-48074.359	144227.06	0	476.7384054427638
25.118864	7.5857758e-10	0.02	4.11942e7	6.5600868e6	-0.48802714	-0.10536918	-0.10536918	-43844.38	131536.64	0	479.0519347866827
25.118864	8.3176377e-10	0.02	3.7569558e7	5.982872e6	-0.4855648	-0.10536918	-0.10536918	-39986.593	119962.85	0	481.3654641306017
25.118864	9.1201084e-10	0.02	3.4263847e7	5.4564459e6	-0.48310245	-0.10536918	-0.10536918	-36468.249	109407.42	0	483.67900287017414
25.118864	1.e-9	0.02	3.1249002e7	4.9763395e6	-0.48064011	-0.10536918	-0.10536918	-33259.481	99780.757	0	485.9925322140933
25.118864	1.0964782e-9	0.02	2.8499431e7	4.5384773e6	-0.47817776	-0.10536918	-0.10536918	-30333.049	91001.135	0	488.3060709536657
25.118864	1.2022644e-9	0.02	2.5991792e7	4.1391422e6	-0.47571542	-0.10536918	-0.10536918	-27664.112	82994.026	0	490.6196002975847
25.118864	1.3182567e-9	0.02	2.3704798e7	3.7749443e6	-0.47325308	-0.10536918	-0.10536918	-25230.012	75691.455	0	492.93312964150374
25.118864	1.4454398e-9	0.02	2.1619035e7	3.4427918e6	-0.47079073	-0.10536918	-0.10536918	-23010.086	69031.431	0	495.2466683810762
25.118864	1.5848932e-9	0.02	1.9716797e7	3.1398651e6	-0.46832839	-0.10536918	-0.10536918	-20985.489	62957.416	0	497.5601977249953
25.118864	1.7378008e-9	0.02	1.7981934e7	2.8635927e6	-0.46586605	-0.10536918	-0.10536918	-19139.035	57417.85	0	499.8737270689142
25.118864	1.9054607e-9	0.02	1.6399721e7	2.6116293e6	-0.4634037	-0.10536918	-0.10536918	-17455.049	52365.705	0	502.18726580848676
25.118864	2.0892961e-9	0.02	1.4956726e7	2.3818358e6	-0.46094136	-0.10536918	-0.10536918	-15919.234	47758.094	0	504.50079515240566
25.118864	2.2908677e-9	0.02	1.3640698e7	2.1722618e6	-0.45847901	-0.10536918	-0.10536918	-14518.555	43555.903	0	506.8143338919782
25.118864	2.5118864e-9	0.02	1.2440467e7	1.9811279e6	-0.45601667	-0.10536918	-0.10536918	-13241.12	39723.459	0	509.1278632358972
25.118864	2.7542287e-9	0.02	1.1345843e7	1.8068118e6	-0.45355433	-0.10536918	-0.10536918	-12076.085	36228.23	0	511.44139257981624
25.118864	3.0199517e-9	0.02	1.0347534e7	1.6478336e6	-0.45109198	-0.10536918	-0.10536918	-11013.56	33040.542	0	513.7549313193888
25.118864	3.3113112e-9	0.02	9.4370653e6	1.5028437e6	-0.44862964	-0.10536918	-0.10536918	-10044.526	30133.336	0	516.0684606633076
25.118864	3.6307805e-9	0.02	8.6067081e6	1.3706114e6	-0.4461673	-0.10536919	-0.10536918	-9160.7565	27481.933	0	518.3819900072268
25.118864	3.9810717e-9	0.02	7.8494132e6	1.250014e6	-0.44370495	-0.10536919	-0.10536918	-8354.7484	25063.824	0	520.6955287467993
25.118864	4.3651583e-9	0.02	7.1587522e6	1.1400279e6	-0.44124261	-0.10536919	-0.10536918	-7619.6603	22858.483	0	523.0090580907182
25.118864	4.7863009e-9	0.02	6.5288618e6	1.0397194e6	-0.43878026	-0.10536919	-0.10536918	-6949.2516	20847.188	0	525.3225968302908
25.118864	5.2480746e-9	0.02	5.9543949e6	948236.97	-0.43631792	-0.10536919	-0.10536918	-6337.8315	19012.865	0	527.6361261742097
25.118864	5.7543994e-9	0.02	5.4304749e6	864803.96	-0.43385558	-0.10536919	-0.10536919	-5780.2095	17339.942	0	529.9496553302156
25.118864	6.3095734e-9	0.02	4.9526542e6	788712.16	-0.43139323	-0.10536919	-0.10536919	-5271.652	15814.219	0	532.263194069788
25.118864	6.9183097e-9	0.02	4.5168765e6	719315.59	-0.42893089	-0.10536919	-0.10536919	-4807.8417	14422.743	0	534.5767234137073
25.118864	7.5857758e-9	0.02	4.1194426e6	656025.17	-0.42646854	-0.10536919	-0.10536919	-4384.8416	13153.701	0	536.8902621532797
25.118864	8.3176377e-9	0.02	3.7569785e6	598303.61	-0.4240062	-0.1053692	-0.10536919	-3999.0607	11996.322	0	539.2037914971986
25.118864	9.1201084e-9	0.02	3.4264073e6	545660.91	-0.42154386	-0.1053692	-0.10536919	-3647.2241	10940.779	0	541.5173208411178
25.118864	1.e-8	0.02	3.1249228e6	497650.19	-0.41908151	-0.1053692	-0.10536919	-3326.3451	9978.1129	0	543.8308595806901
25.118864	1.0964782e-8	0.02	2.8499657e6	453863.89	-0.41661917	-0.1053692	-0.10536919	-3033.6997	9100.1508	0	546.1443889246092
25.118864	1.2022644e-8	0.02	2.5992018e6	413930.3	-0.41415683	-0.1053692	-0.10536919	-2766.8038	8299.4398	0	548.4579182685283
25.118864	1.3182567e-8	0.02	2.3705024e6	377510.42	-0.41169448	-0.10536921	-0.10536919	-2523.3915	7569.1827	0	550.7714570081007
25.118864	1.4454398e-8	0.02	2.1619261e6	344295.09	-0.40923214	-0.10536921	-0.1053692	-2301.3967	6903.1803	0	553.0849861641065
25.118864	1.5848932e-8	0.02	1.9717023e6	314002.34	-0.40676979	-0.10536921	-0.1053692	-2098.9348	6295.7789	0	555.3985249036791
25.118864	1.7378008e-8	0.02	1.7982161e6	286375.01	-0.40430745	-0.10536921	-0.1053692	-1914.2872	5741.8222	0	557.7120542475981
25.118864	1.9054607e-8	0.02	1.6399947e6	261178.59	-0.40184511	-0.10536922	-0.1053692	-1745.8863	5236.6078	0	560.025583591517
25.118864	2.0892961e-8	0.02	1.4956952e6	238199.16	-0.39938276	-0.10536922	-0.10536921	-1592.3027	4775.8466	0	562.3391221431766
25.118864	2.2908677e-8	0.02	1.3640924e6	217241.67	-0.39692042	-0.10536923	-0.10536921	-1452.2325	4355.6276	0	564.6526514870955
25.118864	2.5118864e-8	0.02	1.2440693e6	198128.21	-0.39445807	-0.10536923	-0.10536921	-1324.4868	3972.3832	0	566.966190226668
25.118864	2.7542287e-8	0.02	1.1346069e6	180696.51	-0.39199573	-0.10536923	-0.10536921	-1207.9811	3622.8602	0	569.2797195705871
25.118864	3.0199517e-8	0.02	1.034776e6	164798.6	-0.38953339	-0.10536924	-0.10536922	-1101.7264	3304.0914	0	571.5932487265928
25.118864	3.3113112e-8	0.02	943729.13	150299.53	-0.38707104	-0.10536925	-0.10536922	-1004.8208	3013.3708	0	573.9067874661655
25.118864	3.6307805e-8	0.02	860693.42	137076.22	-0.3846087	-0.10536925	-0.10536922	-916.44159	2748.2305	0	576.2203168100845
25.118864	3.9810717e-8	0.02	784963.94	125016.4	-0.38214635	-0.10536926	-0.10536923	-835.83859	2506.4197	0	578.5338553617438
25.118864	4.3651583e-8	0.02	715897.83	114017.71	-0.37968401	-0.10536927	-0.10536923	-762.32755	2285.8855	0	580.8473847056628
25.118864	4.7863009e-8	0.02	652908.79	103986.78	-0.37722166	-0.10536928	-0.10536924	-695.28447	2084.756	0	583.1609232573223
25.118864	5.2480746e-8	0.02	595462.1	94838.446	-0.37475932	-0.10536929	-0.10536925	-634.14023	1901.3237	0	585.4744524133282
25.118864	5.7543994e-8	0.02	543070.1	86495.064	-0.37229698	-0.1053693	-0.10536925	-578.37583	1734.0315	0	587.7879817572472
25.118864	6.3095734e-8	0.02	495288.03	78885.8	-0.36983463	-0.10536931	-0.10536926	-527.51785	1581.4591	0	590.1015203089066
25.118864	6.9183097e-8	0.02	451710.26	71946.06	-0.36737229	-0.10536932	-0.10536927	-481.13461	1442.3115	0	592.4150494649125
25.118864	7.5857758e-8	0.02	411966.86	65616.935	-0.36490994	-0.10536933	-0.10536928	-438.83238	1315.4074	0	594.728588016572
25.118864	8.3176377e-8	0.02	375720.45	59844.696	-0.3624476	-0.10536935	-0.10536928	-400.25207	1199.6694	0	597.042117360491
25.118864	9.1201084e-8	0.02	342663.34	54580.344	-0.35998525	-0.10536937	-0.10536929	-365.0662	1094.1152	0	599.3556559121504
25.118864	1.e-7	0.02	312514.89	49779.189	-0.35752291	-0.10536938	-0.10536931	-332.97608	997.84853	0	601.6691848802433
25.118864	1.0964782e-7	0.02	285019.18	45400.476	-0.35506056	-0.1053694	-0.10536932	-303.70933	910.05232	0	603.9827234319026
25.118864	1.2022644e-7	0.02	259942.79	41407.033	-0.35259822	-0.10536943	-0.10536933	-277.01752	829.98122	0	606.2962525879087
25.118864	1.3182567e-7	0.02	237072.85	37764.962	-0.35013587	-0.10536945	-0.10536935	-252.67407	756.9555	0	608.6097909516549
25.118864	1.4454398e-7	0.02	216215.22	34443.347	-0.34767353	-0.10536948	-0.10536936	-230.47238	690.35528	0	610.923320107661
25.118864	1.5848932e-7	0.02	197192.83	31413.989	-0.34521118	-0.1053695	-0.10536938	-210.22398	629.61513	0	613.2368584714073
25.118864	1.7378008e-7	0.02	179844.21	28651.173	-0.34274884	-0.10536954	-0.1053694	-191.75699	574.21946	0	615.5503874395
25.118864	1.9054607e-7	0.02	164022.08	26131.448	-0.34028649	-0.10536957	-0.10536942	-174.91469	523.69802	0	617.8639258032465
25.118864	2.0892961e-7	0.02	149592.13	23833.423	-0.33782415	-0.10536961	-0.10536945	-159.55411	477.62191	0	620.1774545834264
25.118864	2.2908677e-7	0.02	136431.85	21737.591	-0.3353618	-0.10536965	-0.10536947	-145.54488	435.6	0	622.4909929471726
25.118864	2.5118864e-7	0.02	124429.54	19826.161	-0.33289945	-0.1053697	-0.1053695	-132.76809	397.27556	0	624.804531123006
25.118864	2.7542287e-7	0.02	113483.3	18082.908	-0.33043711	-0.10536975	-0.10536953	-121.11531	362.32326	0	627.1180599031859
25.118864	3.0199517e-7	0.02	103500.21	16493.035	-0.32797476	-0.1053698	-0.10536957	-110.48762	330.44638	0	629.431597891106
25.118864	3.3113112e-7	0.02	94395.52	15043.045	-0.32551242	-0.10536986	-0.1053696	-100.79484	301.37432	0	631.7451266712857
25.118864	3.6307805e-7	0.02	86091.948	13720.631	-0.32305007	-0.10536993	-0.10536964	-91.954705	274.86029	0	634.0586646592059
25.118864	3.9810717e-7	0.02	78519.	12514.566	-0.32058772	-0.10537	-0.10536969	-83.892188	250.6792	0	636.3722024592131
25.118864	4.3651583e-7	0.02	71612.389	11414.614	-0.31812537	-0.10537008	-0.10536974	-76.538869	228.62579	0	638.6857402592203
25.118864	4.7863009e-7	0.02	65313.486	10411.438	-0.31566302	-0.10537016	-0.10536979	-69.832345	208.51284	0	640.9992780592273
25.118864	5.2480746e-7	0.02	59568.818	9496.5221	-0.31320068	-0.10537026	-0.10536985	-63.715707	190.16961	0	643.3128062756681
25.118864	5.7543994e-7	0.02	54329.617	8662.1008	-0.31073833	-0.10537036	-0.10536992	-58.137048	173.44039	0	645.6263436998491
25.118864	6.3095734e-7	0.02	49551.41	7901.0916	-0.30827598	-0.10537048	-0.10536999	-53.049035	158.18316	0	647.93988112403
25.118864	6.9183097e-7	0.02	45193.633	7207.0348	-0.30581363	-0.1053706	-0.10537007	-48.408496	144.26839	0	650.2534183602979
25.118864	7.5857758e-7	0.02	41219.293	6574.0393	-0.30335128	-0.10537074	-0.10537015	-44.176056	131.57798	0	652.5669555965659
25.118864	8.3176377e-7	0.02	37594.653	5996.7326	-0.30088893	-0.10537089	-0.10537025	-40.31581	120.00419	0	654.8804924570078
25.118864	9.1201084e-7	0.02	34288.941	5470.2144	-0.29842657	-0.10537106	-0.10537035	-36.795005	109.44876	0	657.1940387131032
25.118864	1.e-6	0.02	31274.096	4990.016	-0.29596422	-0.10537124	-0.10537046	-33.583778	99.822096	0	659.5075753856318
25.118864	1.0964782e-6	0.02	28524.524	4552.0617	-0.29350187	-0.10537144	-0.10537059	-30.654886	91.042473	0	661.8211116823343
25.118864	1.2022644e-6	0.02	26016.886	4152.6347	-0.29103951	-0.10537166	-0.10537072	-27.983489	83.035364	0	664.1346573746904
25.118864	1.3182567e-6	0.02	23729.892	3788.3447	-0.28857716	-0.1053719	-0.10537087	-25.546929	75.732793	0	666.4481932955669
25.118864	1.4454398e-6	0.02	21644.129	3456.1002	-0.2861148	-0.10537216	-0.10537103	-23.324543	69.072768	0	668.7617384241838
25.118864	1.5848932e-6	0.02	19741.891	3153.0816	-0.28365244	-0.10537245	-0.10537121	-21.297487	62.998755	0	671.0752831769745
25.118864	1.7378008e-6	0.02	18007.028	2876.7171	-0.28119008	-0.10537276	-0.10537141	-19.448573	57.459188	0	673.3888275539391
25.118864	1.9054607e-6	0.02	16424.815	2624.6617	-0.27872772	-0.10537311	-0.10537163	-17.762126	52.407043	0	675.7023715550777
25.118864	2.0892961e-6	0.02	14981.82	2394.7762	-0.27626536	-0.10537349	-0.10537186	-16.223852	47.799432	0	678.0159153683029
25.118864	2.2908677e-6	0.02	13665.792	2185.1101	-0.27380299	-0.1053739	-0.10537212	-14.820713	43.597241	0	680.3294680134426
25.118864	2.5118864e-6	0.02	12465.561	1993.8843	-0.27134063	-0.10537436	-0.1053724	-13.540818	39.764798	0	682.6430108871027
25.118864	2.7542287e-6	0.02	11370.937	1819.4762	-0.26887826	-0.10537486	-0.10537271	-12.373323	36.269568	0	684.9565625926772
25.118864	3.0199517e-6	0.02	10372.628	1660.4059	-0.26641589	-0.10537541	-0.10537306	-11.308339	33.08188	0	687.2701135465991
25.118864	3.3113112e-6	0.02	9462.1592	1515.324	-0.26395351	-0.10537601	-0.10537343	-10.336844	30.174674	0	689.5836735203484
25.118864	3.6307805e-6	0.02	8631.8019	1382.9997	-0.26149113	-0.10537666	-0.10537384	-9.4506147	27.52327	0	691.8972327424456
25.118864	3.9810717e-6	0.02	7874.5072	1262.3103	-0.25902876	-0.10537739	-0.10537429	-8.6421469	25.105162	0	694.2107818172369
25.118864	4.3651583e-6	0.02	7183.8461	1152.2322	-0.25656637	-0.10537818	-0.10537478	-7.9045988	22.899821	0	696.524348931683
25.118864	4.7863009e-6	0.02	6553.9557	1051.8317	-0.25410398	-0.10537905	-0.10537533	-7.2317302	20.888526	0	698.8379149186507
25.118864	5.2480746e-6	0.02	5979.4889	960.25725	-0.25164159	-0.10538	-0.10537592	-6.6178503	19.054203	0	701.1514801539661
25.118864	5.7543994e-6	0.02	5455.5689	876.73223	-0.2491792	-0.10538104	-0.10537657	-6.0577683	17.381281	0	703.4650442618031
25.118864	6.3095734e-6	0.02	4977.7482	800.54842	-0.24671679	-0.10538219	-0.10537728	-5.5467509	15.855557	0	705.7786260334685
25.118864	6.9183097e-6	0.02	4541.9705	731.05985	-0.24425439	-0.10538344	-0.10537806	-5.0804808	14.464081	0	708.092197094089
25.118864	7.5857758e-6	0.02	4144.5366	667.6774	-0.24179197	-0.10538482	-0.10537892	-4.6550207	13.19504	0	710.405785442712
25.118864	8.3176377e-6	0.02	3782.0725	609.86384	-0.23932956	-0.10538633	-0.10537986	-4.2667799	12.03766	0	712.7193628923769
25.118864	9.1201084e-6	0.02	3451.5014	557.12913	-0.23686713	-0.10538799	-0.10538089	-3.9124834	10.982118	0	715.0329574421312
25.118864	0.00001	0.02	3150.0169	509.0264	-0.23440469	-0.1053898	-0.10538202	-3.5891444	10.019451	0	717.3465595084084
25.118864	0.000010964782	0.02	2875.0598	465.14808	-0.23194225	-0.10539179	-0.10538326	-3.2940391	9.1414893	0	719.6601595076417
25.118864	0.000012022644	0.02	2624.2946	425.12242	-0.22948243	-0.10540892	-0.10539957	-3.0246847	8.3407754	0	721.9710146606614
25.118864	0.000013182567	0.02	2395.5952	388.61054	-0.22702022	-0.10541276	-0.1054025	-2.7788127	7.6105182	0	724.2843668025555
25.118864	0.000014454398	0.02	2187.0187	355.30319	-0.22455802	-0.10541696	-0.10540572	-2.5543581	6.9445156	0	726.5977040993168
25.118864	0.000015848932	0.02	1996.7948	324.91842	-0.22209583	-0.10542156	-0.10540924	-2.3494365	6.337114	0	728.9110263630329
25.118864	0.000017378008	0.02	1823.3084	297.19908	-0.21963367	-0.10542662	-0.1054131	-2.1623291	5.783157	0	731.2243140507437
25.118864	0.000019054607	0.02	1665.087	271.91064	-0.21717151	-0.10543215	-0.10541733	-1.9914685	5.2779423	0	733.5375947856711
25.118864	0.000020892961	0.02	1520.7873	248.8392	-0.21470938	-0.10543822	-0.10542197	-1.8354251	4.8171808	0	735.8508396292021
25.118864	0.000022908677	0.02	1389.1844	227.78969	-0.21224727	-0.10544488	-0.10542706	-1.6928952	4.3969614	0	738.1640572253381
25.118864	0.000025118864	0.02	1269.1611	208.5842	-0.20978518	-0.10545217	-0.10543264	-1.5626898	4.0137167	0	740.4772468224264
25.118864	0.000027542287	0.02	1159.6985	191.06048	-0.20732311	-0.10546017	-0.10543875	-1.4437244	3.6641932	0	742.7904076688152
25.118864	0.000030199517	0.02	1059.8674	175.07056	-0.20486107	-0.10546894	-0.10544545	-1.3350101	3.3454239	0	745.1035292413724
25.118864	0.000033113112	0.02	968.82032	160.47947	-0.20239906	-0.10547855	-0.1054528	-1.2356448	3.0547029	0	747.4166104126194
25.118864	0.000036307805	0.02	885.78434	147.16413	-0.19993708	-0.10548909	-0.10546085	-1.144806	2.7895619	0	749.729650242991
25.118864	0.000039810717	0.02	810.05459	135.01229	-0.19747514	-0.10550064	-0.10546968	-1.0617434	2.5477505	0	752.0426378335292
25.118864	0.000043651583	0.02	740.98819	123.92157	-0.19501323	-0.1055133	-0.10547935	-0.9857728	2.3272157	0	754.3555814524088
25.118864	0.000047863009	0.02	677.99882	113.79861	-0.19255137	-0.10552717	-0.10548995	-0.91627018	2.1260855	0	756.6684606171058
25.118864	0.000052480746	0.02	620.55178	104.55826	-0.19008955	-0.10554238	-0.10550157	-0.85266645	1.9426524	0	758.9812830320556
25.118864	0.000057543994	0.02	568.1594	96.122847	-0.18762778	-0.10555905	-0.1055143	-0.79444258	1.7753593	0	761.2940376103869
25.118864	0.000063095734	0.02	520.3769	88.421552	-0.18516607	-0.10557732	-0.10552825	-0.74112518	1.6227859	0	763.6067128894027
25.118864	0.000069183097	0.02	476.79867	81.389781	-0.18270442	-0.10559734	-0.10554353	-0.69228256	1.4836373	0	765.9193068020593
25.118864	0.000075857758	0.02	437.05476	74.968621	-0.18024283	-0.10561928	-0.10556028	-0.64752099	1.356732	0	768.2318167175736
25.118864	0.000083176377	0.02	400.8078	69.104347	-0.17778131	-0.10564332	-0.10557863	-0.60648141	1.2409928	0	770.5442307974222
25.118864	0.000091201084	0.02	367.75007	63.747955	-0.17531987	-0.10566966	-0.10559873	-0.56883631	1.1354371	0	772.8565368272552
25.118864	0.0001	0.02	337.60095	58.854759	-0.17285852	-0.10569852	-0.10562075	-0.53428703	1.0391689	0	775.1687222168978
25.118864	0.00010964782	0.02	310.10451	54.384001	-0.17039726	-0.10573014	-0.10564487	-0.50256118	0.95137105	0	777.4807835839139
25.118864	0.00012022644	0.02	285.02732	50.298511	-0.1679361	-0.10576478	-0.10567128	-0.47341035	0.87129812	0	779.792707962302
25.118864	0.00013182567	0.02	262.15651	46.56439	-0.16547505	-0.10580272	-0.1057002	-0.44660798	0.79827042	0	782.1044818223211
25.118864	0.00014454398	0.02	241.29792	43.150719	-0.16301412	-0.10584427	-0.10573186	-0.42194743	0.73166798	0	784.416091446317
25.118864	0.00015848932	0.02	222.2745	40.029303	-0.16055333	-0.10588978	-0.10576652	-0.39924028	0.67092545	0	786.7275131572428
25.118864	0.00017378008	0.02	204.92474	37.174424	-0.15809268	-0.10593961	-0.10580447	-0.37831466	0.61552715	0	789.0387415056197
25.118864	0.00019054607	0.02	189.10137	34.562631	-0.15563218	-0.10599418	-0.10584599	-0.35901383	0.56500283	0	791.3497618342279
25.118864	0.00020892961	0.02	174.67006	32.172532	-0.15317185	-0.10605391	-0.10589142	-0.34119485	0.51892358	0	793.6605489627166
25.118864	0.00022908677	0.02	161.50831	29.984621	-0.1507117	-0.10611928	-0.10594112	-0.32472736	0.47689824	0	795.9710867305612
25.118864	0.00025118864	0.02	149.50438	27.981106	-0.14825176	-0.10619083	-0.10599548	-0.30949246	0.43857004	0	798.2813396221916
25.118864	0.00027542287	0.02	138.55639	26.145761	-0.14579203	-0.10626912	-0.10605492	-0.29538173	0.40361363	0	800.5912997452591
25.118864	0.00030199517	0.02	128.5714	24.463787	-0.14333253	-0.10635476	-0.1061199	-0.28229628	0.37173226	0	802.9009396644552
25.118864	0.00033113112	0.02	119.46464	22.921689	-0.14087328	-0.10644843	-0.10619091	-0.27014593	0.34265529	0	805.2102313807325
25.118864	0.00036307805	0.02	111.15881	21.507157	-0.13841431	-0.10655085	-0.10626849	-0.25884844	0.3161359	0	807.5191365598249
25.118864	0.00039810717	0.02	103.58341	20.208965	-0.13595563	-0.10666282	-0.10635322	-0.24832879	0.29194896	0	809.8276349071209
25.118864	0.00043651583	0.02	96.674149	19.016875	-0.13349727	-0.10678519	-0.10644572	-0.2385186	0.26988916	0	812.1356865850494
25.118864	0.00047863009	0.02	90.372368	17.92155	-0.13103924	-0.10691888	-0.10654666	-0.22935547	0.24976924	0	814.4432696077813
25.118864	0.00052480746	0.02	84.624586	16.914472	-0.12858157	-0.1070649	-0.10665677	-0.22078251	0.23141842	0	816.750342070702
25.118864	0.00057543994	0.02	79.382022	15.987875	-0.1261243	-0.10722432	-0.10677681	-0.21274786	0.21468091	0	819.0568521098043
25.118864	0.00063095734	0.02	74.600183	15.134675	-0.12366743	-0.1073983	-0.10690763	-0.20520419	0.19941465	0	821.3627837524771
25.118864	0.00069183097	0.02	70.238494	14.348411	-0.121211	-0.10758811	-0.1070501	-0.19810837	0.18549007	0	823.6680830676694
25.118864	0.00075857758	0.02	66.259946	13.623192	-0.11875503	-0.10779508	-0.10720516	-0.19142105	0.17278897	0	825.9727136002454
25.118864	0.00083176377	0.02	62.630788	12.953642	-0.11629954	-0.10802065	-0.10737382	-0.18510634	0.16120356	0	828.2766375796783
25.118864	0.00091201084	0.02	59.320239	12.334861	-0.11384456	-0.10826636	-0.10755714	-0.17913154	0.15063551	0	830.579806900222
25.118864	0.001	0.02	56.300226	11.762377	-0.11139011	-0.10853387	-0.10775624	-0.1734668	0.14099514	0	832.8821817243058
25.118864	0.0010964782	0.02	53.545149	11.232113	-0.1089362	-0.10882492	-0.10797228	-0.16808492	0.13220066	0	835.1837308583599
25.118864	0.0012022644	0.02	51.031664	10.740351	-0.10648285	-0.10914138	-0.1082065	-0.1629611	0.12417745	0	837.484412209857
25.118864	0.0013182567	0.02	48.738483	10.283699	-0.10403006	-0.10948524	-0.10846018	-0.15807269	0.11685745	0	839.7842017259236
25.118864	0.0014454398	0.02	46.6462	9.8590623	-0.10157783	-0.10985856	-0.10873465	-0.15339909	0.11017858	0	842.0830744141219
25.118864	0.0015848932	0.02	44.737121	9.4636198	-0.099126149	-0.11026357	-0.10903126	-0.14892147	0.10408422	0	844.381015241406
25.118864	0.0017378008	0.02	42.995122	9.0947973	-0.096675003	-0.11070256	-0.10935143	-0.14462268	0.098522705	0	846.6780106780349
25.118864	0.0019054607	0.02	41.405506	8.7502472	-0.094224354	-0.11117797	-0.10969655	-0.14048707	0.09344692	0	848.9740703075752
25.118864	0.0020892961	0.02	39.954887	8.4278279	-0.091774147	-0.11169231	-0.11006807	-0.13650037	0.088813884	0	851.269218558726
25.118864	0.0022908677	0.02	38.631076	8.125586	-0.089324311	-0.11224821	-0.11046741	-0.13264956	0.084584391	0	853.563495456971
25.118864	0.0025118864	0.02	37.422977	7.8417396	-0.086874748	-0.11284839	-0.11089596	-0.12892276	0.08072268	0	855.8569669597983
25.118864	0.0027542287	0.02	36.320498	7.5746629	-0.084425332	-0.11349565	-0.11135508	-0.12530914	0.07719613	0	858.1497258962642
25.118864	0.0030199517	0.02	35.314465	7.3228731	-0.081975902	-0.11419287	-0.11184609	-0.12179878	0.073974992	0	860.4418987318645
25.118864	0.0033113112	0.02	34.39655	7.085017	-0.079526261	-0.11494298	-0.1123702	-0.11838267	0.071032131	0	862.7336478234921
25.118864	0.0036307805	0.02	33.559198	6.8598602	-0.077076165	-0.11574899	-0.11292852	-0.11505252	0.068342805	0	865.0251815667415
25.118864	0.0039810717	0.02	32.795566	6.6462761	-0.074625319	-0.1166139	-0.11352202	-0.1118008	0.065884456	0	867.3167589058232
25.118864	0.0043651583	0.02	32.09947	6.4432368	-0.072173372	-0.11754079	-0.11415154	-0.10862057	0.063636517	0	869.6086938434769
25.118864	0.0047863009	0.02	31.465327	6.249804	-0.069719912	-0.11853271	-0.11481768	-0.1055055	0.061580245	0	871.9013622058429
25.118864	0.0052480746	0.02	30.888111	6.0651211	-0.067264456	-0.11959271	-0.11552087	-0.10244977	0.059698564	0	874.1952097227233
25.118864	0.0057543994	0.02	30.363309	5.8884059	-0.064806451	-0.12072383	-0.11626125	-0.099448011	0.057975919	0	876.4907533429732
25.118864	0.0063095734	0.02	29.886874	5.7189442	-0.062345269	-0.12192905	-0.11703869	-0.096495299	0.056398148	0	878.7885855565029
25.118864	0.0069183097	0.02	29.455191	5.5560833	-0.059880207	-0.12321129	-0.11785275	-0.093587069	0.054952364	0	881.0893751459282
25.118864	0.0075857758	0.02	29.065028	5.3992265	-0.057410496	-0.12457339	-0.11870264	-0.090719095	0.053626841	0	883.3938594821359
25.118864	0.0083176377	0.02	28.713495	5.2478283	-0.054935307	-0.12601805	-0.11958715	-0.087887452	0.052410919	0	885.7028402022823
25.118864	0.0091201084	0.02	28.397998	5.1013893	-0.052453778	-0.12754783	-0.12050467	-0.085088483	0.051294905	0	888.017157465704
25.118864	0.01	0.02	28.116185	4.9594522	-0.049965038	-0.12916504	-0.12145309	-0.082318772	0.050269989	0	890.3376692834781
25.118864	0.010964782	0.02	27.86588	4.8215976	-0.047468263	-0.13087175	-0.12242976	-0.079575126	0.049328154	0	892.6651996544167
25.118864	0.012022644	0.02	27.645014	4.6874406	-0.044962733	-0.13266963	-0.12343142	-0.076854556	0.048462097	0	895.0004863252325
25.118864	0.013182567	0.02	27.45153	4.5566275	-0.042447931	-0.13455986	-0.12445412	-0.074154278	0.047665143	0	897.3440892768742
25.118864	0.014454398	0.02	27.283286	4.4288323	-0.039923651	-0.13654297	-0.12549309	-0.071471712	0.046931162	0	899.6962916943385
25.118864	0.015848932	0.02	27.137924	4.3037544	-0.037390155	-0.1386187	-0.12654269	-0.068804496	0.046254476	0	902.0569533944749
25.118864	0.017378008	0.02	27.012731	4.1811155	-0.034848351	-0.14078576	-0.12759621	-0.066150517	0.045629759	0	904.4253473416157
25.118864	0.019054607	0.02	26.904482	4.0606575	-0.032300005	-0.14304161	-0.12864583	-0.063507952	0.045051932	0	906.7999612113734
25.118864	0.020892961	0.02	26.809277	3.9421397	-0.029747971	-0.14538229	-0.12968249	-0.060875322	0.044516041	0	909.1782837334806
25.118864	0.022908677	0.02	26.722387	3.8253372	-0.027196438	-0.14780219	-0.13069583	-0.058251577	0.044017123	0	911.5565737466269
25.118864	0.025118864	0.02	26.638131	3.7100384	-0.024651135	-0.15029403	-0.13167431	-0.055636169	0.043550069	0	913.9296653326046
25.118864	0.027542287	0.02	26.549828	3.5960435	-0.022119488	-0.15284889	-0.13260539	-0.05302916	0.043109473	0	916.2908169221145
25.118864	0.030199517	0.02	26.449861	3.4831627	-0.019610629	-0.15545643	-0.13347589	-0.050431314	0.042689502	0	918.6316960738066
25.118864	0.033113112	0.02	26.329927	3.3712154	-0.017135205	-0.15810543	-0.13427259	-0.047844175	0.042283779	0	920.942547656478
25.118864	0.036307805	0.02	26.181523	3.2600298	-0.014704894	-0.16078436	-0.13498293	-0.045270121	0.041885334	0	923.2126354447876
25.118864	0.039810717	0.02	25.996762	3.1494432	-0.012331498	-0.16348216	-0.13559582	-0.042712338	0.041486635	0	925.431079084069
25.118864	0.043651583	0.02	25.769538	3.0393049	-0.01002558	-0.16618887	-0.13610217	-0.040174709	0.041079765	0	927.5881247585108
25.118864	0.047863009	0.02	25.497093	2.9294794	-0.0077945475	-0.16889587	-0.13649513	-0.037661566	0.040656772	0	929.6769413582359
25.118864	0.052480746	0.02	25.181905	2.8198526	-0.0056402271	-0.17159556	-0.13676955	-0.035177272	0.040210241	0	931.6959094484072
25.118864	0.057543994	0.02	24.833805	2.7103381	-0.0035560221	-0.1742804	-0.13692093	-0.032725604	0.039734088	0	933.6513116206503
25.118864	0.063095734	0.02	24.47211	2.6008844	-0.0015238485	-0.17694156	-0.13694383	-0.030308928	0.039224568	0	935.5602411994646
25.118864	0.069183097	0.02	24.127504	2.4914799	0.00048887663	-0.17956809	-0.13683083	-0.027927172	0.038681441	0	937.4534514083779
25.118864	0.075857758	0.02	23.843388	2.3821555	0.0025318567	-0.18214732	-0.13657279	-0.02557664	0.038109235	0	939.3778136017486
25.118864	0.083176377	0.02	23.676385	2.2729861	0.0046737891	-0.18466767	-0.13616143	-0.023248735	0.037518544	0	941.3980290588786
25.118864	0.091201084	0.02	23.695762	2.1640904	0.0070031316	-0.18712403	-0.13559466	-0.02092868	0.036927319	0	943.5972489092295
25.118864	0.1	0.02	23.98163	2.0556331	0.0096275066	-0.1895257	-0.13488434	-0.018594355	0.036362088	0	946.0763685658238
25.118864	0.10964782	0.02	24.622105	1.9478322	0.012671785	-0.19190562	-0.13406549	-0.016215371	0.035859062	0	948.9520543279542
25.118864	0.12022644	0.02	25.710098	1.8409699	0.016275494	-0.19432973	-0.13320561	-0.01375244	0.035465076	0	952.3541327049006
25.118864	0.13182567	0.02	27.341027	1.7354094	0.020590879	-0.19690508	-0.13241275	-0.011157031	0.035238372	0	956.4236177984784
25.118864	0.14454398	0.02	29.613076	1.6316137	0.025783513	-0.19978476	-0.13184048	-0.0083711429	0.035249329	0	961.313190481367
25.118864	0.15848932	0.02	32.575149	1.5303267	0.031977505	-0.20324599	-0.13176599	-0.0053282604	0.035584347	0	967.1342505072028
25.118864	0.17378008	0.02	36.487841	1.4324687	0.03953382	-0.20759517	-0.13249517	-0.0019508929	0.036345524	0	974.2202000096497
25.118864	0.19054607	0.02	41.411504	1.338126	0.048611723	-0.21271332	-0.13390808	0.0018583902	0.037632599	0	982.7229326935375
25.118864	0.20892961	0.02	47.500207	1.2479868	0.059485004	-0.21876638	-0.13616927	0.0062061068	0.039570482	0	992.8966000464753
25.118864	0.22908677	0.02	54.92136	1.1627253	0.072457086	-0.22590144	-0.1394241	0.011214596	0.042299544	0	1005.0235563012715
25.118864	0.25118864	0.02	63.843801	1.0829436	0.087848936	-0.23423657	-0.14378854	0.017022808	0.045974826	0	1019.4031917017459
25.118864	0.27542287	0.02	74.418624	1.0091072	0.10597772	-0.24385124	-0.14933965	0.023785553	0.050763589	0	1036.3320563735795
25.118864	0.30199517	0.02	86.75587	0.94149044	0.12712897	-0.2547788	-0.1561081	0.031670635	0.056840966	0	1056.0778499609028
25.118864	0.33113112	0.02	100.90286	0.88014396	0.15152835	-0.26700336	-0.16407505	0.040853724	0.064383984	0	1078.852952567082
25.118864	0.36307805	0.02	116.83064	0.82489586	0.17932036	-0.28046245	-0.17317486	0.051511454	0.073564681	0	1104.794364846584
25.118864	0.39810717	0.02	134.43303	0.77538492	0.21055988	-0.29505575	-0.18330377	0.063813787	0.08454336	0	1133.9555999318304
25.118864	0.43651583	0.02	153.53857	0.73111615	0.24521806	-0.3106577	-0.19433264	0.077916934	0.097463001	0	1166.3119780718603
25.118864	0.47863009	0.02	173.93139	0.69152335	0.28319933	-0.32713129	-0.20612064	0.093957929	0.1124455	0	1201.776351385939
25.118864	0.52480746	0.02	195.3751	0.65602496	0.324364	-0.34434005	-0.21852732	0.11205145	0.12958999	0	1240.2201112293928
25.118864	0.57543994	0.02	217.63446	0.62406545	0.36855045	-0.36215677	-0.23142131	0.13228889	0.14897301	0	1281.493873664355
25.118864	0.63095734	0.02	240.4916	0.59514072	0.41559354	-0.38046876	-0.24468558	0.15473935	0.17065017	0	1325.4446780155859
25.118864	0.69183097	0.02	263.75607	0.56880967	0.4653376	-0.39918013	-0.25821977	0.17945183	0.19465871	0	1371.9281480406205
25.118864	0.75857758	0.02	287.26952	0.544696	0.51764429	-0.41821229	-0.27194059	0.20645824	0.22102044	0	1420.8158693969003
25.118864	0.83176377	0.02	310.90623	0.52248412	0.5723965	-0.43750323	-0.28578125	0.23577655	0.24974493	0	1471.9990646576812
25.118864	0.91201084	0.02	334.57129	0.50191198	0.62949933	-0.45700652	-0.29969033	0.26741396	0.28083236	0	1525.3895353202543
25.118864	1.	0.02	358.1972	0.48276298	0.68887948	-0.47669014	-0.31363067	0.30136973	0.31427619	0	1580.919109529432
25.118864	1.0964782	0.02	381.74011	0.46485806	0.75048364	-0.49653533	-0.32757821	0.3376377	0.35006548	0	1638.5381511752535
25.118864	1.2022644	0.02	405.17594	0.44804861	0.81427646	-0.51653547	-0.34152088	0.37620841	0.38818679	0	1698.2136734336705
25.118864	1.3182567	0.02	428.49681	0.43221049	0.88023854	-0.53669493	-0.3554574	0.41707084	0.4286258	0	1759.9274727897673
25.118864	1.4454398	0.02	451.70794	0.41723913	0.94836448	-0.55702774	-0.36939604	0.4602139	0.4713686	0	1823.6743201865436
25.118864	1.5848932	0.02	474.82486	0.40304574	1.0186611	-0.5775563	-0.38335321	0.50562751	0.51640276	0	1889.4603150943396
25.118864	1.7378008	0.02	497.87126	0.38955428	1.0911459	-0.59830981	-0.39735197	0.55330354	0.5637181	0	1957.3014665792398
25.118864	1.9054607	0.02	520.87704	0.37669927	1.1658458	-0.61932284	-0.41142056	0.6032365	0.61330739	0	2027.2225370739582
25.118864	2.0892961	0.02	543.87687	0.36442398	1.242796	-0.64063386	-0.42559095	0.65542407	0.66516678	0	2099.255998520728
25.118864	2.2908677	0.02	566.9089	0.35267916	1.322039	-0.66228396	-0.43989754	0.70986751	0.71929624	0	2173.4411360259655
25.118864	2.5118864	0.02	590.01386	0.3414219	1.4036242	-0.68431574	-0.45437601	0.76657197	0.77569973	0	2249.8236936441253
25.118864	2.7542287	0.02	613.23422	0.33061478	1.4876065	-0.7067724	-0.46906248	0.82554666	0.8343855	0	2328.4545747709135
25.118864	3.0199517	0.02	636.61359	0.32022511	1.5740467	-0.7296971	-0.48399281	0.88680501	0.89536609	0	2409.390231123343
25.118864	3.3113112	0.02	660.1963	0.31022425	1.6630102	-0.75313245	-0.49920208	0.9503648	0.9586585	0	2492.6914510762513
25.118864	3.6307805	0.02	684.02694	0.3005871	1.7545675	-0.77712025	-0.51472435	1.0162481	1.0242842	0	2578.4238339548992
25.118864	3.9810717	0.02	708.15018	0.29129155	1.8487931	-0.80170129	-0.53059245	1.0844815	1.092269	0	2666.656760459253
25.118864	4.3651583	0.02	732.61052	0.28231806	1.945766	-0.82691535	-0.54683794	1.1550958	1.1626434	0	2757.463863198312
25.118864	4.7863009	0.02	757.45214	0.27364929	2.0455689	-0.85280118	-0.56349116	1.2281262	1.2354421	0	2850.922274098269
25.118864	5.2480746	0.02	782.71885	0.26526976	2.1482887	-0.87939663	-0.58058123	1.3036122	1.3107041	0	2947.113094185177
25.118864	5.7543994	0.02	808.45401	0.2571656	2.2540157	-0.90673874	-0.59813624	1.3815977	1.3884729	0	3046.1206383623294
25.118864	6.3095734	0.02	834.70053	0.24932425	2.3628444	-0.93486389	-0.61618337	1.4621306	1.4687962	0	3148.0331848075753
25.118864	6.9183097	0.02	861.50082	0.24173433	2.4748725	-0.96380794	-0.63474897	1.5452633	1.5517259	0	3252.942033904671
25.118864	7.5857758	0.02	888.89691	0.23438544	2.5902016	-0.9936064	-0.65385877	1.6310519	1.6373181	0	3360.942161992847
25.118864	8.3176377	0.02	916.9304	0.22726799	2.708937	-1.0242946	-0.67353801	1.7195571	1.725633	0	3472.1320310108713
25.118864	9.1201084	0.02	945.64254	0.22037314	2.8311876	-1.0559077	-0.69381153	1.8108432	1.8167348	0	3586.6134928492897
25.118864	10.	0.02	975.07433	0.21369264	2.957066	-1.088481	-0.71470394	1.9049789	1.9106919	0	3704.491880112451