25.118864	1.e-12	0.4	3.1248977e10	4.9763189e9	-0.67843248	-0.012163013	-0.012163013	-3.3258972e7	9.9780715e7	0	297.5625212508722
25.118864	1.0964782e-12	0.4	2.8499406e10	4.5384568e9	-0.67597014	-0.012163013	-0.012163013	-3.0332543e7	9.1001094e7	0	299.8760505947912
25.118864	1.2022644e-12	0.4	2.5991767e10	4.1391218e9	-0.67350779	-0.012163013	-0.012163013	-2.7663608e7	8.2993984e7	0	302.18958933436363
25.118864	1.3182567e-12	0.4	2.3704773e10	3.774924e9	-0.67104545	-0.012163012	-0.012163012	-2.5229511e7	7.5691414e7	0	304.50311905410877
25.118864	1.4454398e-12	0.4	2.161901e10	3.4427715e9	-0.6685831	-0.012163013	-0.012163013	-2.3009587e7	6.9031389e7	0	306.8166574178552
25.118864	1.5848932e-12	0.4	1.9716772e10	3.139845e9	-0.66612076	-0.012163012	-0.012163012	-2.0984993e7	6.2957376e7	0	309.1301871376004
25.118864	1.7378008e-12	0.4	1.7981909e10	2.8635727e9	-0.66365842	-0.012163013	-0.012163013	-1.9138541e7	5.7417809e7	0	311.44371610569317
25.118864	1.9054607e-12	0.4	1.6399696e10	2.6116093e9	-0.66119607	-0.012163013	-0.012163013	-1.7454557e7	5.2365664e7	0	313.75725484526566
25.118864	2.0892961e-12	0.4	1.4956701e10	2.381816e9	-0.65873373	-0.012163013	-0.012163013	-1.5918745e7	4.7758053e7	0	316.0707841891846
25.118864	2.2908677e-12	0.4	1.3640673e10	2.172242e9	-0.65627139	-0.012163012	-0.012163012	-1.4518068e7	4.3555863e7	0	318.3843139089298
25.118864	2.5118864e-12	0.4	1.2440442e10	1.9811083e9	-0.65380904	-0.012163013	-0.012163013	-1.3240636e7	3.9723418e7	0	320.6978522726762
25.118864	2.7542287e-12	0.4	1.1345818e10	1.8067922e9	-0.6513467	-0.012163013	-0.012163013	-1.2075603e7	3.6228188e7	0	323.0113816165952
25.118864	3.0199517e-12	0.4	1.0347509e10	1.6478141e9	-0.64888435	-0.012163013	-0.012163012	-1.1013081e7	3.30405e7	0	325.32492073199376
25.118864	3.3113112e-12	0.4	9.4370402e9	1.5028243e9	-0.64642201	-0.012163012	-0.012163012	-1.004405e7	3.0133295e7	0	327.63845007591283
25.118864	3.6307805e-12	0.4	8.606683e9	1.3705921e9	-0.64395967	-0.012163013	-0.012163013	-9.1602821e6	2.7481891e7	0	329.95197904400567
25.118864	3.9810717e-12	0.4	7.8493881e9	1.2499948e9	-0.64149732	-0.012163013	-0.012163013	-8.3542765e6	2.5063782e7	0	332.2655177835781
25.118864	4.3651583e-12	0.4	7.158727e9	1.1400088e9	-0.63903498	-0.012163013	-0.012163013	-7.6191908e6	2.2858441e7	0	334.5790471274971
25.118864	4.7863009e-12	0.4	6.5288367e9	1.0397004e9	-0.63657264	-0.012163013	-0.012163013	-6.9487847e6	2.0847146e7	0	336.89257647141613
25.118864	5.2480746e-12	0.4	5.9543699e9	9.4821805e8	-0.63411029	-0.012163013	-0.012163013	-6.3373671e6	1.9012824e7	0	339.2061152109887
25.118864	5.7543994e-12	0.4	5.4304499e9	8.6478515e8	-0.63164795	-0.012163012	-0.012163012	-5.7797475e6	1.7339901e7	0	341.5196449307339
25.118864	6.3095734e-12	0.4	4.9526291e9	7.8869343e8	-0.6291856	-0.012163012	-0.012163012	-5.2711924e6	1.5814178e7	0	343.8331836703063
25.118864	6.9183097e-12	0.4	4.5168514e9	7.1929695e8	-0.62672326	-0.012163013	-0.012163013	-4.8073846e6	1.4422701e7	0	346.14671263839915
25.118864	7.5857758e-12	0.4	4.1194175e9	6.5600662e8	-0.62426092	-0.012163013	-0.012163012	-4.384387e6	1.315366e7	0	348.46024235814434
25.118864	8.3176377e-12	0.4	3.7569534e9	5.9828515e8	-0.62179857	-0.012163013	-0.012163013	-3.9986085e6	1.1996281e7	0	350.7737807218906
25.118864	9.1201084e-12	0.4	3.4263822e9	5.4564255e8	-0.61933623	-0.012163012	-0.012163012	-3.6467744e6	1.0940738e7	0	353.08731044163574
25.118864	1.e-11	0.4	3.1248977e9	4.9763191e8	-0.61687389	-0.012163013	-0.012163013	-3.3258978e6	9.9780715e6	0	355.40083940972863
25.118864	1.0964782e-11	0.4	2.8499406e9	4.5384571e8	-0.61441154	-0.012163012	-0.012163012	-3.0332549e6	9.1001095e6	0	357.71437852512736
25.118864	1.2022644e-11	0.4	2.5991767e9	4.139122e8	-0.6119492	-0.012163013	-0.012163012	-2.7663614e6	8.2993984e6	0	360.0279078690463
25.118864	1.3182567e-11	0.4	2.3704773e9	3.7749242e8	-0.60948685	-0.012163012	-0.012163012	-2.5229516e6	7.5691414e6	0	362.3414466086188
25.118864	1.4454398e-11	0.4	2.161901e9	3.4427718e8	-0.60702451	-0.012163013	-0.012163012	-2.3009593e6	6.903139e6	0	364.65497595253777
25.118864	1.5848932e-11	0.4	1.9716772e9	3.1398452e8	-0.60456217	-0.012163012	-0.012163012	-2.0984999e6	6.2957376e6	0	366.9685052964568
25.118864	1.7378008e-11	0.4	1.798191e9	2.8635729e8	-0.60209982	-0.012163013	-0.012163013	-1.9138547e6	5.7417809e6	0	369.2820436602032
25.118864	1.9054607e-11	0.4	1.6399696e9	2.6116095e8	-0.59963748	-0.012163013	-0.012163013	-1.7454562e6	5.2365664e6	0	371.59557300412223
25.118864	2.0892961e-11	0.4	1.4956701e9	2.3818162e8	-0.59717514	-0.012163013	-0.012163012	-1.5918751e6	4.7758053e6	0	373.90910272386725
25.118864	2.2908677e-11	0.4	1.3640673e9	2.1722422e8	-0.59471279	-0.012163012	-0.012163012	-1.4518074e6	4.3555863e6	0	376.2226414634398
25.118864	2.5118864e-11	0.4	1.2440442e9	1.9811085e8	-0.59225045	-0.012163013	-0.012163012	-1.3240641e6	3.9723419e6	0	378.53617080735887
25.118864	2.7542287e-11	0.4	1.1345818e9	1.8067924e8	-0.5897881	-0.012163013	-0.012163013	-1.2075609e6	3.6228188e6	0	380.84970917110513
25.118864	3.0199517e-11	0.4	1.0347509e9	1.6478143e8	-0.58732576	-0.012163013	-0.012163012	-1.1013087e6	3.3040501e6	0	383.16323889085027
25.118864	3.3113112e-11	0.4	9.4370404e8	1.5028245e8	-0.58486342	-0.012163013	-0.012163013	-1.0044055e6	3.0133295e6	0	385.47676785894316
25.118864	3.6307805e-11	0.4	8.6066832e8	1.3705923e8	-0.58240107	-0.012163012	-0.012163012	-916028.75	2.7481892e6	0	387.7903069743419
25.118864	3.9810717e-11	0.4	7.8493884e8	1.249995e8	-0.57993873	-0.012163012	-0.012163012	-835428.21	2.5063783e6	0	390.10383631826085
25.118864	4.3651583e-11	0.4	7.1587273e8	1.140009e8	-0.57747638	-0.012163012	-0.012163012	-761919.63	2.2858442e6	0	392.41737505783334
25.118864	4.7863009e-11	0.4	6.5288369e8	1.0397006e8	-0.57501404	-0.012163013	-0.012163012	-694879.01	2.0847147e6	0	394.7309044017523
25.118864	5.2480746e-11	0.4	5.9543701e8	9.4821826e7	-0.5725517	-0.012163013	-0.012163012	-633737.24	1.9012824e6	0	397.04443374567126
25.118864	5.7543994e-11	0.4	5.43045e8	8.6478535e7	-0.57008935	-0.012163013	-0.012163012	-577975.28	1.7339901e6	0	399.35797248524375
25.118864	6.3095734e-11	0.4	4.9526294e8	7.8869364e7	-0.56762701	-0.012163012	-0.012163011	-527119.78	1.5814178e6	0	401.6715022049889
25.118864	6.9183097e-11	0.4	4.5168517e8	7.1929717e7	-0.56516467	-0.012163012	-0.012163011	-480739.	1.4422702e6	0	403.9850315489079
25.118864	7.5857758e-11	0.4	4.1194177e8	6.5600684e7	-0.56270232	-0.012163012	-0.012163011	-438439.23	1.3153661e6	0	406.2985702884805
25.118864	8.3176377e-11	0.4	3.7569536e8	5.9828536e7	-0.56023998	-0.012163013	-0.012163011	-399861.37	1.1996281e6	0	408.61209963239946
25.118864	9.1201084e-11	0.4	3.4263824e8	5.4564275e7	-0.55777763	-0.012163013	-0.012163011	-364677.96	1.0940738e6	0	410.9256383719719
25.118864	1.e-10	0.4	3.1248979e8	4.9763212e7	-0.55531529	-0.012163013	-0.012163011	-332590.3	997807.19	0	413.2391677158909
25.118864	1.0964782e-10	0.4	2.8499408e8	4.5384592e7	-0.55285295	-0.012163012	-0.012163011	-303326.01	910010.99	0	415.55269705980993
25.118864	1.2022644e-10	0.4	2.5991769e8	4.1391241e7	-0.5503906	-0.012163013	-0.012163011	-276636.65	829939.88	0	417.8662357993825
25.118864	1.3182567e-10	0.4	2.3704776e8	3.7749263e7	-0.54792826	-0.012163012	-0.01216301	-252295.68	756914.18	0	420.1797655191276
25.118864	1.4454398e-10	0.4	2.1619013e8	3.4427739e7	-0.54546592	-0.012163013	-0.012163011	-230096.44	690313.93	0	422.4932944872204
25.118864	1.5848932e-10	0.4	1.9716774e8	3.1398473e7	-0.54300357	-0.012163013	-0.01216301	-209850.5	629573.79	0	424.80683360261907
25.118864	1.7378008e-10	0.4	1.7981912e8	2.8635749e7	-0.54054123	-0.012163013	-0.01216301	-191385.98	574178.13	0	427.1203629465381
25.118864	1.9054607e-10	0.4	1.6399699e8	2.6116116e7	-0.53807888	-0.012163013	-0.01216301	-174546.13	523656.68	0	429.4339016861105
25.118864	2.0892961e-10	0.4	1.4956703e8	2.3818182e7	-0.53561654	-0.012163013	-0.01216301	-159188.01	477580.57	0	431.74743103002953
25.118864	2.2908677e-10	0.4	1.3640676e8	2.1722443e7	-0.5331542	-0.012163013	-0.012163009	-145181.24	435558.66	0	434.0609607497747
25.118864	2.5118864e-10	0.4	1.2440444e8	1.9811105e7	-0.53069185	-0.012163013	-0.012163009	-132406.91	397234.22	0	436.3744994893473
25.118864	2.7542287e-10	0.4	1.134582e8	1.8067944e7	-0.52822951	-0.012163013	-0.012163009	-120756.59	362281.92	0	438.68802883326623
25.118864	3.0199517e-10	0.4	1.0347511e8	1.6478163e7	-0.52576717	-0.012163013	-0.012163008	-110131.36	330405.04	0	441.0015585530114
25.118864	3.3113112e-10	0.4	9.4370427e7	1.5028265e7	-0.52330482	-0.012163013	-0.012163008	-100441.04	301332.98	0	443.31509729258386
25.118864	3.6307805e-10	0.4	8.6066854e7	1.3705942e7	-0.52084248	-0.012163013	-0.012163007	-91603.366	274818.95	0	445.628627012329
25.118864	3.9810717e-10	0.4	7.8493906e7	1.249997e7	-0.51838013	-0.012163013	-0.012163007	-83543.309	250637.87	0	447.9421657519015
25.118864	4.3651583e-10	0.4	7.1587296e7	1.140011e7	-0.51591779	-0.012163013	-0.012163006	-76192.449	228584.45	0	450.2556954716466
25.118864	4.7863009e-10	0.4	6.5288391e7	1.0397026e7	-0.51345545	-0.012163013	-0.012163006	-69488.385	208471.5	0	452.5692248155656
25.118864	5.2480746e-10	0.4	5.9543723e7	9.482202e6	-0.5109931	-0.012163013	-0.012163005	-63374.206	190128.27	0	454.8827639309643
25.118864	5.7543994e-10	0.4	5.4304523e7	8.6478729e6	-0.50853076	-0.012163013	-0.012163004	-57798.008	173399.05	0	457.19629365070944
25.118864	6.3095734e-10	0.4	4.9526316e7	7.8869555e6	-0.50606841	-0.012163013	-0.012163003	-52712.455	158141.82	0	459.509832766108
25.118864	6.9183097e-10	0.4	4.5168539e7	7.1929908e6	-0.50360607	-0.012163013	-0.012163002	-48074.375	144227.05	0	461.8233624858532
25.118864	7.5857758e-10	0.4	4.1194199e7	6.5600874e6	-0.50114373	-0.012163013	-0.012163001	-43844.396	131536.64	0	464.1368922055983
25.118864	8.3176377e-10	0.4	3.7569559e7	5.9828727e6	-0.49868138	-0.012163013	-0.012163	-39986.609	119962.85	0	466.4504313209969
25.118864	9.1201084e-10	0.4	3.4263847e7	5.4564464e6	-0.49621904	-0.012163013	-0.012162999	-36468.265	109407.42	0	468.7639610407422
25.118864	1.e-9	0.4	3.1249002e7	4.9763401e6	-0.4937567	-0.012163013	-0.012162998	-33259.497	99780.756	0	471.0774907604872
25.118864	1.0964782e-9	0.4	2.8499431e7	4.5384779e6	-0.49129435	-0.012163013	-0.012162996	-30333.066	91001.136	0	473.3910302517121
25.118864	1.2022644e-9	0.4	2.5991792e7	4.1391427e6	-0.48883201	-0.012163014	-0.012162995	-27664.128	82994.024	0	475.70455997145723
25.118864	1.3182567e-9	0.4	2.3704798e7	3.7749448e6	-0.48636966	-0.012163014	-0.012162993	-25230.028	75691.453	0	478.0180994626819
25.118864	1.4454398e-9	0.4	2.1619035e7	3.4427924e6	-0.48390732	-0.012163013	-0.012162991	-23010.102	69031.43	0	480.3316295582533
25.118864	1.5848932e-9	0.4	1.9716797e7	3.1398657e6	-0.48144498	-0.012163013	-0.012162988	-20985.505	62957.416	0	482.6451600296507
25.118864	1.7378008e-9	0.4	1.7981935e7	2.8635933e6	-0.47898263	-0.012163013	-0.012162986	-19139.051	57417.85	0	484.9586995208755
25.118864	1.9054607e-9	0.4	1.6399721e7	2.6116298e6	-0.47652029	-0.012163014	-0.012162984	-17455.064	52365.704	0	487.2722296164467
25.118864	2.0892961e-9	0.4	1.4956726e7	2.3818364e6	-0.47405795	-0.012163014	-0.012162981	-15919.25	47758.094	0	489.58576008784416
25.118864	2.2908677e-9	0.4	1.3640698e7	2.1722623e6	-0.4715956	-0.012163014	-0.012162978	-14518.571	43555.903	0	491.89929995489507
25.118864	2.5118864e-9	0.4	1.2440467e7	1.9811285e6	-0.46913326	-0.012163013	-0.012162974	-13241.136	39723.459	0	494.21283080211856
25.118864	2.7542287e-9	0.4	1.1345843e7	1.8068123e6	-0.46667092	-0.012163014	-0.012162971	-12076.101	36228.229	0	496.52636127351605
25.118864	3.0199517e-9	0.4	1.0347534e7	1.6478341e6	-0.46420857	-0.012163014	-0.012162967	-11013.576	33040.541	0	498.83990151639307
25.118864	3.3113112e-9	0.4	9.4370653e6	1.5028443e6	-0.46174623	-0.012163014	-0.012162963	-10044.542	30133.335	0	501.15343236361673
25.118864	3.6307805e-9	0.4	8.606708e6	1.3706119e6	-0.45928389	-0.012163014	-0.012162958	-9160.7722	27481.932	0	503.46696358666634
25.118864	3.9810717e-9	0.4	7.8494132e6	1.2500146e6	-0.45682154	-0.012163015	-0.012162953	-8354.7643	25063.823	0	505.78050420536954
25.118864	4.3651583e-9	0.4	7.1587522e6	1.1400285e6	-0.4543592	-0.012163014	-0.012162947	-7619.6761	22858.482	0	508.0940358042454
25.118864	4.7863009e-9	0.4	6.5288618e6	1.03972e6	-0.45189685	-0.012163015	-0.01216294	-6949.2675	20847.187	0	510.4075771746009
25.118864	5.2480746e-9	0.4	5.9543949e6	948237.53	-0.44943451	-0.012163015	-0.012162933	-6337.8473	19012.864	0	512.7211091493028
25.118864	5.7543994e-9	0.4	5.4304749e6	864804.54	-0.44697217	-0.012163015	-0.012162926	-5780.2254	17339.942	0	515.0346411240049
25.118864	6.3095734e-9	0.4	4.9526542e6	788712.73	-0.44450982	-0.012163015	-0.012162917	-5271.6678	15814.218	0	517.3481832460127
25.118864	6.9183097e-9	0.4	4.5168766e6	719316.18	-0.44204748	-0.012163015	-0.012162908	-4807.8577	14422.742	0	519.6617159723668
25.118864	7.5857758e-9	0.4	4.1194425e6	656025.74	-0.43958514	-0.012163016	-0.012162898	-4384.8575	13153.701	0	521.9752490745473
25.118864	8.3176377e-9	0.4	3.7569785e6	598304.19	-0.43712279	-0.012163016	-0.012162887	-3999.0766	11996.321	0	524.2887919482073
25.118864	9.1201084e-9	0.4	3.4264073e6	545661.48	-0.43466045	-0.012163017	-0.012162875	-3647.2399	10940.779	0	526.60232580204
25.118864	1.e-8	0.4	3.1249228e6	497650.76	-0.43219811	-0.012163017	-0.012162862	-3326.3609	9978.1123	0	528.9158600316988
25.118864	1.0964782e-8	0.4	2.8499657e6	453864.46	-0.42973577	-0.012163017	-0.012162846	-3033.7156	9100.1503	0	531.2293953888361
25.118864	1.2022644e-8	0.4	2.5992018e6	413930.87	-0.42727342	-0.012163017	-0.01216283	-2766.8196	8299.4393	0	533.5429401416268
25.118864	1.3182567e-8	0.4	2.3705024e6	377510.99	-0.42481108	-0.012163018	-0.012162813	-2523.4074	7569.1822	0	535.8564758745902
25.118864	1.4454398e-8	0.4	2.1619261e6	344295.67	-0.42234874	-0.012163018	-0.012162794	-2301.4126	6903.1799	0	538.1700123592059
25.118864	1.5848932e-8	0.4	1.9717023e6	314002.91	-0.41988639	-0.012163019	-0.012162773	-2098.9507	6295.7784	0	540.4835589911272
25.118864	1.7378008e-8	0.4	1.798216e6	286375.59	-0.41742405	-0.01216302	-0.01216275	-1914.3031	5741.8217	0	542.7970969790475
25.118864	1.9054607e-8	0.4	1.6399947e6	261179.16	-0.41496171	-0.012163021	-0.012162725	-1745.9022	5236.6072	0	545.11063571862
25.118864	2.0892961e-8	0.4	1.4956952e6	238199.74	-0.41249937	-0.012163021	-0.012162696	-1592.3186	4775.8462	0	547.4241759614971
25.118864	2.2908677e-8	0.4	1.3640924e6	217242.25	-0.41003702	-0.012163022	-0.012162666	-1452.2484	4355.6271	0	549.7377259758537
25.118864	2.5118864e-8	0.4	1.2440693e6	198128.78	-0.40757468	-0.012163023	-0.012162633	-1324.5027	3972.3827	0	552.0512677220354
25.118864	2.7542287e-8	0.4	1.1346069e6	180697.08	-0.40511234	-0.012163025	-0.012162596	-1207.997	3622.8597	0	554.3648109715215
25.118864	3.0199517e-8	0.4	1.034776e6	164799.18	-0.40265	-0.012163026	-0.012162556	-1101.7423	3304.0909	0	556.6783553484862
25.118864	3.3113112e-8	0.4	943729.13	150300.11	-0.40018765	-0.012163027	-0.012162512	-1004.8367	3013.3703	0	558.9919106244088
25.118864	3.6307805e-8	0.4	860693.41	137076.79	-0.39772531	-0.012163028	-0.012162463	-916.45746	2748.23	0	561.3054583838086
25.118864	3.9810717e-8	0.4	784963.93	125016.97	-0.39526297	-0.01216303	-0.012162411	-835.85445	2506.4191	0	563.619007270687
25.118864	4.3651583e-8	0.4	715897.83	114018.28	-0.39280063	-0.012163031	-0.012162352	-762.34342	2285.885	0	565.9325587883483
25.118864	4.7863009e-8	0.4	652908.78	103987.35	-0.39033829	-0.012163033	-0.012162289	-695.30034	2084.7555	0	568.246111809314
25.118864	5.2480746e-8	0.4	595462.1	94839.02	-0.38787595	-0.012163036	-0.012162219	-634.15611	1901.3232	0	570.5596674610629
25.118864	5.7543994e-8	0.4	543070.1	86495.638	-0.38541361	-0.012163037	-0.012162142	-578.39169	1734.031	0	572.8732257435945
25.118864	6.3095734e-8	0.4	495288.03	78886.374	-0.38295127	-0.01216304	-0.012162058	-527.53372	1581.4586	0	575.1867866569094
25.118864	6.9183097e-8	0.4	451710.26	71946.635	-0.38048893	-0.012163042	-0.012161966	-481.15049	1442.311	0	577.5003505768332
25.118864	7.5857758e-8	0.4	411966.86	65617.509	-0.37802659	-0.012163045	-0.012161866	-438.84826	1315.4069	0	579.8139175033664
25.118864	8.3176377e-8	0.4	375720.46	59845.271	-0.37556425	-0.012163048	-0.012161754	-400.26795	1199.6689	0	582.1274889398128
25.118864	9.1201084e-8	0.4	342663.34	54580.918	-0.37310191	-0.012163052	-0.012161633	-365.08207	1094.1146	0	584.4410637586949
25.118864	1.e-7	0.4	312514.89	49779.763	-0.37063958	-0.012163056	-0.0121615	-332.99195	997.84801	0	586.754633691837
25.118864	1.0964782e-7	0.4	285019.18	45401.05	-0.36817724	-0.01216306	-0.012161354	-303.7252	910.0518	0	589.0682179063724
25.118864	1.2022644e-7	0.4	259942.79	41407.608	-0.3657149	-0.012163064	-0.012161194	-277.03339	829.9807	0	591.3818073824739
25.118864	1.3182567e-7	0.4	237072.85	37765.537	-0.36325257	-0.012163069	-0.012161019	-252.68995	756.95499	0	593.6953931003138
25.118864	1.4454398e-7	0.4	216215.22	34443.921	-0.36079023	-0.012163075	-0.012160827	-230.48825	690.35475	0	596.0089946028517
25.118864	1.5848932e-7	0.4	197192.84	31414.563	-0.3583279	-0.012163081	-0.012160615	-210.23985	629.61461	0	598.322594226259
25.118864	1.7378008e-7	0.4	179844.21	28651.748	-0.35586557	-0.012163087	-0.012160384	-191.77287	574.21895	0	600.6362009903628
25.118864	1.9054607e-7	0.4	164022.08	26132.022	-0.35340323	-0.012163095	-0.012160131	-174.93056	523.69749	0	602.9498254182951
25.118864	2.0892961e-7	0.4	149592.13	23833.997	-0.3509409	-0.012163102	-0.012159852	-159.56999	477.62139	0	605.2634502220537
25.118864	2.2908677e-7	0.4	136431.85	21738.165	-0.34847858	-0.012163111	-0.012159547	-145.56075	435.59948	0	607.5770754016385
25.118864	2.5118864e-7	0.4	124429.54	19826.735	-0.34601625	-0.012163121	-0.012159214	-132.78396	397.27504	0	609.8907205000085
25.118864	2.7542287e-7	0.4	113483.3	18083.483	-0.34355392	-0.012163131	-0.012158847	-121.13118	362.32274	0	612.2043783764674
25.118864	3.0199517e-7	0.4	103500.21	16493.61	-0.3410916	-0.012163142	-0.012158445	-110.5035	330.44586	0	614.5180400111877
25.118864	3.3113112e-7	0.4	94395.521	15043.619	-0.33862927	-0.012163155	-0.012158005	-100.81072	301.3738	0	616.8317253229549
25.118864	3.6307805e-7	0.4	86091.949	13721.205	-0.33616695	-0.012163169	-0.012157521	-91.970579	274.85977	0	619.1454177754185
25.118864	3.9810717e-7	0.4	78519.001	12515.14	-0.33370463	-0.012163184	-0.012156992	-83.908062	250.67868	0	621.4591271400586
25.118864	4.3651583e-7	0.4	71612.39	11415.188	-0.33124232	-0.0121632	-0.012156411	-76.554742	228.62527	0	623.7728466520045
25.118864	4.7863009e-7	0.4	65313.487	10412.012	-0.32878	-0.012163218	-0.012155773	-69.848219	208.51233	0	626.0865969816937
25.118864	5.2480746e-7	0.4	59568.819	9497.0964	-0.32631769	-0.012163238	-0.012155075	-63.73158	190.1691	0	628.400360465298
25.118864	5.7543994e-7	0.4	54329.619	8662.6752	-0.32385538	-0.01216326	-0.012154309	-58.152922	173.43987	0	630.7141495050797
25.118864	6.3095734e-7	0.4	49551.411	7901.6659	-0.32139308	-0.012163284	-0.01215347	-53.064908	158.18264	0	633.0279565845162
25.118864	6.9183097e-7	0.4	45193.635	7207.6092	-0.31893078	-0.01216331	-0.012152549	-48.424368	144.26788	0	635.341794481696
25.118864	7.5857758e-7	0.4	41219.295	6574.6137	-0.31646848	-0.012163339	-0.01215154	-44.191929	131.57746	0	637.6556654515764
25.118864	8.3176377e-7	0.4	37594.654	5997.3069	-0.31400619	-0.012163371	-0.012150433	-40.331681	120.00367	0	639.9695638567648
25.118864	9.1201084e-7	0.4	34288.943	5470.7888	-0.3115439	-0.012163405	-0.012149219	-36.810878	109.44824	0	642.2835024753504
25.118864	1.e-6	0.4	31274.098	4990.5904	-0.30908162	-0.012163443	-0.012147889	-33.599649	99.82158	0	644.5974752941145
25.118864	1.0964782e-6	0.4	28524.528	4552.6363	-0.30661935	-0.012163484	-0.012146429	-30.670758	91.041961	0	646.9114875746234
25.118864	1.2022644e-6	0.4	26016.889	4153.2092	-0.30415708	-0.012163529	-0.012144829	-27.99936	83.034851	0	649.2255524707919
25.118864	1.3182567e-6	0.4	23729.895	3788.9192	-0.30169482	-0.012163579	-0.012143075	-25.5628	75.732281	0	651.5396658485324
25.118864	1.4454398e-6	0.4	21644.132	3456.6748	-0.29923257	-0.012163634	-0.012141152	-23.340414	69.072258	0	653.8538333452371
25.118864	1.5848932e-6	0.4	19741.894	3153.6561	-0.29677032	-0.012163694	-0.012139043	-21.313357	62.998246	0	656.1680707456039
25.118864	1.7378008e-6	0.4	18007.033	2877.2917	-0.29430809	-0.012163759	-0.01213673	-19.464443	57.458681	0	658.4823660231963
25.118864	1.9054607e-6	0.4	16424.82	2625.2363	-0.29184586	-0.012163832	-0.012134194	-17.777996	52.406537	0	660.7967451100178
25.118864	2.0892961e-6	0.4	14981.825	2395.3509	-0.28938365	-0.012163911	-0.012131414	-16.239721	47.798928	0	663.1111971071106
25.118864	2.2908677e-6	0.4	13665.798	2185.6849	-0.28692145	-0.012163998	-0.012128366	-14.836581	43.596738	0	665.4257404299551
25.118864	2.5118864e-6	0.4	12465.567	1994.4591	-0.28445926	-0.012164092	-0.012125023	-13.556686	39.764297	0	667.7403852258578
25.118864	2.7542287e-6	0.4	11370.944	1820.051	-0.28199709	-0.012164197	-0.012121357	-12.38919	36.269069	0	670.0551326222965
25.118864	3.0199517e-6	0.4	10372.635	1660.9808	-0.27953494	-0.012164311	-0.012117339	-11.324205	33.081383	0	672.3699935182294
25.118864	3.3113112e-6	0.4	9462.1673	1515.899	-0.2770728	-0.012164437	-0.012112933	-10.35271	30.17418	0	674.6849908390514
25.118864	3.6307805e-6	0.4	8631.8108	1383.5747	-0.27461069	-0.012164575	-0.012108102	-9.4664795	27.522779	0	677.0001196990222
25.118864	3.9810717e-6	0.4	7874.5169	1262.8854	-0.27214859	-0.012164725	-0.012102804	-8.6580108	25.104673	0	679.315414674147
25.118864	4.3651583e-6	0.4	7183.8569	1152.8074	-0.26968652	-0.01216489	-0.012096994	-7.9204617	22.899336	0	681.6308738852948
25.118864	4.7863009e-6	0.4	6553.9675	1052.407	-0.26722448	-0.012165072	-0.012090626	-7.247592	20.888044	0	683.9465146204684
25.118864	5.2480746e-6	0.4	5979.5019	960.83265	-0.26476247	-0.01216527	-0.012083641	-6.6337109	19.053725	0	686.2623590534097
25.118864	5.7543994e-6	0.4	5455.5831	877.30774	-0.26230048	-0.012165488	-0.012075984	-6.0736276	17.380807	0	688.5784372502103
25.118864	6.3095734e-6	0.4	4977.7637	801.12404	-0.25983853	-0.012165727	-0.012067588	-5.5626087	15.855088	0	690.8947555999141
25.118864	6.9183097e-6	0.4	4541.9876	731.6356	-0.25737662	-0.012165989	-0.012058382	-5.096337	14.463617	0	693.2113407861774
25.118864	7.5857758e-6	0.4	4144.5554	668.25332	-0.25491476	-0.012166276	-0.012048287	-4.6708752	13.194582	0	695.5282131036117
25.118864	8.3176377e-6	0.4	3782.0931	610.43991	-0.25245294	-0.012166591	-0.01203722	-4.2826324	12.037209	0	697.8454131414402
25.118864	9.1201084e-6	0.4	3451.5239	557.70537	-0.24999116	-0.012166937	-0.012025084	-3.9283338	10.981673	0	700.1629773547983
25.118864	0.00001	0.4	3150.0416	509.60284	-0.24752945	-0.012167316	-0.012011777	-3.6049925	10.019014	0	702.4809158909917
25.118864	0.000010964782	0.4	2875.0869	465.72474	-0.24506779	-0.012167731	-0.011997186	-3.3098847	9.1410604	0	704.7992900096815
25.118864	0.000012022644	0.4	2624.3211	425.69931	-0.24261475	-0.0121713	-0.011984302	-3.0405309	8.340352	0	707.1089235398332
25.118864	0.000013182567	0.4	2395.6242	389.18767	-0.24015405	-0.0121721	-0.01196706	-2.7946562	7.6101042	0	709.4273919908841
25.118864	0.000014454398	0.4	2187.0506	355.88061	-0.23769352	-0.012172976	-0.011948155	-2.5701987	6.9441121	0	711.7463257146962
25.118864	0.000015848932	0.4	1996.8297	325.49615	-0.23523316	-0.012173937	-0.011927425	-2.3652738	6.336722	0	714.0657855951044
25.118864	0.000017378008	0.4	1823.3467	297.77714	-0.23277299	-0.012174991	-0.011904697	-2.1781628	5.7827776	0	716.3858178587238
25.118864	0.000019054607	0.4	1665.129	272.48907	-0.23031303	-0.012176146	-0.011879775	-2.0072982	5.2775766	0	718.706477376171
25.118864	0.000020892961	0.4	1520.8333	249.41804	-0.2278533	-0.012177412	-0.011852449	-1.8512506	4.8168304	0	721.027824279628
25.118864	0.000022908677	0.4	1389.2349	228.36897	-0.22539382	-0.012178801	-0.011822487	-1.7087159	4.3966275	0	723.3499269694528
25.118864	0.000025118864	0.4	1269.2164	209.16397	-0.22293461	-0.012180324	-0.011789635	-1.5785053	4.0134009	0	725.6728621141775
25.118864	0.000027542287	0.4	1159.7592	191.64079	-0.22047571	-0.012181993	-0.011753612	-1.4595343	3.6638975	0	727.9966977383338
25.118864	0.000030199517	0.4	1059.9339	175.65145	-0.21801714	-0.012183823	-0.011714115	-1.3508137	3.3451501	0	730.3215289259349
25.118864	0.000033113112	0.4	968.89327	161.061	-0.21555893	-0.012185829	-0.011670808	-1.2514416	3.054453	0	732.6474537676033
25.118864	0.000036307805	0.4	885.86434	147.74636	-0.21310112	-0.012188028	-0.011623324	-1.1605953	2.7893384	0	734.9745726089186
25.118864	0.000039810717	0.4	810.14232	135.59529	-0.21064374	-0.012190438	-0.011571258	-1.0775245	2.5475558	0	737.3030094725069
25.118864	0.000043651583	0.4	741.08438	124.50542	-0.20818684	-0.012193081	-0.011514171	-1.0015449	2.3270526	0	739.6328823677761
25.118864	0.000047863009	0.4	678.10431	114.38339	-0.20573046	-0.012195978	-0.011451577	-0.93203237	2.125957	0	741.9643363636162
25.118864	0.000052480746	0.4	620.66746	105.14405	-0.20327465	-0.012199153	-0.011382947	-0.86841781	1.942562	0	744.2975232937879
25.118864	0.000057543994	0.4	568.28624	96.709755	-0.20081946	-0.012202633	-0.011307698	-0.81018205	1.7753105	0	746.6326152866634
25.118864	0.000063095734	0.4	520.516	89.009683	-0.19836496	-0.012206448	-0.011225193	-0.75685163	1.6227829	0	748.9697859739189
25.118864	0.000069183097	0.4	476.9512	81.979253	-0.19591121	-0.012210628	-0.011134734	-0.70799473	1.4836844	0	751.3092413082796
25.118864	0.000075857758	0.4	437.22203	75.559562	-0.19345828	-0.01221521	-0.011035554	-0.6632175	1.356834	0	753.6512037788204
25.118864	0.000083176377	0.4	400.99123	69.696898	-0.19100625	-0.01222023	-0.010926816	-0.62216073	1.241155	0	755.9959127867921
25.118864	0.000091201084	0.4	367.95123	64.342274	-0.1885552	-0.012225732	-0.010807598	-0.5844968	1.1356654	0	758.3436396786682
25.118864	0.0001	0.4	337.82155	59.451014	-0.18610523	-0.01223176	-0.010676897	-0.54992686	1.0394697	0	760.6946674515318
25.118864	0.00010964782	0.4	310.34641	54.982378	-0.18365642	-0.012238365	-0.01053361	-0.51817836	0.95175123	0	763.0493354763876
25.118864	0.00012022644	0.4	285.2926	50.899216	-0.1812089	-0.012245602	-0.01037653	-0.48900269	0.87176535	0	765.4079752318908
25.118864	0.00013182567	0.4	262.44743	47.167645	-0.17876279	-0.012253528	-0.010204337	-0.46217308	0.79883307	0	767.7709700607043
25.118864	0.00014454398	0.4	241.61695	43.75677	-0.17631821	-0.01226221	-0.010015587	-0.43748266	0.73233524	0	770.1387499079324
25.118864	0.00015848932	0.4	222.62434	40.638416	-0.1738753	-0.01227172	-0.0098087028	-0.41474274	0.67170734	0	772.5117759874139
25.118864	0.00017378008	0.4	205.30836	37.786893	-0.17143422	-0.012282134	-0.0095819573	-0.3937812	0.6164347	0	774.8905470580191
25.118864	0.00019054607	0.4	189.52203	35.178776	-0.16899514	-0.012293537	-0.009333469	-0.37444097	0.56604806	0	777.2756105105213
25.118864	0.00020892961	0.4	175.13131	32.792704	-0.16655823	-0.012306021	-0.0090611828	-0.3565788	0.52011965	0	779.6675789791111
25.118864	0.00022908677	0.4	162.01405	30.609202	-0.16412369	-0.012319688	-0.0087628619	-0.34006394	0.47825953	0	782.0671051986284
25.118864	0.00025118864	0.4	150.05887	28.610513	-0.16169175	-0.012334646	-0.0084360689	-0.32477712	0.44011229	0	784.4748891076763
25.118864	0.00027542287	0.4	139.16426	26.780448	-0.15926262	-0.012351013	-0.0080781578	-0.31060946	0.40535399	0	786.891727833498
25.118864	0.00030199517	0.4	129.23772	25.10425	-0.15683655	-0.012368921	-0.0076862576	-0.2974616	0.37368944	0	789.3184654816038
25.118864	0.00033113112	0.4	120.19494	23.568465	-0.15441382	-0.012388509	-0.0072572637	-0.28524284	0.34484965	0	791.7560057635299
25.118864	0.00036307805	0.4	111.95911	22.160829	-0.15199471	-0.012409931	-0.0067878243	-0.27387038	0.3185896	0	794.2053452950342
25.118864	0.00039810717	0.4	104.46022	20.870165	-0.14957955	-0.012433352	-0.0062743327	-0.26326859	0.29468604	0	796.6675295116906
25.118864	0.00043651583	0.4	97.634537	19.686283	-0.14716865	-0.012458952	-0.0057129273	-0.2533684	0.27293567	0	799.1437184384629
25.118864	0.00047863009	0.4	91.423971	18.599897	-0.14476238	-0.012486926	-0.0050994903	-0.24410672	0.25315332	0	801.6351120130505
25.118864	0.00052480746	0.4	85.775626	17.602544	-0.14236113	-0.012517483	-0.0044296539	-0.23542588	0.23517036	0	804.1429853383814
25.118864	0.00057543994	0.4	80.641315	16.686508	-0.13996531	-0.012550852	-0.0036988199	-0.22727316	0.21883326	0	806.6686813164192
25.118864	0.00063095734	0.4	75.97714	15.844755	-0.13757534	-0.012587278	-0.0029021887	-0.21960036	0.20400217	0	809.2136091448584
25.118864	0.00069183097	0.4	71.743103	15.070871	-0.13519171	-0.012627026	-0.0020347952	-0.21236338	0.1905497	0	811.779174451045
25.118864	0.00075857758	0.4	67.902734	14.359004	-0.13281488	-0.012670379	-0.0010915726	-0.20552188	0.17835975	0	814.3668492708042
25.118864	0.00083176377	0.4	64.422762	13.703812	-0.13044539	-0.012717644	-0.000067422588	-0.19903891	0.16732646	0	816.9780423177666
25.118864	0.00091201084	0.4	61.272793	13.100415	-0.12808377	-0.01276915	0.0010426876	-0.19288067	0.15735312	0	819.6141470665643
25.118864	0.001	0.4	58.425026	12.544346	-0.12573059	-0.012825246	0.0022436189	-0.18701618	0.14835135	0	822.2764548317615
25.118864	0.0010964782	0.4	55.85397	12.031514	-0.12338646	-0.012886311	0.0035399212	-0.18141709	0.14024012	0	824.9661024453392
25.118864	0.0012022644	0.4	53.536201	11.558165	-0.12105197	-0.012952743	0.0049357042	-0.17605744	0.13294499	0	827.6840800964283
25.118864	0.0013182567	0.4	51.45012	11.120843	-0.11872777	-0.013024973	0.0064344785	-0.17091347	0.12639735	0	830.4310964427984
25.118864	0.0014454398	0.4	49.575754	10.716363	-0.1164145	-0.013103453	0.0080390252	-0.16596345	0.12053377	0	833.2075953727037
25.118864	0.0015848932	0.4	47.894568	10.341781	-0.11411283	-0.013188666	0.0097512676	-0.16118756	0.11529539	0	836.0136702037745
25.118864	0.0017378008	0.4	46.38931	9.9943713	-0.11182343	-0.013281123	0.011572179	-0.15656772	0.11062738	0	838.8490572188084
25.118864	0.0019054607	0.4	45.043885	9.6716049	-0.10954697	-0.013381366	0.013501734	-0.15208747	0.10647861	0	841.7131173630371
25.118864	0.0020892961	0.4	43.843261	9.3711357	-0.10728412	-0.013489963	0.015538913	-0.14773189	0.10280128	0	844.6048379353438
25.118864	0.0022908677	0.4	42.773402	9.0907877	-0.10503553	-0.013607515	0.017681758	-0.14348749	0.099550699	0	847.5228723506686
25.118864	0.0025118864	0.4	41.821232	8.8285461	-0.10280184	-0.013734651	0.019927492	-0.1393421	0.096685182	0	850.4655756179968
25.118864	0.0027542287	0.4	40.974607	8.582551	-0.10058366	-0.013872035	0.022272661	-0.13528477	0.094165941	0	853.4310764989775
25.118864	0.0030199517	0.4	40.222315	8.3510934	-0.098381566	-0.014020358	0.024713336	-0.13130572	0.091957067	0	856.4173571830648
25.118864	0.0033113112	0.4	39.55407	8.1326098	-0.096196079	-0.014180343	0.0272453	-0.12739622	0.090025507	0	859.4223432978793
25.118864	0.0036307805	0.4	38.96051	7.9256797	-0.094027671	-0.014352744	0.029864248	-0.1235485	0.088341046	0	862.4439734370428
25.118864	0.0039810717	0.4	38.433191	7.7290192	-0.09187674	-0.014538346	0.032565961	-0.11975564	0.08687627	0	865.4802880430615
25.118864	0.0043651583	0.4	37.964566	7.5414766	-0.089743611	-0.014737966	0.03534646	-0.11601155	0.085606497	0	868.5294863449855
25.118864	0.0047863009	0.4	37.54796	7.3620244	-0.087628517	-0.014952449	0.038202115	-0.11231079	0.084509681	0	871.5899851752001
25.118864	0.0052480746	0.4	37.177528	7.1897518	-0.085531594	-0.015182674	0.041129728	-0.10864856	0.083566275	0	874.660454860822
25.118864	0.0057543994	0.4	36.848213	7.0238556	-0.083452868	-0.015429548	0.044126589	-0.10502059	0.082759083	0	877.7398524843127
25.118864	0.0063095734	0.4	36.555689	6.8636313	-0.081392247	-0.015694008	0.047190494	-0.10142307	0.082073078	0	880.8274361648716
25.118864	0.0069183097	0.4	36.296306	6.7084629	-0.079349515	-0.015977024	0.050319741	-0.097852573	0.081495219	0	883.9227691925245
25.118864	0.0075857758	0.4	36.067032	6.5578143	-0.077324325	-0.016279583	0.053513137	-0.094306003	0.081014263	0	887.0257292358625
25.118864	0.0083176377	0.4	35.865394	6.4112189	-0.075316191	-0.016602706	0.05676995	-0.090780536	0.080620568	0	890.136497818911
25.118864	0.0091201084	0.4	35.689421	6.268272	-0.073324487	-0.016947433	0.060089893	-0.087273563	0.080305918	0	893.2555552474774
25.118864	0.01	0.4	35.537589	6.1286216	-0.071348449	-0.017314818	0.063473097	-0.083782646	0.080063344	0	896.3836685827134
25.118864	0.010964782	0.4	35.408772	5.9919611	-0.069387171	-0.01770593	0.066920067	-0.080305477	0.079886955	0	899.5218788630266
25.118864	0.012022644	0.4	35.302192	5.8580222	-0.067439615	-0.018121828	0.070431679	-0.07683984	0.079771794	0	902.6714905809488
25.118864	0.013182567	0.4	35.217373	5.7265679	-0.065504617	-0.018563562	0.074009142	-0.073383582	0.079713679	0	905.8340517643509
25.118864	0.014454398	0.4	35.154104	5.5973867	-0.063580901	-0.01903214	0.077654005	-0.069934582	0.079709076	0	909.0113434533104
25.118864	0.015848932	0.4	35.112398	5.4702863	-0.061667092	-0.019528508	0.081368149	-0.066490728	0.079754959	0	912.2053644791526
25.118864	0.017378008	0.4	35.092462	5.3450887	-0.059761744	-0.020053506	0.085153809	-0.063049898	0.079848687	0	915.4183134247968
25.118864	0.019054607	0.4	35.094663	5.2216242	-0.057863364	-0.020607814	0.089013606	-0.05960994	0.079987876	0	918.6525781016234
25.118864	0.020892961	0.4	35.119506	5.0997263	-0.055970443	-0.021191887	0.092950603	-0.056168662	0.080170267	0	921.9107274692124
25.118864	0.022908677	0.4	35.16762	4.9792262	-0.054081497	-0.021805851	0.096968385	-0.052723813	0.080393599	0	925.195503179255
25.118864	0.025118864	0.4	35.23975	4.8599471	-0.052195108	-0.022449386	0.10107117	-0.049273077	0.08065546	0	928.509822770076
25.118864	0.027542287	0.4	35.336772	4.7416981	-0.050309951	-0.023121557	0.10526399	-0.045814059	0.080953144	0	931.8568223229006
25.118864	0.030199517	0.4	35.459739	4.624268	-0.048424819	-0.023820608	0.10955282	-0.042344267	0.081283496	0	935.2398814542933
25.118864	0.033113112	0.4	35.609971	4.5074187	-0.046538598	-0.024543711	0.11394494	-0.038861097	0.08164275	0	938.6627828543521
25.118864	0.036307805	0.4	35.789222	4.3908783	-0.044650181	-0.025286671	0.1184491	-0.035361794	0.082026397	0	942.1298551006456
25.118864	0.039810717	0.4	35.999951	4.2743359	-0.042758245	-0.02604359	0.12307596	-0.031843401	0.08242908	0	945.6463475447837
25.118864	0.043651583	0.4	36.245749	4.1574375	-0.040860841	-0.026806571	0.1278383	-0.028302667	0.082844586	0	949.2188944577026
25.118864	0.047863009	0.4	36.531937	4.0397858	-0.0389547	-0.027565477	0.13275133	-0.024735911	0.083265976	0	952.8562835941211
25.118864	0.052480746	0.4	36.866378	3.9209454	-0.037034191	-0.028307894	0.13783268	-0.021138813	0.08368593	0	956.5704314613733
25.118864	0.057543994	0.4	37.260441	3.8004538	-0.035089882	-0.029019386	0.14310217	-0.017506118	0.084097335	0	960.3776489139351
25.118864	0.063095734	0.4	37.730036	3.6778373	-0.033106804	-0.029684142	0.14858117	-0.013831243	0.084494113	0	964.3000317101424
25.118864	0.069183097	0.4	38.29654	3.5526286	-0.031062558	-0.030285981	0.15429156	-0.010105783	0.084872172	0	968.366848250213
25.118864	0.075857758	0.4	38.987455	3.4243796	-0.02892557	-0.030809555	0.16025458	-0.0063189428	0.085230333	0	972.6157469177217
25.118864	0.083176377	0.4	39.836652	3.2926689	-0.026653805	-0.031241374	0.16648977	-0.0024569184	0.085571128	0	977.0935659849309
25.118864	0.091201084	0.4	40.884025	3.1571072	-0.024194328	-0.031570303	0.17301452	0.0014977161	0.085901581	0	981.856576960218
25.118864	0.1	0.4	42.173796	3.0173684	-0.021484683	-0.031787305	0.17984428	0.0055665337	0.086234544	0	986.9692678509451
25.118864	0.10964782	0.4	43.748747	2.873296	-0.018459026	-0.031884968	0.18699307	0.0097754507	0.08659175	0	992.4987724805005
25.118864	0.12022644	0.4	45.632479	2.725172	-0.015067117	-0.031859404	0.19447157	0.014153864	0.087010134	0	998.4963084352439
25.118864	0.13182567	0.4	47.78607	2.5741633	-0.011319699	-0.031721504	0.2022759	0.0187309	0.087550019	0	1004.9503237591963
25.118864	0.14454398	0.4	50.053741	2.422472	-0.0073441723	-0.03152486	0.21035968	0.023526405	0.088290122	0	1011.7236867285253
25.118864	0.15848932	0.4	48.567471	2.2776852	-0.0072029318	-0.031642313	0.21835747	0.02844863	0.089341536	0	1014.8621699525727
25.118864	0.17378008	0.4	51.091057	2.1475414	-0.002628456	-0.032579405	0.22577136	0.033302757	0.090716328	0	1021.9465225697509
25.118864	0.19054607	0.4	54.693898	2.0199374	0.003399665	-0.033710997	0.23323437	0.038481498	0.092483632	0	1030.4151304280397
25.118864	0.20892961	0.4	59.157349	1.8950208	0.010715571	-0.035039778	0.24075189	0.044053861	0.094716406	0	1040.1141827334693
25.118864	0.22908677	0.4	64.715374	1.7738771	0.01966944	-0.036588258	0.24830973	0.050115339	0.09753916	0	1051.3673616282463
25.118864	0.25118864	0.4	71.637172	1.6577218	0.030670074	-0.03837006	0.25590285	0.056786201	0.10110466	0	1064.556869142835
25.118864	0.27542287	0.4	80.206239	1.5478087	0.044163636	-0.04038612	0.26353915	0.064214037	0.10559402	0	1080.1048735989934
25.118864	0.30199517	0.4	90.685415	1.445291	0.060595112	-0.042621872	0.27124228	0.072573548	0.11121277	0	1098.4383567117684
25.118864	0.33113112	0.4	103.27269	1.3510599	0.080357006	-0.04504696	0.27905196	0.082062399	0.11818239	0	1119.9410294535764
25.118864	0.36307805	0.4	118.05975	1.2656057	0.10373806	-0.047618597	0.28702063	0.092892737	0.12672815	0	1144.9038921254892
25.118864	0.39810717	0.4	135.00825	1.1889546	0.13088892	-0.050288152	0.29520684	0.10527941	0.13706559	0	1173.4904911097196
25.118864	0.43651583	0.4	153.95377	1.1207017	0.16181655	-0.053008945	0.30366751	0.11942719	0.14938865	0	1205.7287615632538
25.118864	0.47863009	0.4	174.63508	1.0601232	0.19640698	-0.055742617	0.31245153	0.13551965	0.16386157	0	1241.529995363137
25.118864	0.52480746	0.4	196.73713	1.0063207	0.23446481	-0.058462432	0.3215965	0.15371176	0.1806153	0	1280.7247325028434
25.118864	0.57543994	0.4	219.93328	0.95835133	0.27575515	-0.061153478	0.3311285	0.17412674	0.19974784	0	1323.1020800230422
25.118864	0.63095734	0.4	243.91747	0.91531978	0.32003767	-0.063810798	0.34106402	0.19685656	0.22132723	0	1368.4424295562171
25.118864	0.69183097	0.4	268.42358	0.87642915	0.36708912	-0.066436714	0.35141259	0.22196506	0.24539601	0	1416.5396047610948
25.118864	0.75857758	0.4	293.2335	0.84099939	0.41671538	-0.069038239	0.36217945	0.24949231	0.27197606	0	1467.213186540906
25.118864	0.83176377	0.4	318.17761	0.80846575	0.46875578	-0.071625002	0.37336755	0.2794594	0.30107337	0	1520.31332361798
25.118864	0.91201084	0.4	343.13069	0.77836713	0.52308285	-0.074207763	0.38497913	0.31187299	0.33268229	0	1575.7210914477057
25.118864	1.	0.4	368.00596	0.75033058	0.57959959	-0.076797471	0.39701661	0.34672942	0.36678918	0	1633.346261690392
25.118864	1.0964782	0.4	392.74859	0.72405578	0.63823582	-0.079404709	0.40948319	0.38401816	0.40337547	0	1693.1240982934237
25.118864	1.2022644	0.4	417.32962	0.69930103	0.69894438	-0.082039407	0.42238316	0.42372458	0.44242008	0	1755.0119036490353
25.118864	1.3182567	0.4	441.74055	0.67587143	0.76169764	-0.084710728	0.435722	0.46583228	0.48390141	0	1818.9857770938538
25.118864	1.4454398	0.4	465.98883	0.65360921	0.82648441	-0.087427062	0.4495064	0.51032485	0.5277988	0	1885.0377191684895
25.118864	1.5848932	0.4	490.09411	0.63238597	0.8933074	-0.090196069	0.46374427	0.5571872	0.57409376	0	1953.1732488798075
25.118864	1.7378008	0.4	514.08522	0.61209651	0.962181	-0.093024758	0.47844462	0.60640668	0.62277081	0	2023.4092727667166
25.118864	1.9054607	0.4	537.9978	0.59265406	1.0331296	-0.095919564	0.49361753	0.65797378	0.67381813	0	2095.7724951555947
25.118864	2.0892961	0.4	561.87239	0.57398642	1.1061862	-0.098886439	0.5092741	0.71188278	0.72722805	0	2170.2980933731437
25.118864	2.2908677	0.4	585.75298	0.55603307	1.1813913	-0.10193093	0.52542633	0.76813206	0.78299736	0	2247.028629729721
25.118864	2.5118864	0.4	609.68584	0.53874276	1.2587917	-0.10505825	0.5420871	0.82672449	0.84112754	0	2326.012916524389
25.118864	2.7542287	0.4	633.71868	0.52207173	1.3384401	-0.10827333	0.55927012	0.8876675	0.90162485	0	2407.305621427471
25.118864	3.0199517	0.4	657.89998	0.50598226	1.4203947	-0.11158091	0.5769899	0.95097327	0.96450048	0	2490.966880379631
25.118864	3.3113112	0.4	682.2785	0.49044152	1.504718	-0.11498555	0.59526169	1.0166587	1.0297705	0	2577.061147563876
25.118864	3.6307805	0.4	706.90291	0.47542066	1.5914773	-0.11849169	0.61410148	1.0847457	1.0974558	0	2665.6576651882424
25.118864	3.9810717	0.4	731.82157	0.46089412	1.6807438	-0.12210368	0.63352599	1.1552605	1.1675823	0	2756.8296141187084
25.118864	4.3651583	0.4	757.08233	0.446839	1.7725926	-0.12582582	0.65355263	1.2282344	1.2401804	0	2850.6540988461584
25.118864	4.7863009	0.4	782.73241	0.43323467	1.8671027	-0.12966238	0.67419952	1.3037032	1.3152856	0	2947.2121550028983
25.118864	5.2480746	0.4	808.81839	0.42006236	1.9643564	-0.13361763	0.69548547	1.3817075	1.3929377	0	3046.588178106925
25.118864	5.7543994	0.4	835.38615	0.40730484	2.0644399	-0.13769584	0.71743	1.4622921	1.4731812	0	3148.8704948176646
25.118864	6.3095734	0.4	862.4809	0.39494624	2.1674426	-0.14190133	0.74005331	1.5455066	1.5560653	0	3254.1506939654337
25.118864	6.9183097	0.4	890.14719	0.3829718	2.2734574	-0.14623847	0.76337635	1.6314048	1.6416434	0	3362.523934728879
25.118864	7.5857758	0.4	918.42899	0.37136774	2.3825807	-0.15071168	0.78742074	1.7200448	1.7299732	0	3474.0889165688886
25.118864	8.3176377	0.4	947.36975	0.36012111	2.4949121	-0.15532548	0.81220886	1.8114892	1.8211169	0	3588.947631183335
25.118864	9.1201084	0.4	977.01245	0.34921972	2.6105549	-0.16008445	0.83776383	1.9058047	1.9151409	0	3707.205824773231
25.118864	10.	0.4	1007.3997	0.33865199	2.7296159	-0.1649933	0.86410954	2.0030621	2.0121158	0	3828.9728214044408