27.542287	1.e-12	0.23	4.5168948e10	6.5600975e9	-0.74076148	-0.03673837	-0.03673837	-4.8074303e7	1.4422748e8	0	235.63236789976173
27.542287	1.0964782e-12	0.23	4.119457e10	5.98288e9	-0.73806157	-0.036738371	-0.036738371	-4.3844285e7	1.3153702e8	0	238.16910956778025
27.542287	1.2022644e-12	0.23	3.7569895e10	5.4564514e9	-0.73536167	-0.036738372	-0.036738372	-3.9986464e7	1.1996319e8	0	240.70584184014518
27.542287	1.3182567e-12	0.23	3.4264151e10	4.9763428e9	-0.73266176	-0.036738373	-0.036738373	-3.6468088e7	1.0940773e8	0	243.2425835081636
27.542287	1.4454398e-12	0.23	3.1249278e10	4.5384787e9	-0.72996186	-0.036738373	-0.036738373	-3.3259292e7	9.9781036e7	0	245.77931599662867
27.542287	1.5848932e-12	0.23	2.849968e10	4.1391418e9	-0.72726195	-0.036738374	-0.036738374	-3.0332835e7	9.1001387e7	0	248.31605766464705
27.542287	1.7378008e-12	0.23	2.5992017e10	3.7749421e9	-0.72456204	-0.036738374	-0.036738374	-2.7663874e7	8.2994251e7	0	250.8527995487656
27.542287	1.9054607e-12	0.23	2.3705001e10	3.4427881e9	-0.72186214	-0.036738375	-0.036738375	-2.5229753e7	7.5691655e7	0	253.38953182113053
27.542287	2.0892961e-12	0.23	2.1619218e10	3.1398601e9	-0.71916223	-0.036738375	-0.036738375	-2.3009808e7	6.903161e7	0	255.92627370524903
27.542287	2.2908677e-12	0.23	1.9716961e10	2.8635864e9	-0.71646232	-0.036738376	-0.036738376	-2.0985195e7	6.2957577e7	0	258.4630153732675
27.542287	2.5118864e-12	0.23	1.7982082e10	2.6116219e9	-0.71376242	-0.036738375	-0.036738375	-1.9138725e7	5.7417993e7	0	260.9997480778326
27.542287	2.7542287e-12	0.23	1.6399854e10	2.3818275e9	-0.71106251	-0.036738376	-0.036738376	-1.7454725e7	5.2365832e7	0	263.5364897458511
27.542287	3.0199517e-12	0.23	1.4956845e10	2.1722525e9	-0.7083626	-0.036738376	-0.036738376	-1.5918898e7	4.7758207e7	0	266.07323162996954
27.542287	3.3113112e-12	0.23	1.3640804e10	1.9811178e9	-0.7056627	-0.036738376	-0.036738376	-1.4518208e7	4.3556002e7	0	268.6099641184345
27.542287	3.6307805e-12	0.23	1.2440561e10	1.8068009e9	-0.70296279	-0.036738376	-0.036738376	-1.3240763e7	3.9723546e7	0	271.14670600255306
27.542287	3.9810717e-12	0.23	1.1345927e10	1.647822e9	-0.70026289	-0.036738376	-0.036738376	-1.207572e7	3.6228305e7	0	273.6834384910181
27.542287	4.3651583e-12	0.23	1.0347608e10	1.5028316e9	-0.69756298	-0.036738376	-0.036738376	-1.1013187e7	3.3040607e7	0	276.2201803751365
27.542287	4.7863009e-12	0.23	9.4371309e9	1.3705987e9	-0.69486307	-0.036738376	-0.036738376	-1.0044146e7	3.0133391e7	0	278.756922259255
27.542287	5.2480746e-12	0.23	8.6067658e9	1.2500008e9	-0.69216317	-0.036738376	-0.036738376	-9.1603703e6	2.748198e7	0	281.29365474772
27.542287	5.7543994e-12	0.23	7.8494637e9	1.1400143e9	-0.68946326	-0.036738376	-0.036738376	-8.354357e6	2.5063863e7	0	283.83039663183854
27.542287	6.3095734e-12	0.23	7.1587959e9	1.0397054e9	-0.68676335	-0.036738376	-0.036738376	-7.6192642e6	2.2858515e7	0	286.367138515957
27.542287	6.9183097e-12	0.23	6.5288995e9	9.4822261e8	-0.68406345	-0.036738377	-0.036738377	-6.9488515e6	2.0847213e7	0	288.903870788322
27.542287	7.5857758e-12	0.23	5.9544271e9	8.647893e8	-0.68136354	-0.036738376	-0.036738376	-6.337428e6	1.9012884e7	0	291.44061288854056
27.542287	8.3176377e-12	0.23	5.430502e9	7.8869721e8	-0.67866364	-0.036738377	-0.036738377	-5.779803e6	1.7339957e7	0	293.9773451609055
27.542287	9.1201084e-12	0.23	4.9526767e9	7.1930041e8	-0.67596373	-0.036738377	-0.036738377	-5.2712431e6	1.5814228e7	0	296.51408704502404
27.542287	1.e-11	0.23	4.5168949e9	6.5600977e8	-0.67326382	-0.036738376	-0.036738376	-4.8074309e6	1.4422748e7	0	299.0508291452426
27.542287	1.0964782e-11	0.23	4.1194571e9	5.9828802e8	-0.67056392	-0.036738377	-0.036738377	-4.3844291e6	1.3153702e7	0	301.58756141760756
27.542287	1.2022644e-11	0.23	3.7569895e9	5.4564517e8	-0.66786401	-0.036738377	-0.036738376	-3.998647e6	1.1996319e7	0	304.1243035178261
27.542287	1.3182567e-11	0.23	3.4264152e9	4.9763431e8	-0.6651641	-0.036738376	-0.036738376	-3.6468095e6	1.0940773e7	0	306.66104540194453
27.542287	1.4454398e-11	0.23	3.1249278e9	4.5384788e8	-0.6624642	-0.036738377	-0.036738377	-3.3259298e6	9.9781036e6	0	309.1977776743096
27.542287	1.5848932e-11	0.23	2.849968e9	4.139142e8	-0.65976429	-0.036738376	-0.036738376	-3.0332841e6	9.1001387e6	0	311.734519774528
27.542287	1.7378008e-11	0.23	2.5992017e9	3.7749424e8	-0.65706439	-0.036738376	-0.036738376	-2.7663881e6	8.2994251e6	0	314.271252262993
27.542287	1.9054607e-11	0.23	2.3705001e9	3.4427883e8	-0.65436448	-0.036738377	-0.036738377	-2.5229759e6	7.5691656e6	0	316.8079939310114
27.542287	2.0892961e-11	0.23	2.1619218e9	3.1398603e8	-0.65166457	-0.036738376	-0.036738376	-2.3009815e6	6.9031612e6	0	319.34473603123
27.542287	2.2908677e-11	0.23	1.9716961e9	2.8635867e8	-0.64896467	-0.036738376	-0.036738376	-2.0985201e6	6.2957578e6	0	321.881468519695
27.542287	2.5118864e-11	0.23	1.7982083e9	2.6116221e8	-0.64626476	-0.036738377	-0.036738376	-1.9138731e6	5.7417993e6	0	324.41821040381353
27.542287	2.7542287e-11	0.23	1.6399854e9	2.3818277e8	-0.64356485	-0.036738376	-0.036738376	-1.7454731e6	5.2365833e6	0	326.95495228793203
27.542287	3.0199517e-11	0.23	1.4956845e9	2.1722527e8	-0.64086495	-0.036738376	-0.036738376	-1.5918905e6	4.7758207e6	0	329.49168477639705
27.542287	3.3113112e-11	0.23	1.3640805e9	1.981118e8	-0.63816504	-0.036738377	-0.036738376	-1.4518214e6	4.3556002e6	0	332.0284266605156
27.542287	3.6307805e-11	0.23	1.2440562e9	1.8068011e8	-0.63546514	-0.036738377	-0.036738377	-1.3240769e6	3.9723546e6	0	334.5651589328805
27.542287	3.9810717e-11	0.23	1.1345927e9	1.6478222e8	-0.63276523	-0.036738377	-0.036738376	-1.2075725e6	3.6228305e6	0	337.101901033099
27.542287	4.3651583e-11	0.23	1.0347608e9	1.5028317e8	-0.63006532	-0.036738377	-0.036738377	-1.1013193e6	3.3040606e6	0	339.6386427011174
27.542287	4.7863009e-11	0.23	9.4371312e8	1.3705989e8	-0.62736542	-0.036738377	-0.036738376	-1.0044152e6	3.0133391e6	0	342.17537540568253
27.542287	5.2480746e-11	0.23	8.606766e8	1.250001e8	-0.62466551	-0.036738377	-0.036738376	-916037.61	2.748198e6	0	344.712117289801
27.542287	5.7543994e-11	0.23	7.8494638e8	1.1400145e8	-0.6219656	-0.036738377	-0.036738377	-835436.28	2.5063863e6	0	347.2488589578195
27.542287	6.3095734e-11	0.23	7.1587962e8	1.0397056e8	-0.6192657	-0.036738377	-0.036738376	-761927.	2.2858515e6	0	349.78559166238455
27.542287	6.9183097e-11	0.23	6.5288997e8	9.4822282e7	-0.61656579	-0.036738377	-0.036738376	-694885.74	2.0847214e6	0	352.32233354650305
27.542287	7.5857758e-11	0.23	5.9544273e8	8.6478951e7	-0.61386588	-0.036738377	-0.036738376	-633743.38	1.9012885e6	0	354.8590754306216
27.542287	8.3176377e-11	0.23	5.4305023e8	7.8869743e7	-0.61116598	-0.036738377	-0.036738376	-577980.89	1.7339957e6	0	357.3958079190865
27.542287	9.1201084e-11	0.23	4.952677e8	7.1930062e7	-0.60846607	-0.036738377	-0.036738376	-527124.89	1.5814229e6	0	359.932549803205
27.542287	1.e-10	0.23	4.5168951e8	6.5600998e7	-0.60576617	-0.036738377	-0.036738376	-480743.66	1.4422748e6	0	362.4692822916701
27.542287	1.0964782e-10	0.23	4.1194574e8	5.9828824e7	-0.60306626	-0.036738377	-0.036738376	-438443.49	1.3153703e6	0	365.0060241757886
27.542287	1.2022644e-10	0.23	3.7569898e8	5.4564538e7	-0.60036635	-0.036738376	-0.036738376	-399865.27	1.199632e6	0	367.542766059907
27.542287	1.3182567e-10	0.23	3.4264154e8	4.9763452e7	-0.59766645	-0.036738377	-0.036738376	-364681.51	1.0940773e6	0	370.0794985483721
27.542287	1.4454398e-10	0.23	3.124928e8	4.538481e7	-0.59496654	-0.036738377	-0.036738375	-332593.55	997810.41	0	372.6162406485905
27.542287	1.5848932e-10	0.23	2.8499683e8	4.139144e7	-0.59226663	-0.036738376	-0.036738375	-303328.97	910013.91	0	375.152982532709
27.542287	1.7378008e-10	0.23	2.599202e8	3.7749444e7	-0.58956673	-0.036738377	-0.036738376	-276639.36	829942.55	0	377.689714805074
27.542287	1.9054607e-10	0.23	2.3705004e8	3.4427904e7	-0.58686682	-0.036738377	-0.036738375	-252298.15	756916.61	0	380.22645690529254
27.542287	2.0892961e-10	0.23	2.1619221e8	3.1398624e7	-0.58416692	-0.036738376	-0.036738375	-230098.7	690316.16	0	382.76318939375756
27.542287	2.2908677e-10	0.23	1.9716964e8	2.8635887e7	-0.58146701	-0.036738377	-0.036738375	-209852.56	629575.82	0	385.299931277876
27.542287	2.5118864e-10	0.23	1.7982085e8	2.6116241e7	-0.5787671	-0.036738377	-0.036738375	-191387.86	574179.97	0	387.8366731619946
27.542287	2.7542287e-10	0.23	1.6399857e8	2.3818297e7	-0.5760672	-0.036738377	-0.036738375	-174547.85	523658.36	0	390.3734056504595
27.542287	3.0199517e-10	0.23	1.4956847e8	2.1722547e7	-0.57336729	-0.036738377	-0.036738375	-159189.59	477582.1	0	392.91014753457813
27.542287	3.3113112e-10	0.23	1.3640807e8	1.98112e7	-0.57066738	-0.036738377	-0.036738374	-145182.68	435560.06	0	395.4468896347966
27.542287	3.6307805e-10	0.23	1.2440564e8	1.8068031e7	-0.56796748	-0.036738377	-0.036738374	-132408.23	397235.5	0	397.9836221232616
27.542287	3.9810717e-10	0.23	1.134593e8	1.6478242e7	-0.56526757	-0.036738377	-0.036738374	-120757.79	362283.09	0	400.52036400738007
27.542287	4.3651583e-10	0.23	1.0347611e8	1.5028337e7	-0.56256767	-0.036738377	-0.036738374	-110132.46	330406.11	0	403.05709649584514
27.542287	4.7863009e-10	0.23	9.4371337e7	1.3706008e7	-0.55986776	-0.036738377	-0.036738374	-100442.05	301333.96	0	405.5938383799636
27.542287	5.2480746e-10	0.23	8.6067684e7	1.250003e7	-0.55716785	-0.036738378	-0.036738374	-91604.289	274819.84	0	408.130580264082
27.542287	5.7543994e-10	0.23	7.8494664e7	1.1400165e7	-0.55446795	-0.036738377	-0.036738373	-83544.155	250638.68	0	410.6673129686471
27.542287	6.3095734e-10	0.23	7.1587986e7	1.0397076e7	-0.55176804	-0.036738377	-0.036738372	-76193.224	228585.19	0	413.2040550688656
27.542287	6.9183097e-10	0.23	6.5289022e7	9.4822473e6	-0.54906813	-0.036738377	-0.036738372	-69489.095	208472.18	0	415.74079695298417
27.542287	7.5857758e-10	0.23	5.9544298e7	8.6479142e6	-0.54636823	-0.036738377	-0.036738372	-63374.857	190128.89	0	418.27752944144913
27.542287	8.3176377e-10	0.23	5.4305048e7	7.8869933e6	-0.54366832	-0.036738378	-0.036738371	-57798.605	173399.61	0	420.8142715416677
27.542287	9.1201084e-10	0.23	4.9526794e7	7.1930251e6	-0.54096842	-0.036738378	-0.036738371	-52713.003	158142.33	0	423.35100403013263
27.542287	1.e-9	0.23	4.5168976e7	6.5601187e6	-0.53826851	-0.036738378	-0.03673837	-48074.878	144227.52	0	425.8877461303513
27.542287	1.0964782e-9	0.23	4.1194598e7	5.9829011e6	-0.5355686	-0.036738378	-0.03673837	-43844.858	131537.07	0	428.4244880144697
27.542287	1.2022644e-9	0.23	3.7569922e7	5.4564724e6	-0.5328687	-0.036738378	-0.036738369	-39987.033	119963.23	0	430.96122071903477
27.542287	1.3182567e-9	0.23	3.4264179e7	4.9763638e6	-0.53016879	-0.036738378	-0.036738368	-36468.656	109407.78	0	433.4979628192533
27.542287	1.4454398e-9	0.23	3.1249305e7	4.5384994e6	-0.52746888	-0.036738378	-0.036738367	-33259.856	99781.081	0	436.0347049194718
27.542287	1.5848932e-9	0.23	2.8499707e7	4.1391624e6	-0.52476898	-0.036738379	-0.036738367	-30333.396	91001.431	0	438.57143740793674
27.542287	1.7378008e-9	0.23	2.5992044e7	3.7749627e6	-0.52206907	-0.036738378	-0.036738365	-27664.433	82994.296	0	441.10817972425536
27.542287	1.9054607e-9	0.23	2.3705029e7	3.4428087e6	-0.51936917	-0.036738379	-0.036738365	-25230.31	75691.701	0	443.6449122127203
27.542287	2.0892961e-9	0.23	2.1619245e7	3.1398805e6	-0.51666926	-0.036738379	-0.036738364	-23010.362	69031.655	0	446.18165431293886
27.542287	2.2908677e-9	0.23	1.9716989e7	2.8636068e6	-0.51396935	-0.036738379	-0.036738362	-20985.746	62957.622	0	448.7183966292574
27.542287	2.5118864e-9	0.23	1.798211e7	2.6116421e6	-0.51126945	-0.036738379	-0.036738361	-19139.273	57418.038	0	451.2551293338225
27.542287	2.7542287e-9	0.23	1.6399881e7	2.3818476e6	-0.50856954	-0.03673838	-0.036738359	-17455.27	52365.877	0	453.79187165014105
27.542287	3.0199517e-9	0.23	1.4956872e7	2.1722725e6	-0.50586963	-0.03673838	-0.036738358	-15919.441	47758.251	0	456.32861375035964
27.542287	3.3113112e-9	0.23	1.3640832e7	1.9811378e6	-0.50316973	-0.03673838	-0.036738355	-14518.748	43556.047	0	458.86534688712464
27.542287	3.6307805e-9	0.23	1.2440589e7	1.8068208e6	-0.50046982	-0.03673838	-0.036738353	-13241.301	39723.591	0	461.40208920344327
27.542287	3.9810717e-9	0.23	1.1345954e7	1.6478418e6	-0.49776992	-0.036738381	-0.036738351	-12076.254	36228.35	0	463.9388221241083
27.542287	4.3651583e-9	0.23	1.0347636e7	1.5028512e6	-0.49507001	-0.036738381	-0.036738349	-11013.719	33040.651	0	466.4755644404268
27.542287	4.7863009e-9	0.23	9.4371584e6	1.3706183e6	-0.4923701	-0.036738382	-0.036738346	-10044.675	30133.436	0	469.0123069728454
27.542287	5.2480746e-9	0.23	8.6067932e6	1.2500203e6	-0.4896702	-0.036738383	-0.036738344	-9160.8968	27482.024	0	471.54903989351055
27.542287	5.7543994e-9	0.23	7.8494912e6	1.1400337e6	-0.48697029	-0.036738383	-0.03673834	-8354.881	25063.908	0	474.0857826420292
27.542287	6.3095734e-9	0.23	7.1588234e6	1.0397247e6	-0.48427039	-0.036738383	-0.036738336	-7619.7855	22858.56	0	476.6225159948942
27.542287	6.9183097e-9	0.23	6.5289269e6	948241.83	-0.48157048	-0.036738384	-0.036738333	-6949.3701	20847.258	0	479.1592585273129
27.542287	7.5857758e-9	0.23	5.9544546e6	864808.44	-0.47887057	-0.036738385	-0.036738328	-6337.9439	19012.93	0	481.6960014919315
27.542287	8.3176377e-9	0.23	5.4305296e6	788716.26	-0.47617067	-0.036738386	-0.036738324	-5780.3163	17340.002	0	484.2327348447966
27.542287	9.1201084e-9	0.23	4.9527043e6	719319.37	-0.47347076	-0.036738386	-0.036738319	-5271.7537	15814.274	0	486.76947780941526
27.542287	1.e-8	0.23	4.5169224e6	656028.64	-0.47077085	-0.036738388	-0.036738313	-4807.9387	14422.793	0	489.3062209901339
27.542287	1.0964782e-8	0.23	4.1194846e6	598306.8	-0.46807095	-0.036738388	-0.036738307	-4384.9343	13153.748	0	491.84295477519913
27.542287	1.2022644e-8	0.23	3.757017e6	545663.85	-0.46537104	-0.03673839	-0.0367383	-3999.1494	11996.364	0	494.3796981720179
27.542287	1.3182567e-8	0.23	3.4264427e6	497652.9	-0.46267114	-0.036738391	-0.036738293	-3647.3092	10940.818	0	496.91643217318307
27.542287	1.4454398e-8	0.23	3.1249553e6	453866.38	-0.45997123	-0.036738392	-0.036738285	-3326.4269	9978.1488	0	499.4531757861017
27.542287	1.5848932e-8	0.23	2.8499955e6	413932.6	-0.45727133	-0.036738394	-0.036738276	-3033.7784	9100.1838	0	501.9899102194671
27.542287	1.7378008e-8	0.23	2.5992292e6	377512.55	-0.45457142	-0.036738396	-0.036738266	-2766.8797	8299.4703	0	504.5266542645859
27.542287	1.9054607e-8	0.23	2.3705276e6	344297.05	-0.45187151	-0.036738398	-0.036738256	-2523.4649	7569.2107	0	507.0633983097048
27.542287	2.0892961e-8	0.23	2.1619493e6	314004.16	-0.44917161	-0.036738399	-0.036738244	-2301.4677	6903.2063	0	509.60013339137
27.542287	2.2908677e-8	0.23	1.9717236e6	286376.7	-0.4464717	-0.036738402	-0.036738231	-2099.0036	6295.8029	0	512.1368780847889
27.542287	2.5118864e-8	0.23	1.7982358e6	261180.16	-0.4437718	-0.036738404	-0.036738217	-1914.354	5741.8445	0	514.6736135986544
27.542287	2.7542287e-8	0.23	1.6400129e6	238200.62	-0.44107189	-0.036738406	-0.036738201	-1745.9513	5236.6284	0	517.2103589403733
27.542287	3.0199517e-8	0.23	1.495712e6	217243.03	-0.43837199	-0.03673841	-0.036738185	-1592.3659	4775.8658	0	519.7470948864388
27.542287	3.3113112e-8	0.23	1.364108e6	198129.47	-0.43567208	-0.036738413	-0.036738166	-1452.2942	4355.6454	0	522.2838408764579
27.542287	3.6307805e-8	0.23	1.2440837e6	180697.69	-0.43297218	-0.036738416	-0.036738146	-1324.547	3972.3998	0	524.8205776869237
27.542287	3.9810717e-8	0.23	1.1346202e6	164799.71	-0.43027227	-0.03673842	-0.036738124	-1208.0399	3622.8757	0	527.3573243252428
27.542287	4.3651583e-8	0.23	1.0347884e6	150300.57	-0.42757237	-0.036738424	-0.036738099	-1101.784	3304.1058	0	529.8940622162085
27.542287	4.7863009e-8	0.23	943740.63	137077.19	-0.42487246	-0.036738429	-0.036738073	-1004.8772	3013.3843	0	532.4308097189278
27.542287	5.2480746e-8	0.23	860704.11	125017.31	-0.42217256	-0.036738434	-0.036738043	-916.49688	2748.2431	0	534.9675486903938
27.542287	5.7543994e-8	0.23	784973.9	114018.57	-0.41947265	-0.036738439	-0.036738011	-835.89286	2506.4315	0	537.504297489713
27.542287	6.3095734e-8	0.23	715907.13	103987.59	-0.41677275	-0.036738445	-0.036737976	-762.38088	2285.8967	0	540.0410375416793
27.542287	6.9183097e-8	0.23	652917.49	94839.214	-0.41407284	-0.036738452	-0.036737937	-695.33692	2084.7665	0	542.577787853699
27.542287	7.5857758e-8	0.23	595470.25	86495.791	-0.41137294	-0.036738459	-0.036737895	-634.19186	1901.3337	0	545.1145294183651
27.542287	8.3176377e-8	0.23	543077.75	78886.492	-0.40867303	-0.036738467	-0.036737848	-578.42668	1734.0409	0	547.6512814591852
27.542287	9.1201084e-8	0.23	495295.21	71946.719	-0.40597313	-0.036738476	-0.036737798	-527.56798	1581.4681	0	550.1880247526516
27.542287	1.e-7	0.23	451717.03	65617.563	-0.40327323	-0.036738485	-0.036737741	-481.18406	1442.32	0	552.7247695588185
27.542287	1.0964782e-7	0.23	411973.25	59845.296	-0.40057332	-0.036738496	-0.036737681	-438.88118	1315.4154	0	555.2615244089387
27.542287	1.2022644e-7	0.23	375726.49	54580.918	-0.39787342	-0.036738508	-0.036737613	-400.30027	1199.6771	0	557.7982715922058
27.542287	1.3182567e-7	0.23	342669.06	49779.74	-0.39517352	-0.03673852	-0.036737539	-365.11381	1094.1225	0	560.3350200720731
27.542287	1.4454398e-7	0.23	312520.31	45401.005	-0.39247362	-0.036738534	-0.036737459	-333.02315	997.85557	0	562.8717698485405
27.542287	1.5848932e-7	0.23	285024.34	41407.544	-0.38977371	-0.03673855	-0.036737371	-303.75587	910.05907	0	565.4085307494615
27.542287	1.7378008e-7	0.23	259947.71	37765.456	-0.38707381	-0.036738566	-0.036737274	-277.06357	829.98772	0	567.9452841996297
27.542287	1.9054607e-7	0.23	237077.55	34443.824	-0.38437391	-0.036738584	-0.036737167	-252.71966	756.96178	0	570.4820398107978
27.542287	2.0892961e-7	0.23	216219.72	31414.452	-0.38167401	-0.036738604	-0.03673705	-230.51752	690.36133	0	573.0187975829665
27.542287	2.2908677e-7	0.23	197197.15	28651.623	-0.37897411	-0.036738627	-0.036736922	-210.26868	629.62099	0	575.5555577322355
27.542287	2.5118864e-7	0.23	179848.37	26131.885	-0.37627421	-0.03673865	-0.036736782	-191.80128	574.22515	0	578.0923204747046
27.542287	2.7542287e-7	0.23	164026.08	23833.849	-0.37357432	-0.036738676	-0.036736628	-174.95858	523.70354	0	580.6290768469207
27.542287	3.0199517e-7	0.23	149595.99	21738.007	-0.37087442	-0.036738706	-0.03673646	-159.59761	477.62728	0	583.1658456401909
27.542287	3.3113112e-7	0.23	136435.58	19826.568	-0.36817452	-0.036738738	-0.036736274	-145.58801	435.60523	0	585.7026183232617
27.542287	3.6307805e-7	0.23	124433.16	18083.307	-0.36547462	-0.036738772	-0.036736072	-132.81086	397.28068	0	588.2393944639329
27.542287	3.9810717e-7	0.23	113486.81	16493.426	-0.36277473	-0.036738811	-0.036735849	-121.15772	362.32826	0	590.7761657470512
27.542287	4.3651583e-7	0.23	103503.63	15043.43	-0.36007484	-0.036738852	-0.036735605	-110.5297	330.45128	0	593.3129415682702
27.542287	4.7863009e-7	0.23	94398.852	13721.009	-0.35737494	-0.036738898	-0.036735338	-100.83659	301.37913	0	595.8497317554433
27.542287	5.2480746e-7	0.23	86095.2	12514.938	-0.35467505	-0.036738948	-0.036735044	-91.996133	274.86501	0	598.3865183816636
27.542287	5.7543994e-7	0.23	78522.179	11414.981	-0.35197516	-0.036739004	-0.036734723	-83.933301	250.68385	0	600.9233108425849
27.542287	6.3095734e-7	0.23	71615.501	10411.8	-0.34927527	-0.036739064	-0.036734371	-76.579672	228.63037	0	603.4601100026072
27.542287	6.9183097e-7	0.23	65316.537	9496.8796	-0.34657539	-0.036739131	-0.036733984	-69.872847	208.51735	0	605.996907330477
27.542287	7.5857758e-7	0.23	59571.813	8662.4544	-0.3438755	-0.036739204	-0.036733561	-63.755911	190.17406	0	608.5337218336012
27.542287	8.3176377e-7	0.23	54332.563	7901.4415	-0.34117562	-0.036739283	-0.036733096	-58.176963	173.44479	0	611.0705360172735
27.542287	9.1201084e-7	0.23	49554.31	7207.3813	-0.33847574	-0.036739371	-0.036732586	-53.088663	158.18751	0	613.6073599254471
27.542287	1.e-6	0.23	45196.491	6574.3828	-0.33577586	-0.036739467	-0.036732028	-48.44784	144.2727	0	616.1441942064221
27.542287	1.0964782e-6	0.23	41222.114	5997.0734	-0.33307599	-0.036739572	-0.036731415	-44.215124	131.58225	0	618.6810309772453
27.542287	1.2022644e-6	0.23	37597.438	5470.5527	-0.33037612	-0.036739687	-0.036730744	-40.354602	120.00841	0	621.2178802818703
27.542287	1.3182567e-6	0.23	34291.694	4990.3519	-0.32767625	-0.036739814	-0.036730007	-36.833526	109.45295	0	623.7547438490974
27.542287	1.4454398e-6	0.23	31276.82	4552.3956	-0.32497638	-0.036739953	-0.0367292	-33.62203	99.826257	0	626.2916225433264
27.542287	1.5848932e-6	0.23	28527.223	4152.9666	-0.32227652	-0.036740104	-0.036728315	-30.692873	91.046608	0	628.8285086977044
27.542287	1.7378008e-6	0.23	26019.56	3788.6749	-0.31957667	-0.036740271	-0.036727344	-28.021212	83.039474	0	631.3654040410315
27.542287	1.9054607e-6	0.23	23732.545	3456.4288	-0.31687681	-0.036740454	-0.036726279	-25.584391	75.73688	0	633.902329093415
27.542287	2.0892961e-6	0.23	21646.761	3153.4087	-0.31417697	-0.036740654	-0.036725112	-23.361746	69.076834	0	636.4392573966945
27.542287	2.2908677e-6	0.23	19744.505	2877.0429	-0.31147713	-0.036740874	-0.036723833	-21.334433	63.002801	0	638.9762099031775
27.542287	2.5118864e-6	0.23	18009.626	2624.9863	-0.30877729	-0.036741115	-0.03672243	-19.485263	57.463217	0	641.5131892060643
27.542287	2.7542287e-6	0.23	16427.398	2395.0998	-0.30607746	-0.03674138	-0.036720891	-17.798563	52.411057	0	644.0501885029018
27.542287	3.0199517e-6	0.23	14984.388	2185.4327	-0.30337764	-0.03674167	-0.036719205	-16.260036	47.803432	0	646.5872101707902
27.542287	3.3113112e-6	0.23	13668.348	1994.2059	-0.30067783	-0.036741988	-0.036717355	-14.856646	43.601228	0	649.1242578834302
27.542287	3.6307805e-6	0.23	12468.106	1819.7969	-0.29797803	-0.036742336	-0.036715327	-13.576501	39.768772	0	651.661334666222
27.542287	3.9810717e-6	0.23	11373.471	1660.726	-0.29527824	-0.036742718	-0.036713103	-12.408757	36.273532	0	654.1984444089663
27.542287	4.3651583e-6	0.23	10375.153	1515.6434	-0.29257846	-0.036743136	-0.036710665	-11.343525	33.085835	0	656.7355910014638
27.542287	4.7863009e-6	0.23	9464.6758	1383.3185	-0.28987869	-0.036743596	-0.036707991	-10.371784	30.178621	0	659.2727791979147
27.542287	5.2480746e-6	0.23	8634.3108	1262.6286	-0.28717893	-0.0367441	-0.03670506	-9.4853074	27.52721	0	661.81001353642
27.542287	5.7543994e-6	0.23	7877.009	1152.55	-0.28447919	-0.036744652	-0.036701846	-8.676594	25.109095	0	664.3472902399272
27.542287	6.3095734e-6	0.23	7186.3415	1052.149	-0.28177946	-0.036745258	-0.036698322	-7.9388009	22.903747	0	666.8846245387901
27.542287	6.9183097e-6	0.23	6556.4454	960.57411	-0.27907976	-0.036745921	-0.036694457	-7.2656881	20.892447	0	669.4220043408031
27.542287	7.5857758e-6	0.23	5981.9734	877.04874	-0.27638007	-0.036746649	-0.03669022	-6.6515643	19.05812	0	671.9594551363738
27.542287	8.3176377e-6	0.23	5458.0488	800.86459	-0.2736804	-0.036747448	-0.036685575	-6.0912391	17.385193	0	674.4969753094501
27.542287	9.1201084e-6	0.23	4980.2239	731.37572	-0.27098075	-0.036748323	-0.036680481	-5.5799787	15.859467	0	677.0345737201328
27.542287	0.00001	0.23	4544.4425	667.99302	-0.26828113	-0.036749283	-0.036674895	-5.1134661	14.467988	0	679.5722502650702
27.542287	0.000010964782	0.23	4147.0052	610.17922	-0.26558154	-0.036750336	-0.036668771	-4.6877639	13.198944	0	682.1100148848634
27.542287	0.000012022644	0.23	3784.5346	557.44426	-0.2628876	-0.036759901	-0.036670467	-4.299285	12.041558	0	684.6407810581908
27.542287	0.000013182567	0.23	3453.9605	509.34135	-0.26018861	-0.036761977	-0.036663915	-3.9447473	10.986014	0	687.1780744295871
27.542287	0.000014454398	0.23	3152.4735	465.46289	-0.25748971	-0.036764253	-0.03665673	-3.6211674	10.023347	0	689.7154200314212
27.542287	0.000015848932	0.23	2877.514	425.43716	-0.25479091	-0.036766749	-0.036648852	-3.3258214	9.1453839	0	692.2528214340416
27.542287	0.000017378008	0.23	2626.7481	388.92517	-0.25209221	-0.036769486	-0.036640214	-3.0562251	8.3446728	0	694.79029311615
27.542287	0.000019054607	0.23	2398.0469	355.61774	-0.24939363	-0.036772485	-0.036630742	-2.8101126	7.6144161	0	697.3278322778418
27.542287	0.000020892961	0.23	2189.4691	325.23293	-0.24669518	-0.036775774	-0.036620356	-2.5854178	6.9484146	0	699.8654468114661
27.542287	0.000022908677	0.23	1999.2439	297.51355	-0.24399687	-0.036779381	-0.036608968	-2.380256	6.3410145	0	702.403146338172
27.542287	0.000025118864	0.23	1825.7565	272.22509	-0.24129871	-0.036783333	-0.036596479	-2.1929086	5.7870597	0	704.9409428562088
27.542287	0.000027542287	0.23	1667.5343	249.15366	-0.23860072	-0.036787667	-0.036582786	-2.021808	5.2818476	0	707.4788398325732
27.542287	0.000030199517	0.23	1523.234	228.10419	-0.23590291	-0.036792419	-0.036567771	-1.8655248	4.8210894	0	710.0168533714145
27.542287	0.000033113112	0.23	1391.6306	208.89875	-0.23320531	-0.036797627	-0.036551307	-1.7227551	4.4008737	0	712.5549827304767
27.542287	0.000036307805	0.23	1271.6071	191.37511	-0.23050792	-0.036803337	-0.036533252	-1.5923099	4.0176333	0	715.0932585959638
27.542287	0.000039810717	0.23	1162.1445	175.38528	-0.22781078	-0.036809597	-0.036513455	-1.4731047	3.6681148	0	717.6316760163666
27.542287	0.000043651583	0.23	1062.3136	160.79431	-0.2251139	-0.036816459	-0.036491746	-1.3641506	3.3493513	0	720.1702623330367
27.542287	0.000047863009	0.23	971.26685	147.47912	-0.22241731	-0.03682398	-0.036467941	-1.2645455	3.0586367	0	722.7090291214193
27.542287	0.000052480746	0.23	888.23144	135.32745	-0.21972104	-0.036832224	-0.036441837	-1.1734669	2.793503	0	725.2479920628599
27.542287	0.000057543994	0.23	812.50246	124.23693	-0.21702512	-0.036841261	-0.036413211	-1.0901643	2.5516997	0	727.787171160705
27.542287	0.000063095734	0.23	743.43705	114.1142	-0.21432958	-0.036851165	-0.036381819	-1.0139537	2.331174	0	730.3265909564014
27.542287	0.000069183097	0.23	680.44888	104.8741	-0.21163445	-0.036862021	-0.036347396	-0.94421102	2.1300538	0	732.866280529497
27.542287	0.000075857758	0.23	623.00327	96.438983	-0.20893978	-0.036873918	-0.036309647	-0.88036704	1.9466318	0	735.4062566512326
27.542287	0.000083176377	0.23	570.61256	88.738018	-0.20624562	-0.036886956	-0.03626825	-0.82190277	1.7793511	0	737.9465419275514
27.542287	0.000091201084	0.23	522.832	81.706611	-0.20355199	-0.036901244	-0.036222852	-0.7683448	1.6267914	0	740.4871938504565
27.542287	0.0001	0.23	479.25598	75.28586	-0.20085896	-0.036916899	-0.036173066	-0.71926142	1.4876577	0	743.0282302810855
27.542287	0.00010964782	0.23	439.51459	69.422037	-0.19816659	-0.036934053	-0.036118467	-0.67425885	1.360769	0	745.5696866880303
27.542287	0.00012022644	0.23	403.27045	64.066147	-0.19547493	-0.036952848	-0.036058589	-0.63297799	1.2450481	0	748.1116167956375
27.542287	0.00013182567	0.23	370.21591	59.173506	-0.19278405	-0.036973438	-0.035992921	-0.59509132	1.1395125	0	750.6540652614484
27.542287	0.00014454398	0.23	340.07035	54.703361	-0.19009402	-0.036995993	-0.035920903	-0.56030015	1.0432665	0	753.1970873319054
27.542287	0.00015848932	0.23	312.57788	50.618548	-0.18740492	-0.037020698	-0.035841918	-0.52833205	0.95549299	0	755.7407411754996
27.542287	0.00017378008	0.23	287.50512	46.885173	-0.18471683	-0.037047756	-0.035755292	-0.49893855	0.87544685	0	758.2850972784231
27.542287	0.00019054607	0.23	264.63922	43.472323	-0.18202985	-0.037077388	-0.035660285	-0.47189304	0.80244855	0	760.8302215981638
27.542287	0.00020892961	0.23	243.78609	40.351811	-0.17934408	-0.037109833	-0.035556085	-0.44698886	0.73587847	0	763.3761956514114
27.542287	0.00022908677	0.23	224.76871	37.497927	-0.17665963	-0.037145354	-0.035441801	-0.42403751	0.67517146	0	765.9231086311045
27.542287	0.00025118864	0.23	207.42565	34.887226	-0.17397661	-0.037184238	-0.035316459	-0.40286706	0.6198122	0	768.4710676664846
27.542287	0.00027542287	0.23	191.60969	32.498329	-0.17129515	-0.037226796	-0.035178987	-0.38332072	0.56933076	0	771.0201822732884
27.542287	0.00030199517	0.23	177.18659	30.311738	-0.16861539	-0.037273366	-0.035028213	-0.36525546	0.5232986	0	773.570574181603
27.542287	0.00033113112	0.23	164.03392	28.309673	-0.16593748	-0.037324318	-0.034862852	-0.34854084	0.48132497	0	776.1223801451652
27.542287	0.00036307805	0.23	152.04005	26.475921	-0.16326158	-0.037380052	-0.034681497	-0.33305788	0.44305357	0	778.6757538862614
27.542287	0.00039810717	0.23	141.10317	24.795696	-0.16058785	-0.037441004	-0.034482609	-0.31869804	0.40815952	0	781.230877652383
27.542287	0.00043651583	0.23	131.13047	23.255517	-0.15791648	-0.037507644	-0.034264504	-0.30536235	0.37634663	0	783.7879368385645
27.542287	0.00047863009	0.23	122.03731	21.843091	-0.15524767	-0.037580486	-0.034025341	-0.29296049	0.34734484	0	786.3471413718925
27.542287	0.00052480746	0.23	113.74653	20.54721	-0.15258163	-0.037660084	-0.033763113	-0.28141007	0.32090797	0	788.9087276564045
27.542287	0.00057543994	0.23	106.18778	19.357654	-0.14991858	-0.037747037	-0.033475631	-0.27063596	0.29681161	0	791.4729620306903
27.542287	0.00063095734	0.23	99.296933	18.265107	-0.14725875	-0.03784199	-0.03316051	-0.26056957	0.27485121	0	794.0401437932919
27.542287	0.00069183097	0.23	93.015526	17.261073	-0.1446024	-0.037945646	-0.032815163	-0.25114835	0.25484033	0	796.6105877079975
27.542287	0.00075857758	0.23	87.290281	16.337811	-0.14194979	-0.038058755	-0.032436785	-0.24231521	0.23660908	0	799.1846556484015
27.542287	0.00083176377	0.23	82.072636	15.488261	-0.1393012	-0.03818213	-0.032022347	-0.23401805	0.22000266	0	801.7627391031984
27.542287	0.00091201084	0.23	77.318347	14.70599	-0.13665691	-0.038316637	-0.031568585	-0.2262093	0.20488003	0	804.3452803445896
27.542287	0.001	0.23	72.987094	13.985134	-0.13401723	-0.038463213	-0.031072004	-0.21884555	0.1911127	0	806.9327433769233
27.542287	0.0010964782	0.23	69.042147	13.320347	-0.13138246	-0.038622856	-0.030528877	-0.21188717	0.17858362	0	809.5256517354082
27.542287	0.0012022644	0.23	65.450047	12.706759	-0.12875292	-0.038796633	-0.029935253	-0.20529794	0.1671862	0	812.1245585703529
27.542287	0.0013182567	0.23	62.180314	12.139928	-0.12612893	-0.038985683	-0.029286984	-0.19904481	0.15682335	0	814.7300596037715
27.542287	0.0014454398	0.23	59.205184	11.615807	-0.12351082	-0.039191219	-0.028579749	-0.19309754	0.14740661	0	817.3427785473307
27.542287	0.0015848932	0.23	56.499362	11.130705	-0.12089891	-0.039414525	-0.027809103	-0.18742852	0.13885541	0	819.963375304754
27.542287	0.0017378008	0.23	54.039795	10.681254	-0.11829353	-0.039656967	-0.026970543	-0.18201249	0.1310963	0	822.5925129179129
27.542287	0.0019054607	0.23	51.805463	10.264381	-0.11569497	-0.039919981	-0.026059582	-0.17682637	0.12406227	0	825.2308885536933
27.542287	0.0020892961	0.23	49.777183	9.8772791	-0.11310355	-0.040205089	-0.025071858	-0.17184902	0.11769216	0	827.8791441795158
27.542287	0.0022908677	0.23	47.93743	9.5173795	-0.11051952	-0.040513886	-0.024003254	-0.16706113	0.11193	0	830.5379345878687
27.542287	0.0025118864	0.23	46.270165	9.1823306	-0.10794314	-0.040848045	-0.022850035	-0.162445	0.10672456	0	833.2078226253749
27.542287	0.0027542287	0.23	44.760683	8.8699744	-0.10537461	-0.041209315	-0.021609004	-0.15798446	0.10202873	0	835.8893112507618
27.542287	0.0030199517	0.23	43.395468	8.5783264	-0.1028141	-0.041599523	-0.020277659	-0.15366471	0.097799145	0	838.5827814201964
27.542287	0.0033113112	0.23	42.162064	8.3055578	-0.10026173	-0.042020564	-0.018854342	-0.14947224	0.09399572	0	841.2884786796872
27.542287	0.0036307805	0.23	41.048966	8.0499793	-0.097717544	-0.042474408	-0.017338376	-0.14539468	0.090581283	0	844.0065079880791
27.542287	0.0039810717	0.23	40.045526	7.8100276	-0.09518152	-0.042963084	-0.015730155	-0.14142079	0.087521267	0	846.7368048723981
27.542287	0.0043651583	0.23	39.141871	7.5842532	-0.092653558	-0.04348869	-0.014031202	-0.13754029	0.084783451	0	849.4791341688331
27.542287	0.0047863009	0.23	38.328849	7.3713122	-0.090133463	-0.044053377	-0.012244154	-0.13374385	0.082337762	0	852.2331092368463
27.542287	0.0052480746	0.23	37.597992	7.1699586	-0.08762094	-0.04465935	-0.010372693	-0.13002303	0.080156137	0	854.9982115679038
27.542287	0.0057543994	0.23	36.941482	6.979039	-0.085115582	-0.04530886	-0.0084214229	-0.12637014	0.078212434	0	857.773828662173
27.542287	0.0063095734	0.23	36.352148	6.7974889	-0.082616861	-0.046004198	-0.0063956859	-0.12277826	0.076482381	0	860.5593021605753
27.542287	0.0069183097	0.23	35.823453	6.6243296	-0.080124127	-0.046747686	-0.0043013528	-0.11924112	0.074943547	0	863.3539741005293
27.542287	0.0075857758	0.23	35.349493	6.4586656	-0.077636593	-0.047541666	-0.0021445945	-0.11575309	0.073575329	0	866.1572503882873
27.542287	0.0083176377	0.23	34.924988	6.2996814	-0.075153341	-0.048388492	0.000068341133	-0.11230905	0.072358927	0	868.9686433805913
27.542287	0.0091201084	0.23	34.545271	6.1466388	-0.072673314	-0.049290516	0.002331336	-0.1089044	0.071277312	0	871.7878240766358
27.542287	0.01	0.23	34.20627	5.9988724	-0.070195331	-0.050250061	0.0046385944	-0.10553494	0.070315168	0	874.6146496519362
27.542287	0.010964782	0.23	33.904473	5.8557853	-0.067718085	-0.051269404	0.0069847831	-0.10219686	0.06945881	0	877.4491956065912
27.542287	0.012022644	0.23	33.636891	5.7168437	-0.065240174	-0.052350734	0.0093651664	-0.098886667	0.068696088	0	880.2917558263066
27.542287	0.013182567	0.23	33.401008	5.5815709	-0.062760118	-0.053496111	0.011775702	-0.095601132	0.068016255	0	883.1428473266476
27.542287	0.014454398	0.23	33.19472	5.449541	-0.060276406	-0.054707396	0.014213132	-0.092337254	0.067409828	0	886.0031857585684
27.542287	0.015848932	0.23	33.016268	5.3203727	-0.05778755	-0.05598617	0.016675073	-0.08909222	0.066868441	0	888.8736541424971
27.542287	0.017378008	0.23	32.864157	5.1937223	-0.055292161	-0.057333606	0.019160117	-0.085863378	0.066384671	0	891.7552532658622
27.542287	0.019054607	0.23	32.737074	5.0692773	-0.052789054	-0.058750321	0.021667961	-0.082648209	0.065951875	0	894.6490310352939
27.542287	0.020892961	0.23	32.633785	4.9467496	-0.050277371	-0.060236169	0.024199573	-0.079444322	0.065564003	0	897.5560027826922
27.542287	0.022908677	0.23	32.553032	4.8258695	-0.047756746	-0.061789974	0.026757424	-0.076249445	0.065215418	0	900.4770463721503
27.542287	0.025118864	0.23	32.493432	4.7063787	-0.045227491	-0.063409195	0.029345777	-0.073061434	0.064900693	0	903.4127898937093
27.542287	0.027542287	0.23	32.453366	4.5880246	-0.042690809	-0.065089524	0.031971058	-0.069878295	0.064614417	0	906.3634917090491
27.542287	0.030199517	0.23	32.430917	4.4705535	-0.040148992	-0.06682442	0.034642284	-0.066698203	0.064350976	0	909.3289469083625
27.542287	0.033113112	0.23	32.423847	4.3537047	-0.037605583	-0.068604588	0.03737155	-0.063519538	0.064104353	0	912.3084403414832
27.542287	0.036307805	0.23	32.429716	4.2372056	-0.03506539	-0.070417473	0.040174508	-0.060340911	0.06386794	0	915.300836975886
27.542287	0.039810717	0.23	32.44618	4.1207669	-0.032534267	-0.072246839	0.043070763	-0.057161173	0.063634412	0	918.3048732371099
27.542287	0.043651583	0.23	32.471606	4.0040816	-0.03001846	-0.074072581	0.04608404	-0.053979373	0.063395716	0	921.3198075732023
27.542287	0.047863009	0.23	32.506079	3.8868267	-0.027523376	-0.075870889	0.049242001	-0.050794649	0.063143246	0	924.3465375133594
27.542287	0.052480746	0.23	32.552866	3.7686709	-0.025051621	-0.077614984	0.052575496	-0.047605986	0.062868305	0	927.3892812362202
27.542287	0.057543994	0.23	32.620233	3.6492879	-0.022600349	-0.079276457	0.056117208	-0.044411821	0.062562895	0	930.4577755420677
27.542287	0.063095734	0.23	32.723367	3.528375	-0.020158188	-0.080827222	0.059899695	-0.041209455	0.062220836	0	933.5697409528549
27.542287	0.069183097	0.23	32.885906	3.4056711	-0.017702316	-0.08224182	0.063953077	-0.037994299	0.061839066	0	936.7531291619182
27.542287	0.075857758	0.23	33.140578	3.280971	-0.015196389	-0.083499675	0.06830277	-0.034758996	0.061418927	0	940.0475801307133
27.542287	0.083176377	0.23	33.52854	3.1541328	-0.012589969	-0.084586906	0.07296768	-0.031492563	0.060967245	0	943.50456924354
27.542287	0.091201084	0.23	34.097207	3.0250819	-0.0098198317	-0.08549742	0.077959093	-0.028179645	0.060497181	0	947.1859387669008
27.542287	0.1	0.23	34.896339	2.8938255	-0.0068135734	-0.0862335	0.083280104	-0.024800088	0.060029106	0	951.1603855381214
27.542287	0.10964782	0.23	35.97151	2.7604976	-0.0034963477	-0.086806975	0.088924428	-0.021328996	0.059591844	0	955.4968744525229
27.542287	0.12022644	0.23	37.353274	2.6254423	0.00019780416	-0.087244011	0.094871625	-0.01773763	0.059224218	0	960.2529609909064
27.542287	0.13182567	0.23	39.041779	2.4893028	0.0043106666	-0.087599426	0.10107278	-0.013995616	0.058975458	0	965.457333813482
27.542287	0.14454398	0.23	40.99736	2.3530071	0.0088528103	-0.087985242	0.10742195	-0.010074531	0.058901189	0	971.0970304793727
27.542287	0.15848932	0.23	40.997729	2.2200659	0.01155495	-0.08895122	0.11337564	-0.0060034358	0.059075264	0	974.9224599029395
27.542287	0.17378008	0.23	44.001729	2.0962888	0.017840201	-0.091397922	0.11803973	-0.0018426659	0.05960765	0	981.8357739498472
27.542287	0.19054607	0.23	47.74061	1.9743466	0.025293265	-0.094287857	0.12245837	0.0026473122	0.060523032	0	989.793282874348
27.542287	0.20892961	0.23	52.389834	1.8550536	0.034198456	-0.097702728	0.12655668	0.0075468438	0.061925626	0	999.0459366890783
27.542287	0.22908677	0.23	58.159087	1.7393533	0.04489275	-0.10171281	0.13027144	0.012955188	0.063942347	0	1009.8966845234914
27.542287	0.25118864	0.23	65.283193	1.6282765	0.057757158	-0.10636849	0.13355949	0.018993507	0.066724576	0	1022.6941842338397
27.542287	0.27542287	0.23	74.002593	1.5228669	0.073195397	-0.11169089	0.13640716	0.02580646	0.070447567	0	1037.8148002371124
27.542287	0.30199517	0.23	84.533633	1.4240781	0.091599558	-0.11766383	0.13883832	0.033561373	0.075306599	0	1055.632085958684
27.542287	0.33113112	0.23	97.033374	1.3326595	0.11330779	-0.12423028	0.1409179	0.042444161	0.081509555	0	1076.4777858570724
27.542287	0.36307805	0.23	111.5682	1.2490603	0.13856439	-0.13129643	0.14274783	0.052651903	0.089266681	0	1100.6034600046953
27.542287	0.39810717	0.23	128.09671	1.1733803	0.16749445	-0.13874376	0.144455	0.064382964	0.09877927	0	1128.1540614431851
27.542287	0.43651583	0.23	146.47312	1.1053826	0.20010097	-0.14644635	0.14617394	0.07782642	0.11022945	0	1159.1614808056947
27.542287	0.47863009	0.23	166.46975	1.044559	0.2362834	-0.15428818	0.14802956	0.093152798	0.12377286	0	1193.5582378510915
27.542287	0.52480746	0.23	187.81023	0.99022433	0.27586954	-0.16217568	0.15012454	0.11050763	0.13953493	0	1231.2047285772376
27.542287	0.57543994	0.23	210.20363	0.94161195	0.31865	-0.17004357	0.15253357	0.13000839	0.15761067	0	1271.9203579067737
27.542287	0.63095734	0.23	233.37195	0.89795196	0.36440749	-0.17785446	0.15530371	0.15174446	0.1780669	0	1315.5111373522348
27.542287	0.69183097	0.23	257.06824	0.85852373	0.41293728	-0.18559459	0.15845871	0.17577941	0.20094606	0	1361.7898420752385
27.542287	0.75857758	0.23	281.08566	0.82268473	0.46405904	-0.19326797	0.1620048	0.20215451	0.22627058	0	1410.5883865594103
27.542287	0.83176377	0.23	305.2597	0.78988108	0.51762203	-0.20089063	0.16593652	0.23089283	0.2540473	0	1461.7639608177244
27.542287	0.91201084	0.23	329.46608	0.75964635	0.57350576	-0.20848588	0.17024147	0.26200332	0.28427149	0	1515.2006769807808
27.542287	1.	0.23	353.61631	0.73159376	0.63161825	-0.21608069	0.17490389	0.29548455	0.31693039	0	1570.8087080912064
27.542287	1.0964782	0.23	377.6524	0.70540569	0.69189304	-0.22370327	0.1799071	0.33132794	0.3520061	0	1628.5220060873307
27.542287	1.2022644	0.23	401.54156	0.68082274	0.75428592	-0.23138154	0.18523509	0.3695205	0.38947804	0	1688.2955730235421
27.542287	1.3182567	0.23	425.27128	0.65763349	0.81877175	-0.23914225	0.19087338	0.41004708	0.42932485	0	1750.1026590985007
27.542287	1.4454398	0.23	448.84508	0.63566552	0.88534157	-0.24701049	0.19680948	0.4528921	0.47152591	0	1813.9321467172886
27.542287	1.5848932	0.23	472.27893	0.6147779	0.95400018	-0.25500963	0.20303307	0.49804097	0.51606248	0	1879.7863156412718
27.542287	1.7378008	0.23	495.59832	0.59485496	1.024764	-0.26316126	0.20953594	0.54548116	0.56291865	0	1947.6788193522466
27.542287	1.9054607	0.23	518.83585	0.57580129	1.0976596	-0.27148535	0.21631193	0.59520299	0.61208195	0	2017.6332909253738
27.542287	2.0892961	0.23	542.02936	0.55753768	1.1727219	-0.28000042	0.22335676	0.64720026	0.66354384	0	2089.6816150745462
27.542287	2.2908677	0.23	565.22039	0.53999792	1.2499935	-0.28872372	0.23066785	0.70147066	0.71730008	0	2163.8632597455944
27.542287	2.5118864	0.23	588.45305	0.52312626	1.3295234	-0.29767144	0.23824412	0.75801609	0.77335094	0	2240.224030252636
27.542287	2.7542287	0.23	611.77307	0.50687534	1.4113666	-0.30685884	0.24608589	0.81684288	0.83170135	0	2318.8156718419295
27.542287	3.0199517	0.23	635.22715	0.4912046	1.4955833	-0.31630045	0.25419467	0.87796185	0.89236096	0	2399.6950726585924
27.542287	3.3113112	0.23	658.86244	0.47607899	1.5822384	-0.32601021	0.26257308	0.94138848	0.95534419	0	2482.923776675919
27.542287	3.6307805	0.23	682.7261	0.46146797	1.6714015	-0.33600159	0.27122468	1.0071428	1.0206702	0	2568.5679469583774
27.542287	3.9810717	0.23	706.8651	0.44734464	1.7631462	-0.34628773	0.28015392	1.0752496	1.088363	0	2656.6976971608647
27.542287	4.3651583	0.23	731.32596	0.43368514	1.8575501	-0.35688149	0.28936604	1.145738	1.158451	0	2747.3870699186996
27.542287	4.7863009	0.23	756.1547	0.42046811	1.9546946	-0.36779559	0.29886701	1.218642	1.2309675	0	2840.7138359685537
27.542287	5.2480746	0.23	781.39667	0.40767425	2.0546647	-0.37904266	0.30866343	1.2939997	1.3059502	0	2936.759284625379
27.542287	5.7543994	0.23	807.09662	0.39528601	2.1575492	-0.39063529	0.31876253	1.3718539	1.3834413	0	3035.608411695477
27.542287	6.3095734	0.23	833.29863	0.38328728	2.2634401	-0.40258614	0.32917212	1.4522517	1.4634873	0	3137.3493449322846
27.542287	6.9183097	0.23	860.04617	0.3716632	2.3724333	-0.41490795	0.33990053	1.5352444	1.5461393	0	3242.073988766121
27.542287	7.5857758	0.23	887.38212	0.36039995	2.4846278	-0.4276136	0.35095661	1.6208876	1.6314523	0	3349.8772726519064
27.542287	8.3176377	0.23	915.34884	0.34948463	2.6001264	-0.44071615	0.3623497	1.709241	1.7194858	0	3460.8578022819056
27.542287	9.1201084	0.23	943.98823	0.33890513	2.7190354	-0.45422888	0.3740896	1.8003686	1.8103032	0	3575.117571233123
27.542287	10.	0.23	973.34183	0.32865	2.8414644	-0.46816533	0.38618659	1.8943383	1.9039723	0	3692.7617773762313