27.542287	1.e-12	0.05	4.5168949e10	6.5600976e9	-0.73460347	-0.087630825	-0.087630825	-4.8074303e7	1.4422748e8	0	245.24063926013974
27.542287	1.0964782e-12	0.05	4.1194571e10	5.9828801e9	-0.73190357	-0.087630851	-0.087630851	-4.3844286e7	1.3153702e8	0	247.7773705271699
27.542287	1.2022644e-12	0.05	3.7569895e10	5.4564514e9	-0.72920366	-0.087630874	-0.087630874	-3.9986464e7	1.1996319e8	0	250.31411133078817
27.542287	1.3182567e-12	0.05	3.4264152e10	4.9763429e9	-0.72650376	-0.087630892	-0.087630892	-3.6468089e7	1.0940773e8	0	252.85084297364432
27.542287	1.4454398e-12	0.05	3.1249277e10	4.5384786e9	-0.72380385	-0.087630908	-0.087630908	-3.3259292e7	9.9781035e7	0	255.38758410611052
27.542287	1.5848932e-12	0.05	2.849968e10	4.1391417e9	-0.72110394	-0.08763092	-0.08763092	-3.0332835e7	9.1001386e7	0	257.9243254264899
27.542287	1.7378008e-12	0.05	2.5992017e10	3.7749421e9	-0.71840404	-0.087630931	-0.087630931	-2.7663874e7	8.2994251e7	0	260.4610573981939
27.542287	1.9054607e-12	0.05	2.3705001e10	3.4427881e9	-0.71570413	-0.08763094	-0.08763094	-2.5229753e7	7.5691656e7	0	262.99779885950807
27.542287	2.0892961e-12	0.05	2.1619218e10	3.1398601e9	-0.71300422	-0.087630947	-0.087630947	-2.3009808e7	6.9031611e7	0	265.5345404147787
27.542287	2.2908677e-12	0.05	1.9716961e10	2.8635865e9	-0.71030432	-0.087630953	-0.087630953	-2.0985195e7	6.2957578e7	0	268.0712726213741
27.542287	2.5118864e-12	0.05	1.7982082e10	2.6116219e9	-0.70760441	-0.087630958	-0.087630958	-1.9138725e7	5.7417993e7	0	270.60801427060125
27.542287	2.7542287e-12	0.05	1.6399854e10	2.3818275e9	-0.70490451	-0.087630962	-0.087630962	-1.7454725e7	5.2365832e7	0	273.1447465711531
27.542287	3.0199517e-12	0.05	1.4956845e10	2.1722525e9	-0.7022046	-0.087630966	-0.087630966	-1.5918898e7	4.7758206e7	0	275.68148826735865
27.542287	3.3113112e-12	0.05	1.3640804e10	1.9811178e9	-0.69950469	-0.087630969	-0.087630969	-1.4518208e7	4.3556001e7	0	278.21823001054224
27.542287	3.6307805e-12	0.05	1.2440561e10	1.8068009e9	-0.69680479	-0.087630971	-0.087630971	-1.3240763e7	3.9723546e7	0	280.7549624050507
27.542287	3.9810717e-12	0.05	1.1345927e10	1.647822e9	-0.69410488	-0.087630973	-0.087630973	-1.2075719e7	3.6228304e7	0	283.2917041952127
27.542287	4.3651583e-12	0.05	1.0347608e10	1.5028315e9	-0.69140497	-0.087630975	-0.087630975	-1.1013187e7	3.3040606e7	0	285.8284459853747
27.542287	4.7863009e-12	0.05	9.4371309e9	1.3705986e9	-0.68870507	-0.087630976	-0.087630976	-1.0044146e7	3.0133391e7	0	288.36517842686135
27.542287	5.2480746e-12	0.05	8.6067658e9	1.2500008e9	-0.68600516	-0.087630977	-0.087630977	-9.1603702e6	2.7481979e7	0	290.90192026400166
27.542287	5.7543994e-12	0.05	7.8494637e9	1.1400143e9	-0.68330526	-0.087630978	-0.087630978	-8.354357e6	2.5063863e7	0	293.4386527054884
27.542287	6.3095734e-12	0.05	7.1587959e9	1.0397054e9	-0.68060535	-0.087630979	-0.087630979	-7.6192642e6	2.2858515e7	0	295.9753945426286
27.542287	6.9183097e-12	0.05	6.5288995e9	9.4822261e8	-0.67790544	-0.08763098	-0.08763098	-6.9488516e6	2.0847213e7	0	298.51213637976883
27.542287	7.5857758e-12	0.05	5.9544271e9	8.647893e8	-0.67520554	-0.08763098	-0.08763098	-6.337428e6	1.9012885e7	0	301.04886886823385
27.542287	8.3176377e-12	0.05	5.430502e9	7.8869721e8	-0.67250563	-0.087630981	-0.087630981	-5.7798031e6	1.7339957e7	0	303.58561070537405
27.542287	9.1201084e-12	0.05	4.9526767e9	7.1930041e8	-0.66980572	-0.087630981	-0.087630981	-5.2712431e6	1.5814228e7	0	306.1223525894925
27.542287	1.e-11	0.05	4.5168949e9	6.5600977e8	-0.66710582	-0.087630982	-0.087630982	-4.8074309e6	1.4422748e7	0	308.6590850309793
27.542287	1.0964782e-11	0.05	4.119457e9	5.9828802e8	-0.66440591	-0.087630982	-0.087630982	-4.3844291e6	1.3153702e7	0	311.19582691509777
27.542287	1.2022644e-11	0.05	3.7569895e9	5.4564517e8	-0.66170601	-0.087630982	-0.087630982	-3.998647e6	1.1996319e7	0	313.73255940356285
27.542287	1.3182567e-11	0.05	3.4264152e9	4.9763431e8	-0.6590061	-0.087630982	-0.087630982	-3.6468095e6	1.0940773e7	0	316.26930128768123
27.542287	1.4454398e-11	0.05	3.1249278e9	4.5384789e8	-0.65630619	-0.087630982	-0.087630982	-3.3259298e6	9.9781036e6	0	318.8060431717998
27.542287	1.5848932e-11	0.05	2.849968e9	4.1391419e8	-0.65360629	-0.087630983	-0.087630983	-3.0332841e6	9.1001386e6	0	321.3427756132865
27.542287	1.7378008e-11	0.05	2.5992017e9	3.7749423e8	-0.65090638	-0.087630982	-0.087630982	-2.766388e6	8.2994251e6	0	323.8795175443833
27.542287	1.9054607e-11	0.05	2.3705001e9	3.4427883e8	-0.64820647	-0.087630983	-0.087630983	-2.5229759e6	7.5691656e6	0	326.41625938152356
27.542287	2.0892961e-11	0.05	2.1619218e9	3.1398603e8	-0.64550657	-0.087630983	-0.087630983	-2.3009815e6	6.9031612e6	0	328.9529918699885
27.542287	2.2908677e-11	0.05	1.9716961e9	2.8635867e8	-0.64280666	-0.087630983	-0.087630983	-2.0985201e6	6.2957578e6	0	331.4897337541071
27.542287	2.5118864e-11	0.05	1.7982083e9	2.6116221e8	-0.64010675	-0.087630983	-0.087630983	-1.9138731e6	5.7417994e6	0	334.0264756382256
27.542287	2.7542287e-11	0.05	1.6399854e9	2.3818277e8	-0.63740685	-0.087630983	-0.087630983	-1.7454731e6	5.2365833e6	0	336.56320812669054
27.542287	3.0199517e-11	0.05	1.4956845e9	2.1722527e8	-0.63470694	-0.087630983	-0.087630983	-1.5918904e6	4.7758206e6	0	339.099950010809
27.542287	3.3113112e-11	0.05	1.3640805e9	1.981118e8	-0.63200704	-0.087630983	-0.087630983	-1.4518214e6	4.3556002e6	0	341.636682499274
27.542287	3.6307805e-11	0.05	1.2440562e9	1.8068011e8	-0.62930713	-0.087630983	-0.087630983	-1.3240769e6	3.9723546e6	0	344.17342438339244
27.542287	3.9810717e-11	0.05	1.1345927e9	1.6478222e8	-0.62660722	-0.087630983	-0.087630983	-1.2075725e6	3.6228305e6	0	346.710166267511
27.542287	4.3651583e-11	0.05	1.0347609e9	1.5028317e8	-0.62390732	-0.087630983	-0.087630983	-1.1013193e6	3.3040607e6	0	349.24689875597596
27.542287	4.7863009e-11	0.05	9.4371313e8	1.3705989e8	-0.62120741	-0.087630983	-0.087630983	-1.0044152e6	3.0133392e6	0	351.78364064009446
27.542287	5.2480746e-11	0.05	8.6067659e8	1.250001e8	-0.6185075	-0.087630983	-0.087630983	-916037.59	2.748198e6	0	354.3203825242131
27.542287	5.7543994e-11	0.05	7.8494639e8	1.1400145e8	-0.6158076	-0.087630983	-0.087630983	-835436.28	2.5063864e6	0	356.857115012678
27.542287	6.3095734e-11	0.05	7.1587962e8	1.0397056e8	-0.61310769	-0.087630983	-0.087630983	-761926.99	2.2858515e6	0	359.3938568967965
27.542287	6.9183097e-11	0.05	6.5288997e8	9.4822281e7	-0.61040779	-0.087630984	-0.087630983	-694885.72	2.0847213e6	0	361.93058938526156
27.542287	7.5857758e-11	0.05	5.9544273e8	8.6478951e7	-0.60770788	-0.087630983	-0.087630983	-633743.37	1.9012885e6	0	364.46733126938
27.542287	8.3176377e-11	0.05	5.4305023e8	7.8869742e7	-0.60500797	-0.087630983	-0.087630983	-577980.88	1.7339957e6	0	367.00407315349855
27.542287	9.1201084e-11	0.05	4.952677e8	7.1930062e7	-0.60230807	-0.087630983	-0.087630983	-527124.88	1.5814229e6	0	369.5408056419636
27.542287	1.e-10	0.05	4.5168951e8	6.5600998e7	-0.59960816	-0.087630983	-0.087630983	-480743.65	1.4422748e6	0	372.07754752608207
27.542287	1.0964782e-10	0.05	4.1194574e8	5.9828824e7	-0.59690825	-0.087630983	-0.087630983	-438443.48	1.3153703e6	0	374.61428941020046
27.542287	1.2022644e-10	0.05	3.7569897e8	5.4564537e7	-0.59420835	-0.087630984	-0.087630983	-399865.26	1.1996319e6	0	377.1510218986655
27.542287	1.3182567e-10	0.05	3.4264154e8	4.9763452e7	-0.59150844	-0.087630983	-0.087630983	-364681.5	1.0940773e6	0	379.68776378278403
27.542287	1.4454398e-10	0.05	3.124928e8	4.5384809e7	-0.58880854	-0.087630983	-0.087630983	-332593.54	997810.4	0	382.22449627124894
27.542287	1.5848932e-10	0.05	2.8499682e8	4.1391439e7	-0.58610863	-0.087630984	-0.087630984	-303328.96	910013.9	0	384.76123810838925
27.542287	1.7378008e-10	0.05	2.599202e8	3.7749443e7	-0.58340872	-0.087630983	-0.087630983	-276639.35	829942.55	0	387.29798003948605
27.542287	1.9054607e-10	0.05	2.3705004e8	3.4427903e7	-0.58070882	-0.087630984	-0.087630983	-252298.14	756916.6	0	389.83471252795096
27.542287	2.0892961e-10	0.05	2.1619221e8	3.1398623e7	-0.57800891	-0.087630983	-0.087630983	-230098.69	690316.15	0	392.37145441206957
27.542287	2.2908677e-10	0.05	1.9716964e8	2.8635886e7	-0.575309	-0.087630984	-0.087630983	-209852.55	629575.81	0	394.90819629618807
27.542287	2.5118864e-10	0.05	1.7982085e8	2.6116241e7	-0.5726091	-0.087630983	-0.087630983	-191387.85	574179.98	0	397.44492878465303
27.542287	2.7542287e-10	0.05	1.6399857e8	2.3818296e7	-0.56990919	-0.087630984	-0.087630983	-174547.84	523658.36	0	399.9816706687716
27.542287	3.0199517e-10	0.05	1.4956847e8	2.1722547e7	-0.56720929	-0.087630983	-0.087630983	-159189.58	477582.11	0	402.5184031572365
27.542287	3.3113112e-10	0.05	1.3640807e8	1.98112e7	-0.56450938	-0.087630984	-0.087630983	-145182.67	435560.06	0	405.05514504135505
27.542287	3.6307805e-10	0.05	1.2440564e8	1.8068031e7	-0.56180947	-0.087630984	-0.087630983	-132408.22	397235.51	0	407.5918869254735
27.542287	3.9810717e-10	0.05	1.134593e8	1.6478242e7	-0.55910957	-0.087630984	-0.087630983	-120757.78	362283.09	0	410.1286194139386
27.542287	4.3651583e-10	0.05	1.0347611e8	1.5028337e7	-0.55640966	-0.087630984	-0.087630983	-110132.45	330406.11	0	412.66536129805695
27.542287	4.7863009e-10	0.05	9.4371337e7	1.3706008e7	-0.55370975	-0.087630984	-0.087630983	-100442.04	301333.96	0	415.20210318217556
27.542287	5.2480746e-10	0.05	8.6067684e7	1.2500029e7	-0.55100985	-0.087630984	-0.087630983	-91604.278	274819.84	0	417.73883567064047
27.542287	5.7543994e-10	0.05	7.8494664e7	1.1400164e7	-0.54830994	-0.087630984	-0.087630983	-83544.145	250638.68	0	420.27557755475897
27.542287	6.3095734e-10	0.05	7.1587986e7	1.0397075e7	-0.54561003	-0.087630984	-0.087630983	-76193.213	228585.19	0	422.8123194388775
27.542287	6.9183097e-10	0.05	6.5289022e7	9.4822471e6	-0.54291013	-0.087630984	-0.087630983	-69489.085	208472.18	0	425.34905192734254
27.542287	7.5857758e-10	0.05	5.9544298e7	8.6479139e6	-0.54021022	-0.087630984	-0.087630983	-63374.847	190128.89	0	427.88579381146104
27.542287	8.3176377e-10	0.05	5.4305048e7	7.886993e6	-0.53751032	-0.087630985	-0.087630983	-57798.595	173399.61	0	430.42252629992606
27.542287	9.1201084e-10	0.05	4.9526795e7	7.1930248e6	-0.53481041	-0.087630985	-0.087630983	-52712.993	158142.33	0	432.95926818404456
27.542287	1.e-9	0.05	4.5168976e7	6.5601183e6	-0.5321105	-0.087630985	-0.087630983	-48074.868	144227.52	0	435.49601006816295
27.542287	1.0964782e-9	0.05	4.1194598e7	5.9829008e6	-0.5294106	-0.087630985	-0.087630983	-43844.848	131537.07	0	438.0327425566281
27.542287	1.2022644e-9	0.05	3.7569922e7	5.4564721e6	-0.52671069	-0.087630986	-0.087630984	-39987.023	119963.24	0	440.5694843937682
27.542287	1.3182567e-9	0.05	3.4264179e7	4.9763635e6	-0.52401078	-0.087630985	-0.087630983	-36468.646	109407.78	0	443.10622632486496
27.542287	1.4454398e-9	0.05	3.1249305e7	4.5384991e6	-0.52131088	-0.087630986	-0.087630984	-33259.846	99781.081	0	445.64295876635174
27.542287	1.5848932e-9	0.05	2.8499707e7	4.1391621e6	-0.51861097	-0.087630986	-0.087630983	-30333.386	91001.432	0	448.17970069744854
27.542287	1.7378008e-9	0.05	2.5992044e7	3.7749624e6	-0.51591107	-0.087630986	-0.087630983	-27664.423	82994.296	0	450.71643318591344
27.542287	1.9054607e-9	0.05	2.3705028e7	3.4428083e6	-0.51321116	-0.087630987	-0.087630984	-25230.299	75691.701	0	453.25317502305376
27.542287	2.0892961e-9	0.05	2.1619245e7	3.1398802e6	-0.51051125	-0.087630987	-0.087630983	-23010.352	69031.656	0	455.78991695415056
27.542287	2.2908677e-9	0.05	1.9716989e7	2.8636064e6	-0.50781135	-0.087630987	-0.087630984	-20985.735	62957.623	0	458.3266493956372
27.542287	2.5118864e-9	0.05	1.798211e7	2.6116418e6	-0.50511144	-0.087630988	-0.087630984	-19139.263	57418.038	0	460.8633912797558
27.542287	2.7542287e-9	0.05	1.6399881e7	2.3818473e6	-0.50241153	-0.087630988	-0.087630984	-17455.26	52365.877	0	463.4001331638742
27.542287	3.0199517e-9	0.05	1.4956872e7	2.1722722e6	-0.49971163	-0.087630988	-0.087630984	-15919.431	47758.252	0	465.9368656523393
27.542287	3.3113112e-9	0.05	1.3640832e7	1.9811374e6	-0.49701172	-0.087630989	-0.087630984	-14518.738	43556.047	0	468.4736075364578
27.542287	3.6307805e-9	0.05	1.2440589e7	1.8068205e6	-0.49431182	-0.08763099	-0.087630984	-13241.29	39723.591	0	471.0103400249227
27.542287	3.9810717e-9	0.05	1.1345954e7	1.6478415e6	-0.49161191	-0.08763099	-0.087630984	-12076.244	36228.35	0	473.5470819090412
27.542287	4.3651583e-9	0.05	1.0347636e7	1.5028509e6	-0.488912	-0.087630991	-0.087630984	-11013.709	33040.651	0	476.08382379315975
27.542287	4.7863009e-9	0.05	9.4371585e6	1.3706179e6	-0.4862121	-0.087630992	-0.087630984	-10044.665	30133.437	0	478.62055628162483
27.542287	5.2480746e-9	0.05	8.6067932e6	1.25002e6	-0.48351219	-0.087630993	-0.087630984	-9160.8866	27482.025	0	481.1572981657432
27.542287	5.7543994e-9	0.05	7.8494912e6	1.1400334e6	-0.48081228	-0.087630993	-0.087630984	-8354.8708	25063.909	0	483.69404004986177
27.542287	6.3095734e-9	0.05	7.1588234e6	1.0397244e6	-0.47811238	-0.087630995	-0.087630984	-7619.7752	22858.56	0	486.23077253832673
27.542287	6.9183097e-9	0.05	6.528927e6	948241.5	-0.47541247	-0.087630996	-0.087630985	-6949.3599	20847.259	0	488.76751437546704
27.542287	7.5857758e-9	0.05	5.9544546e6	864808.1	-0.47271256	-0.087630997	-0.087630985	-6337.9337	19012.93	0	491.3042562595855
27.542287	8.3176377e-9	0.05	5.4305295e6	788715.92	-0.47001266	-0.087630998	-0.087630985	-5780.3061	17340.002	0	493.8409887480504
27.542287	9.1201084e-9	0.05	4.9527043e6	719319.03	-0.46731275	-0.087630999	-0.087630985	-5271.7435	15814.274	0	496.3777306321689
27.542287	1.e-8	0.05	4.5169224e6	656028.3	-0.46461285	-0.087631001	-0.087630985	-4807.9285	14422.793	0	498.914463120634
27.542287	1.0964782e-8	0.05	4.1194846e6	598306.46	-0.46191294	-0.087631003	-0.087630985	-4384.9241	13153.748	0	501.4512050047526
27.542287	1.2022644e-8	0.05	3.7570171e6	545663.51	-0.45921303	-0.087631005	-0.087630985	-3999.1392	11996.365	0	503.98794688887097
27.542287	1.3182567e-8	0.05	3.4264427e6	497652.56	-0.45651313	-0.087631007	-0.087630986	-3647.299	10940.818	0	506.5246793303577
27.542287	1.4454398e-8	0.05	3.1249553e6	453866.05	-0.45381322	-0.087631009	-0.087630986	-3326.4166	9978.1491	0	509.0614212144761
27.542287	1.5848932e-8	0.05	2.8499955e6	413932.26	-0.45111331	-0.087631012	-0.087630986	-3033.7682	9100.1841	0	511.5981630985947
27.542287	1.7378008e-8	0.05	2.5992292e6	377512.2	-0.44841341	-0.087631015	-0.087630987	-2766.8694	8299.4705	0	514.1348955400814
27.542287	1.9054607e-8	0.05	2.3705277e6	344296.72	-0.4457135	-0.087631018	-0.087630987	-2523.4547	7569.2111	0	516.6716374242
27.542287	2.0892961e-8	0.05	2.1619494e6	314003.82	-0.4430136	-0.087631021	-0.087630987	-2301.4575	6903.2066	0	519.2083699126649
27.542287	2.2908677e-8	0.05	1.9717236e6	286376.36	-0.44031369	-0.087631025	-0.087630988	-2098.9934	6295.8032	0	521.7451117498051
27.542287	2.5118864e-8	0.05	1.7982358e6	261179.82	-0.43761378	-0.087631028	-0.087630988	-1914.3438	5741.8448	0	524.2818536339238
27.542287	2.7542287e-8	0.05	1.6400129e6	238200.28	-0.43491388	-0.087631033	-0.087630989	-1745.941	5236.6286	0	526.8185860754104
27.542287	3.0199517e-8	0.05	1.495712e6	217242.69	-0.43221397	-0.087631038	-0.087630989	-1592.3557	4775.8661	0	529.3553279595288
27.542287	3.3113112e-8	0.05	1.364108e6	198129.13	-0.42951406	-0.087631043	-0.08763099	-1452.2839	4355.6456	0	531.892069796669
27.542287	3.6307805e-8	0.05	1.2440837e6	180697.35	-0.42681416	-0.087631049	-0.08763099	-1324.5367	3972.4	0	534.4288022851341
27.542287	3.9810717e-8	0.05	1.1346202e6	164799.37	-0.42411425	-0.087631056	-0.087630991	-1208.0297	3622.8759	0	536.9655441222743
27.542287	4.3651583e-8	0.05	1.0347884e6	150300.23	-0.42141434	-0.087631062	-0.087630992	-1101.7738	3304.1061	0	539.5022859594146
27.542287	4.7863009e-8	0.05	943740.64	137076.85	-0.41871444	-0.08763107	-0.087630992	-1004.867	3013.3846	0	542.0390184478796
27.542287	5.2480746e-8	0.05	860704.11	125016.97	-0.41601453	-0.087631078	-0.087630994	-916.48666	2748.2434	0	544.5757602380415
27.542287	5.7543994e-8	0.05	784973.9	114018.23	-0.41331462	-0.087631088	-0.087630994	-835.88263	2506.4318	0	547.1125021221601
27.542287	6.3095734e-8	0.05	715907.12	103987.25	-0.41061472	-0.087631098	-0.087630996	-762.37065	2285.8969	0	549.6492345166685
27.542287	6.9183097e-8	0.05	652917.49	94838.874	-0.40791481	-0.087631109	-0.087630997	-695.32669	2084.7668	0	552.1859763538088
27.542287	7.5857758e-8	0.05	595470.25	86495.451	-0.40521491	-0.087631121	-0.087630998	-634.18164	1901.3339	0	554.7227087952956
27.542287	8.3176377e-8	0.05	543077.74	78886.15	-0.402515	-0.087631134	-0.087631	-578.41644	1734.0411	0	557.2594505854574
27.542287	9.1201084e-8	0.05	495295.22	71946.379	-0.39981509	-0.087631148	-0.087631001	-527.55776	1581.4683	0	559.7961924225978
27.542287	1.e-7	0.05	451717.02	65617.222	-0.39711519	-0.087631165	-0.087631003	-481.17383	1442.3202	0	562.332924817106
27.542287	1.0964782e-7	0.05	411973.25	59844.956	-0.39441528	-0.087631182	-0.087631005	-438.87096	1315.4157	0	564.8696666072681
27.542287	1.2022644e-7	0.05	375726.49	54580.578	-0.39171537	-0.087631201	-0.087631007	-400.29004	1199.6774	0	567.4064083974301
27.542287	1.3182567e-7	0.05	342669.05	49779.4	-0.38901547	-0.087631223	-0.087631009	-365.10359	1094.1228	0	569.9431407919386
27.542287	1.4454398e-7	0.05	312520.32	45400.665	-0.38631556	-0.087631246	-0.087631012	-333.01292	997.85582	0	572.4798825351223
27.542287	1.5848932e-7	0.05	285024.34	41407.204	-0.38361565	-0.087631271	-0.087631015	-303.74565	910.05933	0	575.0166242783059
27.542287	1.7378008e-7	0.05	259947.71	37765.116	-0.38091574	-0.087631299	-0.087631018	-277.05334	829.98797	0	577.5533660214895
27.542287	1.9054607e-7	0.05	237077.55	34443.484	-0.37821584	-0.087631329	-0.087631021	-252.70944	756.96203	0	580.0900983690198
27.542287	2.0892961e-7	0.05	216219.72	31414.111	-0.37551593	-0.087631363	-0.087631025	-230.50729	690.36157	0	582.6268400652253
27.542287	2.2908677e-7	0.05	197197.15	28651.283	-0.37281602	-0.087631399	-0.087631029	-210.25845	629.62124	0	585.1635817614307
27.542287	2.5118864e-7	0.05	179848.36	26131.545	-0.37011612	-0.08763144	-0.087631033	-191.79105	574.22539	0	587.7003140619826
27.542287	2.7542287e-7	0.05	164026.08	23833.509	-0.36741621	-0.087631483	-0.087631038	-174.94835	523.70379	0	590.2370557112098
27.542287	3.0199517e-7	0.05	149595.99	21737.667	-0.3647163	-0.087631532	-0.087631043	-159.58739	477.62753	0	592.7737973604369
27.542287	3.3113112e-7	0.05	136435.58	19826.228	-0.36201639	-0.087631585	-0.087631049	-145.57778	435.60548	0	595.3105389626858
27.542287	3.6307805e-7	0.05	124433.16	18082.967	-0.35931649	-0.087631642	-0.087631055	-132.80064	397.28093	0	597.8472711692813
27.542287	3.9810717e-7	0.05	113486.81	16493.086	-0.35661658	-0.087631706	-0.087631062	-121.1475	362.32851	0	600.3840127245518
27.542287	4.3651583e-7	0.05	103503.63	15043.089	-0.35391667	-0.087631776	-0.08763107	-110.51948	330.45153	0	602.9207542328443
27.542287	4.7863009e-7	0.05	94398.851	13720.668	-0.35121676	-0.087631853	-0.087631079	-100.82637	301.37938	0	605.4574956941584
27.542287	5.2480746e-7	0.05	86095.199	12514.598	-0.34851686	-0.087631936	-0.087631087	-91.985907	274.86526	0	607.9942278067973
27.542287	5.7543994e-7	0.05	78522.178	11414.64	-0.34581695	-0.087632028	-0.087631098	-83.923074	250.6841	0	610.5309691741547
27.542287	6.3095734e-7	0.05	71615.501	10411.459	-0.34311704	-0.087632129	-0.087631109	-76.569446	228.63061	0	613.0677105415123
27.542287	6.9183097e-7	0.05	65316.537	9496.5391	-0.34041713	-0.08763224	-0.087631121	-69.862621	208.5176	0	615.6044518618916
27.542287	7.5857758e-7	0.05	59571.813	8662.114	-0.33771722	-0.087632361	-0.087631134	-63.745685	190.17431	0	618.1411931352926
27.542287	8.3176377e-7	0.05	54332.562	7901.101	-0.33501731	-0.087632494	-0.087631149	-58.166736	173.44503	0	620.6779343147372
27.542287	9.1201084e-7	0.05	49554.309	7207.0409	-0.3323174	-0.08763264	-0.087631165	-53.078437	158.18775	0	623.2146754472033
27.542287	1.e-6	0.05	45196.49	6574.0424	-0.32961749	-0.0876328	-0.087631182	-48.437615	144.27294	0	625.7514165326913
27.542287	1.0964782e-6	0.05	41222.112	5996.7328	-0.32691758	-0.087632975	-0.087631202	-44.204897	131.58249	0	628.2881574772445
27.542287	1.2022644e-6	0.05	37597.437	5470.2122	-0.32421767	-0.087633167	-0.087631222	-40.344376	120.00866	0	630.8248984217976
27.542287	1.3182567e-6	0.05	34291.694	4990.0115	-0.32151776	-0.087633377	-0.087631246	-36.823301	109.4532	0	633.3616391784376
27.542287	1.4454398e-6	0.05	31276.82	4552.0552	-0.31881785	-0.087633608	-0.087631271	-33.611805	99.826503	0	635.8983798880993
27.542287	1.5848932e-6	0.05	28527.222	4152.6261	-0.31611794	-0.087633862	-0.087631299	-30.682647	91.046853	0	638.4351204568264
27.542287	1.7378008e-6	0.05	26019.559	3788.3344	-0.31341803	-0.08763414	-0.087631329	-28.010987	83.039717	0	640.971860931597
27.542287	1.9054607e-6	0.05	23732.544	3456.0883	-0.31071812	-0.087634444	-0.087631363	-25.574166	75.737124	0	643.5086012184544
27.542287	2.0892961e-6	0.05	21646.76	3153.0681	-0.3080182	-0.087634779	-0.0876314	-23.351521	69.077077	0	646.0453507600305
27.542287	2.2908677e-6	0.05	19744.503	2876.7024	-0.30531829	-0.087635144	-0.08763144	-21.324208	63.003044	0	648.5820907650183
27.542287	2.5118864e-6	0.05	18009.625	2624.6457	-0.30261837	-0.087635546	-0.087631484	-19.475038	57.46346	0	651.1188399777465
27.542287	2.7542287e-6	0.05	16427.396	2394.7593	-0.29991846	-0.087635986	-0.087631532	-17.788338	52.411299	0	653.6555796069082
27.542287	3.0199517e-6	0.05	14984.387	2185.0921	-0.29721854	-0.087636469	-0.087631585	-16.249812	47.803674	0	656.192328396832
27.542287	3.3113112e-6	0.05	13668.347	1993.8653	-0.29451862	-0.087636999	-0.087631644	-14.846421	43.601468	0	658.7290769048861
27.542287	3.6307805e-6	0.05	12468.104	1819.4564	-0.29181871	-0.087637579	-0.087631707	-13.566277	39.769013	0	661.2658158293738
27.542287	3.9810717e-6	0.05	11373.469	1660.3854	-0.28911879	-0.087638215	-0.087631777	-12.398533	36.273772	0	663.802563820667
27.542287	4.3651583e-6	0.05	10375.151	1515.3028	-0.28641887	-0.087638913	-0.087631854	-11.333301	33.086073	0	666.3393114831125
27.542287	4.7863009e-6	0.05	9464.6732	1382.9778	-0.28371894	-0.087639678	-0.087631938	-10.36156	30.178858	0	668.8760682123635
27.542287	5.2480746e-6	0.05	8634.308	1262.2879	-0.28101902	-0.087640517	-0.08763203	-9.475084	27.527446	0	671.412815170135
27.542287	5.7543994e-6	0.05	7877.006	1152.2093	-0.27831909	-0.087641437	-0.087632131	-8.6663709	25.10933	0	673.9495711007554
27.542287	6.3095734e-6	0.05	7186.3383	1051.8083	-0.27561917	-0.087642446	-0.087632242	-7.9285782	22.903982	0	676.4863171659397
27.542287	6.9183097e-6	0.05	6556.4418	960.23336	-0.27291924	-0.087643552	-0.087632364	-7.2554657	20.892681	0	679.0230721100165
27.542287	7.5857758e-6	0.05	5981.9694	876.70794	-0.27021931	-0.087644765	-0.087632497	-6.6413422	19.058352	0	681.5598265373325
27.542287	8.3176377e-6	0.05	5458.0444	800.52376	-0.26751937	-0.087646094	-0.087632643	-6.0810174	17.385424	0	684.0965897495845
27.542287	9.1201084e-6	0.05	4980.2191	731.03485	-0.26481943	-0.087647552	-0.087632804	-5.5697575	15.859696	0	686.6333522571624
27.542287	0.00001	0.05	4544.4372	667.65211	-0.26211949	-0.087649151	-0.08763298	-5.1032453	14.468215	0	689.1701140600662
27.542287	0.000010964782	0.05	4146.9995	609.83827	-0.25941955	-0.087650904	-0.087633172	-4.6775437	13.19917	0	691.7068751113179
27.542287	0.000012022644	0.05	3784.5303	557.10325	-0.25672242	-0.087666846	-0.087647404	-4.2890633	12.041783	0	694.2403364090604
27.542287	0.000013182567	0.05	3453.9558	509.00029	-0.25402274	-0.087670304	-0.087648986	-3.9345261	10.986237	0	696.7767878735292
27.542287	0.000014454398	0.05	3152.4682	465.12175	-0.25132308	-0.087674097	-0.087650722	-3.6109467	10.023567	0	699.3132133120378
27.542287	0.000015848932	0.05	2877.5083	425.09596	-0.24862345	-0.087678254	-0.087652624	-3.3156012	9.1456021	0	701.8496027651935
27.542287	0.000017378008	0.05	2626.7418	388.58389	-0.24592384	-0.087682812	-0.087654709	-3.0460055	8.3448882	0	704.3859648300194
27.542287	0.000019054607	0.05	2398.04	355.27638	-0.24322427	-0.087687809	-0.087656995	-2.7998937	7.6146284	0	706.9222798695994
27.542287	0.000020892961	0.05	2189.4615	324.89147	-0.24052472	-0.087693288	-0.087659501	-2.5751996	6.9486236	0	709.4585657826534
27.542287	0.000022908677	0.05	1999.2356	297.172	-0.23782521	-0.087699294	-0.087662248	-2.3700386	6.3412198	0	711.994802791331
27.542287	0.000025118864	0.05	1825.7474	271.88343	-0.23512573	-0.08770588	-0.087665259	-2.182692	5.7872609	0	714.5309992107856
27.542287	0.000027542287	0.05	1667.5243	248.81188	-0.2324263	-0.087713098	-0.087668558	-2.0115924	5.2820444	0	717.0671351222317
27.542287	0.000030199517	0.05	1523.223	227.76227	-0.22972691	-0.087721012	-0.087672176	-1.8553102	4.8212812	0	719.6032184649964
27.542287	0.000033113112	0.05	1391.6186	208.55669	-0.22702757	-0.087729688	-0.08767614	-1.7125416	4.4010601	0	722.1392385750131
27.542287	0.000036307805	0.05	1271.5939	191.03289	-0.22432829	-0.087739198	-0.087680484	-1.5820976	4.0178139	0	724.6751844593671
27.542287	0.000039810717	0.05	1162.13	175.04289	-0.22162907	-0.087749624	-0.087685244	-1.4628938	3.668289	0	727.2110544268406
27.542287	0.000043651583	0.05	1062.2977	160.45173	-0.21892991	-0.087761052	-0.087690461	-1.3539412	3.3495184	0	729.7468465513252
27.542287	0.000047863009	0.05	971.24947	147.13633	-0.21623082	-0.087773578	-0.087696177	-1.2543377	3.058796	0	732.2825494640796
27.542287	0.000052480746	0.05	888.21237	134.98443	-0.21353181	-0.087787309	-0.08770244	-1.1632608	2.7936539	0	734.8181515144938
27.542287	0.000057543994	0.05	812.48154	123.89366	-0.21083289	-0.087802358	-0.087709302	-1.0799603	2.5518412	0	737.3536408640441
27.542287	0.000063095734	0.05	743.41409	113.77065	-0.20813406	-0.087818853	-0.087716819	-1.0037518	2.3313052	0	739.8890148819479
27.542287	0.000069183097	0.05	680.42371	104.53026	-0.20543533	-0.08783693	-0.087725052	-0.93401145	2.1301738	0	742.424261306877
27.542287	0.000075857758	0.05	622.97565	96.094805	-0.20273672	-0.087856742	-0.08773407	-0.87017007	1.9467396	0	744.9593581060242
27.542287	0.000083176377	0.05	570.58225	88.393474	-0.20003822	-0.087878453	-0.087743946	-0.81170862	1.7794453	0	747.4943112456294
27.542287	0.000091201084	0.05	522.79875	81.36167	-0.19733986	-0.087902245	-0.08775476	-0.75815377	1.6268708	0	750.0290887804706
27.542287	0.0001	0.05	479.2195	74.940481	-0.19464165	-0.087928313	-0.0877666	-0.7090738	1.487721	0	752.5636771808068
27.542287	0.00010964782	0.05	439.47456	69.07618	-0.1919436	-0.087956876	-0.087779561	-0.66407498	1.3608145	0	755.0980625880494
27.542287	0.00012022644	0.05	403.22652	63.719764	-0.18924572	-0.08798817	-0.087793748	-0.62279824	1.245074	0	757.6322306738264
27.542287	0.00013182567	0.05	370.1677	58.826546	-0.18654803	-0.088022451	-0.087809273	-0.58491609	1.139517	0	760.1661573852649
27.542287	0.00014454398	0.05	340.01743	54.355768	-0.18385055	-0.088060005	-0.087826259	-0.55012987	1.0432475	0	762.6998181527312
27.542287	0.00015848932	0.05	312.51979	50.270261	-0.18115329	-0.088101136	-0.087844839	-0.5181672	0.9554482	0	765.233197332462
27.542287	0.00017378008	0.05	287.44134	46.536124	-0.17845628	-0.088146183	-0.08786516	-0.48877966	0.87537376	0	767.7662598316916
27.542287	0.00019054607	0.05	264.5692	43.12244	-0.17575954	-0.088195512	-0.087887377	-0.46174071	0.80234445	0	770.2989795774814
27.542287	0.00020892961	0.05	243.70921	40.001011	-0.17306309	-0.088249524	-0.087911661	-0.43684373	0.73574032	0	772.8313297452412
27.542287	0.00022908677	0.05	224.68428	37.146122	-0.17036696	-0.088308655	-0.087938197	-0.41390027	0.67499595	0	775.3632734570302
27.542287	0.00025118864	0.05	207.33292	34.53432	-0.16767117	-0.088373381	-0.087967183	-0.3927385	0.61959571	0	777.8947826198449
27.542287	0.00027542287	0.05	191.50784	32.144214	-0.16497576	-0.088444219	-0.087998833	-0.37320169	0.56906931	0	780.4258095977222
27.542287	0.00030199517	0.05	177.07469	29.956298	-0.16228075	-0.088521733	-0.08803338	-0.3551469	0.52298782	0	782.9563246534183
27.542287	0.00033113112	0.05	163.91097	27.952779	-0.15958618	-0.088606535	-0.08807107	-0.33844378	0.48096007	0	785.4862786476657
27.542287	0.00036307805	0.05	151.90494	26.117432	-0.15689209	-0.088699292	-0.08811217	-0.32297346	0.44262929	0	788.0156214546529
27.542287	0.00039810717	0.05	140.95468	24.435459	-0.15419852	-0.088800727	-0.088156965	-0.30862752	0.4076701	0	790.5443021029597
27.542287	0.00043651583	0.05	130.96724	22.893363	-0.15150549	-0.088911622	-0.088205758	-0.29530709	0.37578575	0	793.0722875668642
27.542287	0.00047863009	0.05	121.85787	21.478835	-0.14881307	-0.089032829	-0.088258874	-0.28292201	0.34670557	0	795.5994968088547
27.542287	0.00052480746	0.05	113.54923	20.180651	-0.14612128	-0.089165266	-0.088316653	-0.27139005	0.32018272	0	798.1258950650132
27.542287	0.00057543994	0.05	105.97082	18.988571	-0.14343018	-0.089309928	-0.088379459	-0.26063622	0.29599208	0	800.6514088613297
27.542287	0.00063095734	0.05	99.058319	17.893258	-0.14073982	-0.089467888	-0.08844767	-0.25059215	0.27392831	0	803.1759734617511
27.542287	0.00069183097	0.05	92.75308	16.886197	-0.13805025	-0.089640304	-0.088521685	-0.24119547	0.25380413	0	805.6995231436816
27.542287	0.00075857758	0.05	87.001604	15.959621	-0.13536151	-0.089828422	-0.088601917	-0.23238932	0.23544876	0	808.2220009224827
27.542287	0.00083176377	0.05	81.755101	15.106446	-0.13267366	-0.090033582	-0.088688794	-0.22412184	0.21870641	0	810.7433303175345
27.542287	0.00091201084	0.05	76.969073	14.320214	-0.12998674	-0.090257221	-0.088782754	-0.21634575	0.203435	0	813.2634531697422
27.542287	0.001	0.05	72.602941	13.595032	-0.12730082	-0.090500878	-0.088884241	-0.20901793	0.18950494	0	815.7822828511805
27.542287	0.0010964782	0.05	68.619695	12.925528	-0.12461592	-0.090766201	-0.088993704	-0.20209905	0.17679806	0	818.2997794773001
27.542287	0.0012022644	0.05	64.985588	12.3068	-0.1219321	-0.091054943	-0.089111584	-0.19555327	0.16520655	0	820.8158659567642
27.542287	0.0013182567	0.05	61.669847	11.73438	-0.11924939	-0.091368972	-0.089238314	-0.18934788	0.1546321	0	823.3304937610225
27.542287	0.0014454398	0.05	58.644414	11.204193	-0.11656783	-0.091710273	-0.089374304	-0.18345308	0.14498505	0	825.8436060463712
27.542287	0.0015848932	0.05	55.88371	10.71252	-0.11388743	-0.092080942	-0.089519936	-0.17784168	0.13618363	0	828.3551754714584
27.542287	0.0017378008	0.05	53.364419	10.255973	-0.1112082	-0.092483196	-0.089675547	-0.17248889	0.12815326	0	830.8651768089551
27.542287	0.0019054607	0.05	51.065295	9.8314594	-0.10853013	-0.092919367	-0.089841418	-0.16737211	0.12082592	0	833.373606253621
27.542287	0.0020892961	0.05	48.96698	9.436161	-0.10585319	-0.093391903	-0.090017759	-0.16247071	0.11413959	0	835.8804821269808
27.542287	0.0022908677	0.05	47.051844	9.0675064	-0.10317734	-0.093903363	-0.090204688	-0.15776589	0.10803773	0	838.3858364682129
27.542287	0.0025118864	0.05	45.303841	8.7231517	-0.1005025	-0.094456414	-0.090402212	-0.15324049	0.10246876	0	840.8897441136971
27.542287	0.0027542287	0.05	43.708367	8.400959	-0.097828561	-0.095053825	-0.090610212	-0.14887885	0.09738569	0	843.3923130664708
27.542287	0.0030199517	0.05	42.25215	8.098979	-0.095155367	-0.095698462	-0.090828412	-0.14466668	0.09274566	0	845.8937028647302
27.542287	0.0033113112	0.05	40.923129	7.8154344	-0.092482728	-0.096393276	-0.091056363	-0.14059093	0.08850962	0	848.394113119134
27.542287	0.0036307805	0.05	39.710362	7.5487046	-0.089810402	-0.097141295	-0.091293414	-0.13663968	0.084641988	0	850.893801787349
27.542287	0.0039810717	0.05	38.60393	7.2973116	-0.087138084	-0.097945614	-0.091538695	-0.13280203	0.081110343	0	853.3930963078996
27.542287	0.0043651583	0.05	37.594856	7.0599082	-0.08446541	-0.098809381	-0.091791094	-0.12906799	0.077885165	0	855.8923909224068
27.542287	0.0047863009	0.05	36.67503	6.8352653	-0.08179194	-0.099735782	-0.092049238	-0.12542844	0.074939571	0	858.3921635407858
27.542287	0.0052480746	0.05	35.837135	6.6222625	-0.079117159	-0.10072803	-0.092311486	-0.12187498	0.072249093	0	860.8929751305287
27.542287	0.0057543994	0.05	35.074588	6.4198772	-0.076440468	-0.10178934	-0.092575918	-0.11839992	0.069791464	0	863.395478689554
27.542287	0.0063095734	0.05	34.381473	6.2271765	-0.073761181	-0.10292291	-0.092840337	-0.11499615	0.067546426	0	865.9004219709454
27.542287	0.0069183097	0.05	33.752487	6.0433085	-0.071078524	-0.10413191	-0.093102289	-0.11165715	0.065495549	0	868.4086474829522
27.542287	0.0075857758	0.05	33.182879	5.8674949	-0.068391638	-0.10541945	-0.093359081	-0.10837686	0.063622067	0	870.9210888246844
27.542287	0.0083176377	0.05	32.668395	5.6990239	-0.065699589	-0.10678854	-0.093607816	-0.10514967	0.061910719	0	873.43875964622
27.542287	0.0091201084	0.05	32.205213	5.5372433	-0.063001382	-0.10824205	-0.09384545	-0.10197037	0.060347605	0	875.9627378169284
27.542287	0.01	0.05	31.789884	5.3815548	-0.060295989	-0.10978266	-0.094068839	-0.098834102	0.058920041	0	878.4941369096624
27.542287	0.010964782	0.05	31.419257	5.2314081	-0.057582387	-0.11141279	-0.094274807	-0.095736332	0.057616432	0	881.0340673027526
27.542287	0.012022644	0.05	31.090398	5.0862958	-0.054859622	-0.11313453	-0.094460201	-0.092672823	0.056426139	0	883.5835734640204
27.542287	0.013182567	0.05	30.800497	4.9457482	-0.05212688	-0.11494947	-0.094621928	-0.08963962	0.05533935	0	886.1435655034421
27.542287	0.014454398	0.05	30.546765	4.8093291	-0.049383599	-0.11685862	-0.094756975	-0.086633039	0.054346959	0	888.7147130022645
27.542287	0.015848932	0.05	30.326305	4.6766315	-0.046629607	-0.11886218	-0.094862362	-0.083649677	0.053440444	0	891.2973175609648
27.542287	0.017378008	0.05	30.135977	4.5472742	-0.043865287	-0.12095932	-0.094935056	-0.080686421	0.052611739	0	893.8911618110989
27.542287	0.019054607	0.05	29.972242	4.4208985	-0.041091784	-0.12314797	-0.094971787	-0.077740488	0.051853111	0	896.4953235692765
27.542287	0.020892961	0.05	29.830995	4.2971652	-0.038311244	-0.1254245	-0.094968813	-0.074809467	0.051157032	0	899.107962320933
27.542287	0.022908677	0.05	29.707407	4.1757526	-0.035527059	-0.12778345	-0.094921611	-0.071891384	0.050516045	0	901.7261035431054
27.542287	0.025118864	0.05	29.595781	4.0563543	-0.032744113	-0.13021731	-0.09482454	-0.068984779	0.049922624	0	904.345423403031
27.542287	0.027542287	0.05	29.489468	3.9386773	-0.029968984	-0.13271636	-0.094670545	-0.066088798	0.049369036	0	906.9600728715147
27.542287	0.030199517	0.05	29.380876	3.8224403	-0.027210027	-0.13526861	-0.094450937	-0.063203284	0.048847196	0	909.5626100742238
27.542287	0.033113112	0.05	29.261653	3.7073732	-0.024477281	-0.13785999	-0.094155347	-0.060328867	0.048348552	0	912.1440898322653
27.542287	0.036307805	0.05	29.1231	3.5932157	-0.021782064	-0.14047475	-0.093771896	-0.057467013	0.04786401	0	914.6944361998472
27.542287	0.039810717	0.05	28.956925	3.4797184	-0.019136162	-0.14309602	-0.093287583	-0.054620032	0.047383945	0	917.2031862242109
27.542287	0.043651583	0.05	28.756388	3.3666443	-0.016550484	-0.14570654	-0.092688813	-0.051790979	0.046898361	0	919.660728856499
27.542287	0.047863009	0.05	28.517892	3.2537739	-0.014033119	-0.14828938	-0.091961943	-0.048983434	0.046397239	0	922.0601048770994
27.542287	0.052480746	0.05	28.242967	3.1409117	-0.011586801	-0.15082836	-0.09109365	-0.046201093	0.045871153	0	924.3993714058033
27.542287	0.057543994	0.05	27.940491	3.0278954	-0.0092059325	-0.15330824	-0.090071002	-0.04344716	0.045312142	0	926.684395182612
27.542287	0.063095734	0.05	27.628865	2.9146056	-0.0068734491	-0.1557146	-0.088881308	-0.040723522	0.04471482	0	928.9318055276774
27.542287	0.069183097	0.05	27.337782	2.8009732	-0.0045579096	-0.15803383	-0.08751211	-0.038029716	0.04407762	0	931.1717287583381
27.542287	0.075857758	0.05	27.109214	2.6869827	-0.0022112459	-0.16025393	-0.08595194	-0.035361774	0.043404059	0	933.4498667425664
27.542287	0.083176377	0.05	26.997334	2.5726713	0.00023247278	-0.16236663	-0.08419254	-0.032711008	0.042703917	0	935.8285537032817
27.542287	0.091201084	0.05	27.067204	2.4581254	0.0028569946	-0.16437155	-0.082232982	-0.030062873	0.041994271	0	938.3865201055785
27.542287	0.1	0.05	27.392291	2.3434788	0.0057624971	-0.16628217	-0.080085725	-0.027396005	0.041300404	0	941.217303992654
27.542287	0.10964782	0.05	28.051099	2.2289177	0.0090630469	-0.16813345	-0.077784237	-0.024681565	0.040656616	0	944.4265061395954
27.542287	0.12022644	0.05	29.123656	2.1146963	0.012883621	-0.16999059	-0.075391821	-0.021882916	0.040106994	0	948.1285767398822
27.542287	0.13182567	0.05	30.689206	2.0011628	0.017358158	-0.17195878	-0.073011404	-0.018955607	0.0397062	0	952.4445245289627
27.542287	0.14454398	0.05	32.827361	1.8887942	0.02263121	-0.17419286	-0.070795189	-0.01584743	0.039520418	0	957.5030154180183
27.542287	0.15848932	0.05	35.400822	1.7787112	0.028628849	-0.17704464	-0.069092059	-0.012503624	0.039637266	0	963.2181993009543
27.542287	0.17378008	0.05	39.066914	1.6725078	0.036135424	-0.1809442	-0.068328889	-0.0088607933	0.040166867	0	970.3069694725386
27.542287	0.19054607	0.05	43.676172	1.569266	0.045079978	-0.18554981	-0.068160453	-0.0048135526	0.041187692	0	978.718875313607
27.542287	0.20892961	0.05	49.385835	1.4697265	0.055737254	-0.19101317	-0.06873474	-0.00026191005	0.042821446	0	988.7051035602859
27.542287	0.22908677	0.05	56.370918	1.3746563	0.068416422	-0.19746941	-0.070182922	0.0049104718	0.045206954	0	1000.5499773985301
27.542287	0.25118864	0.05	64.812736	1.28479	0.083449599	-0.20502687	-0.072609195	0.010837523	0.048499678	0	1014.560647506125
27.542287	0.27542287	0.05	74.879525	1.2007574	0.10117044	-0.21375689	-0.076080517	0.017670493	0.052869328	0	1031.0474589890896
27.542287	0.30199517	0.05	86.701899	1.1230122	0.12188512	-0.22368505	-0.080617933	0.025575488	0.05849531	0	1050.2970946108207
27.542287	0.33113112	0.05	100.34878	1.051779	0.14584157	-0.23478666	-0.086192013	0.034728568	0.065560271	0	1072.5438843185218
27.542287	0.36307805	0.05	115.81087	0.98703447	0.17320508	-0.24698844	-0.092724538	0.045308807	0.074242597	0	1097.9468034620002
27.542287	0.39810717	0.05	132.99708	0.92852767	0.20404688	-0.26017686	-0.1000969	0.057490324	0.084709054	0	1126.578349279487
27.542287	0.43651583	0.05	151.74503	0.87583238	0.23834842	-0.27421159	-0.10816349	0.071434682	0.09710871	0	1158.4279332922931
27.542287	0.47863009	0.05	171.84189	0.82841403	0.27601829	-0.28894066	-0.11676688	0.087284853	0.11156887	0	1193.4170655264713
27.542287	0.52480746	0.05	193.04939	0.78569418	0.31691578	-0.30421431	-0.1257517	0.1051615	0.12819323	0	1231.420838755043
27.542287	0.57543994	0.05	215.127	0.74710111	0.36087477	-0.31989562	-0.13497523	0.12516163	0.14706205	0	1272.2898771204054
27.542287	0.63095734	0.05	237.84969	0.71210236	0.40772369	-0.33586723	-0.14431412	0.14735934	0.16823381	0	1315.8687741647545
27.542287	0.69183097	0.05	261.01913	0.68022132	0.45729967	-0.35203476	-0.15366784	0.1718079	0.19174781	0	1362.0092256047672
27.542287	0.75857758	0.05	284.46904	0.65104193	0.50945728	-0.36832761	-0.16295944	0.19854267	0.21762722	0	1410.5782054292777
27.542287	0.83176377	0.05	308.06632	0.62420628	0.56407283	-0.38469808	-0.17213468	0.22758435	0.24588225	0	1461.4620469013732
27.542287	0.91201084	0.05	331.70929	0.5994087	0.62104565	-0.40111935	-0.18116003	0.25894218	0.27651316	0	1514.5677391585796
27.542287	1.	0.05	355.32453	0.57638877	0.68029749	-0.41758279	-0.19001993	0.2926168	0.30951298	0	1569.8224921941
27.542287	1.0964782	0.05	378.8631	0.55492457	0.74177092	-0.43409496	-0.19871381	0.32860292	0.3448699	0	1627.1723735474977
27.542287	1.2022644	0.05	402.29665	0.53482678	0.80542728	-0.45067446	-0.20725295	0.36689149	0.38256932	0	1686.5805297074837
27.542287	1.3182567	0.05	425.6139	0.51593377	0.87124459	-0.46734901	-0.21565749	0.40747152	0.42259553	0	1748.0253628853575
27.542287	1.4454398	0.05	448.81734	0.49810747	0.93921546	-0.48415269	-0.22395377	0.45033163	0.46493309	0	1811.4986922856174
27.542287	1.5848932	0.05	471.92058	0.48123002	1.0093453	-0.50112369	-0.23217196	0.49546127	0.50956798	0	1877.0041836224752
27.542287	1.7378008	0.05	494.94588	0.46520085	1.0816506	-0.51830246	-0.2403443	0.54285163	0.55648846	0	1944.5558157492092
27.542287	1.9054607	0.05	517.92228	0.44993421	1.1561577	-0.53573028	-0.24850359	0.59249645	0.60568576	0	2014.1767959299646
27.542287	2.0892961	0.05	540.88397	0.435357	1.2329014	-0.55344829	-0.25668222	0.64439258	0.65715457	0	2085.8982994128364
27.542287	2.2908677	0.05	563.86895	0.42140688	1.3119241	-0.57149674	-0.2649115	0.6985404	0.71089347	0	2159.7586928791084
27.542287	2.5118864	0.05	586.91796	0.40803063	1.3932749	-0.58991466	-0.27322119	0.75494419	0.76690514	0	2235.8027109142263
27.542287	2.7542287	0.05	610.0737	0.39518266	1.4770091	-0.60873963	-0.28163936	0.81361229	0.82519662	0	2314.080992802076
27.542287	3.0199517	0.05	633.38007	0.38282385	1.5631872	-0.6280077	-0.29019224	0.87455732	0.88577936	0	2394.6491500063753
27.542287	3.3113112	0.05	656.88174	0.37092043	1.6518751	-0.64775347	-0.29890436	0.93779622	0.94866933	0	2477.567947506788
27.542287	3.6307805	0.05	680.62367	0.35944315	1.743143	-0.66801019	-0.30779856	1.0033503	1.013887	0	2562.902269807255
27.542287	3.9810717	0.05	704.65088	0.34836646	1.8370656	-0.68880991	-0.31689618	1.0712455	1.0814574	0	2650.721299923192
27.542287	4.3651583	0.05	729.00821	0.33766797	1.933722	-0.71018364	-0.32621721	1.1415117	1.1514101	0	2741.0984183782166
27.542287	4.7863009	0.05	753.74015	0.32732786	2.0331948	-0.73216153	-0.33578044	1.2141836	1.2237789	0	2834.110350548592
27.542287	5.2480746	0.05	778.89077	0.31732849	2.1355709	-0.75477305	-0.34560364	1.2893002	1.2986023	0	2929.8379098594214
27.542287	5.7543994	0.05	804.50368	0.30765402	2.2409405	-0.77804715	-0.35570372	1.3669045	1.375923	0	3028.3650507027696
27.542287	6.3095734	0.05	830.62196	0.29829016	2.3493979	-0.80201243	-0.36609684	1.4470439	1.455788	0	3129.77961492234
27.542287	6.9183097	0.05	857.2882	0.28922388	2.4610408	-0.82669724	-0.37679858	1.5297702	1.5382485	0	3234.1726661314196
27.542287	7.5857758	0.05	884.54453	0.28044326	2.5759705	-0.85212989	-0.38782405	1.6151391	1.62336	0	3341.6386724583413
27.542287	8.3176377	0.05	912.43265	0.27193728	2.694292	-0.8783387	-0.39918801	1.7032106	1.7111821	0	3452.2755948656268
27.542287	9.1201084	0.05	940.99386	0.26369573	2.8161141	-0.90535213	-0.41090492	1.7940484	1.8017784	0	3566.1849787576084
27.542287	10.	0.05	970.2692	0.25570907	2.941549	-0.93319893	-0.42298911	1.8877208	1.8952166	0	3683.471570167983