27.542287	1.e-12	0.16	4.5168948e10	6.5600975e9	-0.73821084	-0.049927162	-0.049927162	-4.8074303e7	1.4422748e8	0	238.46245071136005
27.542287	1.0964782e-12	0.16	4.119457e10	5.98288e9	-0.73551093	-0.049927164	-0.049927164	-4.3844285e7	1.3153702e8	0	240.99919229481768
27.542287	1.2022644e-12	0.16	3.7569895e10	5.4564515e9	-0.73281103	-0.049927166	-0.049927166	-3.9986464e7	1.1996319e8	0	243.53592448262174
27.542287	1.3182567e-12	0.16	3.4264151e10	4.9763429e9	-0.73011112	-0.049927168	-0.049927168	-3.6468088e7	1.0940773e8	0	246.07266606607936
27.542287	1.4454398e-12	0.16	3.1249277e10	4.5384786e9	-0.72741122	-0.04992717	-0.04992717	-3.3259292e7	9.9781035e7	0	248.60939825388343
27.542287	1.5848932e-12	0.16	2.849968e10	4.1391417e9	-0.72471131	-0.049927171	-0.049927171	-3.0332835e7	9.1001386e7	0	251.14613998767152
27.542287	1.7378008e-12	0.16	2.5992017e10	3.7749421e9	-0.7220114	-0.049927172	-0.049927172	-2.7663874e7	8.299425e7	0	253.68288172145958
27.542287	1.9054607e-12	0.16	2.3705001e10	3.4427881e9	-0.7193115	-0.049927172	-0.049927172	-2.5229753e7	7.5691656e7	0	256.21961420992454
27.542287	2.0892961e-12	0.16	2.1619218e10	3.1398601e9	-0.71661159	-0.049927173	-0.049927173	-2.3009809e7	6.9031611e7	0	258.75635594371266
27.542287	2.2908677e-12	0.16	1.9716961e10	2.8635864e9	-0.71391168	-0.049927174	-0.049927174	-2.0985195e7	6.2957577e7	0	261.2930976775006
27.542287	2.5118864e-12	0.16	1.7982082e10	2.6116219e9	-0.71121178	-0.049927174	-0.049927174	-1.9138725e7	5.7417993e7	0	263.8298301659657
27.542287	2.7542287e-12	0.16	1.6399854e10	2.3818275e9	-0.70851187	-0.049927175	-0.049927175	-1.7454725e7	5.2365832e7	0	266.36657189975364
27.542287	3.0199517e-12	0.16	1.4956844e10	2.1722525e9	-0.70581197	-0.049927175	-0.049927175	-1.5918898e7	4.7758206e7	0	268.9033043882187
27.542287	3.3113112e-12	0.16	1.3640804e10	1.9811178e9	-0.70311206	-0.049927175	-0.049927175	-1.4518208e7	4.3556002e7	0	271.44004627233716
27.542287	3.6307805e-12	0.16	1.2440561e10	1.8068009e9	-0.70041215	-0.049927176	-0.049927176	-1.3240763e7	3.9723546e7	0	273.9767880061253
27.542287	3.9810717e-12	0.16	1.1345927e10	1.647822e9	-0.69771225	-0.049927176	-0.049927176	-1.207572e7	3.6228305e7	0	276.5135204945902
27.542287	4.3651583e-12	0.16	1.0347608e10	1.5028315e9	-0.69501234	-0.049927176	-0.049927176	-1.1013187e7	3.3040606e7	0	279.0502623787087
27.542287	4.7863009e-12	0.16	9.4371309e9	1.3705986e9	-0.69231243	-0.049927176	-0.049927176	-1.0044146e7	3.0133391e7	0	281.58700426282724
27.542287	5.2480746e-12	0.16	8.6067657e9	1.2500008e9	-0.68961253	-0.049927176	-0.049927176	-9.1603702e6	2.7481979e7	0	284.1237367512922
27.542287	5.7543994e-12	0.16	7.8494636e9	1.1400143e9	-0.68691262	-0.049927177	-0.049927177	-8.3543569e6	2.5063863e7	0	286.6604784850803
27.542287	6.3095734e-12	0.16	7.1587959e9	1.0397054e9	-0.68421272	-0.049927176	-0.049927176	-7.6192642e6	2.2858515e7	0	289.1972111238757
27.542287	6.9183097e-12	0.16	6.5288994e9	9.482226e8	-0.68151281	-0.049927177	-0.049927177	-6.9488515e6	2.0847213e7	0	291.7339528576638
27.542287	7.5857758e-12	0.16	5.9544271e9	8.647893e8	-0.6788129	-0.049927176	-0.049927176	-6.337428e6	1.9012885e7	0	294.27069489211266
27.542287	8.3176377e-12	0.16	5.430502e9	7.8869721e8	-0.676113	-0.049927177	-0.049927177	-5.7798031e6	1.7339957e7	0	296.8074272302473
27.542287	9.1201084e-12	0.16	4.9526768e9	7.1930041e8	-0.67341309	-0.049927176	-0.049927176	-5.2712432e6	1.5814229e7	0	299.34416926469623
27.542287	1.e-11	0.16	4.5168949e9	6.5600978e8	-0.67071318	-0.049927177	-0.049927177	-4.8074309e6	1.4422748e7	0	301.88091099848424
27.542287	1.0964782e-11	0.16	4.1194571e9	5.9828802e8	-0.66801328	-0.049927177	-0.049927177	-4.3844291e6	1.3153702e7	0	304.4176434869492
27.542287	1.2022644e-11	0.16	3.7569895e9	5.4564517e8	-0.66531337	-0.049927177	-0.049927177	-3.998647e6	1.1996319e7	0	306.95438537106776
27.542287	1.3182567e-11	0.16	3.4264152e9	4.9763431e8	-0.66261346	-0.049927177	-0.049927177	-3.6468095e6	1.0940773e7	0	309.49112725518626
27.542287	1.4454398e-11	0.16	3.1249278e9	4.5384789e8	-0.65991356	-0.049927177	-0.049927176	-3.3259298e6	9.9781036e6	0	312.02785989398177
27.542287	1.5848932e-11	0.16	2.849968e9	4.1391419e8	-0.65721365	-0.049927177	-0.049927177	-3.0332841e6	9.1001386e6	0	314.5646016277698
27.542287	1.7378008e-11	0.16	2.5992017e9	3.7749424e8	-0.65451375	-0.049927176	-0.049927176	-2.7663881e6	8.2994252e6	0	317.10133426656523
27.542287	1.9054607e-11	0.16	2.3705001e9	3.4427883e8	-0.65181384	-0.049927177	-0.049927177	-2.5229759e6	7.5691656e6	0	319.6380760003533
27.542287	2.0892961e-11	0.16	2.1619218e9	3.1398603e8	-0.64911393	-0.049927176	-0.049927176	-2.3009815e6	6.9031612e6	0	322.17481803480223
27.542287	2.2908677e-11	0.16	1.9716961e9	2.8635867e8	-0.64641403	-0.049927177	-0.049927177	-2.0985201e6	6.2957578e6	0	324.7115503729368
27.542287	2.5118864e-11	0.16	1.7982082e9	2.6116221e8	-0.64371412	-0.049927177	-0.049927177	-1.9138731e6	5.7417993e6	0	327.2482922570553
27.542287	2.7542287e-11	0.16	1.6399854e9	2.3818277e8	-0.64101421	-0.049927177	-0.049927177	-1.7454731e6	5.2365832e6	0	329.78503414117375
27.542287	3.0199517e-11	0.16	1.4956845e9	2.1722527e8	-0.63831431	-0.049927177	-0.049927177	-1.5918904e6	4.7758207e6	0	332.3217666296388
27.542287	3.3113112e-11	0.16	1.3640805e9	1.981118e8	-0.6356144	-0.049927177	-0.049927176	-1.4518214e6	4.3556002e6	0	334.8585086640877
27.542287	3.6307805e-11	0.16	1.2440562e9	1.8068011e8	-0.6329145	-0.049927177	-0.049927177	-1.3240769e6	3.9723546e6	0	337.39524100222224
27.542287	3.9810717e-11	0.16	1.1345927e9	1.6478222e8	-0.63021459	-0.049927176	-0.049927176	-1.2075726e6	3.6228305e6	0	339.9319830366712
27.542287	4.3651583e-11	0.16	1.0347609e9	1.5028318e8	-0.62751468	-0.049927177	-0.049927177	-1.1013193e6	3.3040607e6	0	342.4687247704593
27.542287	4.7863009e-11	0.16	9.4371312e8	1.3705989e8	-0.62481478	-0.049927177	-0.049927176	-1.0044152e6	3.0133392e6	0	345.0054574092547
27.542287	5.2480746e-11	0.16	8.606766e8	1.2500011e8	-0.62211487	-0.049927177	-0.049927176	-916037.61	2.748198e6	0	347.5421992933732
27.542287	5.7543994e-11	0.16	7.8494638e8	1.1400145e8	-0.61941496	-0.049927177	-0.049927177	-835436.27	2.5063863e6	0	350.0789410271613
27.542287	6.3095734e-11	0.16	7.1587962e8	1.0397056e8	-0.61671506	-0.049927177	-0.049927177	-761927.	2.2858515e6	0	352.61567351562627
27.542287	6.9183097e-11	0.16	6.5288997e8	9.4822282e7	-0.61401515	-0.049927177	-0.049927176	-694885.74	2.0847214e6	0	355.1524155500753
27.542287	7.5857758e-11	0.16	5.9544274e8	8.6478951e7	-0.61131525	-0.049927177	-0.049927176	-633743.38	1.9012885e6	0	357.6891480385402
27.542287	8.3176377e-11	0.16	5.4305023e8	7.8869742e7	-0.60861534	-0.049927177	-0.049927177	-577980.88	1.7339957e6	0	360.2258897723283
27.542287	9.1201084e-11	0.16	4.952677e8	7.1930063e7	-0.60591543	-0.049927176	-0.049927176	-527124.89	1.5814229e6	0	362.76263180677716
27.542287	1.e-10	0.16	4.5168951e8	6.5600998e7	-0.60321553	-0.049927177	-0.049927176	-480743.66	1.4422748e6	0	365.2993642952421
27.542287	1.0964782e-10	0.16	4.1194574e8	5.9828824e7	-0.60051562	-0.049927177	-0.049927176	-438443.49	1.3153703e6	0	367.83610617936074
27.542287	1.2022644e-10	0.16	3.7569898e8	5.4564538e7	-0.59781571	-0.049927177	-0.049927176	-399865.27	1.199632e6	0	370.37284806347924
27.542287	1.3182567e-10	0.16	3.4264154e8	4.9763451e7	-0.59511581	-0.049927177	-0.049927176	-364681.51	1.0940773e6	0	372.9095805519442
27.542287	1.4454398e-10	0.16	3.124928e8	4.5384809e7	-0.5924159	-0.049927177	-0.049927176	-332593.54	997810.4	0	375.4463224360627
27.542287	1.5848932e-10	0.16	2.8499683e8	4.139144e7	-0.589716	-0.049927177	-0.049927176	-303328.97	910013.91	0	377.98305492452766
27.542287	1.7378008e-10	0.16	2.5992019e8	3.7749443e7	-0.58701609	-0.049927177	-0.049927176	-276639.36	829942.54	0	380.5197968086463
27.542287	1.9054607e-10	0.16	2.3705004e8	3.4427904e7	-0.58431618	-0.049927177	-0.049927176	-252298.15	756916.6	0	383.0565386927648
27.542287	2.0892961e-10	0.16	2.1619221e8	3.1398623e7	-0.58161628	-0.049927177	-0.049927176	-230098.7	690316.15	0	385.59327118122974
27.542287	2.2908677e-10	0.16	1.9716964e8	2.8635887e7	-0.57891637	-0.049927177	-0.049927176	-209852.56	629575.82	0	388.13001306534824
27.542287	2.5118864e-10	0.16	1.7982085e8	2.6116241e7	-0.57621646	-0.049927177	-0.049927176	-191387.86	574179.97	0	390.6667549494667
27.542287	2.7542287e-10	0.16	1.6399857e8	2.3818297e7	-0.57351656	-0.049927177	-0.049927176	-174547.85	523658.37	0	393.2034874379318
27.542287	3.0199517e-10	0.16	1.4956847e8	2.1722547e7	-0.57081665	-0.049927177	-0.049927175	-159189.59	477582.11	0	395.74022947238063
27.542287	3.3113112e-10	0.16	1.3640807e8	1.98112e7	-0.56811675	-0.049927177	-0.049927175	-145182.68	435560.06	0	398.27696196084577
27.542287	3.6307805e-10	0.16	1.2440564e8	1.8068031e7	-0.56541684	-0.049927177	-0.049927175	-132408.23	397235.5	0	400.8137038449641
27.542287	3.9810717e-10	0.16	1.134593e8	1.6478242e7	-0.56271693	-0.049927178	-0.049927176	-120757.79	362283.09	0	403.3504455787522
27.542287	4.3651583e-10	0.16	1.0347611e8	1.5028337e7	-0.56001703	-0.049927177	-0.049927175	-110132.46	330406.11	0	405.88717821754767
27.542287	4.7863009e-10	0.16	9.4371336e7	1.3706008e7	-0.55731712	-0.049927178	-0.049927175	-100442.05	301333.95	0	408.42392010166617
27.542287	5.2480746e-10	0.16	8.6067684e7	1.250003e7	-0.55461721	-0.049927177	-0.049927175	-91604.286	274819.84	0	410.9606619857847
27.542287	5.7543994e-10	0.16	7.8494663e7	1.1400164e7	-0.55191731	-0.049927178	-0.049927175	-83544.151	250638.67	0	413.49739447424963
27.542287	6.3095734e-10	0.16	7.1587987e7	1.0397075e7	-0.5492174	-0.049927178	-0.049927174	-76193.221	228585.19	0	416.0341365086987
27.542287	6.9183097e-10	0.16	6.5289022e7	9.4822473e6	-0.5465175	-0.049927177	-0.049927174	-69489.093	208472.18	0	418.57086899716364
27.542287	7.5857758e-10	0.16	5.9544298e7	8.6479141e6	-0.54381759	-0.049927178	-0.049927174	-63374.854	190128.89	0	421.1076108812822
27.542287	8.3176377e-10	0.16	5.4305048e7	7.8869932e6	-0.54111768	-0.049927178	-0.049927174	-57798.602	173399.61	0	423.6443527654006
27.542287	9.1201084e-10	0.16	4.9526795e7	7.1930251e6	-0.53841778	-0.049927178	-0.049927173	-52713.	158142.33	0	426.1810854041961
27.542287	1.e-9	0.16	4.5168976e7	6.5601186e6	-0.53571787	-0.049927178	-0.049927173	-48074.875	144227.52	0	428.71782728831454
27.542287	1.0964782e-9	0.16	4.1194598e7	5.9829011e6	-0.53301796	-0.049927178	-0.049927172	-43844.855	131537.07	0	431.25456932276353
27.542287	1.2022644e-9	0.16	3.7569922e7	5.4564723e6	-0.53031806	-0.049927179	-0.049927172	-39987.03	119963.24	0	433.7913018112285
27.542287	1.3182567e-9	0.16	3.4264179e7	4.9763637e6	-0.52761815	-0.049927178	-0.049927172	-36468.653	109407.78	0	436.32804369534705
27.542287	1.4454398e-9	0.16	3.1249305e7	4.5384994e6	-0.52491824	-0.049927179	-0.049927171	-33259.853	99781.081	0	438.864785729796
27.542287	1.5848932e-9	0.16	2.8499707e7	4.1391623e6	-0.52221834	-0.049927179	-0.049927171	-30333.393	91001.43	0	441.401518218261
27.542287	1.7378008e-9	0.16	2.5992044e7	3.7749626e6	-0.51951843	-0.049927179	-0.04992717	-27664.43	82994.296	0	443.93826025270994
27.542287	1.9054607e-9	0.16	2.3705029e7	3.4428085e6	-0.51681853	-0.04992718	-0.04992717	-25230.306	75691.701	0	446.47499274117496
27.542287	2.0892961e-9	0.16	2.1619245e7	3.1398804e6	-0.51411862	-0.04992718	-0.049927169	-23010.359	69031.656	0	449.01173477562395
27.542287	2.2908677e-9	0.16	1.9716989e7	2.8636067e6	-0.51141871	-0.04992718	-0.049927168	-20985.743	62957.623	0	451.5484768100729
27.542287	2.5118864e-9	0.16	1.798211e7	2.611642e6	-0.50871881	-0.04992718	-0.049927167	-19139.27	57418.038	0	454.08520944886834
27.542287	2.7542287e-9	0.16	1.6399881e7	2.3818475e6	-0.5060189	-0.049927181	-0.049927167	-17455.267	52365.877	0	456.6219513329867
27.542287	3.0199517e-9	0.16	1.4956872e7	2.1722724e6	-0.50331899	-0.049927181	-0.049927166	-15919.438	47758.251	0	459.1586933674357
27.542287	3.3113112e-9	0.16	1.3640832e7	1.9811377e6	-0.50061909	-0.049927182	-0.049927164	-14518.745	43556.047	0	461.69542615656167
27.542287	3.6307805e-9	0.16	1.2440589e7	1.8068207e6	-0.49791918	-0.049927181	-0.049927163	-13241.298	39723.591	0	464.23216819101066
27.542287	3.9810717e-9	0.16	1.1345954e7	1.6478417e6	-0.49521928	-0.049927182	-0.049927162	-12076.251	36228.35	0	466.76890082980617
27.542287	4.3651583e-9	0.16	1.0347636e7	1.5028511e6	-0.49251937	-0.049927183	-0.04992716	-11013.716	33040.651	0	469.3056430145855
27.542287	4.7863009e-9	0.16	9.4371584e6	1.3706182e6	-0.48981946	-0.049927183	-0.049927159	-10044.672	30133.436	0	471.8423850490345
27.542287	5.2480746e-9	0.16	8.6067933e6	1.2500202e6	-0.48711956	-0.049927184	-0.049927157	-9160.8939	27482.025	0	474.37911783816037
27.542287	5.7543994e-9	0.16	7.8494911e6	1.1400336e6	-0.48441965	-0.049927185	-0.049927155	-8354.8779	25063.908	0	476.9158600229398
27.542287	6.3095734e-9	0.16	7.1588234e6	1.0397246e6	-0.48171975	-0.049927185	-0.049927153	-7619.7825	22858.56	0	479.4525928120657
27.542287	6.9183097e-9	0.16	6.5289269e6	948241.73	-0.47901984	-0.049927187	-0.049927151	-6949.3671	20847.258	0	481.9893349968451
27.542287	7.5857758e-9	0.16	5.9544546e6	864808.34	-0.47631993	-0.049927187	-0.049927148	-6337.9409	19012.93	0	484.5260773319549
27.542287	8.3176377e-9	0.16	5.4305296e6	788716.16	-0.47362003	-0.049927188	-0.049927145	-5780.3133	17340.002	0	487.0628102714114
27.542287	9.1201084e-9	0.16	4.9527043e6	719319.27	-0.47092012	-0.049927189	-0.049927142	-5271.7507	15814.274	0	489.5995526065213
27.542287	1.e-8	0.16	4.5169224e6	656028.54	-0.46822021	-0.049927191	-0.049927139	-4807.9357	14422.793	0	492.1362949416311
27.542287	1.0964782e-8	0.16	4.1194846e6	598306.71	-0.46552031	-0.049927192	-0.049927135	-4384.9313	13153.748	0	494.6730280314178
27.542287	1.2022644e-8	0.16	3.7570171e6	545663.75	-0.4628204	-0.049927193	-0.049927131	-3999.1465	11996.364	0	497.2097705168582
27.542287	1.3182567e-8	0.16	3.4264427e6	497652.8	-0.4601205	-0.049927195	-0.049927127	-3647.3062	10940.818	0	499.7465036066451
27.542287	1.4454398e-8	0.16	3.1249553e6	453866.28	-0.45742059	-0.049927197	-0.049927122	-3326.4238	9978.1489	0	502.2832462424159
27.542287	1.5848932e-8	0.16	2.8499955e6	413932.5	-0.45472068	-0.049927199	-0.049927117	-3033.7754	9100.1839	0	504.8199888781867
27.542287	1.7378008e-8	0.16	2.5992292e6	377512.44	-0.45202078	-0.049927201	-0.049927111	-2766.8766	8299.4703	0	507.35672226863437
27.542287	1.9054607e-8	0.16	2.3705276e6	344296.96	-0.44932087	-0.049927203	-0.049927104	-2523.4619	7569.2109	0	509.89346520506604
27.542287	2.0892961e-8	0.16	2.1619493e6	314004.06	-0.44662097	-0.049927206	-0.049927097	-2301.4647	6903.2064	0	512.4301987458442
27.542287	2.2908677e-8	0.16	1.9717237e6	286376.6	-0.44392106	-0.049927208	-0.04992709	-2099.0006	6295.803	0	514.966941682276
27.542287	2.5118864e-8	0.16	1.7982357e6	261180.05	-0.44122115	-0.049927212	-0.049927082	-1914.3509	5741.8445	0	517.503684769038
27.542287	2.7542287e-8	0.16	1.6400129e6	238200.52	-0.43852125	-0.049927214	-0.049927072	-1745.9482	5236.6285	0	520.0404187608076
27.542287	3.0199517e-8	0.16	1.495712e6	217242.93	-0.43582134	-0.049927218	-0.049927062	-1592.3629	4775.8659	0	522.5771621482307
27.542287	3.3113112e-8	0.16	1.364108e6	198129.37	-0.43312144	-0.049927222	-0.049927051	-1452.2911	4355.6455	0	525.1138962903307
27.542287	3.6307805e-8	0.16	1.2440837e6	180697.59	-0.43042153	-0.049927227	-0.049927039	-1324.5439	3972.3999	0	527.6506399784147
27.542287	3.9810717e-8	0.16	1.1346202e6	164799.61	-0.42772163	-0.049927232	-0.049927026	-1208.0369	3622.8757	0	530.1873744211756
27.542287	4.3651583e-8	0.16	1.0347884e6	150300.47	-0.42502172	-0.049927237	-0.049927011	-1101.781	3304.1059	0	532.7241185602511
27.542287	4.7863009e-8	0.16	943740.64	137077.09	-0.42232181	-0.049927242	-0.049926994	-1004.8742	3013.3844	0	535.2608629999872
27.542287	5.2480746e-8	0.16	860704.12	125017.22	-0.41962191	-0.049927248	-0.049926977	-916.49388	2748.2433	0	537.79759804407
27.542287	5.7543994e-8	0.16	784973.9	114018.47	-0.416922	-0.049927256	-0.049926958	-835.88985	2506.4316	0	540.334342784467
27.542287	6.3095734e-8	0.16	715907.13	103987.49	-0.4142221	-0.049927263	-0.049926936	-762.37787	2285.8968	0	542.8710785802022
27.542287	6.9183097e-8	0.16	652917.49	94839.115	-0.41152219	-0.049927272	-0.049926914	-695.33391	2084.7666	0	545.4078237715906
27.542287	7.5857758e-8	0.16	595470.25	86495.692	-0.40882229	-0.049927281	-0.049926889	-634.18885	1901.3337	0	547.944560018317
27.542287	8.3176377e-8	0.16	543077.75	78886.392	-0.40612238	-0.049927291	-0.04992686	-578.42367	1734.041	0	550.4813062620188
27.542287	9.1201084e-8	0.16	495295.22	71946.62	-0.40342248	-0.049927302	-0.04992683	-527.56497	1581.4682	0	553.0180432603975
27.542287	1.e-7	0.16	451717.03	65617.464	-0.40072257	-0.049927314	-0.049926796	-481.18105	1442.3201	0	555.5547902557515
27.542287	1.0964782e-7	0.16	411973.25	59845.197	-0.39802267	-0.049927327	-0.04992676	-438.87817	1315.4155	0	558.0915281561129
27.542287	1.2022644e-7	0.16	375726.49	54580.818	-0.39532276	-0.049927342	-0.04992672	-400.29725	1199.6772	0	560.6282760534497
27.542287	1.3182567e-7	0.16	342669.05	49779.64	-0.39262286	-0.049927358	-0.049926676	-365.1108	1094.1226	0	563.1650151564547
27.542287	1.4454398e-7	0.16	312520.32	45400.907	-0.38992296	-0.049927375	-0.049926627	-333.02014	997.85568	0	565.701755011112
27.542287	1.5848932e-7	0.16	285024.34	41407.445	-0.38722305	-0.049927394	-0.049926574	-303.75287	910.05918	0	568.2385048627447
27.542287	1.7378008e-7	0.16	259947.71	37765.357	-0.38452315	-0.049927415	-0.049926516	-277.06056	829.98783	0	570.7752460703763
27.542287	1.9054607e-7	0.16	237077.55	34443.725	-0.38182325	-0.049927438	-0.049926452	-252.71665	756.96187	0	573.3119881799903
27.542287	2.0892961e-7	0.16	216219.72	31414.352	-0.37912334	-0.049927464	-0.049926382	-230.5145	690.36142	0	575.8487405872407
27.542287	2.2908677e-7	0.16	197197.15	28651.524	-0.37642344	-0.049927491	-0.049926306	-210.26567	629.62109	0	578.3854845008206
27.542287	2.5118864e-7	0.16	179848.37	26131.786	-0.37372354	-0.049927521	-0.049926221	-191.79827	574.22525	0	580.9222297673741
27.542287	2.7542287e-7	0.16	164026.08	23833.75	-0.37102364	-0.049927555	-0.049926129	-174.95557	523.70363	0	583.4589760862411
27.542287	3.0199517e-7	0.16	149595.99	21737.908	-0.36832374	-0.049927591	-0.049926029	-159.5946	477.62738	0	585.9957236077518
27.542287	3.3113112e-7	0.16	136435.59	19826.469	-0.36562383	-0.049927631	-0.049925918	-145.585	435.60534	0	588.5324821785508
27.542287	3.6307805e-7	0.16	124433.16	18083.208	-0.36292393	-0.049927675	-0.049925796	-132.80785	397.28077	0	591.0692330073315
27.542287	3.9810717e-7	0.16	113486.81	16493.327	-0.36022403	-0.049927723	-0.049925663	-121.15471	362.32836	0	593.6059854897471
27.542287	4.3651583e-7	0.16	103503.63	15043.33	-0.35752414	-0.049927776	-0.049925517	-110.52669	330.45138	0	596.1427305308052
27.542287	4.7863009e-7	0.16	94398.851	13720.909	-0.35482424	-0.049927834	-0.049925357	-100.83358	301.37923	0	598.6794870721432
27.542287	5.2480746e-7	0.16	86095.199	12514.839	-0.35212434	-0.049927897	-0.049925181	-91.99312	274.86511	0	601.2162460187684
27.542287	5.7543994e-7	0.16	78522.178	11414.881	-0.34942444	-0.049927967	-0.049924989	-83.930288	250.68394	0	603.753007370681
27.542287	6.3095734e-7	0.16	71615.501	10411.7	-0.34672455	-0.049928043	-0.049924778	-76.57666	228.63046	0	606.2897621832187
27.542287	6.9183097e-7	0.16	65316.537	9496.7802	-0.34402465	-0.049928126	-0.049924546	-69.869835	208.51745	0	608.8265295483496
27.542287	7.5857758e-7	0.16	59571.814	8662.355	-0.34132476	-0.049928218	-0.049924292	-63.7529	190.17416	0	611.3632908250968
27.542287	8.3176377e-7	0.16	54332.562	7901.342	-0.33862486	-0.049928319	-0.049924014	-58.17395	173.44488	0	613.9000651054284
27.542287	9.1201084e-7	0.16	49554.309	7207.2818	-0.33592497	-0.049928429	-0.04992371	-53.085651	158.1876	0	616.4368338986988
27.542287	1.e-6	0.16	45196.49	6574.2833	-0.33322508	-0.04992855	-0.049923375	-48.444829	144.27279	0	618.9736073522129
27.542287	1.0964782e-6	0.16	41222.113	5996.9738	-0.33052519	-0.049928682	-0.049923008	-44.212111	131.58234	0	621.5103856163017
27.542287	1.2022644e-6	0.16	37597.437	5470.4531	-0.32782531	-0.049928827	-0.049922606	-40.35159	120.00851	0	624.0471597463034
27.542287	1.3182567e-6	0.16	34291.694	4990.2525	-0.32512542	-0.049928986	-0.049922164	-36.830515	109.45305	0	626.5839492851761
27.542287	1.4454398e-6	0.16	31276.82	4552.2961	-0.32242554	-0.049929161	-0.049921681	-33.619018	99.826353	0	629.1207355919444
27.542287	1.5848932e-6	0.16	28527.222	4152.8671	-0.31972566	-0.049929352	-0.049921151	-30.689861	91.046703	0	631.6575289642442
27.542287	1.7378008e-6	0.16	26019.56	3788.5754	-0.31702578	-0.049929562	-0.049920569	-28.018201	83.039568	0	634.1943301537275
27.542287	1.9054607e-6	0.16	23732.544	3456.3293	-0.31432591	-0.049929792	-0.049919932	-25.58138	75.736974	0	636.7311302157325
27.542287	2.0892961e-6	0.16	21646.76	3153.3091	-0.31162603	-0.049930045	-0.049919233	-23.358735	69.076928	0	639.2679489938793
27.542287	2.2908677e-6	0.16	19744.504	2876.9434	-0.30892616	-0.049930321	-0.049918467	-21.331422	63.002895	0	641.8047684485131
27.542287	2.5118864e-6	0.16	18009.625	2624.8867	-0.3062263	-0.049930625	-0.049917627	-19.482252	57.463311	0	644.3415896319469
27.542287	2.7542287e-6	0.16	16427.397	2395.0002	-0.30352644	-0.049930958	-0.049916705	-17.795552	52.41115	0	646.8784231424786
27.542287	3.0199517e-6	0.16	14984.387	2185.3331	-0.30082658	-0.049931323	-0.049915695	-16.257025	47.803525	0	649.41526988209
27.542287	3.3113112e-6	0.16	13668.347	1994.1064	-0.29812673	-0.049931723	-0.049914588	-14.853635	43.60132	0	651.9521218081023
27.542287	3.6307805e-6	0.16	12468.104	1819.6974	-0.29542688	-0.049932161	-0.049913373	-13.57349	39.768865	0	654.4889899698038
27.542287	3.9810717e-6	0.16	11373.47	1660.6264	-0.29272704	-0.049932643	-0.049912041	-12.405746	36.273624	0	657.0258663245153
27.542287	4.3651583e-6	0.16	10375.152	1515.5439	-0.2900272	-0.04993317	-0.049910581	-11.340514	33.085926	0	659.5627619215252
27.542287	4.7863009e-6	0.16	9464.6742	1383.2189	-0.28732737	-0.049933748	-0.04990898	-10.368773	30.178711	0	662.0996693194754
27.542287	5.2480746e-6	0.16	8634.309	1262.5289	-0.28462755	-0.049934382	-0.049907225	-9.4822971	27.5273	0	664.6365904726629
27.542287	5.7543994e-6	0.16	7877.007	1152.4503	-0.28192774	-0.049935078	-0.0499053	-8.6735838	25.109184	0	667.1735277863742
27.542287	6.3095734e-6	0.16	7186.3394	1052.0493	-0.27922793	-0.04993584	-0.049903189	-7.9357911	22.903836	0	669.7104930615503
27.542287	6.9183097e-6	0.16	6556.4431	960.47444	-0.27652814	-0.049936676	-0.049900875	-7.2626784	20.892535	0	672.2474700625021
27.542287	7.5857758e-6	0.16	5981.9709	876.94905	-0.27382836	-0.049937593	-0.049898338	-6.6485548	19.058207	0	674.7844711914918
27.542287	8.3176377e-6	0.16	5458.046	800.76488	-0.27112858	-0.049938598	-0.049895556	-6.0882299	17.38528	0	677.3215091514434
27.542287	9.1201084e-6	0.16	4980.2208	731.27599	-0.26842883	-0.0499397	-0.049892505	-5.5769698	15.859552	0	679.8585593633272
27.542287	0.00001	0.16	4544.4391	667.89327	-0.26572908	-0.049940909	-0.049889161	-5.1104575	14.468072	0	682.3956536220345
27.542287	0.000010964782	0.16	4147.0015	610.07944	-0.26302935	-0.049942234	-0.049885493	-4.6847557	13.199028	0	684.9327777965026
27.542287	0.000012022644	0.16	3784.5312	557.34445	-0.26033417	-0.049954279	-0.049892064	-4.2962765	12.041641	0	687.4640877150894
27.542287	0.000013182567	0.16	3453.9568	509.24151	-0.25763491	-0.049956893	-0.049888676	-3.9417391	10.986095	0	690.0007282013152
27.542287	0.000014454398	0.16	3152.4694	465.36301	-0.25493572	-0.049959759	-0.04988496	-3.6181596	10.023427	0	692.5373522263562
27.542287	0.000015848932	0.16	2877.5096	425.33724	-0.25223659	-0.049962901	-0.049880886	-3.3228141	9.1454623	0	695.0739736957795
27.542287	0.000017378008	0.16	2626.7432	388.8252	-0.24953754	-0.049966347	-0.049876418	-3.0532181	8.3447494	0	697.6105792301744
27.542287	0.000019054607	0.16	2398.0416	355.51774	-0.24683857	-0.049970123	-0.049871519	-2.8071063	7.6144909	0	700.1471743917677
27.542287	0.000020892961	0.16	2189.4632	325.13286	-0.2441397	-0.049974264	-0.049866147	-2.582412	6.9484873	0	702.6837467031319
27.542287	0.000022908677	0.16	1999.2374	297.41343	-0.24144092	-0.049978804	-0.049860256	-2.3772508	6.341085	0	705.2203124751211
27.542287	0.000025118864	0.16	1825.7494	272.12492	-0.23874225	-0.049983782	-0.049853796	-2.189904	5.7871277	0	707.7568604329514
27.542287	0.000027542287	0.16	1667.5265	249.05342	-0.2360437	-0.049989238	-0.049846712	-2.0188042	5.2819128	0	710.2933894491443
27.542287	0.000030199517	0.16	1523.2254	228.00386	-0.23334527	-0.04999522	-0.049838943	-1.8625217	4.8211516	0	712.8299086938573
27.542287	0.000033113112	0.16	1391.6213	208.79835	-0.23064699	-0.050001778	-0.049830424	-1.7197529	4.4009326	0	715.3663997516101
27.542287	0.000036307805	0.16	1271.5969	191.27462	-0.22794887	-0.050008967	-0.049821081	-1.5893087	4.0176886	0	717.9028643512027
27.542287	0.000039810717	0.16	1162.1333	175.28469	-0.22525092	-0.050016848	-0.049810835	-1.4701046	3.6681662	0	720.4393049730872
27.542287	0.000043651583	0.16	1062.3012	160.69361	-0.22255315	-0.050025486	-0.049799598	-1.3611516	3.3493984	0	722.9757254506908
27.542287	0.000047863009	0.16	971.25334	147.3783	-0.21985559	-0.050034956	-0.049787274	-1.2615478	3.058679	0	725.5121120287765
27.542287	0.000052480746	0.16	888.21664	135.2265	-0.21715826	-0.050045335	-0.049773758	-1.1704705	2.7935402	0	728.0484617007353
27.542287	0.000057543994	0.16	812.48622	124.13584	-0.21446117	-0.050056712	-0.049758934	-1.0871695	2.5517312	0	730.5847825092466
27.542287	0.000063095734	0.16	743.41923	114.01295	-0.21176434	-0.050069181	-0.049742675	-1.0109606	2.3311992	0	733.1210747549711
27.542287	0.000069183097	0.16	680.42935	104.77268	-0.20906782	-0.050082847	-0.049724842	-0.94121966	2.1300721	0	735.657312355575
27.542287	0.000075857758	0.16	622.98185	96.337377	-0.20637161	-0.050097824	-0.04970528	-0.8773777	1.9466427	0	738.1935186122787
27.542287	0.000083176377	0.16	570.58907	88.636204	-0.20367576	-0.050114238	-0.049683824	-0.81891563	1.7793537	0	740.7296713513402
27.542287	0.000091201084	0.16	522.80623	81.604572	-0.20098029	-0.050132225	-0.049660287	-0.76536007	1.6267849	0	743.2657798932477
27.542287	0.0001	0.16	479.22771	75.183573	-0.19828525	-0.050151934	-0.049634467	-0.71627932	1.4876414	0	745.8018276264856
27.542287	0.00010964782	0.16	439.48358	69.319478	-0.19559066	-0.050173529	-0.049606141	-0.67127966	1.3607418	0	748.3378292834386
27.542287	0.00012022644	0.16	403.23645	63.963291	-0.19289658	-0.050197188	-0.049575065	-0.63000199	1.245009	0	750.8737651708173
27.542287	0.00013182567	0.16	370.17861	59.070323	-0.19020304	-0.050223108	-0.04954097	-0.59211882	1.1394604	0	753.4096475405537
27.542287	0.00014454398	0.16	340.02945	54.599821	-0.18751011	-0.050251501	-0.04950356	-0.55733148	1.0432	0	755.9454551208879
27.542287	0.00015848932	0.16	312.53301	50.514614	-0.18481783	-0.050282602	-0.049462511	-0.52536757	0.95541076	0	758.4811990362745
27.542287	0.00017378008	0.16	287.45589	46.780808	-0.18212627	-0.050316662	-0.049417465	-0.49597868	0.87534738	0	761.0168673354414
27.542287	0.00019054607	0.16	264.58522	43.367486	-0.17943549	-0.050353963	-0.049368032	-0.46893823	0.80233018	0	763.5524622733459
27.542287	0.00020892961	0.16	243.72685	40.246455	-0.17674556	-0.050394804	-0.049313778	-0.44403959	0.73573937	0	766.0879833238313
27.542287	0.00022908677	0.16	224.70372	37.392004	-0.17405655	-0.050439518	-0.049254229	-0.42109433	0.67500963	0	768.6234359739591
27.542287	0.00025118864	0.16	207.35435	34.780681	-0.17136856	-0.050488463	-0.049188863	-0.39993056	0.61962545	0	771.1588047396924
27.542287	0.00027542287	0.16	191.53147	32.391101	-0.16868166	-0.050542033	-0.049117107	-0.38039153	0.56911668	0	773.6941099908081
27.542287	0.00030199517	0.16	177.10076	30.203762	-0.16599595	-0.050600653	-0.049038328	-0.36233431	0.52305455	0	776.2293529299499
27.542287	0.00033113112	0.16	163.93975	28.200878	-0.16331154	-0.050664786	-0.048951831	-0.34562851	0.48104808	0	778.764534684596
27.542287	0.00036307805	0.16	151.93672	26.366227	-0.16062854	-0.050734938	-0.048856851	-0.33015522	0.44274067	0	781.2996669053568
27.542287	0.00039810717	0.16	140.9898	24.685018	-0.15794706	-0.050811656	-0.048752548	-0.315806	0.40780715	0	783.834772517627
27.542287	0.00043651583	0.16	131.00607	23.143761	-0.15526723	-0.050895534	-0.048637994	-0.30248195	0.37595101	0	786.3698688845743
27.542287	0.00047863009	0.16	121.90082	21.730154	-0.1525892	-0.050987214	-0.048512171	-0.29009286	0.34690184	0	788.9049681078
27.542287	0.00052480746	0.16	113.59678	20.432981	-0.14991309	-0.051087394	-0.04837396	-0.27855647	0.32041307	0	791.4401256592428
27.542287	0.00057543994	0.16	106.02348	19.242011	-0.14723908	-0.051196828	-0.048222127	-0.26779774	0.29625989	0	793.975357924922
27.542287	0.00063095734	0.16	99.116694	18.147918	-0.1445673	-0.051316329	-0.04805532	-0.25774823	0.27423729	0	796.510746008119
27.542287	0.00069183097	0.16	92.817821	17.142195	-0.14189795	-0.051446777	-0.047872055	-0.24834552	0.25415838	0	799.0463250861604
27.542287	0.00075857758	0.16	87.07345	16.217087	-0.13923119	-0.051589117	-0.0476707	-0.23953268	0.23585275	0	801.5821901678942
27.542287	0.00083176377	0.16	81.834881	15.365525	-0.13656721	-0.051744366	-0.04744947	-0.23125778	0.21916507	0	804.1184310757682
27.542287	0.00091201084	0.16	77.057717	14.581062	-0.1339062	-0.051913617	-0.047206413	-0.22347344	0.20395375	0	806.6551627374156
27.542287	0.001	0.16	72.701487	13.857819	-0.13124836	-0.052098042	-0.046939397	-0.21613645	0.19008972	0	809.1925177442988
27.542287	0.0010964782	0.16	68.729305	13.190441	-0.1285939	-0.052298894	-0.046646103	-0.20920738	0.17745537	0	811.730647404022
27.542287	0.0012022644	0.16	65.107558	12.574043	-0.12594301	-0.052517511	-0.046324009	-0.20265026	0.16594349	0	814.2697523325784
27.542287	0.0013182567	0.16	61.805619	12.004175	-0.12329591	-0.05275532	-0.045970393	-0.19643225	0.15545644	0	816.8100350250924
27.542287	0.0014454398	0.16	58.795588	11.476777	-0.1206528	-0.053013836	-0.045582324	-0.1905234	0.14590524	0	819.3517481870601
27.542287	0.0015848932	0.16	56.052051	10.988154	-0.11801386	-0.05329467	-0.045156666	-0.18489636	0.13720885	0	821.8951941330292
27.542287	0.0017378008	0.16	53.551872	10.534934	-0.1153793	-0.05359952	-0.044690085	-0.17952615	0.12929343	0	824.4406767560162
27.542287	0.0019054607	0.16	51.273985	10.114045	-0.11274929	-0.053930186	-0.044179076	-0.17438996	0.12209174	0	826.9885632381597
27.542287	0.0020892961	0.16	49.199214	9.7226879	-0.11012397	-0.054288556	-0.043619984	-0.16946697	0.11554254	0	829.5392714981278
27.542287	0.0022908677	0.16	47.310108	9.3583086	-0.1075035	-0.054676613	-0.043009049	-0.16473813	0.10959002	0	832.0932164479785
27.542287	0.0025118864	0.16	45.590784	9.0185782	-0.10488796	-0.055096435	-0.042342475	-0.16018603	0.10418331	0	834.6508935768953
27.542287	0.0027542287	0.16	44.026785	8.7013712	-0.10227743	-0.055550183	-0.0416165	-0.15579474	0.099276038	0	837.2127932628255
27.542287	0.0030199517	0.16	42.604942	8.4047458	-0.099671922	-0.056040111	-0.040827502	-0.1515497	0.094825847	0	839.7794487278965
27.542287	0.0033113112	0.16	41.313259	8.1269265	-0.097071415	-0.05656855	-0.039972111	-0.14743756	0.090794025	0	842.351386316617
27.542287	0.0036307805	0.16	40.14079	7.8662866	-0.094475817	-0.05713791	-0.039047354	-0.14344612	0.087145108	0	844.9291394014457
27.542287	0.0039810717	0.16	39.077539	7.6213338	-0.091884968	-0.057750671	-0.038050796	-0.13956418	0.083846537	0	847.5132243674982
27.542287	0.0043651583	0.16	38.114356	7.3906957	-0.089298632	-0.058409377	-0.036980697	-0.13578149	0.080868332	0	850.104124527191
27.542287	0.0047863009	0.16	37.242856	7.1731073	-0.086716486	-0.05911663	-0.035836154	-0.13208866	0.078182805	0	852.7022791085335
27.542287	0.0052480746	0.16	36.455338	6.9673997	-0.084138111	-0.059875079	-0.034617228	-0.12847708	0.075764296	0	855.3080726192502
27.542287	0.0057543994	0.16	35.744722	6.7724908	-0.081562986	-0.060687407	-0.033325031	-0.12493888	0.073588964	0	857.9218274054208
27.542287	0.0063095734	0.16	35.104489	6.5873768	-0.078990481	-0.061556329	-0.031961764	-0.12146684	0.071634601	0	860.5438045158824
27.542287	0.0069183097	0.16	34.528647	6.411126	-0.076419847	-0.062484574	-0.030530705	-0.11805436	0.069880496	0	863.174214901847
27.542287	0.0075857758	0.16	34.011693	6.2428738	-0.073850222	-0.063474867	-0.029036114	-0.11469539	0.068307339	0	865.8132280609043
27.542287	0.0083176377	0.16	33.548592	6.0818184	-0.071280624	-0.064529919	-0.0274831	-0.11138442	0.066897151	0	868.4609986079279
27.542287	0.0091201084	0.16	33.134761	5.9272183	-0.068709961	-0.065652397	-0.025877418	-0.1081164	0.065633246	0	871.1176873965059
27.542287	0.01	0.16	32.766048	5.7783896	-0.06613704	-0.066844899	-0.024225237	-0.1048867	0.064500202	0	873.783487939518
27.542287	0.010964782	0.16	32.438719	5.6347041	-0.063560588	-0.068109914	-0.022532884	-0.10169109	0.063483836	0	876.458645162859
27.542287	0.012022644	0.16	32.149426	5.4955866	-0.060979284	-0.069449768	-0.020806579	-0.098525675	0.062571181	0	879.1434651769206
27.542287	0.013182567	0.16	31.895171	5.3605126	-0.058391801	-0.070866563	-0.019052173	-0.095386878	0.061750438	0	881.8383152014238
27.542287	0.014454398	0.16	31.673258	5.229005	-0.055796873	-0.072362072	-0.017274893	-0.0922714	0.06101092	0	884.5435989488082
27.542287	0.015848932	0.16	31.481221	5.1006301	-0.053193382	-0.073937629	-0.015479101	-0.089176191	0.060342965	0	887.2597111116862
27.542287	0.017378008	0.16	31.316735	4.9749937	-0.050580465	-0.075593962	-0.013668036	-0.086098438	0.059737832	0	889.9869756146078
27.542287	0.019054607	0.16	31.177514	4.8517366	-0.047957671	-0.077330984	-0.011843563	-0.083035552	0.059187575	0	892.7255358352453
27.542287	0.020892961	0.16	31.06118	4.7305288	-0.045325135	-0.079147538	-0.010005883	-0.079985171	0.058684888	0	895.475234715855
27.542287	0.022908677	0.16	30.965124	4.6110649	-0.042683803	-0.08104108	-0.0081532215	-0.076945179	0.058222932	0	898.23545018901
27.542287	0.025118864	0.16	30.886351	4.493058	-0.040035672	-0.083007303	-0.0062814713	-0.073913728	0.057795144	0	901.0049233799548
27.542287	0.027542287	0.16	30.821347	4.3762343	-0.03738405	-0.085039717	-0.0043837986	-0.070889294	0.057395025	0	903.7815735347823
27.542287	0.030199517	0.16	30.765978	4.2603272	-0.034733779	-0.087129216	-0.0024502441	-0.067870723	0.057015912	0	906.5623484641781
27.542287	0.033113112	0.16	30.715489	4.145072	-0.032091354	-0.089263666	-0.00046735588	-0.064857299	0.056650761	0	909.3431679244613
27.542287	0.036307805	0.16	30.664677	4.0302011	-0.029464843	-0.0914276	0.0015820838	-0.061848798	0.056291954	0	912.119039853094
27.542287	0.039810717	0.16	30.608339	3.9154408	-0.026863441	-0.093602109	0.0037191231	-0.058845507	0.055931177	0	914.8844891261738
27.542287	0.043651583	0.16	30.54212	3.8005109	-0.024296494	-0.09576503	0.0059684208	-0.055848194	0.055559451	0	917.6344415315809
27.542287	0.047863009	0.16	30.463857	3.6851286	-0.021771825	-0.09789155	0.0083576082	-0.052857959	0.055167385	0	920.3657006755116
27.542287	0.052480746	0.16	30.375429	3.5690175	-0.019293291	-0.09995525	0.010916219	-0.049875931	0.054745747	0	923.079082468999
27.542287	0.057543994	0.16	30.284949	3.451922	-0.016857708	-0.10192956	0.013674211	-0.04690277	0.05428639	0	925.7820820578523
27.542287	0.063095734	0.16	30.208936	3.3336256	-0.014451541	-0.1037895	0.016660192	-0.043937943	0.053783491	0	928.4917170827032
27.542287	0.069183097	0.16	30.17391	3.2139662	-0.012047993	-0.10551355	0.019899548	-0.040978819	0.053234935	0	931.2369813651912
27.542287	0.075857758	0.16	30.216875	3.0928463	-0.0096051837	-0.10708547	0.023412607	-0.03801965	0.052643613	0	934.060280101554
27.542287	0.083176377	0.16	30.384379	2.9702333	-0.0070658759	-0.10849605	0.027212866	-0.035050578	0.052018426	0	937.0174203918068
27.542287	0.091201084	0.16	30.730092	2.8461551	-0.004358939	-0.10974484	0.031305246	-0.03205681	0.051374983	0	940.1759738592085
27.542287	0.1	0.16	31.311025	2.7207001	-0.0014025278	-0.11084223	0.035684046	-0.029018091	0.050736132	0	943.6119823838131
27.542287	0.10964782	0.16	32.182305	2.5940349	0.0018909486	-0.11181255	0.04032978	-0.02590862	0.050132555	0	947.4048140009708
27.542287	0.12022644	0.16	33.390282	2.4664457	0.0056079961	-0.11270043	0.045202845	-0.022697558	0.049603485	0	951.6297931198424
27.542287	0.13182567	0.16	34.964889	2.338393	0.0098267505	-0.11358387	0.050230467	-0.019350273	0.049197053	0	956.349393282098
27.542287	0.14454398	0.16	36.917408	2.2105444	0.014616299	-0.11459614	0.055284734	-0.015830151	0.048969438	0	961.6092973576984
27.542287	0.15848932	0.16	38.037875	2.0855116	0.018776239	-0.11624082	0.059867651	-0.012129482	0.049004914	0	966.2067848421973
27.542287	0.17378008	0.16	41.231783	1.9676166	0.025518439	-0.11928186	0.063220977	-0.0082500958	0.049428341	0	973.0456293716643
27.542287	0.19054607	0.16	45.225642	1.8519026	0.033523656	-0.12287415	0.066195758	-0.0040196654	0.050266748	0	981.0142540683253
27.542287	0.20892961	0.16	50.188671	1.7391508	0.043074499	-0.12712405	0.068691707	0.00064826968	0.051629492	0	990.3631123657381
27.542287	0.22908677	0.16	56.318412	1.6302318	0.054499548	-0.13212438	0.070622292	0.005858194	0.053646582	0	1001.3879182515868
27.542287	0.25118864	0.16	63.830546	1.5260581	0.068163318	-0.13794474	0.071924363	0.011734967	0.056469619	0	1014.4216640211308
27.542287	0.27542287	0.16	72.939331	1.4275107	0.084444657	-0.14462104	0.072568679	0.018424717	0.060270564	0	1029.8159063152225
27.542287	0.30199517	0.16	83.829923	1.3353513	0.10370437	-0.15214623	0.072569128	0.0260934	0.065237701	0	1047.9117327993417
27.542287	0.33113112	0.16	96.627734	1.2501356	0.12624747	-0.16046572	0.071987362	0.034922436	0.071568736	0	1069.0049912928614
27.542287	0.36307805	0.16	111.37312	1.1721513	0.15228961	-0.1694803	0.070929838	0.04510153	0.07946181	0	1093.3143056115596
27.542287	0.39810717	0.16	128.00969	1.1013983	0.18193732	-0.17905758	0.069536411	0.056819629	0.089105865	0	1120.9607921180955
27.542287	0.43651583	0.16	146.39019	1.0376142	0.21518782	-0.18904953	0.06796281	0.070255576	0.10067205	0	1151.9652496323783
27.542287	0.47863009	0.16	166.29757	0.98033355	0.25194642	-0.19931142	0.066361667	0.085570144	0.1143075	0	1186.2616559495768
27.542287	0.52480746	0.16	187.47406	0.92896104	0.29205464	-0.20971753	0.064866847	0.10290058	0.13013202	0	1223.721232739516
27.542287	0.57543994	0.16	209.65032	0.88284184	0.33532009	-0.22017068	0.063583927	0.12235809	0.14823759	0	1264.179088463062
27.542287	0.63095734	0.16	232.5689	0.84131752	0.38154211	-0.23060523	0.062587161	0.14402787	0.16869014	0	1307.4578525747636
27.542287	0.69183097	0.16	255.99997	0.80376475	0.43053011	-0.24098514	0.061921488	0.16797117	0.19153262	0	1353.3852090149269
27.542287	0.75857758	0.16	279.74943	0.76961815	0.48211466	-0.25129896	0.061607491	0.1942284	0.21678888	0	1401.8050614780766
27.542287	0.83176377	0.16	303.66141	0.73838056	0.53615272	-0.26155389	0.061647389	0.22282281	0.2444676	0	1452.5833481198315
27.542287	0.91201084	0.16	327.61677	0.70962467	0.592529	-0.27177001	0.062030806	0.25376422	0.27456606	0	1505.610186622177
27.542287	1.	0.16	351.52962	0.68298925	0.65115475	-0.28197543	0.062739608	0.28705241	0.30707346	0	1560.7994644678138
27.542287	1.0964782	0.16	375.34273	0.65817249	0.71196544	-0.29220262	0.063751615	0.3226802	0.34197377	0	1618.0872171751903
27.542287	1.2022644	0.16	399.02293	0.63492421	0.77491793	-0.30248576	0.06504324	0.360636	0.37924808	0	1677.4293660506428
27.542287	1.3182567	0.16	422.5566	0.613038	0.83998762	-0.31285899	0.066591236	0.40090597	0.41887648	0	1738.7993030544505
27.542287	1.4454398	0.16	445.94583	0.59234388	0.90716586	-0.3233554	0.068373767	0.44347574	0.46083963	0	1802.1856183304988
27.542287	1.5848932	0.16	469.20501	0.5727019	0.9764576	-0.33400639	0.070370985	0.48833177	0.50511988	0	1867.589978968379
27.542287	1.7378008	0.16	492.35804	0.55399661	1.0478794	-0.34484148	0.072565293	0.53546242	0.55170219	0	1935.0252988052537
27.542287	1.9054607	0.16	515.436	0.53613244	1.1214579	-0.35588826	0.074941389	0.58485874	0.60057485	0	2004.5143075054086
27.542287	2.0892961	0.16	538.4753	0.51902994	1.1972284	-0.36717247	0.07748618	0.63651513	0.6517299	0	2076.0882034490382
27.542287	2.2908677	0.16	561.51621	0.50262269	1.2752336	-0.37871818	0.080188639	0.69042975	0.70516356	0	2149.785448382649
27.542287	2.5118864	0.16	584.6017	0.48685479	1.3555229	-0.39054795	0.083039616	0.74660484	0.76087643	0	2225.65108131086
27.542287	2.7542287	0.16	607.77647	0.47167886	1.4381517	-0.4026831	0.086031651	0.80504695	0.81887368	0	2303.7360326888574
27.542287	3.0199517	0.16	631.08632	0.45705446	1.5231807	-0.41514383	0.089158782	0.86576708	0.87916511	0	2384.0964378632098
27.542287	3.3113112	0.16	654.57758	0.44294673	1.6106754	-0.42794948	0.092416373	0.92878073	0.9417652	0	2466.7931414323457
27.542287	3.6307805	0.16	678.29672	0.42932544	1.7007059	-0.44111866	0.095800952	0.99410796	1.0066931	0	2551.891484979959
27.542287	3.9810717	0.16	702.29005	0.41616409	1.7933465	-0.45466942	0.099310076	1.0617734	1.0739728	0	2639.46091095425
27.542287	4.3651583	0.16	726.60356	0.40343927	1.8886755	-0.46861938	0.1029422	1.1318061	1.1436325	0	2729.5747550615674
27.542287	4.7863009	0.16	751.28272	0.39113012	1.9867751	-0.48298587	0.10669656	1.2042398	1.2157054	0	2822.3101347212164
27.542287	5.2480746	0.16	776.37246	0.3792179	2.0877311	-0.49778604	0.11057311	1.2791125	1.2902289	0	2917.747657725023
27.542287	5.7543994	0.16	801.9171	0.36768562	2.191633	-0.51303692	0.11457242	1.3564667	1.367245	0	3015.971500860173
27.542287	6.3095734	0.16	827.96033	0.35651778	2.298574	-0.52875554	0.11869557	1.436349	1.4467999	0	3117.0693939741795
27.542287	6.9183097	0.16	854.54528	0.34570012	2.4086506	-0.54495903	0.12294419	1.5188104	1.5289442	0	3221.1322501619607
27.542287	7.5857758	0.16	881.71451	0.33521946	2.5219631	-0.5616646	0.1273203	1.6039062	1.6137328	0	3328.2546114956413
27.542287	8.3176377	0.16	909.51006	0.32506351	2.638615	-0.57888972	0.13182633	1.6916957	1.7012246	0	3438.5340882919563
27.542287	9.1201084	0.16	937.97356	0.31522078	2.7587138	-0.59665205	0.13646509	1.7822424	1.7914827	0	3552.072106254611
27.542287	10.	0.16	967.14626	0.30568044	2.8823703	-0.61496961	0.14123969	1.8756136	1.8845743	0	3668.9732367521037