3.3113112	1.e-12	0.53	9.4068884e6	1.1381717e7	-0.07943256	-0.00094584797	-0.00094584678	-10012.038	30100.561	0	864.4622659859285
3.3113112	1.0964782e-12	0.53	8.5791845e6	1.0380252e7	-0.079107959	-0.00094584804	-0.00094584673	-9131.0938	27452.039	0	864.7672498630022
3.3113112	1.2022644e-12	0.53	7.8243096e6	9.4669041e6	-0.078783359	-0.00094584794	-0.00094584651	-8327.6635	25036.557	0	865.0722328851657
3.3113112	1.3182567e-12	0.53	7.1358554e6	8.6339212e6	-0.078458759	-0.00094584804	-0.00094584647	-7594.9263	22833.612	0	865.3772158176944
3.3113112	1.4454398e-12	0.53	6.5079778e6	7.8742318e6	-0.078134159	-0.00094584797	-0.00094584625	-6926.6621	20824.502	0	865.6821988398577
3.3113112	1.5848932e-12	0.53	5.9353466e6	7.1813869e6	-0.077809559	-0.00094584806	-0.00094584617	-6317.1978	18992.172	0	865.9871817923054
3.3113112	1.7378008e-12	0.53	5.4131007e6	6.5495047e6	-0.077484959	-0.00094584792	-0.00094584585	-5761.3598	17321.067	0	866.2921648642657
3.3113112	1.9054607e-12	0.53	4.9368068e6	5.9732213e6	-0.077160359	-0.00094584801	-0.00094584575	-5254.4294	15797.001	0	866.5971478266727
3.3113112	2.0892961e-12	0.53	4.5024216e6	5.4476447e6	-0.076835759	-0.00094584794	-0.00094584545	-4792.1034	14407.037	0	866.9021308886736
3.3113112	2.2908677e-12	0.53	4.1062576e6	4.968313e6	-0.076511158	-0.00094584804	-0.00094584531	-4370.457	13139.374	0	867.2071148105647
3.3113112	2.5118864e-12	0.53	3.7449517e6	4.5311574e6	-0.076186558	-0.00094584796	-0.00094584497	-3985.9109	11983.252	0	867.5120978924842
3.3113112	2.7542287e-12	0.53	3.4154369e6	4.1324667e6	-0.075861958	-0.00094584795	-0.00094584467	-3635.2007	10928.856	0	867.8170809544852
3.3113112	3.0199517e-12	0.53	3.1149157e6	3.7688564e6	-0.075537358	-0.00094584804	-0.00094584445	-3315.3492	9967.2357	0	868.1220639766484
3.3113112	3.3113112e-12	0.53	2.8408372e6	3.4372399e6	-0.075212758	-0.00094584797	-0.00094584403	-3023.641	9090.2275	0	868.4270470984056
3.3113112	3.6307805e-12	0.53	2.5908746e6	3.1348021e6	-0.074888158	-0.00094584802	-0.0009458437	-2757.6001	8290.3864	0	868.7320301753457
3.3113112	3.9810717e-12	0.53	2.362906e6	2.8589755e6	-0.074563558	-0.00094584794	-0.00094584321	-2514.9678	7560.9227	0	869.0370133319607
3.3113112	4.3651583e-12	0.53	2.1549962e6	2.6074186e6	-0.074238958	-0.00094584804	-0.00094584285	-2293.6844	6895.6438	0	869.3419964238399
3.3113112	4.7863009e-12	0.53	1.9653802e6	2.377996e6	-0.073914358	-0.0009458479	-0.0009458422	-2091.8716	6288.9023	0	869.6469796601301
3.3113112	5.2480746e-12	0.53	1.7924483e6	2.1687601e6	-0.073589757	-0.00094584799	-0.00094584175	-1907.8161	5735.5475	0	869.9519637363917
3.3113112	5.7543994e-12	0.53	1.6347326e6	1.9779347e6	-0.073265157	-0.00094584792	-0.00094584107	-1739.9555	5230.8819	0	870.2569469876212
3.3113112	6.3095734e-12	0.53	1.4908941e6	1.8038998e6	-0.072940557	-0.00094584802	-0.00094584051	-1586.8648	4770.6214	0	870.5619301790941
3.3113112	6.9183097e-12	0.53	1.3597119e6	1.6451781e6	-0.072615957	-0.00094584795	-0.00094583972	-1447.2443	4350.8588	0	870.8669134851002
3.3113112	7.5857758e-12	0.53	1.2400723e6	1.5004222e6	-0.072291357	-0.00094584804	-0.00094583901	-1319.9089	3968.0308	0	871.1718967512686
3.3113112	8.3176377e-12	0.53	1.1309597e6	1.3684032e6	-0.071966757	-0.00094584797	-0.00094583807	-1203.7776	3618.8875	0	871.4768801319701
3.3113112	9.1201084e-12	0.53	1.0314478e6	1.2480005e6	-0.071642157	-0.00094584802	-0.00094583716	-1097.8646	3300.465	0	871.7818634977325
3.3113112	1.e-11	0.53	940691.83	1.1381919e6	-0.071317556	-0.00094584798	-0.00094583608	-1001.2708	3010.0603	0	872.086847887715
3.3113112	1.0964782e-11	0.53	857921.44	1.0380453e6	-0.070992956	-0.00094584794	-0.00094583489	-913.17609	2745.208	0	872.3918313929088
3.3113112	1.2022644e-11	0.53	782433.94	946710.42	-0.070668356	-0.00094584804	-0.00094583373	-832.83277	2503.6599	0	872.6968148831636
3.3113112	1.3182567e-11	0.53	713588.52	863412.06	-0.070343756	-0.00094584797	-0.00094583228	-759.55876	2283.3653	0	873.0017985178296
3.3113112	1.4454398e-11	0.53	650800.76	787443.03	-0.070019156	-0.00094584802	-0.00094583081	-692.73204	2082.4543	0	873.306782162455
3.3113112	1.5848932e-11	0.53	593537.64	718158.45	-0.069694556	-0.00094584795	-0.00094582908	-631.78532	1899.2213	0	873.6117659365525
3.3113112	1.7378008e-11	0.53	541313.05	654970.15	-0.069369956	-0.000945848	-0.00094582731	-576.20122	1732.1108	0	873.9167497305687
3.3113112	1.9054607e-11	0.53	493683.66	597341.74	-0.069045356	-0.00094584792	-0.00094582524	-525.50789	1579.7043	0	874.221733673976
3.3113112	2.0892961e-11	0.53	450245.14	544783.98	-0.068720755	-0.00094584802	-0.00094582315	-479.275	1440.7078	0	874.5267185669078
3.3113112	2.2908677e-11	0.53	410628.74	496850.74	-0.068396155	-0.00094584794	-0.00094582068	-437.11007	1313.9416	0	874.8317027095027
3.3113112	2.5118864e-11	0.53	374498.15	453135.09	-0.068071555	-0.00094584799	-0.0009458181	-398.65517	1198.3293	0	875.1366869068744
3.3113112	2.7542287e-11	0.53	341546.67	413265.94	-0.067746955	-0.00094584792	-0.00094581514	-363.58386	1092.8898	0	875.4416712934744
3.3113112	3.0199517e-11	0.53	311494.55	376904.83	-0.067422355	-0.00094584801	-0.00094581207	-331.59841	996.7277	0	875.7466557348514
3.3113112	3.3113112e-11	0.53	284086.7	343743.09	-0.067097755	-0.00094584795	-0.00094580854	-302.4273	909.02687	0	876.051640405294
3.3113112	3.6307805e-11	0.53	259090.44	313499.22	-0.066773155	-0.00094584804	-0.00094580483	-275.82291	829.04276	0	876.3566251653715
3.3113112	3.9810717e-11	0.53	236293.58	285916.48	-0.066448555	-0.0009458479	-0.00094580052	-251.55939	756.09639	0	876.6616102242306
3.3113112	4.3651583e-11	0.53	215502.6	260760.71	-0.066123955	-0.00094584799	-0.00094579604	-229.43077	689.5685	0	876.9665953677445
3.3113112	4.7863009e-11	0.53	196541.	237818.37	-0.065799354	-0.00094584792	-0.00094579096	-209.2492	628.89435	0	877.2715817496055
3.3113112	5.2480746e-11	0.53	179247.81	216894.7	-0.065474754	-0.00094584802	-0.00094578556	-190.84335	573.55887	0	877.5765673512517
3.3113112	5.7543994e-11	0.53	163476.24	197812.07	-0.065150154	-0.00094584794	-0.00094577946	-174.057	523.09231	0	877.8815533014765
3.3113112	6.3095734e-11	0.53	149092.39	180408.5	-0.064825554	-0.00094584799	-0.0009457729	-158.74763	477.06626	0	878.1865394807672
3.3113112	6.9183097e-11	0.53	135974.17	164536.25	-0.064500954	-0.00094584792	-0.00094576558	-144.78529	435.09	0	878.4915260385151
3.3113112	7.5857758e-11	0.53	124010.21	150060.58	-0.064176354	-0.00094584797	-0.00094575769	-132.05146	396.8072	0	878.7965128801054
3.3113112	8.3176377e-11	0.53	113098.95	136858.6	-0.063851754	-0.0009458479	-0.0009457489	-120.43804	361.89287	0	879.1015001698686
3.3113112	9.1201084e-11	0.53	103147.76	124818.24	-0.063527154	-0.00094584795	-0.0009457394	-109.84645	330.05062	0	879.4064878131901
3.3113112	1.e-10	0.53	94072.162	113837.3	-0.063202554	-0.00094584787	-0.00094572886	-100.18677	301.01015	0	879.7114759744002
3.3113112	1.0964782e-10	0.53	85795.123	103822.55	-0.062877954	-0.00094584797	-0.00094571747	-91.37701	274.52492	0	880.0164645588842
3.3113112	1.2022644e-10	0.53	78246.374	94688.984	-0.062553354	-0.00094584789	-0.00094570481	-83.342386	250.37011	0	880.3214537757898
3.3113112	1.3182567e-10	0.53	71361.832	86359.064	-0.062228753	-0.00094584786	-0.00094569097	-76.014693	228.34065	0	880.6264445198649
3.3113112	1.4454398e-10	0.53	65083.056	78762.079	-0.061904153	-0.0009458479	-0.00094567588	-69.331729	208.24956	0	880.9314349468367
3.3113112	1.5848932e-10	0.53	59356.744	71833.538	-0.061579553	-0.00094584783	-0.00094565921	-63.236765	189.92626	0	881.2364261606006
3.3113112	1.7378008e-10	0.53	54134.285	65514.625	-0.061254953	-0.00094584793	-0.00094564111	-57.678063	173.21521	0	881.5414180864609
3.3113112	1.9054607e-10	0.53	49371.346	59751.701	-0.060930353	-0.00094584786	-0.00094562108	-52.608438	157.97455	0	881.8464109734027
3.3113112	2.0892961e-10	0.53	45027.494	54495.843	-0.060605753	-0.00094584778	-0.00094559913	-47.984857	144.0749	0	882.1514048164461
3.3113112	2.2908677e-10	0.53	41065.854	49702.435	-0.060281153	-0.00094584788	-0.00094557523	-43.768071	131.39828	0	882.4563996305305
3.3113112	2.5118864e-10	0.53	37452.796	45330.788	-0.059956553	-0.0009458478	-0.00094554885	-39.922289	119.83706	0	882.7613956795794
3.3113112	2.7542287e-10	0.53	34157.647	41343.789	-0.059631953	-0.00094584785	-0.00094552006	-36.414866	109.2931	0	883.0663929287352
3.3113112	3.0199517e-10	0.53	31152.436	37707.595	-0.059307353	-0.00094584778	-0.00094548836	-33.216029	99.676892	0	883.3713916269827
3.3113112	3.3113112e-10	0.53	28411.65	34391.339	-0.058982753	-0.00094584783	-0.00094545373	-30.298626	90.906809	0	883.6763917842811
3.3113112	3.6307805e-10	0.53	25912.024	31366.869	-0.058658153	-0.00094584768	-0.00094541557	-27.637895	82.908398	0	883.9813936994126
3.3113112	3.9810717e-10	0.53	23632.339	28608.512	-0.058333553	-0.00094584778	-0.00094537397	-25.211251	75.613761	0	884.2863973275594
3.3113112	4.3651583e-10	0.53	21553.24	26092.852	-0.058008953	-0.0009458477	-0.00094532819	-22.998096	68.960973	0	884.5914030372193
3.3113112	4.7863009e-10	0.53	19657.08	23798.535	-0.057684354	-0.00094584763	-0.00094527799	-20.979647	62.893558	0	884.8964100083396
3.3113112	5.2480746e-10	0.53	17927.762	21706.085	-0.057359754	-0.00094584772	-0.00094522313	-19.13877	57.360009	0	885.2014202395637
3.3113112	5.7543994e-10	0.53	16350.604	19797.74	-0.057035154	-0.00094584758	-0.00094516272	-17.459843	52.313354	0	885.5064332345195
3.3113112	6.3095734e-10	0.53	14912.22	18057.3	-0.056710554	-0.00094584754	-0.00094509661	-15.928614	47.710749	0	885.811449067902
3.3113112	6.9183097e-10	0.53	13600.397	16469.992	-0.056385954	-0.0009458475	-0.00094502412	-14.532088	43.513123	0	886.116468078331
3.3113112	7.5857758e-10	0.53	12404.001	15022.342	-0.056061354	-0.00094584743	-0.00094494461	-13.258413	39.684843	0	886.4214905845067
3.3113112	8.3176377e-10	0.53	11312.875	13702.061	-0.055736755	-0.00094584747	-0.00094485755	-12.096778	36.19341	0	886.7265159107878
3.3113112	9.1201084e-10	0.53	10317.756	12497.942	-0.055412155	-0.0009458474	-0.00094476197	-11.037327	33.009185	0	887.0315464193357
3.3113112	1.e-9	0.53	9410.1967	11399.765	-0.055087555	-0.00094584732	-0.00094465718	-10.071067	30.105138	0	887.3365815141838
3.3113112	1.0964782e-9	0.53	8582.4928	10398.207	-0.054762956	-0.00094584725	-0.00094454228	-9.1897988	27.456615	0	887.6416207039395
3.3113112	1.2022644e-9	0.53	7827.6179	9484.7679	-0.054438356	-0.00094584717	-0.0009444163	-8.3860443	25.041134	0	887.9466663507641
3.3113112	1.3182567e-9	0.53	7139.1638	8651.6931	-0.054113757	-0.0009458471	-0.00094427818	-7.6529828	22.838189	0	888.2517171033749
3.3113112	1.4454398e-9	0.53	6511.2862	7891.9117	-0.053789157	-0.00094584702	-0.00094412674	-6.9843942	20.829079	0	888.5567754285064
3.3113112	1.5848932e-9	0.53	5938.6551	7198.9747	-0.053464558	-0.00094584687	-0.00094396062	-6.3746057	18.996749	0	888.8618401242668
3.3113112	1.7378008e-9	0.53	5416.4092	6567.0006	-0.053139958	-0.00094584689	-0.00094377865	-5.8184433	17.325644	0	889.1669136524115
3.3113112	1.9054607e-9	0.53	4940.1154	5990.6252	-0.052815359	-0.00094584674	-0.00094357897	-5.3111885	15.801579	0	889.4719950600329
3.3113112	2.0892961e-9	0.53	4505.7302	5464.9566	-0.05249076	-0.00094584659	-0.00094336002	-4.8485382	14.411614	0	889.7770860635294
3.3113112	2.2908677e-9	0.53	4109.5663	4985.533	-0.052166161	-0.00094584644	-0.00094311997	-4.4265675	13.143952	0	890.0821875741849
3.3113112	2.5118864e-9	0.53	3748.2605	4548.2853	-0.051841562	-0.00094584629	-0.00094285678	-4.0416971	11.98783	0	890.3873006078579
3.3113112	2.7542287e-9	0.53	3418.7457	4149.5026	-0.051516963	-0.00094584614	-0.0009425682	-3.6906625	10.933434	0	890.6924262849801
3.3113112	3.0199517e-9	0.53	3118.2246	3785.8004	-0.051192365	-0.00094584598	-0.0009422518	-3.3704866	9.9718142	0	890.9975648760519
3.3113112	3.3113112e-9	0.53	2844.1462	3454.0919	-0.050867766	-0.00094584583	-0.00094190489	-3.0784541	9.0948061	0	891.3027195997429
3.3113112	3.6307805e-9	0.53	2594.1837	3151.5622	-0.050543168	-0.00094584553	-0.00094152437	-2.8120888	8.2949654	0	891.6078901206279
3.3113112	3.9810717e-9	0.53	2366.2152	2875.6436	-0.050218569	-0.00094584538	-0.00094110732	-2.5691321	7.5655019	0	891.913079771909
3.3113112	4.3651583e-9	0.53	2158.3055	2623.9948	-0.049893971	-0.00094584507	-0.0009406499	-2.3475244	6.9002235	0	892.218288586659
3.3113112	4.7863009e-9	0.53	1968.6896	2394.4803	-0.049569374	-0.00094584484	-0.00094014845	-2.1453872	6.2934824	0	892.5235183874465
3.3113112	5.2480746e-9	0.53	1795.7579	2185.1524	-0.049244776	-0.00094584454	-0.00093959857	-1.9610072	5.740128	0	892.8287732444692
3.3113112	5.7543994e-9	0.53	1638.0423	1994.2351	-0.048920178	-0.00094584423	-0.00093899566	-1.7928222	5.2354628	0	893.1340545088214
3.3113112	6.3095734e-9	0.53	1494.204	1820.1083	-0.048595581	-0.00094584378	-0.00093833448	-1.639407	4.7752028	0	893.4393638502988
3.3113112	6.9183097e-9	0.53	1363.0219	1661.2947	-0.048270985	-0.00094584347	-0.00093760968	-1.499462	4.3554409	0	893.7447039330393
3.3113112	7.5857758e-9	0.53	1243.3825	1516.4469	-0.047946388	-0.00094584302	-0.00093681485	-1.3718022	3.9726135	0	894.0500798281587
3.3113112	8.3176377e-9	0.53	1134.2701	1384.3361	-0.047621792	-0.00094584242	-0.00093594323	-1.2553464	3.6234709	0	894.355493022801
3.3113112	9.1201084e-9	0.53	1034.7584	1263.8415	-0.047297196	-0.00094584196	-0.00093498771	-1.1491088	3.3050492	0	894.6609479970957
3.3113112	1.e-8	0.53	944.00276	1153.941	-0.046972601	-0.00094584136	-0.00093393991	-1.0521904	3.0146452	0	894.966447984463
3.3113112	1.0964782e-8	0.53	861.23265	1053.7025	-0.046648006	-0.00094584075	-0.00093279108	-0.96377118	2.7497939	0	895.2719982817027
3.3113112	1.2022644e-8	0.53	785.74547	962.27588	-0.046323411	-0.00094583999	-0.00093153132	-0.88310326	2.5082467	0	895.5776038187139
3.3113112	1.3182567e-8	0.53	716.9004	878.88571	-0.045998818	-0.0009458393	-0.00093015016	-0.80950461	2.2879533	0	895.8832679301082
3.3113112	1.4454398e-8	0.53	654.11301	802.82491	-0.045674224	-0.0009458384	-0.0009286356	-0.74235322	2.0870435	0	896.1889994102173
3.3113112	1.5848932e-8	0.53	596.8503	733.44856	-0.045349632	-0.00094583749	-0.000926975	-0.68108179	1.9038118	0	896.4948017346812
3.3113112	1.7378008e-8	0.53	544.62616	670.16852	-0.04502504	-0.00094583657	-0.00092515428	-0.62517293	1.7367028	0	896.8006837940432
3.3113112	1.9054607e-8	0.53	496.99726	612.4484	-0.044700449	-0.00094583537	-0.0009231577	-0.57415481	1.5842978	0	897.1066524867799
3.3113112	2.0892961e-8	0.53	453.55928	559.79896	-0.044375859	-0.00094583416	-0.00092096861	-0.52759706	1.4453031	0	897.4127161040858
3.3113112	2.2908677e-8	0.53	413.94348	511.77407	-0.04405127	-0.00094583279	-0.00091856829	-0.48510723	1.3185387	0	897.7188839679523
3.3113112	2.5118864e-8	0.53	377.81354	467.9668	-0.043726681	-0.00094583142	-0.00091593653	-0.44632736	1.2029286	0	898.0251670819114
3.3113112	2.7542287e-8	0.53	344.86276	428.00607	-0.043402094	-0.00094582976	-0.00091305071	-0.41093101	1.0974913	0	898.3315748309053
3.3113112	3.0199517e-8	0.53	314.81143	391.55342	-0.043077509	-0.00094582809	-0.00090988664	-0.37862046	1.0013317	0	898.6381192608198
3.3113112	3.3113112e-8	0.53	287.40443	358.3002	-0.042752924	-0.00094582613	-0.0009064172	-0.34912417	0.91363363	0	898.9448157557217
3.3113112	3.6307805e-8	0.53	262.40911	327.96489	-0.042428341	-0.00094582401	-0.00090261309	-0.3221945	0.83365253	0	899.2516770269908
3.3113112	3.9810717e-8	0.53	239.61328	300.29076	-0.04210376	-0.00094582173	-0.00089844205	-0.29760561	0.76070946	0	899.5587191391276
3.3113112	4.3651583e-8	0.53	218.82343	275.04367	-0.041779181	-0.00094581916	-0.00089386856	-0.27515151	0.6941852	0	899.8659597800134
3.3113112	4.7863009e-8	0.53	199.86307	252.01006	-0.041454604	-0.00094581644	-0.00088885399	-0.25464434	0.63351502	0	900.1734181862155
3.3113112	5.2480746e-8	0.53	182.57124	230.99521	-0.041130029	-0.00094581341	-0.00088335567	-0.23591278	0.57818389	0	900.481115606098
3.3113112	5.7543994e-8	0.53	166.80115	211.82147	-0.040805456	-0.00094581008	-0.00087732697	-0.21880056	0.5277221	0	900.7890752599851
3.3113112	6.3095734e-8	0.53	152.41894	194.32689	-0.040480886	-0.00094580645	-0.0008707168	-0.20316518	0.48170128	0	901.0973216495802
3.3113112	6.9183097e-8	0.53	139.3025	178.36371	-0.040156319	-0.00094580237	-0.00086346897	-0.18887667	0.43973076	0	901.4058827557968
3.3113112	7.5857758e-8	0.53	127.3405	163.79722	-0.039831755	-0.00094579799	-0.00085552222	-0.17581647	0.40145426	0	901.7147890842551
3.3113112	8.3176377e-8	0.53	116.43139	150.50454	-0.039507194	-0.00094579315	-0.00084680908	-0.16387649	0.36654682	0	902.0240742329663
3.3113112	9.1201084e-8	0.53	106.48256	138.3736	-0.039182638	-0.00094578786	-0.00083725574	-0.15295811	0.33471214	0	902.3337730779386
3.3113112	1.e-7	0.53	97.409552	127.30222	-0.038858085	-0.00094578212	-0.00082678134	-0.1429714	0.30567996	0	902.643927764127
3.3113112	1.0964782e-7	0.53	89.135347	117.19718	-0.038533538	-0.00094577578	-0.00081529707	-0.13383435	0.27920382	0	902.9545796975195
3.3113112	1.2022644e-7	0.53	81.589705	107.9735	-0.038208995	-0.00094576883	-0.00080270581	-0.12547214	0.25505897	0	903.2657791200572
3.3113112	1.3182567e-7	0.53	74.70857	99.553636	-0.037884458	-0.00094576113	-0.00078890097	-0.11781654	0.23304045	0	903.5775772311932
3.3113112	1.4454398e-7	0.53	68.433528	91.86691	-0.037559926	-0.00094575283	-0.00077376608	-0.11080533	0.21296133	0	903.8900329690159
3.3113112	1.5848932e-7	0.53	62.71131	84.848847	-0.037235402	-0.00094574363	-0.00075717313	-0.10438173	0.19465116	0	904.2032072599229
3.3113112	1.7378008e-7	0.53	57.49334	78.440651	-0.036910885	-0.00094573353	-0.00073898225	-0.098493968	0.17795451	0	904.5171706944918
3.3113112	1.9054607e-7	0.53	52.73532	72.588706	-0.036586376	-0.00094572252	-0.00071904028	-0.093094825	0.16272963	0	904.831998602187
3.3113112	2.0892961e-7	0.53	48.396861	67.244113	-0.036261876	-0.00094571046	-0.00069717944	-0.088141221	0.14884728	0	905.1477735927886
3.3113112	2.2908677e-7	0.53	44.44113	62.362285	-0.035937385	-0.0009456972	-0.00067321618	-0.083593859	0.13618961	0	905.4645870686229
3.3113112	2.5118864e-7	0.53	40.834549	57.902561	-0.035612905	-0.00094568259	-0.00064694974	-0.079416894	0.12464917	0	905.7825371229435
3.3113112	2.7542287e-7	0.53	37.546498	53.827863	-0.035288437	-0.00094566662	-0.00061816085	-0.075577623	0.11412798	0	906.1017320059872
3.3113112	3.0199517e-7	0.53	34.549063	50.10438	-0.034963981	-0.00094564916	-0.0005866098	-0.072046209	0.10453672	0	906.4222910860549
3.3113112	3.3113112e-7	0.53	31.816796	46.701285	-0.034639539	-0.00094563005	-0.00055203494	-0.068795432	0.095793959	0	906.7443427777713
3.3113112	3.6307805e-7	0.53	29.326502	43.590467	-0.034315113	-0.00094560899	-0.00051415074	-0.065800452	0.087825479	0	907.0680273872756
3.3113112	3.9810717e-7	0.53	27.057034	40.746297	-0.033990703	-0.00094558599	-0.00047264646	-0.063038601	0.08056362	0	907.3934996536525
3.3113112	4.3651583e-7	0.53	24.989123	38.145409	-0.033666312	-0.00094556073	-0.00042718366	-0.060489191	0.073946716	0	907.720925291049
3.3113112	4.7863009e-7	0.53	23.105207	35.7665	-0.033341942	-0.00094553293	-0.00037739469	-0.058133339	0.067918576	0	908.0504854988714
3.3113112	5.2480746e-7	0.53	21.389284	33.59015	-0.033017593	-0.0009455026	-0.00032288124	-0.055953804	0.062427999	0	908.3823786234049
3.3113112	5.7543994e-7	0.53	19.826777	31.598656	-0.032693269	-0.00094546927	-0.0002632118	-0.053934844	0.057428335	0	908.7168157852655
3.3113112	6.3095734e-7	0.53	18.404405	29.775882	-0.032368971	-0.00094543281	-0.00019792117	-0.052062081	0.052877094	0	909.0540277003624
3.3113112	6.9183097e-7	0.53	17.110074	28.10712	-0.032044703	-0.00094539268	-0.00012650855	-0.05032238	0.048735577	0	909.3942599936279
3.3113112	7.5857758e-7	0.53	15.932771	26.578966	-0.031720467	-0.00094534875	-0.000048437844	-0.048703737	0.044968543	0	909.7377777454606
3.3113112	8.3176377e-7	0.53	14.862467	25.179201	-0.031396267	-0.00094530049	0.000036863079	-0.047195179	0.041543906	0	910.0848621014645
3.3113112	9.1201084e-7	0.53	13.890035	23.896689	-0.031072105	-0.00094524761	0.00013000066	-0.045786673	0.038432455	0	910.4358131717131
3.3113112	1.e-6	0.53	13.007162	22.721281	-0.030747986	-0.00094518968	0.00023161382	-0.044469038	0.035607598	0	910.790944421637
3.3113112	1.0964782e-6	0.53	12.206282	21.643723	-0.030423914	-0.0009451261	0.00034237025	-0.043233871	0.033045126	0	911.1505845828186
3.3113112	1.2022644e-6	0.53	11.480506	20.655576	-0.030099893	-0.00094505644	0.00046296058	-0.042073478	0.030722992	0	911.5150738097659
3.3113112	1.3182567e-6	0.53	10.823556	19.749142	-0.029775928	-0.00094497983	0.00059409132	-0.040980808	0.028621115	0	911.8847592251793
3.3113112	1.4454398e-6	0.53	10.229711	18.917391	-0.029452026	-0.00094489589	0.00073647399	-0.0399494	0.026721184	0	912.2599885674565
3.3113112	1.5848932e-6	0.53	9.6937476	18.153902	-0.029128191	-0.00094480361	0.00089081375	-0.038973328	0.02500649	0	912.6411092266042
3.3113112	1.7378008e-6	0.53	9.2108913	17.452797	-0.028804431	-0.00094470264	0.0010577932	-0.038047155	0.023461758	0	913.0284536001725
3.3113112	1.9054607e-6	0.53	8.7767693	16.808691	-0.028480754	-0.00094459155	0.0012380571	-0.037165892	0.022072996	0	913.4223352425412
3.3113112	2.0892961e-6	0.53	8.3873648	16.216638	-0.028157167	-0.00094446962	0.0014321917	-0.036324961	0.020827355	0	913.8230395114517
3.3113112	2.2908677e-6	0.53	8.0389775	15.672088	-0.027833679	-0.00094433594	0.0016407071	-0.035520164	0.019712994	0	914.2308119651266
3.3113112	2.5118864e-6	0.53	7.7281865	15.170843	-0.0275103	-0.00094418906	0.0018640186	-0.034747649	0.01871897	0	914.6458500147022
3.3113112	2.7542287e-6	0.53	7.4518185	14.709021	-0.027187042	-0.00094402785	0.0021024308	-0.034003887	0.017835132	0	915.0682940669452
3.3113112	3.0199517e-6	0.53	7.20692	14.283025	-0.026863916	-0.00094385055	0.0023561265	-0.033285652	0.017052029	0	915.4982248154863
3.3113112	3.3113112e-6	0.53	6.9907356	13.889518	-0.026540936	-0.00094365595	0.0026251603	-0.032589994	0.01636085	0	915.9356562955525
3.3113112	3.6307805e-6	0.53	6.800691	13.5254	-0.026218116	-0.00094344197	0.0029094608	-0.031914227	0.015753357	0	916.3805397981969
3.3113112	3.9810717e-6	0.53	6.6343808	13.187796	-0.025895474	-0.00094320677	0.0032088388	-0.031255907	0.015221857	0	916.8327641953883
3.3113112	4.3651583e-6	0.53	6.4895612	12.87404	-0.025573028	-0.00094294781	0.0035230032	-0.030612819	0.014759174	0	917.2921676159895
3.3113112	4.7863009e-6	0.53	6.3641453	12.58167	-0.025250798	-0.00094266294	0.0038515812	-0.02998296	0.014358633	0	917.7585456256134
3.3113112	5.2480746e-6	0.53	6.256201	12.30842	-0.024928808	-0.00094234947	0.0041941442	-0.029364523	0.014014055	0	918.2316622449057
3.3113112	5.7543994e-6	0.53	6.1639498	12.052216	-0.024607082	-0.00094200419	0.0045502334	-0.028755885	0.013719754	0	918.7112664558292
3.3113112	6.3095734e-6	0.53	6.0857645	11.811169	-0.024285651	-0.00094162329	0.0049193862	-0.028155588	0.013470526	0	919.1970987711048
3.3113112	6.9183097e-6	0.53	6.0201669	11.583566	-0.023964545	-0.00094120324	0.0053011573	-0.027562328	0.013261647	0	919.6889092578933
3.3113112	7.5857758e-6	0.53	5.9658227	11.367867	-0.023643803	-0.0009407397	0.0056951397	-0.026974935	0.01308885	0	920.1864585995044
3.3113112	8.3176377e-6	0.53	5.9215359	11.16269	-0.023323466	-0.0009402272	0.0061009789	-0.026392368	0.012948314	0	920.689531743523
3.3113112	9.1201084e-6	0.53	5.8862401	10.966804	-0.023003581	-0.00093966036	0.0065183827	-0.025813693	0.012836628	0	921.1979390236501
3.3113112	0.00001	0.53	5.8589896	10.779114	-0.022684203	-0.00093903274	0.0069471281	-0.025238076	0.012750768	0	921.7115177165628
3.3113112	0.000010964782	0.53	5.8389488	10.598649	-0.022365394	-0.00093833672	0.0073870638	-0.024664771	0.01268806	0	922.2301342264033
3.3113112	0.000012022644	0.53	5.8198505	10.424656	-0.022059711	-0.00093668537	0.0078389887	-0.024099241	0.012640388	0	922.7423882590138
3.3113112	0.000013182567	0.53	5.8116255	10.256192	-0.021743386	-0.00093574736	0.0083012144	-0.023529183	0.012616728	0	923.2697706317001
3.3113112	0.000014454398	0.53	5.8086178	10.092663	-0.021427971	-0.0009347046	0.0087746042	-0.02295967	0.012609913	0	923.8018573827259
3.3113112	0.000015848932	0.53	5.8103198	9.9334653	-0.021113585	-0.0009335438	0.0092592773	-0.022390218	0.012618305	0	924.3385960617945
3.3113112	0.000017378008	0.53	5.8162794	9.7780574	-0.020800362	-0.00093224874	0.0097554115	-0.021820387	0.012640432	0	924.8799493061507
3.3113112	0.000019054607	0.53	5.8260899	9.6259466	-0.020488461	-0.0009308008	0.010263239	-0.02124978	0.012674955	0	925.425883353453
3.3113112	0.000020892961	0.53	5.8393804	9.4766784	-0.020178067	-0.00092917936	0.010783038	-0.020678037	0.012720631	0	925.9763629192641
3.3113112	0.000022908677	0.53	5.8558068	9.3298265	-0.019869396	-0.00092735815	0.01131514	-0.020104836	0.012776282	0	926.5313501344028
3.3113112	0.000025118864	0.53	5.8750432	9.1849826	-0.019562699	-0.00092530846	0.011859911	-0.019529883	0.012840761	0	927.0907914248528
3.3113112	0.000027542287	0.53	5.8967744	9.0417472	-0.019258269	-0.00092299597	0.012417764	-0.01895292	0.012912919	0	927.6546171594259
3.3113112	0.000030199517	0.53	5.9206884	8.8997209	-0.018956446	-0.00092038081	0.012989145	-0.018373718	0.012991579	0	928.2227299803604
3.3113112	0.000033113112	0.53	5.9464711	8.7584972	-0.018657623	-0.00091741649	0.013574539	-0.017792077	0.013075505	0	928.7950021537474
3.3113112	0.000036307805	0.53	5.9738015	8.6176563	-0.018362248	-0.00091405011	0.014174465	-0.01720783	0.013163386	0	929.3712712005507
3.3113112	0.000039810717	0.53	6.0023497	8.4767626	-0.01807083	-0.00091022144	0.014789474	-0.016620841	0.013253823	0	929.9513332632762
3.3113112	0.000043651583	0.53	6.0317783	8.3353641	-0.017783935	-0.00090586109	0.015420152	-0.016031008	0.013345325	0	930.5349483581423
3.3113112	0.000047863009	0.53	6.0617465	8.1929979	-0.017502182	-0.00090089429	0.016067113	-0.015438261	0.01343633	0	931.1218406475535
3.3113112	0.000052480746	0.53	6.0919202	8.0492007	-0.017226232	-0.00089523632	0.016731004	-0.014842564	0.013525243	0	931.7117112651679
3.3113112	0.000057543994	0.53	6.121985	7.9035252	-0.016956772	-0.00088879892	0.017412496	-0.014243911	0.013610491	0	932.304248867215
3.3113112	0.000063095734	0.53	6.1516653	7.7555627	-0.01669449	-0.0008814866	0.018112291	-0.013642329	0.01369061	0	932.8991566074184
3.3113112	0.000069183097	0.53	6.1807449	7.60497	-0.01644005	-0.00087320402	0.01883111	-0.013037864	0.01376434	0	933.4961696504929
3.3113112	0.000075857758	0.53	6.2090888	7.4514972	-0.016194055	-0.00086385357	0.019569698	-0.012430585	0.013830735	0	934.0950924259108
3.3113112	0.000083176377	0.53	6.2366621	7.2950134	-0.015957022	-0.00085334016	0.020328818	-0.011820565	0.01388926	0	934.6958191292181
3.3113112	0.000091201084	0.53	6.2635429	7.1355252	-0.015729355	-0.00084157185	0.021109253	-0.011207876	0.013939863	0	935.2983600862381
3.3113112	0.0001	0.53	6.2899274	6.9731853	-0.015511325	-0.00082846396	0.021911797	-0.01059258	0.013983025	0	935.9028560626514
3.3113112	0.00010964782	0.53	6.3161255	6.808289	-0.015303069	-0.00081393553	0.022737265	-0.0099747089	0.014019752	0	936.5095841832576
3.3113112	0.00012022644	0.53	6.3425475	6.6412594	-0.015104587	-0.00079791235	0.023586484	-0.0093542626	0.014051536	0	937.1189562689461
3.3113112	0.00013182567	0.53	6.3696847	6.4726228	-0.01491576	-0.00078032471	0.024460302	-0.0087311951	0.014080277	0	937.7315064062439
3.3113112	0.00014454398	0.53	6.3980852	6.3029789	-0.014736366	-0.0007611089	0.025359582	-0.0081054105	0.014108185	0	938.3478729264543
3.3113112	0.00015848932	0.53	6.4283297	6.1329683	-0.014566106	-0.00074020118	0.026285211	-0.0074767562	0.014137671	0	938.9687784586836
3.3113112	0.00017378008	0.53	6.4610085	5.963243	-0.014404622	-0.00071753905	0.0272381	-0.0068450225	0.014171242	0	939.5950130176648
3.3113112	0.00019054607	0.53	6.4967019	5.7944391	-0.014251527	-0.00069305987	0.028219183	-0.0062099423	0.014211406	0	940.2274053188282
3.3113112	0.00020892961	0.53	6.5359647	5.6271561	-0.014106417	-0.00066669975	0.029229423	-0.0055711928	0.0142606	0	940.8668144913344
3.3113112	0.00022908677	0.53	6.5793155	5.4619413	-0.01396889	-0.00063838881	0.030269814	-0.0049283981	0.014321128	0	941.5141132222714
3.3113112	0.00025118864	0.53	6.627229	5.29928	-0.013838559	-0.00060805452	0.031341379	-0.0042811338	0.014395125	0	942.1701745463668
3.3113112	0.00027542287	0.53	6.6801331	5.1395894	-0.013715062	-0.00057561797	0.032445176	-0.0036289312	0.01448453	0	942.8358654381516
3.3113112	0.00030199517	0.53	6.738407	4.9832173	-0.013598066	-0.00054099488	0.033582298	-0.0029712824	0.014591076	0	943.5120430536992
3.3113112	0.00033113112	0.53	6.8023827	4.8304423	-0.013487274	-0.00050409085	0.034753877	-0.002307644	0.014716289	0	944.1995501455458
3.3113112	0.00036307805	0.53	6.8723465	4.6814771	-0.013382427	-0.00046480472	0.035961082	-0.0016374432	0.014861492	0	944.8992121876211
3.3113112	0.00039810717	0.53	6.9485419	4.5364716	-0.013283312	-0.00042302087	0.037205128	-0.00096008018	0.015027812	0	945.6118343404517
3.3113112	0.00043651583	0.53	7.0311726	4.3955175	-0.013189759	-0.00037861146	0.038487275	-0.00027493401	0.015216193	0	946.3382037718876
3.3113112	0.00047863009	0.53	7.1204049	4.2586522	-0.013101645	-0.00033143189	0.039808834	0.00041863453	0.015427407	0	947.0790888866593
3.3113112	0.00052480746	0.53	7.2163705	4.1258627	-0.013018901	-0.00028131424	0.041171173	0.0011212793	0.015662062	0	947.835235737237
3.3113112	0.00057543994	0.53	7.3191684	3.9970886	-0.012941517	-0.00022806272	0.042575725	0.0018336659	0.01592061	0	948.6073673097624
3.3113112	0.00063095734	0.53	7.4288651	3.872224	-0.012869543	-0.00017144928	0.04402399	0.0025564669	0.01620335	0	949.3961835804205
3.3113112	0.00069183097	0.53	7.545495	3.7511172	-0.012803109	-0.00011119411	0.04551756	0.0032903613	0.016510428	0	950.2023551733762
3.3113112	0.00075857758	0.53	7.6690561	3.633568	-0.012742433	-0.000046957866	0.047058124	0.0040360282	0.016841816	0	951.0265183340972
3.3113112	0.00083176377	0.53	7.7995038	3.5193191	-0.01268785	0.000021692493	0.048647507	0.0047941454	0.017197286	0	951.8692671027761
3.3113112	0.00091201084	0.53	7.9367342	3.4080368	-0.012639865	0.000095330176	0.050287716	0.0055653843	0.017576332	0	952.7311264239697
3.3113112	0.001	0.53	8.0805475	3.2992686	-0.012599244	0.00017476205	0.051981034	0.0063504003	0.017978016	0	953.6125134552976
3.3113112	0.0010964782	0.53	8.2305655	3.192346	-0.012567239	0.00026125525	0.053730249	0.0071498217	0.01840061	0	954.5136402002855
3.3113112	0.0012022644	0.53	8.3860411	3.0861666	-0.012546104	0.00035708457	0.055539202	0.0079642257	0.018840806	0	955.4343015800043
3.3113112	0.0013182567	0.53	8.5454841	2.9787791	-0.012540186	0.00046672818	0.057413987	0.0087940811	0.019292196	0	956.3734479308366
3.3113112	0.0014454398	0.53	8.70633	2.8670639	-0.012557275	0.00059858308	0.059364665	0.0096396597	0.019744056	0	957.3287701112083
3.3113112	0.0015848932	0.53	8.8658294	2.7478862	-0.012607302	0.00076414429	0.061404445	0.010500957	0.020185335	0	958.2975149785441
3.3113112	0.0017378008	0.53	9.0236082	2.6210958	-0.012695954	0.00097128334	0.063542965	0.011377793	0.020615324	0	959.2791386560455
3.3113112	0.0019054607	0.53	9.1824253	2.490189	-0.012820915	0.0012192541	0.065781299	0.012270117	0.021046292	0	960.2763519964512
3.3113112	0.0020892961	0.53	9.3459754	2.3595448	-0.01297587	0.0015022215	0.068115488	0.013178212	0.021493959	0	961.2931168931601
3.3113112	0.0022908677	0.53	9.5171877	2.2324334	-0.013154922	0.0018141723	0.070541454	0.014102696	0.021970464	0	962.3329432428673
3.3113112	0.0025118864	0.53	9.6979719	2.1107946	-0.013353885	0.0021506551	0.073056736	0.015044421	0.022483497	0	963.3985385628549
3.3113112	0.0027542287	0.53	9.8894797	1.9956066	-0.013570036	0.0025086819	0.075660401	0.016004386	0.023037505	0	964.4919966839013
3.3113112	0.0030199517	0.53	10.092371	1.8872337	-0.013801606	0.0028861698	0.078352483	0.016983679	0.023634859	0	965.6149966280777
3.3113112	0.0033113112	0.53	10.306993	1.7856559	-0.014047333	0.0032813975	0.081133441	0.017983433	0.024276622	0	966.7689526949192
3.3113112	0.0036307805	0.53	10.533506	1.690615	-0.014306152	0.0036926169	0.084003778	0.019004809	0.024963045	0	967.9551160002497
3.3113112	0.0039810717	0.53	10.771989	1.601719	-0.014576997	0.004117858	0.08696384	0.020048974	0.025693914	0	969.1746604182263
3.3113112	0.0043651583	0.53	11.022533	1.5185274	-0.014858706	0.0045549489	0.090013846	0.021117109	0.026468857	0	970.4287867791359
3.3113112	0.0047863009	0.53	11.285335	1.4406249	-0.015150002	0.0050016572	0.093154026	0.022210402	0.027287598	0	971.7188094409468
3.3113112	0.0052480746	0.53	11.560747	1.367671	-0.015449514	0.0054558583	0.096384794	0.02333007	0.028150155	0	973.0462227071826
3.3113112	0.0057543994	0.53	11.849267	1.299414	-0.015755768	0.0059155368	0.099706752	0.024477376	0.029056902	0	974.4127112748902
3.3113112	0.0063095734	0.53	12.151478	1.2356675	-0.016067131	0.0063785588	0.10312046	0.02565363	0.030008495	0	975.8200883172815
3.3113112	0.0069183097	0.53	12.467951	1.1762646	-0.016381734	0.0068423487	0.10662614	0.026860205	0.031005715	0	977.270220431255
3.3113112	0.0075857758	0.53	12.79918	1.1210172	-0.016697443	0.0073036863	0.11022342	0.02809852	0.032049323	0	978.7649274045634
3.3113112	0.0083176377	0.53	13.145558	1.069697	-0.017011974	0.00775887	0.11391156	0.029370047	0.033139982	0	980.3059867069354
3.3113112	0.0091201084	0.53	13.5074	1.0220441	-0.017323149	0.0082042036	0.11768991	0.030676283	0.034278274	0	981.8951210314406
3.3113112	0.01	0.53	13.884999	0.97779099	-0.017629246	0.0086367705	0.12155871	0.03201876	0.03546479	0	983.534067822324
3.3113112	0.010964782	0.53	14.278667	0.93668764	-0.017929288	0.0090550602	0.12551967	0.033399036	0.036700205	0	985.2245965630095
3.3113112	0.012022644	0.53	14.688773	0.89851582	-0.018223199	0.0094593334	0.12957639	0.034818706	0.037985346	0	986.9685713511511
3.3113112	0.013182567	0.53	15.115742	0.86309042	-0.018511784	0.0098515978	0.13373434	0.0362794	0.03932119	0	988.7679597305487
3.3113112	0.014454398	0.53	15.560057	0.83025321	-0.018796617	0.010235412	0.13800061	0.037782795	0.040708857	0	990.6248134300567
3.3113112	0.015848932	0.53	16.022249	0.79986403	-0.019079891	0.010615569	0.14238366	0.039330617	0.042149578	0	992.5412848059791
3.3113112	0.017378008	0.53	16.502884	0.77179377	-0.019364299	0.01099788	0.14689307	0.040924645	0.043644678	0	994.5196141579363
3.3113112	0.019054607	0.53	17.002569	0.74592016	-0.019652963	0.011389022	0.15153941	0.042566717	0.045195565	0	996.562131701953
3.3113112	0.020892961	0.53	17.521944	0.72212584	-0.019949391	0.011796477	0.15633418	0.044258733	0.046803722	0	998.6712680935896
3.3113112	0.022908677	0.53	18.061687	0.70029779	-0.020257455	0.012228478	0.16128973	0.046002654	0.048470714	0	1000.849535260809
3.3113112	0.025118864	0.53	18.622519	0.6803269	-0.020581325	0.01269391	0.16641923	0.047800513	0.050198189	0	1003.0995734762018
3.3113112	0.027542287	0.53	19.205201	0.66210632	-0.020925308	0.013202	0.1717363	0.049654413	0.051987875	0	1005.4241183782408
3.3113112	0.030199517	0.53	19.810535	0.6455282	-0.021293534	0.013761733	0.17725444	0.051566534	0.05384157	0	1007.8260121521098
3.3113112	0.033113112	0.53	20.439357	0.63047815	-0.021689454	0.014380895	0.18298613	0.053539139	0.055761134	0	1010.3082270188366
3.3113112	0.036307805	0.53	21.092538	0.61682878	-0.02211522	0.0150649	0.1889416	0.055574575	0.057748466	0	1012.8738352631599
3.3113112	0.039810717	0.53	21.770971	0.60443461	-0.022571096	0.015815654	0.19512771	0.05767527	0.05980548	0	1015.5260049115261
3.3113112	0.043651583	0.53	22.475585	0.59313197	-0.023055206	0.016631117	0.20154757	0.059843747	0.061934123	0	1018.2680472740985
3.3113112	0.047863009	0.53	23.207352	0.58274419	-0.023563689	0.017505609	0.20820075	0.062082616	0.064136382	0	1021.1033758857504
3.3113112	0.052480746	0.53	23.967326	0.57309106	-0.02409126	0.018430938	0.21508453	0.064394594	0.066414339	0	1024.0356018719478
3.3113112	0.057543994	0.53	24.756661	0.5639976	-0.024631877	0.019397733	0.22219515	0.066782497	0.068770194	0	1027.068529720706
3.3113112	0.063095734	0.53	23.147883	0.60539415	-0.024747598	0.014468623	0.22360103	0.06912415	0.071257741	0	1027.6598878299951
3.3113112	0.069183097	0.53	21.680659	0.64314826	-0.024853136	0.0092186754	0.22488321	0.071259763	0.073526411	0	1028.1992146893324
3.3113112	0.075857758	0.53	20.666776	0.66608913	-0.025032616	0.0045003185	0.22690027	0.073228423	0.075575921	0	1029.035016133296
3.3113112	0.083176377	0.53	21.756092	0.61975642	-0.025613338	0.0047590465	0.23410405	0.075306324	0.077490532	0	1032.0766535649354
3.3113112	0.091201084	0.53	23.029805	0.57580776	-0.025997041	0.0050182939	0.24152455	0.077499842	0.079529162	0	1035.411323201672
3.3113112	0.1	0.53	24.515295	0.5342086	-0.026140592	0.0052814742	0.24917191	0.079828354	0.081711066	0	1039.0846007278517
3.3113112	0.10964782	0.53	26.245871	0.49491834	-0.025992417	0.0055533447	0.25705787	0.082314195	0.084058437	0	1043.1507894503554
3.3113112	0.12022644	0.53	28.263625	0.45789337	-0.025488689	0.005839889	0.26519557	0.084983368	0.086597122	0	1047.6764023277885
3.3113112	0.13182567	0.53	30.623388	0.42309015	-0.024547973	0.006148118	0.27359944	0.087866586	0.089357683	0	1052.7451385662685
3.3113112	0.14454398	0.53	33.397874	0.39046797	-0.023064119	0.0064858024	0.28228487	0.091000772	0.092376898	0	1058.4643967803881
3.3113112	0.15848932	0.53	36.683859	0.35999117	-0.020897472	0.0068611445	0.29126793	0.094431098	0.095699815	0	1064.9733943411443
3.3113112	0.17378008	0.53	40.608845	0.33163047	-0.017864878	0.0072823759	0.30056498	0.098213678	0.099382444	0	1072.4523631838874
3.3113112	0.19054607	0.53	45.337009	0.3053632	-0.013729775	0.0077572479	0.31019213	0.10241888	0.10349507	0	1081.1315910577723
3.3113112	0.20892961	0.53	51.0723	0.28117174	-0.0081947661	0.00829237	0.32016461	0.10713511	0.10812604	0	1091.298085862785
3.3113112	0.22908677	0.53	58.055543	0.25903968	-0.00090044229	0.0088923771	0.33049596	0.11247263	0.11338556	0	1103.296278360064
3.3113112	0.25118864	0.53	66.551836	0.23894516	0.0085647897	0.0095589748	0.34119705	0.11856665	0.11940876	0	1117.5183002543322
3.3113112	0.27542287	0.53	76.825454	0.22085169	0.020639726	0.010290054	0.35227524	0.12557859	0.12635693	0	1134.3800942415692
3.3113112	0.30199517	0.53	89.103101	0.20469786	0.035749699	0.011079201	0.36373386	0.13369426	0.13441568	0	1154.2829461365377
3.3113112	0.33113112	0.53	103.53242	0.19038888	0.054256538	0.011915974	0.37557253	0.14311816	0.14378915	0	1177.566628983671
3.3113112	0.36307805	0.53	120.14827	0.17779363	0.076412531	0.012787119	0.38778837	0.15406393	0.15469053	0	1204.4667496934399
3.3113112	0.39810717	0.53	138.8597	0.16674931	0.1023336	0.013678491	0.40037792	0.16674247	0.16733014	0	1235.0905015854082
3.3113112	0.43651583	0.53	159.46297	0.15707278	0.13200017	0.014577101	0.41333923	0.18135002	0.18190359	0	1269.4185216270603
3.3113112	0.47863009	0.53	181.67526	0.14857522	0.16528273	0.015472654	0.42667337	0.19805865	0.19858228	0	1307.329658597862
3.3113112	0.52480746	0.53	205.17662	0.14107548	0.20198039	0.016358234	0.44038515	0.21701055	0.21750774	0	1348.6375584485993
3.3113112	0.57543994	0.53	229.64787	0.13440958	0.24185954	0.017230224	0.45448304	0.23831629	0.23878999	0	1393.126947120671
3.3113112	0.63095734	0.53	254.79769	0.12843547	0.28468447	0.018087728	0.46897861	0.26205636	0.26250901	0	1440.5821211741113
3.3113112	0.69183097	0.53	280.3776	0.12303399	0.33023729	0.018931825	0.4838858	0.28828474	0.28871834	0	1490.8053004115272
3.3113112	0.75857758	0.53	306.18729	0.11810734	0.37832849	0.019764862	0.49922021	0.31703335	0.31744959	0	1543.6261961297548
3.3113112	0.83176377	0.53	332.07343	0.11357638	0.42880063	0.020589899	0.51499857	0.34831684	0.34871712	0	1598.9052141920918
3.3113112	0.91201084	0.53	357.92498	0.10937761	0.48152803	0.021410303	0.53123835	0.38213695	0.38252243	0	1656.5329695548817
3.3113112	1.	0.53	383.66714	0.10546024	0.53641423	0.022229487	0.54795748	0.41848634	0.41885801	0	1716.4277603400292
3.3113112	1.0964782	0.53	409.25499	0.10178366	0.59338857	0.023050758	0.56517427	0.45735187	0.45771059	0	1778.532314683928
3.3113112	1.2022644	0.53	434.66768	0.098315343	0.6524027	0.023877232	0.58290729	0.49871722	0.49906372	0	1842.8104518980376
3.3113112	1.3182567	0.53	459.90338	0.095029094	0.7134273	0.024711805	0.60117537	0.542565	0.54289991	0	1909.2440006945326
3.3113112	1.4454398	0.53	484.97497	0.091903732	0.77644913	0.025557139	0.61999761	0.58887837	0.58920226	0	1977.8300324482166
3.3113112	1.5848932	0.53	509.90659	0.088922009	0.84146862	0.026415684	0.63939339	0.63764235	0.63795574	0	2048.5786018237263
3.3113112	1.7378008	0.53	534.73081	0.086069772	0.90849779	0.027289686	0.65938245	0.68884476	0.6891481	0	2121.5108323171735
3.3113112	1.9054607	0.53	559.48639	0.083335321	0.97755859	0.028181222	0.67998487	0.74247693	0.74277063	0	2196.6573466182713
3.3113112	2.0892961	0.53	584.21653	0.080708896	1.0486815	0.029092215	0.70122116	0.79853422	0.79881867	0	2274.0569960361117
3.3113112	2.2908677	0.53	608.96752	0.078182285	1.1219044	0.03002446	0.72311227	0.85701639	0.85729192	0	2353.7558037700173
3.3113112	2.5118864	0.53	633.78765	0.075748516	1.1972717	0.030979645	0.74567965	0.91792782	0.91819478	0	2435.8061773658624
3.3113112	2.7542287	0.53	658.72641	0.073401612	1.2748337	0.03195937	0.76894527	0.98127772	0.98153641	0	2520.266317353644
3.3113112	3.0199517	0.53	683.83392	0.071136398	1.3546458	0.032965162	0.79293167	1.0470802	1.0473309	0	2607.199499889336
3.3113112	3.3113112	0.53	709.16041	0.068948356	1.4367683	0.033998492	0.81766197	1.1153542	1.1155972	0	2696.6738938215162
3.3113112	3.6307805	0.53	734.75596	0.066833501	1.5212658	0.035060786	0.84315995	1.1861236	1.1863592	0	2788.762036789728
3.3113112	3.9810717	0.53	760.67025	0.064788286	1.6082069	0.036153439	0.86945003	1.2594174	1.2596458	0	2883.540543395479
3.3113112	4.3651583	0.53	786.95239	0.062809529	1.6976644	0.03727782	0.89655732	1.3352691	1.3354905	0	2981.0903180137966
3.3113112	4.7863009	0.53	813.65083	0.060894347	1.7897146	0.038435283	0.92450769	1.4137172	1.4139319	0	3081.4959319553564
3.3113112	5.2480746	0.53	840.81336	0.059040113	1.8844373	0.039627178	0.95332773	1.4948049	1.495013	0	3184.8456035476975
3.3113112	5.7543994	0.53	868.48705	0.057244411	1.9819159	0.040854851	0.98304483	1.5785799	1.5787816	0	3291.231331929324
3.3113112	6.3095734	0.53	896.71828	0.055505007	2.0822374	0.042119654	1.0136872	1.6650946	1.6652903	0	3400.748907009105
3.3113112	6.9183097	0.53	925.55281	0.053819822	2.1854917	0.043422948	1.0452839	1.754406	1.7545957	0	3513.4972667096135
3.3113112	7.5857758	0.53	955.03582	0.05218691	2.2917726	0.04476611	1.0778649	1.8465754	1.8467593	0	3629.579466410654
3.3113112	8.3176377	0.53	985.21194	0.050604443	2.4011769	0.046150535	1.1114609	1.9416685	1.9418469	0	3749.1017437059163
3.3113112	9.1201084	0.53	1016.1254	0.049070694	2.5138051	0.047577643	1.1461038	2.0397556	2.0399285	0	3872.1744101444497
3.3113112	10.	0.53	1047.82	0.047584026	2.6297607	0.049048876	1.1818264	2.1409109	2.1410786	0	3998.911044144022