3.0199517	1.e-12	0.3	6.5037323e6	8.6310551e6	-0.070717065	-0.0040932935	-0.0040932927	-6922.1369	20819.808	0	871.9682712758039
3.0199517	1.0964782e-12	0.3	5.9314746e6	7.8716179e6	-0.070421026	-0.0040932936	-0.0040932927	-6313.0702	18987.891	0	872.2464192624525
3.0199517	1.2022644e-12	0.3	5.4095693e6	7.1790028e6	-0.070124988	-0.0040932936	-0.0040932926	-5757.5946	17317.162	0	872.5245663377227
3.0199517	1.3182567e-12	0.3	4.9335861e6	6.5473305e6	-0.069828949	-0.0040932936	-0.0040932925	-5250.995	15793.44	0	872.8027143525583
3.0199517	1.4454398e-12	0.3	4.4994843e6	5.9712384e6	-0.06953291	-0.0040932936	-0.0040932924	-4788.9706	14403.789	0	873.0808623673939
3.0199517	1.5848932e-12	0.3	4.1035788e6	5.4458362e6	-0.069236871	-0.0040932936	-0.0040932923	-4367.5993	13136.412	0	873.3590103822295
3.0199517	1.7378008e-12	0.3	3.7425085e6	4.9666637e6	-0.068940832	-0.0040932936	-0.0040932922	-3983.3041	11980.55	0	873.6371583970651
3.0199517	1.9054607e-12	0.3	3.4132086e6	4.5296532e6	-0.068644793	-0.0040932936	-0.0040932921	-3632.8227	10926.392	0	873.9153064119007
3.0199517	2.0892961e-12	0.3	3.1128835e6	4.1310948e6	-0.068348755	-0.0040932936	-0.0040932919	-3313.1798	9964.9886	0	874.193453515358
3.0199517	2.2908677e-12	0.3	2.8389838e6	3.7676053e6	-0.068052716	-0.0040932935	-0.0040932917	-3021.662	9088.1782	0	874.4716015583806
3.0199517	2.5118864e-12	0.3	2.5891842e6	3.4360988e6	-0.067756677	-0.0040932936	-0.0040932916	-2755.7946	8288.5172	0	874.7497495732161
3.0199517	2.7542287e-12	0.3	2.3613644e6	3.1337614e6	-0.067460638	-0.0040932936	-0.0040932914	-2513.3206	7559.218	0	875.0278976162388
3.0199517	3.0199517e-12	0.3	2.1535902e6	2.8580264e6	-0.067164599	-0.0040932936	-0.0040932911	-2292.1817	6894.0892	0	875.3060456874482
3.0199517	3.3113112e-12	0.3	1.9640978e6	2.606553e6	-0.06686856	-0.0040932936	-0.0040932909	-2090.5005	6287.4844	0	875.5841937304708
3.0199517	3.6307805e-12	0.3	1.7912788e6	2.3772066e6	-0.066572522	-0.0040932936	-0.0040932907	-1906.5651	5734.2543	0	875.8623408339281
3.0199517	3.9810717e-12	0.3	1.6336659e6	2.1680402e6	-0.066276483	-0.0040932936	-0.0040932904	-1738.814	5229.7025	0	876.1404889051375
3.0199517	4.3651583e-12	0.3	1.4899213e6	1.9772781e6	-0.065980444	-0.0040932936	-0.0040932901	-1585.8231	4769.5457	0	876.4186369763471
3.0199517	4.7863009e-12	0.3	1.3588247e6	1.803301e6	-0.065684405	-0.0040932936	-0.0040932897	-1446.2938	4349.8778	0	876.6967850757436
3.0199517	5.2480746e-12	0.3	1.2392631e6	1.644632e6	-0.065388366	-0.0040932936	-0.0040932893	-1319.0415	3967.1361	0	876.9749331751401
3.0199517	5.7543994e-12	0.3	1.1302216e6	1.4999242e6	-0.065092327	-0.0040932936	-0.0040932889	-1202.986	3618.0715	0	877.2530812745366
3.0199517	6.3095734e-12	0.3	1.0307746e6	1.367949e6	-0.064796289	-0.0040932936	-0.0040932885	-1097.1421	3299.7208	0	877.5312284343677
3.0199517	6.9183097e-12	0.3	940077.91	1.2475863e6	-0.06450025	-0.0040932936	-0.004093288	-1000.6113	3009.3816	0	877.8093765619512
3.0199517	7.5857758e-12	0.3	857361.51	1.1378141e6	-0.064204211	-0.0040932936	-0.0040932875	-912.57408	2744.589	0	878.0875246895347
3.0199517	8.3176377e-12	0.3	781923.26	1.0377007e6	-0.063908172	-0.0040932936	-0.0040932869	-832.28321	2503.0953	0	878.3656728453051
3.0199517	9.1201084e-12	0.3	713122.75	946396.21	-0.063612133	-0.0040932936	-0.0040932862	-759.05703	2282.8504	0	878.6438210292624
3.0199517	1.e-11	0.3	650375.95	863125.49	-0.063316094	-0.0040932936	-0.0040932855	-692.27392	2081.9847	0	878.9219692132199
3.0199517	1.0964782e-11	0.3	593150.18	787181.68	-0.063020056	-0.0040932936	-0.0040932847	-631.36699	1898.793	0	879.2001164857986
3.0199517	1.2022644e-11	0.3	540959.65	717920.09	-0.062724017	-0.0040932937	-0.0040932839	-575.81917	1731.7202	0	879.4782646979431
3.0199517	1.3182567e-11	0.3	493361.33	654752.78	-0.062427978	-0.0040932937	-0.004093283	-525.15894	1579.348	0	879.7564129382745
3.0199517	1.4454398e-11	0.3	449951.15	597143.49	-0.062131939	-0.0040932937	-0.004093282	-478.95623	1440.3829	0	880.0345612067927
3.0199517	1.5848932e-11	0.3	410360.6	544603.19	-0.0618359	-0.0040932936	-0.0040932808	-436.81884	1313.6452	0	880.312709531685
3.0199517	1.7378008e-11	0.3	374253.57	496685.86	-0.061539861	-0.0040932937	-0.0040932796	-398.38905	1198.059	0	880.590857856577
3.0199517	1.9054607e-11	0.3	341323.59	452984.72	-0.061243823	-0.0040932936	-0.0040932782	-363.34065	1092.6432	0	880.8690052982778
3.0199517	2.0892961e-11	0.3	311291.07	413128.8	-0.060947784	-0.0040932937	-0.0040932767	-331.37609	996.50285	0	881.1471537077309
3.0199517	2.2908677e-11	0.3	283901.1	376779.77	-0.060651745	-0.0040932937	-0.0040932751	-302.22404	908.82179	0	881.4253021453708
3.0199517	2.5118864e-11	0.3	258921.14	343629.04	-0.060355706	-0.0040932937	-0.0040932733	-275.63704	828.85572	0	881.7034506393848
3.0199517	2.7542287e-11	0.3	236139.16	313395.21	-0.060059667	-0.0040932937	-0.0040932714	-251.38937	755.92579	0	881.9815991615856
3.0199517	3.0199517e-11	0.3	215361.73	285821.62	-0.059763628	-0.0040932937	-0.0040932693	-229.27521	689.4129	0	882.2597477401605
3.0199517	3.3113112e-11	0.3	196412.5	260674.21	-0.05946759	-0.0040932937	-0.0040932669	-209.10683	628.75243	0	882.5378954637308
3.0199517	3.6307805e-11	0.3	179130.6	237739.48	-0.059171551	-0.0040932938	-0.0040932643	-190.71302	573.42942	0	882.8160441832404
3.0199517	3.9810717e-11	0.3	163369.31	216822.75	-0.058875512	-0.0040932938	-0.0040932615	-173.93764	522.97423	0	883.094192959124
3.0199517	4.3651583e-11	0.3	148994.85	197746.47	-0.058579473	-0.0040932938	-0.0040932584	-158.63829	476.95856	0	883.3723418195684
3.0199517	4.7863009e-11	0.3	135885.18	180348.67	-0.058283434	-0.0040932938	-0.004093255	-144.68509	434.99177	0	883.6504907645738
3.0199517	5.2480746e-11	0.3	123929.03	164481.69	-0.057987395	-0.0040932939	-0.0040932513	-131.95959	396.71759	0	883.9286397941398
3.0199517	5.7543994e-11	0.3	113024.88	150010.82	-0.057691357	-0.0040932939	-0.0040932472	-120.35378	361.81114	0	884.2067879968887
3.0199517	6.3095734e-11	0.3	103080.18	136813.23	-0.057395318	-0.0040932939	-0.0040932428	-109.76912	329.97607	0	884.4849372237636
3.0199517	6.9183097e-11	0.3	94010.509	124776.87	-0.057099279	-0.0040932939	-0.0040932378	-100.11577	300.94214	0	884.7630866197603
3.0199517	7.5857758e-11	0.3	85738.868	113799.57	-0.05680324	-0.004093294	-0.0040932325	-91.311789	274.46288	0	885.0412361003177
3.0199517	8.3176377e-11	0.3	78195.044	103788.15	-0.056507201	-0.004093294	-0.0040932265	-83.282435	250.31352	0	885.3193857781841
3.0199517	9.1201084e-11	0.3	71314.993	94657.613	-0.056211163	-0.004093294	-0.0040932201	-75.95955	228.28903	0	885.5975346292329
3.0199517	1.e-10	0.3	65040.312	86330.458	-0.055915124	-0.0040932941	-0.004093213	-69.280973	208.20246	0	885.8756846171556
3.0199517	1.0964782e-10	0.3	59317.736	78735.996	-0.055619085	-0.0040932941	-0.0040932052	-63.190014	189.88329	0	886.1538348023871
3.0199517	1.2022644e-10	0.3	54098.684	71809.755	-0.055323046	-0.0040932942	-0.0040931967	-57.634966	173.17601	0	886.4319851849275
3.0199517	1.3182567e-10	0.3	49338.851	65492.939	-0.055027007	-0.0040932943	-0.0040931874	-52.568676	157.93878	0	886.7101357929636
3.0199517	1.4454398e-10	0.3	44997.833	59731.928	-0.054730968	-0.0040932943	-0.0040931771	-47.948139	144.04227	0	886.9882866828691
3.0199517	1.5848932e-10	0.3	41038.777	54477.814	-0.05443493	-0.0040932944	-0.0040931659	-43.734133	131.3685	0	887.2664368868918
3.0199517	1.7378008e-10	0.3	37428.076	49685.999	-0.054138891	-0.0040932944	-0.0040931536	-39.890888	119.80989	0	887.5445883405366
3.0199517	1.9054607e-10	0.3	34135.076	45315.802	-0.053842852	-0.0040932945	-0.00409314	-36.385781	109.26831	0	887.8227401606119
3.0199517	2.0892961e-10	0.3	31131.825	41330.127	-0.053546813	-0.0040932946	-0.0040931253	-33.189059	99.65427	0	888.1008922907438
3.0199517	2.2908677e-10	0.3	28392.828	37695.141	-0.053250775	-0.0040932947	-0.004093109	-30.273588	90.886165	0	888.3790439323018
3.0199517	2.5118864e-10	0.3	25894.833	34379.985	-0.052954736	-0.0040932948	-0.0040930912	-27.614621	82.889557	0	888.6571969362294
3.0199517	2.7542287e-10	0.3	23616.633	31356.519	-0.052658697	-0.0040932949	-0.0040930717	-25.189588	75.596563	0	888.9353504193352
3.0199517	3.0199517e-10	0.3	21538.892	28599.078	-0.052362658	-0.0040932951	-0.0040930503	-22.977905	68.945275	0	889.2135044379936
3.0199517	3.3113112e-10	0.3	19643.968	26084.253	-0.05206662	-0.0040932952	-0.0040930268	-20.960801	62.879227	0	889.4916581090126
3.0199517	3.6307805e-10	0.3	17915.778	23790.698	-0.051770581	-0.0040932954	-0.0040930011	-19.121154	57.346927	0	889.76981333971
3.0199517	3.9810717e-10	0.3	16339.649	21698.942	-0.051474542	-0.0040932956	-0.0040929729	-17.443349	52.301408	0	890.0479692750814
3.0199517	4.3651583e-10	0.3	14902.203	19791.23	-0.051178503	-0.0040932957	-0.0040929419	-15.913148	47.699841	0	890.3261259996879
3.0199517	4.7863009e-10	0.3	13591.236	18051.368	-0.050882465	-0.0040932959	-0.0040929079	-14.517561	43.503162	0	890.6042826303378
3.0199517	5.2480746e-10	0.3	12395.621	16464.587	-0.050586426	-0.0040932962	-0.0040928708	-13.244745	39.675744	0	890.8824410743489
3.0199517	5.7543994e-10	0.3	11305.206	15017.417	-0.050290387	-0.0040932964	-0.00409283	-12.083897	36.185099	0	891.1606005612773
3.0199517	6.3095734e-10	0.3	10310.736	13697.575	-0.049994349	-0.0040932967	-0.0040927853	-11.025165	33.001592	0	891.438760207932
3.0199517	6.9183097e-10	0.3	9403.7689	12493.856	-0.04969831	-0.004093297	-0.0040927362	-10.059564	30.098199	0	891.7169220343782
3.0199517	7.5857758e-10	0.3	8576.6048	11396.043	-0.049402271	-0.0040932973	-0.0040926825	-9.1788987	27.450273	0	891.9950851574247
3.0199517	8.3176377e-10	0.3	7822.2223	10394.818	-0.049106233	-0.0040932977	-0.0040926235	-8.3756968	25.035336	0	892.2732488348146
3.0199517	9.1201084e-10	0.3	7134.2174	9481.682	-0.048810194	-0.004093298	-0.0040925588	-7.643142	22.832888	0	892.5514150584269
3.0199517	1.e-9	0.3	6506.7493	8648.8836	-0.048514156	-0.0040932985	-0.004092488	-6.9750179	20.824231	0	892.8295820618782
3.0199517	1.0964782e-9	0.3	5934.4916	7889.3544	-0.048218117	-0.004093299	-0.0040924103	-6.3656554	18.992314	0	893.107751949795
3.0199517	1.2022644e-9	0.3	5412.5865	7196.6474	-0.047922079	-0.0040932995	-0.004092325	-5.8098842	17.321586	0	893.3859230403557
3.0199517	1.3182567e-9	0.3	4936.6032	6564.883	-0.04762604	-0.0040933001	-0.0040922316	-5.3029888	15.797864	0	893.6640973536254
3.0199517	1.4454398e-9	0.3	4502.5014	5988.699	-0.047330002	-0.0040933007	-0.0040921292	-4.8406686	14.408213	0	893.9422732641563
3.0199517	1.5848932e-9	0.3	4106.5958	5463.2048	-0.047033963	-0.0040933014	-0.0040920168	-4.4190016	13.140836	0	894.2204529329485
3.0199517	1.7378008e-9	0.3	3745.5257	4983.9403	-0.046737925	-0.0040933021	-0.0040918936	-4.0344106	11.984974	0	894.4986347063673
3.0199517	1.9054607e-9	0.3	3416.2258	4546.8377	-0.046441887	-0.0040933029	-0.0040917585	-3.6836334	10.930816	0	894.7768198340342
3.0199517	2.0892961e-9	0.3	3115.9007	4148.1874	-0.046145848	-0.0040933039	-0.0040916104	-3.3636948	9.9694126	0	895.0550095655713
3.0199517	2.2908677e-9	0.3	2842.001	3784.6058	-0.04584981	-0.0040933049	-0.0040914481	-3.0718812	9.0926021	0	895.3332023600914
3.0199517	2.5118864e-9	0.3	2592.2015	3453.0074	-0.045553772	-0.0040933059	-0.00409127	-2.805718	8.2929414	0	895.6113996081514
3.0199517	2.7542287e-9	0.3	2364.3816	3150.578	-0.045257734	-0.0040933071	-0.0040910748	-2.5629482	7.5636422	0	895.8896016761815
3.0199517	3.0199517e-9	0.3	2156.6074	2874.751	-0.044961696	-0.0040933085	-0.0040908607	-2.3415135	6.8985134	0	896.1678090715474
3.0199517	3.3113112e-9	0.3	1967.1152	2623.1856	-0.044665658	-0.0040933098	-0.0040906259	-2.1395366	6.2919089	0	896.446022301614
3.0199517	3.6307805e-9	0.3	1794.2961	2393.7472	-0.04436962	-0.0040933114	-0.0040903686	-1.9553055	5.7386789	0	896.7242418737465
3.0199517	3.9810717e-9	0.3	1636.6833	2184.4888	-0.044073583	-0.0040933131	-0.0040900864	-1.7872586	5.2341272	0	897.0024675248671
3.0199517	4.3651583e-9	0.3	1492.9387	1993.6347	-0.043777545	-0.0040933151	-0.004089777	-1.6339719	4.7739705	0	897.280701782406
3.0199517	4.7863009e-9	0.3	1361.8421	1819.5657	-0.043481508	-0.0040933171	-0.0040894377	-1.4941468	4.3543028	0	897.558943528281
3.0199517	5.2480746e-9	0.3	1242.2806	1660.8047	-0.04318547	-0.0040933193	-0.0040890657	-1.3665987	3.9715613	0	897.8371954308575
3.0199517	5.7543994e-9	0.3	1133.2392	1516.0049	-0.042889433	-0.0040933218	-0.0040886578	-1.2502474	3.6224968	0	898.1154565129873
3.0199517	6.3095734e-9	0.3	1033.7923	1383.9378	-0.042593396	-0.0040933246	-0.0040882105	-1.1441077	3.3041464	0	898.3937287007795
3.0199517	6.9183097e-9	0.3	943.09562	1263.4831	-0.042297359	-0.0040933276	-0.0040877202	-1.047281	3.0138073	0	898.6720130089648
3.0199517	7.5857758e-9	0.3	860.37929	1153.6189	-0.042001323	-0.0040933308	-0.0040871824	-0.95894802	2.749015	0	898.9503097663908
3.0199517	8.3176377e-9	0.3	784.94111	1053.4136	-0.041705286	-0.0040933345	-0.0040865929	-0.8783613	2.5075215	0	899.2286220360411
3.0199517	9.1201084e-9	0.3	716.1407	962.01711	-0.04140925	-0.0040933384	-0.0040859464	-0.80483928	2.2872769	0	899.5069494326933
3.0199517	1.e-8	0.3	653.394	878.65446	-0.041113214	-0.0040933427	-0.0040852375	-0.73776034	2.0864116	0	899.7852944180088
3.0199517	1.0964782e-8	0.3	596.16834	802.61872	-0.040817178	-0.0040933475	-0.0040844603	-0.67655755	1.9032202	0	900.0636586550183
3.0199517	1.2022644e-8	0.3	543.97793	733.26521	-0.040521143	-0.0040933527	-0.0040836081	-0.62071387	1.7361478	0	900.3420430926831
3.0199517	1.3182567e-8	0.3	496.37975	670.00597	-0.040225108	-0.0040933583	-0.0040826736	-0.56975776	1.583776	0	900.6204507282163
3.0199517	1.4454398e-8	0.3	452.9697	612.30476	-0.039929073	-0.0040933646	-0.0040816491	-0.52325915	1.4448113	0	900.8988837320137
3.0199517	1.5848932e-8	0.3	413.3793	559.67255	-0.039633039	-0.0040933715	-0.0040805256	-0.48082585	1.3180741	0	901.1773437013367
3.0199517	1.7378008e-8	0.3	377.27245	511.66332	-0.039337005	-0.004093379	-0.0040792938	-0.44210014	1.2024885	0	901.4558341971382
3.0199517	1.9054607e-8	0.3	344.34265	467.8703	-0.039040971	-0.0040933873	-0.0040779432	-0.40675579	1.0970733	0	901.7343581790485
3.0199517	2.0892961e-8	0.3	314.31035	427.92251	-0.038744938	-0.0040933962	-0.0040764622	-0.37449527	1.0009336	0	902.0129179771901
3.0199517	2.2908677e-8	0.3	286.9206	391.48161	-0.038448906	-0.0040934062	-0.0040748384	-0.34504724	0.91325328	0	902.291517086746
3.0199517	2.5118864e-8	0.3	261.94089	358.23904	-0.038152874	-0.0040934171	-0.0040730579	-0.31816422	0.833288	0	902.5701603652689
3.0199517	2.7542287e-8	0.3	239.15917	327.91338	-0.037856843	-0.004093429	-0.0040711056	-0.29362053	0.76035895	0	902.8488511294246
3.0199517	3.0199517e-8	0.3	218.38205	300.24799	-0.037560813	-0.0040934421	-0.004068965	-0.27121031	0.69384702	0	903.1275940300616
3.0199517	3.3113112e-8	0.3	199.43314	275.00877	-0.037264784	-0.0040934564	-0.0040666178	-0.25074584	0.63318759	0	903.4063942253936
3.0199517	3.6307805e-8	0.3	182.1516	251.98228	-0.036968755	-0.0040934722	-0.0040640443	-0.23205591	0.57786573	0	903.6852582078172
3.0199517	3.9810717e-8	0.3	166.3907	230.9738	-0.036672728	-0.0040934894	-0.0040612224	-0.21498437	0.52741182	0	903.9641903275199
3.0199517	4.3651583e-8	0.3	152.01667	211.80579	-0.036376701	-0.0040935083	-0.0040581283	-0.19938882	0.48139753	0	904.2431991721293
3.0199517	4.7863009e-8	0.3	138.90748	194.3163	-0.036080676	-0.004093529	-0.0040547357	-0.18513937	0.43943225	0	904.522290275685
3.0199517	5.2480746e-8	0.3	126.95184	178.35766	-0.035784652	-0.0040935518	-0.0040510159	-0.17211758	0.40115975	0	904.8014726674099
3.0199517	5.7543994e-8	0.3	116.04826	163.79516	-0.03548863	-0.0040935767	-0.0040469372	-0.16021542	0.36625511	0	905.0807543430055
3.0199517	6.3095734e-8	0.3	106.10418	150.50596	-0.035192609	-0.0040936041	-0.0040424651	-0.14933435	0.33442204	0	905.3601459665385
3.0199517	6.9183097e-8	0.3	97.03519	138.37805	-0.03489659	-0.004093634	-0.0040375616	-0.13938454	0.30539031	0	905.6396573094883
3.0199517	7.5857758e-8	0.3	88.764297	127.30924	-0.034600573	-0.0040936669	-0.0040321851	-0.13028402	0.27891346	0	905.9193000976305
3.0199517	8.3176377e-8	0.3	81.221292	117.20636	-0.034304558	-0.004093703	-0.00402629	-0.12195805	0.25476673	0	906.1990871842193
3.0199517	9.1201084e-8	0.3	74.34214	107.98441	-0.034008545	-0.0040937425	-0.0040198263	-0.11433846	0.23274513	0	906.4790326627347
3.0199517	1.e-7	0.3	68.068445	99.565908	-0.033712534	-0.0040937859	-0.0040127393	-0.10736309	0.21266173	0	906.7591519514442
3.0199517	1.0964782e-7	0.3	62.346948	91.880157	-0.033416527	-0.0040938335	-0.0040049688	-0.10097524	0.19434604	0	907.0394601397672
3.0199517	1.2022644e-7	0.3	57.12908	84.862699	-0.033120522	-0.0040938857	-0.003996449	-0.09512319	0.17764257	0	907.3199776538545
3.0199517	1.3182567e-7	0.3	52.370547	78.454742	-0.032824521	-0.0040939429	-0.0039871077	-0.089759775	0.16240952	0	907.6007229655611
3.0199517	1.4454398e-7	0.3	48.030953	72.602673	-0.032528524	-0.0040940055	-0.0039768658	-0.084841979	0.14851759	0	907.8817183707724
3.0199517	1.5848932e-7	0.3	44.073457	67.257593	-0.03223253	-0.0040940744	-0.0039656368	-0.080330568	0.13584885	0	908.1629891907749
3.0199517	1.7378008e-7	0.3	40.464467	62.374913	-0.031936541	-0.0040941498	-0.0039533253	-0.076189758	0.12429574	0	908.444560436798
3.0199517	1.9054607e-7	0.3	37.173344	57.913961	-0.031640556	-0.0040942326	-0.0039398277	-0.07238691	0.11376019	0	908.7264622500983
3.0199517	2.0892961e-7	0.3	34.172149	53.837652	-0.031344577	-0.0040943234	-0.0039250298	-0.068892254	0.10415277	0	909.0087249410536
3.0199517	2.2908677e-7	0.3	31.435406	50.112164	-0.031048604	-0.0040944229	-0.0039088068	-0.065678638	0.095391922	0	909.2913836869913
3.0199517	2.5118864e-7	0.3	28.939882	46.706652	-0.030752637	-0.0040945321	-0.003891022	-0.062721295	0.087403266	0	909.5744770194858
3.0199517	2.7542287e-7	0.3	26.664392	43.592989	-0.030456677	-0.0040946518	-0.0038715259	-0.059997632	0.080118989	0	909.8580461384777
3.0199517	3.0199517e-7	0.3	24.589619	40.745523	-0.030160724	-0.0040947831	-0.0038501547	-0.057487041	0.073477253	0	910.1421372142087
3.0199517	3.3113112e-7	0.3	22.697949	38.140865	-0.02986478	-0.0040949272	-0.0038267293	-0.055170724	0.067421675	0	910.4267988503939
3.0199517	3.6307805e-7	0.3	20.973324	35.757684	-0.029568845	-0.0040950851	-0.003801054	-0.05303153	0.061900847	0	910.7120862089155
3.0199517	3.9810717e-7	0.3	19.401102	33.57653	-0.029272921	-0.0040952584	-0.0037729151	-0.051053813	0.056867899	0	910.9980576461769
3.0199517	4.3651583e-7	0.3	17.967935	31.57967	-0.028977007	-0.0040954485	-0.0037420789	-0.049223298	0.052280102	0	911.2847799746708
3.0199517	4.7863009e-7	0.3	16.661656	29.75093	-0.028681105	-0.004095657	-0.0037082909	-0.047526959	0.048098506	0	911.57232305108
3.0199517	5.2480746e-7	0.3	15.471174	28.075568	-0.028385217	-0.0040958857	-0.0036712736	-0.045952909	0.044287607	0	911.86076321509
3.0199517	5.7543994e-7	0.3	14.386379	26.540142	-0.028089343	-0.0040961366	-0.0036307248	-0.0444903	0.040815046	0	912.1501856476951
3.0199517	6.3095734e-7	0.3	13.398061	25.132394	-0.027793486	-0.0040964118	-0.0035863165	-0.043129231	0.037651332	0	912.4406799834298
3.0199517	6.9183097e-7	0.3	12.497823	23.841154	-0.027497646	-0.0040967137	-0.0035376926	-0.041860661	0.034769595	0	912.7323465960603
3.0199517	7.5857758e-7	0.3	11.67802	22.656236	-0.027201826	-0.0040970449	-0.0034844679	-0.040676338	0.032145354	0	913.0252912430626
3.0199517	8.3176377e-7	0.3	10.931682	21.568356	-0.026906026	-0.0040974083	-0.0034262265	-0.039568723	0.029756306	0	913.3196311540053
3.0199517	9.1201084e-7	0.3	10.252466	20.569054	-0.02661025	-0.004097807	-0.0033625209	-0.038530931	0.027582139	0	913.6154887072753
3.0199517	1.e-6	0.3	9.6345916	19.650615	-0.0263145	-0.0040982445	-0.0032928714	-0.037556669	0.025604355	0	913.9129972365911
3.0199517	1.0964782e-6	0.3	9.0727978	18.806011	-0.026018778	-0.0040987246	-0.003216766	-0.036640186	0.023806112	0	914.2122991800602
3.0199517	1.2022644e-6	0.3	8.5622938	18.028835	-0.025723087	-0.0040992515	-0.0031336615	-0.035776223	0.022172074	0	914.5135448305557
3.0199517	1.3182567e-6	0.3	8.0987182	17.313246	-0.02542743	-0.0040998297	-0.0030429851	-0.034959969	0.020688282	0	914.8168928242915
3.0199517	1.4454398e-6	0.3	7.6781	16.653921	-0.025131811	-0.0041004644	-0.0029441377	-0.034187022	0.019342025	0	915.1225082710866
3.0199517	1.5848932e-6	0.3	7.2968232	16.046004	-0.024836233	-0.0041011611	-0.0028364988	-0.033453351	0.018121729	0	915.4305632523342
3.0199517	1.7378008e-6	0.3	6.9515936	15.485067	-0.0245407	-0.0041019261	-0.0027194331	-0.032755264	0.017016852	0	915.7412330815339
3.0199517	1.9054607e-6	0.3	6.639408	14.967065	-0.024245218	-0.0041027661	-0.002592299	-0.032089375	0.016017779	0	916.0546929688317
3.0199517	2.0892961e-6	0.3	6.3575256	14.488305	-0.02394979	-0.0041036887	-0.0024544604	-0.031452582	0.01511574	0	916.3711193927873
3.0199517	2.2908677e-6	0.3	6.1034414	14.045407	-0.023654424	-0.0041047022	-0.0023052989	-0.03084204	0.014302718	0	916.6906791450417
3.0199517	2.5118864e-6	0.3	5.874861	13.635273	-0.023359124	-0.0041058156	-0.0021442304	-0.030255137	0.013571369	0	917.0135331073695
3.0199517	2.7542287e-6	0.3	5.6696776	13.255061	-0.023063899	-0.0041070396	-0.0019707212	-0.029689478	0.012914951	0	917.339823257491
3.0199517	3.0199517e-6	0.3	5.4859509	12.902156	-0.022768756	-0.0041083852	-0.0017843057	-0.029142865	0.012327255	0	917.669674256937
3.0199517	3.3113112e-6	0.3	5.3218869	12.574145	-0.022473703	-0.0041098652	-0.0015846036	-0.028613285	0.011802541	0	918.0031857841954
3.0199517	3.6307805e-6	0.3	5.1758223	12.268797	-0.022178751	-0.0041114937	-0.0013713348	-0.028098893	0.011335484	0	918.3404264557233
3.0199517	3.9810717e-6	0.3	5.0462083	11.984046	-0.021883911	-0.0041132866	-0.0011443309	-0.027598	0.010921129	0	918.681433403144
3.0199517	4.3651583e-6	0.3	4.9315996	11.717972	-0.021589195	-0.0041152616	-0.00090354149	-0.027109067	0.01055485	0	919.0262095607193
3.0199517	4.7863009e-6	0.3	4.8306447	11.468795	-0.021294616	-0.0041174388	-0.00064903456	-0.026630688	0.010232321	0	919.3747235497858
3.0199517	5.2480746e-6	0.3	4.7420792	11.234856	-0.021000192	-0.004119841	-0.00038099005	-0.026161588	0.0099494956	0	919.7269077385502
3.0199517	5.7543994e-6	0.3	4.6647212	11.01462	-0.020705941	-0.0041224937	-0.000099686905	-0.025700612	0.0097025888	0	920.0826665887196
3.0199517	6.3095734e-6	0.3	4.5974687	10.806663	-0.020411882	-0.0041254263	0.00019451463	-0.025246714	0.0094880709	0	920.441880706436
3.0199517	6.9183097e-6	0.3	4.5392977	10.609672	-0.020118041	-0.0041286725	0.00050119444	-0.024798957	0.00930266	0	920.8044072453515
3.0199517	7.5857758e-6	0.3	4.489261	10.422439	-0.019824445	-0.0041322711	0.00081989576	-0.024356495	0.0091433183	0	921.1700920890316
3.0199517	8.3176377e-6	0.3	4.4464871	10.24386	-0.019531126	-0.004136267	0.0011501474	-0.023918576	0.0090072464	0	921.5387723572456
3.0199517	9.1201084e-6	0.3	4.4101777	10.072924	-0.019238123	-0.0041407127	0.0014914838	-0.023484526	0.0088918755	0	921.9102801797317
3.0199517	0.00001	0.3	4.3796052	9.908717	-0.018945478	-0.0041456693	0.0018434619	-0.02305375	0.0087948569	0	922.2844512095983
3.0199517	0.000010964782	0.3	4.3541082	9.7504057	-0.018653245	-0.0041512094	0.0022056727	-0.022625716	0.0087140464	0	922.6611194256475
3.0199517	0.000012022644	0.3	4.328155	9.5974019	-0.018370538	-0.0041631501	0.0025720175	-0.022205483	0.0086424941	0	923.0300025911198
3.0199517	0.000013182567	0.3	4.3106494	9.4487375	-0.018080118	-0.0041706191	0.0029531489	-0.021782092	0.008588048	0	923.4103005172377
3.0199517	0.000014454398	0.3	4.2965515	9.3039146	-0.017790387	-0.0041790116	0.0033435162	-0.021360246	0.0085444041	0	923.7925544023146
3.0199517	0.000015848932	0.3	4.2854058	9.1623576	-0.017501447	-0.004188472	0.0037428837	-0.020939634	0.008510024	0	924.1766019740184
3.0199517	0.000017378008	0.3	4.2767902	9.0235301	-0.01721342	-0.0041991719	0.0041510518	-0.020519987	0.0084834516	0	924.5622723442034
3.0199517	0.000019054607	0.3	4.2703089	8.8869239	-0.016926447	-0.0042113167	0.0045678467	-0.020101076	0.0084632818	0	924.949384045218
3.0199517	0.000020892961	0.3	4.2655841	8.7520491	-0.016640691	-0.0042251505	0.0049931119	-0.019682712	0.0084481312	0	925.3377398153168
3.0199517	0.000022908677	0.3	4.2622501	8.6184251	-0.016356343	-0.0042409635	0.0054266963	-0.01926474	0.0084366088	0	925.7271176070209
3.0199517	0.000025118864	0.3	4.2599471	8.4855723	-0.01607362	-0.0042590987	0.0058684438	-0.018847042	0.0084272917	0	926.1172695348037
3.0199517	0.000027542287	0.3	4.2583177	8.3530067	-0.015792766	-0.0042799585	0.0063181816	-0.018429533	0.0084187081	0	926.507917637652
3.0199517	0.000030199517	0.3	4.2570055	8.2202378	-0.015514055	-0.0043040098	0.006775712	-0.018012165	0.0084093298	0	926.8987487490394
3.0199517	0.000033113112	0.3	4.2556568	8.086771	-0.015237778	-0.0043317879	0.0072408045	-0.017594925	0.0083975807	0	927.2894244845049
3.0199517	0.000036307805	0.3	4.2539273	7.9521162	-0.014964243	-0.0043638967	0.0077131928	-0.017177834	0.0083818649	0	927.6795803960447
3.0199517	0.000039810717	0.3	4.2514925	7.8158029	-0.01469376	-0.0044010034	0.0081925771	-0.016760943	0.0083606168	0	928.068840713893
3.0199517	0.000043651583	0.3	4.2480629	7.6774023	-0.014426621	-0.0044438299	0.00867863	-0.016344338	0.0083323746	0	928.4568388008587
3.0199517	0.000047863009	0.3	4.2434022	7.5365547	-0.014163085	-0.0044931382	0.0091710103	-0.015928128	0.0082958721	0	928.8432351356073
3.0199517	0.000052480746	0.3	4.2373472	7.3929992	-0.013903355	-0.0045497099	0.0096693804	-0.015512442	0.0082501417	0	929.2277438271934
3.0199517	0.000057543994	0.3	4.2298259	7.2466018	-0.013647554	-0.004614324	0.010173428	-0.015097422	0.008194612	0	929.6101612812021
3.0199517	0.000063095734	0.3	4.22087	7.097377	-0.013395711	-0.0046877344	0.010682888	-0.014683209	0.0081291858	0	929.9903855266052
3.0199517	0.000069183097	0.3	4.2106207	6.9454975	-0.013147752	-0.0047706499	0.01119756	-0.01426994	0.008054284	0	930.3684296045706
3.0199517	0.000075857758	0.3	4.1993253	6.7912915	-0.012903493	-0.0048637176	0.011717326	-0.013857729	0.007970846	0	930.7444331345084
3.0199517	0.000083176377	0.3	4.1873245	6.6352261	-0.012662649	-0.004967514	0.012242159	-0.013446663	0.0078802864	0	931.1186562820649
3.0199517	0.000091201084	0.3	4.1750336	6.4778796	-0.012424848	-0.0050825403	0.012772124	-0.013036791	0.0077844148	0	931.4914668870741
3.0199517	0.0001	0.3	4.1629191	6.3199072	-0.012189648	-0.0052092231	0.013307382	-0.01262812	0.0076853315	0	931.8633256184273
3.0199517	0.00010964782	0.3	4.1514744	6.1620044	-0.011956556	-0.0053479202	0.013848182	-0.012220607	0.007585313	0	932.2347658673734
3.0199517	0.00012022644	0.3	4.1411969	6.0048721	-0.011725053	-0.0054989233	0.014394856	-0.011814163	0.0074867022	0	932.6063688490383
3.0199517	0.00013182567	0.3	4.1325683	5.8491858	-0.011494611	-0.0056624653	0.014947818	-0.011408649	0.007391809	0	932.9787473479429
3.0199517	0.00014454398	0.3	4.1260396	5.6955725	-0.011264714	-0.0058387224	0.015507556	-0.011003882	0.007302832	0	933.3525237321755
3.0199517	0.00015848932	0.3	4.1220193	5.5445921	-0.011034868	-0.0060278197	0.016074628	-0.010599635	0.0072217976	0	933.7283194302581
3.0199517	0.00017378008	0.3	4.1208666	5.3967268	-0.010804616	-0.006229828	0.016649669	-0.010195644	0.0071505195	0	934.1067428107551
3.0199517	0.00019054607	0.3	4.1228871	5.2523747	-0.010573549	-0.0064447674	0.017233385	-0.0097916132	0.0070905739	0	934.4883771558357
3.0199517	0.00020892961	0.3	4.1283317	5.111848	-0.010341311	-0.0066726027	0.017826557	-0.0093872182	0.0070432881	0	934.8737770909261
3.0199517	0.00022908677	0.3	4.1373965	4.9753739	-0.010107605	-0.0069132449	0.018430045	-0.0089821134	0.0070097376	0	935.2634640747955
3.0199517	0.00025118864	0.3	4.1502245	4.8430975	-0.0098721973	-0.0071665464	0.019044786	-0.0085759364	0.0069907516	0	935.6579217956859
3.0199517	0.00027542287	0.3	4.1669073	4.7150861	-0.0096349227	-0.0074323045	0.0196718	-0.0081683136	0.0069869201	0	936.0575929767906
3.0199517	0.00030199517	0.3	4.1874869	4.5913335	-0.0093956852	-0.0077102597	0.020312182	-0.0077588646	0.0069986032	0	936.4628764636002
3.0199517	0.00033113112	0.3	4.2119572	4.4717636	-0.0091544623	-0.0080000986	0.020967112	-0.0073472073	0.007025939	0	936.8741260024694
3.0199517	0.00036307805	0.3	4.2402642	4.3562332	-0.0089113076	-0.0083014589	0.021637837	-0.0069329625	0.0070688459	0	937.2916427240925
3.0199517	0.00039810717	0.3	4.2723033	4.2445312	-0.0086663564	-0.0086139362	0.022325679	-0.0065157588	0.0071270168	0	937.715672136896
3.0199517	0.00043651583	0.3	4.307914	4.1363728	-0.0084198351	-0.0089370924	0.023032015	-0.0060952379	0.0071998951	0	938.1463896577302
3.0199517	0.00047863009	0.3	4.3468656	4.0313827	-0.0081720784	-0.0092704675	0.023758276	-0.00567106	0.0072866136	0	938.5838841694774
3.0199517	0.00052480746	0.3	4.3888227	3.9290494	-0.007923569	-0.0096136002	0.02450592	-0.0052429131	0.0073858406	0	939.0281131098272
3.0199517	0.00057543994	0.3	4.4332508	3.8285941	-0.0076750418	-0.0099660613	0.025276404	-0.0048105266	0.0074953439	0	939.4787966762187
3.0199517	0.00063095734	0.3	4.4790946	3.7285201	-0.0074278307	-0.010327547	0.026071088	-0.0043737028	0.0076105096	0	939.9350649250939
3.0199517	0.00069183097	0.3	4.5235221	3.6248473	-0.0071852166	-0.010698175	0.026890946	-0.0039324166	0.0077185704	0	940.3941097774914
3.0199517	0.00075857758	0.3	4.558131	3.5058356	-0.0069565978	-0.011079166	0.027735877	-0.0034871533	0.0077813065	0	940.8470724475524
3.0199517	0.00083176377	0.3	4.5708648	3.3549224	-0.0067560871	-0.011472729	0.028604827	-0.0030395108	0.0077438837	0	941.2803959468413
3.0199517	0.00091201084	0.3	4.5656963	3.1783165	-0.0065814458	-0.011880479	0.029497371	-0.002591605	0.0076241426	0	941.6960638857254
3.0199517	0.001	0.3	4.555842	2.9949359	-0.0064196685	-0.012303736	0.030413415	-0.0021445265	0.0074817989	0	942.1062691916645
3.0199517	0.0010964782	0.3	4.5491114	2.8158806	-0.0062625876	-0.012743367	0.031353353	-0.0016983008	0.007352505	0	942.5187969152357
3.0199517	0.0012022644	0.3	4.5486203	2.6456405	-0.006106794	-0.013199367	0.032318492	-0.0012524428	0.0072511772	0	942.9372185322477
3.0199517	0.0013182567	0.3	4.5553461	2.4856637	-0.0059511377	-0.013671206	0.033310699	-0.00080628291	0.0071831393	0	943.3631407934051
3.0199517	0.0014454398	0.3	4.5696094	2.3362405	-0.0057949833	-0.014158832	0.034331406	-0.00035909677	0.0071500495	0	943.7975643358059
3.0199517	0.0015848932	0.3	4.5918457	2.1974121	-0.0056371008	-0.014663694	0.035380588	0.000089873506	0.0071527975	0	944.2416377780903
3.0199517	0.0017378008	0.3	4.622804	2.0692771	-0.0054753647	-0.015188965	0.036456535	0.00054144399	0.0071925163	0	944.6968761693855
3.0199517	0.0019054607	0.3	4.6633555	1.9519419	-0.0053071704	-0.015738753	0.037556649	0.00099651256	0.0072704458	0	945.1649944043679
3.0199517	0.0020892961	0.3	4.7142076	1.8453609	-0.0051301154	-0.016316853	0.038678689	0.0014560567	0.0073874172	0	945.6476181190064
3.0199517	0.0022908677	0.3	4.7757146	1.7492215	-0.0049425566	-0.016925653	0.039821871	0.0019211068	0.007543456	0	946.146070127357
3.0199517	0.0025118864	0.3	4.8478236	1.6629123	-0.0047439147	-0.017565438	0.040987559	0.002392708	0.0077376421	0	946.6612791897685
3.0199517	0.0027542287	0.3	4.9301123	1.5855571	-0.0045347688	-0.018234076	0.04217959	0.0028718816	0.0079681804	0	947.1937827376207
3.0199517	0.0030199517	0.3	5.0218577	1.5160768	-0.0043168804	-0.018926796	0.043404486	0.0033595922	0.0082325674	0	947.7437640801138
3.0199517	0.0033113112	0.3	5.122073	1.4532388	-0.0040933418	-0.019635665	0.04467199	0.0038567205	0.0085277219	0	948.3110640548773
3.0199517	0.0036307805	0.3	5.2294424	1.3956498	-0.0038691093	-0.020348127	0.045996519	0.0043640363	0.008849935	0	948.8950896082622
3.0199517	0.0039810717	0.3	5.3420694	1.3416472	-0.0036522405	-0.021043924	0.047400253	0.0048821537	0.0091944772	0	949.4945219663434
3.0199517	0.0043651583	0.3	5.4571181	1.289144	-0.0034553838	-0.021691652	0.048916573	0.0054114575	0.0095550254	0	950.1068862200323
3.0199517	0.0047863009	0.3	5.5714081	1.2360174	-0.0032929666	-0.022256292	0.050582539	0.0059520235	0.0099248317	0	950.7290729717597
3.0199517	0.0052480746	0.3	5.6839369	1.181533	-0.0031703867	-0.022726013	0.052412085	0.0065037002	0.010301385	0	951.3599382067555
3.0199517	0.0057543994	0.3	5.7967801	1.1267771	-0.0030800769	-0.023121138	0.054387054	0.0070663993	0.010688087	0	952.0014738975182
3.0199517	0.0063095734	0.3	5.9127825	1.0733171	-0.0030101648	-0.023472804	0.056478545	0.0076402947	0.011090151	0	952.6566886262549
3.0199517	0.0069183097	0.3	6.0335783	1.0222279	-0.0029506475	-0.02380951	0.058660361	0.0082257911	0.011511437	0	953.3275966331632
3.0199517	0.0075857758	0.3	6.1583288	0.97380197	-0.0028944232	-0.024158762	0.060907369	0.0088233433	0.011953338	0	954.0137862946631
3.0199517	0.0083176377	0.3	6.2831584	0.92747788	-0.0028358776	-0.024554756	0.063187821	0.0094331656	0.012414266	0	954.7115838162795
3.0199517	0.0091201084	0.3	6.407007	0.88301537	-0.0027639933	-0.025040895	0.065460838	0.01005514	0.012893329	0	955.4198182177167
3.0199517	0.01	0.3	6.5410831	0.84280961	-0.0026558747	-0.025655136	0.067691063	0.010689626	0.013398586	0	956.1500353477785
3.0199517	0.010964782	0.3	6.6973991	0.8094796	-0.0024985146	-0.026395309	0.069883347	0.011338301	0.013940131	0	956.9158236703388
3.0199517	0.012022644	0.3	6.8746555	0.78195395	-0.0023098301	-0.027201696	0.072100173	0.012003375	0.014516732	0	957.7179609575946
3.0199517	0.013182567	0.3	7.0666662	0.75783779	-0.0021125418	-0.028017548	0.074401139	0.012686592	0.015122435	0	958.5518985857734
3.0199517	0.014454398	0.3	7.2696425	0.73567445	-0.0019175646	-0.028818737	0.076813311	0.013389189	0.015753794	0	959.4150103757654
3.0199517	0.015848932	0.3	7.4819731	0.71479397	-0.0017284849	-0.029598775	0.079346207	0.014112149	0.01640964	0	960.3066095052998
3.0199517	0.017378008	0.3	7.7030936	0.69489334	-0.0015460632	-0.030357307	0.082003304	0.014856357	0.017089883	0	961.2269614955449
3.0199517	0.019054607	0.3	7.9328904	0.67582528	-0.0013701363	-0.031095653	0.084786502	0.015622665	0.017794903	0	962.1767552358144
3.0199517	0.020892961	0.3	8.1713454	0.65748365	-0.0012009384	-0.031813581	0.087699352	0.016411925	0.01852521	0	963.1567715988715
3.0199517	0.022908677	0.3	8.4180365	0.6396644	-0.0010420419	-0.03250132	0.090755048	0.017224972	0.019280982	0	964.1673730690279
3.0199517	0.025118864	0.3	8.6713358	0.62183638	-0.00090652332	-0.033122124	0.093993865	0.018062543	0.02006125	0	965.2076256995343
3.0199517	0.027542287	0.3	8.9295728	0.60338829	-0.00081250308	-0.033623325	0.097472109	0.018925189	0.0208646	0	966.2763751216105
3.0199517	0.030199517	0.3	9.194693	0.58462404	-0.00075833848	-0.034005423	0.10119303	0.019813457	0.021692556	0	967.3760808354734
3.0199517	0.033113112	0.3	9.4703397	0.56637329	-0.00072767738	-0.03431101	0.10511791	0.020728204	0.022548642	0	968.5111933178986
3.0199517	0.036307805	0.3	9.7588347	0.54916	-0.00070775157	-0.034574534	0.10921627	0.021670589	0.023435699	0	969.6851180328931
3.0199517	0.039810717	0.3	10.061306	0.53316941	-0.00069147143	-0.034815335	0.11347291	0.022641933	0.024355646	0	970.9002317237575
3.0199517	0.043651583	0.3	10.378367	0.5184089	-0.00067496448	-0.035043704	0.11788175	0.023643638	0.025309909	0	972.1584590713198
3.0199517	0.047863009	0.3	10.710492	0.50480993	-0.0006559279	-0.035265165	0.12244166	0.024677159	0.02629972	0	973.4616452128059
3.0199517	0.052480746	0.3	11.058164	0.49227704	-0.00063281602	-0.035482663	0.12715419	0.025743996	0.027326273	0	974.8116793040779
3.0199517	0.057543994	0.3	11.421935	0.48070937	-0.00060445641	-0.035697626	0.13202257	0.026845698	0.028390794	0	976.2105733585635
3.0199517	0.063095734	0.3	11.80244	0.47000922	-0.00056986869	-0.035910501	0.13705113	0.027983874	0.029494578	0	977.6604690027295
3.0199517	0.069183097	0.3	11.567361	0.46794421	-0.0010314417	-0.036722188	0.14164391	0.029150336	0.030654402	0	978.5213560804902
3.0199517	0.075857758	0.3	10.761134	0.47352422	-0.0019303627	-0.038529376	0.14540933	0.030239126	0.031761128	0	978.7381185045622
3.0199517	0.083176377	0.3	10.025846	0.47861324	-0.0027501884	-0.040841266	0.14884344	0.031232115	0.032770474	0	978.9358099130293
3.0199517	0.091201084	0.3	9.3552555	0.48325449	-0.0034978784	-0.043634124	0.15197538	0.032137731	0.033691008	0	979.1161049871714
3.0199517	0.1	0.3	9.9487221	0.45832047	-0.0031498598	-0.045753282	0.1559654	0.033051118	0.034524252	0	980.5677565662288
3.0199517	0.10964782	0.3	11.245527	0.42382746	-0.0020873765	-0.047538592	0.16047943	0.03408759	0.035449857	0	982.8383969129209
3.0199517	0.12022644	0.3	12.854999	0.3913392	-0.00058421062	-0.049406314	0.16510712	0.035266069	0.036523912	0	985.5551246414335
3.0199517	0.13182567	0.3	14.83739	0.36081892	0.0014689753	-0.051401615	0.16980945	0.03662005	0.037779794	0	988.809670888653
3.0199517	0.14454398	0.3	17.268704	0.33223209	0.0042064504	-0.053574959	0.17454225	0.038189664	0.039257525	0	992.7157401056447
3.0199517	0.15848932	0.3	20.246463	0.30554787	0.0077946413	-0.055979685	0.1792587	0.040023497	0.041005589	0	997.4165038429724
3.0199517	0.17378008	0.3	23.895865	0.28074013	0.012440242	-0.058669129	0.18391218	0.042181002	0.043083357	0	1003.0930238601036
3.0199517	0.19054607	0.3	28.375035	0.25778744	0.018397746	-0.061693195	0.1884597	0.044735483	0.045564064	0	1009.9722958571195
3.0199517	0.20892961	0.3	33.877238	0.2366717	0.025973926	-0.065094167	0.19286611	0.047777472	0.048538182	0	1018.3326451166506
3.0199517	0.22908677	0.3	40.627187	0.21737474	0.035525717	-0.068901715	0.19710911	0.051418046	0.052116732	0	1028.5031497047075
3.0199517	0.25118864	0.3	48.868342	0.19987286	0.047447608	-0.073127398	0.20118473	0.05579138	0.056433811	0	1040.8533387943144
3.0199517	0.27542287	0.3	58.839291	0.18412932	0.062145776	-0.077759737	0.20511227	0.061055509	0.061647338	0	1055.7702823040147
3.0199517	0.30199517	0.3	70.740584	0.17008632	0.079999978	-0.082761624	0.20893691	0.067390295	0.067936986	0	1073.6235216211828
3.0199517	0.33113112	0.3	84.698509	0.15765862	0.10131997	-0.088072005	0.21272801	0.074991896	0.075498642	0	1094.7236432261757
3.0199517	0.36307805	0.3	100.73648	0.14673156	0.12630833	-0.093612741	0.21657231	0.084063984	0.084535609	0	1119.2854317580031
3.0199517	0.39810717	0.3	118.76442	0.13716485	0.15504163	-0.099299473	0.220563	0.094806958	0.095247833	0	1147.407099043135
3.0199517	0.43651583	0.3	138.59043	0.1288016	0.18747565	-0.10505341	0.22478799	0.10740722	0.10782121	0	1179.0718766587713
3.0199517	0.47863009	0.3	159.95012	0.12147981	0.22347073	-0.11081062	0.22932064	0.1220285	0.12241896	0	1214.1692228623529
3.0199517	0.52480746	0.3	182.54348	0.11504321	0.26282713	-0.11652674	0.23421499	0.1388066	0.13917637	0	1252.5267011043243
3.0199517	0.57543994	0.3	206.06892	0.10934911	0.30531956	-0.12217724	0.23950559	0.15784756	0.15819903	0	1293.942375301838
3.0199517	0.63095734	0.3	230.24845	0.10427273	0.35072423	-0.12775456	0.24521029	0.17922885	0.179564	0	1338.2110114976658
3.0199517	0.69183097	0.3	254.84235	0.099708407	0.39883644	-0.13326394	0.25133452	0.20300249	0.20332297	0	1385.1418112166184
3.0199517	0.75857758	0.3	279.65515	0.095568634	0.44947963	-0.13871916	0.25787543	0.22919916	0.22950633	0	1434.5680814721254
3.0199517	0.83176377	0.3	304.53538	0.091782086	0.50250856	-0.14413904	0.26482553	0.25783253	0.25812754	0	1486.3512485894114
3.0199517	0.91201084	0.3	329.3719	0.088291162	0.55780863	-0.14954479	0.27217526	0.28890348	0.28918726	0	1540.3809437059426
3.0199517	1.	0.3	354.08849	0.08504958	0.6152934	-0.15495825	0.27991481	0.3224037	0.32267707	0	1596.5731856520401
3.0199517	1.0964782	0.3	378.63814	0.082020212	0.67490124	-0.16040075	0.28803524	0.35831894	0.35858257	0	1654.8675491009144
3.0199517	1.2022644	0.3	402.99756	0.079173252	0.73659191	-0.16589255	0.29652909	0.3966315	0.39688598	0	1715.2241231956277
3.0199517	1.3182567	0.3	427.16236	0.0764847	0.80034344	-0.17145249	0.30539069	0.43732239	0.43756822	0	1777.6206674847815
3.0199517	1.4454398	0.3	451.14288	0.07393515	0.86614932	-0.17709799	0.31461622	0.48037293	0.48061057	0	1842.0499886560547
3.0199517	1.5848932	0.3	474.9608	0.071508823	0.93401612	-0.18284503	0.32420371	0.52576604	0.52599588	0	1908.5177043706763
3.0199517	1.7378008	0.3	498.64637	0.069192812	1.0039616	-0.18870833	0.33415291	0.5734872	0.5737096	0	1977.0404308418606
3.0199517	1.9054607	0.3	522.23614	0.066976481	1.076013	-0.19470144	0.34446516	0.62352519	0.62374046	0	2047.6441395350116
3.0199517	2.0892961	0.3	545.77122	0.064850999	1.1502059	-0.20083694	0.35514326	0.6758726	0.67608104	0	2120.363049420177
3.0199517	2.2908677	0.3	569.29592	0.062808973	1.2265829	-0.20712654	0.36619135	0.73052621	0.73072809	0	2195.238352921431
3.0199517	2.5118864	0.3	592.85663	0.060844162	1.3051932	-0.21358127	0.37761473	0.78748728	0.78768284	0	2272.317770562901
3.0199517	2.7542287	0.3	616.50103	0.05895125	1.3860913	-0.22021158	0.38941981	0.84676166	0.84695114	0	2351.65431544033
3.0199517	3.0199517	0.3	640.27749	0.057125669	1.4693371	-0.22702747	0.40161398	0.90835992	0.90854353	0	2433.306350534562
3.0199517	3.3113112	0.3	664.23452	0.055363453	1.5549951	-0.23403855	0.41420553	0.97229738	0.97247533	0	2517.336814509701
3.0199517	3.6307805	0.3	688.42053	0.053661134	1.6431341	-0.24125417	0.4272036	1.0385941	1.0387666	0	2603.812925750013
3.0199517	3.9810717	0.3	712.88351	0.052015645	1.7338271	-0.24868348	0.44061808	1.107275	1.1074421	0	2692.8060602164433
3.0199517	4.3651583	0.3	737.67095	0.050424254	1.8271508	-0.2563355	0.45445963	1.1783694	1.1785314	0	2784.391287301326
3.0199517	4.7863009	0.3	762.82964	0.048884505	1.9231859	-0.26421915	0.46873955	1.2519114	1.2520685	0	2878.6476150549424
3.0199517	5.2480746	0.3	788.4057	0.047394171	2.0220163	-0.27234335	0.48346985	1.3279398	1.3280922	0	2975.6572582641143
3.0199517	5.7543994	0.3	814.44454	0.045951219	2.1237299	-0.280717	0.49866314	1.4064977	1.4066454	0	3075.5063590988243
3.0199517	6.3095734	0.3	840.99086	0.044553781	2.2284178	-0.2893491	0.51433266	1.4876326	1.4877758	0	3178.2842439160286
3.0199517	6.9183097	0.3	868.08868	0.043200125	2.3361746	-0.29824869	0.53049225	1.5713965	1.5715353	0	3284.083696673171
3.0199517	7.5857758	0.3	895.78144	0.041888641	2.4470984	-0.30742498	0.54715636	1.6578455	1.6579801	0	3393.0009617468777
3.0199517	8.3176377	0.3	924.11199	0.040617818	2.5612907	-0.31688727	0.56434002	1.74704	1.7471706	0	3505.1356415203363
3.0199517	9.1201084	0.3	953.12274	0.039386238	2.6788566	-0.32664508	0.58205883	1.8390448	1.8391714	0	3620.590881477672
3.0199517	10.	0.3	982.85567	0.03819256	2.7999046	-0.3367081	0.60032901	1.9339285	1.9340512	0	3739.4731963843506