3.0199517	1.e-12	0.27	6.5037322e6	8.631055e6	-0.070582184	-0.0045668248	-0.0045668241	-6922.1366	20819.807	0	872.0902515716213
3.0199517	1.0964782e-12	0.27	5.9314745e6	7.8716177e6	-0.070286145	-0.0045668248	-0.004566824	-6313.0699	18987.89	0	872.3683995836382
3.0199517	1.2022644e-12	0.27	5.4095694e6	7.1790028e6	-0.069990106	-0.0045668248	-0.0045668239	-5757.5945	17317.162	0	872.6465475956551
3.0199517	1.3182567e-12	0.27	4.9335862e6	6.5473305e6	-0.069694067	-0.0045668248	-0.0045668238	-5250.9949	15793.44	0	872.924695607672
3.0199517	1.4454398e-12	0.27	4.4994843e6	5.9712384e6	-0.069398029	-0.0045668248	-0.0045668238	-4788.9705	14403.789	0	873.2028426547553
3.0199517	1.5848932e-12	0.27	4.1035788e6	5.4458362e6	-0.06910199	-0.0045668248	-0.0045668236	-4367.5992	13136.412	0	873.4809906921405
3.0199517	1.7378008e-12	0.27	3.7425086e6	4.9666637e6	-0.068805951	-0.0045668248	-0.0045668235	-3983.304	11980.551	0	873.7591387041575
3.0199517	1.9054607e-12	0.27	3.4132086e6	4.5296532e6	-0.068509912	-0.0045668248	-0.0045668234	-3632.8225	10926.392	0	874.0372867161743
3.0199517	2.0892961e-12	0.27	3.1128835e6	4.1310948e6	-0.068213873	-0.0045668248	-0.0045668233	-3313.1797	9964.9887	0	874.3154347281911
3.0199517	2.2908677e-12	0.27	2.8389838e6	3.7676053e6	-0.067917834	-0.0045668248	-0.0045668231	-3021.6619	9088.1781	0	874.5935827655765
3.0199517	2.5118864e-12	0.27	2.5891843e6	3.4360988e6	-0.067621795	-0.0045668248	-0.004566823	-2755.7944	8288.5173	0	874.8717307775933
3.0199517	2.7542287e-12	0.27	2.3613644e6	3.1337614e6	-0.067325757	-0.0045668248	-0.0045668228	-2513.3205	7559.2181	0	875.149877875413
3.0199517	3.0199517e-12	0.27	2.1535902e6	2.8580264e6	-0.067029718	-0.0045668248	-0.0045668226	-2292.1815	6894.0892	0	875.4280259127983
3.0199517	3.3113112e-12	0.27	1.9640978e6	2.606553e6	-0.066733679	-0.0045668248	-0.0045668224	-2090.5004	6287.4844	0	875.7061739501835
3.0199517	3.6307805e-12	0.27	1.7912788e6	2.3772066e6	-0.06643764	-0.0045668248	-0.0045668221	-1906.565	5734.2544	0	875.984322012937
3.0199517	3.9810717e-12	0.27	1.633666e6	2.1680401e6	-0.066141601	-0.0045668248	-0.0045668219	-1738.8139	5229.7026	0	876.262470050322
3.0199517	4.3651583e-12	0.27	1.4899213e6	1.9772781e6	-0.065845562	-0.0045668248	-0.0045668216	-1585.823	4769.5458	0	876.5406181130755
3.0199517	4.7863009e-12	0.27	1.3588247e6	1.803301e6	-0.065549524	-0.0045668248	-0.0045668213	-1446.2937	4349.8779	0	876.8187652362636
3.0199517	5.2480746e-12	0.27	1.2392631e6	1.644632e6	-0.065253485	-0.0045668248	-0.004566821	-1319.0414	3967.1362	0	877.096913299017
3.0199517	5.7543994e-12	0.27	1.1302216e6	1.4999241e6	-0.064957446	-0.0045668249	-0.0045668207	-1202.9858	3618.0715	0	877.3750613617705
3.0199517	6.3095734e-12	0.27	1.0307746e6	1.367949e6	-0.064661407	-0.0045668248	-0.0045668202	-1097.1419	3299.7209	0	877.6532094752604
3.0199517	6.9183097e-12	0.27	940077.91	1.2475862e6	-0.064365368	-0.0045668248	-0.0045668198	-1000.6111	3009.3816	0	877.9313575633821
3.0199517	7.5857758e-12	0.27	857361.51	1.1378141e6	-0.064069329	-0.0045668249	-0.0045668193	-912.57395	2744.589	0	878.2095056768723
3.0199517	8.3176377e-12	0.27	781923.26	1.0377007e6	-0.063773291	-0.0045668248	-0.0045668188	-832.28308	2503.0954	0	878.4876528507968
3.0199517	9.1201084e-12	0.27	713122.75	946396.18	-0.063477252	-0.0045668248	-0.0045668182	-759.0569	2282.8505	0	878.765800989655
3.0199517	1.e-11	0.27	650375.94	863125.46	-0.063181213	-0.0045668249	-0.0045668176	-692.27379	2081.9848	0	879.0439491285132
3.0199517	1.0964782e-11	0.27	593150.18	787181.66	-0.062885174	-0.0045668248	-0.0045668168	-631.36686	1898.7931	0	879.322097318108
3.0199517	1.2022644e-11	0.27	540959.65	717920.07	-0.062589135	-0.0045668249	-0.0045668161	-575.81904	1731.7203	0	879.6002454823345
3.0199517	1.3182567e-11	0.27	493361.34	654752.76	-0.062293096	-0.0045668248	-0.0045668152	-525.15881	1579.348	0	879.8783936972975
3.0199517	1.4454398e-11	0.27	449951.15	597143.47	-0.061997058	-0.0045668249	-0.0045668143	-478.95611	1440.3829	0	880.1565409726953
3.0199517	1.5848932e-11	0.27	410360.59	544603.16	-0.061701019	-0.0045668249	-0.0045668133	-436.81871	1313.6452	0	880.4346892130266
3.0199517	1.7378008e-11	0.27	374253.57	496685.83	-0.06140498	-0.0045668249	-0.0045668122	-398.38892	1198.0591	0	880.712837478726
3.0199517	1.9054607e-11	0.27	341323.58	452984.69	-0.061108941	-0.0045668249	-0.004566811	-363.34052	1092.6433	0	880.990985769794
3.0199517	2.0892961e-11	0.27	311291.07	413128.78	-0.060812902	-0.0045668249	-0.0045668097	-331.37596	996.5029	0	881.26913408623
3.0199517	2.2908677e-11	0.27	283901.1	376779.74	-0.060516863	-0.004566825	-0.0045668082	-302.22391	908.82183	0	881.5472824534025
3.0199517	2.5118864e-11	0.27	258921.15	343629.01	-0.060220825	-0.0045668249	-0.0045668066	-275.63691	828.85576	0	881.8254299063781
3.0199517	2.7542287e-11	0.27	236139.16	313395.19	-0.059924786	-0.0045668249	-0.0045668049	-251.38924	755.92583	0	882.1035783242874
3.0199517	3.0199517e-11	0.27	215361.73	285821.6	-0.059628747	-0.004566825	-0.004566803	-229.27508	689.41294	0	882.381726792933
3.0199517	3.3113112e-11	0.27	196412.5	260674.18	-0.059332708	-0.004566825	-0.0045668008	-209.1067	628.75247	0	882.6598753376834
3.0199517	3.6307805e-11	0.27	179130.6	237739.45	-0.059036669	-0.004566825	-0.0045667985	-190.71289	573.42946	0	882.9380239078022
3.0199517	3.9810717e-11	0.27	163369.31	216822.73	-0.05874063	-0.004566825	-0.004566796	-173.93751	522.97427	0	883.2161725286576
3.0199517	4.3651583e-11	0.27	148994.85	197746.44	-0.058444592	-0.004566825	-0.0045667932	-158.63816	476.9586	0	883.4943202860521
3.0199517	4.7863009e-11	0.27	135885.18	180348.65	-0.058148553	-0.0045668251	-0.0045667902	-144.68496	434.99181	0	883.7724690337486
3.0199517	5.2480746e-11	0.27	123929.03	164481.66	-0.057852514	-0.0045668251	-0.0045667868	-131.95947	396.71764	0	884.0506178829183
3.0199517	5.7543994e-11	0.27	113024.88	150010.8	-0.057556475	-0.0045668251	-0.0045667832	-120.35365	361.81118	0	884.3287667828245
3.0199517	6.3095734e-11	0.27	103080.18	136813.2	-0.057260436	-0.0045668251	-0.0045667791	-109.76899	329.97611	0	884.6069158095721
3.0199517	6.9183097e-11	0.27	94010.51	124776.84	-0.056964398	-0.0045668252	-0.0045667747	-100.11564	300.94218	0	884.885063972859
3.0199517	7.5857758e-11	0.27	85738.869	113799.54	-0.056668359	-0.0045668252	-0.0045667699	-91.31166	274.46293	0	885.1632131771843
3.0199517	8.3176377e-11	0.27	78195.044	103788.12	-0.05637232	-0.0045668252	-0.0045667646	-83.282306	250.31356	0	885.441362508351
3.0199517	9.1201084e-11	0.27	71314.993	94657.585	-0.056076281	-0.0045668253	-0.0045667588	-75.95942	228.28907	0	885.719511966359
3.0199517	1.e-10	0.27	65040.312	86330.431	-0.055780242	-0.0045668254	-0.0045667524	-69.280844	208.2025	0	885.9976615765765
3.0199517	1.0964782e-10	0.27	59317.735	78735.967	-0.055484203	-0.0045668254	-0.0045667454	-63.189884	189.88333	0	886.2758113390038
3.0199517	1.2022644e-10	0.27	54098.684	71809.727	-0.055188165	-0.0045668255	-0.0045667378	-57.634837	173.17605	0	886.5539603140752
3.0199517	1.3182567e-10	0.27	49338.851	65492.912	-0.054892126	-0.0045668256	-0.0045667294	-52.568547	157.93883	0	886.832110431658
3.0199517	1.4454398e-10	0.27	44997.833	59731.901	-0.054596087	-0.0045668256	-0.0045667202	-47.94801	144.04231	0	887.1102607521871
3.0199517	1.5848932e-10	0.27	41038.777	54477.787	-0.054300048	-0.0045668257	-0.0045667101	-43.734004	131.36855	0	887.3884113010303
3.0199517	1.7378008e-10	0.27	37428.075	49685.971	-0.054004009	-0.0045668258	-0.004566699	-39.890758	119.80993	0	887.6665621035563
3.0199517	1.9054607e-10	0.27	34135.076	45315.774	-0.053707971	-0.0045668259	-0.0045666869	-36.385651	109.26835	0	887.9447122201996
3.0199517	2.0892961e-10	0.27	31131.825	41330.099	-0.053411932	-0.004566826	-0.0045666736	-33.188929	99.654311	0	888.2228635808274
3.0199517	2.2908677e-10	0.27	28392.828	37695.113	-0.053115893	-0.0045668261	-0.004566659	-30.273458	90.886206	0	888.5010152712427
3.0199517	2.5118864e-10	0.27	25894.832	34379.958	-0.052819854	-0.0045668262	-0.004566643	-27.614491	82.889598	0	888.7791673168138
3.0199517	2.7542287e-10	0.27	23616.633	31356.492	-0.052523816	-0.0045668264	-0.0045666255	-25.189458	75.596604	0	889.0573188033432
3.0199517	3.0199517e-10	0.27	21538.891	28599.05	-0.052227777	-0.0045668265	-0.0045666062	-22.977775	68.945316	0	889.3354716860669
3.0199517	3.3113112e-10	0.27	19643.968	26084.225	-0.051931738	-0.0045668267	-0.0045665852	-20.960671	62.879269	0	889.6136250000512
3.0199517	3.6307805e-10	0.27	17915.778	23790.67	-0.051635699	-0.0045668269	-0.004566562	-19.121024	57.346968	0	889.8917788721371
3.0199517	3.9810717e-10	0.27	16339.649	21698.915	-0.051339661	-0.0045668271	-0.0045665366	-17.44322	52.30145	0	890.1699323627595
3.0199517	4.3651583e-10	0.27	14902.203	19791.203	-0.051043622	-0.0045668273	-0.0045665088	-15.913018	47.699882	0	890.4480874017859
3.0199517	4.7863009e-10	0.27	13591.236	18051.341	-0.050747583	-0.0045668275	-0.0045664784	-14.517431	43.503203	0	890.7262431003868
3.0199517	5.2480746e-10	0.27	12395.621	16464.56	-0.050451544	-0.0045668278	-0.004566445	-13.244615	39.675786	0	891.0043995600358
3.0199517	5.7543994e-10	0.27	11305.206	15017.39	-0.050155506	-0.004566828	-0.0045664083	-12.083767	36.18514	0	891.2825559172722
3.0199517	6.3095734e-10	0.27	10310.736	13697.547	-0.049859467	-0.0045668284	-0.0045663681	-11.025035	33.001633	0	891.5607141019631
3.0199517	6.9183097e-10	0.27	9403.7689	12493.829	-0.049563428	-0.0045668287	-0.004566324	-10.059434	30.09824	0	891.8388732760163
3.0199517	7.5857758e-10	0.27	8576.6049	11396.016	-0.04926739	-0.0045668291	-0.0045662758	-9.1787689	27.450315	0	892.1170325506031
3.0199517	8.3176377e-10	0.27	7822.2224	10394.791	-0.048971351	-0.0045668295	-0.0045662227	-8.375567	25.035378	0	892.3951940078001
3.0199517	9.1201084e-10	0.27	7134.2173	9481.6543	-0.048675312	-0.00456683	-0.0045661647	-7.6430121	22.832929	0	892.6733567080423
3.0199517	1.e-9	0.27	6506.7493	8648.856	-0.048379274	-0.0045668305	-0.004566101	-6.974888	20.824272	0	892.95151991471
3.0199517	1.0964782e-9	0.27	5934.4916	7889.3268	-0.048083235	-0.004566831	-0.0045660311	-6.3655256	18.992355	0	893.2296856337755
3.0199517	1.2022644e-9	0.27	5412.5864	7196.6198	-0.047787197	-0.0045668316	-0.0045659546	-5.8097544	17.321627	0	893.507852087581
3.0199517	1.3182567e-9	0.27	4936.6032	6564.8555	-0.047491158	-0.0045668323	-0.0045658706	-5.302859	15.797905	0	893.7860213835718
3.0199517	1.4454398e-9	0.27	4502.5014	5988.6714	-0.04719512	-0.004566833	-0.0045657786	-4.8405388	14.408254	0	894.0641917694584
3.0199517	1.5848932e-9	0.27	4106.5958	5463.1772	-0.046899081	-0.0045668338	-0.0045656776	-4.4188718	13.140877	0	894.3423653780542
3.0199517	1.7378008e-9	0.27	3745.5257	4983.9128	-0.046603043	-0.0045668346	-0.0045655669	-4.0342809	11.985016	0	894.6205405078064
3.0199517	1.9054607e-9	0.27	3416.2257	4546.8102	-0.046307005	-0.0045668356	-0.0045654456	-3.6835036	10.930857	0	894.8987183265945
3.0199517	2.0892961e-9	0.27	3115.9007	4148.1598	-0.046010966	-0.0045668366	-0.0045653125	-3.363565	9.9694538	0	895.1769000784029
3.0199517	2.2908677e-9	0.27	2842.0009	3784.5783	-0.045714928	-0.0045668377	-0.0045651666	-3.0717514	9.0926433	0	895.4550841377841
3.0199517	2.5118864e-9	0.27	2592.2014	3452.9799	-0.04541889	-0.0045668389	-0.0045650066	-2.8055883	8.2929826	0	895.7332717740906
3.0199517	2.7542287e-9	0.27	2364.3815	3150.5504	-0.045122852	-0.0045668404	-0.0045648313	-2.5628185	7.5636833	0	896.0114632917414
3.0199517	3.0199517e-9	0.27	2156.6074	2874.7234	-0.044826814	-0.0045668419	-0.0045646389	-2.3413838	6.8985546	0	896.2896591473656
3.0199517	3.3113112e-9	0.27	1967.1151	2623.1581	-0.044530776	-0.0045668435	-0.004564428	-2.1394069	6.29195	0	896.5678596961186
3.0199517	3.6307805e-9	0.27	1794.296	2393.7196	-0.044234738	-0.0045668453	-0.0045641968	-1.9551757	5.7387199	0	896.8460653946292
3.0199517	3.9810717e-9	0.27	1636.6832	2184.4612	-0.0439387	-0.0045668473	-0.0045639433	-1.7871288	5.2341682	0	897.1242767502629
3.0199517	4.3651583e-9	0.27	1492.9386	1993.6071	-0.043642662	-0.0045668494	-0.0045636652	-1.6338422	4.7740116	0	897.4024943464896
3.0199517	4.7863009e-9	0.27	1361.842	1819.5381	-0.043346625	-0.0045668518	-0.0045633604	-1.4940171	4.3543437	0	897.6807177764775
3.0199517	5.2480746e-9	0.27	1242.2805	1660.7771	-0.043050587	-0.0045668545	-0.0045630262	-1.366469	3.9716021	0	897.9589496043009
3.0199517	5.7543994e-9	0.27	1133.2391	1515.9773	-0.04275455	-0.0045668573	-0.0045626597	-1.2501177	3.6225377	0	898.237188686508
3.0199517	6.3095734e-9	0.27	1033.7921	1383.9102	-0.042458512	-0.0045668604	-0.0045622578	-1.143978	3.3041872	0	898.5154376886461
3.0199517	6.9183097e-9	0.27	943.09546	1263.4554	-0.042162475	-0.0045668639	-0.0045618172	-1.0471513	3.0138481	0	898.7936955687371
3.0199517	7.5857758e-9	0.27	860.37913	1153.5913	-0.041866438	-0.0045668676	-0.0045613341	-0.95881838	2.7490557	0	899.0719642303407
3.0199517	8.3176377e-9	0.27	784.94094	1053.3859	-0.041570402	-0.0045668718	-0.0045608044	-0.87823167	2.5075622	0	899.3502437739901
3.0199517	9.1201084e-9	0.27	716.14051	961.98945	-0.041274365	-0.0045668763	-0.0045602235	-0.80470968	2.2873176	0	899.6285372457562
3.0199517	1.e-8	0.27	653.39378	878.62678	-0.040978329	-0.0045668813	-0.0045595866	-0.73763075	2.0864522	0	899.9068439841851
3.0199517	1.0964782e-8	0.27	596.1681	802.59102	-0.040682293	-0.0045668868	-0.0045588883	-0.67642797	1.9032608	0	900.1851662987283
3.0199517	1.2022644e-8	0.27	543.97767	733.23749	-0.040386257	-0.0045668928	-0.0045581226	-0.62058432	1.7361882	0	900.4635057114818
3.0199517	1.3182567e-8	0.27	496.37946	669.97823	-0.040090221	-0.0045668993	-0.0045572831	-0.56962823	1.5838164	0	900.7418638460144
3.0199517	1.4454398e-8	0.27	452.96939	612.27701	-0.039794186	-0.0045669065	-0.0045563625	-0.52312966	1.4448516	0	901.0202416146443
3.0199517	1.5848932e-8	0.27	413.37896	559.64478	-0.039498151	-0.0045669144	-0.0045553531	-0.48069639	1.3181143	0	901.2986419102929
3.0199517	1.7378008e-8	0.27	377.27208	511.63553	-0.039202117	-0.0045669231	-0.0045542464	-0.44197071	1.2025286	0	901.5770659496973
3.0199517	1.9054607e-8	0.27	344.34224	467.84249	-0.038906083	-0.0045669325	-0.0045530328	-0.4066264	1.0971133	0	901.8555171077768
3.0199517	2.0892961e-8	0.27	314.30989	427.89467	-0.038610049	-0.0045669429	-0.0045517022	-0.37436592	1.0009735	0	902.1339979467253
3.0199517	2.2908677e-8	0.27	286.9201	391.45374	-0.038314016	-0.0045669543	-0.0045502433	-0.34491794	0.91329299	0	902.4125103935919
3.0199517	2.5118864e-8	0.27	261.94035	358.21113	-0.038017984	-0.0045669668	-0.0045486435	-0.31803497	0.83332756	0	902.6910576447779
3.0199517	2.7542287e-8	0.27	239.15858	327.88544	-0.037721952	-0.0045669806	-0.0045468895	-0.29349133	0.76039833	0	902.9696440138274
3.0199517	3.0199517e-8	0.27	218.3814	300.22001	-0.037425921	-0.0045669956	-0.0045449661	-0.27108117	0.69388622	0	903.2482724171518
3.0199517	3.3113112e-8	0.27	199.43243	274.98075	-0.03712989	-0.0045670121	-0.0045428573	-0.25061677	0.6332266	0	903.5269478532383
3.0199517	3.6307805e-8	0.27	182.15081	251.95421	-0.03683386	-0.0045670301	-0.004540545	-0.23192691	0.57790452	0	903.8056739741777
3.0199517	3.9810717e-8	0.27	166.38985	230.94569	-0.036537832	-0.0045670499	-0.0045380096	-0.21485546	0.52745036	0	904.0844548125842
3.0199517	4.3651583e-8	0.27	152.01573	211.77762	-0.036241804	-0.0045670717	-0.0045352296	-0.19925999	0.4814358	0	904.363297701766
3.0199517	4.7863009e-8	0.27	138.90644	194.28807	-0.035945777	-0.0045670955	-0.0045321815	-0.18501064	0.43947024	0	904.6422076636991
3.0199517	5.2480746e-8	0.27	126.9507	178.32936	-0.035649752	-0.0045671217	-0.0045288393	-0.17198896	0.40119741	0	904.9211903545672
3.0199517	5.7543994e-8	0.27	116.04702	163.76678	-0.035353727	-0.0045671504	-0.0045251747	-0.16008691	0.36629242	0	905.20025483272
3.0199517	6.3095734e-8	0.27	106.10282	150.47751	-0.035057704	-0.0045671818	-0.0045211565	-0.14920598	0.33445898	0	905.4794071339253
3.0199517	6.9183097e-8	0.27	97.033699	138.34951	-0.034761683	-0.0045672163	-0.0045167508	-0.1392563	0.30542682	0	905.7586558580244
3.0199517	7.5857758e-8	0.27	88.762663	127.28061	-0.034465663	-0.0045672541	-0.00451192	-0.13015593	0.27894951	0	906.0380114830506
3.0199517	8.3176377e-8	0.27	81.219499	117.17762	-0.034169645	-0.0045672956	-0.0045066234	-0.12183013	0.25480227	0	906.3174833943217
3.0199517	9.1201084e-8	0.27	74.340174	107.95556	-0.03387363	-0.004567341	-0.0045008158	-0.11421073	0.23278012	0	906.5970821187282
3.0199517	1.e-7	0.27	68.066289	99.536926	-0.033577616	-0.0045673909	-0.0044944481	-0.10723556	0.21269611	0	906.8768219912183
3.0199517	1.0964782e-7	0.27	62.344585	91.851037	-0.033281605	-0.0045674456	-0.0044874662	-0.10084793	0.19437975	0	907.1567148568929
3.0199517	1.2022644e-7	0.27	57.12649	84.833427	-0.032985597	-0.0045675055	-0.004479811	-0.094996121	0.17767555	0	907.4367757083958
3.0199517	1.3182567e-7	0.27	52.367706	78.425304	-0.032689591	-0.0045675713	-0.0044714176	-0.089632972	0.16244171	0	907.7170219492962
3.0199517	1.4454398e-7	0.27	48.027838	72.573052	-0.032393589	-0.0045676434	-0.0044622149	-0.084715468	0.1485489	0	907.9974697372995
3.0199517	1.5848932e-7	0.27	44.070042	67.227772	-0.03209759	-0.0045677226	-0.0044521251	-0.080204376	0.13587919	0	908.2781397484806
3.0199517	1.7378008e-7	0.27	40.460723	62.344872	-0.031801595	-0.0045678092	-0.0044410625	-0.076063917	0.12432502	0	908.559052783877
3.0199517	1.9054607e-7	0.27	37.169239	57.88368	-0.031505605	-0.0045679044	-0.0044289338	-0.072261453	0.11378832	0	908.8402315725139
3.0199517	2.0892961e-7	0.27	34.167649	53.807108	-0.031209619	-0.0045680088	-0.0044156364	-0.068767219	0.10417963	0	909.1217030817959
3.0199517	2.2908677e-7	0.27	31.430473	50.081331	-0.030913638	-0.0045681232	-0.0044010579	-0.065554065	0.09541739	0	909.4034948860871
3.0199517	2.5118864e-7	0.27	28.934474	46.675502	-0.030617663	-0.0045682487	-0.0043850755	-0.062597228	0.087427211	0	909.6856371980507
3.0199517	2.7542287e-7	0.27	26.658464	43.561493	-0.030321694	-0.0045683863	-0.0043675543	-0.059874121	0.080141265	0	909.9681642394758
3.0199517	3.0199517e-7	0.27	24.58312	40.713647	-0.030025731	-0.0045685373	-0.004348347	-0.057364139	0.0734977	0	910.2511133778154
3.0199517	3.3113112e-7	0.27	22.690826	38.108573	-0.029729776	-0.0045687029	-0.0043272923	-0.055048489	0.067440118	0	910.5345236529499
3.0199517	3.6307805e-7	0.27	20.965517	35.724937	-0.02943383	-0.0045688845	-0.0043042138	-0.052910027	0.061917094	0	910.818438874932
3.0199517	3.9810717e-7	0.27	19.392545	33.543285	-0.029137892	-0.0045690837	-0.0042789184	-0.050933111	0.056881743	0	911.1029089694459
3.0199517	4.3651583e-7	0.27	17.958558	31.545878	-0.028841964	-0.0045693022	-0.0042511955	-0.049103474	0.052291314	0	911.3879854829261
3.0199517	4.7863009e-7	0.27	16.651381	29.716542	-0.028546047	-0.0045695419	-0.0042208149	-0.047408097	0.048106838	0	911.6737258735516
3.0199517	5.2480746e-7	0.27	15.459917	28.040529	-0.028250141	-0.0045698047	-0.0041875254	-0.045835102	0.044292788	0	911.9601938664027
3.0199517	5.7543994e-7	0.27	14.374048	26.504389	-0.027954249	-0.0045700931	-0.0041510536	-0.044373648	0.040816781	0	912.2474559996186
3.0199517	6.3095734e-7	0.27	13.384556	25.095864	-0.027658371	-0.0045704095	-0.0041111016	-0.043013845	0.037649302	0	912.535587845259
3.0199517	6.9183097e-7	0.27	12.483036	23.803775	-0.027362508	-0.0045707566	-0.0040673455	-0.041746661	0.034763452	0	912.8246706315671
3.0199517	7.5857758e-7	0.27	11.661833	22.617932	-0.027066663	-0.0045711373	-0.0040194343	-0.040563855	0.032134721	0	913.1147905824548
3.0199517	8.3176377e-7	0.27	10.91397	21.529046	-0.026770836	-0.004571555	-0.0039669875	-0.0394579	0.029740777	0	913.4060442241689
3.0199517	9.1201084e-7	0.27	10.233091	20.528649	-0.02647503	-0.0045720133	-0.0039095948	-0.038421925	0.027561278	0	913.6985328240021
3.0199517	1.e-6	0.27	9.613409	19.609024	-0.026179247	-0.0045725162	-0.003846814	-0.037449649	0.025577693	0	913.992366681289
3.0199517	1.0964782e-6	0.27	9.0496511	18.763135	-0.025883489	-0.0045730681	-0.003778171	-0.036535337	0.023773147	0	914.2876641878406
3.0199517	1.2022644e-6	0.27	8.5370174	17.984571	-0.025587759	-0.0045736736	-0.0037031594	-0.035673747	0.022132277	0	914.5845509898522
3.0199517	1.3182567e-6	0.27	8.0711376	17.267488	-0.025292058	-0.0045743382	-0.0036212417	-0.034860082	0.020641092	0	914.8831625021801
3.0199517	1.4454398e-6	0.27	7.6480325	16.606559	-0.024996391	-0.0045750677	-0.0035318505	-0.03408996	0.019286857	0	915.1836379665297
3.0199517	1.5848932e-6	0.27	7.2640796	15.996928	-0.024700761	-0.0045758685	-0.0034343916	-0.033359366	0.018057975	0	915.4861253024321
3.0199517	1.7378008e-6	0.27	6.9159799	15.434168	-0.024405171	-0.0045767478	-0.0033282488	-0.032664627	0.016943888	0	915.7907780104372
3.0199517	1.9054607e-6	0.27	6.6007282	14.914238	-0.024109625	-0.0045777132	-0.0032127901	-0.032002378	0.015934978	0	916.0977526597147
3.0199517	2.0892961e-6	0.27	6.3155851	14.433452	-0.023814128	-0.0045787735	-0.0030873762	-0.031369535	0.015022477	0	916.4072067317528
3.0199517	2.2908677e-6	0.27	6.058051	13.98844	-0.023518685	-0.0045799381	-0.0029513714	-0.030763272	0.014198385	0	916.7192967947816
3.0199517	2.5118864e-6	0.27	5.8258417	13.576123	-0.023223301	-0.0045812176	-0.0028041564	-0.030180995	0.013455392	0	917.034175256636
3.0199517	2.7542287e-6	0.27	5.6168653	13.193677	-0.022927984	-0.004582624	-0.0026451439	-0.029620325	0.012786803	0	917.3519835886104
3.0199517	3.0199517e-6	0.27	5.4292021	12.838512	-0.022632738	-0.0045841701	-0.0024737946	-0.029079082	0.012186475	0	917.6728548434938
3.0199517	3.3113112e-6	0.27	5.2610843	12.508245	-0.022337574	-0.0045858704	-0.0022896354	-0.028555263	0.01164875	0	917.9968987033262
3.0199517	3.6307805e-6	0.27	5.1108787	12.20068	-0.022042498	-0.0045877413	-0.0020922765	-0.028047033	0.011168403	0	918.3242084162105
3.0199517	3.9810717e-6	0.27	4.9770707	11.913785	-0.021747521	-0.0045898005	-0.0018814266	-0.027552712	0.010740586	0	918.6548475446821
3.0199517	4.3651583e-6	0.27	4.858251	11.645679	-0.021452654	-0.0045920687	-0.0016569057	-0.027070762	0.01036079	0	918.988851416398
3.0199517	4.7863009e-6	0.27	4.7531047	11.394616	-0.02115791	-0.0045945686	-0.0014186512	-0.026599779	0.010024806	0	919.3262236975423
3.0199517	5.2480746e-6	0.27	4.6604017	11.158973	-0.020863302	-0.0045973261	-0.0011667209	-0.026138484	0.0097286963	0	919.6669375109088
3.0199517	5.7543994e-6	0.27	4.5789911	10.937241	-0.020568846	-0.0046003704	-0.00090128601	-0.025685714	0.0094687766	0	920.0109343904463
3.0199517	6.3095734e-6	0.27	4.507796	10.728021	-0.020274561	-0.0046037348	-0.00062262029	-0.025240415	0.0092415984	0	920.3581270362521
3.0199517	6.9183097e-6	0.27	4.4458115	10.530013	-0.019980468	-0.0046074577	-0.00033108308	-0.024801635	0.0090439413	0	920.7084045591325
3.0199517	7.5857758e-6	0.27	4.3921024	10.342019	-0.019686592	-0.0046115826	-0.000027097974	-0.024368519	0.0088728068	0	921.0616360115079
3.0199517	8.3176377e-6	0.27	4.3458023	10.162934	-0.01939296	-0.0046161607	0.00028886915	-0.023940298	0.0087254129	0	921.4176778399504
3.0199517	9.1201084e-6	0.27	4.3061119	9.991745	-0.019099606	-0.0046212507	0.00061633292	-0.023516285	0.0085991897	0	921.7763749687858
3.0199517	0.00001	0.27	4.2722975	9.8275258	-0.018806568	-0.0046269216	0.0009548083	-0.02309587	0.0084917718	0	922.1375686493158
3.0199517	0.000010964782	0.27	4.243688	9.6694318	-0.018513892	-0.0046332545	0.0013038268	-0.022678509	0.0084009871	0	922.5010968137517
3.0199517	0.000012022644	0.27	4.2148957	9.5168436	-0.018230273	-0.00464694	0.0016563541	-0.022269063	0.0083199835	0	922.8570054564759
3.0199517	0.000013182567	0.27	4.1945099	9.3688074	-0.017939253	-0.0046554659	0.0020246124	-0.021856916	0.008256312	0	923.2238585040359
3.0199517	0.000014454398	0.27	4.1776233	9.2247987	-0.017648843	-0.0046650351	0.00240217	-0.021446593	0.0082037631	0	923.5924974877485
3.0199517	0.000015848932	0.27	4.1637689	9.0842313	-0.017359131	-0.0046758077	0.0027887019	-0.021037772	0.0081607718	0	923.9627572790034
3.0199517	0.000017378008	0.27	4.152515	8.9465608	-0.017070223	-0.0046879744	0.0031839171	-0.020630179	0.0081258646	0	924.3344644622238
3.0199517	0.000019054607	0.27	4.1434589	8.8112756	-0.016782242	-0.0047017628	0.003587551	-0.020223578	0.0080976319	0	924.7074363464438
3.0199517	0.000020892961	0.27	4.1362196	8.6778871	-0.016495329	-0.0047174427	0.0039993571	-0.019817772	0.0080747	0	925.0814779201777
3.0199517	0.000022908677	0.27	4.130431	8.5459208	-0.016209649	-0.0047353348	0.0044190941	-0.019412602	0.0080557036	0	925.4563729415202
3.0199517	0.000025118864	0.27	4.125737	8.4149084	-0.01592539	-0.004755818	0.0048465157	-0.019007943	0.0080392624	0	925.8318822901502
3.0199517	0.000027542287	0.27	4.1217871	8.284382	-0.015642763	-0.0047793365	0.0052813575	-0.018603705	0.0080239625	0	926.2077406440878
3.0199517	0.000030199517	0.27	4.1182341	8.1538711	-0.015362003	-0.0048064063	0.0057233272	-0.018199832	0.0080083474	0	926.5836530540387
3.0199517	0.000033113112	0.27	4.114736	8.0229038	-0.015083364	-0.0048376193	0.006172097	-0.017796301	0.0079909226	0	926.9592977132331
3.0199517	0.000036307805	0.27	4.1109601	7.8910134	-0.014807111	-0.0048736438	0.0066272981	-0.017393125	0.007970177	0	927.3343320786939
3.0199517	0.000039810717	0.27	4.1065923	7.7577513	-0.01453351	-0.0049152203	0.0070885233	-0.016990345	0.0079446254	0	927.7084029264653
3.0199517	0.000043651583	0.27	4.1013503	7.6227054	-0.014262817	-0.0049631519	0.0075553325	-0.016588034	0.0079128719	0	928.0811580820858
3.0199517	0.000047863009	0.27	4.0950002	7.4855256	-0.013995254	-0.0050182868	0.0080272686	-0.01618629	0.007873693	0	928.452273003711
3.0199517	0.000052480746	0.27	4.0873745	7.3459507	-0.013730994	-0.005081497	0.0085038765	-0.015785229	0.0078261315	0	928.8214696955635
3.0199517	0.000057543994	0.27	4.0783893	7.203835	-0.01347014	-0.0051536518	0.0089847277	-0.015384983	0.0077695898	0	929.1885426793993
3.0199517	0.000063095734	0.27	4.0680579	7.0591702	-0.013212711	-0.0052355905	0.0094694465	-0.014985683	0.0077039075	0	929.5533787949075
3.0199517	0.000069183097	0.27	4.0564967	6.9120968	-0.012958628	-0.0053280976	0.0099577338	-0.014587459	0.0076294088	0	929.9159763912712
3.0199517	0.000075857758	0.27	4.0439236	6.7629035	-0.012707717	-0.0054318815	0.010449387	-0.014190419	0.0075469114	0	930.2764475567581
3.0199517	0.000083176377	0.27	4.0306477	6.6120139	-0.012459706	-0.0055475618	0.010944313	-0.013794649	0.0074576918	0	930.6350242352885
3.0199517	0.000091201084	0.27	4.017052	6.4599616	-0.012214247	-0.0056756606	0.011442535	-0.013400199	0.0073634149	0	930.9920392810425
3.0199517	0.0001	0.27	4.0035712	6.3073587	-0.011970924	-0.0058166033	0.011944192	-0.01300708	0.0072660371	0	931.3479188150923
3.0199517	0.00010964782	0.27	3.9906687	6.1548598	-0.011729278	-0.005970721	0.012449539	-0.012615259	0.0071676969	0	931.7031587870085
3.0199517	0.00012022644	0.27	3.9788135	6.0031284	-0.011488828	-0.0061382565	0.012958935	-0.012224654	0.007070606	0	932.0583021997938
3.0199517	0.00013182567	0.27	3.9684608	5.8528061	-0.011249089	-0.0063193715	0.013472842	-0.011835142	0.0069769523	0	932.4139219440244
3.0199517	0.00014454398	0.27	3.9600358	5.7044883	-0.01100959	-0.0065141517	0.013991815	-0.011446553	0.0068888176	0	932.7706013488483
3.0199517	0.00015848932	0.27	3.9539225	5.5587057	-0.010769889	-0.0067226121	0.014516502	-0.01105868	0.0068081165	0	933.1289200885034
3.0199517	0.00017378008	0.27	3.9504557	5.415913	-0.010529584	-0.0069447002	0.015047637	-0.010671279	0.006736553	0	933.4894420713216
3.0199517	0.00019054607	0.27	3.9499168	5.2764815	-0.010288323	-0.0071803005	0.015586036	-0.010284077	0.0066755947	0	933.852705029344
3.0199517	0.00020892961	0.27	3.9525322	5.1406974	-0.01004581	-0.0074292337	0.016132603	-0.0098967737	0.0066264602	0	934.219216403025
3.0199517	0.00022908677	0.27	3.9584737	5.0087629	-0.0098018084	-0.0076912615	0.016688318	-0.0095090527	0.0065901173	0	934.589447102518
3.0199517	0.00025118864	0.27	3.96786	4.8807993	-0.0095561467	-0.0079660891	0.017254244	-0.0091205812	0.0065672881	0	934.9638279279313
3.0199517	0.00027542287	0.27	3.9807591	4.7568517	-0.0093087176	-0.0082533698	0.017831515	-0.0087310177	0.0065584589	0	935.3427473707463
3.0199517	0.00030199517	0.27	3.9971907	4.6368939	-0.0090594799	-0.0085527088	0.018421337	-0.0083400166	0.0065638915	0	935.7265500823241
3.0199517	0.00033113112	0.27	4.0171278	4.5208333	-0.0088084596	-0.0088636726	0.019024979	-0.0079472325	0.0065836336	0	936.1155335572421
3.0199517	0.00036307805	0.27	4.0404975	4.4085141	-0.0085557505	-0.0091857994	0.019643761	-0.007552325	0.0066175248	0	936.5099445253607
3.0199517	0.00039810717	0.27	4.0671801	4.299718	-0.008301518	-0.0095186075	0.020279052	-0.0071549631	0.0066651941	0	936.9099748741116
3.0199517	0.00043651583	0.27	4.0970033	4.1941595	-0.0080460051	-0.009861614	0.020932243	-0.0067548299	0.0067260411	0	937.3157491616732
3.0199517	0.00047863009	0.27	4.1297303	4.0914719	-0.0077895458	-0.010214352	0.021604739	-0.0063516287	0.0067991837	0	937.7273099973343
3.0199517	0.00052480746	0.27	4.1650299	3.9911678	-0.0075325974	-0.010576402	0.022297926	-0.00594509	0.0068833248	0	938.144579322005
3.0199517	0.00057543994	0.27	4.2023957	3.892528	-0.00727582	-0.010947458	0.023013102	-0.0055349844	0.0069763824	0	938.5672662086712
3.0199517	0.00063095734	0.27	4.2408799	3.7942262	-0.0070203359	-0.011327524	0.023751286	-0.00512115	0.0070742549	0	938.9945746857547
3.0199517	0.00069183097	0.27	4.2780513	3.6928541	-0.0067687223	-0.011717647	0.024512485	-0.0047035752	0.0071659994	0	939.4240850812141
3.0199517	0.00075857758	0.27	4.3065688	3.5780888	-0.0065282735	-0.01212242	0.02529319	-0.0042826879	0.0072180081	0	939.8480537511177
3.0199517	0.00083176377	0.27	4.3145012	3.4332877	-0.0063109028	-0.01255126	0.0260851	-0.0038599438	0.0071753325	0	940.253181551949
3.0199517	0.00091201084	0.27	4.3042234	3.2622853	-0.006115372	-0.013008209	0.026885324	-0.0034374137	0.0070482265	0	940.6398984569992
3.0199517	0.001	0.27	4.2886478	3.0837238	-0.0059300855	-0.013490743	0.027697573	-0.0030162426	0.0068954651	0	941.0200407065345
3.0199517	0.0010964782	0.27	4.2756342	2.90896	-0.0057476821	-0.013996662	0.028525262	-0.0025965126	0.0067534692	0	941.4013909552401
3.0199517	0.0012022644	0.27	4.2682754	2.742557	-0.0055651082	-0.014524758	0.029370861	-0.0021777949	0.006637334	0	941.787444856001
3.0199517	0.0013182567	0.27	4.2676817	2.5860981	-0.0053810285	-0.015074608	0.030236084	-0.0017594729	0.0065527656	0	942.1798918224816
3.0199517	0.0014454398	0.27	4.2745393	2.4401729	-0.0051941992	-0.015646866	0.031121612	-0.0013408499	0.0065023559	0	942.5800732439452
3.0199517	0.0015848932	0.27	4.289684	2.3051477	-0.0050028822	-0.016243199	0.032027152	-0.00092115602	0.0064880516	0	942.9895478499117
3.0199517	0.0017378008	0.27	4.3140162	2.1812582	-0.0048051418	-0.016865467	0.032952258	-0.00049953395	0.006511468	0	943.4100212145696
3.0199517	0.0019054607	0.27	4.3481836	2.0684566	-0.0045995135	-0.017514534	0.033897528	-0.00007504819	0.0065733868	0	943.8430210335955
3.0199517	0.0020892961	0.27	4.3923447	1.9662845	-0.0043855764	-0.01818922	0.034865641	0.00035327787	0.0066733113	0	944.2896223858498
3.0199517	0.0022908677	0.27	4.4460887	1.8738478	-0.0041642942	-0.018885553	0.035862119	0.00078640821	0.0068093314	0	944.7503206477677
3.0199517	0.0025118864	0.27	4.5084465	1.7898577	-0.0039382415	-0.019596094	0.036895997	0.0012252393	0.0069782015	0	945.224988837092
3.0199517	0.0027542287	0.27	4.5779014	1.7126809	-0.0037118704	-0.020309106	0.037980656	0.0016705458	0.0071754463	0	945.7128384423943
3.0199517	0.0030199517	0.27	4.6523453	1.6403694	-0.0034918655	-0.021007625	0.039134755	0.0021229252	0.0073954019	0	946.2123223095991
3.0199517	0.0033113112	0.27	4.729044	1.5707139	-0.00328724	-0.021669458	0.040382231	0.0025827371	0.007631327	0	946.7210443497559
3.0199517	0.0036307805	0.27	4.8050609	1.5015751	-0.0031076676	-0.02227188	0.041747611	0.0030500557	0.0078764197	0	947.2361375637595
3.0199517	0.0039810717	0.27	4.8788247	1.4318168	-0.0029582275	-0.022804731	0.043242909	0.0035247178	0.0081268645	0	947.7558774545757
3.0199517	0.0043651583	0.27	4.9515441	1.3620147	-0.0028350905	-0.023280024	0.044858024	0.0040065391	0.008384328	0	948.2812993574503
3.0199517	0.0047863009	0.27	5.0263648	1.2938168	-0.0027282454	-0.023724247	0.04656844	0.004495563	0.00865415	0	948.8155901653026
3.0199517	0.0052480746	0.27	5.1067453	1.2289457	-0.0026261746	-0.024167056	0.048346529	0.0049921669	0.0089422453	0	949.3625626719056
3.0199517	0.0057543994	0.27	5.1957001	1.1687931	-0.0025178017	-0.024637103	0.050165733	0.0054970488	0.0092537846	0	949.9258865752298
3.0199517	0.0063095734	0.27	5.295452	1.1142992	-0.0023937289	-0.025159042	0.052003558	0.0060111661	0.0095927476	0	950.5086853851155
3.0199517	0.0069183097	0.27	5.406795	1.0657085	-0.0022491771	-0.025745548	0.053849552	0.0065356315	0.0099610325	0	951.1127978873267
3.0199517	0.0075857758	0.27	5.5284969	1.0223665	-0.0020864372	-0.026391239	0.05571139	0.0070715375	0.010357629	0	951.7380186458998
3.0199517	0.0083176377	0.27	5.657593	0.98302644	-0.001912184	-0.027082181	0.057605369	0.0076197654	0.01077941	0	952.3822105160939
3.0199517	0.0091201084	0.27	5.7902466	0.94635342	-0.0017323752	-0.027811871	0.05954043	0.0081808545	0.011222624	0	953.0420440259478
3.0199517	0.01	0.27	5.9236369	0.91121994	-0.0015500997	-0.028581805	0.061517589	0.0087549927	0.011683837	0	953.7148746936186
3.0199517	0.010964782	0.27	6.0595034	0.8771961	-0.0013656868	-0.029386085	0.063545332	0.0093422907	0.012161775	0	954.402545871158
3.0199517	0.012022644	0.27	6.2035852	0.84481121	-0.0011772277	-0.030209924	0.065641117	0.0099432621	0.012658655	0	955.1112797925139
3.0199517	0.013182567	0.27	6.3598821	0.8147755	-0.00098198097	-0.031046634	0.067814383	0.01055894	0.013177793	0	955.8460467208045
3.0199517	0.014454398	0.27	6.5286332	0.78727684	-0.00077811823	-0.03190031	0.070063873	0.01119056	0.013721026	0	956.6082456594409
3.0199517	0.015848932	0.27	6.707953	0.76197453	-0.0005664331	-0.032774146	0.072389317	0.011839261	0.0142884	0	957.3970624562556
3.0199517	0.017378008	0.27	6.8933545	0.73779486	-0.00035673347	-0.033649358	0.074812517	0.012505898	0.014877318	0	958.2088127466639
3.0199517	0.019054607	0.27	7.0736178	0.71178269	-0.00018577633	-0.034436778	0.077425748	0.013190569	0.015478381	0	959.0323695025123
3.0199517	0.020892961	0.27	7.244396	0.68201029	-0.000088387081	-0.035031094	0.080337529	0.013892376	0.016084494	0	959.8625413706202
3.0199517	0.022908677	0.27	7.420465	0.65177451	-0.000035274721	-0.035486821	0.083496648	0.014611057	0.016705991	0	960.713857565943
3.0199517	0.025118864	0.27	7.6121102	0.62406324	0.000018565301	-0.035929422	0.086781052	0.015347714	0.017353578	0	961.5976400773841
3.0199517	0.027542287	0.27	7.8230647	0.60017723	0.00011014004	-0.036478324	0.090074826	0.016104084	0.018033174	0	962.5192538277889
3.0199517	0.030199517	0.27	8.0547383	0.58064099	0.00027063739	-0.037239766	0.093275353	0.016882148	0.018748445	0	963.4819697297696
3.0199517	0.033113112	0.27	8.3053983	0.56481882	0.00050672266	-0.038241686	0.09635843	0.017683881	0.019499322	0	964.485910395664
3.0199517	0.036307805	0.27	8.5716514	0.55129405	0.00080066514	-0.039429383	0.099382609	0.018510973	0.020282943	0	965.5292702909265
3.0199517	0.039810717	0.27	8.8518433	0.53910215	0.0011384978	-0.040756323	0.10239839	0.019364853	0.021097636	0	966.6117374516734
3.0199517	0.043651583	0.27	9.1458061	0.52775471	0.0015144333	-0.042200821	0.10543156	0.020246873	0.021943183	0	967.7344160081266
3.0199517	0.047863009	0.27	9.4539818	0.51695641	0.0019266693	-0.043753612	0.1084956	0.021158401	0.022820003	0	968.8990324398028
3.0199517	0.052480746	0.27	9.7771782	0.50649993	0.0023762075	-0.045414282	0.11159528	0.022100867	0.02372886	0	970.1077379755282
3.0199517	0.057543994	0.27	10.116575	0.49623107	0.0028669341	-0.047191398	0.11472651	0.023075798	0.024670785	0	971.3631463921491
3.0199517	0.063095734	0.27	10.473826	0.48602946	0.0034061077	-0.049103797	0.11787509	0.024084859	0.025647055	0	972.6684753251639
3.0199517	0.069183097	0.27	10.273376	0.4797504	0.0029883957	-0.049721509	0.12247575	0.025122669	0.026664683	0	973.44311519893
3.0199517	0.075857758	0.27	9.5518488	0.47756297	0.0016649114	-0.049449534	0.12812842	0.026093344	0.027628327	0	973.6335994834667
3.0199517	0.083176377	0.27	8.8938078	0.47556801	0.00045787943	-0.049842323	0.13328372	0.02697861	0.028507181	0	973.8073242053033
3.0199517	0.091201084	0.27	8.2936673	0.47374859	-0.00064294684	-0.050861344	0.13798541	0.027785982	0.029308705	0	973.9657631384607
3.0199517	0.1	0.27	8.6630648	0.45227441	-0.00056872456	-0.052643051	0.14210242	0.02857864	0.030032341	0	975.0799138051796
3.0199517	0.10964782	0.27	9.9219911	0.41819061	0.00059588436	-0.054711302	0.14611647	0.029487138	0.030831286	0	977.1924348118678
3.0199517	0.12022644	0.27	11.505534	0.38607787	0.0022188842	-0.056872692	0.15022668	0.030534495	0.031775427	0	979.7600381668376
3.0199517	0.13182567	0.27	13.476028	0.35590366	0.0044138715	-0.05917935	0.15438684	0.031755487	0.032899433	0	982.8777325679509
3.0199517	0.14454398	0.27	15.910821	0.32763705	0.0073189013	-0.061689787	0.15854454	0.033191691	0.034244783	0	986.6619342397859
3.0199517	0.15848932	0.27	18.907896	0.30125003	0.011103431	-0.064466024	0.16264404	0.034893232	0.03586151	0	991.2577192130796
3.0199517	0.17378008	0.27	22.591877	0.2767184	0.015976115	-0.067570211	0.16662967	0.036921096	0.037810524	0	996.8470094193774
3.0199517	0.19054607	0.27	27.119061	0.25402187	0.022191961	-0.071060627	0.17044983	0.039350005	0.040166483	0	1003.6563112331269
3.0199517	0.20892961	0.27	32.679376	0.23314266	0.030056343	-0.074986879	0.17406182	0.042271658	0.043021025	0	1011.9617112345979
3.0199517	0.22908677	0.27	39.49245	0.21406237	0.039922445	-0.07938421	0.17743749	0.045797887	0.046485926	0	1022.087907705923
3.0199517	0.25118864	0.27	47.794876	0.1967566	0.052178409	-0.084267302	0.18056949	0.050063035	0.05069545	0	1034.3977208537444
3.0199517	0.27542287	0.27	57.817029	0.18118789	0.067221748	-0.089624681	0.18347684	0.055224563	0.055806937	0	1049.2694651629351
3.0199517	0.30199517	0.27	69.750983	0.16729809	0.085422269	-0.095415708	0.18620798	0.061460923	0.061998652	0	1067.0628868641822
3.0199517	0.33113112	0.27	83.715897	0.15500246	0.10708021	-0.10157226	0.18883906	0.06896609	0.069464299	0	1088.0793971124176
3.0199517	0.36307805	0.27	99.731021	0.14418793	0.13239093	-0.10800614	0.19146657	0.077940987	0.078404436	0	1112.5270262932197
3.0199517	0.39810717	0.27	117.70598	0.13471686	0.16142736	-0.11462107	0.19419532	0.088583039	0.089016046	0	1140.5008863250996
3.0199517	0.43651583	0.27	137.45217	0.12643563	0.19414536	-0.1213259	0.19712527	0.10107583	0.10148222	0	1171.9848629106523
3.0199517	0.47863009	0.27	158.7109	0.11918565	0.2304082	-0.12804531	0.20034082	0.11558073	0.11596382	0	1206.8719000947683
3.0199517	0.52480746	0.27	181.18868	0.1128137	0.27002052	-0.13472566	0.20390498	0.13223178	0.13259439	0	1244.9944289341017
3.0199517	0.57543994	0.27	204.59001	0.10717954	0.31276172	-0.14133581	0.20785855	0.15113389	0.15147839	0	1286.1555315643375
3.0199517	0.63095734	0.27	228.64176	0.10216014	0.35841221	-0.1478643	0.21222294	0.17236396	0.17269232	0	1330.1543201756883
3.0199517	0.69183097	0.27	253.10771	0.097650968	0.40677064	-0.15431487	0.21700468	0.19597382	0.19628769	0	1376.8032698326003
3.0199517	0.75857758	0.27	277.79454	0.093565209	0.45766302	-0.16070169	0.22220018	0.22199425	0.22229498	0	1425.937994839133
3.0199517	0.83176377	0.27	302.55195	0.089831878	0.51094592	-0.16704535	0.22779979	0.25043919	0.25072792	0	1477.4212852996168
3.0199517	0.91201084	0.27	327.26919	0.08639351	0.56650604	-0.17336964	0.23379095	0.28130982	0.28158751	0	1531.1435022058815
3.0199517	1.	0.27	351.86997	0.083203835	0.62425785	-0.1796995	0.24016035	0.31459822	0.31486566	0	1587.020908017543
3.0199517	1.0964782	0.27	376.30692	0.080225678	0.6841404	-0.18605956	0.24689533	0.35029043	0.35054829	0	1644.9930246042402
3.0199517	1.2022644	0.27	400.55622	0.077429153	0.74611396	-0.19247336	0.25398468	0.38836905	0.38861793	0	1705.0196792521722
3.0199517	1.3182567	0.27	424.6129	0.074790176	0.81015698	-0.19896298	0.26141906	0.42881531	0.4290557	0	1767.078254932147
3.0199517	1.4454398	0.27	448.4867	0.072289267	0.87626331	-0.20554885	0.26919116	0.47161069	0.47184305	0	1831.1611188971312
3.0199517	1.5848932	0.27	472.19873	0.069910582	0.94443987	-0.21224982	0.27729567	0.51673823	0.51696294	0	1897.2734258845037
3.0199517	1.7378008	0.27	495.77869	0.067641162	1.0147047	-0.21908326	0.28572917	0.56418346	0.56440087	0	1965.4312580585351
3.0199517	1.9054607	0.27	519.26265	0.065470334	1.0870855	-0.22606517	0.29449005	0.61393515	0.61414559	0	2035.660232950362
3.0199517	2.0892961	0.27	542.69127	0.063389242	1.1616179	-0.23321043	0.30357828	0.66598586	0.66618961	0	2107.9938196629264
3.0199517	2.2908677	0.27	566.10845	0.061390479	1.2383452	-0.24053288	0.3129953	0.7203323	0.72052962	0	2182.473066678891
3.0199517	2.5118864	0.27	589.56022	0.059467799	1.3173166	-0.24804556	0.32274388	0.77697558	0.77716672	0	2259.1449033144
3.0199517	2.7542287	0.27	613.09394	0.057615886	1.3985872	-0.25576079	0.33282795	0.83592141	0.8361066	0	2338.062096593033
3.0199517	3.0199517	0.27	636.75766	0.055830179	1.4822171	-0.26369035	0.34325251	0.89718017	0.89735962	0	2419.282382805547
3.0199517	3.3113112	0.27	660.59964	0.054106727	1.5682713	-0.27184559	0.35402351	0.96076697	0.96094088	0	2502.8683431114273
3.0199517	3.6307805	0.27	684.66802	0.052442075	1.6568189	-0.2802375	0.36514782	1.0267017	1.0268702	0	2588.886644276125
3.0199517	3.9810717	0.27	709.01058	0.050833177	1.7479333	-0.28887683	0.37663307	1.0950088	1.0951721	0	2677.4081859949083
3.0199517	4.3651583	0.27	733.67456	0.049277321	1.8416917	-0.29777415	0.38848765	1.1657175	1.1658759	0	2768.5076311101852
3.0199517	4.7863009	0.27	758.70656	0.047772072	1.9381751	-0.30693994	0.40072067	1.2388616	1.2390152	0	2862.2633954641965
3.0199517	5.2480746	0.27	784.15252	0.04631523	2.0374679	-0.31638462	0.41334185	1.3144795	1.3146283	0	2958.7572441677876
3.0199517	5.7543994	0.27	810.05763	0.044904784	2.1396584	-0.32611863	0.42636157	1.3926139	1.3927582	0	3058.0747740672114
3.0199517	6.3095734	0.27	836.46643	0.043538891	2.2448381	-0.33615246	0.43979078	1.4733121	1.473452	0	3160.304733216952
3.0199517	6.9183097	0.27	863.42276	0.042215844	2.3531022	-0.3464967	0.45364102	1.5566255	1.5567612	0	3265.5394957360477
3.0199517	7.5857758	0.27	890.96987	0.040934057	2.4645492	-0.35716207	0.46792436	1.64261	1.6427416	0	3373.87467076099
3.0199517	8.3176377	0.27	919.15045	0.039692046	2.5792812	-0.36815944	0.48265345	1.7313256	1.7314532	0	3485.4093969994683
3.0199517	9.1201084	0.27	948.00674	0.038488416	2.6974036	-0.3794999	0.49784146	1.8228365	1.8229602	0	3600.2460456398007
3.0199517	10.	0.27	977.58054	0.03732185	2.8190257	-0.39119474	0.5135021	1.9172108	1.9173308	0	3718.4907891637986