3.9810717	1.e-12	0.19	1.9673397e7	1.9789153e7	-0.094369065	-0.007511713	-0.0075117127	-20938.923	62910.526	0	849.5584748694081
3.9810717	1.0964782e-12	0.19	1.7942351e7	1.8047924e7	-0.09397881	-0.007511713	-0.0075117126	-19096.533	57375.082	0	849.9251449629242
3.9810717	1.2022644e-12	0.19	1.6363619e7	1.6459905e7	-0.093588555	-0.0075117129	-0.0075117126	-17416.254	52326.698	0	850.2918150385883
3.9810717	1.3182567e-12	0.19	1.4923799e7	1.5011613e7	-0.0931983	-0.007511713	-0.0075117126	-15883.821	47722.516	0	850.6584851142525
3.9810717	1.4454398e-12	0.19	1.3610666e7	1.3690756e7	-0.092808045	-0.0075117129	-0.0075117125	-14486.225	43523.452	0	851.0251552077686
3.9810717	1.5848932e-12	0.19	1.2413076e7	1.248612e7	-0.092417789	-0.007511713	-0.0075117125	-13211.602	39693.861	0	851.3918262229981
3.9810717	1.7378008e-12	0.19	1.132086e7	1.1387479e7	-0.092027534	-0.0075117129	-0.0075117124	-12049.133	36201.232	0	851.7584963165142
3.9810717	1.9054607e-12	0.19	1.0324747e7	1.0385506e7	-0.091637279	-0.0075117129	-0.0075117123	-10988.948	33015.917	0	852.1251664100301
3.9810717	2.0892961e-12	0.19	9.4162817e6	9.4716964e6	-0.091247024	-0.007511713	-0.0075117123	-10022.048	30110.874	0	852.4918364856944
3.9810717	2.2908677e-12	0.19	8.5877514e6	8.6382919e6	-0.090856769	-0.0075117129	-0.0075117122	-9140.2244	27461.444	0	852.8585065792104
3.9810717	2.5118864e-12	0.19	7.8321228e6	7.8782179e6	-0.090466514	-0.0075117129	-0.0075117122	-8335.9919	25045.135	0	853.2251766548745
3.9810717	2.7542287e-12	0.19	7.1429811e6	7.1850221e6	-0.090076258	-0.007511713	-0.0075117121	-7602.523	22841.435	0	853.5918476879559
3.9810717	3.0199517e-12	0.19	6.5144766e6	6.5528201e6	-0.089686003	-0.007511713	-0.0075117121	-6933.5914	20831.637	0	853.9585177636203
3.9810717	3.3113112e-12	0.19	5.9412736e6	5.9762449e6	-0.089295748	-0.007511713	-0.007511712	-6323.5185	18998.679	0	854.3251878571363
3.9810717	3.6307805e-12	0.19	5.4185062e6	5.4504021e6	-0.088905493	-0.007511713	-0.0075117119	-5767.1253	17327.002	0	854.6918579506522
3.9810717	3.9810717e-12	0.19	4.9417368e6	4.9708279e6	-0.088515238	-0.007511713	-0.0075117118	-5259.6888	15802.414	0	855.058528044168
3.9810717	4.3651583e-12	0.19	4.5069179e6	4.5334509e6	-0.088124982	-0.007511713	-0.0075117117	-4796.9011	14411.974	0	855.4251990772495
3.9810717	4.7863009e-12	0.19	4.1103583e6	4.1345583e6	-0.087734727	-0.007511713	-0.0075117116	-4374.8336	13143.877	0	855.7918691707655
3.9810717	5.2480746e-12	0.19	3.7486917e6	3.770764e6	-0.087344472	-0.007511713	-0.0075117114	-3989.9035	11987.359	0	856.1585392821332
3.9810717	5.7543994e-12	0.19	3.4188478e6	3.4389796e6	-0.086954217	-0.0075117129	-0.0075117112	-3638.8431	10932.602	0	856.525209393501
3.9810717	6.3095734e-12	0.19	3.1180266e6	3.1363886e6	-0.086563962	-0.007511713	-0.0075117111	-3318.6721	9970.6516	0	856.8918794870169
3.9810717	6.9183097e-12	0.19	2.8436744e6	2.8604224e6	-0.086173706	-0.007511713	-0.0075117109	-3026.6726	9093.343	0	857.2585505379501
3.9810717	7.5857758e-12	0.19	2.5934623e6	2.6087382e6	-0.085783451	-0.0075117129	-0.0075117107	-2760.366	8293.2279	0	857.6252206493177
3.9810717	8.3176377e-12	0.19	2.365266e6	2.3791994e6	-0.085393196	-0.007511713	-0.0075117105	-2517.4913	7563.5142	0	857.9918907606855
3.9810717	9.1201084e-12	0.19	2.1571486e6	2.1698576e6	-0.085002941	-0.007511713	-0.0075117103	-2295.987	6898.0075	0	858.3585608720533
3.9810717	1.e-11	0.19	1.9673432e6	1.9789355e6	-0.084612686	-0.007511713	-0.00751171	-2093.9726	6291.0581	0	858.7252310012726
3.9810717	1.0964782e-11	0.19	1.7942387e6	1.8048126e6	-0.08422243	-0.007511713	-0.0075117098	-1909.7332	5737.5137	0	859.0919020522058
3.9810717	1.2022644e-11	0.19	1.6363655e6	1.6460105e6	-0.083832175	-0.007511713	-0.0075117095	-1741.705	5232.6753	0	859.4585721814253
3.9810717	1.3182567e-11	0.19	1.4923834e6	1.5011813e6	-0.08344192	-0.007511713	-0.0075117091	-1588.4613	4772.2571	0	859.8252423284964
3.9810717	1.4454398e-11	0.19	1.3610702e6	1.3690955e6	-0.083051665	-0.0075117131	-0.0075117088	-1448.7013	4352.3507	0	860.191912457716
3.9810717	1.5848932e-11	0.19	1.2413111e6	1.2486319e6	-0.08266141	-0.007511713	-0.0075117083	-1321.2388	3969.3916	0	860.5585826226388
3.9810717	1.7378008e-11	0.19	1.1320896e6	1.1387677e6	-0.082271154	-0.007511713	-0.0075117079	-1204.9915	3620.1287	0	860.9252537092755
3.9810717	1.9054607e-11	0.19	1.0324783e6	1.0385703e6	-0.081880899	-0.0075117131	-0.0075117075	-1098.9726	3301.5971	0	861.2919238563467
3.9810717	2.0892961e-11	0.19	941631.76	947189.23	-0.081490644	-0.007511713	-0.0075117069	-1002.2822	3011.0929	0	861.6585940391213
3.9810717	2.2908677e-11	0.19	858778.72	863848.69	-0.081100389	-0.0075117131	-0.0075117063	-914.09955	2746.1499	0	862.0252642218961
3.9810717	2.5118864e-11	0.19	783215.85	787841.2	-0.080710134	-0.0075117131	-0.0075117057	-833.67594	2504.519	0	862.3919344046708
3.9810717	2.7542287e-11	0.19	714301.7	718521.55	-0.080319879	-0.0075117131	-0.007511705	-760.32871	2284.1491	0	862.7586046052973
3.9810717	3.0199517e-11	0.19	651451.24	655301.26	-0.079929623	-0.0075117131	-0.0075117042	-693.4352	2083.1692	0	863.1252757633408
3.9810717	3.3113112e-11	0.19	594130.94	597643.66	-0.079539368	-0.0075117131	-0.0075117034	-632.42756	1899.8735	0	863.491945981819
3.9810717	3.6307805e-11	0.19	541854.21	545059.31	-0.079149113	-0.0075117131	-0.0075117024	-576.7879	1732.7057	0	863.8586162360007
3.9810717	3.9810717e-11	0.19	494177.27	497101.79	-0.078758858	-0.0075117131	-0.0075117014	-526.04389	1580.247	0	864.2252864901822
3.9810717	4.3651583e-11	0.19	450695.37	453364.01	-0.078368603	-0.0075117132	-0.0075117003	-479.76476	1441.2029	0	864.5919567622157
3.9810717	4.7863009e-11	0.19	411039.42	413474.67	-0.077978347	-0.0075117132	-0.0075116991	-437.55767	1314.3932	0	864.9586279916663
3.9810717	5.2480746e-11	0.19	374872.75	377095.16	-0.077588092	-0.0075117132	-0.0075116977	-399.06431	1198.7414	0	865.3252983172548
3.9810717	5.7543994e-11	0.19	341888.36	343916.63	-0.077197837	-0.0075117133	-0.0075116963	-363.95791	1093.2657	0	865.6919686428434
3.9810717	6.3095734e-11	0.19	311806.24	313657.45	-0.076807582	-0.0075117133	-0.0075116946	-331.94046	997.07068	0	866.0586390219872
3.9810717	6.9183097e-11	0.19	284371.03	286060.75	-0.076417327	-0.0075117133	-0.0075116929	-302.74016	909.33981	0	866.425309401131
3.9810717	7.5857758e-11	0.19	259349.81	260892.24	-0.076027071	-0.0075117134	-0.007511691	-276.10914	829.3283	0	866.7919807555439
3.9810717	8.3176377e-11	0.19	236530.19	237938.28	-0.075636816	-0.0075117134	-0.0075116888	-251.82133	756.35694	0	867.1586512239463
3.9810717	9.1201084e-11	0.19	215718.44	217004.02	-0.075246561	-0.0075117134	-0.0075116865	-229.67054	689.80627	0	867.5253217102007
3.9810717	1.e-10	0.19	196737.91	197911.73	-0.074856306	-0.0075117135	-0.007511684	-209.46875	629.11132	0	867.8919922321585
3.9810717	1.0964782e-10	0.19	179427.46	180499.35	-0.074466051	-0.0075117136	-0.0075116812	-191.04447	573.75689	0	868.2586628076715
3.9810717	1.2022644e-10	0.19	163640.13	164619.06	-0.074075796	-0.0075117136	-0.0075116782	-174.24129	523.27304	0	868.625333418888
3.9810717	1.3182567e-10	0.19	149241.92	150136.06	-0.07368554	-0.0075117137	-0.0075116749	-158.91657	477.23122	0	868.9920050232251
3.9810717	1.4454398e-10	0.19	136110.6	136927.4	-0.073295285	-0.0075117138	-0.0075116712	-144.94022	435.24059	0	869.3586757594037
3.9810717	1.5848932e-10	0.19	124134.7	124880.94	-0.07290503	-0.0075117139	-0.0075116671	-132.19361	396.94467	0	869.7253465669895
3.9810717	1.7378008e-10	0.19	113212.54	113894.44	-0.072514775	-0.0075117139	-0.0075116627	-120.56853	362.01838	0	870.0920174281304
3.9810717	1.9054607e-10	0.19	103251.41	103874.62	-0.07212452	-0.0075117141	-0.0075116579	-109.96629	330.16523	0	870.4586883606781
3.9810717	2.0892961e-10	0.19	94166.759	94736.434	-0.071734265	-0.0075117141	-0.0075116525	-100.29691	301.11481	0	870.8253594003364
3.9810717	2.2908677e-10	0.19	85881.455	86402.297	-0.071344009	-0.0075117142	-0.0075116467	-91.478287	274.62051	0	871.1920314509671
3.9810717	2.5118864e-10	0.19	78325.167	78801.465	-0.070953754	-0.0075117144	-0.0075116403	-83.435574	250.45742	0	871.5587026691428
3.9810717	2.7542287e-10	0.19	71433.753	71869.417	-0.070563499	-0.0075117145	-0.0075116333	-76.1005	228.42042	0	871.925373994429
3.9810717	3.0199517e-10	0.19	65148.707	65547.306	-0.070173244	-0.0075117147	-0.0075116256	-69.410798	208.32244	0	872.2920454446773
3.9810717	3.3113112e-10	0.19	59416.677	59781.463	-0.069782989	-0.0075117148	-0.0075116172	-63.309683	189.99286	0	872.6587170198878
3.9810717	3.6307805e-10	0.19	54189.004	54522.944	-0.069392734	-0.007511715	-0.007511608	-57.745365	173.27609	0	873.0253887379123
3.9810717	3.9810717e-10	0.19	49421.309	49727.11	-0.069002478	-0.0075117152	-0.0075115978	-52.670613	158.03021	0	873.3920615740196
3.9810717	4.3651583e-10	0.19	45073.12	45353.249	-0.068612223	-0.0075117154	-0.0075115867	-48.04235	144.1258	0	873.7587336312272
3.9810717	4.7863009e-10	0.19	41107.524	41364.232	-0.068221968	-0.0075117156	-0.0075115745	-43.821288	131.44483	0	874.125405884804
3.9810717	5.2480746e-10	0.19	37490.858	37726.198	-0.067831713	-0.0075117159	-0.0075115611	-39.971601	119.87965	0	874.4920783526015
3.9810717	5.7543994e-10	0.19	34192.419	34408.263	-0.067441458	-0.0075117162	-0.0075115465	-36.46061	109.33208	0	874.8587510346201
3.9810717	6.3095734e-10	0.19	31184.207	31382.262	-0.067051203	-0.0075117165	-0.0075115304	-33.258514	99.712582	0	875.2254239844146
3.9810717	6.9183097e-10	0.19	28440.685	28622.508	-0.066660948	-0.0075117169	-0.0075115129	-30.338133	90.939494	0	875.5920971841338
3.9810717	7.5857758e-10	0.19	25938.563	26105.575	-0.066270693	-0.0075117172	-0.0075114936	-27.67468	82.938344	0	875.9587707051842
3.9810717	8.3176377e-10	0.19	23656.601	23810.096	-0.065880437	-0.0075117176	-0.0075114724	-25.245547	75.641208	0	876.325445504983
3.9810717	9.1201084e-10	0.19	21575.427	21716.587	-0.065490182	-0.007511718	-0.0075114491	-23.030118	68.986142	0	876.6921197401031
3.9810717	1.e-9	0.19	19677.374	19807.275	-0.065099927	-0.0075117185	-0.0075114236	-21.009588	62.916648	0	877.0587943679616
3.9810717	1.0964782e-9	0.19	17946.328	18065.954	-0.064709672	-0.0075117191	-0.0075113958	-19.166808	57.381204	0	877.4254694064098
3.9810717	1.2022644e-9	0.19	16367.596	16477.843	-0.064319417	-0.0075117197	-0.0075113652	-17.486138	52.332819	0	877.792144944707
3.9810717	1.3182567e-9	0.19	14927.776	15029.459	-0.063929162	-0.0075117203	-0.0075113317	-15.953315	47.728637	0	878.1588210007048
3.9810717	1.4454398e-9	0.19	13614.644	13708.51	-0.063538907	-0.007511721	-0.0075112948	-14.55533	43.529574	0	878.5254976636618
3.9810717	1.5848932e-9	0.19	12417.053	12503.782	-0.063148652	-0.0075117218	-0.0075112545	-13.280317	39.699983	0	878.892174933578
3.9810717	1.7378008e-9	0.19	11324.837	11405.049	-0.062758397	-0.0075117227	-0.0075112103	-12.117458	36.207354	0	879.2588528997119
3.9810717	1.9054607e-9	0.19	10328.724	10402.984	-0.062368142	-0.0075117236	-0.0075111618	-11.056883	33.022038	0	879.6255316334708
3.9810717	2.0892961e-9	0.19	9420.2589	9489.0824	-0.061977887	-0.0075117247	-0.0075111086	-10.089593	30.116996	0	879.9922112062616
3.9810717	2.2908677e-9	0.19	8591.7285	8655.5858	-0.061587632	-0.0075117258	-0.0075110503	-9.2073798	27.467566	0	880.3588916894913
3.9810717	2.5118864e-9	0.19	7836.0999	7895.4199	-0.061197377	-0.0075117269	-0.0075109863	-8.4027574	25.051257	0	880.7255731902701
3.9810717	2.7542287e-9	0.19	7146.9583	7202.1321	-0.060807123	-0.0075117283	-0.0075109162	-7.6688987	22.847557	0	881.09225484044
3.9810717	3.0199517e-9	0.19	6518.4537	6569.838	-0.060416868	-0.0075117299	-0.0075108395	-6.9995771	20.837759	0	881.4589386083901
3.9810717	3.3113112e-9	0.19	5945.2507	5993.1709	-0.060026613	-0.0075117315	-0.0075107551	-6.3891144	19.004801	0	881.8256237509244
3.9810717	3.6307805e-9	0.19	5422.4835	5467.2362	-0.059636358	-0.0075117332	-0.0075106627	-5.8323314	17.333124	0	882.1923103215977
3.9810717	3.9810717e-9	0.19	4945.7139	4987.5698	-0.059246103	-0.0075117353	-0.0075105615	-5.3245049	15.808536	0	882.5589984632246
3.9810717	4.3651583e-9	0.19	4510.8951	4550.1008	-0.058855849	-0.0075117373	-0.0075104503	-4.8613274	14.418096	0	882.9256874504603
3.9810717	4.7863009e-9	0.19	4114.3355	4151.1162	-0.058465594	-0.0075117397	-0.0075103285	-4.43887	13.149999	0	883.2923792695458
3.9810717	5.2480746e-9	0.19	3752.6689	3787.2299	-0.058075339	-0.0075117423	-0.007510195	-4.05355	11.993481	0	883.6590731772853
3.9810717	5.7543994e-9	0.19	3422.825	3455.3535	-0.057685085	-0.0075117451	-0.0075100485	-3.7020997	10.938724	0	884.0257684661856
3.9810717	6.3095734e-9	0.19	3122.0038	3152.6706	-0.05729483	-0.0075117482	-0.0075098879	-3.3815389	9.9767737	0	884.3924672117469
3.9810717	6.9183097e-9	0.19	2847.6517	2876.6123	-0.056904576	-0.0075117516	-0.0075097118	-3.0891495	9.099465	0	884.7591677847629
3.9810717	7.5857758e-9	0.19	2597.4395	2624.8361	-0.056514322	-0.0075117553	-0.0075095187	-2.822453	8.2993501	0	885.1258713925749
3.9810717	8.3176377e-9	0.19	2369.2433	2395.2053	-0.056124068	-0.0075117594	-0.007509307	-2.5791885	7.5696365	0	885.4925783208107
3.9810717	9.1201084e-9	0.19	2161.1259	2185.7715	-0.055733813	-0.007511764	-0.0075090749	-2.3572942	6.9041298	0	885.8592898303675
3.9810717	1.e-8	0.19	1971.3206	1994.7575	-0.055343559	-0.0075117689	-0.0075088204	-2.15489	6.2971805	0	886.2260043991489
3.9810717	1.0964782e-8	0.19	1798.2161	1820.5425	-0.054953306	-0.0075117742	-0.0075085413	-1.9702607	5.7436362	0	886.5927224198933
3.9810717	1.2022644e-8	0.19	1640.3429	1661.6485	-0.054563052	-0.0075117802	-0.0075082354	-1.8018425	5.2387978	0	886.9594461644699
3.9810717	1.3182567e-8	0.19	1496.3609	1516.7273	-0.054172798	-0.0075117867	-0.0075078999	-1.648209	4.7783798	0	887.3261751931622
3.9810717	1.4454398e-8	0.19	1365.0477	1384.5495	-0.053782544	-0.0075117938	-0.007507532	-1.5080591	4.3584735	0	887.6929100058185
3.9810717	1.5848932e-8	0.19	1245.2886	1263.9938	-0.053392291	-0.0075118016	-0.0075071286	-1.3802066	3.9755144	0	888.0596502162779
3.9810717	1.7378008e-8	0.19	1136.0671	1154.0376	-0.053002038	-0.0075118101	-0.0075066863	-1.2635694	3.6262517	0	888.4263973710647
3.9810717	1.9054607e-8	0.19	1036.4559	1053.7483	-0.052611785	-0.0075118195	-0.0075062013	-1.1571607	3.3077203	0	888.7931521485453
3.9810717	2.0892961e-8	0.19	945.60937	962.2752	-0.052221532	-0.0075118298	-0.0075056696	-1.0600804	3.0172162	0	889.1599152627891
3.9810717	2.2908677e-8	0.19	862.75639	878.84268	-0.05183128	-0.007511841	-0.0075050865	-0.97150779	2.7522734	0	889.5266866132629
3.9810717	2.5118864e-8	0.19	787.19357	802.74321	-0.051441027	-0.0075118534	-0.0075044473	-0.89069425	2.5106427	0	889.8934689181292
3.9810717	2.7542287e-8	0.19	718.27949	733.33158	-0.051050776	-0.0075118669	-0.0075037462	-0.81695709	2.2902729	0	890.2602603940928
3.9810717	3.0199517e-8	0.19	655.42909	670.01932	-0.050660524	-0.0075118818	-0.0075029777	-0.74967365	2.0892933	0	890.6270648416955
3.9810717	3.3113112e-8	0.19	598.10887	612.26975	-0.050270273	-0.0075118981	-0.0075021349	-0.68827607	1.9059978	0	890.993881613577
3.9810717	3.6307805e-8	0.19	545.83221	559.59341	-0.049880021	-0.0075119161	-0.0075012109	-0.63224645	1.7388303	0	891.360713820638
3.9810717	3.9810717e-8	0.19	498.15536	511.54394	-0.049489771	-0.0075119356	-0.0075001976	-0.58111248	1.5863718	0	891.7275600901737
3.9810717	4.3651583e-8	0.19	454.67356	467.71419	-0.049099521	-0.0075119572	-0.0074990867	-0.53444339	1.447328	0	892.0944237830091
3.9810717	4.7863009e-8	0.19	415.01771	427.7329	-0.048709271	-0.0075119807	-0.0074978686	-0.49184631	1.3205187	0	892.4613066129118
3.9810717	5.2480746e-8	0.19	378.85116	391.26143	-0.048319022	-0.0075120066	-0.0074965329	-0.45296296	1.2048672	0	892.828209496897
3.9810717	5.7543994e-8	0.19	345.8669	357.99096	-0.047928774	-0.0075120349	-0.0074950684	-0.41746657	1.0993919	0	893.1951344343604
3.9810717	6.3095734e-8	0.19	315.78492	327.63984	-0.047538526	-0.007512066	-0.0074934625	-0.3850591	1.0031974	0	893.5620846141862
3.9810717	6.9183097e-8	0.19	288.34986	299.9512	-0.047148279	-0.0075121001	-0.0074917018	-0.35546878	0.91546703	0	893.929061488943
3.9810717	7.5857758e-8	0.19	263.32881	274.69077	-0.046758032	-0.0075121375	-0.0074897713	-0.32844771	0.83545606	0	894.296068675957
3.9810717	8.3176377e-8	0.19	240.50937	251.6449	-0.046367787	-0.0075121785	-0.0074876544	-0.30376984	0.7624853	0	894.6631072594868
3.9810717	9.1201084e-8	0.19	219.69783	230.61872	-0.045977542	-0.0075122234	-0.0074853333	-0.28122897	0.69593528	0	895.0301822962729
3.9810717	1.e-7	0.19	200.71752	211.43454	-0.045587299	-0.0075122727	-0.0074827883	-0.26063709	0.63524107	0	895.3972954239779
3.9810717	1.0964782e-7	0.19	183.40731	193.93027	-0.045197056	-0.0075123267	-0.0074799978	-0.24182268	0.57988741	0	895.7644523777087
3.9810717	1.2022644e-7	0.19	167.62025	177.95811	-0.044806815	-0.007512386	-0.0074769381	-0.22462934	0.52940443	0	896.1316555091973
3.9810717	1.3182567e-7	0.19	153.22234	163.38325	-0.044416575	-0.0075124509	-0.0074735831	-0.20891445	0.48336356	0	896.4989104173137
3.9810717	1.4454398e-7	0.19	140.09134	150.08274	-0.044026337	-0.0075125222	-0.0074699046	-0.1945479	0.44137396	0	896.8662211966836
3.9810717	1.5848932e-7	0.19	128.11578	137.94446	-0.0436361	-0.0075126004	-0.0074658712	-0.18141105	0.40307918	0	897.2335943923193
3.9810717	1.7378008e-7	0.19	117.19401	126.86614	-0.043245865	-0.007512686	-0.0074614486	-0.16939569	0.36815415	0	897.6010351878028
3.9810717	1.9054607e-7	0.19	107.2333	116.75453	-0.042855632	-0.00751278	-0.0074565994	-0.15840314	0.33630236	0	897.9685502596853
3.9810717	2.0892961e-7	0.19	98.149113	107.52456	-0.042465401	-0.0075128831	-0.0074512825	-0.1483434	0.30725344	0	898.3361469450331
3.9810717	2.2908677e-7	0.19	89.864317	99.098676	-0.042075173	-0.0075129961	-0.0074454527	-0.13913437	0.28076078	0	898.7038323732677
3.9810717	2.5118864e-7	0.19	82.308586	91.406119	-0.041684947	-0.0075131201	-0.0074390606	-0.1307012	0.2565995	0	899.0716163027146
3.9810717	2.7542287e-7	0.19	75.417782	84.382373	-0.041294724	-0.0075132559	-0.0074320518	-0.12297561	0.23456448	0	899.4395075051565
3.9810717	3.0199517e-7	0.19	69.133405	77.968593	-0.040904504	-0.007513405	-0.0074243671	-0.11589533	0.21446866	0	899.8075165488241
3.9810717	3.3113112e-7	0.19	63.402109	72.111117	-0.040514287	-0.0075135684	-0.0074159413	-0.10940357	0.19614146	0	900.1756550730529
3.9810717	3.6307805e-7	0.19	58.175241	66.761	-0.040124075	-0.0075137477	-0.0074067028	-0.10344853	0.1794273	0	900.5439339805594
3.9810717	3.9810717e-7	0.19	53.408428	61.873607	-0.039733866	-0.0075139442	-0.0073965734	-0.097982976	0.16418428	0	900.9123691105364
3.9810717	4.3651583e-7	0.19	49.061207	57.408232	-0.039343662	-0.0075141597	-0.0073854672	-0.092963818	0.15028301	0	901.2809739184987
3.9810717	4.7863009e-7	0.19	45.096671	53.327748	-0.038953462	-0.0075143961	-0.0073732902	-0.088351764	0.13760547	0	901.6497661246494
3.9810717	5.2480746e-7	0.19	41.481167	49.598299	-0.038563269	-0.0075146554	-0.0073599394	-0.084110973	0.12604406	0	902.0187612975863
3.9810717	5.7543994e-7	0.19	38.184003	46.189007	-0.038173081	-0.0075149397	-0.0073453016	-0.08020876	0.11550062	0	902.3879815246113
3.9810717	6.3095734e-7	0.19	35.177189	43.071712	-0.037782899	-0.0075152515	-0.0073292531	-0.07661531	0.10588565	0	902.7574479487637
3.9810717	6.9183097e-7	0.19	32.435199	40.220734	-0.037392725	-0.0075155934	-0.0073116583	-0.073303434	0.097117523	0	903.1271828978745
3.9810717	7.5857758e-7	0.19	29.934757	37.612651	-0.037002558	-0.0075159684	-0.0072923687	-0.070248326	0.089121814	0	903.4972138213453
3.9810717	8.3176377e-7	0.19	27.654635	35.226106	-0.036612401	-0.0075163798	-0.0072712216	-0.067427367	0.081830641	0	903.8675669452637
3.9810717	9.1201084e-7	0.19	25.575479	33.04162	-0.036222252	-0.0075168309	-0.0072480387	-0.064819922	0.075182113	0	904.2382759784159
3.9810717	1.e-6	0.19	23.679637	31.041432	-0.035832114	-0.0075173257	-0.0072226253	-0.062407169	0.069119785	0	904.6093728594467
3.9810717	1.0964782e-6	0.19	21.951016	29.209344	-0.035441987	-0.0075178683	-0.0071947678	-0.06017194	0.063592196	0	904.9808957196763
3.9810717	1.2022644e-6	0.19	20.37494	27.530584	-0.035051873	-0.0075184636	-0.0071642331	-0.058098572	0.058552418	0	905.3528842923837
3.9810717	1.3182567e-6	0.19	18.93803	25.991683	-0.034661773	-0.0075191163	-0.007130766	-0.056172779	0.053957669	0	905.7253831956484
3.9810717	1.4454398e-6	0.19	17.628087	24.580357	-0.034271687	-0.0075198324	-0.0070940881	-0.054381523	0.049768939	0	906.0984421287192
3.9810717	1.5848932e-6	0.19	16.43399	23.285409	-0.033881618	-0.0075206179	-0.0070538949	-0.052712913	0.045950669	0	906.4721126314532
3.9810717	1.7378008e-6	0.19	15.3456	22.096625	-0.033491567	-0.0075214794	-0.0070098549	-0.051156098	0.042470439	0	906.8464529428087
3.9810717	1.9054607e-6	0.19	14.353678	21.004696	-0.033101536	-0.0075224244	-0.0069616064	-0.049701175	0.039298703	0	907.2215257534045
3.9810717	2.0892961e-6	0.19	13.4498	20.001131	-0.032711526	-0.0075234611	-0.0069087563	-0.048339107	0.036408526	0	907.5974002988718
3.9810717	2.2908677e-6	0.19	12.62629	19.078193	-0.032321541	-0.0075245983	-0.0068508771	-0.047061645	0.033775365	0	907.9741491371448
3.9810717	2.5118864e-6	0.19	11.876154	18.228824	-0.031931582	-0.0075258459	-0.0067875054	-0.045861258	0.031376856	0	908.3518540536285
3.9810717	2.7542287e-6	0.19	11.193018	17.446594	-0.031541652	-0.0075272146	-0.0067181399	-0.044731073	0.029192621	0	908.7306017204082
3.9810717	3.0199517e-6	0.19	10.571078	16.725639	-0.031151753	-0.0075287162	-0.0066422392	-0.043664808	0.027204097	0	909.1104869076826
3.9810717	3.3113112e-6	0.19	10.005045	16.060616	-0.030761889	-0.0075303637	-0.0065592213	-0.04265673	0.025394379	0	909.4916097543262
3.9810717	3.6307805e-6	0.19	9.4901031	15.446654	-0.030372064	-0.0075321715	-0.0064684626	-0.041701597	0.023748067	0	909.8740778255387
3.9810717	3.9810717e-6	0.19	9.0218675	14.879313	-0.029982281	-0.007534155	-0.0063692975	-0.040794619	0.022251142	0	910.2580071238168
3.9810717	4.3651583e-6	0.19	8.5963448	14.354547	-0.029592544	-0.0075363318	-0.0062610209	-0.039931416	0.020890838	0	910.6435197635292
3.9810717	4.7863009e-6	0.19	8.2098994	13.868668	-0.029202858	-0.0075387206	-0.0061428891	-0.039107983	0.019655533	0	911.0307438102517
3.9810717	5.2480746e-6	0.19	7.8592209	13.418313	-0.028813228	-0.0075413425	-0.0060141258	-0.038320653	0.018534644	0	911.4198131492283
3.9810717	5.7543994e-6	0.19	7.5412941	13.000415	-0.02842366	-0.0075442204	-0.0058739275	-0.037566071	0.017518534	0	911.8108655818108
3.9810717	6.3095734e-6	0.19	7.2533718	12.612177	-0.02803416	-0.0075473795	-0.0057214728	-0.036841162	0.016598422	0	912.204042104813
3.9810717	6.9183097e-6	0.19	6.9929488	12.251044	-0.027644734	-0.0075508478	-0.0055559343	-0.03614311	0.015766302	0	912.5994847861533
3.9810717	7.5857758e-6	0.19	6.7577382	11.914682	-0.027255391	-0.0075546561	-0.0053764932	-0.035469333	0.015014866	0	912.9973313398043
3.9810717	8.3176377e-6	0.19	6.5456492	11.600956	-0.026866138	-0.0075588382	-0.0051823573	-0.034817464	0.014337433	0	913.3977166103058
3.9810717	9.1201084e-6	0.19	6.3547658	11.307909	-0.026476986	-0.0075634317	-0.0049727817	-0.034185331	0.013727884	0	913.8007632400623
3.9810717	0.00001	0.19	6.183328	11.033744	-0.026087944	-0.007568478	-0.0047470908	-0.033570943	0.013180596	0	914.2065833793527
3.9810717	0.000010964782	0.19	6.0297134	10.776808	-0.025699025	-0.007574023	-0.0045047025	-0.032972474	0.012690389	0	914.6152687288152
3.9810717	0.000012022644	0.19	5.888052	10.535564	-0.025317875	-0.0075893981	-0.0042544307	-0.032393	0.012247678	0	915.0180619371265
3.9810717	0.000013182567	0.19	5.7652881	10.308627	-0.024929954	-0.0075969521	-0.0039782377	-0.031821941	0.011857176	0	915.4318443280793
3.9810717	0.000014454398	0.19	5.6561216	10.094678	-0.024542261	-0.0076052483	-0.0036844451	-0.03126224	0.011510343	0	915.8485543332556
3.9810717	0.000015848932	0.19	5.5593373	9.8925012	-0.024154822	-0.0076143615	-0.0033730397	-0.030712624	0.011203308	0	916.2681698803865
3.9810717	0.000017378008	0.19	5.4737973	9.7009693	-0.02376766	-0.0076243749	-0.0030441693	-0.030171935	0.010932449	0	916.6906429745944
3.9810717	0.000019054607	0.19	5.3984353	9.5190338	-0.023380805	-0.0076353806	-0.002698135	-0.029639124	0.010694373	0	917.1158916773251
3.9810717	0.000020892961	0.19	5.3322526	9.3457215	-0.022994288	-0.0076474811	-0.0023353748	-0.029113243	0.010485905	0	917.5438086714239
3.9810717	0.000022908677	0.19	5.2743159	9.180131	-0.022608144	-0.0076607909	-0.0019564406	-0.028593438	0.01030408	0	917.9742625483419
3.9810717	0.000025118864	0.19	5.2237561	9.0214304	-0.022222412	-0.0076754372	-0.0015619703	-0.028078944	0.010146137	0	918.4071027887701
3.9810717	0.000027542287	0.19	5.1797668	8.8688545	-0.021837134	-0.0076915625	-0.001152658	-0.027569078	0.010009517	0	918.8421660220251
3.9810717	0.000030199517	0.19	5.1416036	8.7217029	-0.021452358	-0.0077093271	-0.00072922644	-0.027063233	0.0098918599	0	919.2792781272924
3.9810717	0.000033113112	0.19	5.1085825	8.5793368	-0.021068139	-0.0077289104	-0.00029239962	-0.026560871	0.0097909961	0	919.7182581818684
3.9810717	0.000036307805	0.19	5.0800773	8.4411761	-0.020684535	-0.0077505146	0.00015711672	-0.026061521	0.0097049404	0	920.1589257040812
3.9810717	0.000039810717	0.19	5.0555166	8.3066953	-0.020301613	-0.0077743684	0.00061865072	-0.025564766	0.0096318804	0	920.6010978043407
3.9810717	0.000043651583	0.19	5.0343801	8.1754191	-0.019919446	-0.0078007298	0.0010915739	-0.025070248	0.0095701631	0	921.0445936997509
3.9810717	0.000047863009	0.19	5.0161937	8.0469175	-0.019538116	-0.0078298917	0.0015753042	-0.024577653	0.0095182787	0	921.4892324381051
3.9810717	0.000052480746	0.19	5.000525	7.9208009	-0.019157714	-0.0078621859	0.0020693054	-0.024086714	0.0094748435	0	921.9348327943476
3.9810717	0.000057543994	0.19	4.9869781	7.7967144	-0.018778339	-0.0078979888	0.0025730819	-0.023597204	0.0094385815	0	922.3812132782773
3.9810717	0.000063095734	0.19	4.9751886	7.6743332	-0.018400103	-0.0079377277	0.0030861702	-0.023108933	0.0094083062	0	922.8281859157522
3.9810717	0.000069183097	0.19	4.9648194	7.5533578	-0.018023124	-0.0079818863	0.0036081292	-0.022621745	0.0093829037	0	923.275561094029
3.9810717	0.000075857758	0.19	4.9555562	7.4335094	-0.017647531	-0.0080310114	0.0041385283	-0.022135517	0.0093613169	0	923.7231407395773
3.9810717	0.000083176377	0.19	4.9471055	7.3145271	-0.017273461	-0.0080857174	0.0046769375	-0.021650155	0.0093425339	0	924.1707193694556
3.9810717	0.000091201084	0.19	4.9391922	7.1961652	-0.016901057	-0.008146692	0.005222916	-0.021165593	0.00932558	0	924.6180839353417
3.9810717	0.0001	0.19	4.9315602	7.0781925	-0.016530465	-0.0082146973	0.0057760055	-0.020681791	0.0093095152	0	925.0650154461622
3.9810717	0.00010964782	0.19	4.9239732	6.9603927	-0.016161828	-0.0082905713	0.0063357238	-0.020198733	0.0092934385	0	925.5112934629738
3.9810717	0.00012022644	0.19	4.9162193	6.8425666	-0.015795283	-0.0083752218	0.0069015656	-0.019716425	0.0092765003	0	925.9566990604732
3.9810717	0.00013182567	0.19	4.9081152	6.7245363	-0.01543095	-0.0084696199	0.0074730057	-0.019234893	0.0092579213	0	926.4010257334712
3.9810717	0.00014454398	0.19	4.899514	6.6061511	-0.015068926	-0.0085747851	0.0080495097	-0.018754179	0.0092370205	0	926.8440869444216
3.9810717	0.00015848932	0.19	4.8903121	6.4872939	-0.014709275	-0.0086917663	0.0086305501	-0.018274337	0.0092132474	0	927.2857283932046
3.9810717	0.00017378008	0.19	4.8804571	6.3678883	-0.01435202	-0.008821619	0.0092156262	-0.017795429	0.0091862172	0	927.7258390861466
3.9810717	0.00019054607	0.19	4.8699546	6.2479056	-0.013997135	-0.0089653775	0.0098042905	-0.017317519	0.009155744	0	928.1643635654033
3.9810717	0.00020892961	0.19	4.8588716	6.1273696	-0.013644537	-0.0091240265	0.010396174	-0.016840667	0.0091218671	0	928.6013139419715
3.9810717	0.00022908677	0.19	4.847338	6.0063585	-0.013294091	-0.0092984724	0.010991016	-0.016364926	0.0090848673	0	929.0367705176833
3.9810717	0.00025118864	0.19	4.835543	5.8850038	-0.012945605	-0.0094895186	0.011588684	-0.015890329	0.0090452668	0	929.4708900355282
3.9810717	0.00027542287	0.19	4.8237283	5.7634855	-0.01259884	-0.0096978455	0.012189196	-0.015416892	0.0090038136	0	929.9039002649381
3.9810717	0.00030199517	0.19	4.8121769	5.6420235	-0.012253517	-0.0099239953	0.012792733	-0.014944603	0.0089614509	0	930.3360956562984
3.9810717	0.00033113112	0.19	4.8012005	5.5208663	-0.011909331	-0.010168364	0.01339965	-0.014473421	0.0089192733	0	930.7678261507233
3.9810717	0.00036307805	0.19	4.7911243	5.4002788	-0.011565964	-0.010431202	0.014010471	-0.014003273	0.008878475	0	931.1994840731209
3.9810717	0.00039810717	0.19	4.7822726	5.2805288	-0.011223097	-0.010712613	0.014625892	-0.013534055	0.0088402947	0	931.6314933929591
3.9810717	0.00043651583	0.19	4.7749552	5.1618744	-0.010880429	-0.011012569	0.015246767	-0.013065633	0.0088059617	0	932.0642893732825
3.9810717	0.00047863009	0.19	4.7694558	5.0445531	-0.010537683	-0.011330916	0.0158741	-0.01259784	0.0087766473	0	932.4983115051787
3.9810717	0.00052480746	0.19	4.7660221	4.9287731	-0.010194622	-0.011667391	0.016509032	-0.012130488	0.0087534232	0	932.9339861540082
3.9810717	0.00057543994	0.19	4.7648591	4.8147058	-0.0098510543	-0.012021637	0.017152824	-0.011663362	0.0087372297	0	933.3717185449108
3.9810717	0.00063095734	0.19	4.7661243	4.702482	-0.009506841	-0.01239322	0.017806839	-0.011196232	0.0087288513	0	933.811882502752
3.9810717	0.00069183097	0.19	4.7699244	4.5921889	-0.0091619003	-0.012781646	0.018472529	-0.010728855	0.0087289011	0	934.2548140912668
3.9810717	0.00075857758	0.19	4.7763144	4.4838691	-0.0088162115	-0.01318638	0.019151417	-0.010260978	0.0087378115	0	934.7008046414827
3.9810717	0.00083176377	0.19	4.7852963	4.3775209	-0.0084698168	-0.013606861	0.019845076	-0.0097923481	0.0087558293	0	935.1500953116383
3.9810717	0.00091201084	0.19	4.7968197	4.2730989	-0.0081228239	-0.014042527	0.020555116	-0.0093227123	0.0087830142	0	935.602872323586
3.9810717	0.001	0.19	4.810781	4.1705151	-0.0077754081	-0.014492822	0.021283166	-0.0088518263	0.0088192379	0	936.0592617763914
3.9810717	0.0010964782	0.19	4.827023	4.0696398	-0.0074278142	-0.014957227	0.022030854	-0.0083794584	0.008864183	0	936.5193242908108
3.9810717	0.0012022644	0.19	4.8453337	3.9703022	-0.0070803601	-0.015435269	0.02279979	-0.007905395	0.0089173389	0	936.98304859206
3.9810717	0.0013182567	0.19	4.8654446	3.8722897	-0.0067334409	-0.015926546	0.023591549	-0.0074294459	0.0089779951	0	937.4503446228003
3.9810717	0.0014454398	0.19	4.8870272	3.7753457	-0.0063875325	-0.016430754	0.024407644	-0.0069514504	0.0090452249	0	937.9210353407328
3.9810717	0.0015848932	0.19	4.9096873	3.6791642	-0.0060431976	-0.01694772	0.025249487	-0.0064712829	0.0091178581	0	938.3948441190272
3.9810717	0.0017378008	0.19	4.932956	3.5833789	-0.0057010895	-0.017477473	0.02611833	-0.00598886	0.0091944248	0	938.8713806434457
3.9810717	0.0019054607	0.19	4.956269	3.4875376	-0.0053619594	-0.018020366	0.027015138	-0.0055041489	0.0092730428	0	939.3501113818043
3.9810717	0.0020892961	0.19	4.97892	3.3910453	-0.005026664	-0.018577352	0.027940313	-0.0050171783	0.0093511618	0	939.830303172469
3.9810717	0.0022908677	0.19	4.9999352	3.2930139	-0.0046961889	-0.019150672	0.028893009	-0.0045280578	0.0094249093	0	940.3108789540966
3.9810717	0.0025118864	0.19	5.0176808	3.191816	-0.0043717568	-0.0197457	0.02986929	-0.0040370194	0.0094871578	0	940.7899872755823
3.9810717	0.0027542287	0.19	5.0287098	3.0838465	-0.0040553212	-0.020375403	0.03085767	-0.00354453	0.0095221652	0	941.2637422449692
3.9810717	0.0030199517	0.19	5.0265128	2.962467	-0.0037507111	-0.021062656	0.031836798	-0.0030515473	0.0095008456	0	941.7247347411719
3.9810717	0.0033113112	0.19	5.0067221	2.8244231	-0.0034633367	-0.021813288	0.032802415	-0.002559642	0.0094078396	0	942.1671212220575
3.9810717	0.0036307805	0.19	4.9725531	2.6758805	-0.0031994487	-0.022586468	0.033796969	-0.0020704218	0.0092676635	0	942.592606453788
3.9810717	0.0039810717	0.19	4.9286274	2.5240714	-0.0029653975	-0.023330759	0.034873565	-0.0015850665	0.0091097821	0	943.0047039879681
3.9810717	0.0043651583	0.19	4.8805097	2.3742079	-0.0027597443	-0.024027968	0.03605211	-0.001104277	0.0089555787	0	943.4083194174339
3.9810717	0.0047863009	0.19	4.8351733	2.2303224	-0.002572022	-0.024696262	0.037316204	-0.00062812426	0.0088220683	0	943.8103595810294
3.9810717	0.0052480746	0.19	4.7987004	2.0951035	-0.0023891474	-0.025369178	0.038634135	-0.00015602385	0.0087212272	0	944.2174558558297
3.9810717	0.0057543994	0.19	4.7754966	1.9700901	-0.0021985477	-0.026084307	0.039970184	0.00031312147	0.0086606729	0	944.6350447454674
3.9810717	0.0063095734	0.19	4.7687099	1.8561566	-0.001988173	-0.02688167	0.041286267	0.00078077522	0.0086455742	0	945.0676492611638
3.9810717	0.0069183097	0.19	4.7803995	1.7537924	-0.0017475979	-0.027797535	0.042548105	0.0012486581	0.0086797254	0	945.518945348998
3.9810717	0.0075857758	0.19	4.8109591	1.6629296	-0.00147209	-0.028846938	0.043742717	0.001718617	0.0087646858	0	945.991062073449
3.9810717	0.0083176377	0.19	4.8588907	1.5826565	-0.0011645148	-0.030015888	0.044886208	0.0021924409	0.0088983811	0	946.4841821329994
3.9810717	0.0091201084	0.19	4.9218875	1.5114823	-0.00083098089	-0.031278963	0.04600618	0.0026717204	0.0090760854	0	946.9974935458779
3.9810717	0.01	0.19	4.9978759	1.4478465	-0.00047670982	-0.032615326	0.047125715	0.0031578272	0.0092925583	0	947.5302108636386
3.9810717	0.010964782	0.19	5.0852621	1.3903678	-0.00010532699	-0.034010868	0.04826124	0.0036519527	0.0095431386	0	948.0818602916627
3.9810717	0.012022644	0.19	5.1828612	1.3378899	0.00028068689	-0.035455994	0.049424733	0.0041551533	0.0098239828	0	948.6522493224056
3.9810717	0.013182567	0.19	5.2898143	1.2894671	0.0006796367	-0.036944018	0.050625339	0.0046683857	0.010132041	0	949.241417821625
3.9810717	0.014454398	0.19	5.4055305	1.244338	0.0010904267	-0.038470356	0.051870177	0.0051925357	0.010464972	0	949.8496071354726
3.9810717	0.015848932	0.19	5.5296428	1.2018966	0.0015124487	-0.040032055	0.053164813	0.005728443	0.010821049	0	950.4772394576382
3.9810717	0.017378008	0.19	5.6619705	1.161665	0.0019454977	-0.041627466	0.054513588	0.0062769201	0.011199059	0	951.12489712133
3.9810717	0.019054607	0.19	5.8024865	1.1232686	0.0023896964	-0.043255933	0.055919933	0.00683877	0.011598218	0	951.7933079044731
3.9810717	0.020892961	0.19	5.9512888	1.0864151	0.002845428	-0.044917541	0.057386624	0.0074147992	0.012018094	0	952.4833274128569
3.9810717	0.022908677	0.19	6.1085748	1.0508768	0.0033132727	-0.046612865	0.058916033	0.0080058291	0.012458543	0	953.1959242256098
3.9810717	0.025118864	0.19	6.2746192	1.0164751	0.0037939579	-0.048342787	0.06051032	0.0086127041	0.012919653	0	953.9321673801869
3.9810717	0.027542287	0.19	6.449759	0.98306795	0.0042883312	-0.050108412	0.062171513	0.0092362988	0.013401697	0	954.6932152855001
3.9810717	0.030199517	0.19	6.6343913	0.95053766	0.0047973932	-0.05191122	0.063901362	0.0098775239	0.013905087	0	955.480320476117
3.9810717	0.033113112	0.19	6.8289986	0.91877992	0.0053224386	-0.053753635	0.065700772	0.010537332	0.014430333	0	956.294860965558
3.9810717	0.036307805	0.19	7.0342207	0.88769485	0.0058653697	-0.055640216	0.067568619	0.011216732	0.014978021	0	957.1384234354126
3.9810717	0.039810717	0.19	7.2509948	0.85718185	0.0064292507	-0.057579677	0.069499726	0.011916806	0.015548807	0	958.0129627171614
3.9810717	0.043651583	0.19	7.480778	0.82714255	0.0070190932	-0.059587573	0.071482187	0.012638753	0.016143473	0	958.9210621081505
3.9810717	0.047863009	0.19	7.7258194	0.79749705	0.0076426986	-0.061688877	0.073494792	0.01338395	0.016763058	0	959.8662651790985
3.9810717	0.052480746	0.19	7.5461317	0.7676246	0.0075609731	-0.062458276	0.07696673	0.014153138	0.017405673	0	960.4092801330951
3.9810717	0.057543994	0.19	6.9694164	0.7392731	0.006796486	-0.062231586	0.081566184	0.014876358	0.018008763	0	960.5120771888038
3.9810717	0.063095734	0.19	6.4434457	0.71341622	0.0060992654	-0.062545146	0.085760936	0.015535943	0.018558789	0	960.6058291616358
3.9810717	0.069183097	0.19	5.9637547	0.68983447	0.0054633928	-0.063367598	0.089586596	0.016137491	0.019060418	0	960.6913322392688
3.9810717	0.075857758	0.19	5.5262714	0.66832765	0.00488347	-0.064670846	0.093075638	0.016686109	0.019517909	0	960.7693116346138
3.9810717	0.083176377	0.19	5.1272818	0.6487132	0.0043545741	-0.066429789	0.096257683	0.017186455	0.019935145	0	960.8404298258034
3.9810717	0.091201084	0.19	5.5576278	0.60820747	0.004850643	-0.069039673	0.098742142	0.017696545	0.020273606	0	961.7500381775361
3.9810717	0.1	0.19	6.4108271	0.56436917	0.0058717175	-0.071811293	0.10122302	0.018280908	0.02067222	0	963.1522843287165
3.9810717	0.10964782	0.19	7.5688745	0.52269088	0.0072962836	-0.07464565	0.10380427	0.018963376	0.021178092	0	964.9515553564015
3.9810717	0.12022644	0.19	9.0931675	0.48318127	0.0092324936	-0.07760033	0.10643341	0.019776784	0.021824092	0	967.2400984631419
3.9810717	0.13182567	0.19	11.053741	0.44585067	0.01180659	-0.08074613	0.10904491	0.020760383	0.022649515	0	970.1248284813314
3.9810717	0.14454398	0.19	13.533057	0.41071086	0.015167346	-0.084163846	0.11156339	0.021960861	0.023701101	0	973.732070911843
3.9810717	0.15848932	0.19	16.631071	0.37777422	0.019492121	-0.087940068	0.11390787	0.023433802	0.025034485	0	978.2140101610253
3.9810717	0.17378008	0.19	20.470742	0.34705261	0.024993766	-0.092162227	0.11599668	0.025245675	0.026716186	0	983.7560541357852
3.9810717	0.19054607	0.19	25.202473	0.31855547	0.031926763	-0.096912938	0.11775315	0.027476318	0.028826082	0	990.583618375199
3.9810717	0.20892961	0.19	31.005331	0.29228723	0.040590081	-0.10226352	0.1191121	0.030221727	0.03146019	0	998.9659680271831
3.9810717	0.22908677	0.19	38.08246	0.26824331	0.05132353	-0.10826663	0.12002721	0.033596703	0.034733288	0	1009.2141078665884
3.9810717	0.25118864	0.19	46.648315	0.2464045	0.064494488	-0.11494836	0.12047889	0.037736653	0.038780704	0	1021.6697163763786
3.9810717	0.27542287	0.19	56.906811	0.22672993	0.080473403	-0.12230117	0.12048142	0.042797706	0.043758392	0	1036.6834028900375
3.9810717	0.30199517	0.19	69.022519	0.20914988	0.099599946	-0.13027975	0.12008702	0.0489543	0.049840498	0	1054.583632689055
3.9810717	0.33113112	0.19	83.090925	0.19356066	0.12214626	-0.13880233	0.11938463	0.056393847	0.057213991	0	1075.6419792454994
3.9810717	0.36307805	0.19	99.116422	0.17982409	0.14828711	-0.14775871	0.11849182	0.065308778	0.066070719	0	1100.0436339904215
3.9810717	0.39810717	0.19	117.0056	0.1677728	0.17808596	-0.15702397	0.11754111	0.075887145	0.076598022	0	1127.8718826272284
3.9810717	0.43651583	0.19	136.57834	0.15722047	0.21150062	-0.16647456	0.11666387	0.088303432	0.088969598	0	1159.110536726809
3.9810717	0.47863009	0.19	157.59267	0.14797448	0.24840505	-0.17600241	0.11597627	0.1027112	0.10333819	0	1193.661911840724
3.9810717	0.52480746	0.19	179.77548	0.13984773	0.28861917	-0.18552409	0.11557008	0.1192385	0.11983106	0	1231.3731935840578
3.9810717	0.57543994	0.19	202.85115	0.13266755	0.33193844	-0.19498408	0.11550939	0.13798629	0.13854843	0	1272.063644441345
3.9810717	0.63095734	0.19	226.56338	0.12628091	0.37815759	-0.20435339	0.11583207	0.15902932	0.15956439	0	1315.5471602877537
3.9810717	0.69183097	0.19	250.68852	0.12055633	0.4270867	-0.21362509	0.11655418	0.1824187	0.18292952	0	1361.648165861721
3.9810717	0.75857758	0.19	275.04174	0.11538338	0.47856018	-0.2228089	0.1176754	0.20818555	0.20867445	0	1410.2110214113673
3.9810717	0.83176377	0.19	299.47772	0.11067083	0.53244045	-0.23192596	0.11918434	0.23634477	0.2368137	0	1461.104428222465
3.9810717	0.91201084	0.19	323.88803	0.10634409	0.58861805	-0.24100432	0.12106295	0.26689888	0.26734948	0	1514.2223192324361
3.9810717	1.	0.19	348.1969	0.10234263	0.64700991	-0.25007562	0.1232899	0.29984141	0.30027505	0	1569.4828369711618
3.9810717	1.0964782	0.19	372.35627	0.098617456	0.70755661	-0.25917272	0.12584301	0.33515984	0.33557769	0	1626.8261929492473
3.9810717	1.2022644	0.19	396.34099	0.095128986	0.77021938	-0.26832812	0.12870074	0.37283812	0.37324119	0	1686.212114952921
3.9810717	1.3182567	0.19	420.14436	0.091845179	0.8349773	-0.27757305	0.1318432	0.41285866	0.41324782	0	1747.6173965636478
3.9810717	1.4454398	0.19	443.77429	0.088740044	0.9018247	-0.28693698	0.13525259	0.45520398	0.45557999	0	1811.0335328358788
3.9810717	1.5848932	0.19	467.2501	0.085792414	0.97076892	-0.29644744	0.13891342	0.49985794	0.50022145	0	1876.4646549445015
3.9810717	1.7378008	0.19	490.59974	0.082984963	1.0418284	-0.30613	0.14281252	0.54680673	0.54715835	0	1943.9257374001947
3.9810717	1.9054607	0.19	513.85769	0.080303429	1.1150312	-0.31600842	0.14693896	0.59603964	0.5963799	0	2013.4411932113169
3.9810717	2.0892961	0.19	537.06317	0.077735995	1.1904137	-0.32610478	0.15128385	0.64754956	0.64787894	0	2085.043616745468
3.9810717	2.2908677	0.19	560.25878	0.075272801	1.2680195	-0.33643971	0.15584018	0.70133342	0.70165236	0	2158.77272164482
3.9810717	2.5118864	0.19	583.48938	0.072905555	1.3478985	-0.34703256	0.16060263	0.75739243	0.75770134	0	2234.6744425076804
3.9810717	2.7542287	0.19	606.80131	0.070627228	1.4301064	-0.35790163	0.16556737	0.81573229	0.81603154	0	2312.80042940234
3.9810717	3.0199517	0.19	630.24167	0.068431811	1.5147042	-0.36906433	0.17073191	0.87636327	0.87665322	0	2393.2075513067807
3.9810717	3.3113112	0.19	653.8579	0.066314124	1.6017575	-0.38053737	0.17609495	0.93930028	0.93958126	0	2475.9572116353215
3.9810717	3.6307805	0.19	677.69741	0.064269657	1.6913364	-0.39233688	0.18165622	1.0045629	1.0048352	0	2561.1152257192953
3.9810717	3.9810717	0.19	701.80728	0.062294455	1.7835151	-0.40447855	0.18741638	1.0721753	1.0724393	0	2648.751427129167
3.9810717	4.3651583	0.19	726.23417	0.060385015	1.8783717	-0.41697778	0.19337694	1.1421663	1.1424222	0	2738.939465480071
3.9810717	4.7863009	0.19	751.02411	0.058538207	1.9759881	-0.42984973	0.19954012	1.2145693	1.2148173	0	2831.756687482835
3.9810717	5.2480746	0.19	776.22251	0.056751214	2.0764499	-0.44310944	0.20590882	1.289422	1.2896624	0	2927.284037631929
3.9810717	5.7543994	0.19	801.8741	0.055021479	2.1798464	-0.45677191	0.21248653	1.3667666	1.3669998	0	3025.60604213889
3.9810717	6.3095734	0.19	828.02294	0.053346662	2.2862702	-0.47085219	0.21927731	1.4466499	1.446876	0	3126.81042953584
3.9810717	6.9183097	0.19	854.71247	0.051724611	2.3958176	-0.4853654	0.22628571	1.5291226	1.5293418	0	3230.9884922202286
3.9810717	7.5857758	0.19	881.98552	0.05015333	2.5085883	-0.50032681	0.23351673	1.6142399	1.6144524	0	3338.2347974445333
3.9810717	8.3176377	0.19	909.88439	0.048630959	2.6246856	-0.51575188	0.24097582	1.7020611	1.7022671	0	3448.647375229329
3.9810717	9.1201084	0.19	938.45092	0.047155755	2.7442163	-0.53165634	0.24866885	1.7926494	1.7928492	0	3562.3276190512315
3.9810717	10.	0.19	967.72657	0.045726077	2.8672908	-0.54805619	0.25660205	1.8860726	1.8862663	0	3679.3803690883838