3.0199517	1.e-12	0.23	6.5037322e6	8.6310549e6	-0.070410719	-0.005253663	-0.0052536624	-6922.1364	20819.807	0	872.2745615541368
3.0199517	1.0964782e-12	0.23	5.9314745e6	7.8716177e6	-0.07011468	-0.005253663	-0.0052536623	-6313.0697	18987.89	0	872.5527095623953
3.0199517	1.2022644e-12	0.23	5.4095694e6	7.1790028e6	-0.069818642	-0.005253663	-0.0052536622	-5757.5943	17317.162	0	872.8308566310886
3.0199517	1.3182567e-12	0.23	4.9335862e6	6.5473304e6	-0.069522603	-0.005253663	-0.0052536621	-5250.9947	15793.44	0	873.1090046393472
3.0199517	1.4454398e-12	0.23	4.4994843e6	5.9712383e6	-0.069226564	-0.005253663	-0.0052536621	-4788.9703	14403.789	0	873.3871526259959
3.0199517	1.5848932e-12	0.23	4.1035788e6	5.4458362e6	-0.068930525	-0.005253663	-0.005253662	-4367.599	13136.412	0	873.6653006342547
3.0199517	1.7378008e-12	0.23	3.7425086e6	4.9666637e6	-0.068634486	-0.0052536629	-0.0052536619	-3983.3038	11980.551	0	873.9434486425132
3.0199517	1.9054607e-12	0.23	3.4132087e6	4.5296531e6	-0.068338447	-0.005253663	-0.0052536618	-3632.8224	10926.393	0	874.2215966507717
3.0199517	2.0892961e-12	0.23	3.1128835e6	4.1310948e6	-0.068042408	-0.005253663	-0.0052536617	-3313.1795	9964.9887	0	874.4997446590305
3.0199517	2.2908677e-12	0.23	2.8389838e6	3.7676052e6	-0.06774637	-0.005253663	-0.0052536616	-3021.6617	9088.1782	0	874.7778917277237
3.0199517	2.5118864e-12	0.23	2.5891843e6	3.4360988e6	-0.067450331	-0.005253663	-0.0052536615	-2755.7942	8288.5174	0	875.0560397359824
3.0199517	2.7542287e-12	0.23	2.3613644e6	3.1337614e6	-0.067154292	-0.005253663	-0.0052536613	-2513.3203	7559.2181	0	875.3341877658511
3.0199517	3.0199517e-12	0.23	2.1535902e6	2.8580263e6	-0.066858253	-0.005253663	-0.0052536611	-2292.1813	6894.0893	0	875.6123357957199
3.0199517	3.3113112e-12	0.23	1.9640978e6	2.606553e6	-0.066562214	-0.005253663	-0.0052536609	-2090.5002	6287.4845	0	875.8904838255885
3.0199517	3.6307805e-12	0.23	1.7912788e6	2.3772065e6	-0.066266175	-0.005253663	-0.0052536607	-1906.5648	5734.2545	0	876.1686318554571
3.0199517	3.9810717e-12	0.23	1.6336659e6	2.1680401e6	-0.065970137	-0.005253663	-0.0052536605	-1738.8137	5229.7026	0	876.4467789457605
3.0199517	4.3651583e-12	0.23	1.4899213e6	1.977278e6	-0.065674098	-0.005253663	-0.0052536603	-1585.8228	4769.5459	0	876.724926975629
3.0199517	4.7863009e-12	0.23	1.3588247e6	1.8033009e6	-0.065378059	-0.005253663	-0.00525366	-1446.2935	4349.8779	0	877.0030750271076
3.0199517	5.2480746e-12	0.23	1.2392631e6	1.6446319e6	-0.06508202	-0.005253663	-0.0052536597	-1319.0412	3967.1362	0	877.2812230785864
3.0199517	5.7543994e-12	0.23	1.1302216e6	1.4999241e6	-0.064785981	-0.005253663	-0.0052536595	-1202.9856	3618.0716	0	877.559371108455
3.0199517	6.3095734e-12	0.23	1.0307746e6	1.367949e6	-0.064489942	-0.005253663	-0.0052536591	-1097.1418	3299.7209	0	877.8375191815437
3.0199517	6.9183097e-12	0.23	940077.91	1.2475862e6	-0.064193904	-0.005253663	-0.0052536587	-1000.6109	3009.3817	0	878.1156663150671
3.0199517	7.5857758e-12	0.23	857361.51	1.137814e6	-0.063897865	-0.005253663	-0.0052536583	-912.57376	2744.5891	0	878.3938143881558
3.0199517	8.3176377e-12	0.23	781923.26	1.0377007e6	-0.063601826	-0.005253663	-0.0052536578	-832.28288	2503.0954	0	878.6719624828544
3.0199517	9.1201084e-12	0.23	713122.76	946396.14	-0.063305787	-0.005253663	-0.0052536573	-759.0567	2282.8505	0	878.950110577553
3.0199517	1.e-11	0.23	650375.94	863125.41	-0.063009748	-0.005253663	-0.0052536568	-692.2736	2081.9848	0	879.2282586722516
3.0199517	1.0964782e-11	0.23	593150.18	787181.61	-0.062713709	-0.0052536631	-0.0052536562	-631.36666	1898.7931	0	879.5064067885602
3.0199517	1.2022644e-11	0.23	540959.65	717920.03	-0.062417671	-0.005253663	-0.0052536556	-575.81885	1731.7203	0	879.7845539653036
3.0199517	1.3182567e-11	0.23	493361.33	654752.71	-0.062121632	-0.0052536631	-0.0052536549	-525.15861	1579.3481	0	880.0627021032224
3.0199517	1.4454398e-11	0.23	449951.15	597143.42	-0.061825593	-0.0052536631	-0.0052536541	-478.95591	1440.383	0	880.340850262751
3.0199517	1.5848932e-11	0.23	410360.59	544603.12	-0.061529554	-0.0052536631	-0.0052536532	-436.81852	1313.6453	0	880.6189984438896
3.0199517	1.7378008e-11	0.23	374253.57	496685.78	-0.061233515	-0.0052536631	-0.0052536523	-398.38873	1198.0591	0	880.8971466250284
3.0199517	1.9054607e-11	0.23	341323.58	452984.65	-0.060937476	-0.0052536631	-0.0052536512	-363.34032	1092.6433	0	881.175294849387
3.0199517	2.0892961e-11	0.23	311291.07	413128.73	-0.060641438	-0.0052536631	-0.0052536501	-331.37577	996.50295	0	881.4534421341804
3.0199517	2.2908677e-11	0.23	283901.1	376779.69	-0.060345399	-0.0052536631	-0.0052536489	-302.22372	908.82189	0	881.731590380149
3.0199517	2.5118864e-11	0.23	258921.15	343628.97	-0.06004936	-0.0052536631	-0.0052536475	-275.63671	828.85582	0	882.0097386693377
3.0199517	2.7542287e-11	0.23	236139.16	313395.14	-0.059753321	-0.0052536631	-0.005253646	-251.38904	755.92589	0	882.2878869801365
3.0199517	3.0199517e-11	0.23	215361.74	285821.55	-0.059457282	-0.0052536632	-0.0052536444	-229.27488	689.41299	0	882.5660353125452
3.0199517	3.3113112e-11	0.23	196412.5	260674.14	-0.059161243	-0.0052536632	-0.0052536426	-209.1065	628.75253	0	882.8441836881738
3.0199517	3.6307805e-11	0.23	179130.6	237739.41	-0.058865205	-0.0052536632	-0.0052536406	-190.7127	573.42952	0	883.1223311674571
3.0199517	3.9810717e-11	0.23	163369.31	216822.68	-0.058569166	-0.0052536632	-0.0052536385	-173.93732	522.97433	0	883.4004796079159
3.0199517	4.3651583e-11	0.23	148994.85	197746.39	-0.058273127	-0.0052536632	-0.0052536361	-158.63797	476.95866	0	883.6786281132046
3.0199517	4.7863009e-11	0.23	135885.18	180348.6	-0.057977088	-0.0052536633	-0.0052536335	-144.68477	434.99187	0	883.9567766617133
3.0199517	5.2480746e-11	0.23	123929.03	164481.62	-0.057681049	-0.0052536633	-0.0052536307	-131.95927	396.71769	0	884.2349252534422
3.0199517	5.7543994e-11	0.23	113024.88	150010.75	-0.05738501	-0.0052536634	-0.0052536276	-120.35345	361.81123	0	884.5130739100009
3.0199517	6.3095734e-11	0.23	103080.18	136813.16	-0.057088972	-0.0052536634	-0.0052536242	-109.7688	329.97616	0	884.7912216918244
3.0199517	6.9183097e-11	0.23	94010.508	124776.8	-0.056792933	-0.0052536635	-0.0052536205	-100.11545	300.94223	0	885.0693704780431
3.0199517	7.5857758e-11	0.23	85738.869	113799.5	-0.056496894	-0.0052536635	-0.0052536164	-91.311463	274.46298	0	885.3475193507018
3.0199517	8.3176377e-11	0.23	78195.043	103788.08	-0.056200855	-0.0052536635	-0.0052536119	-83.282108	250.31361	0	885.6256683098005
3.0199517	9.1201084e-11	0.23	71314.994	94657.542	-0.055904816	-0.0052536635	-0.0052536069	-75.959224	228.28913	0	885.9038173769494
3.0199517	1.e-10	0.23	65040.312	86330.387	-0.055608778	-0.0052536636	-0.0052536015	-69.280648	208.20255	0	886.1819655909729
3.0199517	1.0964782e-10	0.23	59317.736	78735.925	-0.055312739	-0.0052536637	-0.0052535955	-63.189688	189.88339	0	886.4601148742217
3.0199517	1.2022644e-10	0.23	54098.684	71809.684	-0.0550167	-0.0052536637	-0.005253589	-57.634641	173.1761	0	886.7382642655206
3.0199517	1.3182567e-10	0.23	49338.851	65492.868	-0.054720661	-0.0052536638	-0.0052535819	-52.56835	157.93888	0	887.0164137864795
3.0199517	1.4454398e-10	0.23	44997.833	59731.857	-0.054424622	-0.0052536639	-0.0052535741	-47.947814	144.04237	0	887.2945634587084
3.0199517	1.5848932e-10	0.23	41038.777	54477.743	-0.054128584	-0.005253664	-0.0052535655	-43.733808	131.3686	0	887.5727123642519
3.0199517	1.7378008e-10	0.23	37428.075	49685.927	-0.053832545	-0.0052536641	-0.0052535562	-39.890562	119.80998	0	887.8508623606308
3.0199517	1.9054607e-10	0.23	34135.076	45315.73	-0.053536506	-0.0052536642	-0.0052535458	-36.385455	109.2684	0	888.1290125947196
3.0199517	2.0892961e-10	0.23	31131.825	41330.055	-0.053240467	-0.0052536644	-0.0052535346	-33.188733	99.654366	0	888.4071630016889
3.0199517	2.2908677e-10	0.23	28392.828	37695.069	-0.052944428	-0.0052536645	-0.0052535221	-30.273262	90.886261	0	888.6853136895877
3.0199517	2.5118864e-10	0.23	25894.833	34379.914	-0.05264839	-0.0052536646	-0.0052535085	-27.614295	82.889653	0	888.9634636756315
3.0199517	2.7542287e-10	0.23	23616.634	31356.448	-0.052352351	-0.0052536648	-0.0052534937	-25.189262	75.59666	0	889.2416148605606
3.0199517	3.0199517e-10	0.23	21538.892	28599.007	-0.052056312	-0.0052536649	-0.0052534773	-22.977579	68.945372	0	889.5197663912497
3.0199517	3.3113112e-10	0.23	19643.968	26084.182	-0.051760273	-0.0052536652	-0.0052534594	-20.960475	62.879324	0	889.7979182460889
3.0199517	3.6307805e-10	0.23	17915.778	23790.626	-0.051464234	-0.0052536654	-0.0052534398	-19.120827	57.347023	0	890.0760704682982
3.0199517	3.9810717e-10	0.23	16339.649	21698.871	-0.051168196	-0.0052536656	-0.0052534183	-17.443023	52.301505	0	890.3542221615321
3.0199517	4.3651583e-10	0.23	14902.203	19791.159	-0.050872157	-0.0052536659	-0.0052533946	-15.912822	47.699937	0	890.6323752697515
3.0199517	4.7863009e-10	0.23	13591.236	18051.297	-0.050576118	-0.0052536662	-0.0052533687	-14.517235	43.503258	0	890.910528853391
3.0199517	5.2480746e-10	0.23	12395.621	16464.516	-0.05028008	-0.0052536664	-0.0052533403	-13.244419	39.675841	0	891.1886820377151
3.0199517	5.7543994e-10	0.23	11305.206	15017.346	-0.049984041	-0.0052536668	-0.0052533092	-12.083571	36.185195	0	891.4668367450747
3.0199517	6.3095734e-10	0.23	10310.736	13697.504	-0.049688002	-0.0052536671	-0.0052532751	-11.024839	33.001688	0	891.7449921007344
3.0199517	6.9183097e-10	0.23	9403.7688	12493.785	-0.049391963	-0.0052536676	-0.0052532377	-10.059238	30.098295	0	892.0231481695241
3.0199517	7.5857758e-10	0.23	8576.6048	11395.972	-0.049095925	-0.005253668	-0.0052531966	-9.1785727	27.45037	0	892.3013040983186
3.0199517	8.3176377e-10	0.23	7822.2224	10394.747	-0.048799886	-0.0052536685	-0.0052531516	-8.375371	25.035433	0	892.5794618094689
3.0199517	9.1201084e-10	0.23	7134.2174	9481.6105	-0.048503847	-0.005253669	-0.0052531022	-7.6428161	22.832984	0	892.857620471459
3.0199517	1.e-9	0.23	6506.7493	8648.8121	-0.048207809	-0.0052536696	-0.0052530482	-6.9746919	20.824327	0	893.1357791879439
3.0199517	1.0964782e-9	0.23	5934.4916	7889.2829	-0.04791177	-0.0052536702	-0.0052529889	-6.3653295	18.99241	0	893.4139399893243
3.0199517	1.2022644e-9	0.23	5412.5863	7196.5759	-0.047615732	-0.005253671	-0.0052529239	-5.8095582	17.321682	0	893.6921010829096
3.0199517	1.3182567e-9	0.23	4936.6032	6564.8116	-0.047319693	-0.0052536717	-0.0052528525	-5.3026629	15.79796	0	893.9702644991003
3.0199517	1.4454398e-9	0.23	4502.5014	5988.6275	-0.047023654	-0.0052536726	-0.0052527744	-4.8403427	14.408309	0	894.2484293631614
3.0199517	1.5848932e-9	0.23	4106.5958	5463.1333	-0.046727616	-0.0052536735	-0.0052526886	-4.4186757	13.140932	0	894.5265949516274
3.0199517	1.7378008e-9	0.23	3745.5256	4983.8688	-0.046431577	-0.0052536745	-0.0052525947	-4.0340847	11.985071	0	894.8047632300689
3.0199517	1.9054607e-9	0.23	3416.2257	4546.7662	-0.046135539	-0.0052536756	-0.0052524916	-3.6833075	10.930912	0	895.0829325570654
3.0199517	2.0892961e-9	0.23	3115.9006	4148.1159	-0.045839501	-0.0052536768	-0.0052523785	-3.3633689	9.9695087	0	895.3611040450621
3.0199517	2.2908677e-9	0.23	2842.0009	3784.5343	-0.045543462	-0.0052536782	-0.0052522547	-3.0715553	9.0926981	0	895.6392787848945
3.0199517	2.5118864e-9	0.23	2592.2014	3452.9359	-0.045247424	-0.0052536796	-0.0052521187	-2.8053922	8.2930374	0	895.9174552215819
3.0199517	2.7542287e-9	0.23	2364.3815	3150.5065	-0.044951386	-0.0052536812	-0.0052519698	-2.5626224	7.5637382	0	896.1956344459599
3.0199517	3.0199517e-9	0.23	2156.6073	2874.6795	-0.044655348	-0.005253683	-0.0052518064	-2.3411877	6.8986094	0	896.473816803788
3.0199517	3.3113112e-9	0.23	1967.115	2623.1141	-0.044359309	-0.0052536849	-0.0052516273	-2.1392108	6.2920047	0	896.7520034939523
3.0199517	3.6307805e-9	0.23	1794.296	2393.6757	-0.044063271	-0.005253687	-0.0052514309	-1.9549796	5.7387747	0	897.0301929830815
3.0199517	3.9810717e-9	0.23	1636.6831	2184.4172	-0.043767233	-0.0052536894	-0.0052512156	-1.7869327	5.2342229	0	897.3083865565013
3.0199517	4.3651583e-9	0.23	1492.9385	1993.5632	-0.043471195	-0.0052536919	-0.0052509794	-1.6336461	4.7740663	0	897.5865846464119
3.0199517	4.7863009e-9	0.23	1361.8419	1819.4941	-0.043175157	-0.0052536947	-0.0052507205	-1.493821	4.3543984	0	897.864787641793
3.0199517	5.2480746e-9	0.23	1242.2804	1660.7331	-0.04287912	-0.0052536978	-0.0052504366	-1.3662729	3.9716568	0	898.1429951001096
3.0199517	5.7543994e-9	0.23	1133.2389	1515.9333	-0.042583082	-0.0052537011	-0.0052501254	-1.2499217	3.6225923	0	898.4212093975225
3.0199517	6.3095734e-9	0.23	1033.792	1383.8662	-0.042287045	-0.0052537048	-0.005249784	-1.143782	3.3042418	0	898.6994292815907
3.0199517	6.9183097e-9	0.23	943.0953	1263.4114	-0.041991007	-0.0052537088	-0.0052494098	-1.0469554	3.0139026	0	898.9776571933055
3.0199517	7.5857758e-9	0.23	860.37894	1153.5473	-0.04169497	-0.0052537133	-0.0052489995	-0.95862241	2.7491102	0	899.255891966666
3.0199517	8.3176377e-9	0.23	784.94073	1053.3419	-0.041398933	-0.0052537181	-0.0052485496	-0.87803573	2.5076166	0	899.5341352975876
3.0199517	9.1201084e-9	0.23	716.14028	961.9454	-0.041102896	-0.0052537235	-0.0052480563	-0.80451375	2.2873719	0	899.8123880072508
3.0199517	1.e-8	0.23	653.39353	878.58271	-0.040806859	-0.0052537293	-0.0052475153	-0.73743485	2.0865064	0	900.0906510248851
3.0199517	1.0964782e-8	0.23	596.16782	802.54693	-0.040510823	-0.0052537357	-0.0052469222	-0.6762321	1.9033149	0	900.3689243617658
3.0199517	1.2022644e-8	0.23	543.97738	733.19339	-0.040214786	-0.0052537427	-0.0052462719	-0.62038848	1.7362423	0	900.6472109991337
3.0199517	1.3182567e-8	0.23	496.37913	669.93411	-0.03991875	-0.0052537504	-0.0052455588	-0.56943242	1.5838704	0	900.925510268018
3.0199517	1.4454398e-8	0.23	452.96902	612.23286	-0.039622714	-0.0052537589	-0.005244777	-0.52293388	1.4449055	0	901.2038243829743
3.0199517	1.5848932e-8	0.23	413.37856	559.60062	-0.039326679	-0.0052537681	-0.0052439196	-0.48050065	1.3181681	0	901.4821538955277
3.0199517	1.7378008e-8	0.23	377.27164	511.59134	-0.039030644	-0.0052537783	-0.0052429796	-0.44177501	1.2025823	0	901.7605012579436
3.0199517	1.9054607e-8	0.23	344.34176	467.79826	-0.038734609	-0.0052537894	-0.0052419489	-0.40643074	1.0971668	0	902.0388682206325
3.0199517	2.0892961e-8	0.23	314.30937	427.85041	-0.038438574	-0.0052538016	-0.0052408188	-0.37417032	1.0010268	0	902.3172566636642
3.0199517	2.2908677e-8	0.23	286.91952	391.40945	-0.03814254	-0.005253815	-0.0052395797	-0.34472238	0.91334619	0	902.5956677220339
3.0199517	2.5118864e-8	0.23	261.93972	358.16682	-0.037846507	-0.0052538296	-0.0052382208	-0.31783948	0.8333806	0	902.8741037296218
3.0199517	2.7542287e-8	0.23	239.15789	327.84108	-0.037550474	-0.0052538458	-0.0052367311	-0.29329591	0.76045118	0	903.1525680030938
3.0199517	3.0199517e-8	0.23	218.38064	300.1756	-0.037254441	-0.0052538634	-0.0052350975	-0.27088582	0.69393885	0	903.4310633733602
3.0199517	3.3113112e-8	0.23	199.4316	274.9363	-0.036958409	-0.0052538827	-0.0052333064	-0.25042149	0.63327899	0	903.7095918398161
3.0199517	3.6307805e-8	0.23	182.1499	251.9097	-0.036662378	-0.005253904	-0.0052313425	-0.23173172	0.57795665	0	903.9881567087916
3.0199517	3.9810717e-8	0.23	166.38884	230.90111	-0.036366347	-0.0052539273	-0.0052291891	-0.21466035	0.5275022	0	904.2667625287233
3.0199517	4.3651583e-8	0.23	152.01463	211.73299	-0.036070318	-0.0052539527	-0.0052268279	-0.199065	0.48148734	0	904.5454113751105
3.0199517	4.7863009e-8	0.23	138.90524	194.24337	-0.035774289	-0.0052539807	-0.005224239	-0.18481576	0.43952144	0	904.8241094274745
3.0199517	5.2480746e-8	0.23	126.94938	178.28457	-0.035478261	-0.0052540114	-0.0052214004	-0.1717942	0.40124823	0	905.102860500451
3.0199517	5.7543994e-8	0.23	116.04557	163.72192	-0.035182234	-0.0052540451	-0.0052182878	-0.15989229	0.36634284	0	905.3816698452703
3.0199517	6.3095734e-8	0.23	106.10123	150.43255	-0.034886209	-0.005254082	-0.005214875	-0.1490115	0.33450894	0	905.6605421841882
3.0199517	6.9183097e-8	0.23	97.031959	138.30445	-0.034590184	-0.0052541225	-0.005211133	-0.13906199	0.30547629	0	905.939485663236
3.0199517	7.5857758e-8	0.23	88.760755	127.23543	-0.034294161	-0.0052541668	-0.00520703	-0.1299618	0.27899844	0	906.2185052752641
3.0199517	8.3176377e-8	0.23	81.217407	117.13232	-0.03399814	-0.0052542155	-0.0052025312	-0.12163619	0.25485061	0	906.4976085405538
3.0199517	9.1201084e-8	0.23	74.337881	107.91013	-0.03370212	-0.0052542688	-0.0051975984	-0.114017	0.23282782	0	906.7768046536912
3.0199517	1.e-7	0.23	68.063774	99.491347	-0.033406102	-0.0052543274	-0.00519219	-0.10704207	0.2127431	0	907.0561016648725
3.0199517	1.0964782e-7	0.23	62.341828	91.805296	-0.033110086	-0.0052543915	-0.0051862597	-0.1006547	0.19442596	0	907.335509579529
3.0199517	1.2022644e-7	0.23	57.123466	84.787508	-0.032814073	-0.0052544619	-0.0051797576	-0.094803174	0.1777209	0	907.6150382414869
3.0199517	1.3182567e-7	0.23	52.364391	78.37919	-0.032518061	-0.0052545391	-0.0051726283	-0.089440336	0.16248612	0	907.8947015018185
3.0199517	1.4454398e-7	0.23	48.024203	72.526725	-0.032222053	-0.0052546237	-0.0051648116	-0.084523172	0.14859229	0	908.1745095510496
3.0199517	1.5848932e-7	0.23	44.066058	67.181212	-0.031926047	-0.0052547166	-0.0051562411	-0.080012454	0.13592145	0	908.4544786173531
3.0199517	1.7378008e-7	0.23	40.456354	62.298055	-0.031630045	-0.0052548183	-0.0051468442	-0.075872404	0.12436606	0	908.7346225104604
3.0199517	1.9054607e-7	0.23	37.164449	57.836582	-0.031334046	-0.00525493	-0.0051365415	-0.072070388	0.113828	0	909.0149593282792
3.0199517	2.0892961e-7	0.23	34.162397	53.759702	-0.031038051	-0.0052550524	-0.0051252456	-0.068576646	0.10421783	0	909.2955070183872
3.0199517	2.2908677e-7	0.23	31.424715	50.033587	-0.03074206	-0.0052551867	-0.0051128612	-0.065364032	0.095453966	0	909.5762861751167
3.0199517	2.5118864e-7	0.23	28.928162	46.627389	-0.030446074	-0.0052553339	-0.0050992834	-0.062407786	0.087462007	0	909.857318527796
3.0199517	2.7542287e-7	0.23	26.651543	43.512974	-0.030150093	-0.0052554955	-0.0050843977	-0.059685327	0.08017411	0	910.1386288198782
3.0199517	3.0199517e-7	0.23	24.575534	40.664684	-0.029854118	-0.0052556727	-0.0050680786	-0.057176055	0.073528406	0	910.4202432323523
3.0199517	3.3113112e-7	0.23	22.68251	38.059123	-0.029558149	-0.0052558669	-0.0050501885	-0.054861184	0.067468482	0	910.702191500582
3.0199517	3.6307805e-7	0.23	20.956401	35.674954	-0.029262186	-0.00525608	-0.0050305771	-0.052723576	0.061942892	0	910.9845061044023
3.0199517	3.9810717e-7	0.23	19.382554	33.492719	-0.028966231	-0.0052563138	-0.0050090798	-0.050747596	0.056904728	0	911.2672207347473
3.0199517	4.3651583e-7	0.23	17.947607	31.494673	-0.028670284	-0.0052565701	-0.0049855164	-0.048918985	0.052311221	0	911.5503743328424
3.0199517	4.7863009e-7	0.23	16.639381	29.664639	-0.028374346	-0.0052568514	-0.0049596902	-0.047224732	0.048123374	0	911.8340084659983
3.0199517	5.2480746e-7	0.23	15.446766	27.98786	-0.028078418	-0.0052571599	-0.0049313863	-0.045652969	0.044305634	0	912.1181686345464
3.0199517	5.7543994e-7	0.23	14.35964	26.450884	-0.0277825	-0.0052574982	-0.0049003698	-0.044192865	0.040825589	0	912.4029056003836
3.0199517	6.3095734e-7	0.23	13.368772	25.041445	-0.027486594	-0.0052578694	-0.004866385	-0.04283454	0.037653694	0	912.6882727411574
3.0199517	6.9183097e-7	0.23	12.465749	23.748358	-0.027190702	-0.0052582766	-0.0048291529	-0.041568976	0.034763016	0	912.9743284696451
3.0199517	7.5857758e-7	0.23	11.642902	22.561426	-0.026894823	-0.0052587233	-0.00478837	-0.040387944	0.03212901	0	913.2611393117716
3.0199517	8.3176377e-7	0.23	10.893245	21.471353	-0.02659896	-0.0052592134	-0.0047437068	-0.039283932	0.029729308	0	913.5487736538009
3.0199517	9.1201084e-7	0.23	10.21041	20.469663	-0.026303114	-0.0052597511	-0.0046948058	-0.038250083	0.027543526	0	913.8373078119286
3.0199517	1.e-6	0.23	9.5885948	19.548632	-0.026007287	-0.005260341	-0.0046412803	-0.037280134	0.025553095	0	914.1268234729055
3.0199517	1.0964782e-6	0.23	9.0225157	18.701216	-0.025711481	-0.0052609885	-0.0045827132	-0.036368367	0.023741099	0	914.417408892924
3.0199517	1.2022644e-6	0.23	8.5073591	17.920998	-0.025415698	-0.0052616989	-0.0045186556	-0.035509558	0.022092129	0	914.7091592001568
3.0199517	1.3182567e-6	0.23	8.0387419	17.202127	-0.02511994	-0.0052624786	-0.0044486267	-0.034698933	0.020592157	0	915.0021764163679
3.0199517	1.4454398e-6	0.23	7.6126725	16.539269	-0.024824209	-0.0052633344	-0.0043721141	-0.033932129	0.019228404	0	915.2965693920823
3.0199517	1.5848932e-6	0.23	7.225517	15.927567	-0.024528509	-0.0052642737	-0.0042885741	-0.033205157	0.017989241	0	915.5924518626254
3.0199517	1.7378008e-6	0.23	6.8739668	15.362588	-0.024232842	-0.005265305	-0.0041974345	-0.032514365	0.016864077	0	915.8899456013037
3.0199517	1.9054607e-6	0.23	6.5550095	14.840293	-0.023937211	-0.0052664374	-0.0040980974	-0.031856414	0.015843269	0	916.1891769956292
3.0199517	2.0892961e-6	0.23	6.2659015	14.357001	-0.023641622	-0.0052676809	-0.0039899447	-0.031228245	0.014918038	0	916.490273979639
3.0199517	2.2908677e-6	0.23	6.0041431	13.909348	-0.023346077	-0.0052690467	-0.0038723447	-0.030627057	0.014080382	0	916.7933711845915
3.0199517	2.5118864e-6	0.23	5.7674549	13.494269	-0.023050581	-0.0052705474	-0.0037446616	-0.030050282	0.013323008	0	917.0986013090595
3.0199517	2.7542287e-6	0.23	5.5537563	13.108957	-0.02275514	-0.0052721963	-0.0036062662	-0.029495566	0.012639255	0	917.4060946857899
3.0199517	3.0199517e-6	0.23	5.3611447	12.750848	-0.022459759	-0.0052740089	-0.0034565506	-0.02896075	0.012023036	0	917.7159779841646
3.0199517	3.3113112e-6	0.23	5.187877	12.417589	-0.022164445	-0.0052760021	-0.003294943	-0.028443853	0.011468772	0	918.0283681932234
3.0199517	3.6307805e-6	0.23	5.0323514	12.107021	-0.021869204	-0.0052781947	-0.0031209249	-0.027943059	0.010971339	0	918.3433717234404
3.0199517	3.9810717e-6	0.23	4.8930919	11.817156	-0.021574046	-0.0052806077	-0.0029340495	-0.027456702	0.010526011	0	918.6610757326554
3.0199517	4.3651583e-6	0.23	4.768733	11.546159	-0.021278978	-0.0052832648	-0.002733958	-0.026983255	0.01012842	0	918.9815511806021
3.0199517	4.7863009e-6	0.23	4.6580069	11.292334	-0.020984011	-0.0052861923	-0.0025203947	-0.026521321	0.0097745086	0	919.304842988839
3.0199517	5.2480746e-6	0.23	4.5597325	11.054106	-0.020689158	-0.0052894205	-0.0022932187	-0.026069621	0.0094604967	0	919.6309693915115
3.0199517	5.7543994e-6	0.23	4.4728066	10.830015	-0.02039443	-0.0052929826	-0.0020524088	-0.02562699	0.0091828524	0	919.9599246347211
3.0199517	6.3095734e-6	0.23	4.3961963	10.6187	-0.020099844	-0.0052969175	-0.0017980646	-0.025192367	0.0089382686	0	920.2916712222936
3.0199517	6.9183097e-6	0.23	4.3289344	10.418899	-0.019805416	-0.0053012687	-0.0015303988	-0.024764787	0.0087236468	0	920.6261481567072
3.0199517	7.5857758e-6	0.23	4.2701153	10.229437	-0.019511166	-0.0053060865	-0.001249725	-0.02434338	0.0085360851	0	920.9632688776852
3.0199517	8.3176377e-6	0.23	4.2188937	10.049226	-0.019217118	-0.0053114288	-0.00095643945	-0.02392736	0.0083728707	0	921.3029252060223
3.0199517	9.1201084e-6	0.23	4.1744822	9.8772595	-0.018923298	-0.0053173625	-0.00065100046	-0.023516021	0.0082314745	0	921.6449936722142
3.0199517	0.00001	0.23	4.1361508	9.7126096	-0.018629738	-0.0053239658	-0.00033390624	-0.023108732	0.0081095459	0	921.9893365469734
3.0199517	0.000010964782	0.23	4.1032247	9.5544238	-0.018336473	-0.00533133	-5.6738648e-6	-0.02270493	0.0080049068	0	922.3358092056332
3.0199517	0.000012022644	0.23	4.07055	9.4020448	-0.018051644	-0.0053473099	0.00032543146	-0.022309171	0.0079108896	0	922.6749765354962
3.0199517	0.000013182567	0.23	4.0462353	9.2545472	-0.01775983	-0.0053572021	0.00067373577	-0.021911368	0.0078346055	0	923.0244234305554
3.0199517	0.000014454398	0.23	4.0255856	9.111371	-0.017468521	-0.0053682843	0.0010316309	-0.021515765	0.0077700115	0	923.3754684216074
3.0199517	0.000015848932	0.23	4.0081197	8.9719158	-0.017177789	-0.0053807346	0.001398664	-0.021122026	0.0077155128	0	923.7279459990481
3.0199517	0.000017378008	0.23	3.993394	8.8356266	-0.01688772	-0.0053947646	0.0017744111	-0.020729862	0.0076696162	0	924.0816837403275
3.0199517	0.000019054607	0.23	3.9809966	8.7019861	-0.016598411	-0.0054106251	0.0021584732	-0.020339024	0.007630907	0	924.4365042836945
3.0199517	0.000020892961	0.23	3.9705413	8.5705064	-0.016309977	-0.0054286139	0.0025504688	-0.019949303	0.0075980258	0	924.7922171369723
3.0199517	0.000022908677	0.23	3.961662	8.4407201	-0.016022548	-0.0054490843	0.0029500237	-0.019560527	0.007569643	0	925.1486192920338
3.0199517	0.000025118864	0.23	3.9540069	8.3121738	-0.015736277	-0.0054724519	0.0033567603	-0.019172558	0.0075444379	0	925.5054853960092
3.0199517	0.000027542287	0.23	3.9472349	8.1844211	-0.01545133	-0.0054992057	0.0037702835	-0.018785294	0.0075210793	0	925.8625740999282
3.0199517	0.000030199517	0.23	3.9410125	8.0570194	-0.015167897	-0.0055299126	0.0041901712	-0.018398664	0.0074982149	0	926.2196156705513
3.0199517	0.000033113112	0.23	3.935014	7.9295293	-0.01488618	-0.005565225	0.0046159629	-0.01801263	0.0074744697	0	926.576320801614
3.0199517	0.000036307805	0.23	3.9289245	7.8015181	-0.014606391	-0.0056058805	0.0050471555	-0.017627186	0.0074484599	0	926.9323815853363
3.0199517	0.000039810717	0.23	3.9224457	7.6725691	-0.014328747	-0.0056527007	0.005483201	-0.017242356	0.0074188222	0	927.2874757132212
3.0199517	0.000043651583	0.23	3.9153073	7.5422965	-0.014053452	-0.0057065783	0.0059235152	-0.016858191	0.0073842645	0	927.641285268299
3.0199517	0.000047863009	0.23	3.9072796	7.4103649	-0.013780688	-0.0057684618	0.0063674909	-0.016474768	0.007343633	0	927.9935080337376
3.0199517	0.000052480746	0.23	3.8981895	7.2765134	-0.013510594	-0.0058393294	0.0068145202	-0.016092183	0.0072959925	0	928.3438820427449
3.0199517	0.000057543994	0.23	3.8879365	7.1405791	-0.013243255	-0.0059201595	0.0072640229	-0.015710545	0.00724071	0	928.6922020510284
3.0199517	0.000063095734	0.23	3.8765049	7.0025184	-0.012978682	-0.0060118962	0.0077154781	-0.015329971	0.0071775297	0	929.0383451568634
3.0199517	0.000069183097	0.23	3.8639721	6.86242	-0.012716806	-0.0061154186	0.0081684534	-0.014950572	0.007106624	0	929.3822827486056
3.0199517	0.000075857758	0.23	3.8505088	6.7205078	-0.012457474	-0.0062315113	0.0086226336	-0.014572449	0.0070286127	0	929.7240904650246
3.0199517	0.000083176377	0.23	3.8363717	6.5771323	-0.01220045	-0.0063608452	0.0090778387	-0.014195681	0.0069445428	0	930.0639511455366
3.0199517	0.000091201084	0.23	3.8218893	6.4327505	-0.011945427	-0.0065039643	0.0095340357	-0.013820319	0.0068558329	0	930.4021461054035
3.0199517	0.0001	0.23	3.8074422	6.2878984	-0.011692043	-0.006661282	0.0099913425	-0.013446378	0.00676419	0	930.739040945476
3.0199517	0.00010964782	0.23	3.7934418	6.1431584	-0.011439897	-0.0068330842	0.010450024	-0.013073835	0.0066715095	0	931.0750696763567
3.0199517	0.00012022644	0.23	3.7803083	5.9991268	-0.011188572	-0.0070195349	0.010910486	-0.012702625	0.0065797728	0	931.4107117901897
3.0199517	0.00013182567	0.23	3.7684512	5.8563843	-0.01093765	-0.0072206869	0.011373266	-0.012332644	0.0064909515	0	931.7464761790571
3.0199517	0.00014454398	0.23	3.7582533	5.7154711	-0.010686729	-0.007436492	0.011839019	-0.011963746	0.0064069257	0	932.0828820937498
3.0199517	0.00015848932	0.23	3.7500587	5.5768681	-0.010435441	-0.0076668103	0.012308514	-0.011595753	0.0063294216	0	932.4204414752402
3.0199517	0.00017378008	0.23	3.7441646	5.4409848	-0.010183458	-0.0079114191	0.012782619	-0.011228452	0.0062599661	0	932.7596500757896
3.0199517	0.00019054607	0.23	3.740817	5.3081518	-0.0099305007	-0.0081700234	0.013262297	-0.010861606	0.00619986	0	933.1009784203293
3.0199517	0.00020892961	0.23	3.7402087	5.1786185	-0.009676346	-0.008442263	0.013748596	-0.010494955	0.0061501647	0	933.4448625987211
3.0199517	0.00022908677	0.23	3.7424801	5.0525547	-0.0094208269	-0.0087277209	0.014242638	-0.010128224	0.0061117018	0	933.7917019826125
3.0199517	0.00025118864	0.23	3.7477211	4.930054	-0.0091638346	-0.0090259343	0.014745615	-0.0097611248	0.0060850588	0	934.1418563879502
3.0199517	0.00027542287	0.23	3.7559737	4.8111389	-0.0089053186	-0.0093364019	0.015258779	-0.0093933646	0.0060706019	0	934.4956438200222
3.0199517	0.00030199517	0.23	3.7672351	4.6957668	-0.0086452847	-0.0096585979	0.015783426	-0.0090246477	0.0060684899	0	934.8533388949893
3.0199517	0.00033113112	0.23	3.7814603	4.5838357	-0.0083837948	-0.0099919825	0.01632089	-0.0086546811	0.0060786875	0	935.215171731197
3.0199517	0.00036307805	0.23	3.7985633	4.4751882	-0.0081209659	-0.010336015	0.01687253	-0.0082831781	0.0061009756	0	935.5813260794406
3.0199517	0.00039810717	0.23	3.8184169	4.3696136	-0.0078569706	-0.010690174	0.017439708	-0.0079098626	0.0061349531	0	935.9519340989823
3.0199517	0.00043651583	0.23	3.8408495	4.2668459	-0.0075920419	-0.011053971	0.01802378	-0.0075344728	0.0061800269	0	936.3270699027371
3.0199517	0.00047863009	0.23	3.8656354	4.1665537	-0.0073264809	-0.011426977	0.018626064	-0.0071567665	0.0062353738	0	936.7067354074181
3.0199517	0.00052480746	0.23	3.8924738	4.0683132	-0.0070606776	-0.011808864	0.019247808	-0.0067765271	0.0062998485	0	937.090833875377
3.0199517	0.00057543994	0.23	3.9209358	3.9715359	-0.0067951593	-0.01219948	0.019890106	-0.0063935729	0.006371741	0	937.479106287238
3.0199517	0.00063095734	0.23	3.9503063	3.8752461	-0.0065307259	-0.012599073	0.020553684	-0.0060077762	0.0064480429	0	937.8709579732997
3.0199517	0.00069183097	0.23	3.9790146	3.7772636	-0.0062689209	-0.013009097	0.021238088	-0.0056191132	0.0065217707	0	938.2648406050309
3.0199517	0.00075857758	0.23	4.0025288	3.6711708	-0.0060137095	-0.013435389	0.021938513	-0.0052278307	0.0065720496	0	938.6559902572587
3.0199517	0.00083176377	0.23	4.0107576	3.5425626	-0.0057734214	-0.01389372	0.022640248	-0.0048349017	0.0065516058	0	939.033401584939
3.0199517	0.00091201084	0.23	4.0002479	3.3866328	-0.005550862	-0.014396825	0.023331652	-0.0044421337	0.0064431844	0	939.3919231109837
3.0199517	0.001	0.23	3.9815799	3.2188541	-0.0053375799	-0.014939553	0.024019	-0.0040508927	0.0062951507	0	939.740851505683
3.0199517	0.0010964782	0.23	3.9636	3.052228	-0.005126472	-0.015514387	0.024710969	-0.0036614955	0.0061489783	0	940.0887356956393
3.0199517	0.0012022644	0.23	3.9501308	2.8924631	-0.0049143756	-0.016117347	0.025412732	-0.0032736581	0.0060232993	0	940.4396651296429
3.0199517	0.0013182567	0.23	3.9427364	2.7417706	-0.0046998224	-0.016746513	0.026127439	-0.0028868522	0.0059257493	0	940.795700086593
3.0199517	0.0014454398	0.23	3.9423495	2.6010799	-0.0044817583	-0.017400621	0.026857621	-0.0025004344	0.0058599589	0	941.1583779115025
3.0199517	0.0015848932	0.23	3.9496783	2.470751	-0.0042594312	-0.01807782	0.027606433	-0.0021136809	0.005827809	0	941.5290870470672
3.0199517	0.0017378008	0.23	3.965013	2.3506149	-0.0040329143	-0.018774423	0.028378905	-0.0017258165	0.0058295321	0	941.9088457002572
3.0199517	0.0019054607	0.23	3.9879499	2.2398783	-0.0038037115	-0.019483791	0.029183062	-0.0013360696	0.0058633491	0	942.2979750614868
3.0199517	0.0020892961	0.23	4.0172607	2.1371098	-0.0035751537	-0.020195541	0.030030712	-0.00094374846	0.0059253517	0	942.6958972416925
3.0199517	0.0022908677	0.23	4.0509356	2.0403467	-0.0033524909	-0.020895306	0.030937694	-0.00054832091	0.0060097633	0	943.1011023311693
3.0199517	0.0025118864	0.23	4.0863826	1.9473035	-0.0031426376	-0.021565211	0.031923397	-0.00014948284	0.0061095417	0	943.5112836687965
3.0199517	0.0027542287	0.23	4.1209708	1.8557802	-0.0029530189	-0.022186526	0.03300811	0.00025280681	0.006217657	0	943.9238493414123
3.0199517	0.0030199517	0.23	4.1533744	1.764557	-0.0027880432	-0.022748555	0.034204138	0.00065838109	0.0063300218	0	944.337316480003
3.0199517	0.0033113112	0.23	4.1847652	1.6741505	-0.002645417	-0.023258273	0.035506163	0.0010670629	0.006448119	0	944.752690757737
3.0199517	0.0036307805	0.23	4.2180533	1.5862193	-0.002517691	-0.023736153	0.036895419	0.0014788886	0.0065773159	0	945.1729159456033
3.0199517	0.0039810717	0.23	4.256348	1.50245	-0.0023965366	-0.024204296	0.038351566	0.0018941991	0.0067233752	0	945.6014218329559
3.0199517	0.0043651583	0.23	4.3021418	1.4240242	-0.0022752952	-0.024679235	0.039859885	0.0023136144	0.0068907142	0	946.0412838332852
3.0199517	0.0047863009	0.23	4.3569764	1.3515071	-0.0021498926	-0.025169859	0.041413355	0.0027379538	0.0070819689	0	946.4948126854259
3.0199517	0.0052480746	0.23	4.4213435	1.2848949	-0.0020187659	-0.025678621	0.043011452	0.0031681353	0.0072980456	0	946.9633635996477
3.0199517	0.0057543994	0.23	4.4949394	1.2237959	-0.0018818954	-0.026204979	0.044656703	0.0036050836	0.0075386095	0	947.447501170165
3.0199517	0.0063095734	0.23	4.5771339	1.1676716	-0.001739572	-0.02674883	0.046351257	0.0040496731	0.007802804	0	947.9474164763831
3.0199517	0.0069183097	0.23	4.6673393	1.1160121	-0.0015915876	-0.027312373	0.048095025	0.0045027166	0.0080898036	0	948.4632858089486
3.0199517	0.0075857758	0.23	4.7651717	1.0684164	-0.001436843	-0.027901015	0.049884777	0.0049649789	0.0083990839	0	948.9954439349956
3.0199517	0.0083176377	0.23	4.8704995	1.0246245	-0.0012729777	-0.028524658	0.051712851	0.0054371987	0.0087305477	0	949.5444529400993
3.0199517	0.0091201084	0.23	4.9834962	0.98455379	-0.0010956544	-0.029200448	0.053564413	0.0059201165	0.0090846701	0	950.1111823731994
3.0199517	0.01	0.23	5.1047466	0.94835782	-0.00089742293	-0.029957075	0.055413155	0.0064145089	0.0094627214	0	950.6969469962778
3.0199517	0.010964782	0.23	5.2352207	0.91639428	-0.00066771021	-0.030834761	0.057221311	0.006921231	0.0098667063	0	951.3035196751928
3.0199517	0.012022644	0.23	5.3754709	0.88870659	-0.00039934938	-0.031860551	0.058964367	0.0074412235	0.010297705	0	951.9323366671213
3.0199517	0.013182567	0.23	5.5245688	0.86430112	-0.00009884073	-0.033009071	0.060670308	0.0079754105	0.010753448	0	952.5833380841677
3.0199517	0.014454398	0.23	5.6810988	0.84181108	0.00022080533	-0.034229541	0.062392605	0.0085245863	0.011230336	0	953.2558548806378
3.0199517	0.015848932	0.23	5.8443977	0.82042176	0.00055216379	-0.035492523	0.064163468	0.0090894408	0.011726441	0	953.9498713563943
3.0199517	0.017378008	0.23	6.0143584	0.79977821	0.00089312751	-0.036789362	0.065994415	0.0096706294	0.012241277	0	954.6658967558573
3.0199517	0.019054607	0.23	6.1909284	0.77974092	0.0012448212	-0.0381253	0.067883149	0.010268805	0.012775049	0	955.4044914358016
3.0199517	0.020892961	0.23	6.3731733	0.76033545	0.0016147441	-0.039537628	0.069795421	0.010884583	0.013328454	0	956.1653002123373
3.0199517	0.022908677	0.23	6.5575594	0.74165143	0.0020255104	-0.041142391	0.071618318	0.011518369	0.013902186	0	956.9451700920633
3.0199517	0.025118864	0.23	6.7417958	0.72319084	0.0024942279	-0.043027597	0.073267065	0.012170212	0.014494692	0	957.7418550909888
3.0199517	0.027542287	0.23	6.9304922	0.70411764	0.0030035676	-0.045099163	0.074839075	0.01284028	0.015103456	0	958.5601244334343
3.0199517	0.030199517	0.23	7.1295338	0.68417351	0.003532251	-0.047237567	0.076457305	0.013529312	0.015728383	0	959.4065565895506
3.0199517	0.033113112	0.23	7.3429254	0.66357264	0.0040702065	-0.049378697	0.078189408	0.014238534	0.01637139	0	960.2863084483217
3.0199517	0.036307805	0.23	7.5730856	0.64269622	0.0046157499	-0.051501013	0.080060574	0.014969481	0.017035236	0	961.2032411535533
3.0199517	0.039810717	0.23	7.821427	0.62190973	0.0051723466	-0.053609337	0.082069748	0.015723872	0.017722815	0	962.1603826894777
3.0199517	0.043651583	0.23	8.0888869	0.60148245	0.0057461774	-0.055722127	0.084202351	0.016503538	0.018436824	0	963.1603897992649
3.0199517	0.047863009	0.23	8.3763308	0.58158483	0.0063439881	-0.057860379	0.086441389	0.017310395	0.019179725	0	964.2059281989348
3.0199517	0.052480746	0.23	8.6847003	0.56232735	0.0069710632	-0.060038124	0.088776958	0.018146447	0.01995388	0	965.2998227668772
3.0199517	0.057543994	0.23	9.0148396	0.54380091	0.0076292203	-0.062254501	0.091214173	0.019013789	0.020761674	0	966.4448866087288
3.0199517	0.063095734	0.23	8.3486216	0.52842162	0.0062319674	-0.060320676	0.097946256	0.019873985	0.021572438	0	966.5868795403304
3.0199517	0.069183097	0.23	7.7410236	0.51439555	0.0049576576	-0.059128388	0.10408599	0.020658494	0.022311864	0	966.7163789117469
3.0199517	0.075857758	0.23	7.1868877	0.50160362	0.0037954732	-0.058630181	0.10968549	0.021373974	0.022986229	0	966.8344828399811
3.0199517	0.083176377	0.23	6.6815096	0.48993723	0.0027355485	-0.058783331	0.1147923	0.0220265	0.023601256	0	966.9421961150096
3.0199517	0.091201084	0.23	6.2627662	0.47840469	0.0018257163	-0.05959495	0.11940425	0.022623095	0.024160784	0	967.0839918412398
3.0199517	0.1	0.23	7.1904332	0.44304584	0.0027362313	-0.061995623	0.12259588	0.023280349	0.024704387	0	968.6291915262398
3.0199517	0.10964782	0.23	8.4056293	0.40962628	0.0040301246	-0.064451829	0.12590599	0.024042206	0.025358827	0	970.5602037094753
3.0199517	0.12022644	0.23	9.9644719	0.37812034	0.0058084053	-0.067014269	0.12928929	0.024939536	0.026154891	0	972.9621458709597
3.0199517	0.13182567	0.23	11.932719	0.34850235	0.0081907315	-0.069744436	0.13268991	0.026009157	0.027129313	0	975.9353711065958
3.0199517	0.14454398	0.23	14.389969	0.32074752	0.011320386	-0.072711866	0.13604409	0.027294967	0.028325914	0	979.6007244325698
3.0199517	0.15848932	0.23	17.435035	0.2948329	0.015370802	-0.075990627	0.13928372	0.028849567	0.029797219	0	984.1064391010642
3.0199517	0.17378008	0.23	21.191719	0.27073806	0.020552923	-0.079655191	0.14234047	0.030736419	0.031606626	0	989.6359442004023
3.0199517	0.19054607	0.23	25.813544	0.24844504	0.027121834	-0.083775632	0.1451506	0.033032551	0.033831103	0	996.4151345419451
3.0199517	0.20892961	0.23	31.485345	0.22793714	0.035380183	-0.088411988	0.14766061	0.035831581	0.036564217	0	1004.7168063481076
3.0199517	0.22908677	0.23	38.418991	0.20919592	0.045675038	-0.093607701	0.1498338	0.039246636	0.039919034	0	1014.8591218146641
3.0199517	0.25118864	0.23	46.840629	0.19219624	0.05838478	-0.099382536	0.15165734	0.043412459	0.044030216	0	1027.1948220549218
3.0199517	0.27542287	0.23	56.968124	0.1768997	0.073893998	-0.10572619	0.15314869	0.048485774	0.049054365	0	1042.0890266738043
3.0199517	0.30199517	0.23	68.980564	0.16324774	0.092557949	-0.11259474	0.15435919	0.054643035	0.055167746	0	1059.8866174144223
3.0199517	0.33113112	0.23	82.986017	0.15115642	0.11466319	-0.11991216	0.15537244	0.062075012	0.062560859	0	1080.8748992673259
3.0199517	0.36307805	0.23	98.99693	0.14051507	0.14039494	-0.12757827	0.1562965	0.070978533	0.071430176	0	1105.2512493563722
3.0199517	0.39810717	0.23	116.92184	0.13119002	0.16982134	-0.1354818	0.15725073	0.081546534	0.081968205	0	1133.1054843037164
3.0199517	0.43651583	0.23	136.57653	0.12303269	0.20289895	-0.14351521	0.15835102	0.09395828	0.094353731	0	1164.4218332230885
3.0199517	0.47863009	0.23	157.71053	0.11588978	0.23949588	-0.15158726	0.15969722	0.10837147	0.10874396	0	1199.097954428523
3.0199517	0.52480746	0.23	180.04013	0.10961288	0.27942387	-0.1596304	0.16136575	0.12491734	0.12526966	0	1236.9734797115598
3.0199517	0.57543994	0.23	203.2792	0.10406572	0.32246973	-0.16760272	0.16340769	0.14369899	0.14403348	0	1277.85914152479
3.0199517	0.63095734	0.23	227.1624	0.099128198	0.36842047	-0.1754855	0.16585119	0.16479232	0.16511094	0	1321.5609050601759
3.0199517	0.69183097	0.23	251.45921	0.094697755	0.41708001	-0.18327862	0.1687061	0.18824886	0.18855324	0	1367.8966689291897
3.0199517	0.75857758	0.23	275.98008	0.090688795	0.46827824	-0.19099531	0.17196924	0.21409952	0.21439101	0	1416.7059164720458
3.0199517	0.83176377	0.23	300.57682	0.087031006	0.52187447	-0.19865736	0.17562916	0.24235867	0.2426384	0	1467.8539858943038
3.0199517	0.91201084	0.23	325.13963	0.08366723	0.57775722	-0.20629138	0.17966992	0.27302807	0.27329699	0	1521.2326898162598
3.0199517	1.	0.23	349.59231	0.080551284	0.63584218	-0.21392606	0.18407384	0.3061004	0.30635931	0	1576.7589928347152
3.0199517	1.0964782	0.23	373.88711	0.07764595	0.6960692	-0.22159032	0.18882336	0.34156232	0.34181189	0	1634.3725853773326
3.0199517	1.2022644	0.23	397.99951	0.074921244	0.7583991	-0.22931219	0.19390213	0.37939699	0.3796378	0	1694.0331220382
3.0199517	1.3182567	0.23	421.92372	0.072352964	0.82281075	-0.23711822	0.19929568	0.41958609	0.41981865	0	1755.7176228340304
3.0199517	1.4454398	0.23	445.66861	0.069921511	0.8892983	-0.24503319	0.20499167	0.46211151	0.46233626	0	1819.417924633151
3.0199517	1.5848932	0.23	469.25445	0.067610939	0.957869	-0.25308006	0.21097996	0.5069566	0.50717391	0	1885.138648030039
3.0199517	1.7378008	0.23	492.71013	0.065408203	1.0285412	-0.26128006	0.21725257	0.5541071	0.55431733	0	1952.8953095706236
3.0199517	1.9054607	0.23	516.07097	0.063302564	1.1013428	-0.26965282	0.2238035	0.60355195	0.60375541	0	2022.712826527987
3.0199517	2.0892961	0.23	539.37699	0.06128512	1.17631	-0.27821655	0.2306286	0.65528377	0.65548076	0	2094.624314352672
3.0199517	2.2908677	0.23	562.67147	0.059348431	1.2534861	-0.28698827	0.23772537	0.70929931	0.70949007	0	2168.669915974259
3.0199517	2.5118864	0.23	585.99991	0.057486236	1.3329208	-0.29598394	0.2450928	0.76559963	0.7657844	0	2244.8961095296104
3.0199517	2.7542287	0.23	609.40917	0.055693214	1.4146697	-0.30521867	0.25273121	0.82419036	0.82436937	0	2323.355204004197
3.0199517	3.0199517	0.23	632.94688	0.053964809	1.4987933	-0.31470686	0.2606421	0.88508175	0.88525521	0	2404.104367251739
3.0199517	3.3113112	0.23	656.66091	0.052297081	1.5853569	-0.32446235	0.26882803	0.94828874	0.94845684	0	2487.20550610567
3.0199517	3.6307805	0.23	680.59903	0.050686596	1.6744301	-0.33449853	0.27729253	1.013831	1.0139939	0	2572.724777147457
3.0199517	3.9810717	0.23	704.80871	0.049130328	1.7660869	-0.34482848	0.28603995	1.0817327	1.0818906	0	2660.732648248133
3.0199517	4.3651583	0.23	729.33689	0.047625596	1.8604048	-0.35546504	0.29507545	1.1520229	1.152176	0	2751.3030507984813
3.0199517	4.7863009	0.23	754.2299	0.046169993	1.9574653	-0.36642089	0.30440488	1.224735	1.2248834	0	2844.5138235597037
3.0199517	5.2480746	0.23	779.53341	0.04476135	2.0573536	-0.37770863	0.31403474	1.2999071	1.300051	0	2940.4464221498197
3.0199517	5.7543994	0.23	805.29238	0.043397692	2.1601583	-0.38934089	0.32397217	1.3775816	1.3777211	0	3039.1856350130556
3.0199517	6.3095734	0.23	831.5511	0.042077208	2.2659717	-0.40133029	0.33422483	1.4578053	1.4579405	0	3140.8198393574526
3.0199517	6.9183097	0.23	858.35321	0.040798227	2.3748893	-0.4136896	0.34480095	1.5406294	1.5407605	0	3245.440542177184
3.0199517	7.5857758	0.23	885.74173	0.039559198	2.4870104	-0.4264317	0.35570926	1.6261092	1.6262363	0	3353.1429288647723
3.0199517	8.3176377	0.23	913.75915	0.038358672	2.6024377	-0.43956968	0.36695897	1.7143043	1.7144276	0	3464.0254830629437
3.0199517	9.1201084	0.23	942.4475	0.037195288	2.7212773	-0.45311682	0.37855977	1.8052785	1.805398	0	3578.189986664628
3.0199517	10.	0.23	971.84839	0.036067765	2.843639	-0.46708669	0.39052181	1.8990995	1.8992154	0	3695.741797360565