3.3113112	1.e-12	0.11	9.4068884e6	1.1381717e7	-0.077182333	-0.008737674	-0.0087376737	-10012.036	30100.562	0	866.1444465817445
3.3113112	1.0964782e-12	0.11	8.5791846e6	1.0380251e7	-0.076857733	-0.0087376739	-0.0087376737	-9131.0921	27452.04	0	866.4494294943546
3.3113112	1.2022644e-12	0.11	7.8243096e6	9.4669038e6	-0.076533133	-0.0087376739	-0.0087376736	-8327.6618	25036.558	0	866.7544124172997
3.3113112	1.3182567e-12	0.11	7.1358554e6	8.6339208e6	-0.076208533	-0.008737674	-0.0087376737	-7594.9245	22833.612	0	867.0593953195746
3.3113112	1.4454398e-12	0.11	6.5079778e6	7.8742315e6	-0.075883932	-0.008737674	-0.0087376736	-6926.6603	20824.503	0	867.3643791820851
3.3113112	1.5848932e-12	0.11	5.9353466e6	7.1813865e6	-0.075559332	-0.008737674	-0.0087376736	-6317.196	18992.173	0	867.6693620946951
3.3113112	1.7378008e-12	0.11	5.4131007e6	6.5495044e6	-0.075234732	-0.008737674	-0.0087376735	-5761.358	17321.068	0	867.9743450176403
3.3113112	1.9054607e-12	0.11	4.9368068e6	5.973221e6	-0.074910132	-0.008737674	-0.0087376735	-5254.4276	15797.002	0	868.2793279302504
3.3113112	2.0892961e-12	0.11	4.5024216e6	5.4476444e6	-0.074585532	-0.008737674	-0.0087376734	-4792.1016	14407.038	0	868.5843108531957
3.3113112	2.2908677e-12	0.11	4.1062576e6	4.9683127e6	-0.074260932	-0.0087376739	-0.0087376734	-4370.4553	13139.375	0	868.8892937658055
3.3113112	2.5118864e-12	0.11	3.7449517e6	4.531157e6	-0.073936332	-0.008737674	-0.0087376734	-3985.9091	11983.253	0	869.1942766784157
3.3113112	2.7542287e-12	0.11	3.4154369e6	4.1324664e6	-0.073611732	-0.0087376739	-0.0087376732	-3635.199	10928.857	0	869.499259611696
3.3113112	3.0199517e-12	0.11	3.1149157e6	3.7688561e6	-0.073287131	-0.008737674	-0.0087376732	-3315.3474	9967.2363	0	869.8042434638713
3.3113112	3.3113112e-12	0.11	2.8408372e6	3.4372396e6	-0.072962531	-0.0087376739	-0.0087376731	-3023.6393	9090.2281	0	870.1092263868165
3.3113112	3.6307805e-12	0.11	2.5908746e6	3.1348017e6	-0.072637931	-0.008737674	-0.0087376731	-2757.5983	8290.387	0	870.4142092994266
3.3113112	3.9810717e-12	0.11	2.362906e6	2.8589751e6	-0.072313331	-0.008737674	-0.008737673	-2514.966	7560.9232	0	870.7191922223717
3.3113112	4.3651583e-12	0.11	2.1549962e6	2.6074182e6	-0.071988731	-0.008737674	-0.0087376729	-2293.6826	6895.6444	0	871.0241751453169
3.3113112	4.7863009e-12	0.11	1.9653802e6	2.3779957e6	-0.071664131	-0.008737674	-0.0087376728	-2091.8699	6288.9029	0	871.3291580682622
3.3113112	5.2480746e-12	0.11	1.7924483e6	2.1687598e6	-0.071339531	-0.0087376739	-0.0087376727	-1907.8144	5735.5481	0	871.6341409912073
3.3113112	5.7543994e-12	0.11	1.6347326e6	1.9779343e6	-0.07101493	-0.008737674	-0.0087376726	-1739.9537	5230.8825	0	871.939124853718
3.3113112	6.3095734e-12	0.11	1.4908941e6	1.8038995e6	-0.07069033	-0.008737674	-0.0087376725	-1586.863	4770.6219	0	872.2441077766631
3.3113112	6.9183097e-12	0.11	1.3597119e6	1.6451778e6	-0.07036573	-0.008737674	-0.0087376723	-1447.2425	4350.8594	0	872.5490907099437
3.3113112	7.5857758e-12	0.11	1.2400723e6	1.5004219e6	-0.07004113	-0.008737674	-0.0087376722	-1319.9071	3968.0313	0	872.8540736328888
3.3113112	8.3176377e-12	0.11	1.1309597e6	1.3684029e6	-0.06971653	-0.008737674	-0.0087376719	-1203.7758	3618.8881	0	873.1590565765046
3.3113112	9.1201084e-12	0.11	1.0314478e6	1.2480002e6	-0.06939193	-0.008737674	-0.0087376717	-1097.8628	3300.4656	0	873.4640395097849
3.3113112	1.e-11	0.11	940691.82	1.1381916e6	-0.06906733	-0.008737674	-0.0087376716	-1001.269	3010.0609	0	873.7690224327301
3.3113112	1.0964782e-11	0.11	857921.43	1.0380449e6	-0.06874273	-0.0087376741	-0.0087376714	-913.17429	2745.2086	0	874.0740053660106
3.3113112	1.2022644e-11	0.11	782433.94	946710.08	-0.068418129	-0.008737674	-0.0087376711	-832.83097	2503.6604	0	874.3789892491917
3.3113112	1.3182567e-11	0.11	713588.52	863411.7	-0.068093529	-0.0087376741	-0.0087376708	-759.55696	2283.3659	0	874.6839721928072
3.3113112	1.4454398e-11	0.11	650800.76	787442.69	-0.067768929	-0.0087376741	-0.0087376705	-692.73025	2082.4549	0	874.9889551364229
3.3113112	1.5848932e-11	0.11	593537.64	718158.11	-0.067444329	-0.0087376741	-0.0087376702	-631.78353	1899.2219	0	875.2939380800386
3.3113112	1.7378008e-11	0.11	541313.05	654969.81	-0.067119729	-0.0087376741	-0.0087376698	-576.19943	1732.1114	0	875.5989210339897
3.3113112	1.9054607e-11	0.11	493683.67	597341.4	-0.066795129	-0.0087376741	-0.0087376694	-525.50611	1579.7049	0	875.9039039879405
3.3113112	2.0892961e-11	0.11	450245.14	544783.64	-0.066470529	-0.0087376741	-0.008737669	-479.27321	1440.7084	0	876.2088869418913
3.3113112	2.2908677e-11	0.11	410628.74	496850.39	-0.066145929	-0.0087376741	-0.0087376685	-437.10828	1313.9421	0	876.5138699061772
3.3113112	2.5118864e-11	0.11	374498.15	453134.74	-0.065821328	-0.0087376742	-0.008737668	-398.65338	1198.3299	0	876.8188538100288
3.3113112	2.7542287e-11	0.11	341546.67	413265.59	-0.065496728	-0.0087376742	-0.0087376674	-363.58207	1092.8903	0	877.12383678465
3.3113112	3.0199517e-11	0.11	311494.55	376904.48	-0.065172128	-0.0087376742	-0.0087376668	-331.59661	996.72827	0	877.4288197592714
3.3113112	3.3113112e-11	0.11	284086.7	343742.75	-0.064847528	-0.0087376742	-0.008737666	-302.42551	909.02745	0	877.7338027545632
3.3113112	3.6307805e-11	0.11	259090.44	313498.88	-0.064522928	-0.0087376742	-0.0087376653	-275.82112	829.04334	0	878.0387857395197
3.3113112	3.9810717e-11	0.11	236293.58	285916.14	-0.064198328	-0.0087376743	-0.0087376645	-251.5576	756.09696	0	878.3437687348114
3.3113112	4.3651583e-11	0.11	215502.6	260760.37	-0.063873728	-0.0087376743	-0.0087376635	-229.42898	689.56909	0	878.6487517507736
3.3113112	4.7863009e-11	0.11	196541.	237818.02	-0.063549127	-0.0087376744	-0.0087376626	-209.2474	628.89493	0	878.9537356959659
3.3113112	5.2480746e-11	0.11	179247.81	216894.35	-0.063224527	-0.0087376744	-0.0087376614	-190.84156	573.55945	0	879.2587187325985
3.3113112	5.7543994e-11	0.11	163476.24	197811.73	-0.062899927	-0.0087376744	-0.0087376602	-174.05521	523.09289	0	879.5637017692312
3.3113112	6.3095734e-11	0.11	149092.39	180408.16	-0.062575327	-0.0087376745	-0.0087376589	-158.74584	477.06684	0	879.868684816199
3.3113112	6.9183097e-11	0.11	135974.17	164535.91	-0.062250727	-0.0087376746	-0.0087376575	-144.7835	435.09058	0	880.173667873502
3.3113112	7.5857758e-11	0.11	124010.21	150060.23	-0.061926127	-0.0087376746	-0.0087376559	-132.04967	396.80778	0	880.4786509514756
3.3113112	8.3176377e-11	0.11	113098.95	136858.25	-0.061601527	-0.0087376747	-0.0087376541	-120.43625	361.89345	0	880.7836340501195
3.3113112	9.1201084e-11	0.11	103147.75	124817.9	-0.061276927	-0.0087376748	-0.0087376522	-109.84466	330.0512	0	881.0886171590987
3.3113112	1.e-10	0.11	94072.163	113836.95	-0.060952327	-0.0087376748	-0.0087376501	-100.18498	301.01073	0	881.3936002887483
3.3113112	1.0964782e-10	0.11	85795.124	103822.21	-0.060627726	-0.0087376749	-0.0087376478	-91.37522	274.5255	0	881.6985843786337
3.3113112	1.2022644e-10	0.11	78246.373	94688.639	-0.060303126	-0.008737675	-0.0087376453	-83.340595	250.37068	0	882.0035675496241
3.3113112	1.3182567e-10	0.11	71361.833	86358.721	-0.059978526	-0.0087376751	-0.0087376425	-76.012903	228.34123	0	882.3085507516204
3.3113112	1.4454398e-10	0.11	65083.056	78761.735	-0.059653926	-0.0087376752	-0.0087376395	-69.329939	208.25013	0	882.6135339742868
3.3113112	1.5848932e-10	0.11	59356.744	71833.194	-0.059329326	-0.0087376753	-0.0087376362	-63.234974	189.92683	0	882.918517227959
3.3113112	1.7378008e-10	0.11	54134.285	65514.282	-0.059004726	-0.0087376754	-0.0087376325	-57.676273	173.21578	0	883.2235005229722
3.3113112	1.9054607e-10	0.11	49371.346	59751.357	-0.058680126	-0.0087376756	-0.0087376285	-52.606648	157.97513	0	883.5284838489908
3.3113112	2.0892961e-10	0.11	45027.494	54495.499	-0.058355526	-0.0087376757	-0.0087376241	-47.983066	144.07548	0	883.8334672163505
3.3113112	2.2908677e-10	0.11	41065.854	49702.091	-0.058030925	-0.0087376759	-0.0087376193	-43.766281	131.39885	0	884.1384515646164
3.3113112	2.5118864e-10	0.11	37452.795	45330.443	-0.057706325	-0.0087376761	-0.0087376141	-39.920499	119.83763	0	884.4434350146577
3.3113112	2.7542287e-10	0.11	34157.647	41343.445	-0.057381725	-0.0087376763	-0.0087376083	-36.413075	109.29367	0	884.7484185267103
3.3113112	3.0199517e-10	0.11	31152.436	37707.251	-0.057057125	-0.0087376765	-0.0087376019	-33.214239	99.67747	0	885.0534021007744
3.3113112	3.3113112e-10	0.11	28411.65	34390.995	-0.056732525	-0.0087376768	-0.008737595	-30.296836	90.907387	0	885.3583857265146
3.3113112	3.6307805e-10	0.11	25912.024	31366.525	-0.056407925	-0.0087376771	-0.0087375874	-27.636105	82.908976	0	885.6633694246012
3.3113112	3.9810717e-10	0.11	23632.338	28608.168	-0.056083325	-0.0087376774	-0.0087375791	-25.20946	75.614338	0	885.9683531950343
3.3113112	4.3651583e-10	0.11	21553.24	26092.508	-0.055758725	-0.0087376777	-0.0087375699	-22.996306	68.961551	0	886.2733370584845
3.3113112	4.7863009e-10	0.11	19657.08	23798.191	-0.055434125	-0.0087376781	-0.0087375598	-20.977857	62.894135	0	886.5783210149516
3.3113112	5.2480746e-10	0.11	17927.761	21705.741	-0.055109525	-0.0087376785	-0.0087375488	-19.13698	57.360587	0	886.8833050644356
3.3113112	5.7543994e-10	0.11	16350.604	19797.395	-0.054784924	-0.0087376789	-0.0087375368	-17.458052	52.313931	0	887.1882901568373
3.3113112	6.3095734e-10	0.11	14912.22	18056.956	-0.054460324	-0.0087376793	-0.0087375235	-15.926824	47.711326	0	887.4932744440314
3.3113112	6.9183097e-10	0.11	13600.397	16469.648	-0.054135724	-0.0087376799	-0.008737509	-14.530298	43.513701	0	887.7982588552482
3.3113112	7.5857758e-10	0.11	12404.001	15021.997	-0.053811124	-0.0087376805	-0.0087374931	-13.256622	39.68542	0	888.103243411158
3.3113112	8.3176377e-10	0.11	11312.875	13701.717	-0.053486524	-0.0087376811	-0.0087374756	-12.094988	36.193987	0	888.4082281324313
3.3113112	9.1201084e-10	0.11	10317.756	12497.598	-0.053161924	-0.0087376818	-0.0087374565	-11.035537	33.009763	0	888.713213019068
3.3113112	1.e-9	0.11	9410.1964	11399.421	-0.052837324	-0.0087376825	-0.0087374355	-10.069277	30.105715	0	889.0181981020739
3.3113112	1.0964782e-9	0.11	8582.4925	10397.863	-0.052512724	-0.0087376834	-0.0087374125	-9.1880088	27.457192	0	889.3231833917844
3.3113112	1.2022644e-9	0.11	7827.6175	9484.4237	-0.052188124	-0.0087376843	-0.0087373873	-8.3842542	25.041711	0	889.6281689088695
3.3113112	1.3182567e-9	0.11	7139.1634	8651.3489	-0.051863524	-0.0087376853	-0.0087373597	-7.6511928	22.838766	0	889.9331546739999
3.3113112	1.4454398e-9	0.11	6511.2858	7891.5674	-0.051538924	-0.0087376864	-0.0087373293	-6.9826043	20.829656	0	890.2381407285164
3.3113112	1.5848932e-9	0.11	5938.6546	7198.6304	-0.051214324	-0.0087376876	-0.0087372961	-6.3728157	18.997326	0	890.5431270724191
3.3113112	1.7378008e-9	0.11	5416.4087	6566.6563	-0.050889724	-0.0087376889	-0.0087372596	-5.8166534	17.326221	0	890.8481137573839
3.3113112	1.9054607e-9	0.11	4940.1148	5990.2809	-0.050565124	-0.0087376903	-0.0087372196	-5.3093988	15.802155	0	891.1531008040814
3.3113112	2.0892961e-9	0.11	4505.7296	5464.6122	-0.050240524	-0.0087376919	-0.0087371759	-4.8467484	14.412191	0	891.4580882331821
3.3113112	2.2908677e-9	0.11	4109.5656	4985.1886	-0.049915924	-0.0087376936	-0.0087371278	-4.4247778	13.144528	0	891.7630761170324
3.3113112	2.5118864e-9	0.11	3748.2598	4547.9409	-0.049591324	-0.0087376955	-0.008737075	-4.0399075	11.988406	0	892.068064486638
3.3113112	2.7542287e-9	0.11	3418.7449	4149.1582	-0.049266724	-0.0087376976	-0.0087370173	-3.6888729	10.93401	0	892.3730533626692
3.3113112	3.0199517e-9	0.11	3118.2238	3785.456	-0.048942124	-0.0087376999	-0.0087369539	-3.3686971	9.9723896	0	892.678042827808
3.3113112	3.3113112e-9	0.11	2844.1452	3453.7474	-0.048617524	-0.0087377024	-0.0087368845	-3.0766647	9.0953812	0	892.9830329130599
3.3113112	3.6307805e-9	0.11	2594.1827	3151.2176	-0.048292924	-0.0087377051	-0.0087368083	-2.8102995	8.2955402	0	893.2880237011067
3.3113112	3.9810717e-9	0.11	2366.2141	2875.2989	-0.047968324	-0.0087377082	-0.0087367248	-2.5673429	7.5660764	0	893.5930152436244
3.3113112	4.3651583e-9	0.11	2158.3043	2623.6501	-0.047643725	-0.0087377115	-0.0087366332	-2.3457353	6.9007977	0	893.8980066837294
3.3113112	4.7863009e-9	0.11	1968.6882	2394.1354	-0.047319125	-0.0087377151	-0.0087365328	-2.1435982	6.2940561	0	894.2029999728992
3.3113112	5.2480746e-9	0.11	1795.7564	2184.8075	-0.046994525	-0.0087377191	-0.0087364228	-1.9592184	5.7407013	0	894.50799425425
3.3113112	5.7543994e-9	0.11	1638.0407	1993.8901	-0.046669925	-0.0087377234	-0.008736302	-1.7910335	5.2360357	0	894.8129896518043
3.3113112	6.3095734e-9	0.11	1494.2022	1819.7633	-0.046345326	-0.0087377282	-0.0087361696	-1.6376185	4.7757753	0	895.1179853086788
3.3113112	6.9183097e-9	0.11	1363.02	1660.9496	-0.046020726	-0.0087377334	-0.0087360245	-1.4976737	4.3560127	0	895.4229832176914
3.3113112	7.5857758e-9	0.11	1243.3804	1516.1017	-0.045696126	-0.0087377392	-0.0087358654	-1.3700141	3.9731847	0	895.7279825736346
3.3113112	8.3176377e-9	0.11	1134.2678	1383.9907	-0.045371527	-0.0087377455	-0.0087356909	-1.2535585	3.6240415	0	896.032982581636
3.3113112	9.1201084e-9	0.11	1034.7559	1263.496	-0.045046927	-0.0087377523	-0.0087354996	-1.1473212	3.305619	0	896.3379852655197
3.3113112	1.e-8	0.11	943.99994	1153.5953	-0.044722328	-0.0087377599	-0.0087352898	-1.050403	3.0152143	0	896.6429889218535
3.3113112	1.0964782e-8	0.11	861.22956	1053.3567	-0.044397728	-0.0087377682	-0.0087350598	-0.96198409	2.7503621	0	896.9479956054669
3.3113112	1.2022644e-8	0.11	785.74207	961.92984	-0.044073129	-0.0087377773	-0.0087348076	-0.88131648	2.508814	0	897.2530036439333
3.3113112	1.3182567e-8	0.11	716.89668	878.53948	-0.04374853	-0.0087377872	-0.008734531	-0.80771819	2.2885195	0	897.5580142041933
3.3113112	1.4454398e-8	0.11	654.10893	802.47846	-0.043423931	-0.0087377982	-0.0087342278	-0.74056717	2.0876086	0	897.8630275136217
3.3113112	1.5848932e-8	0.11	596.84583	733.10188	-0.043099332	-0.0087378102	-0.0087338953	-0.67929616	1.9043756	0	898.1680438512689
3.3113112	1.7378008e-8	0.11	544.62126	669.82158	-0.042774733	-0.0087378233	-0.0087335308	-0.62338777	1.7372652	0	898.4730634961862
3.3113112	1.9054607e-8	0.11	496.99188	612.10115	-0.042450134	-0.0087378378	-0.0087331311	-0.57237014	1.5848587	0	898.7780867791007
3.3113112	2.0892961e-8	0.11	453.55339	559.45141	-0.042125535	-0.0087378536	-0.0087326928	-0.52581295	1.4458623	0	899.0831140514094
3.3113112	2.2908677e-8	0.11	413.93701	511.42617	-0.041800937	-0.0087378709	-0.0087322122	-0.48332372	1.3190961	0	899.3881447559506
3.3113112	2.5118864e-8	0.11	377.80645	467.61852	-0.041476338	-0.0087378899	-0.0087316853	-0.44454452	1.203484	0	899.6931811852634
3.3113112	2.7542287e-8	0.11	344.855	427.65738	-0.04115174	-0.0087379107	-0.0087311075	-0.4091489	1.0980445	0	899.9982219356372
3.3113112	3.0199517e-8	0.11	314.80292	391.20428	-0.040827142	-0.0087379336	-0.008730474	-0.37683914	1.0018825	0	900.3032684427279
3.3113112	3.3113112e-8	0.11	287.3951	357.95055	-0.040502544	-0.0087379587	-0.0087297794	-0.34734372	0.91418182	0	900.6083212646374
3.3113112	3.6307805e-8	0.11	262.39887	327.6147	-0.040177946	-0.0087379862	-0.0087290177	-0.32041501	0.83419783	0	900.9133810214786
3.3113112	3.9810717e-8	0.11	239.60206	299.93997	-0.039853349	-0.0087380163	-0.0087281826	-0.29582717	0.7612516	0	901.2184474248052
3.3113112	4.3651583e-8	0.11	218.81112	274.69222	-0.039528752	-0.0087380494	-0.0087272669	-0.27337423	0.69472386	0	901.5235221583182
3.3113112	4.7863009e-8	0.11	199.84957	251.6579	-0.039204155	-0.0087380856	-0.0087262629	-0.25286833	0.63404988	0	901.8286060178294
3.3113112	5.2480746e-8	0.11	182.55644	230.64225	-0.038879559	-0.0087381253	-0.008725162	-0.23413815	0.57871458	0	902.1336989526023
3.3113112	5.7543994e-8	0.11	166.78493	211.46765	-0.038554962	-0.0087381689	-0.0087239549	-0.21702745	0.52824821	0	902.4388038029431
3.3113112	6.3095734e-8	0.11	152.40115	193.97211	-0.038230367	-0.0087382167	-0.0087226314	-0.20139374	0.48222238	0	902.7439188043477
3.3113112	6.9183097e-8	0.11	139.283	178.00789	-0.037905771	-0.0087382691	-0.0087211801	-0.18710705	0.44024636	0	903.0490479537275
3.3113112	7.5857758e-8	0.11	127.31912	163.44025	-0.037581176	-0.0087383265	-0.0087195889	-0.17404886	0.40196382	0	903.3541906225131
3.3113112	8.3176377e-8	0.11	116.40794	150.14632	-0.037256582	-0.0087383896	-0.0087178442	-0.16211107	0.36704977	0	903.6593482162942
3.3113112	9.1201084e-8	0.11	106.45685	138.01401	-0.036931988	-0.0087384587	-0.0087159311	-0.1511951	0.33520783	0	903.964523214584
3.3113112	1.e-7	0.11	97.381358	126.94112	-0.036607395	-0.0087385345	-0.0087138334	-0.14121103	0.3061677	0	904.2697163521224
3.3113112	1.0964782e-7	0.11	89.104433	116.83443	-0.036282802	-0.0087386175	-0.0087115334	-0.13207687	0.27968285	0	904.5749303978084
3.3113112	1.2022644e-7	0.11	81.555811	107.60893	-0.035958211	-0.0087387086	-0.0087090115	-0.12371784	0.25552845	0	904.8801654982145
3.3113112	1.3182567e-7	0.11	74.671408	99.187088	-0.03563362	-0.0087388085	-0.0087062464	-0.11606572	0.23349944	0	905.1854257338728
3.3113112	1.4454398e-7	0.11	68.392783	91.498185	-0.035309029	-0.0087389181	-0.0087032145	-0.10905832	0.21340884	0	905.4907135438949
3.3113112	1.5848932e-7	0.11	62.666638	84.477737	-0.03498444	-0.0087390383	-0.0086998901	-0.1026389	0.19508608	0	905.7960297053015
3.3113112	1.7378008e-7	0.11	57.444362	78.066926	-0.034659852	-0.00873917	-0.008696245	-0.096755733	0.17837562	0	906.1013780721896
3.3113112	1.9054607e-7	0.11	52.681624	72.212115	-0.034335265	-0.0087393145	-0.0086922483	-0.09136162	0.16313562	0	906.4067618381418
3.3113112	2.0892961e-7	0.11	48.337991	66.864382	-0.034010679	-0.008739473	-0.0086878661	-0.086413529	0.14923669	0	906.7121845067975
3.3113112	2.2908677e-7	0.11	44.376592	61.979112	-0.033686095	-0.0087396467	-0.0086830612	-0.081872212	0.13656084	0	907.0176489832924
3.3113112	2.5118864e-7	0.11	40.763797	57.515617	-0.033361512	-0.0087398373	-0.0086777928	-0.077701873	0.12500048	0	907.3231604239612
3.3113112	2.7542287e-7	0.11	37.468938	53.436787	-0.033036931	-0.0087400463	-0.0086720163	-0.073869866	0.11445746	0	907.6287224987464
3.3113112	3.0199517e-7	0.11	34.464044	49.708779	-0.032712352	-0.0087402755	-0.0086656826	-0.070346415	0.10484229	0	907.9343402822404
3.3113112	3.3113112e-7	0.11	31.723607	46.300727	-0.032387775	-0.0087405268	-0.0086587382	-0.067104366	0.09607334	0	908.2400193037852
3.3113112	3.6307805e-7	0.11	29.224363	43.184483	-0.0320632	-0.0087408025	-0.008651124	-0.064118954	0.08807617	0	908.5457656714951
3.3113112	3.9810717e-7	0.11	26.945095	40.334374	-0.031738627	-0.0087411048	-0.0086427756	-0.061367588	0.080782893	0	908.8515860412512
3.3113112	4.3651583e-7	0.11	24.866455	37.726988	-0.031414057	-0.0087414364	-0.0086336223	-0.058829669	0.074131596	0	909.1574867804877
3.3113112	4.7863009e-7	0.11	22.970798	35.340971	-0.03108949	-0.0087418	-0.0086235865	-0.056486409	0.068065816	0	909.4634759093343
3.3113112	5.2480746e-7	0.11	21.242031	33.156852	-0.030764927	-0.0087421988	-0.0086125832	-0.05432067	0.062534061	0	909.7695612731621
3.3113112	5.7543994e-7	0.11	19.665478	31.15687	-0.030440366	-0.0087426363	-0.0086005196	-0.052316823	0.05748937	0	910.0757543421847
3.3113112	6.3095734e-7	0.11	18.227756	29.32483	-0.03011581	-0.008743116	-0.0085872934	-0.050460613	0.05288892	0	910.3820628706349
3.3113112	6.9183097e-7	0.11	16.91666	27.645962	-0.029791258	-0.0087436422	-0.0085727929	-0.048739038	0.048693657	0	910.6884993425174
3.3113112	7.5857758e-7	0.11	15.72106	26.106794	-0.029466711	-0.0087442194	-0.0085568959	-0.047140238	0.044867966	0	910.9950754479045
3.3113112	8.3176377e-7	0.11	14.630807	24.695044	-0.029142168	-0.0087448525	-0.0085394683	-0.045653398	0.041379371	0	911.3018059858898
3.3113112	9.1201084e-7	0.11	13.636645	23.399507	-0.028817632	-0.0087455469	-0.0085203633	-0.044268652	0.038198258	0	911.6087033098788
3.3113112	1.e-6	0.11	12.730134	22.209969	-0.028493101	-0.0087463087	-0.0084994205	-0.042976998	0.03529762	0	911.9157858766929
3.3113112	1.0964782e-6	0.11	11.903579	21.117112	-0.028168578	-0.0087471443	-0.008476464	-0.041770229	0.032652834	0	912.2230690472861
3.3113112	1.2022644e-6	0.11	11.149963	20.112442	-0.027844062	-0.008748061	-0.0084513019	-0.040640855	0.030241448	0	912.5305735945091
3.3113112	1.3182567e-6	0.11	10.462889	19.188211	-0.027519554	-0.0087490666	-0.0084237241	-0.039582045	0.028042989	0	912.8383202930909
3.3113112	1.4454398e-6	0.11	9.8365227	18.337355	-0.027195055	-0.00875017	-0.0083935013	-0.038587567	0.026038795	0	913.146331902123
3.3113112	1.5848932e-6	0.11	9.2655473	17.553433	-0.026870566	-0.0087513804	-0.0083603832	-0.037651733	0.024211849	0	913.4546333510932
3.3113112	1.7378008e-6	0.11	8.7451146	16.83057	-0.026546088	-0.0087527087	-0.0083240967	-0.036769356	0.022546641	0	913.7632519259186
3.3113112	1.9054607e-6	0.11	8.270806	16.163412	-0.026221622	-0.0087541661	-0.0082843446	-0.0359357	0.021029032	0	914.0722174033041
3.3113112	2.0892961e-6	0.11	7.838594	15.547077	-0.025897169	-0.0087557654	-0.0082408034	-0.035146445	0.019646135	0	914.3815622781175
3.3113112	2.2908677e-6	0.11	7.444808	14.977112	-0.025572731	-0.0087575205	-0.008193122	-0.034397646	0.018386206	0	914.6913209581816
3.3113112	2.5118864e-6	0.11	7.0861031	14.44946	-0.025248308	-0.0087594469	-0.0081409196	-0.033685704	0.017238543	0	915.0015328000096
3.3113112	2.7542287e-6	0.11	6.7594319	13.960421	-0.024923904	-0.0087615613	-0.0080837845	-0.033007332	0.016193396	0	915.3122365954363
3.3113112	3.0199517e-6	0.11	6.4620179	13.506623	-0.024599519	-0.0087638824	-0.0080212727	-0.032359526	0.015241881	0	915.623478232833
3.3113112	3.3113112e-6	0.11	6.1913323	13.084993	-0.024275155	-0.0087664307	-0.007952907	-0.031739545	0.014375909	0	915.9353051527338
3.3113112	3.6307805e-6	0.11	5.9450717	12.692727	-0.023950815	-0.0087692288	-0.0078781767	-0.031144884	0.01358811	0	916.2477673184051
3.3113112	3.9810717e-6	0.11	5.7211384	12.327274	-0.023626501	-0.0087723018	-0.0077965377	-0.030573253	0.012871772	0	916.5609190846419
3.3113112	4.3651583e-6	0.11	5.5176223	11.986304	-0.023302216	-0.0087756772	-0.0077074139	-0.030022557	0.012220787	0	916.874817173944
3.3113112	4.7863009e-6	0.11	5.3327842	11.667696	-0.022977962	-0.0087793853	-0.0076101993	-0.029490883	0.01162959	0	917.189522338607
3.3113112	5.2480746e-6	0.11	5.1650397	11.369514	-0.022653744	-0.0087834601	-0.0075042628	-0.028976478	0.011093114	0	917.5050951063704
3.3113112	5.7543994e-6	0.11	5.0129458	11.089995	-0.022329566	-0.0087879389	-0.0073889527	-0.028477738	0.010606742	0	917.8215990735938
3.3113112	6.3095734e-6	0.11	4.875187	10.827526	-0.02200543	-0.0087928632	-0.0072636059	-0.027993195	0.010166268	0	918.1391008939829
3.3113112	6.9183097e-6	0.11	4.7505635	10.580639	-0.021681343	-0.008798279	-0.0071275573	-0.027521503	0.0097678548	0	918.4576627301207
3.3113112	7.5857758e-6	0.11	4.6379791	10.347988	-0.021357309	-0.0088042378	-0.006980153	-0.027061429	0.0094079963	0	918.777348405742
3.3113112	8.3176377e-6	0.11	4.536431	10.128342	-0.021033334	-0.0088107968	-0.006820766	-0.026611842	0.0090834859	0	919.0982170852768
3.3113112	9.1201084e-6	0.11	4.4449995	9.9205738	-0.020709427	-0.0088180199	-0.0066488135	-0.026171707	0.008791383	0	919.4203205462921
3.3113112	0.00001	0.11	4.3628386	9.7236457	-0.020385593	-0.008825979	-0.0064637769	-0.025740073	0.0085289824	0	919.7437076894066
3.3113112	0.000010964782	0.11	4.2891675	9.5366024	-0.020061842	-0.0088347547	-0.0062652217	-0.025316071	0.0082937875	0	920.0684140254925
3.3113112	0.000012022644	0.11	4.2196672	9.3585631	-0.019744675	-0.0088558628	-0.0060642423	-0.024902826	0.0080795685	0	920.3871848096895
3.3113112	0.000013182567	0.11	4.1605281	9.1887148	-0.019421726	-0.008867577	-0.0058388005	-0.024492136	0.0078916623	0	920.713916403316
3.3113112	0.000014454398	0.11	4.1078261	9.0262946	-0.019098949	-0.0088804987	-0.0055993076	-0.024086922	0.0077244582	0	921.0419386036382
3.3113112	0.000015848932	0.11	4.06097	8.8705962	-0.018776362	-0.0088947646	-0.0053458377	-0.023686583	0.0075760689	0	921.3712268400826
3.3113112	0.000017378008	0.11	4.0194043	8.7209612	-0.018453987	-0.0089105293	-0.0050786099	-0.023290574	0.0074447191	0	921.7017377977468
3.3113112	0.000019054607	0.11	3.9826058	8.5767751	-0.018131849	-0.008927969	-0.0047979833	-0.022898402	0.0073287363	0	922.0334108737264
3.3113112	0.000020892961	0.11	3.950082	8.4374648	-0.017809976	-0.0089472845	-0.0045044457	-0.022509623	0.0072265432	0	922.366169344994
3.3113112	0.000022908677	0.11	3.9213694	8.3024957	-0.017488398	-0.0089687057	-0.0041985969	-0.022123843	0.0071366522	0	922.6999230339462
3.3113112	0.000025118864	0.11	3.8960324	8.1713702	-0.017167151	-0.0089924967	-0.0038811292	-0.021740708	0.0070576615	0	923.0345665655109
3.3113112	0.000027542287	0.11	3.8736628	8.0436255	-0.016846275	-0.0090189606	-0.0035528061	-0.021359908	0.0069882507	0	923.3699834476774
3.3113112	0.000030199517	0.11	3.8538784	7.9188318	-0.016525815	-0.0090484471	-0.0032144444	-0.020981171	0.0069271769	0	923.7060469819382
3.3113112	0.000033113112	0.11	3.8363223	7.7965898	-0.016205821	-0.0090813587	-0.0028668973	-0.020604262	0.0068732688	0	924.0426220099379
3.3113112	0.000036307805	0.11	3.8206613	7.6765287	-0.015886349	-0.009118159	-0.0025110431	-0.020228978	0.006825421	0	924.3795651417901
3.3113112	0.000039810717	0.11	3.8065843	7.5583029	-0.015567462	-0.0091593811	-0.0021477789	-0.019855149	0.0067825868	0	924.7167244676292
3.3113112	0.000043651583	0.11	3.793801	7.4415904	-0.015249227	-0.0092056354	-0.0017780173	-0.019482634	0.0067437714	0	925.0539427173696
3.3113112	0.000047863009	0.11	3.7820404	7.3260897	-0.014931716	-0.0092576167	-0.0014026879	-0.01911132	0.0067080257	0	925.391056166112
3.3113112	0.000052480746	0.11	3.7710502	7.2115183	-0.014615007	-0.0093161105	-0.0010227399	-0.01874112	0.0066744424	0	925.7278934258613
3.3113112	0.000057543994	0.11	3.7605963	7.0976125	-0.014299177	-0.0093819949	-0.00063914453	-0.018371968	0.0066421555	0	926.0642817713397
3.3113112	0.000063095734	0.11	3.7504646	6.9841278	-0.013984304	-0.0094562389	-0.00025289552	-0.018003824	0.0066103453	0	926.4000452122799
3.3113112	0.000069183097	0.11	3.7404629	6.8708414	-0.013670458	-0.0095398944	0.00013499605	-0.017636666	0.0065782485	0	926.7350134817759
3.3113112	0.000075857758	0.11	3.7304248	6.7575566	-0.013357701	-0.0096340794	0.00052351372	-0.017270488	0.0065451765	0	927.0690232734114
3.3113112	0.000083176377	0.11	3.7202149	6.6441086	-0.013046077	-0.0097399552	0.0009116541	-0.016905301	0.0065105382	0	927.4019295437579
3.3113112	0.000091201084	0.11	3.709734	6.5303719	-0.012735608	-0.0098586933	0.0012984552	-0.016541129	0.0064738683	0	927.7336121986064
3.3113112	0.0001	0.11	3.6989246	6.4162665	-0.012426286	-0.0099914359	0.001683031	-0.016177999	0.0064348563	0	928.0639871823732
3.3113112	0.00010964782	0.11	3.6877749	6.3017651	-0.012118073	-0.010139254	0.0020646099	-0.015815946	0.006393372	0	928.3930104519933
3.3113112	0.00012022644	0.11	3.6763207	6.1868957	-0.011810896	-0.010303102	0.0024425746	-0.015455001	0.0063494825	0	928.7206867964309
3.3113112	0.00013182567	0.11	3.6646442	6.0717422	-0.011504644	-0.010483783	0.0028164966	-0.015095191	0.0063034569	0	929.0470762210274
3.3113112	0.00014454398	0.11	3.6528695	5.9564396	-0.01119918	-0.010681915	0.0031861629	-0.014736531	0.0062557556	0	929.3722854322195
3.3113112	0.00015848932	0.11	3.6411546	5.8411662	-0.010894339	-0.010897915	0.0035515922	-0.014379024	0.0062070044	0	929.6964713909758
3.3113112	0.00017378008	0.11	3.6296812	5.7261316	-0.010589941	-0.011131994	0.0039130389	-0.014022656	0.0061579566	0	930.0198295118563
3.3113112	0.00019054607	0.11	3.6186437	5.6115631	-0.010285798	-0.011384157	0.0042709849	-0.013667392	0.0061094464	0	930.3425862385661
3.3113112	0.00020892961	0.11	3.608237	5.4976914	-0.0099817282	-0.011654229	0.0046261218	-0.013313181	0.0060623395	0	930.6649838624596
3.3113112	0.00022908677	0.11	3.5986465	5.3847378	-0.0096775583	-0.011941871	0.0049793257	-0.012959951	0.0060174868	0	930.9872757570645
3.3113112	0.00025118864	0.11	3.5900397	5.2729031	-0.0093731356	-0.012246611	0.0053316283	-0.012607614	0.005975684	0	931.309712022462
3.3113112	0.00027542287	0.11	3.5825591	5.1623591	-0.0090683318	-0.012567876	0.0056841859	-0.012256068	0.0059376403	0	931.6325327110227
3.3113112	0.00030199517	0.11	3.5763189	5.053243	-0.0087630465	-0.012905021	0.0060382464	-0.011905194	0.005903956	0	931.9559611283034
3.3113112	0.00033113112	0.11	3.5714025	4.9456554	-0.0084572092	-0.013257359	0.0063951217	-0.011554868	0.005875111	0	932.2801991013976
3.3113112	0.00036307805	0.11	3.5678624	4.839659	-0.0081507796	-0.013624192	0.0067561568	-0.011204956	0.0058514592	0	932.6054235034823
3.3113112	0.00039810717	0.11	3.5657206	4.7352802	-0.0078437468	-0.01400483	0.0071227064	-0.010855324	0.0058332299	0	932.9317845870296
3.3113112	0.00043651583	0.11	3.5649703	4.6325115	-0.0075361283	-0.014398624	0.0074961096	-0.010505832	0.005820533	0	933.2594043085614
3.3113112	0.00047863009	0.11	3.5655775	4.5313136	-0.007227969	-0.01480498	0.0078776691	-0.010156348	0.0058133657	0	933.5883751184897
3.3113112	0.00052480746	0.11	3.5674819	4.4316187	-0.0069193395	-0.015223384	0.0082686291	-0.0098067395	0.0058116194	0	933.9187592742934
3.3113112	0.00057543994	0.11	3.5705979	4.3333327	-0.0066103359	-0.015653422	0.0086701569	-0.0094568843	0.0058150849	0	934.2505871267522
3.3113112	0.00063095734	0.11	3.5748143	4.2363362	-0.0063010807	-0.016094802	0.0090833202	-0.0091066687	0.0058234558	0	934.5838539282424
3.3113112	0.00069183097	0.11	3.5799934	4.1404856	-0.0059917231	-0.016547376	0.0095090658	-0.0087559914	0.0058363266	0	934.9185173494659
3.3113112	0.00075857758	0.11	3.5859683	4.0456112	-0.0056824421	-0.017011166	0.0099481911	-0.0084047658	0.0058531863	0	935.25449162126
3.3113112	0.00083176377	0.11	3.5925394	3.9515148	-0.0053734492	-0.017486407	0.01040131	-0.0080529236	0.0058734046	0	935.5916414734617
3.3113112	0.00091201084	0.11	3.599469	3.8579637	-0.0050649922	-0.017973586	0.010868805	-0.0077004175	0.0058962083	0	935.9297736139895
3.3113112	0.001	0.11	3.606474	3.7646805	-0.0047573589	-0.018473525	0.011350749	-0.0073472259	0.005920642	0	936.2686251703101
3.3113112	0.0010964782	0.11	3.6132172	3.6713276	-0.0044508783	-0.018987497	0.011846792	-0.0069933575	0.0059455066	0	936.6078508521573
3.3113112	0.0012022644	0.11	3.6192945	3.5774797	-0.0041459175	-0.019517432	0.012355954	-0.006638857	0.0059692588	0	936.9470044599466
3.3113112	0.0013182567	0.11	3.6242112	3.482571	-0.0038428721	-0.020066302	0.01287624	-0.0062838132	0.0059898158	0	937.2855081140095
3.3113112	0.0014454398	0.11	3.627269	3.3857171	-0.0035421973	-0.020639052	0.01340371	-0.0059283711	0.0060039155	0	937.6225269165757
3.3113112	0.0015848932	0.11	3.6268235	3.2848177	-0.0032449383	-0.021245373	0.013929709	-0.0055727782	0.0060039086	0	937.9561843207504
3.3113112	0.0017378008	0.11	3.6169594	3.1731468	-0.0029559716	-0.021904468	0.0144361	-0.0052176097	0.0059655151	0	938.2800240374606
3.3113112	0.0019054607	0.11	3.5859893	3.0393651	-0.0026878738	-0.022629783	0.014910534	-0.0048643621	0.0058472759	0	938.5809532329508
3.3113112	0.0020892961	0.11	3.5360312	2.8874084	-0.0024416079	-0.02341287	0.01536259	-0.0045151987	0.0056608979	0	938.8590571164019
3.3113112	0.0022908677	0.11	3.484676	2.7345693	-0.0021986126	-0.024262702	0.015784456	-0.0041711396	0.0054663061	0	939.1309678548486
3.3113112	0.0025118864	0.11	3.4437828	2.5919065	-0.0019447536	-0.025189435	0.016167176	-0.0038316578	0.0053030011	0	939.4090399246169
3.3113112	0.0027542287	0.11	3.4167659	2.4627701	-0.0016758829	-0.026187674	0.016517378	-0.0034955102	0.0051840334	0	939.6978556610842
3.3113112	0.0030199517	0.11	3.4030833	2.3467513	-0.0013926873	-0.027245409	0.016848343	-0.0031613458	0.0051093124	0	939.9981423911836
3.3113112	0.0033113112	0.11	3.4010466	2.2421752	-0.0010971481	-0.028351113	0.017172906	-0.002827937	0.0050741635	0	940.3093650794265
3.3113112	0.0036307805	0.11	3.408876	2.1471505	-0.00079128011	-0.029495462	0.017501738	-0.0024942304	0.0050729746	0	940.6307335513535
3.3113112	0.0039810717	0.11	3.4250181	2.0599418	-0.00047679076	-0.030671273	0.017843412	-0.0021593373	0.0051005179	0	940.961529603211
3.3113112	0.0043651583	0.11	3.4482204	1.9790793	-0.00015500979	-0.031873182	0.018204722	-0.0018225069	0.0051523645	0	941.3012060321394
3.3113112	0.0047863009	0.11	3.4775219	1.9033686	0.00017309621	-0.033097326	0.018591003	-0.0014830963	0.0052249479	0	941.6494060475923
3.3113112	0.0052480746	0.11	3.5122173	1.8318624	0.0005068807	-0.034341068	0.01900641	-0.0011405441	0.0053154906	0	942.005951611332
3.3113112	0.0057543994	0.11	3.5518134	1.7638201	0.00084596822	-0.035602759	0.019454157	-0.00079434737	0.0054218858	0	942.3708221280857
3.3113112	0.0063095734	0.11	3.59599	1.6986684	0.0011902093	-0.036881535	0.019936719	-0.00044404259	0.0055425763	0	942.7441329576874
3.3113112	0.0069183097	0.11	3.644566	1.6359662	0.0015396429	-0.03817717	0.02045598	-0.000089190688	0.005676447	0	943.1261154211257
3.3113112	0.0075857758	0.11	3.6974737	1.5753763	0.0018944695	-0.03948997	0.021013348	0.00027063548	0.0058227359	0	943.5171034023439
3.3113112	0.0083176377	0.11	3.7547392	1.5166417	0.0022550327	-0.040820702	0.021609816	0.00063586111	0.0059809631	0	943.9175223647192
3.3113112	0.0091201084	0.11	3.8164701	1.4595678	0.0026218128	-0.042170587	0.022245981	0.001006918	0.0061508744	0	944.3278852827459
3.3113112	0.01	0.11	3.8828488	1.4040073	0.0029954329	-0.043541335	0.022922004	0.0013842523	0.0063323967	0	944.7487942392956
3.3113112	0.010964782	0.11	3.9541359	1.349848	0.0033766834	-0.044935291	0.023637471	0.0017683316	0.0065256022	0	945.1809490790155
3.3113112	0.012022644	0.11	4.0306832	1.2970029	0.003766571	-0.04635567	0.024391154	0.0021596535	0.0067306822	0	945.6251687458554
3.3113112	0.013182567	0.11	4.1129594	1.2454024	0.0041663984	-0.047806937	0.025180637	0.0025587556	0.0069479285	0	946.0824275127095
3.3113112	0.014454398	0.11	4.2015885	1.1949892	0.0045778669	-0.049295267	0.026001858	0.0029662285	0.0071777303	0	946.5539040455183
3.3113112	0.015848932	0.11	4.2973874	1.1457179	0.0050031748	-0.050828906	0.026848748	0.0033827335	0.0074205883	0	947.0410365463581
3.3113112	0.017378008	0.11	4.4013766	1.0975589	0.0054450382	-0.052418085	0.02771332	0.0038090218	0.0076771497	0	947.5455514947472
3.3113112	0.019054607	0.11	4.5147197	1.0505058	0.0059065262	-0.05407395	0.028586741	0.0042459526	0.0079482515	0	948.0694196008197
3.3113112	0.020892961	0.11	4.638561	1.0045801	0.006390652	-0.055806348	0.029461547	0.0046945	0.0082349428	0	948.6147005421539
3.3113112	0.022908677	0.11	4.7737991	0.959825	0.0068998291	-0.057621203	0.030334274	0.0051557401	0.0085384525	0	949.1833039477402
3.3113112	0.025118864	0.11	4.9208993	0.91629139	0.0074354657	-0.059518947	0.03120702	0.005630817	0.0088601038	0	949.7767697463967
3.3113112	0.027542287	0.11	5.0798069	0.87402533	0.007997834	-0.061494606	0.032087373	0.0061208951	0.0092012236	0	950.3961379242177
3.3113112	0.030199517	0.11	5.249901	0.8330678	0.0085860401	-0.063538467	0.032987738	0.0066271065	0.0095630883	0	951.0418506876351
3.3113112	0.033113112	0.11	5.429874	0.7934664	0.0091978224	-0.06563595	0.033925469	0.0071504901	0.0099469047	0	951.7135766895327
3.3113112	0.036307805	0.11	5.6174598	0.75529775	0.0098290229	-0.067766163	0.034924321	0.0076919126	0.010353809	0	952.4098643484231
3.3113112	0.039810717	0.11	5.8089142	0.71870945	0.010472591	-0.069898935	0.036017413	0.0082519522	0.010784901	0	953.1275120859802
3.3113112	0.043651583	0.11	5.3433248	0.68601031	0.010254233	-0.070600491	0.038641563	0.0088177871	0.011235494	0	953.193562120737
3.3113112	0.047863009	0.11	4.9187023	0.65618833	0.010055088	-0.071635918	0.041034815	0.0093338346	0.01164644	0	953.2538002109435
3.3113112	0.052480746	0.11	4.5314419	0.62899037	0.0098734649	-0.072988133	0.043217488	0.0098044756	0.012021227	0	953.3087374707537
3.3113112	0.057543994	0.11	4.1782562	0.60418554	0.0097078231	-0.074641938	0.045208109	0.010233705	0.012363037	0	953.3588412117863
3.3113112	0.063095734	0.11	3.8561471	0.58156326	0.0095567559	-0.076583872	0.047023577	0.010625167	0.012674771	0	953.4045362960962
3.3113112	0.069183097	0.11	3.5623801	0.56093149	0.009418981	-0.078802063	0.048679303	0.010982185	0.012959077	0	953.4462106796129
3.3113112	0.075857758	0.11	3.2944613	0.5421151	0.0092933288	-0.081286109	0.050189344	0.011307789	0.013218366	0	953.4842182684166
3.3113112	0.083176377	0.11	3.4743336	0.50916016	0.0097305291	-0.084699836	0.050893636	0.01163102	0.013425453	0	953.9677866408491
3.3113112	0.091201084	0.11	3.9767949	0.47316884	0.010561782	-0.088338838	0.051500468	0.011994243	0.013661833	0	954.8115204780278
3.3113112	0.1	0.11	4.7553658	0.43891406	0.011736658	-0.091996144	0.052220814	0.012419707	0.013966572	0	955.9898425937517
3.3113112	0.10964782	0.11	5.8800511	0.40637892	0.013365038	-0.095720635	0.053009917	0.012937862	0.014370063	0	957.6013675403867
3.3113112	0.12022644	0.11	7.4264664	0.37555311	0.015572265	-0.099582687	0.05380166	0.013586296	0.014909858	0	959.7570299209507
3.3113112	0.13182567	0.11	9.476535	0.34643279	0.018500253	-0.10367237	0.054510355	0.014410308	0.015631242	0	962.5813111701955
3.3113112	0.14454398	0.11	12.12097	0.3190199	0.022310406	-0.10809533	0.055034881	0.015463629	0.016587951	0	966.2154098172191
3.3113112	0.15848932	0.11	15.463415	0.29332089	0.027188419	-0.11296683	0.055264645	0.016809478	0.017843229	0	970.8223684211072
3.3113112	0.17378008	0.11	19.625322	0.26934467	0.033350188	-0.1184046	0.055086716	0.018522067	0.019471319	0	976.5933637166637
3.3113112	0.19054607	0.11	24.749824	0.24709988	0.041047033	-0.12452103	0.054393663	0.020688555	0.02155941	0	983.753424038688
3.3113112	0.20892961	0.11	31.002331	0.22659128	0.050567587	-0.13141477	0.053091954	0.023411241	0.024209817	0	992.5640722159517
3.3113112	0.22908677	0.11	38.565378	0.20781541	0.062233325	-0.13916178	0.05111089	0.026809545	0.027541949	0	1003.3200481229715
3.3113112	0.25118864	0.11	47.625934	0.19075552	0.076385177	-0.14780628	0.048411702	0.031021138	0.031693418	0	1016.3376709135266
3.3113112	0.27542287	0.11	58.355073	0.17537632	0.093360499	-0.15735265	0.044995604	0.036201432	0.036819511	0	1031.934034065389
3.3113112	0.30199517	0.11	70.882722	0.16161944	0.11346288	-0.16776058	0.040908685	0.042520803	0.043090398	0	1050.399142682615
3.3113112	0.33113112	0.11	85.273254	0.14940107	0.13693098	-0.17894569	0.03624129	0.05015933	0.050685865	0	1071.9665707851063
3.3113112	0.36307805	0.11	101.5091	0.1386128	0.16391458	-0.19078701	0.031120522	0.059299472	0.059787985	0	1096.7901837837653
3.3113112	0.39810717	0.11	119.48791	0.12912631	0.19446474	-0.20314058	0.025696679	0.070117767	0.070572847	0	1124.933489512591
3.3113112	0.43651583	0.11	139.03418	0.12080099	0.2285402	-0.21585614	0.020126562	0.08277699	0.083202729	0	1156.3739272317512
3.3113112	0.47863009	0.11	159.92153	0.11349257	0.26602666	-0.22879301	0.014557572	0.097420009	0.097819991	0	1191.0193388376774
3.3113112	0.52480746	0.11	181.89886	0.1070612	0.30676229	-0.24183213	0.0091157316	0.11416608	0.11454339	0	1228.7306991812902
3.3113112	0.57543994	0.11	204.7145	0.10137731	0.35056286	-0.25488266	0.0038990293	0.13310962	0.13346691	0	1269.3450394640815
3.3113112	0.63095734	0.11	228.13437	0.096325178	0.39724223	-0.26788366	-0.0010242064	0.15432116	0.15466064	0	1312.6945308918146
3.3113112	0.69183097	0.11	251.95341	0.09180432	0.44662659	-0.28080197	-0.0056132095	0.17784959	0.17817314	0	1358.6200808663225
3.3113112	0.75857758	0.11	276.00092	0.087729282	0.49856279	-0.29362799	-0.0098505119	0.2037254	0.20403458	0	1406.979600320616
3.3113112	0.83176377	0.11	300.14143	0.084028504	0.55292221	-0.30637053	-0.013736832	0.23196405	0.23226019	0	1457.6521681111667
3.3113112	0.91201084	0.11	324.27275	0.08064271	0.60960146	-0.3190518	-0.017286042	0.2625694	0.26285361	0	1510.5392088542083
3.3113112	1.	0.11	348.32248	0.077523152	0.66852129	-0.33170302	-0.020520748	0.29553676	0.29580998	0	1565.5639256058446
3.3113112	1.0964782	0.11	372.24383	0.074629924	0.72962449	-0.34436082	-0.023468696	0.33085566	0.33111868	0	1622.6696982225803
3.3113112	1.2022644	0.11	396.01151	0.071930433	0.79287345	-0.35706449	-0.026160038	0.36851211	0.36876562	0	1681.8180733764145
3.3113112	1.3182567	0.11	419.61777	0.069398071	0.85824773	-0.36985408	-0.028625376	0.40849055	0.40873512	0	1742.98668356792
3.3113112	1.4454398	0.11	443.06896	0.067011097	0.92574174	-0.38276905	-0.030894439	0.45077534	0.45101151	0	1806.1672040695792
3.3113112	1.5848932	0.11	466.38255	0.064751712	0.99536273	-0.39584747	-0.032995267	0.49535208	0.49558028	0	1871.3635487348138
3.3113112	1.7378008	0.11	489.58459	0.062605292	1.067129	-0.40912559	-0.034953754	0.54220848	0.54242912	0	1938.5902354079594
3.3113112	1.9054607	0.11	512.70771	0.060559774	1.1410685	-0.42263763	-0.036793458	0.59133517	0.5915486	0	2007.8710901696923
3.3113112	2.0892961	0.11	535.78935	0.058605161	1.2172175	-0.4364158	-0.038535576	0.64272621	0.64293275	0	2079.238000298917
3.3113112	2.2908677	0.11	558.8705	0.056733116	1.2956195	-0.45049036	-0.040199034	0.69637952	0.69657946	0	2152.729880844839
3.3113112	2.5118864	0.11	581.99457	0.054936645	1.3763248	-0.46488983	-0.041800643	0.75229716	0.75249077	0	2228.392254490923
3.3113112	2.7542287	0.11	605.20656	0.05320984	1.4593892	-0.47964114	-0.04335528	0.81048553	0.81067306	0	2306.2760114131893
3.3113112	3.0199517	0.11	628.55243	0.051547673	1.544874	-0.49476988	-0.044876089	0.87095551	0.87113718	0	2386.437388506429
3.3113112	3.3113112	0.11	652.07859	0.04994583	1.6328452	-0.51030048	-0.046374671	0.93372249	0.93389851	0	2468.9371980950027
3.3113112	3.6307805	0.11	675.83155	0.04840058	1.7233735	-0.52625642	-0.047861276	0.99880641	0.99897699	0	2553.8408080892227
3.3113112	3.9810717	0.11	699.85761	0.046908671	1.8165335	-0.5426604	-0.049344969	1.0662318	1.0663971	0	2641.2173731766106
3.3113112	4.3651583	0.11	724.20271	0.04546724	1.9124042	-0.55953451	-0.050833786	1.1360277	1.1361879	0	2731.140288481629
3.3113112	4.7863009	0.11	748.91229	0.044073751	2.0110681	-0.57690042	-0.052334876	1.2082275	1.2083828	0	2823.686329280859
3.3113112	5.2480746	0.11	774.03122	0.042725933	2.1126117	-0.59477945	-0.053854619	1.2828693	1.2830199	0	2918.9361085901114
3.3113112	5.7543994	0.11	799.60375	0.041421741	2.217125	-0.61319276	-0.055398744	1.3599953	1.3601413	0	3016.973595186199
3.3113112	6.3095734	0.11	825.67354	0.040159315	2.3247016	-0.6321614	-0.05697241	1.4396521	1.4397937	0	3117.8861991919407
3.3113112	6.9183097	0.11	852.28364	0.038936954	2.4354387	-0.65170647	-0.058580303	1.5218907	1.5220279	0	3221.764762051002
3.3113112	7.5857758	0.11	879.47656	0.03775309	2.5494371	-0.67184914	-0.060226699	1.6067659	1.606899	0	3328.703550016704
3.3113112	8.3176377	0.11	907.29431	0.036606272	2.6668011	-0.69261078	-0.061915533	1.6943372	1.6944662	0	3438.800153064191
3.3113112	9.1201084	0.11	935.77845	0.035495142	2.7876387	-0.71401302	-0.06365045	1.7846676	1.7847927	0	3552.1556675325355
3.3113112	10.	0.11	964.9702	0.034418432	2.9120614	-0.7360778	-0.065434856	1.8778247	1.877946	0	3668.8745029407073