3.9810717	1.e-12	0.41	1.9673397e7	1.9789153e7	-0.095711865	-0.002909987	-0.0029099864	-20938.924	62910.525	0	848.5168078820537
3.9810717	1.0964782e-12	0.41	1.7942351e7	1.8047924e7	-0.09532161	-0.002909987	-0.0029099863	-19096.534	57375.082	0	848.88347799624
3.9810717	1.2022644e-12	0.41	1.6363619e7	1.6459905e7	-0.094931355	-0.002909987	-0.0029099862	-17416.255	52326.697	0	849.2501481104266
3.9810717	1.3182567e-12	0.41	1.4923799e7	1.5011614e7	-0.0945411	-0.002909987	-0.0029099862	-15883.822	47722.516	0	849.6168181860908
3.9810717	1.4454398e-12	0.41	1.3610666e7	1.3690756e7	-0.094150844	-0.0029099871	-0.0029099861	-14486.226	43523.452	0	849.9834892398426
3.9810717	1.5848932e-12	0.41	1.2413076e7	1.248612e7	-0.093760589	-0.002909987	-0.002909986	-13211.603	39693.86	0	850.3501593540291
3.9810717	1.7378008e-12	0.41	1.132086e7	1.1387479e7	-0.093370334	-0.0029099871	-0.002909986	-12049.134	36201.231	0	850.7168294296932
3.9810717	1.9054607e-12	0.41	1.0324747e7	1.0385507e7	-0.092980079	-0.002909987	-0.0029099858	-10988.949	33015.916	0	851.0834995824018
3.9810717	2.0892961e-12	0.41	9.4162818e6	9.4716967e6	-0.092589824	-0.002909987	-0.0029099856	-10022.049	30110.874	0	851.4501697351104
3.9810717	2.2908677e-12	0.41	8.5877514e6	8.6382921e6	-0.092199569	-0.002909987	-0.0029099855	-9140.2255	27461.444	0	851.8168398492969
3.9810717	2.5118864e-12	0.41	7.8321226e6	7.878218e6	-0.091809313	-0.002909987	-0.0029099854	-8335.9929	25045.135	0	852.1835109030487
3.9810717	2.7542287e-12	0.41	7.1429811e6	7.1850223e6	-0.091419058	-0.002909987	-0.0029099853	-7602.5241	22841.435	0	852.5501810172351
3.9810717	3.0199517e-12	0.41	6.5144766e6	6.5528202e6	-0.091028803	-0.002909987	-0.0029099851	-6933.5925	20831.637	0	852.9168511699437
3.9810717	3.3113112e-12	0.41	5.9412736e6	5.9762452e6	-0.090638548	-0.002909987	-0.0029099849	-6323.5196	18998.679	0	853.2835213226523
3.9810717	3.6307805e-12	0.41	5.4185062e6	5.4504023e6	-0.090248293	-0.0029099871	-0.0029099848	-5767.1264	17327.002	0	853.6501914368387
3.9810717	3.9810717e-12	0.41	4.9417367e6	4.970828e6	-0.089858037	-0.0029099871	-0.0029099846	-5259.6898	15802.414	0	854.0168625291128
3.9810717	4.3651583e-12	0.41	4.5069179e6	4.5334511e6	-0.089467782	-0.002909987	-0.0029099842	-4796.9022	14411.973	0	854.3835327588656
3.9810717	4.7863009e-12	0.41	4.1103583e6	4.1345585e6	-0.089077527	-0.002909987	-0.0029099839	-4374.8348	13143.876	0	854.7502029500965
3.9810717	5.2480746e-12	0.41	3.7486917e6	3.7707642e6	-0.088687272	-0.002909987	-0.0029099837	-3989.9046	11987.358	0	855.1168731028051
3.9810717	5.7543994e-12	0.41	3.4188478e6	3.4389798e6	-0.088297017	-0.0029099871	-0.0029099834	-3638.8441	10932.601	0	855.4835432940358
3.9810717	6.3095734e-12	0.41	3.1180266e6	3.1363888e6	-0.087906761	-0.002909987	-0.002909983	-3318.6732	9970.6513	0	855.8502144633542
3.9810717	6.9183097e-12	0.41	2.8436744e6	2.8604225e6	-0.087516506	-0.0029099871	-0.0029099827	-3026.6737	9093.3425	0	856.2168846545849
3.9810717	7.5857758e-12	0.41	2.5934622e6	2.6087384e6	-0.087126251	-0.002909987	-0.0029099822	-2760.3671	8293.2276	0	856.58355492286
3.9810717	8.3176377e-12	0.41	2.365266e6	2.3791996e6	-0.086735996	-0.002909987	-0.0029099817	-2517.4924	7563.514	0	856.9502251911352
3.9810717	9.1201084e-12	0.41	2.1571486e6	2.1698578e6	-0.086345741	-0.002909987	-0.0029099812	-2295.9881	6898.0072	0	857.3168954594105
3.9810717	1.e-11	0.41	1.9673432e6	1.9789357e6	-0.085955485	-0.0029099871	-0.0029099807	-2093.9737	6291.0578	0	857.683566667251
3.9810717	1.0964782e-11	0.41	1.7942387e6	1.8048128e6	-0.08556523	-0.002909987	-0.0029099801	-1909.7344	5737.5134	0	858.0502369740482
3.9810717	1.2022644e-11	0.41	1.6363655e6	1.6460107e6	-0.085174975	-0.0029099871	-0.0029099794	-1741.7061	5232.6749	0	858.4169073193676
3.9810717	1.3182567e-11	0.41	1.4923834e6	1.5011815e6	-0.08478472	-0.002909987	-0.0029099786	-1588.4624	4772.2568	0	858.7835777032094
3.9810717	1.4454398e-11	0.41	1.3610702e6	1.3690957e6	-0.084394465	-0.0029099871	-0.0029099779	-1448.7025	4352.3504	0	859.150248048529
3.9810717	1.5848932e-11	0.41	1.2413112e6	1.248632e6	-0.08400421	-0.002909987	-0.0029099769	-1321.2399	3969.3913	0	859.5169185094151
3.9810717	1.7378008e-11	0.41	1.1320896e6	1.1387678e6	-0.083613954	-0.002909987	-0.002909976	-1204.9926	3620.1284	0	859.8835898713442
3.9810717	1.9054607e-11	0.41	1.0324783e6	1.0385705e6	-0.083223699	-0.002909987	-0.0029099749	-1098.9737	3301.5968	0	860.2502603707524
3.9810717	2.0892961e-11	0.41	941631.76	947189.42	-0.082833444	-0.0029099871	-0.0029099738	-1002.2834	3011.0926	0	860.6169308701606
3.9810717	2.2908677e-11	0.41	858778.73	863848.88	-0.082443189	-0.002909987	-0.0029099724	-914.10066	2746.1496	0	860.9836014851353
3.9810717	2.5118864e-11	0.41	783215.84	787841.39	-0.082052934	-0.0029099871	-0.0029099711	-833.67704	2504.5187	0	861.3502720615879
3.9810717	2.7542287e-11	0.41	714301.7	718521.74	-0.081662679	-0.002909987	-0.0029099695	-760.32982	2284.1488	0	861.7169427536071
3.9810717	3.0199517e-11	0.41	651451.24	655301.45	-0.081272423	-0.0029099871	-0.0029099679	-693.4363	2083.1689	0	862.0836143851915
3.9810717	3.3113112e-11	0.41	594130.94	597643.85	-0.080882168	-0.0029099871	-0.002909966	-632.42866	1899.8732	0	862.4502851927771
3.9810717	3.6307805e-11	0.41	541854.21	545059.49	-0.080491913	-0.0029099871	-0.002909964	-576.789	1732.7054	0	862.816956038885
3.9810717	3.9810717e-11	0.41	494177.26	497101.98	-0.080101658	-0.002909987	-0.0029099617	-526.04499	1580.2466	0	863.1836270005595
3.9810717	4.3651583e-11	0.41	450695.37	453364.2	-0.079711403	-0.002909987	-0.0029099593	-479.76587	1441.2026	0	863.550298000756
3.9810717	4.7863009e-11	0.41	411039.41	413474.86	-0.079321147	-0.0029099871	-0.0029099566	-437.55878	1314.3929	0	863.9169700560844
3.9810717	5.2480746e-11	0.41	374872.75	377095.34	-0.078930892	-0.0029099872	-0.0029099538	-399.06541	1198.7411	0	864.2836412103695
3.9810717	5.7543994e-11	0.41	341888.36	343916.82	-0.078540637	-0.0029099871	-0.0029099505	-363.95901	1093.2654	0	864.6503125572658
3.9810717	6.3095734e-11	0.41	311806.24	313657.64	-0.078150382	-0.0029099871	-0.0029099469	-331.94157	997.07038	0	865.0169840197285
3.9810717	6.9183097e-11	0.41	284371.02	286060.93	-0.077760127	-0.0029099872	-0.0029099431	-302.74127	909.3395	0	865.3836555592356
3.9810717	7.5857758e-11	0.41	259349.8	260892.43	-0.077369871	-0.0029099871	-0.0029099389	-276.11025	829.32799	0	865.7503281923966
3.9810717	8.3176377e-11	0.41	236530.18	237938.47	-0.076979616	-0.0029099871	-0.0029099342	-251.82243	756.35663	0	866.1170000786035
3.9810717	9.1201084e-11	0.41	215718.44	217004.2	-0.076589361	-0.0029099872	-0.0029099292	-229.67165	689.80596	0	866.4836720803767
3.9810717	1.e-10	0.41	196737.91	197911.92	-0.076199106	-0.0029099871	-0.0029099235	-209.46986	629.11103	0	866.850344351805
3.9810717	1.0964782e-10	0.41	179427.45	180499.54	-0.075808851	-0.0029099872	-0.0029099175	-191.04557	573.75658	0	867.2170167388001
3.9810717	1.2022644e-10	0.41	163640.14	164619.25	-0.075418596	-0.0029099872	-0.0029099107	-174.2424	523.27274	0	867.5836894339725
3.9810717	1.3182567e-10	0.41	149241.93	150136.25	-0.075028341	-0.0029099873	-0.0029099034	-158.91768	477.23092	0	867.9503623217558
3.9810717	1.4454398e-10	0.41	136110.6	136927.59	-0.074638085	-0.0029099873	-0.0029098953	-144.94133	435.24029	0	868.317036457282
3.9810717	1.5848932e-10	0.41	124134.7	124881.13	-0.07424783	-0.0029099873	-0.0029098865	-132.19472	396.94437	0	868.683709922898
3.9810717	1.7378008e-10	0.41	113212.54	113894.63	-0.073857575	-0.0029099873	-0.0029098767	-120.56964	362.01808	0	869.0503837737358
3.9810717	1.9054607e-10	0.41	103251.41	103874.81	-0.07346732	-0.0029099874	-0.0029098661	-109.9674	330.16493	0	869.4170579327512
3.9810717	2.0892961e-10	0.41	94166.76	94736.625	-0.073077065	-0.0029099873	-0.0029098543	-100.29802	301.11451	0	869.7837325540327
3.9810717	2.2908677e-10	0.41	85881.455	86402.487	-0.07268681	-0.0029099874	-0.0029098417	-91.479395	274.6202	0	870.1504074834916
3.9810717	2.5118864e-10	0.41	78325.167	78801.655	-0.072296555	-0.0029099875	-0.0029098277	-83.436683	250.45711	0	870.5170829522608
3.9810717	2.7542287e-10	0.41	71433.753	71869.607	-0.071906299	-0.0029099874	-0.0029098122	-76.101609	228.42012	0	870.8837599384282
3.9810717	3.0199517e-10	0.41	65148.707	65547.496	-0.071516044	-0.0029099875	-0.0029097954	-69.411907	208.32214	0	871.2504364858185
3.9810717	3.3113112e-10	0.41	59416.677	59781.653	-0.071125789	-0.0029099876	-0.0029097769	-63.310791	189.99256	0	871.617113688086
3.9810717	3.6307805e-10	0.41	54189.004	54523.135	-0.070735534	-0.0029099876	-0.0029097566	-57.746474	173.27578	0	871.9837915837527
3.9810717	3.9810717e-10	0.41	49421.309	49727.3	-0.070345279	-0.0029099877	-0.0029097344	-52.671721	158.02991	0	872.3504702113407
3.9810717	4.3651583e-10	0.41	45073.12	45353.44	-0.069955024	-0.0029099876	-0.0029097099	-48.043458	144.1255	0	872.717149724939
3.9810717	4.7863009e-10	0.41	41107.524	41364.423	-0.069564769	-0.0029099878	-0.0029096833	-43.822397	131.44453	0	873.0838300475029
3.9810717	5.2480746e-10	0.41	37490.858	37726.388	-0.069174514	-0.0029099878	-0.0029096539	-39.97271	119.87935	0	873.4505114486878
3.9810717	5.7543994e-10	0.41	34192.419	34408.453	-0.068784259	-0.002909988	-0.0029096219	-36.461719	109.33178	0	873.8171938514495
3.9810717	6.3095734e-10	0.41	31184.207	31382.452	-0.068394004	-0.002909988	-0.0029095866	-33.259623	99.71228	0	874.183877525443
3.9810717	6.9183097e-10	0.41	28440.685	28622.698	-0.068003749	-0.0029099882	-0.002909548	-30.339242	90.939192	0	874.5505624706684
3.9810717	7.5857758e-10	0.41	25938.564	26105.765	-0.067613494	-0.0029099882	-0.0029095056	-27.675789	82.938042	0	874.9172488797369
3.9810717	8.3176377e-10	0.41	23656.601	23810.286	-0.067223239	-0.0029099884	-0.0029094592	-25.246656	75.640906	0	875.2839368296923
3.9810717	9.1201084e-10	0.41	21575.427	21716.777	-0.066832984	-0.0029099885	-0.0029094082	-23.031226	68.985839	0	875.6506265516679
3.9810717	1.e-9	0.41	19677.374	19807.465	-0.066442729	-0.0029099886	-0.0029093524	-21.010696	62.916345	0	876.0173181227083
3.9810717	1.0964782e-9	0.41	17946.329	18066.145	-0.066052474	-0.0029099888	-0.0029092911	-19.167916	57.380902	0	876.3840118124685
3.9810717	1.2022644e-9	0.41	16367.596	16478.033	-0.065662219	-0.002909989	-0.002909224	-17.487247	52.332517	0	876.7507077365151
3.9810717	1.3182567e-9	0.41	14927.776	15029.65	-0.065271965	-0.0029099892	-0.0029091504	-15.954424	47.728335	0	877.117405224938
3.9810717	1.4454398e-9	0.41	13614.644	13708.7	-0.06488171	-0.0029099894	-0.0029090698	-14.556438	43.529271	0	877.4841063494789
3.9810717	1.5848932e-9	0.41	12417.053	12503.972	-0.064491455	-0.0029099897	-0.0029089813	-13.281426	39.69968	0	877.8508105172718
3.9810717	1.7378008e-9	0.41	11324.837	11405.239	-0.0641012	-0.0029099899	-0.0029088842	-12.118566	36.207051	0	878.2175179979722
3.9810717	1.9054607e-9	0.41	10328.725	10403.175	-0.063710946	-0.0029099901	-0.0029087777	-11.057992	33.021736	0	878.584228160192
3.9810717	2.0892961e-9	0.41	9420.2591	9489.2728	-0.063320691	-0.0029099904	-0.0029086611	-10.090702	30.116694	0	878.9509431527174
3.9810717	2.2908677e-9	0.41	8591.7288	8655.7762	-0.062930437	-0.0029099907	-0.0029085331	-9.2084883	27.467264	0	879.3176615972061
3.9810717	2.5118864e-9	0.41	7836.1	7895.6101	-0.062540182	-0.0029099911	-0.002908393	-8.4038657	25.050955	0	879.6843856424434
3.9810717	2.7542287e-9	0.41	7146.9586	7202.3224	-0.062149928	-0.0029099915	-0.0029082391	-7.670007	22.847255	0	880.0511140641765
3.9810717	3.0199517e-9	0.41	6518.454	6570.0284	-0.061759674	-0.002909992	-0.0029080706	-7.0006855	20.837457	0	880.4178481101476
3.9810717	3.3113112e-9	0.41	5945.2511	5993.3613	-0.061369419	-0.0029099923	-0.0029078855	-6.3902228	19.0045	0	880.7845894903658
3.9810717	3.6307805e-9	0.41	5422.4838	5467.4265	-0.060979165	-0.0029099929	-0.0029076828	-5.8334397	17.332822	0	881.1513367109221
3.9810717	3.9810717e-9	0.41	4945.7143	4987.7602	-0.060588911	-0.0029099936	-0.0029074606	-5.3256132	15.808234	0	881.5180914433037
3.9810717	4.3651583e-9	0.41	4510.8955	4550.2912	-0.060198657	-0.0029099941	-0.0029072168	-4.8624356	14.417794	0	881.8848544964757
3.9810717	4.7863009e-9	0.41	4114.336	4151.3067	-0.059808403	-0.0029099948	-0.0029069495	-4.4399783	13.149697	0	882.2516266023601
3.9810717	5.2480746e-9	0.41	3752.6694	3787.4204	-0.05941815	-0.0029099955	-0.0029066565	-4.0546582	11.993179	0	882.6184076688792
3.9810717	5.7543994e-9	0.41	3422.8256	3455.544	-0.059027896	-0.0029099964	-0.0029063352	-3.7032078	10.938422	0	882.9852005767402
3.9810717	6.3095734e-9	0.41	3122.0044	3152.861	-0.058637643	-0.0029099973	-0.0029059829	-3.3826469	9.9764728	0	883.3520044869117
3.9810717	6.9183097e-9	0.41	2847.6523	2876.8028	-0.05824739	-0.0029099982	-0.0029055965	-3.0902575	9.0991643	0	883.7188215331462
3.9810717	7.5857758e-9	0.41	2597.4402	2625.0266	-0.057857137	-0.0029099993	-0.0029051729	-2.8235608	8.2990495	0	884.0856529096316
3.9810717	8.3176377e-9	0.41	2369.2441	2395.3959	-0.057466884	-0.0029100005	-0.0029047085	-2.5802963	7.5693361	0	884.4525000031658
3.9810717	9.1201084e-9	0.41	2161.1268	2185.9621	-0.057076631	-0.0029100019	-0.0029041992	-2.358402	6.9038297	0	884.8193643931588
3.9810717	1.e-8	0.41	1971.3216	1994.9482	-0.056686379	-0.0029100032	-0.0029036407	-2.1559976	6.2968808	0	885.1862467964988
3.9810717	1.0964782e-8	0.41	1798.2171	1820.7332	-0.056296127	-0.0029100049	-0.0029030286	-1.9713683	5.7433367	0	885.5531498477267
3.9810717	1.2022644e-8	0.41	1640.3441	1661.8392	-0.055905875	-0.0029100065	-0.0029023572	-1.80295	5.2384987	0	885.9200757426071
3.9810717	1.3182567e-8	0.41	1496.3621	1516.9181	-0.055515624	-0.0029100085	-0.0029016211	-1.6493163	4.7780809	0	886.2870256217722
3.9810717	1.4454398e-8	0.41	1365.0491	1384.7404	-0.055125373	-0.0029100105	-0.0029008139	-1.5091664	4.3581751	0	886.6540028902068
3.9810717	1.5848932e-8	0.41	1245.2901	1264.1847	-0.054735123	-0.0029100128	-0.002899929	-1.3813137	3.9752165	0	887.0210091508093
3.9810717	1.7378008e-8	0.41	1136.0688	1154.2286	-0.054344872	-0.0029100152	-0.0028989585	-1.2646763	3.6259542	0	887.3880493259627
3.9810717	1.9054607e-8	0.41	1036.4577	1053.9394	-0.053954623	-0.002910018	-0.0028978946	-1.1582674	3.3074233	0	887.7551236017009
3.9810717	2.0892961e-8	0.41	945.61137	962.4664	-0.053564374	-0.0029100209	-0.0028967279	-1.0611869	3.0169198	0	888.1222374782396
3.9810717	2.2908677e-8	0.41	862.75857	879.03397	-0.053174125	-0.0029100243	-0.0028954487	-0.97261412	2.7519775	0	888.48939469223
3.9810717	2.5118864e-8	0.41	787.19597	802.93461	-0.052783877	-0.0029100279	-0.0028940462	-0.89180037	2.5103475	0	888.8565984645022
3.9810717	2.7542287e-8	0.41	718.28211	733.52309	-0.05239363	-0.0029100318	-0.0028925081	-0.81806296	2.2899785	0	889.2238535332842
3.9810717	3.0199517e-8	0.41	655.43197	670.21095	-0.052003384	-0.0029100362	-0.0028908219	-0.75077924	2.0889997	0	889.5911647138485
3.9810717	3.3113112e-8	0.41	598.11203	612.46153	-0.051613138	-0.0029100409	-0.0028889729	-0.68938136	1.905705	0	889.9585386085208
3.9810717	3.6307805e-8	0.41	545.83568	559.78535	-0.051222893	-0.0029100461	-0.0028869455	-0.63335143	1.7385386	0	890.3259802871956
3.9810717	3.9810717e-8	0.41	498.15916	511.73604	-0.05083265	-0.0029100518	-0.0028847225	-0.5822171	1.5860811	0	890.6934954361226
3.9810717	4.3651583e-8	0.41	454.67772	467.90648	-0.050442407	-0.0029100581	-0.0028822851	-0.53554762	1.4470385	0	891.0610931766023
3.9810717	4.7863009e-8	0.41	415.02228	427.92539	-0.050052166	-0.0029100648	-0.0028796124	-0.49295012	1.3202305	0	891.4287796806391
3.9810717	5.2480746e-8	0.41	378.85617	391.45414	-0.049661926	-0.0029100724	-0.002876682	-0.4540663	1.2045805	0	891.7965645167668
3.9810717	5.7543994e-8	0.41	345.8724	358.18392	-0.049271688	-0.0029100806	-0.0028734688	-0.41856939	1.0991067	0	892.164456414487
3.9810717	6.3095734e-8	0.41	315.79095	327.83307	-0.048881451	-0.0029100897	-0.0028699457	-0.38616136	1.0029139	0	892.5324667528755
3.9810717	6.9183097e-8	0.41	288.35646	300.14472	-0.048491216	-0.0029100996	-0.0028660827	-0.35657041	0.91518537	0	892.9006061490211
3.9810717	7.5857758e-8	0.41	263.33605	274.88462	-0.048100983	-0.0029101104	-0.002861847	-0.32954867	0.83517646	0	893.2688872381982
3.9810717	8.3176377e-8	0.41	240.51731	251.8391	-0.047710752	-0.0029101224	-0.0028572027	-0.30487005	0.76220793	0	893.6373238498699
3.9810717	9.1201084e-8	0.41	219.70654	230.81331	-0.047320523	-0.0029101354	-0.0028521102	-0.28232838	0.69566038	0	894.0059312388182
3.9810717	1.e-7	0.41	200.72707	211.62955	-0.046930297	-0.0029101497	-0.0028465267	-0.26173559	0.63496886	0	894.3747249529715
3.9810717	1.0964782e-7	0.41	183.41778	194.12575	-0.046540074	-0.0029101655	-0.0028404046	-0.2429202	0.57961815	0	894.7437233288865
3.9810717	1.2022644e-7	0.41	167.63173	178.1541	-0.046149854	-0.0029101828	-0.0028336919	-0.22572579	0.52913841	0	895.1129463980966
3.9810717	1.3182567e-7	0.41	153.23492	163.5798	-0.045759637	-0.0029102016	-0.0028263315	-0.21000972	0.48310109	0	895.4824161567666
3.9810717	1.4454398e-7	0.41	140.10514	150.2799	-0.045369424	-0.0029102223	-0.0028182614	-0.19564188	0.44111539	0	895.8521555490818
3.9810717	1.5848932e-7	0.41	128.13091	138.14229	-0.044979215	-0.0029102451	-0.0028094129	-0.18250361	0.40282488	0	896.2221910397798
3.9810717	1.7378008e-7	0.41	117.2106	127.06471	-0.044589011	-0.0029102701	-0.002799711	-0.1704867	0.36790452	0	896.5925505809296
3.9810717	1.9054607e-7	0.41	107.2515	116.95391	-0.044198811	-0.0029102974	-0.0027890735	-0.15949245	0.33605786	0	896.9632667773278
3.9810717	2.0892961e-7	0.41	98.169059	107.72483	-0.043808617	-0.0029103273	-0.0027774102	-0.14943084	0.30701457	0	897.3343724968497
3.9810717	2.2908677e-7	0.41	89.886186	99.299917	-0.043418428	-0.0029103602	-0.0027646225	-0.14021976	0.28052808	0	897.7059066619299
3.9810717	2.5118864e-7	0.41	82.332564	91.608425	-0.043028246	-0.0029103964	-0.002750602	-0.13178435	0.25637355	0	898.0779091514792
3.9810717	2.7542287e-7	0.41	75.444071	84.585847	-0.042638072	-0.002910436	-0.00273523	-0.12405629	0.23434594	0	898.4504247517598
3.9810717	3.0199517e-7	0.41	69.162229	78.173349	-0.042247904	-0.0029104794	-0.0027183766	-0.11697332	0.21425826	0	898.8235053822132
3.9810717	3.3113112e-7	0.41	63.433712	72.317276	-0.041857746	-0.002910527	-0.0026998994	-0.11047859	0.19593997	0	899.1972021401613
3.9810717	3.6307805e-7	0.41	58.209889	66.968698	-0.041467597	-0.0029105791	-0.0026796422	-0.10452031	0.17923557	0	899.5715761368137
3.9810717	3.9810717e-7	0.41	53.446415	62.082992	-0.041077458	-0.0029106363	-0.0026574345	-0.099051197	0.16400325	0	899.946692112921
3.9810717	4.3651583e-7	0.41	49.102852	57.619465	-0.04068733	-0.0029106991	-0.0026330892	-0.094028139	0.15011371	0	900.3226212039151
3.9810717	4.7863009e-7	0.41	45.142327	53.541007	-0.040297215	-0.002910768	-0.0026064016	-0.089411808	0.13744904	0	900.6994403855665
3.9810717	5.2480746e-7	0.41	41.531219	49.813778	-0.039907113	-0.0029108435	-0.0025771476	-0.08516633	0.12590171	0	901.0772359860791
3.9810717	5.7543994e-7	0.41	38.238871	46.406918	-0.039517026	-0.0029109263	-0.0025450826	-0.081258978	0.11537372	0	901.4561003515732
3.9810717	6.3095734e-7	0.41	35.237332	43.292286	-0.039126955	-0.0029110172	-0.0025099388	-0.077659895	0.10577566	0	901.8361357048796
3.9810717	6.9183097e-7	0.41	32.501122	40.444224	-0.038736902	-0.0029111168	-0.0024714238	-0.074341843	0.097026074	0	902.2174528057196
3.9810717	7.5857758e-7	0.41	30.007011	37.839335	-0.038346869	-0.002911226	-0.0024292185	-0.071279968	0.089050664	0	902.6001726992375
3.9810717	8.3176377e-7	0.41	27.733822	35.456285	-0.037956857	-0.0029113459	-0.002382975	-0.068451592	0.081781721	0	902.9844284645295
3.9810717	9.1201084e-7	0.41	25.662254	33.275624	-0.037566869	-0.0029114774	-0.0023323142	-0.065836018	0.075157525	0	903.3703633204814
3.9810717	1.e-6	0.41	23.774718	31.279619	-0.037176907	-0.0029116217	-0.002276824	-0.063414358	0.069121828	0	903.7581341378637
3.9810717	1.0964782e-6	0.41	22.055182	29.452103	-0.036786973	-0.0029117798	-0.0022160563	-0.061169369	0.06362337	0	904.1479116554315
3.9810717	1.2022644e-6	0.41	20.489041	27.778338	-0.03639707	-0.0029119533	-0.0021495261	-0.059085311	0.058615448	0	904.5398798870583
3.9810717	1.3182567e-6	0.41	19.062987	26.244889	-0.036007201	-0.0029121437	-0.0020767085	-0.057147807	0.054055511	0	904.934238216968
3.9810717	1.4454398e-6	0.41	17.764902	24.839511	-0.03561737	-0.0029123524	-0.0019970373	-0.05534373	0.049904802	0	905.3312009994781
3.9810717	1.5848932e-6	0.41	16.583744	23.551042	-0.03522758	-0.0029125815	-0.0019099045	-0.053661084	0.046128024	0	905.7309996307433
3.9810717	1.7378008e-6	0.41	15.509463	22.36931	-0.034837835	-0.0029128327	-0.0018146586	-0.052088907	0.042693033	0	906.1338813245005
3.9810717	1.9054607e-6	0.41	14.532905	21.285042	-0.03444814	-0.0029131084	-0.0017106064	-0.050617178	0.039570565	0	906.5401084186705
3.9810717	2.0892961e-6	0.41	13.645738	20.289788	-0.034058499	-0.0029134108	-0.0015970129	-0.049236733	0.036733977	0	906.9499602930098
3.9810717	2.2908677e-6	0.41	12.840377	19.375844	-0.033668918	-0.0029137424	-0.0014731056	-0.047939186	0.034159015	0	907.3637288939618
3.9810717	2.5118864e-6	0.41	12.109914	18.536187	-0.033279402	-0.0029141064	-0.0013380791	-0.046716862	0.031823595	0	907.7817197813324
3.9810717	2.7542287e-6	0.41	11.44806	17.764413	-0.032889959	-0.0029145057	-0.0011911017	-0.045562731	0.029707607	0	908.2042458275644
3.9810717	3.0199517e-6	0.41	10.849083	17.054676	-0.032500594	-0.0029149439	-0.0010313257	-0.044470354	0.027792728	0	908.6316288873454
3.9810717	3.3113112e-6	0.41	10.307757	16.40164	-0.032111317	-0.0029154246	-0.00085789988	-0.043433827	0.02606225	0	909.064187473517
3.9810717	3.6307805e-6	0.41	9.8193106	15.800428	-0.031722135	-0.002915952	-0.00066998483	-0.042447736	0.024500919	0	909.5022383681473
3.9810717	3.9810717e-6	0.41	9.3793802	15.246574	-0.031333058	-0.0029165309	-0.00046677207	-0.041507114	0.023094784	0	909.9460836196987
3.9810717	4.3651583e-6	0.41	8.9839657	14.735986	-0.030944096	-0.0029171662	-0.00024750447	-0.040607404	0.021831061	0	910.3960054954937
3.9810717	4.7863009e-6	0.41	8.629391	14.264905	-0.030555261	-0.0029178636	-0.000011499282	-0.039744426	0.020697999	0	910.8522557301577
3.9810717	5.2480746e-6	0.41	8.3122666	13.829867	-0.030166565	-0.0029186289	0.00024182934	-0.038914343	0.019684765	0	911.3150487295529
3.9810717	5.7543994e-6	0.41	8.0294561	13.427678	-0.029778023	-0.002919469	0.00051294795	-0.03811364	0.018781336	0	911.784550126968
3.9810717	6.3095734e-6	0.41	7.7780472	13.055382	-0.029389649	-0.0029203913	0.00080218641	-0.037339099	0.017978406	0	912.2608738385195
3.9810717	6.9183097e-6	0.41	7.5553277	12.710238	-0.029001461	-0.0029214041	0.0011097247	-0.036587775	0.017267308	0	912.7440722842489
3.9810717	7.5857758e-6	0.41	7.3587649	12.389704	-0.028613478	-0.0029225162	0.0014355879	-0.035856982	0.016639953	0	913.2341372737776
3.9810717	8.3176377e-6	0.41	7.1859915	12.091418	-0.028225721	-0.0029237376	0.0017796495	-0.035144273	0.016088779	0	913.731000341824
3.9810717	9.1201084e-6	0.41	7.0347951	11.813186	-0.027838212	-0.0029250795	0.0021416423	-0.034447425	0.01560672	0	914.2345378866873
3.9810717	0.00001	0.41	6.9031113	11.552979	-0.027450977	-0.0029265539	0.0025211801	-0.033764426	0.015187185	0	914.7445767070116
3.9810717	0.000010964782	0.41	6.7890208	11.308922	-0.027064046	-0.0029281745	0.0029177826	-0.033093459	0.014824047	0	915.2609035938091
3.9810717	0.000012022644	0.41	6.6851913	11.079307	-0.026688322	-0.0029326497	0.0033282127	-0.032438951	0.014505645	0	915.7720274646008
3.9810717	0.000013182567	0.41	6.6005924	10.862533	-0.026303101	-0.0029348569	0.0037570342	-0.031787873	0.01423822	0	916.2991591556145
3.9810717	0.000014454398	0.41	6.5286357	10.657172	-0.025918379	-0.002937282	0.004201202	-0.031144456	0.014011495	0	916.831733732728
3.9810717	0.000015848932	0.41	6.4679586	10.461927	-0.025534206	-0.0029399474	0.004660161	-0.03050753	0.013821138	0	917.3694903810567
3.9810717	0.000017378008	0.41	6.4173303	10.275626	-0.02515064	-0.0029428778	0.0051334025	-0.02987605	0.013663235	0	917.9121786434835
3.9810717	0.000019054607	0.41	6.3756453	10.097222	-0.024767744	-0.0029461011	0.0056204795	-0.029249086	0.013534276	0	918.4595671332495
3.9810717	0.000020892961	0.41	6.3419155	9.9257799	-0.024385589	-0.0029496486	0.0061210182	-0.028625811	0.013431127	0	919.0114451453089
3.9810717	0.000022908677	0.41	6.3152614	9.7604688	-0.024004254	-0.0029535551	0.006634724	-0.028005489	0.013351003	0	919.5676249676587
3.9810717	0.000025118864	0.41	6.2949022	9.6005507	-0.023623829	-0.0029578599	0.0071613833	-0.027387465	0.013291431	0	920.1279397560418
3.9810717	0.000027542287	0.41	6.2801449	9.4453709	-0.023244414	-0.0029626078	0.0077008616	-0.026771156	0.013250221	0	920.6922437415924
3.9810717	0.000030199517	0.41	6.270374	9.2943481	-0.022866121	-0.0029678488	0.0082531008	-0.026156046	0.013225426	0	921.2604093116049
3.9810717	0.000033113112	0.41	6.2650415	9.1469638	-0.022489076	-0.0029736405	0.0088181123	-0.025541671	0.013215313	0	921.8323224723739
3.9810717	0.000036307805	0.41	6.2636558	9.0027536	-0.022113424	-0.0029800484	0.0093959713	-0.024927622	0.013218323	0	922.4078759556021
3.9810717	0.000039810717	0.41	6.2657729	8.8612975	-0.021739326	-0.0029871479	0.0099868096	-0.024313534	0.013233041	0	922.9869692635009
3.9810717	0.000043651583	0.41	6.2709871	8.722212	-0.021366965	-0.0029950247	0.010590809	-0.023699083	0.013258168	0	923.5695004889332
3.9810717	0.000047863009	0.41	6.2789227	8.5851419	-0.020996548	-0.0030037783	0.011208192	-0.023083984	0.01329248	0	924.1553608537206
3.9810717	0.000052480746	0.41	6.2892259	8.4497529	-0.020628307	-0.0030135231	0.011839218	-0.022467989	0.013334813	0	924.7444323052353
3.9810717	0.000057543994	0.41	6.3015589	8.3157254	-0.020262505	-0.0030243908	0.012484172	-0.021850881	0.013384027	0	925.3365775260006
3.9810717	0.000063095734	0.41	6.3155936	8.1827485	-0.019899433	-0.0030365342	0.013143363	-0.021232479	0.013438988	0	925.931642136035
3.9810717	0.000069183097	0.41	6.3310077	8.0505154	-0.019539416	-0.0030501282	0.013817112	-0.020612631	0.013498546	0	926.5294444327949
3.9810717	0.000075857758	0.41	6.347482	7.91872	-0.019182812	-0.0030653734	0.014505754	-0.019991216	0.013561524	0	927.1297771011857
3.9810717	0.000083176377	0.41	6.3646997	7.7870554	-0.018830005	-0.0030824989	0.015209625	-0.019368148	0.01362671	0	927.7324087826357
3.9810717	0.000091201084	0.41	6.3823491	7.6552148	-0.018481411	-0.003101764	0.015929064	-0.018743369	0.013692862	0	928.3370792081475
3.9810717	0.0001	0.41	6.4001278	7.5228943	-0.01813746	-0.0031234592	0.016664405	-0.018116851	0.01375872	0	928.9435130286993
3.9810717	0.00010964782	0.41	6.4177518	7.3897997	-0.017798593	-0.0031479071	0.017415981	-0.017488595	0.013823035	0	929.5514241748294
3.9810717	0.00012022644	0.41	6.4349659	7.2556556	-0.017465243	-0.0031754608	0.018184119	-0.01685863	0.013884613	0	930.1605317822675
3.9810717	0.00013182567	0.41	6.4515586	7.1202178	-0.01713782	-0.0032065013	0.018969146	-0.016227006	0.013942367	0	930.7705765967464
3.9810717	0.00014454398	0.41	6.4673765	6.9832869	-0.016816692	-0.003241433	0.019771391	-0.015593792	0.013995385	0	931.3813395961876
3.9810717	0.00015848932	0.41	6.4823397	6.8447232	-0.016502161	-0.0032806789	0.020591189	-0.01495907	0.014042993	0	931.9926660811561
3.9810717	0.00017378008	0.41	6.4964548	6.7044593	-0.016194448	-0.0033246729	0.021428889	-0.014322923	0.014084822	0	932.6044828501156
3.9810717	0.00019054607	0.41	6.5098239	6.5625102	-0.015893675	-0.0033738539	0.022284863	-0.01368543	0.014120857	0	933.2168185786006
3.9810717	0.00020892961	0.41	6.5226473	6.4189786	-0.015599856	-0.0034286588	0.023159506	-0.013046655	0.014151468	0	933.8298122753044
3.9810717	0.00022908677	0.41	6.5352209	6.2740534	-0.015312892	-0.0034895181	0.02405325	-0.012406638	0.014177416	0	934.4437233730118
3.9810717	0.00025118864	0.41	6.5479264	6.1280033	-0.015032574	-0.003556851	0.024966561	-0.011765386	0.014199834	0	935.0589277542363
3.9810717	0.00027542287	0.41	6.5612171	5.9811645	-0.014758594	-0.003631063	0.025899946	-0.011122863	0.01422018	0	935.6759101125554
3.9810717	0.00030199517	0.41	6.5756001	5.8339251	-0.014490554	-0.0037125456	0.026853954	-0.010478988	0.01424018	0	936.2952558817427
3.9810717	0.00033113112	0.41	6.5916162	5.6867068	-0.014227988	-0.0038016771	0.027829174	-0.0098336283	0.014261755	0	936.9176297948877
3.9810717	0.00036307805	0.41	6.6098211	5.5399469	-0.013970376	-0.0038988212	0.028826239	-0.0091865954	0.014286946	0	937.5437642713682
3.9810717	0.00039810717	0.41	6.6307678	5.3940811	-0.013717164	-0.0040043298	0.029845823	-0.0085376478	0.014317839	0	938.174439469876
3.9810717	0.00043651583	0.41	6.6549913	5.2495289	-0.013467779	-0.0041185439	0.030888639	-0.0078864908	0.014356508	0	938.8104684244965
3.9810717	0.00047863009	0.41	6.6829971	5.1066813	-0.01322165	-0.0042417913	0.031955446	-0.0072327777	0.014404956	0	939.4526800103849
3.9810717	0.00052480746	0.41	6.715252	4.9658916	-0.012978214	-0.0043743873	0.033047047	-0.0065761146	0.014465073	0	940.1019125359339
3.9810717	0.00057543994	0.41	6.7521777	4.8274688	-0.012736933	-0.0045166328	0.034164292	-0.0059160641	0.014538606	0	940.7589989258263
3.9810717	0.00063095734	0.41	6.7941475	4.6916739	-0.012497304	-0.0046688075	0.035308086	-0.0052521492	0.014627139	0	941.4247604071556
3.9810717	0.00069183097	0.41	6.8414834	4.5587166	-0.012258868	-0.0048311698	0.036479389	-0.0045838596	0.01473207	0	942.0999980533404
3.9810717	0.00075857758	0.41	6.8944554	4.4287554	-0.012021221	-0.0050039449	0.037679232	-0.0039106555	0.014854609	0	942.7854886124502
3.9810717	0.00083176377	0.41	6.9532811	4.3018964	-0.011784019	-0.0051873205	0.038908719	-0.0032319735	0.014995772	0	943.4819805798259
3.9810717	0.00091201084	0.41	7.0181256	4.1781945	-0.011546994	-0.0053814331	0.040169043	-0.0025472309	0.015156372	0	944.1901853285807
3.9810717	0.001	0.41	7.0891013	4.0576528	-0.011309961	-0.005586359	0.041461499	-0.001855832	0.015337019	0	944.9107755405271
3.9810717	0.0010964782	0.41	7.1662664	3.9402226	-0.011072832	-0.0058020987	0.042787497	-0.0011571725	0.01553811	0	945.6443770601447
3.9810717	0.0012022644	0.41	7.2496237	3.8258022	-0.010835629	-0.0060285608	0.044148579	-0.00045064474	0.015759822	0	946.3915632290013
3.9810717	0.0013182567	0.41	7.3391151	3.7142328	-0.010598506	-0.006265543	0.045546444	0.0002643555	0.016002087	0	947.1528438458602
3.9810717	0.0014454398	0.41	7.4346126	3.6052901	-0.010361774	-0.006512705	0.046982974	0.00098842423	0.01626455	0	947.9286516933129
3.9810717	0.0015848932	0.41	7.535895	3.4986629	-0.010125951	-0.0067695338	0.048460266	0.0017221402	0.016546471	0	948.7193078866093
3.9810717	0.0017378008	0.41	7.6425882	3.3938979	-0.0098918639	-0.007035274	0.049980712	0.0024660537	0.016846481	0	949.5249569496912
3.9810717	0.0019054607	0.41	7.7539844	3.2902302	-0.0096609461	-0.0073087321	0.051547187	0.003220665	0.017161837	0	950.3453596222423
3.9810717	0.0020892961	0.41	7.868427	3.1860061	-0.0094362207	-0.0075876113	0.053163723	0.0039863665	0.017485926	0	951.1792287185244
3.9810717	0.0022908677	0.41	7.9812433	3.0767357	-0.0092257501	-0.0078658962	0.054838121	0.0047632674	0.017799833	0	952.0219942020709
3.9810717	0.0025118864	0.41	8.081137	2.9517283	-0.0090495842	-0.0081274491	0.05658836	0.0055507118	0.018057604	0	952.861743784196
3.9810717	0.0027542287	0.41	8.1583161	2.8020035	-0.0089292736	-0.0083515428	0.058437062	0.0063468473	0.018219334	0	953.6869437552809
3.9810717	0.0030199517	0.41	8.2209602	2.635907	-0.0088589566	-0.0085379688	0.060386391	0.0071497152	0.018318427	0	954.5039351854984
3.9810717	0.0033113112	0.41	8.282701	2.4667565	-0.0088207018	-0.0086988645	0.062426221	0.0079585887	0.018410586	0	955.3256650410848
3.9810717	0.0036307805	0.41	8.3517408	2.3023719	-0.0088025802	-0.0088432298	0.064549627	0.0087738257	0.018529302	0	956.1606737361801
3.9810717	0.0039810717	0.41	8.4320926	2.1463623	-0.0087981579	-0.0089761954	0.066753616	0.0095963637	0.018690805	0	957.0138533714614
3.9810717	0.0043651583	0.41	8.5257023	2.0002355	-0.0088036734	-0.0091011226	0.06903703	0.010427417	0.018902698	0	957.8882920351566
3.9810717	0.0047863009	0.41	8.6335263	1.864476	-0.0088165111	-0.0092208803	0.071399269	0.011268338	0.019168388	0	958.7862161213186
3.9810717	0.0052480746	0.41	8.7560158	1.7390465	-0.0088345189	-0.0093384254	0.073839717	0.012120546	0.019489132	0	959.7094103719123
3.9810717	0.0057543994	0.41	8.8933362	1.623631	-0.0088557486	-0.0094569615	0.07635758	0.012985487	0.019865042	0	960.6593993820487
3.9810717	0.0063095734	0.41	9.045464	1.5177606	-0.0088784076	-0.0095798612	0.078951972	0.013864615	0.020295582	0	961.6375261100652
3.9810717	0.0069183097	0.41	9.2122177	1.4208801	-0.0089009409	-0.0097104261	0.081622152	0.014759376	0.020779847	0	962.6449661307317
3.9810717	0.0075857758	0.41	9.3932383	1.3323814	-0.0089222381	-0.0098514798	0.084367937	0.015671186	0.021316675	0	963.6826922418252
3.9810717	0.0083176377	0.41	9.5879295	1.2516136	-0.0089420007	-0.010004674	0.087190396	0.016601418	0.021904682	0	964.7513967056996
3.9810717	0.0091201084	0.41	9.7953814	1.177878	-0.0089612288	-0.010169571	0.090092772	0.017551369	0.022542205	0	965.8513891373243
3.9810717	0.01	0.41	10.014396	1.1104275	-0.0089824774	-0.010343024	0.093081102	0.018522233	0.023227272	0	966.9825945311984
3.9810717	0.010964782	0.41	10.243831	1.0485139	-0.0090089671	-0.010520511	0.096162889	0.019515084	0.023957786	0	968.1448772422715
3.9810717	0.012022644	0.41	10.483299	0.99150931	-0.0090418341	-0.010700908	0.099342331	0.020530916	0.024732082	0	969.3387868974821
3.9810717	0.013182567	0.41	10.733769	0.93903383	-0.0090770631	-0.010892179	0.10261463	0.021570749	0.025549568	0	970.5662478394154
3.9810717	0.014454398	0.41	10.997506	0.89097962	-0.0091054945	-0.011111166	0.1059662	0.022635762	0.026410969	0	971.8306324875641
3.9810717	0.015848932	0.41	11.277428	0.84742713	-0.0091168086	-0.01137532	0.10938298	0.023727398	0.027318067	0	973.1362202708326
3.9810717	0.017378008	0.41	11.576092	0.80848524	-0.0091044991	-0.011693141	0.11285991	0.024847376	0.028273043	0	974.4871750609825
3.9810717	0.019054607	0.41	11.8948	0.77410231	-0.0090682902	-0.012060838	0.11640438	0.025997609	0.029277591	0	975.886602779191
3.9810717	0.020892961	0.41	12.233475	0.74397797	-0.0090131633	-0.012465335	0.12003314	0.027180069	0.030332409	0	977.3362755396649
3.9810717	0.022908677	0.41	12.591288	0.71762826	-0.0089469199	-0.012888884	0.12376775	0.028396673	0.031437366	0	978.8371687051942
3.9810717	0.025118864	0.41	12.967358	0.69450775	-0.0088781606	-0.013312248	0.12763136	0.029649253	0.032591981	0	980.390119334549
3.9810717	0.027542287	0.41	13.361181	0.67409819	-0.0088148282	-0.013717104	0.13164634	0.030939572	0.033795822	0	981.9962820595879
3.9810717	0.030199517	0.41	13.772782	0.65595209	-0.0087628021	-0.014088979	0.13583132	0.032269365	0.035048727	0	983.6573094818052
3.9810717	0.033113112	0.41	14.202649	0.63970771	-0.0087248669	-0.014419806	0.14019867	0.033640396	0.036350929	0	985.3753504811127
3.9810717	0.036307805	0.41	14.651555	0.6250827	-0.0087007658	-0.014708182	0.14475422	0.035054493	0.037703057	0	987.1528921809486
3.9810717	0.039810717	0.41	15.120382	0.61185374	-0.0086882383	-0.014957239	0.1494994	0.036513563	0.039106074	0	988.9926093359511
3.9810717	0.043651583	0.41	15.610052	0.5998359	-0.0086842037	-0.015171929	0.15443397	0.038019605	0.040561195	0	990.8973040118635
3.9810717	0.047863009	0.41	16.121526	0.58887085	-0.0086854948	-0.015357243	0.1595578	0.039574709	0.042069838	0	992.869901921229
3.9810717	0.052480746	0.41	16.655819	0.57882249	-0.0086891303	-0.015517487	0.16487158	0.041181062	0.043633615	0	994.9134699932638
3.9810717	0.057543994	0.41	17.214012	0.56957503	-0.0086923139	-0.015656253	0.17037687	0.042840952	0.045254323	0	997.031236480553
3.9810717	0.063095734	0.41	17.797263	0.56103002	-0.0086923512	-0.015776575	0.17607597	0.04455678	0.046933943	0	999.2266189581014
3.9810717	0.069183097	0.41	16.565749	0.61490558	-0.010505466	-0.016333099	0.18151971	0.046286327	0.048891769	0	999.620126402597
3.9810717	0.075857758	0.41	15.442595	0.66404067	-0.012159046	-0.017555117	0.18648447	0.047863693	0.050677327	0	999.9790136826409
3.9810717	0.083176377	0.41	14.418267	0.7088524	-0.013667129	-0.019406314	0.19101238	0.049302268	0.052305776	0	1000.3063207619233
3.9810717	0.091201084	0.41	15.120787	0.67252875	-0.013787474	-0.020385137	0.19661101	0.050729653	0.053579253	0	1002.3499630596204
3.9810717	0.1	0.41	16.327329	0.62394519	-0.013432753	-0.021145218	0.20263293	0.052269212	0.054912957	0	1005.0030214428514
3.9810717	0.10964782	0.41	17.776928	0.57792013	-0.012767101	-0.021926887	0.2088442	0.053938646	0.056387376	0	1008.0211615665223
3.9810717	0.12022644	0.41	19.512757	0.53444358	-0.011714446	-0.022747135	0.21523443	0.055763814	0.058028327	0	1011.4718555915041
3.9810717	0.13182567	0.41	21.590391	0.49349872	-0.010179582	-0.023625916	0.22179045	0.057775377	0.059866401	0	1015.4394824054882
3.9810717	0.14454398	0.41	24.082871	0.45506524	-0.0080416722	-0.0245853	0.22849721	0.060010255	0.061938431	0	1020.0317784907679
3.9810717	0.15848932	0.41	27.08682	0.41912257	-0.0051461591	-0.025648463	0.23533875	0.062513632	0.064289514	0	1025.387812579101
3.9810717	0.17378008	0.41	30.729023	0.38565254	-0.0012956261	-0.026838458	0.24229948	0.065341587	0.066975652	0	1031.6870648596016
3.9810717	0.19054607	0.41	35.172254	0.35464055	0.0037590406	-0.028176715	0.24936564	0.068564352	0.070067015	0	1039.1582933750785
3.9810717	0.20892961	0.41	40.618239	0.32607474	0.010324731	-0.029681145	0.25652725	0.072270021	0.073651646	0	1048.0859968222937
3.9810717	0.22908677	0.41	47.304642	0.29994216	0.018765691	-0.031363847	0.26378038	0.07656828	0.077839177	0	1058.8108941061184
3.9810717	0.25118864	0.41	55.492483	0.27622151	0.02949209	-0.03322855	0.27112972	0.081593409	0.082763799	0	1071.7201728726343
3.9810717	0.27542287	0.41	65.44137	0.25487273	0.042933897	-0.035268361	0.27859085	0.087505461	0.088585393	0	1087.2238188513584
3.9810717	0.30199517	0.41	77.373437	0.23582519	0.059500232	-0.037464689	0.28619132	0.094488428	0.095487653	0	1105.7168398786935
3.9810717	0.33113112	0.41	91.432794	0.21896813	0.079530966	-0.039788299	0.29396959	0.10274457	0.10367237	0	1127.5333825998878
3.9810717	0.36307805	0.41	107.65268	0.20414733	0.10325384	-0.042202878	0.30197151	0.11248505	0.11335005	0	1152.9050869865473
3.9810717	0.39810717	0.41	125.94269	0.19117069	0.13076137	-0.044670396	0.31024492	0.12391822	0.12472824	0	1181.9373068771938
3.9810717	0.43651583	0.41	146.1014	0.17982164	0.16201485	-0.047156624	0.31883417	0.13723794	0.13799987	0	1214.6107600419314
3.9810717	0.47863009	0.41	167.84924	0.16987635	0.19687156	-0.049635128	0.32777615	0.15261415	0.15333394	0	1250.805562545971
3.9810717	0.52480746	0.41	190.86945	0.16111965	0.23512337	-0.052088924	0.33709859	0.17018725	0.17086994	0	1290.3368448533506
3.9810717	0.57543994	0.41	214.84543	0.1533563	0.27653459	-0.054510024	0.34682059	0.19006632	0.19071612	0	1332.9905185429845
3.9810717	0.63095734	0.41	239.48754	0.14641682	0.32087114	-0.056897716	0.3569543	0.21233057	0.21295095	0	1378.5513306025362
3.9810717	0.69183097	0.41	264.54814	0.14015877	0.36791924	-0.059256435	0.3675071	0.23703276	0.23762663	0	1426.821263688318
3.9810717	0.75857758	0.41	289.82709	0.13446506	0.41749481	-0.061593812	0.37848352	0.26420373	0.26477347	0	1477.6291076654265
3.9810717	0.83176377	0.41	315.17073	0.12924088	0.4694465	-0.063919152	0.38988682	0.29385698	0.29440459	0	1530.833915141187
3.9810717	0.91201084	0.41	340.46742	0.12441004	0.5236548	-0.066242358	0.40172001	0.32599306	0.3265202	0	1586.324558178218
3.9810717	1.	0.41	365.64156	0.11991161	0.58002922	-0.068573269	0.41398662	0.3606034	0.36111148	0	1644.01737534093
3.9810717	1.0964782	0.41	390.64735	0.11569687	0.63850474	-0.070921268	0.42669102	0.39767351	0.39816374	0	1703.8529595095038
3.9810717	1.2022644	0.41	415.46304	0.11172678	0.69903825	-0.073295102	0.43983865	0.43718567	0.43765907	0	1765.7929016282562
3.9810717	1.3182567	0.41	440.08588	0.10796996	0.76160519	-0.075702814	0.4534361	0.47912095	0.47957843	0	1829.8166645838119
3.9810717	1.4454398	0.41	464.52785	0.10440103	0.82619676	-0.078151761	0.4674911	0.52346093	0.52390329	0	1895.918957965554
3.9810717	1.5848932	0.41	488.81221	0.10099935	0.89281739	-0.080648663	0.48201249	0.57018896	0.5706169	0	1964.1073494086377
3.9810717	1.7378008	0.41	512.97067	0.097748036	0.96148282	-0.08319967	0.49701015	0.61929106	0.61970523	0	2034.4004336629914
3.9810717	1.9054607	0.41	537.04114	0.094633127	1.0322184	-0.085810445	0.51249497	0.67075672	0.67115769	0	2106.826223775569
3.9810717	2.0892961	0.41	561.06602	0.091643014	1.1050579	-0.088486233	0.52847876	0.72457935	0.72496766	0	2181.4209983376213
3.9810717	2.2908677	0.41	585.09075	0.08876795	1.1800422	-0.091231931	0.54497421	0.7807567	0.78113282	0	2258.2280552452157
3.9810717	2.5118864	0.41	609.16281	0.085999679	1.2572185	-0.094052154	0.56199485	0.83929106	0.83965546	0	2337.296954033738
3.9810717	2.7542287	0.41	633.33088	0.08333114	1.3366399	-0.096951284	0.57955499	0.90018946	0.90054255	0	2418.6830981471394
3.9810717	3.0199517	0.41	657.64425	0.080756243	1.4183643	-0.099933523	0.59766972	0.96346372	0.96380589	0	2502.4467014160477
3.9810717	3.3113112	0.41	682.15233	0.078269681	1.5024547	-0.10300294	0.61635486	1.0291305	1.0294621	0	2588.6530506662866
3.9810717	3.6307805	0.41	706.90437	0.075866787	1.5889781	-0.10616348	0.63562696	1.0972113	1.0975328	0	2677.371472196988
3.9810717	3.9810717	0.41	731.94918	0.073543422	1.6780057	-0.10941905	0.65550327	1.1677324	1.1680441	0	2768.6755081370097
3.9810717	4.3651583	0.41	757.33501	0.07129588	1.7696125	-0.11277348	0.67600176	1.240725	1.2410271	0	2862.6425483232315
3.9810717	4.7863009	0.41	783.10944	0.069120814	1.8638774	-0.11623061	0.69714109	1.3162247	1.3165176	0	2959.353912700434
3.9810717	5.2480746	0.41	809.31933	0.06701518	1.9608827	-0.11979424	0.71894062	1.394272	1.394556	0	3058.8943853908468
3.9810717	5.7543994	0.41	836.01084	0.064976189	2.0607141	-0.12346822	0.74142042	1.4749118	1.4751871	0	3161.3522185463585
3.9810717	6.3095734	0.41	863.2294	0.063001264	2.1634611	-0.12725642	0.76460128	1.5581936	1.5584606	0	3266.819512026881
3.9810717	6.9183097	0.41	891.0198	0.061088014	2.2692162	-0.13116276	0.78850468	1.6441713	1.6444301	0	3375.3914501914132
3.9810717	7.5857758	0.41	919.42619	0.059234204	2.3780757	-0.13519122	0.81315288	1.732903	1.7331539	0	3487.167088220285
3.9810717	8.3176377	0.41	948.4922	0.057437737	2.4901391	-0.13934584	0.83856886	1.8244512	1.8246946	0	3602.248765262635
3.9810717	9.1201084	0.41	978.26099	0.055696637	2.6055092	-0.14363077	0.86477634	1.9188829	1.9191189	0	3720.742206097386
3.9810717	10.	0.41	1008.7753	0.054009031	2.7242926	-0.14805022	0.89179987	2.0162689	2.0164977	0	3842.757025585877