30.199517	1.e-12	0.2	6.5289517e10	8.6479273e9	-0.81560585	-0.045865514	-0.045865514	-6.9489065e7	2.0847269e8	0	164.63162453983455
30.199517	1.0964782e-12	0.2	5.9544747e10	7.8870035e9	-0.81264552	-0.045866433	-0.045866433	-6.337478e7	1.9012935e8	0	167.4128753402887
30.199517	1.2022644e-12	0.2	5.4305454e10	7.1930326e9	-0.80968518	-0.045867198	-0.045867198	-5.7798486e7	1.7340003e8	0	170.19416447500913
30.199517	1.3182567e-12	0.2	4.9527163e10	6.5601238e9	-0.80672483	-0.045867835	-0.045867835	-5.2712847e7	1.5814271e8	0	172.97548705825608
30.199517	1.4454398e-12	0.2	4.516931e10	5.982904e9	-0.80376447	-0.045868364	-0.045868364	-4.8074688e7	1.4422786e8	0	175.75683933176808
30.199517	1.5848932e-12	0.2	4.11949e10	5.4564733e9	-0.80080411	-0.045868804	-0.045868804	-4.3844636e7	1.3153737e8	0	178.53820832954327
30.199517	1.7378008e-12	0.2	3.7570196e10	4.9763628e9	-0.79784375	-0.04586917	-0.04586917	-3.9986784e7	1.1996351e8	0	181.3195912328856
30.199517	1.9054607e-12	0.2	3.4264426e10	4.5384968e9	-0.79488338	-0.045869475	-0.045869475	-3.646838e7	1.0940802e8	0	184.1009949945787
30.199517	2.0892961e-12	0.2	3.1249528e10	4.1391583e9	-0.791923	-0.045869729	-0.045869729	-3.3259558e7	9.9781302e7	0	186.88241773549194
30.199517	2.2908677e-12	0.2	2.8499908e10	3.7749572e9	-0.78896263	-0.045869939	-0.045869939	-3.0333078e7	9.1001629e7	0	189.66383934892679
30.199517	2.5118864e-12	0.2	2.5992225e10	3.4428019e9	-0.78600225	-0.045870115	-0.045870115	-2.7664095e7	8.2994471e7	0	192.44527674705944
30.199517	2.7542287e-12	0.2	2.3705191e10	3.1398726e9	-0.78304187	-0.045870261	-0.045870261	-2.5229955e7	7.5691857e7	0	195.2267197825842
30.199517	3.0199517e-12	0.2	2.1619391e10	2.8635979e9	-0.78008149	-0.045870382	-0.045870382	-2.3009992e7	6.9031795e7	0	198.00816751593572
30.199517	3.3113112e-12	0.2	1.9717119e10	2.6116323e9	-0.77712111	-0.045870483	-0.045870483	-2.0985363e7	6.2957745e7	0	200.78961900754874
30.199517	3.6307805e-12	0.2	1.7982226e10	2.381837e9	-0.77416072	-0.045870566	-0.045870566	-1.9138878e7	5.7418147e7	0	203.57108327725035
30.199517	3.9810717e-12	0.2	1.6399985e10	2.1722611e9	-0.77120034	-0.045870636	-0.045870636	-1.7454864e7	5.2365971e7	0	206.35254059416843
30.199517	4.3651583e-12	0.2	1.4956964e10	1.9811257e9	-0.76823995	-0.045870695	-0.045870695	-1.5919026e7	4.7758333e7	0	209.13400937378387
30.199517	4.7863009e-12	0.2	1.3640913e10	1.8068081e9	-0.76527957	-0.045870743	-0.045870743	-1.4518324e7	4.3556118e7	0	211.91547082478948
30.199517	5.2480746e-12	0.2	1.2440661e10	1.6478286e9	-0.76231918	-0.045870783	-0.045870782	-1.3240869e7	3.9723652e7	0	214.69694336266627
30.199517	5.7543994e-12	0.2	1.1346018e10	1.5028376e9	-0.7593588	-0.045870816	-0.045870816	-1.2075816e7	3.6228401e7	0	217.4784074444549
30.199517	6.3095734e-12	0.2	1.0347691e10	1.3706041e9	-0.75639841	-0.045870844	-0.045870844	-1.1013275e7	3.3040694e7	0	220.25988204937545
30.199517	6.9183097e-12	0.2	9.4372064e9	1.2500058e9	-0.75343802	-0.045870867	-0.045870867	-1.0044227e7	3.0133472e7	0	223.04135759386128
30.199517	7.5857758e-12	0.2	8.6068346e9	1.1400189e9	-0.75047764	-0.045870886	-0.045870886	-9.1604436e6	2.7482053e7	0	225.82282449434604
30.199517	8.3176377e-12	0.2	7.8495265e9	1.0397096e9	-0.74751725	-0.045870902	-0.045870902	-8.3544239e6	2.506393e7	0	228.60430135422334
30.199517	9.1201084e-12	0.2	7.1588532e9	9.482264e8	-0.74455686	-0.045870915	-0.045870915	-7.6193252e6	2.2858576e7	0	231.38577877783996
30.199517	1.e-11	0.2	6.5289516e9	8.6479275e8	-0.74159647	-0.045870927	-0.045870927	-6.9489071e6	2.0847269e7	0	234.16725638936964
30.199517	1.0964782e-11	0.2	5.9544747e9	7.8870037e8	-0.73863609	-0.045870936	-0.045870936	-6.3374788e6	1.9012935e7	0	236.94872516898502
30.199517	1.2022644e-11	0.2	5.4305455e9	7.1930329e8	-0.7356757	-0.045870943	-0.045870943	-5.7798494e6	1.7340003e7	0	239.73020372007994
30.199517	1.3182567e-11	0.2	4.9527164e9	6.560124e8	-0.73271531	-0.04587095	-0.04587095	-5.2712854e6	1.5814271e7	0	242.511682271175
30.199517	1.4454398e-11	0.2	4.516931e9	5.9829042e8	-0.72975492	-0.045870955	-0.045870955	-4.8074694e6	1.4422786e7	0	245.2931611980962
30.199517	1.5848932e-11	0.2	4.11949e9	5.4564735e8	-0.72679453	-0.04587096	-0.045870959	-4.3844643e6	1.3153737e7	0	248.07464031293037
30.199517	1.7378008e-11	0.2	3.7570196e9	4.976363e8	-0.72383415	-0.045870963	-0.045870963	-3.9986791e6	1.1996351e7	0	250.85611003211116
30.199517	1.9054607e-11	0.2	3.4264426e9	4.538497e8	-0.72087376	-0.045870966	-0.045870966	-3.6468387e6	1.0940802e7	0	253.63758933485832
30.199517	2.0892961e-11	0.2	3.1249528e9	4.1391585e8	-0.71791337	-0.045870968	-0.045870968	-3.3259565e6	9.9781303e6	0	256.41906882551876
30.199517	2.2908677e-11	0.2	2.8499908e9	3.7749574e8	-0.71495298	-0.045870971	-0.045870971	-3.0333084e6	9.1001629e6	0	259.20054812826606
30.199517	2.5118864e-11	0.2	2.5992225e9	3.4428022e8	-0.71199259	-0.045870973	-0.045870972	-2.7664102e6	8.2994473e6	0	261.9820278068394
30.199517	2.7542287e-11	0.2	2.3705191e9	3.1398729e8	-0.7090322	-0.045870974	-0.045870974	-2.5229962e6	7.5691859e6	0	264.7635072974998
30.199517	3.0199517e-11	0.2	2.1619391e9	2.8635981e8	-0.70607182	-0.045870976	-0.045870975	-2.3009999e6	6.9031795e6	0	267.54497758041975
30.199517	3.3113112e-11	0.2	1.9717119e9	2.6116326e8	-0.70311143	-0.045870976	-0.045870976	-2.098537e6	6.2957746e6	0	270.32645725899323
30.199517	3.6307805e-11	0.2	1.7982227e9	2.3818372e8	-0.70015104	-0.045870977	-0.045870977	-1.9138885e6	5.7418147e6	0	273.10793693756665
30.199517	3.9810717e-11	0.2	1.6399985e9	2.1722614e8	-0.69719065	-0.045870978	-0.045870978	-1.7454871e6	5.2365972e6	0	275.88941661614
30.199517	4.3651583e-11	0.2	1.4956964e9	1.9811259e8	-0.69423026	-0.045870979	-0.045870978	-1.5919032e6	4.7758334e6	0	278.6708964826266
30.199517	4.7863009e-11	0.2	1.3640914e9	1.8068084e8	-0.69126987	-0.045870979	-0.045870979	-1.4518331e6	4.3556119e6	0	281.45237616120005
30.199517	5.2480746e-11	0.2	1.2440661e9	1.6478288e8	-0.68830949	-0.04587098	-0.04587098	-1.3240875e6	3.9723652e6	0	284.23384644411993
30.199517	5.7543994e-11	0.2	1.1346018e9	1.5028378e8	-0.6853491	-0.04587098	-0.045870979	-1.2075823e6	3.6228402e6	0	287.01532649851947
30.199517	6.3095734e-11	0.2	1.0347691e9	1.3706044e8	-0.68238871	-0.04587098	-0.04587098	-1.1013282e6	3.3040695e6	0	289.7968061770929
30.199517	6.9183097e-11	0.2	9.4372067e8	1.250006e8	-0.67942832	-0.04587098	-0.04587098	-1.0044233e6	3.0133472e6	0	292.57828604357945
30.199517	7.5857758e-11	0.2	8.6068348e8	1.1400191e8	-0.67646793	-0.045870981	-0.04587098	-916044.99	2.7482053e6	0	295.35976591006585
30.199517	8.3176377e-11	0.2	7.8495267e8	1.0397098e8	-0.67350754	-0.045870981	-0.04587098	-835443.02	2.506393e6	0	298.1412457765524
30.199517	9.1201084e-11	0.2	7.1588534e8	9.482266e7	-0.67054716	-0.045870981	-0.045870981	-761933.14	2.2858576e6	0	300.9227160594723
30.199517	1.e-10	0.2	6.528952e8	8.6479297e7	-0.66758677	-0.045870981	-0.04587098	-694891.35	2.0847269e6	0	303.70419611387194
30.199517	1.0964782e-10	0.2	5.954475e8	7.8870059e7	-0.66462638	-0.045870981	-0.04587098	-633748.51	1.9012936e6	0	306.48567598035845
30.199517	1.2022644e-10	0.2	5.4305458e8	7.193035e7	-0.66166599	-0.045870981	-0.045870981	-577985.56	1.7340003e6	0	309.2671556589318
30.199517	1.3182567e-10	0.2	4.9527166e8	6.5601261e7	-0.6587056	-0.045870981	-0.045870981	-527129.16	1.5814271e6	0	312.0486355254184
30.199517	1.4454398e-10	0.2	4.5169313e8	5.9829063e7	-0.65574521	-0.045870981	-0.04587098	-480747.56	1.4422787e6	0	314.83011557981797
30.199517	1.5848932e-10	0.2	4.1194903e8	5.4564755e7	-0.65278483	-0.045870982	-0.045870981	-438447.05	1.3153738e6	0	317.61158586273785
30.199517	1.7378008e-10	0.2	3.7570199e8	4.9763651e7	-0.64982444	-0.045870981	-0.04587098	-399868.52	1.1996352e6	0	320.39306591713745
30.199517	1.9054607e-10	0.2	3.4264429e8	4.5384991e7	-0.64686405	-0.045870981	-0.04587098	-364684.48	1.0940803e6	0	323.1745457836239
30.199517	2.0892961e-10	0.2	3.124953e8	4.1391605e7	-0.64390366	-0.045870981	-0.04587098	-332596.26	997813.07	0	325.9560256501104
30.199517	2.2908677e-10	0.2	2.8499911e8	3.7749595e7	-0.64094327	-0.045870982	-0.04587098	-303331.45	910016.34	0	328.73750551659697
30.199517	2.5118864e-10	0.2	2.5992228e8	3.4428041e7	-0.63798288	-0.045870982	-0.04587098	-276641.63	829944.77	0	331.51898538308336
30.199517	2.7542287e-10	0.2	2.3705194e8	3.1398749e7	-0.6350225	-0.045870982	-0.04587098	-252300.22	756918.63	0	334.3004558539164
30.199517	3.0199517e-10	0.2	2.1619394e8	2.8636001e7	-0.63206211	-0.045870982	-0.04587098	-230100.59	690318.	0	337.0819357204029
30.199517	3.3113112e-10	0.2	1.9717122e8	2.6116346e7	-0.62910172	-0.045870981	-0.04587098	-209854.29	629577.51	0	339.8634155868894
30.199517	3.6307805e-10	0.2	1.7982229e8	2.3818392e7	-0.62614133	-0.045870982	-0.04587098	-191389.44	574181.51	0	342.64489545337585
30.199517	3.9810717e-10	0.2	1.6399988e8	2.1722633e7	-0.62318094	-0.045870982	-0.04587098	-174549.3	523659.77	0	345.42637531986236
30.199517	4.3651583e-10	0.2	1.4956967e8	1.9811279e7	-0.62022055	-0.045870982	-0.045870979	-159190.91	477583.39	0	348.207855374262
30.199517	4.7863009e-10	0.2	1.3640916e8	1.8068103e7	-0.61726017	-0.045870982	-0.04587098	-145183.89	435561.23	0	350.9893256571819
30.199517	5.2480746e-10	0.2	1.2440664e8	1.6478308e7	-0.61429978	-0.045870982	-0.045870979	-132409.34	397236.57	0	353.7708057115815
30.199517	5.7543994e-10	0.2	1.1346021e8	1.5028397e7	-0.61133939	-0.045870982	-0.045870979	-120758.81	362284.06	0	356.552285578068
30.199517	6.3095734e-10	0.2	1.0347694e8	1.3706063e7	-0.608379	-0.045870982	-0.045870979	-110133.39	330406.99	0	359.33376544455444
30.199517	6.9183097e-10	0.2	9.4372094e7	1.250008e7	-0.60541861	-0.045870982	-0.045870979	-100442.9	301334.76	0	362.115245311041
30.199517	7.5857758e-10	0.2	8.6068375e7	1.140021e7	-0.60245822	-0.045870982	-0.045870978	-91605.071	274820.58	0	364.8967253654405
30.199517	8.3176377e-10	0.2	7.8495293e7	1.0397117e7	-0.59949783	-0.045870983	-0.045870978	-83544.871	250639.35	0	367.6782052319271
30.199517	9.1201084e-10	0.2	7.1588562e7	9.4822852e6	-0.59653745	-0.045870982	-0.045870977	-76193.882	228585.81	0	370.4596758906731
30.199517	1.e-9	0.2	6.5289547e7	8.6479487e6	-0.59357706	-0.045870982	-0.045870977	-69489.7	208472.74	0	373.2411557571596
30.199517	1.0964782e-9	0.2	5.9544777e7	7.8870247e6	-0.59061667	-0.045870983	-0.045870977	-63375.412	190129.4	0	376.0226356236462
30.199517	1.2022644e-9	0.2	5.4305485e7	7.1930537e6	-0.58765628	-0.045870983	-0.045870977	-57799.115	173400.08	0	378.8041154901326
30.199517	1.3182567e-9	0.2	4.9527193e7	6.5601447e6	-0.58469589	-0.045870983	-0.045870976	-52713.472	158142.76	0	381.5855955445322
30.199517	1.4454398e-9	0.2	4.5169339e7	5.9829248e6	-0.5817355	-0.045870983	-0.045870976	-48075.309	144227.91	0	384.36707541101873
30.199517	1.5848932e-9	0.2	4.119493e7	5.4564941e6	-0.57877512	-0.045870983	-0.045870975	-43845.256	131537.42	0	387.1485460697648
30.199517	1.7378008e-9	0.2	3.7570226e7	4.9763835e6	-0.57581473	-0.045870983	-0.045870974	-39987.4	119963.56	0	389.93002612416427
30.199517	1.9054607e-9	0.2	3.4264455e7	4.5385174e6	-0.57285434	-0.045870984	-0.045870973	-36468.993	109408.07	0	392.7115061785639
30.199517	2.0892961e-9	0.2	3.1249558e7	4.1391788e6	-0.56989395	-0.045870983	-0.045870972	-33260.169	99781.352	0	395.4929862329635
30.199517	2.2908677e-9	0.2	2.8499938e7	3.7749777e6	-0.56693356	-0.045870984	-0.045870972	-30333.685	91001.679	0	398.27446609944997
30.199517	2.5118864e-9	0.2	2.5992255e7	3.4428223e6	-0.56397318	-0.045870984	-0.045870971	-27664.7	82994.522	0	401.0559367581961
30.199517	2.7542287e-9	0.2	2.3705221e7	3.1398929e6	-0.56101279	-0.045870984	-0.045870969	-25230.557	75691.908	0	403.8374170005086
30.199517	3.0199517e-9	0.2	2.1619421e7	2.8636181e6	-0.5580524	-0.045870985	-0.045870969	-23010.591	69031.845	0	406.61889686699516
30.199517	3.3113112e-9	0.2	1.9717149e7	2.6116524e6	-0.55509201	-0.045870985	-0.045870967	-20985.958	62957.795	0	409.40037710930784
30.199517	3.6307805e-9	0.2	1.7982256e7	2.381857e6	-0.55213162	-0.045870986	-0.045870966	-19139.471	57418.196	0	412.1818571637073
30.199517	3.9810717e-9	0.2	1.6400015e7	2.172281e6	-0.54917123	-0.045870986	-0.045870965	-17455.454	52366.021	0	414.963337218107
30.199517	4.3651583e-9	0.2	1.4956994e7	1.9811455e6	-0.54621085	-0.045870986	-0.045870963	-15919.613	47758.384	0	417.7448080647661
30.199517	4.7863009e-9	0.2	1.3640944e7	1.8068278e6	-0.54325046	-0.045870987	-0.045870961	-14518.908	43556.168	0	420.52628830707874
30.199517	5.2480746e-9	0.2	1.2440691e7	1.6478482e6	-0.54029007	-0.045870987	-0.045870959	-13241.45	39723.701	0	423.3077685493915
30.199517	5.7543994e-9	0.2	1.1346048e7	1.5028571e6	-0.53732968	-0.045870988	-0.045870957	-12076.394	36228.451	0	426.089248791704
30.199517	6.3095734e-9	0.2	1.0347721e7	1.3706236e6	-0.53436929	-0.045870989	-0.045870955	-11013.85	33040.744	0	428.87072903401673
30.199517	6.9183097e-9	0.2	9.4372367e6	1.2500252e6	-0.5314089	-0.045870989	-0.045870952	-10044.798	30133.521	0	431.6522094642424
30.199517	7.5857758e-9	0.2	8.6068647e6	1.1400381e6	-0.52844852	-0.04587099	-0.045870949	-9161.0124	27482.102	0	434.43368049881457
30.199517	8.3176377e-9	0.2	7.8495566e6	1.0397287e6	-0.52548813	-0.045870991	-0.045870946	-8354.9899	25063.98	0	437.2151609290403
30.199517	9.1201084e-9	0.2	7.1588834e6	948245.47	-0.52252774	-0.045870992	-0.045870943	-7619.8882	22858.626	0	439.99664135926594
30.199517	1.e-8	0.2	6.5289818e6	864811.72	-0.51956735	-0.045870993	-0.045870939	-6949.4672	20847.318	0	442.77812197740485
30.199517	1.0964782e-8	0.2	5.9545049e6	788719.25	-0.51660696	-0.045870994	-0.045870935	-6338.0359	19012.985	0	445.5596025955436
30.199517	1.2022644e-8	0.2	5.4305756e6	719322.07	-0.51364657	-0.045870995	-0.045870931	-5780.4035	17340.053	0	448.34108321368234
30.199517	1.3182567e-8	0.2	4.9527465e6	656031.1	-0.51068619	-0.045870996	-0.045870925	-5271.8366	15814.32	0	451.1225548119937
30.199517	1.4454398e-8	0.2	4.5169612e6	598309.03	-0.5077258	-0.045870997	-0.04587092	-4808.0177	14422.836	0	453.9040356180456
30.199517	1.5848932e-8	0.2	4.1195202e6	545665.87	-0.50476541	-0.045871	-0.045870914	-4385.0096	13153.787	0	456.6855166120106
30.199517	1.7378008e-8	0.2	3.7570497e6	497654.72	-0.50180502	-0.045871001	-0.045870908	-3999.2214	11996.401	0	459.4669976059754
30.199517	1.9054607e-8	0.2	3.4264727e6	453868.03	-0.49884463	-0.045871003	-0.045870901	-3647.3781	10940.852	0	462.24847878785346
30.199517	2.0892961e-8	0.2	3.1249829e6	413934.08	-0.49588425	-0.045871006	-0.045870893	-3326.4929	9978.1799	0	465.02995076199096
30.199517	2.2908677e-8	0.2	2.850021e6	377513.89	-0.49292386	-0.045871008	-0.045870884	-3033.8419	9100.2127	0	467.81143231969514
30.199517	2.5118864e-8	0.2	2.5992527e6	344298.26	-0.48996347	-0.04587101	-0.045870875	-2766.9407	8299.497	0	470.5929138773993
30.199517	2.7542287e-8	0.2	2.3705493e6	314005.25	-0.48700308	-0.045871012	-0.045870864	-2523.5238	7569.2357	0	473.3743958109295
30.199517	3.0199517e-8	0.2	2.1619693e6	286377.68	-0.4840427	-0.045871016	-0.045870853	-2301.5245	6903.2293	0	476.1558683488063
30.199517	3.3113112e-8	0.2	1.9717421e6	261181.03	-0.48108231	-0.045871019	-0.045870841	-2099.0586	6295.8244	0	478.93735047024967
30.199517	3.6307805e-8	0.2	1.7982528e6	238201.41	-0.47812192	-0.045871022	-0.045870827	-1914.4072	5741.8644	0	481.7188329675191
30.199517	3.9810717e-8	0.2	1.6400287e6	217243.73	-0.47516153	-0.045871027	-0.045870812	-1746.0029	5236.647	0	484.50031565270166
30.199517	4.3651583e-8	0.2	1.4957266e6	198130.1	-0.47220115	-0.045871031	-0.045870796	-1592.416	4775.8832	0	487.2817891301437
30.199517	4.7863009e-8	0.2	1.3641215e6	180698.24	-0.46924076	-0.045871036	-0.045870779	-1452.3429	4355.6616	0	490.0632721911525
30.199517	5.2480746e-8	0.2	1.2440963e6	164800.2	-0.46628037	-0.045871041	-0.045870759	-1324.5944	3972.415	0	492.8447558159004
30.199517	5.7543994e-8	0.2	1.134632e6	150301.	-0.46331998	-0.045871047	-0.045870737	-1208.0862	3622.8899	0	495.62623981647437
30.199517	6.3095734e-8	0.2	1.0347993e6	137077.57	-0.4603596	-0.045871053	-0.045870714	-1101.8291	3304.1192	0	498.4077146093081
30.199517	6.9183097e-8	0.2	943750.84	125017.65	-0.45739921	-0.04587106	-0.045870688	-1004.9213	3013.397	0	501.1891993615344
30.199517	7.5857758e-8	0.2	860713.65	114018.86	-0.45443882	-0.045871068	-0.045870659	-916.54003	2748.2551	0	503.97068467749983
30.199517	8.3176377e-8	0.2	784982.84	103987.84	-0.45147844	-0.045871076	-0.045870629	-835.9351	2506.4428	0	506.75216078572487
30.199517	9.1201084e-8	0.2	715915.52	94839.428	-0.44851805	-0.045871085	-0.045870594	-762.42228	2285.9074	0	509.533647229169
30.199517	1.e-7	0.2	652925.37	86495.971	-0.44555766	-0.045871095	-0.045870557	-695.37752	2084.7767	0	512.3151340484391
30.199517	1.0964782e-7	0.2	595477.67	78886.64	-0.44259728	-0.045871106	-0.045870516	-634.23171	1901.3433	0	515.096612223708
30.199517	1.2022644e-7	0.2	543084.75	71946.84	-0.43963689	-0.045871118	-0.045870471	-578.46582	1734.0501	0	517.8781005462824
30.199517	1.3182567e-7	0.2	495301.83	65617.659	-0.43667651	-0.045871131	-0.045870422	-527.60645	1581.4769	0	520.659580224856
30.199517	1.4454398e-7	0.2	451723.3	59845.369	-0.43371612	-0.045871146	-0.045870368	-481.2219	1442.3284	0	523.4410702386484
30.199517	1.5848932e-7	0.2	411979.2	54580.969	-0.43075574	-0.045871162	-0.045870309	-438.91842	1315.4235	0	526.2225517963524
30.199517	1.7378008e-7	0.2	375732.15	49779.772	-0.42779535	-0.045871179	-0.045870244	-400.33694	1199.6849	0	529.0040438771885
30.199517	1.9054607e-7	0.2	342674.45	45401.02	-0.42483497	-0.045871198	-0.045870173	-365.14994	1094.13	0	531.7855276898493
30.199517	2.0892961e-7	0.2	312525.47	41407.543	-0.42187458	-0.045871219	-0.045870095	-333.05876	997.86282	0	534.5670222135553
30.199517	2.2908677e-7	0.2	285029.28	37765.44	-0.4189142	-0.045871242	-0.04587001	-303.791	910.0661	0	537.3485086569993
30.199517	2.5118864e-7	0.2	259952.45	34443.795	-0.41595382	-0.045871267	-0.045869915	-277.09822	829.99454	0	540.1299969795741
30.199517	2.7542287e-7	0.2	237082.11	31414.41	-0.41299344	-0.045871295	-0.045869813	-252.75385	756.96839	0	542.9114866175402
30.199517	3.0199517e-7	0.2	216224.11	28651.571	-0.41003305	-0.045871325	-0.0458697	-230.55127	690.36777	0	545.6929877182035
30.199517	3.3113112e-7	0.2	197201.39	26131.823	-0.40707267	-0.045871358	-0.045869577	-210.30201	629.62726	0	548.4744813023441
30.199517	3.6307805e-7	0.2	179852.46	23833.777	-0.40411229	-0.045871395	-0.045869441	-191.8342	574.23127	0	551.2559773293547
30.199517	3.9810717e-7	0.2	164030.05	21737.927	-0.40115191	-0.045871434	-0.045869292	-174.9911	523.70953	0	554.0374757992349
30.199517	4.3651583e-7	0.2	149599.84	19826.481	-0.39819153	-0.045871478	-0.045869129	-159.62976	477.63315	0	556.8189768998984
30.199517	4.7863009e-7	0.2	136439.33	18083.213	-0.39523116	-0.045871526	-0.045868951	-145.61978	435.61099	0	559.6004714236044
30.199517	5.2480746e-7	0.2	124436.81	16493.325	-0.39227078	-0.045871578	-0.045868755	-132.84227	397.28633	0	562.3819787253991
30.199517	5.7543994e-7	0.2	113490.38	15043.323	-0.3893104	-0.045871636	-0.04586854	-121.18878	362.33382	0	565.1634895975421
30.199517	6.3095734e-7	0.2	103507.11	13720.897	-0.38635003	-0.045871699	-0.045868304	-110.56041	330.45676	0	567.9449950202062
30.199517	6.9183097e-7	0.2	94402.263	12514.821	-0.38338965	-0.045871769	-0.045868046	-100.86696	301.38453	0	570.7265139726112
30.199517	7.5857758e-7	0.2	86098.544	11414.86	-0.38042928	-0.045871845	-0.045867763	-92.026172	274.87034	0	573.5080282271896
30.199517	8.3176377e-7	0.2	78525.463	10411.674	-0.37746891	-0.045871928	-0.045867453	-83.963015	250.68911	0	576.2895475554209
30.199517	9.1201084e-7	0.2	71618.731	9496.7507	-0.37450854	-0.045872019	-0.045867112	-76.609068	228.63557	0	579.0710727089572
30.199517	1.e-6	0.2	65319.717	8662.3222	-0.37154818	-0.045872119	-0.045866739	-69.901928	208.5225	0	581.8525944800583
30.199517	1.0964782e-6	0.2	59574.946	7901.3062	-0.36858781	-0.045872229	-0.04586633	-63.784683	190.17917	0	584.6341324116835
30.199517	1.2022644e-6	0.2	54335.654	7207.2433	-0.36562745	-0.045872349	-0.045865881	-58.205429	173.44984	0	587.4156684641778
30.199517	1.3182567e-6	0.2	49557.363	6574.2423	-0.36266709	-0.045872481	-0.045865389	-53.116828	158.19252	0	590.1972125969344
30.199517	1.4454398e-6	0.2	45199.51	5996.9304	-0.35970673	-0.045872626	-0.045864849	-48.475709	144.27768	0	592.9787657495181
30.199517	1.5848932e-6	0.2	41225.1	5470.4076	-0.35674638	-0.045872785	-0.045864258	-44.242697	131.58719	0	595.7603190900151
30.199517	1.7378008e-6	0.2	37600.395	4990.205	-0.35378603	-0.045872958	-0.045863609	-40.381884	120.01333	0	598.5418833294699
30.199517	1.9054607e-6	0.2	34294.625	4552.2469	-0.35082568	-0.04587315	-0.045862898	-36.86052	109.45784	0	601.3234592195352
30.199517	2.0892961e-6	0.2	31279.728	4152.8163	-0.34786534	-0.045873359	-0.045862118	-33.648738	99.831119	0	604.1050386799487
30.199517	2.2908677e-6	0.2	28530.108	3788.5231	-0.344905	-0.045873588	-0.045861263	-30.719297	91.051446	0	606.8866322338426
30.199517	2.5118864e-6	0.2	26022.425	3456.2757	-0.34194467	-0.045873839	-0.045860325	-28.047354	83.044289	0	609.6682319888678
30.199517	2.7542287e-6	0.2	23735.391	3153.2544	-0.33898434	-0.045874116	-0.045859297	-25.610253	75.741675	0	612.4498486560692
30.199517	3.0199517e-6	0.2	21649.591	2876.8875	-0.33602402	-0.045874418	-0.04585817	-23.38733	69.081612	0	615.2314745310111
30.199517	3.3113112e-6	0.2	19747.319	2624.8299	-0.3330637	-0.045874749	-0.045856934	-21.35974	63.007563	0	618.0131208884775
30.199517	3.6307805e-6	0.2	18012.427	2394.9424	-0.33010339	-0.045875113	-0.045855578	-19.510295	57.467965	0	620.7947803998591
30.199517	3.9810717e-6	0.2	16430.186	2185.2745	-0.32714309	-0.045875512	-0.045854093	-17.823321	52.41579	0	623.5764547563729
30.199517	4.3651583e-6	0.2	14987.165	1994.047	-0.3241828	-0.045875948	-0.045852463	-16.284522	47.808153	0	626.3581469646286
30.199517	4.7863009e-6	0.2	13671.114	1819.6373	-0.32122251	-0.045876429	-0.045850677	-14.880859	43.605938	0	629.1398684873232
30.199517	5.2480746e-6	0.2	12470.862	1660.5657	-0.31826224	-0.045876954	-0.045848718	-13.600444	39.773473	0	631.9216037276717
30.199517	5.7543994e-6	0.2	11376.219	1515.4825	-0.31530198	-0.04587753	-0.04584657	-12.43243	36.278222	0	634.7033650879371
30.199517	6.3095734e-6	0.2	10377.892	1383.157	-0.31234173	-0.045878162	-0.045844215	-11.366929	33.090516	0	637.4851559505545
30.199517	6.9183097e-6	0.2	9467.4078	1262.4666	-0.30938149	-0.045878855	-0.045841633	-10.39492	30.183294	0	640.2669800737852
30.199517	7.5857758e-6	0.2	8637.0362	1152.3876	-0.30642126	-0.045879615	-0.045838801	-9.508176	27.531876	0	643.0488417796299
30.199517	8.3176377e-6	0.2	7879.7282	1051.9862	-0.30346106	-0.045880448	-0.045835697	-8.6991957	25.113754	0	645.8307264108691
30.199517	9.1201084e-6	0.2	7189.0552	960.41096	-0.30050087	-0.045881362	-0.045832293	-7.9611364	22.908401	0	648.6126580203759
30.199517	0.00001	0.2	6559.154	876.88525	-0.2975407	-0.045882363	-0.04582856	-7.2877579	20.897095	0	651.3946326619757
30.199517	0.000010964782	0.2	5984.6773	800.70078	-0.29458055	-0.045883461	-0.045824468	-6.6733687	19.062763	0	654.1766559730606
30.199517	0.000012022644	0.2	5460.7452	731.21158	-0.29162527	-0.045894013	-0.045829328	-6.112782	17.389827	0	656.9524214030887
30.199517	0.000013182567	0.2	4982.9161	667.82861	-0.28866563	-0.045896235	-0.045825309	-5.6012576	15.864095	0	659.7339518181909
30.199517	0.000014454398	0.2	4547.1308	610.01456	-0.28570607	-0.04589867	-0.045820902	-5.1344812	14.472612	0	662.5154799783364
30.199517	0.000015848932	0.2	4149.6898	557.27941	-0.28274659	-0.045901341	-0.04581607	-4.7085156	13.203564	0	665.2970128363087
30.199517	0.000017378008	0.2	3787.2194	509.1763	-0.2797872	-0.045904269	-0.045810771	-4.31977	12.046179	0	668.0785488888031
30.199517	0.000019054607	0.2	3456.6424	465.29764	-0.2768279	-0.045907479	-0.04580496	-3.9649692	10.990631	0	670.8600965919079
30.199517	0.000020892961	0.2	3155.1527	425.27173	-0.2738687	-0.045910998	-0.045798589	-3.6411266	10.027961	0	673.6416555697967
30.199517	0.000022908677	0.2	2880.1908	388.75957	-0.27090962	-0.045914857	-0.045791602	-3.3455181	9.1499951	0	676.4232175542949
30.199517	0.000025118864	0.2	2629.4225	355.45198	-0.26795067	-0.045919087	-0.045783942	-3.0756595	8.3492811	0	679.2047838607934
30.199517	0.000027542287	0.2	2400.7191	325.06701	-0.26499185	-0.045923725	-0.045775541	-2.829285	7.6190216	0	681.9863672673816
30.199517	0.000030199517	0.2	2192.1392	297.3475	-0.26203319	-0.045928809	-0.045766328	-2.6043283	6.9530175	0	684.7679529289264
30.199517	0.000033113112	0.2	2001.9121	272.05891	-0.25907469	-0.045934383	-0.045756227	-2.3989049	6.3456148	0	687.5495551268216
30.199517	0.000036307805	0.2	1828.4229	248.98735	-0.25611637	-0.045940494	-0.04574515	-2.211296	5.7916574	0	690.33117160611
30.199517	0.000039810717	0.2	1670.1988	227.93774	-0.25315825	-0.045947193	-0.045733002	-2.0399341	5.2864427	0	693.1128014272264
30.199517	0.000043651583	0.2	1525.8968	208.73219	-0.25020035	-0.045954536	-0.045719681	-1.8833898	4.8256819	0	695.8944449659969
30.199517	0.000047863009	0.2	1394.2919	191.20843	-0.24724269	-0.045962586	-0.045705073	-1.7403591	4.4054637	0	698.6761048532044
30.199517	0.000052480746	0.2	1274.2667	175.21848	-0.24428528	-0.04597141	-0.045689053	-1.6096531	4.0222207	0	701.4577951823293
30.199517	0.000057543994	0.2	1164.8025	160.62739	-0.24132817	-0.045981082	-0.045671484	-1.4901873	3.6726996	0	704.2394947191945
30.199517	0.000063095734	0.2	1064.97	147.31208	-0.23837136	-0.045991683	-0.045652216	-1.3809727	3.3539334	0	707.0212316507609
30.199517	0.000069183097	0.2	973.92168	135.16029	-0.2354149	-0.046003303	-0.045631086	-1.2811073	3.0632159	0	709.802989628591
30.199517	0.000075857758	0.2	890.88466	124.06965	-0.23245881	-0.046016038	-0.045607911	-1.1897685	2.7980793	0	712.5847842494697
30.199517	0.000083176377	0.2	815.15403	113.94679	-0.22950314	-0.046029996	-0.045582495	-1.1062059	2.5562728	0	715.3666053660913
30.199517	0.000091201084	0.2	746.08691	104.70657	-0.22654791	-0.046045292	-0.045554619	-1.0297355	2.3357438	0	718.1484753401112
30.199517	0.0001	0.2	683.097	96.271309	-0.22359317	-0.046062053	-0.045524044	-0.9597331	2.1346201	0	720.9303921044855
30.199517	0.00010964782	0.2	625.64956	88.570197	-0.22063897	-0.046080422	-0.045490509	-0.89562962	1.9511944	0	723.7123577262579
30.199517	0.00012022644	0.2	573.25694	81.53864	-0.21768535	-0.046100547	-0.045453725	-0.83690603	1.7839096	0	726.4943889296917
30.199517	0.00013182567	0.2	525.47436	75.117726	-0.21473238	-0.046122597	-0.045413377	-0.78308894	1.6313456	0	729.2764791378296
30.199517	0.00014454398	0.2	481.89621	69.25373	-0.21178011	-0.046146754	-0.045369117	-0.73374663	1.4922073	0	732.0586467661524
30.199517	0.00015848932	0.2	442.15254	63.897655	-0.2088286	-0.046173217	-0.045320566	-0.68848535	1.3653136	0	734.8409066597924
30.199517	0.00017378008	0.2	405.90598	59.004815	-0.20587792	-0.046202203	-0.045267303	-0.64694602	1.2495872	0	737.6232721605778
30.199517	0.00019054607	0.2	372.84884	54.534456	-0.20292816	-0.046233951	-0.045208871	-0.60880113	1.1440458	0	740.4057445839
30.199517	0.00020892961	0.2	342.7005	50.449411	-0.19997939	-0.046268718	-0.045144763	-0.57375199	1.0477934	0	743.1883534321112
30.199517	0.00022908677	0.2	315.20502	46.715785	-0.1970317	-0.046306787	-0.045074426	-0.5415262	0.96001293	0	745.9711180602571
30.199517	0.00025118864	0.2	290.12902	43.302663	-0.19408519	-0.046348467	-0.044997252	-0.51187533	0.87995923	0	748.7540587629499
30.199517	0.00027542287	0.2	267.25963	40.181854	-0.19113997	-0.046394095	-0.04491257	-0.48457278	0.80695272	0	751.5371982776704
30.199517	0.00030199517	0.2	246.40273	37.327648	-0.18819615	-0.046444034	-0.044819645	-0.45941191	0.74037368	0	754.3205713683373
30.199517	0.00033113112	0.2	227.38126	34.716598	-0.18525385	-0.046498685	-0.044717671	-0.43620425	0.67965693	0	757.1042167450424
30.199517	0.00036307805	0.2	210.03378	32.327319	-0.1823132	-0.04655848	-0.044605759	-0.41477791	0.62428706	0	759.8881793190097
30.199517	0.00039810717	0.2	194.21303	30.140312	-0.17937435	-0.04662389	-0.044482936	-0.39497613	0.57379404	0	762.672500994854
30.199517	0.00043651583	0.2	179.78475	28.137794	-0.17643745	-0.046695426	-0.04434813	-0.37665592	0.52774929	0	765.4572422805834
30.199517	0.00047863009	0.2	166.62646	26.303546	-0.17350265	-0.046773644	-0.044200166	-0.35968688	0.48576193	0	768.242483039253
30.199517	0.00052480746	0.2	154.62651	24.622782	-0.17057013	-0.046859145	-0.044037752	-0.34395007	0.44747559	0	771.0282969327859
30.199517	0.00057543994	0.2	143.68306	23.082014	-0.16764009	-0.046952582	-0.043859474	-0.32933701	0.41256527	0	773.8147617571934
30.199517	0.00063095734	0.2	133.70325	21.668945	-0.1647127	-0.04705466	-0.043663776	-0.31574876	0.38073467	0	776.6020101791028
30.199517	0.00069183097	0.2	124.60241	20.372364	-0.16178819	-0.047166141	-0.043448955	-0.30309506	0.35171362	0	779.3901461144417
30.199517	0.00075857758	0.2	116.30335	19.182044	-0.15886677	-0.047287847	-0.043213145	-0.2912936	0.32525582	0	782.1793229002753
30.199517	0.00083176377	0.2	108.73566	18.088664	-0.15594867	-0.047420666	-0.042954307	-0.28026928	0.30113672	0	784.969707591323
30.199517	0.00091201084	0.2	101.8352	17.083725	-0.15303412	-0.047565552	-0.042670211	-0.2699536	0.27915163	0	787.7615031337002
30.199517	0.001	0.2	95.543449	16.159477	-0.15012339	-0.047723529	-0.042358426	-0.26028406	0.259114	0	790.5549126614358
30.199517	0.0010964782	0.2	89.807109	15.308857	-0.14721672	-0.0478957	-0.042016307	-0.25120365	0.24085376	0	793.3502077089156
30.199517	0.0012022644	0.2	84.577583	14.525425	-0.14431437	-0.048083242	-0.041640982	-0.24266034	0.22421598	0	796.1476836754858
30.199517	0.0013182567	0.2	79.810595	13.80331	-0.14141662	-0.048287416	-0.04122935	-0.23460665	0.20905946	0	798.9476602012785
30.199517	0.0014454398	0.2	75.465808	13.137163	-0.13852373	-0.048509565	-0.040778065	-0.22699926	0.19525556	0	801.750521756435
30.199517	0.0015848932	0.2	71.506475	12.522108	-0.13563597	-0.04875112	-0.040283544	-0.21979859	0.1826871	0	804.5566879508403
30.199517	0.0017378008	0.2	67.899132	11.953699	-0.1327536	-0.0490136	-0.039741967	-0.21296853	0.17124735	0	807.3666323254313
30.199517	0.0019054607	0.2	64.613306	11.427885	-0.12987688	-0.049298618	-0.039149301	-0.2064761	0.16083909	0	810.180868446628
30.199517	0.0020892961	0.2	61.621255	10.940975	-0.12700603	-0.049607875	-0.038501313	-0.20029115	0.15137377	0	812.9999850460786
30.199517	0.0022908677	0.2	58.897722	10.489602	-0.12414129	-0.049943167	-0.037793622	-0.19438615	0.14277073	0	815.824579875259
30.199517	0.0025118864	0.2	56.419716	10.070696	-0.12128283	-0.050306384	-0.037021751	-0.18873592	0.13495646	0	818.6553344948741
30.199517	0.0027542287	0.2	54.166301	9.6814549	-0.1184308	-0.050699507	-0.036181206	-0.18331743	0.12786398	0	821.4929524514575
30.199517	0.0030199517	0.2	52.11841	9.3193225	-0.11558533	-0.051124608	-0.035267569	-0.17810961	0.12143213	0	824.3381418014576
30.199517	0.0033113112	0.2	50.258662	8.981961	-0.11274647	-0.051583849	-0.034276625	-0.17309319	0.11560508	0	827.1916476201967
30.199517	0.0036307805	0.2	48.571202	8.6672313	-0.10991421	-0.052079477	-0.033204497	-0.1682505	0.11033172	0	830.0542078423008
30.199517	0.0039810717	0.2	47.041543	8.3731728	-0.10708848	-0.052613822	-0.032047808	-0.16356539	0.1055652	0	832.9265228197814
30.199517	0.0043651583	0.2	45.656427	8.0979843	-0.10426913	-0.053189293	-0.030803847	-0.15902303	0.10126244	0	835.8092429197742
30.199517	0.0047863009	0.2	44.403695	7.8400079	-0.1014559	-0.05380837	-0.02947074	-0.15460988	0.097383722	0	838.7029645783632
30.199517	0.0052480746	0.2	43.272174	7.5977136	-0.098648449	-0.054473601	-0.028047601	-0.15031349	0.093892282	0	841.6081746783127
30.199517	0.0057543994	0.2	42.251579	7.3696866	-0.0958463	-0.055187589	-0.026534656	-0.14612251	0.090754017	0	844.5252789239411
30.199517	0.0063095734	0.2	41.332423	7.1546155	-0.093048863	-0.055952992	-0.024933326	-0.14202653	0.08793718	0	847.4545646343322
30.199517	0.0069183097	0.2	40.50596	6.9512836	-0.090255412	-0.056772504	-0.02324624	-0.13801604	0.085412173	0	850.396219910469
30.199517	0.0075857758	0.2	39.764128	6.7585614	-0.087465087	-0.057648842	-0.021477186	-0.13408236	0.08315138	0	853.3503409638437
30.199517	0.0083176377	0.2	39.099518	6.5754011	-0.084676875	-0.05858474	-0.019631001	-0.13021755	0.081129048	0	856.3169706386357
30.199517	0.0091201084	0.2	38.505347	6.4008322	-0.081889625	-0.059582915	-0.017713377	-0.12641439	0.079321217	0	859.296120773369
30.199517	0.01	0.2	37.975446	6.2339586	-0.079102044	-0.060646047	-0.015730633	-0.12266627	0.077705679	0	862.2878188033513
30.199517	0.010964782	0.2	37.504237	6.0739554	-0.076312709	-0.061776746	-0.013689448	-0.11896718	0.076261945	0	865.2921466586815
30.199517	0.012022644	0.2	37.086723	5.9200665	-0.073520085	-0.062977498	-0.011596567	-0.11531161	0.074971217	0	868.3092790985147
30.199517	0.013182567	0.2	36.718455	5.7716017	-0.07072256	-0.064250607	-0.0094585243	-0.11169452	0.073816347	0	871.3395028218215
30.199517	0.014454398	0.2	36.395495	5.6279329	-0.067918489	-0.065598108	-0.0072813461	-0.10811128	0.072781784	0	874.3832310118603
30.199517	0.015848932	0.2	36.114367	5.4884903	-0.065106252	-0.067021658	-0.0050702937	-0.10455762	0.071853478	0	877.4409970974632
30.199517	0.017378008	0.2	35.871978	5.3527575	-0.062284351	-0.068522387	-0.0028295862	-0.1010296	0.071018776	0	880.5134157234905
30.199517	0.019054607	0.2	35.665541	5.220266	-0.059451512	-0.070100702	-0.00056213285	-0.097523556	0.070266277	0	883.6011372100995
30.199517	0.020892961	0.2	35.492461	5.0905893	-0.056606839	-0.071756048	0.0017307585	-0.094036092	0.069585671	0	886.704757645735
30.199517	0.022908677	0.2	35.350226	4.9633366	-0.05374998	-0.0734866	0.0040496959	-0.090564061	0.068967544	0	889.8247220179425
30.199517	0.025118864	0.2	35.236274	4.8381464	-0.050881345	-0.075288875	0.0063975841	-0.087104567	0.068403175	0	892.9611909454186
30.199517	0.027542287	0.2	35.147878	4.7146794	-0.048002315	-0.077157311	0.0087800255	-0.083654967	0.067884299	0	896.113919652598
30.199517	0.030199517	0.2	35.082052	4.592612	-0.045115461	-0.079083753	0.011205791	-0.080212899	0.067402874	0	899.2821406837122
30.199517	0.033113112	0.2	35.035526	4.4716292	-0.042224692	-0.081056947	0.013687292	-0.076776312	0.066950832	0	902.4645135420842
30.199517	0.036307805	0.2	35.004849	4.3514187	-0.039335256	-0.083062047	0.016241025	-0.07334348	0.066519857	0	905.6592072967172
30.199517	0.039810717	0.2	34.986699	4.2316652	-0.036453481	-0.08508027	0.018887877	-0.069913015	0.066101202	0	908.864201318369
30.199517	0.043651583	0.2	34.978502	4.1120473	-0.03358608	-0.087088782	0.021653199	-0.066483827	0.065685633	0	912.077952089083
30.199517	0.047863009	0.2	34.979468	3.9922375	-0.030738879	-0.08906098	0.024566482	-0.063054998	0.065263534	0	915.300527445477
30.199517	0.052480746	0.2	34.992069	3.871906	-0.027914815	-0.090967315	0.027660507	-0.059625541	0.064825294	0	918.5353278624661
30.199517	0.057543994	0.2	35.0239	3.7507304	-0.025111276	-0.092776671	0.030969934	-0.056193995	0.064362013	0	921.7913205517509
30.199517	0.063095734	0.2	35.089641	3.6284095	-0.022317012	-0.094458302	0.034529336	-0.052757819	0.063866549	0	925.0855723420873
30.199517	0.069183097	0.2	35.212682	3.5046787	-0.01950918	-0.095984076	0.038370942	-0.049312621	0.06333479	0	928.445601975099
30.199517	0.075857758	0.2	35.425832	3.3793234	-0.016651225	-0.097330763	0.042522323	-0.04585125	0.06276699	0	931.9109362134077
30.199517	0.083176377	0.2	35.770655	3.2521888	-0.013692281	-0.09848205	0.047004362	-0.042362902	0.062168978	0	935.5332911767481
30.199517	0.091201084	0.2	36.295094	3.1231877	-0.010568601	-0.099430241	0.05182955	-0.038832356	0.061553171	0	939.374908559643
30.199517	0.1	0.2	37.049136	2.9923152	-0.007207385	-0.100178	0.057000227	-0.035239547	0.060939474	0	943.5046284361572
30.199517	0.10964782	0.2	38.078068	2.8596817	-0.0035334571	-0.10074141	0.062505511	-0.031559677	0.060356237	0	947.9910386070574
30.199517	0.12022644	0.2	39.41284	2.7255673	0.0005209896	-0.10115707	0.068314216	-0.027764117	0.059841091	0	952.8919878290735
30.199517	0.13182567	0.2	41.059078	2.5904742	0.0050057383	-0.10149706	0.074359856	-0.023822367	0.059440676	0	958.2417570835659
30.199517	0.14454398	0.2	42.993925	2.4551183	0.0099511554	-0.10189262	0.08051699	-0.019704824	0.059207608	0	964.0453055843648
30.199517	0.15848932	0.2	43.201126	2.3223301	0.013302529	-0.10291268	0.086222662	-0.015432845	0.059211509	0	968.2663104357625
30.199517	0.17378008	0.2	46.234081	2.1969124	0.02003844	-0.10546637	0.090573923	-0.011054721	0.059558455	0	975.4127978249276
30.199517	0.19054607	0.2	50.006561	2.0731417	0.027951438	-0.10849402	0.094636813	-0.0063442785	0.06029066	0	983.6110466933193
30.199517	0.20892961	0.2	54.687584	1.9518073	0.037319209	-0.11208869	0.098324842	-0.001221017	0.06151399	0	993.1057085832932
30.199517	0.22908677	0.2	60.478755	1.8338325	0.048470117	-0.11633259	0.10156256	0.0044137623	0.063356822	0	1004.1911248903051
30.199517	0.25118864	0.2	67.605564	1.7202361	0.061775036	-0.12128839	0.10429425	0.010679802	0.065971646	0	1017.2052860214501
30.199517	0.27542287	0.2	76.298717	1.6120614	0.077627004	-0.12698924	0.10649397	0.017719401	0.069534292	0	1032.5126020218993
30.199517	0.30199517	0.2	86.76586	1.5102765	0.09640848	-0.13342957	0.10817465	0.025696602	0.074239921	0	1050.4748478318434
30.199517	0.33113112	0.2	99.15823	1.4156622	0.11845095	-0.14056003	0.10939324	0.034793315	0.080295543	0	1071.4141778602293
30.199517	0.36307805	0.2	113.5409	1.3287164	0.14399663	-0.14828973	0.11024847	0.045202252	0.087909867	0	1095.5767225252732
30.199517	0.39810717	0.2	129.87639	1.2496014	0.17317381	-0.15649698	0.11087008	0.057117537	0.097282236	0	1123.107398507429
30.199517	0.43651583	0.2	148.02742	1.1781505	0.20599311	-0.16504641	0.11140172	0.070724624	0.10859275	0	1154.043177703219
30.199517	0.47863009	0.2	167.77759	1.1139252	0.24236428	-0.17380748	0.11198248	0.08619141	0.1219952	0	1188.3254011687113
30.199517	0.52480746	0.2	188.86228	1.0563018	0.28212582	-0.1826694	0.11273191	0.10366194	0.1376136	0	1225.824794107401
30.199517	0.57543994	0.2	211.00092	1.0045607	0.32507787	-0.1915496	0.11374165	0.12325329	0.15554189	0	1266.37079534217
30.199517	0.63095734	0.2	233.92341	0.95796234	0.37101048	-0.2003955	0.11507355	0.14505538	0.17584621	0	1309.7777655511663
30.199517	0.69183097	0.2	257.38792	0.91579982	0.41972396	-0.20918156	0.11676276	0.1691329	0.19856854	0	1355.8646880740591
30.199517	0.75857758	0.2	281.19031	0.87743119	0.47104103	-0.21790377	0.11882314	0.19552865	0.22373105	0	1404.4676012407504
30.199517	0.83176377	0.2	305.16684	0.84229361	0.52481249	-0.22657362	0.12125335	0.22426741	0.25134042	0	1455.446070097506
30.199517	0.91201084	0.2	329.19273	0.80990585	0.58091839	-0.23521266	0.12404229	0.25535982	0.28139182	0	1508.6853079455168
30.199517	1.	0.2	353.1782	0.77986364	0.63926667	-0.24384824	0.12717339	0.28880605	0.31387243	0	1564.095704679092
30.199517	1.0964782	0.2	377.06359	0.75183128	0.69979049	-0.25251034	0.13062774	0.32459899	0.34876436	0	1621.6109063140834
30.199517	1.2022644	0.2	400.81427	0.72553208	0.76244514	-0.26122954	0.13438619	0.36272696	0.38604701	0	1681.1853063484025
30.199517	1.3182567	0.2	424.41595	0.70073888	0.82720496	-0.27003569	0.13843064	0.40317589	0.42569904	0	1742.791394308601
30.199517	1.4454398	0.2	447.87047	0.67726538	0.89406055	-0.27895722	0.14274476	0.44593115	0.46769982	0	1806.4172696599558
30.199517	1.5848932	0.2	471.19229	0.65495864	0.96301635	-0.28802081	0.14731436	0.49097894	0.51203062	0	1872.0644375861577
30.199517	1.7378008	0.2	494.40557	0.63369277	1.0340886	-0.29725128	0.15212746	0.53830736	0.55867552	0	1939.7459054299125
30.199517	1.9054607	0.2	517.54174	0.61336373	1.1073034	-0.3066717	0.15717423	0.58790727	0.60762201	0	2009.4843486613763
30.199517	2.0892961	0.2	540.63761	0.59388506	1.182696	-0.31630348	0.16244687	0.63977286	0.65886152	0	2081.3114212371906
30.199517	2.2908677	0.2	563.73389	0.57518445	1.2603086	-0.32616662	0.16793946	0.69390217	0.71238975	0	2155.2656603697524
30.199517	2.5118864	0.2	586.8739	0.55720104	1.3401905	-0.33627983	0.17364775	0.75029733	0.76820689	0	2231.3925880002676
30.199517	2.7542287	0.2	610.10277	0.53988317	1.4223968	-0.34666079	0.17956897	0.80896484	0.82631777	0	2309.7434536603178
30.199517	3.0199517	0.2	633.46663	0.52318665	1.5069877	-0.35732629	0.18570171	0.86991565	0.88673192	0	2390.3745542265447
30.199517	3.3113112	0.2	657.01215	0.50707334	1.5940286	-0.3682924	0.19204571	0.93316529	0.94946365	0	2473.3472884154394
30.199517	3.6307805	0.2	680.78608	0.49151007	1.6835891	-0.37957465	0.19860178	0.99873386	1.014532	0	2558.7272021849494
30.199517	3.9810717	0.2	704.83503	0.47646769	1.7757431	-0.3911881	0.20537165	1.066646	1.0819607	0	2646.5840545040505
30.199517	4.3651583	0.2	729.20521	0.46192037	1.8705686	-0.40314754	0.21235788	1.136931	1.1517781	0	2736.9916125275017
30.199517	4.7863009	0.2	753.94234	0.44784504	1.9681472	-0.4154675	0.21956378	1.2096226	1.2240172	0	2830.0271667801244
30.199517	5.2480746	0.2	779.09153	0.4342209	2.0685645	-0.42816243	0.22699333	1.2847589	1.2987157	0	2925.7718919498984
30.199517	5.7543994	0.2	804.6973	0.42102905	2.1719093	-0.4412467	0.23465111	1.3623826	1.3759153	0	3024.310082081763
30.199517	6.3095734	0.2	830.80353	0.40825221	2.2782744	-0.45473471	0.24254226	1.4425405	1.4556625	0	3125.729894713378
30.199517	6.9183097	0.2	857.45348	0.39587441	2.3877559	-0.46864098	0.25067244	1.5252838	1.538008	0	3230.122685662856
30.199517	7.5857758	0.2	884.68988	0.38388088	2.5004533	-0.48298013	0.25904779	1.610668	1.6230067	0	3337.5830954687704
30.199517	8.3176377	0.2	912.5549	0.37225781	2.6164698	-0.497767	0.26767489	1.6987525	1.7107176	0	3448.2093237432427
30.199517	9.1201084	0.2	941.09031	0.36099225	2.7359121	-0.51301664	0.27656075	1.7896012	1.8012042	0	3562.1029393797376
30.199517	10.	0.2	970.33748	0.35007198	2.8588905	-0.5287444	0.28571276	1.8832816	1.8945336	0	3679.368965113948