30.199517	1.e-12	0.23	6.5289516e10	8.6479273e9	-0.81683433	-0.040146219	-0.040146219	-6.9489064e7	2.0847269e8	0	163.42051769117475
30.199517	1.0964782e-12	0.23	5.9544747e10	7.8870035e9	-0.813874	-0.040146896	-0.040146896	-6.3374781e7	1.9012935e8	0	166.2017948840197
30.199517	1.2022644e-12	0.23	5.4305455e10	7.1930327e9	-0.81091367	-0.040147459	-0.040147459	-5.7798487e7	1.7340003e8	0	168.98309671226795
30.199517	1.3182567e-12	0.23	4.9527163e10	6.5601238e9	-0.80795332	-0.040147928	-0.040147928	-5.2712847e7	1.5814271e8	0	171.76443764522622
30.199517	1.4454398e-12	0.23	4.516931e10	5.982904e9	-0.80499297	-0.040148318	-0.040148318	-4.8074688e7	1.4422786e8	0	174.54579565008677
30.199517	1.5848932e-12	0.23	4.11949e10	5.4564733e9	-0.80203261	-0.040148642	-0.040148642	-4.3844636e7	1.3153737e8	0	177.32717731320287
30.199517	1.7378008e-12	0.23	3.7570195e10	4.9763628e9	-0.79907224	-0.040148912	-0.040148912	-3.9986784e7	1.1996351e8	0	180.10858004137418
30.199517	1.9054607e-12	0.23	3.4264425e10	4.5384968e9	-0.79611187	-0.040149137	-0.040149137	-3.646838e7	1.0940802e8	0	182.8899924940468
30.199517	2.0892961e-12	0.23	3.1249527e10	4.1391583e9	-0.7931515	-0.040149323	-0.040149323	-3.3259558e7	9.9781302e7	0	185.67141337462064
30.199517	2.2908677e-12	0.23	2.8499908e10	3.7749572e9	-0.79019113	-0.040149478	-0.040149478	-3.0333077e7	9.1001629e7	0	188.45284095429545
30.199517	2.5118864e-12	0.23	2.5992224e10	3.4428019e9	-0.78723075	-0.040149608	-0.040149608	-2.7664095e7	8.2994471e7	0	191.2342833321245
30.199517	2.7542287e-12	0.23	2.3705191e10	3.1398726e9	-0.78427037	-0.040149715	-0.040149715	-2.5229955e7	7.5691858e7	0	194.0157306802542
30.199517	3.0199517e-12	0.23	2.1619391e10	2.8635979e9	-0.78130999	-0.040149804	-0.040149804	-2.3009993e7	6.9031795e7	0	196.79718191818446
30.199517	3.3113112e-12	0.23	1.9717119e10	2.6116323e9	-0.77834961	-0.040149878	-0.040149878	-2.0985363e7	6.2957745e7	0	199.57863639761518
30.199517	3.6307805e-12	0.23	1.7982226e10	2.381837e9	-0.77538923	-0.04014994	-0.04014994	-1.9138878e7	5.7418146e7	0	202.36009347024628
30.199517	3.9810717e-12	0.23	1.6399985e10	2.1722612e9	-0.77242884	-0.040149991	-0.040149991	-1.7454865e7	5.2365972e7	0	205.14156231563126
30.199517	4.3651583e-12	0.23	1.4956964e10	1.9811257e9	-0.76946846	-0.040150034	-0.040150034	-1.5919026e7	4.7758334e7	0	207.92302349416292
30.199517	4.7863009e-12	0.23	1.3640914e10	1.8068081e9	-0.76650807	-0.040150069	-0.040150069	-1.4518324e7	4.3556118e7	0	210.7044957971484
30.199517	5.2480746e-12	0.23	1.2440661e10	1.6478286e9	-0.76354769	-0.040150099	-0.040150099	-1.3240869e7	3.9723651e7	0	213.48595978498048
30.199517	5.7543994e-12	0.23	1.1346018e10	1.5028376e9	-0.7605873	-0.040150123	-0.040150123	-1.2075816e7	3.6228401e7	0	216.2674344650663
30.199517	6.3095734e-12	0.23	1.0347691e10	1.3706041e9	-0.75762692	-0.040150145	-0.040150145	-1.1013275e7	3.3040694e7	0	219.04890018169857
30.199517	6.9183097e-12	0.23	9.4372065e9	1.2500058e9	-0.75466653	-0.040150161	-0.040150161	-1.0044227e7	3.0133472e7	0	221.83037659058465
30.199517	7.5857758e-12	0.23	8.6068345e9	1.1400189e9	-0.75170614	-0.040150176	-0.040150176	-9.1604434e6	2.7482052e7	0	224.6118532155706
30.199517	8.3176377e-12	0.23	7.8495264e9	1.0397096e9	-0.74874575	-0.040150187	-0.040150187	-8.3544238e6	2.506393e7	0	227.3933307049568
30.199517	9.1201084e-12	0.23	7.1588532e9	9.482264e8	-0.74578537	-0.040150197	-0.040150197	-7.6193251e6	2.2858576e7	0	230.1747990147895
30.199517	1.e-11	0.23	6.5289517e9	8.6479275e8	-0.74282498	-0.040150205	-0.040150205	-6.9489072e6	2.0847269e7	0	232.9562771524758
30.199517	1.0964782e-11	0.23	5.9544747e9	7.8870037e8	-0.73986459	-0.040150212	-0.040150212	-6.3374788e6	1.9012935e7	0	235.737755506262
30.199517	1.2022644e-11	0.23	5.4305455e9	7.1930329e8	-0.7369042	-0.040150217	-0.040150217	-5.7798494e6	1.7340003e7	0	238.51923429224837
30.199517	1.3182567e-11	0.23	4.9527163e9	6.5601239e8	-0.73394382	-0.040150222	-0.040150222	-5.2712853e6	1.5814271e7	0	241.3007036825812
30.199517	1.4454398e-11	0.23	4.516931e9	5.9829042e8	-0.73098343	-0.040150226	-0.040150226	-4.8074695e6	1.4422786e7	0	244.08218268466763
30.199517	1.5848932e-11	0.23	4.1194901e9	5.4564735e8	-0.72802304	-0.040150229	-0.040150229	-4.3844643e6	1.3153737e7	0	246.86366190285403
30.199517	1.7378008e-11	0.23	3.7570196e9	4.976363e8	-0.72506265	-0.040150232	-0.040150232	-3.9986791e6	1.1996351e7	0	249.6451411210404
30.199517	1.9054607e-11	0.23	3.4264425e9	4.538497e8	-0.72210226	-0.040150235	-0.040150235	-3.6468387e6	1.0940802e7	0	252.42662033922682
30.199517	2.0892961e-11	0.23	3.1249528e9	4.1391585e8	-0.71914188	-0.040150236	-0.040150236	-3.3259565e6	9.9781302e6	0	255.20809059395975
30.199517	2.2908677e-11	0.23	2.8499908e9	3.7749574e8	-0.71618149	-0.040150238	-0.040150238	-3.0333084e6	9.1001629e6	0	257.98957002824625
30.199517	2.5118864e-11	0.23	2.5992225e9	3.4428021e8	-0.7132211	-0.040150239	-0.040150239	-2.7664102e6	8.2994473e6	0	260.7710496786326
30.199517	2.7542287e-11	0.23	2.3705191e9	3.1398729e8	-0.71026071	-0.04015024	-0.04015024	-2.5229962e6	7.5691858e6	0	263.5525293290192
30.199517	3.0199517e-11	0.23	2.1619391e9	2.8635981e8	-0.70730032	-0.040150241	-0.040150241	-2.3009999e6	6.9031795e6	0	266.33400897940567
30.199517	3.3113112e-11	0.23	1.9717119e9	2.6116325e8	-0.70433993	-0.040150242	-0.040150242	-2.0985369e6	6.2957745e6	0	269.11548862979214
30.199517	3.6307805e-11	0.23	1.7982226e9	2.3818372e8	-0.70137955	-0.040150242	-0.040150242	-1.9138885e6	5.7418147e6	0	271.89695910062517
30.199517	3.9810717e-11	0.23	1.6399985e9	2.1722614e8	-0.69841916	-0.040150243	-0.040150243	-1.7454871e6	5.2365972e6	0	274.6784387510115
30.199517	4.3651583e-11	0.23	1.4956964e9	1.9811259e8	-0.69545877	-0.040150244	-0.040150243	-1.5919032e6	4.7758334e6	0	277.45991861749803
30.199517	4.7863009e-11	0.23	1.3640914e9	1.8068084e8	-0.69249838	-0.040150243	-0.040150243	-1.4518331e6	4.3556119e6	0	280.24139848398465
30.199517	5.2480746e-11	0.23	1.2440661e9	1.6478288e8	-0.68953799	-0.040150244	-0.040150243	-1.3240876e6	3.9723653e6	0	283.02287835047105
30.199517	5.7543994e-11	0.23	1.1346018e9	1.5028378e8	-0.6865776	-0.040150244	-0.040150244	-1.2075823e6	3.6228401e6	0	285.8043580008576
30.199517	6.3095734e-11	0.23	1.0347691e9	1.3706044e8	-0.68361722	-0.040150245	-0.040150244	-1.1013282e6	3.3040695e6	0	288.58582847169055
30.199517	6.9183097e-11	0.23	9.4372067e8	1.250006e8	-0.68065683	-0.040150245	-0.040150244	-1.0044233e6	3.0133472e6	0	291.36730833817705
30.199517	7.5857758e-11	0.23	8.6068348e8	1.1400191e8	-0.67769644	-0.040150245	-0.040150245	-916044.98	2.7482053e6	0	294.1487879885636
30.199517	8.3176377e-11	0.23	7.8495267e8	1.0397098e8	-0.67473605	-0.040150245	-0.040150244	-835443.02	2.506393e6	0	296.93026807115
30.199517	9.1201084e-11	0.23	7.1588535e8	9.4822662e7	-0.67177566	-0.040150245	-0.040150244	-761933.15	2.2858576e6	0	299.7117479376365
30.199517	1.e-10	0.23	6.528952e8	8.6479297e7	-0.66881527	-0.040150245	-0.040150244	-694891.35	2.0847269e6	0	302.4932278041231
30.199517	1.0964782e-10	0.23	5.954475e8	7.8870058e7	-0.66585489	-0.040150245	-0.040150245	-633748.5	1.9012936e6	0	305.2746980588561
30.199517	1.2022644e-10	0.23	5.4305457e8	7.193035e7	-0.6628945	-0.040150245	-0.040150244	-577985.56	1.7340003e6	0	308.05617814144244
30.199517	1.3182567e-10	0.23	4.9527166e8	6.560126e7	-0.65993411	-0.040150246	-0.040150245	-527129.16	1.5814271e6	0	310.83765779182903
30.199517	1.4454398e-10	0.23	4.5169313e8	5.9829063e7	-0.65697372	-0.040150245	-0.040150244	-480747.57	1.4422787e6	0	313.61913787441557
30.199517	1.5848932e-10	0.23	4.1194903e8	5.4564756e7	-0.65401333	-0.040150245	-0.040150244	-438447.05	1.3153738e6	0	316.40061774090213
30.199517	1.7378008e-10	0.23	3.7570198e8	4.9763651e7	-0.65105294	-0.040150245	-0.040150244	-399868.52	1.1996352e6	0	319.1820976073885
30.199517	1.9054607e-10	0.23	3.4264428e8	4.5384991e7	-0.64809256	-0.040150246	-0.040150244	-364684.48	1.0940803e6	0	321.96356807822156
30.199517	2.0892961e-10	0.23	3.124953e8	4.1391605e7	-0.64513217	-0.040150245	-0.040150244	-332596.26	997813.07	0	324.745047944708
30.199517	2.2908677e-10	0.23	2.8499911e8	3.7749594e7	-0.64217178	-0.040150246	-0.040150244	-303331.45	910016.33	0	327.5265278111946
30.199517	2.5118864e-10	0.23	2.5992228e8	3.4428042e7	-0.63921139	-0.040150245	-0.040150244	-276641.63	829944.77	0	330.308007677681
30.199517	2.7542287e-10	0.23	2.3705194e8	3.1398749e7	-0.636251	-0.040150245	-0.040150244	-252300.22	756918.64	0	333.0894875441676
30.199517	3.0199517e-10	0.23	2.1619394e8	2.8636001e7	-0.63329061	-0.040150246	-0.040150244	-230100.59	690318.	0	335.8709674106541
30.199517	3.3113112e-10	0.23	1.9717122e8	2.6116345e7	-0.63033023	-0.040150246	-0.040150244	-209854.29	629577.5	0	338.65243788148706
30.199517	3.6307805e-10	0.23	1.7982229e8	2.3818392e7	-0.62736984	-0.040150246	-0.040150243	-191389.44	574181.51	0	341.43391796407366
30.199517	3.9810717e-10	0.23	1.6399988e8	2.1722633e7	-0.62440945	-0.040150246	-0.040150243	-174549.3	523659.76	0	344.21539783056005
30.199517	4.3651583e-10	0.23	1.4956967e8	1.9811279e7	-0.62144906	-0.040150246	-0.040150243	-159190.91	477583.39	0	346.99687769704656
30.199517	4.7863009e-10	0.23	1.3640917e8	1.8068103e7	-0.61848867	-0.040150245	-0.040150243	-145183.89	435561.23	0	349.7783575635331
30.199517	5.2480746e-10	0.23	1.2440664e8	1.6478308e7	-0.61552828	-0.040150246	-0.040150243	-132409.34	397236.57	0	352.55983743001957
30.199517	5.7543994e-10	0.23	1.1346021e8	1.5028397e7	-0.6125679	-0.040150246	-0.040150243	-120758.81	362284.06	0	355.34130790085254
30.199517	6.3095734e-10	0.23	1.0347694e8	1.3706063e7	-0.60960751	-0.040150246	-0.040150242	-110133.4	330406.99	0	358.12278798343914
30.199517	6.9183097e-10	0.23	9.4372094e7	1.250008e7	-0.60664712	-0.040150246	-0.040150242	-100442.9	301334.76	0	360.90426784992565
30.199517	7.5857758e-10	0.23	8.6068376e7	1.140021e7	-0.60368673	-0.040150246	-0.040150241	-91605.073	274820.58	0	363.6857479325122
30.199517	8.3176377e-10	0.23	7.8495294e7	1.0397117e7	-0.60072634	-0.040150246	-0.040150241	-83544.873	250639.35	0	366.4672277989986
30.199517	9.1201084e-10	0.23	7.1588562e7	9.4822852e6	-0.59776595	-0.040150246	-0.040150241	-76193.883	228585.81	0	369.24870766548514
30.199517	1.e-9	0.23	6.5289547e7	8.6479487e6	-0.59480557	-0.040150246	-0.04015024	-69489.701	208472.74	0	372.0301783524182
30.199517	1.0964782e-9	0.23	5.9544777e7	7.8870247e6	-0.59184518	-0.040150246	-0.04015024	-63375.413	190129.4	0	374.81165821890465
30.199517	1.2022644e-9	0.23	5.4305485e7	7.1930538e6	-0.58888479	-0.040150247	-0.040150239	-57799.117	173400.08	0	377.5931383014912
30.199517	1.3182567e-9	0.23	4.9527193e7	6.5601448e6	-0.5859244	-0.040150247	-0.040150239	-52713.473	158142.76	0	380.37461816797764
30.199517	1.4454398e-9	0.23	4.516934e7	5.9829249e6	-0.58296401	-0.040150247	-0.040150238	-48075.311	144227.91	0	383.15609825056424
30.199517	1.5848932e-9	0.23	4.119493e7	5.4564941e6	-0.58000362	-0.040150247	-0.040150237	-43845.257	131537.42	0	385.9375783331508
30.199517	1.7378008e-9	0.23	3.7570226e7	4.9763836e6	-0.57704324	-0.040150247	-0.040150236	-39987.401	119963.56	0	388.71904902008384
30.199517	1.9054607e-9	0.23	3.4264456e7	4.5385175e6	-0.57408285	-0.040150247	-0.040150235	-36468.995	109408.07	0	391.50052910267027
30.199517	2.0892961e-9	0.23	3.1249558e7	4.1391789e6	-0.57112246	-0.040150248	-0.040150235	-33260.17	99781.352	0	394.2820089691569
30.199517	2.2908677e-9	0.23	2.8499938e7	3.7749777e6	-0.56816207	-0.040150247	-0.040150233	-30333.686	91001.679	0	397.0634892678434
30.199517	2.5118864e-9	0.23	2.5992255e7	3.4428223e6	-0.56520168	-0.040150248	-0.040150232	-27664.701	82994.521	0	399.8449693504299
30.199517	2.7542287e-9	0.23	2.3705221e7	3.139893e6	-0.56224129	-0.040150248	-0.040150231	-25230.558	75691.908	0	402.62644943301643
30.199517	3.0199517e-9	0.23	2.1619421e7	2.8636181e6	-0.55928091	-0.040150249	-0.04015023	-23010.592	69031.845	0	405.40792011994944
30.199517	3.3113112e-9	0.23	1.9717149e7	2.6116524e6	-0.55632052	-0.040150249	-0.040150228	-20985.96	62957.795	0	408.18940041863607
30.199517	3.6307805e-9	0.23	1.7982256e7	2.381857e6	-0.55336013	-0.04015025	-0.040150227	-19139.472	57418.195	0	410.9708805012226
30.199517	3.9810717e-9	0.23	1.6400015e7	2.1722811e6	-0.55039974	-0.040150249	-0.040150225	-17455.455	52366.021	0	413.75236079990907
30.199517	4.3651583e-9	0.23	1.4956994e7	1.9811456e6	-0.54743935	-0.04015025	-0.040150223	-15919.614	47758.383	0	416.5338410985957
30.199517	4.7863009e-9	0.23	1.3640944e7	1.8068279e6	-0.54447896	-0.04015025	-0.040150221	-14518.909	43556.168	0	419.3153213972823
30.199517	5.2480746e-9	0.23	1.2440691e7	1.6478483e6	-0.54151858	-0.040150251	-0.040150218	-13241.451	39723.701	0	422.09679251641535
30.199517	5.7543994e-9	0.23	1.1346048e7	1.5028571e6	-0.53855819	-0.040150251	-0.040150215	-12076.395	36228.451	0	424.8782730312019
30.199517	6.3095734e-9	0.23	1.0347721e7	1.3706236e6	-0.5355978	-0.040150252	-0.040150213	-11013.851	33040.744	0	427.6597533298885
30.199517	6.9183097e-9	0.23	9.4372366e6	1.2500252e6	-0.53263741	-0.040150252	-0.040150209	-10044.8	30133.521	0	430.4412340607752
30.199517	7.5857758e-9	0.23	8.6068647e6	1.1400382e6	-0.52967702	-0.040150253	-0.040150206	-9161.0138	27482.102	0	433.22271457556167
30.199517	8.3176377e-9	0.23	7.8495566e6	1.0397288e6	-0.52671663	-0.040150254	-0.040150202	-8354.9912	25063.98	0	436.0041953064483
30.199517	9.1201084e-9	0.23	7.1588833e6	948245.5	-0.52375625	-0.040150255	-0.040150198	-7619.8895	22858.625	0	438.7856666416814
30.199517	1.e-8	0.23	6.5289819e6	864811.77	-0.52079586	-0.040150255	-0.040150194	-6949.4686	20847.319	0	441.5671473725681
30.199517	1.0964782e-8	0.23	5.9545049e6	788719.29	-0.51783547	-0.040150257	-0.040150189	-6338.0372	19012.985	0	444.34862831955473
30.199517	1.2022644e-8	0.23	5.4305756e6	719322.11	-0.51487508	-0.040150258	-0.040150184	-5780.4048	17340.053	0	447.13010926654135
30.199517	1.3182567e-8	0.23	4.9527465e6	656031.14	-0.51191469	-0.040150259	-0.040150177	-5271.8379	15814.32	0	449.9115906457281
30.199517	1.4454398e-8	0.23	4.5169612e6	598309.06	-0.50895431	-0.04015026	-0.040150171	-4808.019	14422.836	0	452.6930624131613
30.199517	1.5848932e-8	0.23	4.1195202e6	545665.9	-0.50599392	-0.040150262	-0.040150164	-4385.0109	13153.787	0	455.474543792348
30.199517	1.7378008e-8	0.23	3.7570497e6	497654.76	-0.50303353	-0.040150263	-0.040150156	-3999.2227	11996.401	0	458.2560253876348
30.199517	1.9054607e-8	0.23	3.4264727e6	453868.07	-0.50007314	-0.040150265	-0.040150147	-3647.3794	10940.852	0	461.0375071990215
30.199517	2.0892961e-8	0.23	3.124983e6	413934.13	-0.49711276	-0.040150266	-0.040150137	-3326.4942	9978.18	0	463.8189798308548
30.199517	2.2908677e-8	0.23	2.850021e6	377513.93	-0.49415237	-0.040150268	-0.040150127	-3033.8432	9100.2127	0	466.60046185834165
30.199517	2.5118864e-8	0.23	2.5992527e6	344298.3	-0.49119198	-0.040150271	-0.040150116	-2766.942	8299.4969	0	469.38194410192847
30.199517	2.7542287e-8	0.23	2.3705493e6	314005.29	-0.48823159	-0.040150273	-0.040150103	-2523.525	7569.2356	0	472.1634267777153
30.199517	3.0199517e-8	0.23	2.1619693e6	286377.72	-0.4852712	-0.040150276	-0.040150089	-2301.5258	6903.2293	0	474.9449096696023
30.199517	3.3113112e-8	0.23	1.9717421e6	261181.07	-0.48231082	-0.040150279	-0.040150074	-2099.0599	6295.8244	0	477.7263833819358
30.199517	3.6307805e-8	0.23	1.7982528e6	238201.45	-0.47935043	-0.040150282	-0.040150057	-1914.4085	5741.8644	0	480.50786692212273
30.199517	3.9810717e-8	0.23	1.6400287e6	217243.77	-0.47639004	-0.040150286	-0.04015004	-1746.0041	5236.6469	0	483.2893504623097
30.199517	4.3651583e-8	0.23	1.4957266e6	198130.14	-0.47342965	-0.04015029	-0.04015002	-1592.4173	4775.8832	0	486.070834650797
30.199517	4.7863009e-8	0.23	1.3641215e6	180698.28	-0.47046927	-0.040150295	-0.040149999	-1452.3442	4355.6616	0	488.85230965973057
30.199517	5.2480746e-8	0.23	1.2440963e6	164800.24	-0.46750888	-0.040150299	-0.040149974	-1324.5957	3972.415	0	491.6337949287178
30.199517	5.7543994e-8	0.23	1.134632e6	150301.04	-0.46454849	-0.040150304	-0.040149948	-1208.0875	3622.8899	0	494.41528041380514
30.199517	6.3095734e-8	0.23	1.0347993e6	137077.61	-0.46158811	-0.04015031	-0.040149919	-1101.8304	3304.1192	0	497.196757151539
30.199517	6.9183097e-8	0.23	943750.84	125017.69	-0.45862772	-0.040150316	-0.040149888	-1004.9226	3013.3969	0	499.9782437171265
30.199517	7.5857758e-8	0.23	860713.65	114018.9	-0.45566733	-0.040150323	-0.040149854	-916.54131	2748.255	0	502.7597309310139
30.199517	8.3176377e-8	0.23	784982.84	103987.88	-0.45270695	-0.04015033	-0.040149816	-835.93639	2506.4428	0	505.541209613648
30.199517	9.1201084e-8	0.23	715915.51	94839.466	-0.44974656	-0.040150339	-0.040149774	-762.42356	2285.9073	0	508.3226985563359
30.199517	1.e-7	0.23	652925.37	86496.01	-0.44678618	-0.040150347	-0.040149729	-695.37881	2084.7767	0	511.1041787516703
30.199517	1.0964782e-7	0.23	595477.67	78886.678	-0.44382579	-0.040150358	-0.040149679	-634.233	1901.3433	0	513.8856694231582
30.199517	1.2022644e-7	0.23	543084.74	71946.878	-0.44086541	-0.040150369	-0.040149625	-578.4671	1734.0501	0	516.667151563393
30.199517	1.3182567e-7	0.23	495301.83	65617.697	-0.43790502	-0.04015038	-0.040149565	-527.60774	1581.4768	0	519.4486443958813
30.199517	1.4454398e-7	0.23	451723.3	59845.408	-0.43494464	-0.040150393	-0.040149499	-481.22319	1442.3284	0	522.2301291293163
30.199517	1.5848932e-7	0.23	411979.2	54581.008	-0.43198425	-0.040150408	-0.040149427	-438.91971	1315.4235	0	525.011624555005
30.199517	1.7378008e-7	0.23	375732.15	49779.811	-0.42902387	-0.040150424	-0.040149348	-400.33822	1199.6849	0	527.7931120977404
30.199517	1.9054607e-7	0.23	342674.45	45401.059	-0.42606349	-0.040150441	-0.040149262	-365.15123	1094.13	0	530.574601153176
30.199517	2.0892961e-7	0.23	312525.47	41407.582	-0.4231031	-0.040150459	-0.040149167	-333.06005	997.86279	0	533.3561015491654
30.199517	2.2908677e-7	0.23	285029.28	37765.479	-0.42014272	-0.04015048	-0.040149062	-303.79229	910.06606	0	536.1375947105015
30.199517	2.5118864e-7	0.23	259952.45	34443.834	-0.41718234	-0.040150503	-0.040148948	-277.09951	829.9945	0	538.9190898167382
30.199517	2.7542287e-7	0.23	237082.11	31414.45	-0.41422196	-0.040150527	-0.040148823	-252.75514	756.96836	0	541.7005873000749
30.199517	3.0199517e-7	0.23	216224.11	28651.61	-0.41126158	-0.040150554	-0.040148686	-230.55256	690.36773	0	544.4820873766121
30.199517	3.3113112e-7	0.23	197201.39	26131.862	-0.4083012	-0.040150584	-0.040148535	-210.3033	629.62723	0	547.2635904785498
30.199517	3.6307805e-7	0.23	179852.46	23833.817	-0.40534082	-0.040150617	-0.04014837	-191.83549	574.23124	0	550.0450966058878
30.199517	3.9810717e-7	0.23	164030.05	21737.966	-0.40238044	-0.040150653	-0.04014819	-174.99239	523.70949	0	552.8266059747262
30.199517	4.3651583e-7	0.23	149599.84	19826.519	-0.39942006	-0.040150692	-0.040147992	-159.63104	477.63311	0	555.6081192333653
30.199517	4.7863009e-7	0.23	136439.34	18083.252	-0.39645969	-0.040150735	-0.040147774	-145.62107	435.61096	0	558.3896274183514
30.199517	5.2480746e-7	0.23	124436.81	16493.364	-0.39349932	-0.040150782	-0.040147535	-132.84356	397.28629	0	561.1711401414382
30.199517	5.7543994e-7	0.23	113490.37	15043.361	-0.39053894	-0.040150835	-0.040147275	-121.19007	362.33378	0	563.9526667982791
30.199517	6.3095734e-7	0.23	103507.11	13720.935	-0.38757857	-0.040150891	-0.040146987	-110.5617	330.45672	0	566.7341901102673
30.199517	6.9183097e-7	0.23	94402.264	12514.86	-0.3846182	-0.040150954	-0.040146673	-100.86825	301.38449	0	569.5157190408564
30.199517	7.5857758e-7	0.23	86098.545	11414.898	-0.38165783	-0.040151022	-0.040146329	-92.02746	274.8703	0	572.2972544544465
30.199517	8.3176377e-7	0.23	78525.464	10411.713	-0.37869747	-0.040151096	-0.04014595	-83.964305	250.68907	0	575.078788035884
30.199517	9.1201084e-7	0.23	71618.731	9496.7895	-0.3757371	-0.040151179	-0.040145536	-76.610357	228.63553	0	577.860338576476
30.199517	1.e-6	0.23	65319.717	8662.361	-0.37277674	-0.040151269	-0.040145082	-69.903217	208.52246	0	580.6418883654161
30.199517	1.0964782e-6	0.23	59574.947	7901.345	-0.36981638	-0.040151368	-0.040144584	-63.785972	190.17913	0	583.4234476627571
30.199517	1.2022644e-6	0.23	54335.654	7207.2821	-0.36685603	-0.040151477	-0.040144038	-58.206718	173.4498	0	586.2050079372464
30.199517	1.3182567e-6	0.23	49557.363	6574.2811	-0.36389567	-0.040151595	-0.040143439	-53.118117	158.19248	0	588.9865890606907
30.199517	1.4454398e-6	0.23	45199.51	5996.9692	-0.36093532	-0.040151726	-0.040142782	-48.476997	144.27764	0	591.7681733222831
30.199517	1.5848932e-6	0.23	41225.1	5470.4464	-0.35797498	-0.040151868	-0.040142062	-44.243986	131.58715	0	594.5497618025241
30.199517	1.7378008e-6	0.23	37600.396	4990.2438	-0.35501464	-0.040152025	-0.040141273	-40.383173	120.01329	0	597.3313651936671
30.199517	1.9054607e-6	0.23	34294.626	4552.2857	-0.3520543	-0.040152197	-0.040140407	-36.861809	109.4578	0	600.1129852245126
30.199517	2.0892961e-6	0.23	31279.728	4152.8551	-0.34909397	-0.040152385	-0.040139458	-33.650026	99.831078	0	602.894613796007
30.199517	2.2908677e-6	0.23	28530.108	3788.562	-0.34613364	-0.040152591	-0.040138417	-30.720585	91.051406	0	605.6762622487043
30.199517	2.5118864e-6	0.23	26022.425	3456.3146	-0.34317332	-0.040152818	-0.040137276	-28.048643	83.044249	0	608.457922915751
30.199517	2.7542287e-6	0.23	23735.391	3153.2932	-0.340213	-0.040153066	-0.040136025	-25.611542	75.741635	0	611.2396073538013
30.199517	3.0199517e-6	0.23	21649.592	2876.9264	-0.3372527	-0.040153338	-0.040134653	-23.388619	69.081573	0	614.021299148648
30.199517	3.3113112e-6	0.23	19747.32	2624.8687	-0.3342924	-0.040153636	-0.040133148	-21.361028	63.007524	0	616.8030196847989
30.199517	3.6307805e-6	0.23	18012.427	2394.9813	-0.3313321	-0.040153964	-0.040131499	-19.511583	57.467925	0	619.5847713393543
30.199517	3.9810717e-6	0.23	16430.186	2185.3133	-0.32837182	-0.040154323	-0.040129691	-17.824609	52.415751	0	622.3665385625075
30.199517	4.3651583e-6	0.23	14987.166	1994.0859	-0.32541155	-0.040154716	-0.040127707	-16.28581	47.808114	0	625.1483344236124
30.199517	4.7863009e-6	0.23	13671.115	1819.6762	-0.32245129	-0.040155148	-0.040125534	-14.882148	43.605899	0	627.9301617319696
30.199517	5.2480746e-6	0.23	12470.863	1660.6046	-0.31949104	-0.040155621	-0.040123149	-13.601732	39.773434	0	630.7120254578799
30.199517	5.7543994e-6	0.23	11376.22	1515.5214	-0.31653081	-0.040156139	-0.040120535	-12.433718	36.278184	0	633.4939198793902
30.199517	6.3095734e-6	0.23	10377.893	1383.1959	-0.31357059	-0.040156708	-0.040117669	-11.368217	33.090478	0	636.2758593624546
30.199517	6.9183097e-6	0.23	9467.4088	1262.5055	-0.31061039	-0.040157332	-0.040114527	-10.396207	30.183256	0	639.0578396978204
30.199517	7.5857758e-6	0.23	8637.0372	1152.4265	-0.3076502	-0.040158016	-0.04011108	-9.5094638	27.531838	0	641.8398765480421
30.199517	8.3176377e-6	0.23	7879.7294	1052.0251	-0.30469004	-0.040158766	-0.040107302	-8.7004835	25.113717	0	644.6219567404133
30.199517	9.1201084e-6	0.23	7189.0564	960.44987	-0.30172989	-0.040159588	-0.040103159	-7.962424	22.908364	0	647.404106413642
30.199517	0.00001	0.23	6559.1553	876.92416	-0.29876977	-0.04016049	-0.040098617	-7.2890453	20.897058	0	650.1863141238226
30.199517	0.000010964782	0.23	5984.6788	800.73971	-0.29580968	-0.040161478	-0.040093636	-6.6746561	19.062727	0	652.968588514956
30.199517	0.000012022644	0.23	5460.7466	731.25051	-0.29285493	-0.040170974	-0.040096587	-6.1140695	17.389791	0	655.7441315216786
30.199517	0.000013182567	0.23	4982.9176	667.86756	-0.2898954	-0.040172974	-0.04009141	-5.6025449	15.86406	0	658.525922111822
30.199517	0.000014454398	0.23	4547.1324	610.05352	-0.28693596	-0.040175166	-0.040085733	-5.1357684	14.472577	0	661.3077361910991
30.199517	0.000015848932	0.23	4149.6916	557.3184	-0.28397661	-0.040177569	-0.040079508	-4.7098027	13.20353	0	664.0895841323113
30.199517	0.000017378008	0.23	3787.2213	509.21529	-0.28101737	-0.040180205	-0.040072683	-4.3210568	12.046145	0	666.8714583813537
30.199517	0.000019054607	0.23	3456.6445	465.33665	-0.27805823	-0.040183095	-0.040065198	-3.9662558	10.990599	0	669.653381299881
30.199517	0.000020892961	0.23	3155.155	425.31075	-0.27509921	-0.040186262	-0.040056992	-3.642413	10.027929	0	672.4353472786883
30.199517	0.000022908677	0.23	2880.1933	388.79861	-0.27214032	-0.040189735	-0.040047992	-3.3468043	9.1499641	0	675.2173626974242
30.199517	0.000025118864	0.23	2629.4253	355.49105	-0.26918158	-0.040193542	-0.040038125	-3.0769454	8.3492511	0	677.9994245400843
30.199517	0.000027542287	0.23	2400.7222	325.10611	-0.266223	-0.040197717	-0.040027305	-2.8305706	7.6189926	0	680.7815419956171
30.199517	0.000030199517	0.23	2192.1426	297.38662	-0.26326458	-0.040202293	-0.040015441	-2.6056136	6.9529896	0	683.563734729126
30.199517	0.000033113112	0.23	2001.9158	272.09806	-0.26030636	-0.04020731	-0.04000243	-2.4001898	6.3455883	0	686.3459874163
30.199517	0.000036307805	0.23	1828.4269	249.02653	-0.25734835	-0.04021281	-0.039988164	-2.2125805	5.7916323	0	689.1283140002885
30.199517	0.000039810717	0.23	1670.2033	227.97696	-0.25439057	-0.04021884	-0.039972521	-2.0412182	5.2864191	0	691.9107220539886
30.199517	0.000043651583	0.23	1525.9017	208.77145	-0.25143303	-0.040225449	-0.039955366	-1.8846734	4.8256601	0	694.6932313552508
30.199517	0.000047863009	0.23	1394.2972	191.24773	-0.24847577	-0.040232694	-0.039936554	-1.7416423	4.4054438	0	697.4758356559655
30.199517	0.000052480746	0.23	1274.2726	175.25783	-0.24551881	-0.040240636	-0.039915926	-1.6109357	4.0222028	0	700.2585505247308
30.199517	0.000057543994	0.23	1164.809	160.66679	-0.24256217	-0.040249342	-0.039893305	-1.4914693	3.672684	0	703.0413954199446
30.199517	0.000063095734	0.23	1064.9771	147.35153	-0.2396059	-0.040258884	-0.039868499	-1.3822541	3.3539202	0	705.8243648545458
30.199517	0.000069183097	0.23	973.92943	135.19981	-0.23665001	-0.040269343	-0.039841295	-1.282388	3.0632054	0	708.607495462187
30.199517	0.000075857758	0.23	890.89314	124.10923	-0.23369456	-0.040280806	-0.039811463	-1.1910483	2.7980718	0	711.3907805719543
30.199517	0.000083176377	0.23	815.16334	113.98645	-0.23073958	-0.040293369	-0.039778746	-1.1074849	2.5562685	0	714.1742475345953
30.199517	0.000091201084	0.23	746.09712	104.7463	-0.22778511	-0.040307137	-0.039742867	-1.0310135	2.3357431	0	716.957918627204
30.199517	0.0001	0.23	683.1082	96.311137	-0.22483121	-0.040322224	-0.039703519	-0.96101006	2.1346233	0	719.7418038185691
30.199517	0.00010964782	0.23	625.66185	88.610124	-0.22187792	-0.040338757	-0.039660365	-0.89690544	1.9512019	0	722.5259383517869
30.199517	0.00012022644	0.23	573.27041	81.578672	-0.21892531	-0.040356872	-0.039613037	-0.83818057	1.7839218	0	725.3103359820939
30.199517	0.00013182567	0.23	525.48914	75.157876	-0.21597343	-0.04037672	-0.039561129	-0.7843621	1.631363	0	728.095037467835
30.199517	0.00014454398	0.23	481.91241	69.294009	-0.21302236	-0.040398464	-0.039504199	-0.73501827	1.4922303	0	730.880063159996
30.199517	0.00015848932	0.23	442.17032	63.938075	-0.21007216	-0.040422283	-0.039441757	-0.68975533	1.3653428	0	733.6654625736705
30.199517	0.00017378008	0.23	405.92549	59.04539	-0.20712293	-0.040448374	-0.039373269	-0.64821418	1.2496233	0	736.4512571497397
30.199517	0.00019054607	0.23	372.87024	54.575201	-0.20417474	-0.04047695	-0.039298148	-0.61006728	1.1440893	0	739.2375079693475
30.199517	0.00020892961	0.23	342.72397	50.490342	-0.20122769	-0.040508245	-0.039215749	-0.57501595	1.0478451	0	742.0242604604782
30.199517	0.00022908677	0.23	315.23077	46.75692	-0.19828189	-0.040542512	-0.039125366	-0.54278775	0.96007356	0	744.811563837565
30.199517	0.00025118864	0.23	290.15727	43.344022	-0.19533745	-0.04058003	-0.039026221	-0.51313423	0.8800297	0	747.5994828742427
30.199517	0.00027542287	0.23	267.29063	40.223459	-0.19239448	-0.0406211	-0.038917465	-0.48582878	0.80703399	0	750.3880976872492
30.199517	0.00030199517	0.23	246.43673	37.369522	-0.18945313	-0.040666053	-0.038798161	-0.46066472	0.74046678	0	753.1774698275105
30.199517	0.00033113112	0.23	227.41857	34.758766	-0.18651352	-0.040715247	-0.038667286	-0.43745357	0.67976299	0	755.9677076175158
30.199517	0.00036307805	0.23	210.07471	32.369811	-0.18357582	-0.04076907	-0.038523712	-0.4160234	0.62440735	0	758.7588950919899
30.199517	0.00039810717	0.23	194.25795	30.183159	-0.18064019	-0.040827949	-0.038366209	-0.39621741	0.57392994	0	761.5511477235142
30.199517	0.00043651583	0.23	179.83403	28.181029	-0.1777068	-0.040892344	-0.038193423	-0.37789259	0.52790227	0	764.3445983854207
30.199517	0.00047863009	0.23	166.68055	26.347207	-0.17477584	-0.040962753	-0.038003871	-0.36091849	0.48593366	0	767.1393890366379
30.199517	0.00052480746	0.23	154.68586	24.666908	-0.17184751	-0.041039719	-0.037795932	-0.34517613	0.44766785	0	769.9356820622456
30.199517	0.00057543994	0.23	143.74818	23.126651	-0.16892203	-0.04112383	-0.037567828	-0.33055697	0.41278003	0	772.7336549837207
30.199517	0.00063095734	0.23	133.7747	21.714141	-0.16599963	-0.041215719	-0.037317614	-0.31696203	0.38097408	0	775.5335120155924
30.199517	0.00069183097	0.23	124.68081	20.418171	-0.16308054	-0.041316074	-0.037043169	-0.30430099	0.35198003	0	778.3354954059944
30.199517	0.00075857758	0.23	116.38936	19.22852	-0.16016503	-0.041425636	-0.036742174	-0.29249148	0.32555177	0	781.1398526082531
30.199517	0.00083176377	0.23	108.83002	18.135871	-0.15725336	-0.041545204	-0.036412107	-0.28145832	0.301465	0	783.9468843396547
30.199517	0.00091201084	0.23	101.93869	17.13173	-0.15434581	-0.041675636	-0.036050222	-0.27113295	0.27951526	0	786.7569209325846
30.199517	0.001	0.23	95.656945	16.208353	-0.15144268	-0.041817858	-0.035653544	-0.26145278	0.25951623	0	789.570323415029
30.199517	0.0010964782	0.23	89.93154	15.358682	-0.14854427	-0.041972859	-0.035218851	-0.25236072	0.24129815	0	792.3875061916805
30.199517	0.0012022644	0.23	84.713957	14.576282	-0.1456509	-0.042141706	-0.034742679	-0.24380463	0.22470634	0	795.2089171721333
30.199517	0.0013182567	0.23	79.959998	13.855289	-0.14276287	-0.04232553	-0.034221301	-0.23573695	0.20959988	0	798.0350798915958
30.199517	0.0014454398	0.23	75.629396	13.190359	-0.13988052	-0.042525546	-0.033650751	-0.22811422	0.19585041	0	800.8665319505701
30.199517	0.0015848932	0.23	71.685479	12.576619	-0.13700418	-0.042743044	-0.033026818	-0.22089677	0.18334103	0	803.703873289719
30.199517	0.0017378008	0.23	68.094851	12.00963	-0.13413415	-0.042979394	-0.032345072	-0.21404836	0.17196526	0	806.5477793625729
30.199517	0.0019054607	0.23	64.827093	11.485342	-0.13127076	-0.043236055	-0.031600907	-0.20753586	0.16162611	0	809.3989354693063
30.199517	0.0020892961	0.23	61.854508	11.000066	-0.12841431	-0.04351456	-0.030789574	-0.20132902	0.15223521	0	812.2580859993594
30.199517	0.0022908677	0.23	59.151863	10.550435	-0.12556507	-0.043816535	-0.029906264	-0.19540014	0.14371202	0	815.1260164951344
30.199517	0.0025118864	0.23	56.696165	10.133374	-0.12272332	-0.04414369	-0.028946189	-0.18972391	0.13598308	0	818.0034985652793
30.199517	0.0027542287	0.23	54.466446	9.7460773	-0.11988926	-0.044497816	-0.027904693	-0.18427717	0.12898132	0	820.8913504584659
30.199517	0.0030199517	0.23	52.443565	9.385977	-0.11706308	-0.044880794	-0.026777392	-0.17903872	0.12264543	0	823.7903410398116
30.199517	0.0033113112	0.23	50.610025	9.0507215	-0.11424491	-0.045294584	-0.025560315	-0.17398915	0.11691922	0	826.7012062990419
30.199517	0.0036307805	0.23	48.949803	8.7381532	-0.11143482	-0.045741229	-0.024250082	-0.16911069	0.1117511	0	829.6246108846854
30.199517	0.0039810717	0.23	47.448193	8.4462878	-0.10863281	-0.046222846	-0.022844064	-0.16438709	0.10709356	0	832.5611229237226
30.199517	0.0043651583	0.23	46.091667	8.1732965	-0.10583878	-0.046741633	-0.021340563	-0.15980348	0.10290269	0	835.5112033105398
30.199517	0.0047863009	0.23	44.867751	7.91749	-0.10305256	-0.047299854	-0.019738941	-0.15534624	0.099137786	0	838.4751496430663
30.199517	0.0052480746	0.23	43.764923	7.6773044	-0.10027385	-0.04789984	-0.018039735	-0.15100296	0.09576102	0	841.4531277451905
30.199517	0.0057543994	0.23	42.772526	7.4512896	-0.09750227	-0.04854398	-0.016244705	-0.14676229	0.092737123	0	844.4451143156921
30.199517	0.0063095734	0.23	41.880704	7.2381003	-0.094737272	-0.049234718	-0.014356824	-0.14261389	0.090033187	0	847.4509817709916
30.199517	0.0069183097	0.23	41.080359	7.0364885	-0.091978192	-0.049974541	-0.012380203	-0.13854837	0.087618507	0	850.4704655952565
30.199517	0.0075857758	0.23	40.36312	6.8452983	-0.089224216	-0.050765967	-0.010319937	-0.13455715	0.085464479	0	853.5032295650263
30.199517	0.0083176377	0.23	39.721325	6.6634614	-0.086474378	-0.051611539	-0.008181915	-0.1306325	0.083544537	0	856.5489086873494
30.199517	0.0091201084	0.23	39.148014	6.4899946	-0.083727558	-0.0525138	-0.0059725719	-0.12676734	0.081834123	0	859.6071646933314
30.199517	0.01	0.23	38.636916	6.3239965	-0.080982484	-0.053475276	-0.0036986307	-0.12295529	0.080310661	0	862.6777398695924
30.199517	0.010964782	0.23	38.182442	6.1646442	-0.078237733	-0.054498442	-0.0013668367	-0.11919052	0.078953528	0	865.7605135580899
30.199517	0.012022644	0.23	37.77966	6.0111904	-0.075491752	-0.055585689	0.0010162904	-0.11546773	0.077744007	0	868.8555359964437
30.199517	0.013182567	0.23	37.424267	5.8629591	-0.072742875	-0.056739265	0.0034446921	-0.11178206	0.076665217	0	871.9630632584918
30.199517	0.014454398	0.23	37.112545	5.7193405	-0.069989363	-0.057961207	0.0059129833	-0.10812907	0.075702018	0	875.0835655281039
30.199517	0.015848932	0.23	36.841302	5.5797855	-0.067229451	-0.059253243	0.0084166424	-0.10450463	0.074840882	0	878.2177240202248
30.199517	0.017378008	0.23	36.607807	5.4437995	-0.06446142	-0.060616664	0.010952204	-0.1009049	0.074069745	0	881.3664049746451
30.199517	0.019054607	0.23	36.4097	5.310936	-0.061683688	-0.062052159	0.013517449	-0.097326317	0.073377834	0	884.5306152361713
30.199517	0.020892961	0.23	36.244902	5.1807895	-0.058894931	-0.06355959	0.016111634	-0.0937655	0.072755478	0	887.711438140564
30.199517	0.022908677	0.23	36.111508	5.0529881	-0.056094235	-0.065137716	0.018735743	-0.090219284	0.072193902	0	890.9099450929829
30.199517	0.025118864	0.23	36.007681	4.9271871	-0.053281262	-0.066783847	0.02139281	-0.08668468	0.071685008	0	894.127109314009
30.199517	0.027542287	0.23	35.931546	4.803061	-0.05045646	-0.068493412	0.024088307	-0.083158881	0.071221145	0	897.3636923777323
30.199517	0.030199517	0.23	35.881117	4.6802968	-0.047621242	-0.070259485	0.02683058	-0.079639268	0.070794872	0	900.620170249168
30.199517	0.033113112	0.23	35.854276	4.5585871	-0.044778145	-0.072072229	0.029631354	-0.076123425	0.07039872	0	903.8966930238805
30.199517	0.036307805	0.23	35.848855	4.4376232	-0.041930856	-0.073918368	0.032506228	-0.072609146	0.070024976	0	907.1931674688003
30.199517	0.039810717	0.23	35.862902	4.3170898	-0.039084029	-0.075780723	0.035475094	-0.06909443	0.069665507	0	910.5095195085953
30.199517	0.043651583	0.23	35.895211	4.1966612	-0.03624272	-0.077637956	0.038562363	-0.065577437	0.069311681	0	913.8462739187
30.199517	0.047863009	0.23	35.946219	4.0760001	-0.033411298	-0.079464654	0.041796841	-0.062056374	0.068954456	0	917.2055507155793
30.199517	0.052480746	0.23	36.019306	3.9547616	-0.030591687	-0.081231945	0.045211096	-0.058529273	0.068584708	0	920.5925801212929
30.199517	0.057543994	0.23	36.122468	3.8326009	-0.027780929	-0.08290874	0.048840185	-0.054993621	0.068193869	0	924.0177171889156
30.199517	0.063095734	0.23	36.270125	3.7091869	-0.024968288	-0.084463575	0.052719797	-0.051445825	0.067774893	0	927.498761486033
30.199517	0.069183097	0.23	36.484676	3.5842178	-0.022132353	-0.085866924	0.056883919	-0.047880493	0.067323465	0	931.0631746380909
30.199517	0.075857758	0.23	36.797252	3.4574357	-0.01923886	-0.087093565	0.061362463	-0.044289615	0.066839312	0	934.7496138963543
30.199517	0.083176377	0.23	37.247171	3.3286394	-0.016239944	-0.088124649	0.066179179	-0.040661714	0.066327442	0	938.6081839320248
30.199517	0.091201084	0.23	37.879682	3.1976972	-0.013075488	-0.088949262	0.071350091	-0.036981143	0.065799268	0	942.6988313821369
30.199517	0.1	0.23	38.741511	3.06457	-0.0096771447	-0.089565812	0.0768821	-0.033227701	0.065273734	0	947.0872643078478
30.199517	0.10964782	0.23	39.87338	2.9293575	-0.0059759011	-0.089984606	0.082770406	-0.029376821	0.064778613	0	951.8372876525106
30.199517	0.12022644	0.23	41.298457	2.792371	-0.0019139094	-0.090234754	0.088991598	-0.025400695	0.064351718	0	956.9981940867644
30.199517	0.13182567	0.23	43.008227	2.6541955	0.0025417359	-0.090380118	0.095487705	-0.021270691	0.064040483	0	962.588372943366
30.199517	0.14454398	0.23	44.957588	2.515653	0.0073961884	-0.090545078	0.10214043	-0.016960859	0.06389728	0	968.587102380995
30.199517	0.15848932	0.23	44.645179	2.3798652	0.010080796	-0.091310004	0.10837568	-0.01250964	0.063984008	0	972.4569043754768
30.199517	0.17378008	0.23	47.6113	2.252087	0.016632271	-0.093620659	0.11325417	-0.0079930212	0.064393578	0	979.666685114662
30.199517	0.19054607	0.23	51.291199	2.1258131	0.024321562	-0.096360114	0.11789948	-0.0031519058	0.065175995	0	987.8951281370106
30.199517	0.20892961	0.23	55.856038	2.0018407	0.033426365	-0.099611164	0.1222357	0.0020917697	0.066434949	0	997.3867428286417
30.199517	0.22908677	0.23	61.511866	1.8811167	0.044277693	-0.10344664	0.12619705	0.0078345874	0.068297456	0	1008.4383224747476
30.199517	0.25118864	0.23	68.491463	1.7647028	0.057252401	-0.10792127	0.12973613	0.014194745	0.070915837	0	1021.3937038338572
30.199517	0.27542287	0.23	77.035814	1.653705	0.072753123	-0.11306222	0.13283321	0.021313856	0.074467255	0	1036.626924207501
30.199517	0.30199517	0.23	87.365135	1.5491694	0.091174899	-0.11886058	0.13550498	0.029356414	0.07914983	0	1054.5127562010516
30.199517	0.33113112	0.23	99.643732	1.4519597	0.11286299	-0.12526668	0.137809	0.03850605	0.08517495	0	1075.388033804571
30.199517	0.36307805	0.23	113.94769	1.3626457	0.13807195	-0.1321928	0.1398412	0.0489584	0.092756571	0	1099.5126576120892
30.199517	0.39810717	0.23	130.24607	1.281438	0.16693842	-0.13952404	0.14172487	0.060911391	0.10209938	0	1127.0416537453555
30.199517	0.43651583	0.23	148.4025	1.208186	0.19947607	-0.14713512	0.14359398	0.074554645	0.11338817	0	1158.016816983791
30.199517	0.47863009	0.23	168.19629	1.1424375	0.23559269	-0.15490797	0.14557549	0.090060053	0.12678029	0	1192.378946066344
30.199517	0.52480746	0.23	189.35516	1.0835332	0.27512146	-0.16274534	0.14777583	0.10757505	0.14240198	0	1229.9943022275738
30.199517	0.57543994	0.23	211.58957	1.0307076	0.31785565	-0.17057758	0.1502741	0.12721927	0.16034829	0	1270.6857426350878
30.199517	0.63095734	0.23	234.62094	0.98317448	0.36357858	-0.17836317	0.15312155	0.14908432	0.18068553	0	1314.2607573954103
30.199517	0.69183097	0.23	258.20049	0.94018626	0.41208483	-0.1860849	0.1563454	0.17323583	0.20345531	0	1360.5322232371752
30.199517	0.75857758	0.23	282.11893	0.90106867	0.46319275	-0.19374416	0.15995456	0.19971694	0.22867909	0	1409.3313935658266
30.199517	0.83176377	0.23	306.20915	0.86523524	0.51674999	-0.2013552	0.1639454	0.22855232	0.25636272	0	1460.5143411571812
30.199517	0.91201084	0.23	330.3444	0.83218853	0.57263454	-0.2089401	0.16830676	0.25975231	0.28650052	0	1513.9640179665453
30.199517	1.	0.23	354.43399	0.80151374	0.63075302	-0.21652514	0.17302363	0.29331658	0.31907884	0	1569.5894437200777
30.199517	1.0964782	0.23	378.41806	0.7728687	0.6910378	-0.22413811	0.1780798	0.32923751	0.35407906	0	1627.3235726316643
30.199517	1.2022644	0.23	402.26222	0.745973	0.75344369	-0.23180673	0.18345948	0.36750287	0.39147994	0	1687.1205335236557
30.199517	1.3182567	0.23	425.95267	0.72059746	0.81794478	-0.23955767	0.18914832	0.40809813	0.43125958	0	1748.9528812223966
30.199517	1.4454398	0.23	449.49188	0.6965548	0.88453148	-0.24741602	0.19513388	0.45100821	0.47339688	0	1812.8089170118014
30.199517	1.5848932	0.23	472.89498	0.67369172	0.95320811	-0.25540516	0.20140583	0.49621895	0.51787276	0	1878.6904675008661
30.199517	1.7378008	0.23	496.18678	0.65188224	1.0239908	-0.26354673	0.20795597	0.54371816	0.56467096	0	1946.610915858437
30.199517	1.9054607	0.23	519.39935	0.63102236	1.0969056	-0.27186074	0.21477812	0.59349643	0.61377876	0	2016.5934022636927
30.199517	2.0892961	0.23	542.57006	0.61102572	1.1719874	-0.28036578	0.221868	0.6455478	0.6651874	0	2088.669783243564
30.199517	2.2908677	0.23	565.74013	0.59182009	1.2492785	-0.28907912	0.22922299	0.69987017	0.71889245	0	2162.879236230276
30.199517	2.5118864	0.23	588.95336	0.57334464	1.3288279	-0.29801698	0.23684204	0.75646559	0.77489404	0	2239.2675730209476
30.199517	2.7542287	0.23	612.25528	0.55554768	1.4106904	-0.30719467	0.24472546	0.81534052	0.83319694	0	2317.8863487877666
30.199517	3.0199517	0.23	635.6924	0.53838495	1.4949261	-0.31662672	0.25287476	0.87650593	0.8938107	0	2398.792357719315
30.199517	3.3113112	0.23	659.3117	0.52181822	1.5816	-0.32632711	0.26129257	0.93997736	0.95674965	0	2482.0472399064233
30.199517	3.6307805	0.23	683.16025	0.50581413	1.6707815	-0.33630931	0.26998247	1.005775	1.0220329	0	2567.71697482249
30.199517	3.9810717	0.23	707.28489	0.49034336	1.7625442	-0.34658648	0.27894894	1.0739236	1.0896842	0	2655.8716826054124
30.199517	4.3651583	0.23	731.73208	0.47537987	1.8569657	-0.35717147	0.28819722	1.1444525	1.1597322	0	2746.5854058905097
30.199517	4.7863009	0.23	756.54775	0.46090033	1.9541273	-0.36807702	0.2977333	1.2173956	1.2322099	0	2839.9358257799204
30.199517	5.2480746	0.23	781.77722	0.44688371	2.0541142	-0.37931576	0.30756381	1.2927913	1.307155	0	2936.0044259846663
30.199517	5.7543994	0.23	807.46516	0.43331085	2.157015	-0.39090028	0.31769601	1.3706822	1.3846097	0	3034.876020880978
30.199517	6.3095734	0.23	833.65564	0.42016416	2.2629219	-0.40284324	0.32813773	1.4511156	1.4646205	0	3136.6389304573654
30.199517	6.9183097	0.23	860.39207	0.40742744	2.3719305	-0.41515737	0.33889731	1.5341427	1.5472382	0	3241.384779435543
30.199517	7.5857758	0.23	887.71731	0.39508561	2.48414	-0.42785556	0.34998365	1.6198193	1.6325181	0	3349.2086959885014
30.199517	8.3176377	0.23	915.6737	0.38312459	2.5996532	-0.44095086	0.36140608	1.708205	1.7205194	0	3460.2092836475053
30.199517	9.1201084	0.23	944.30313	0.37153113	2.7185764	-0.45445655	0.37317446	1.799364	1.8113057	0	3574.488548955561
30.199517	10.	0.23	973.64709	0.36029277	2.8410192	-0.46838615	0.38529908	1.8933641	1.9049446	0	3692.1516919443416