33.113112	1.e-12	0.16	9.4372692e10	1.1400226e10	-0.89753673	-0.057065205	-0.057065205	-1.0044293e8	3.0133538e8	0	87.692299850311
33.113112	1.0964782e-12	0.16	8.6068918e10	1.039713e10	-0.89430838	-0.057473934	-0.057473934	-9.1605038e7	2.7482114e8	0	90.66410123103309
33.113112	1.2022644e-12	0.16	7.8495786e10	9.4822953e9	-0.89107708	-0.057825549	-0.057825549	-8.3544787e7	2.5063985e8	0	93.64726030320169
33.113112	1.3182567e-12	0.16	7.1589008e10	8.6479562e9	-0.88784332	-0.058126622	-0.058126622	-7.6193752e7	2.2858627e8	0	96.64032870803837
33.113112	1.4454398e-12	0.16	6.5289951e10	7.8870298e9	-0.88460751	-0.058383354	-0.058383354	-6.9489528e7	2.0847315e8	0	99.64198902459204
33.113112	1.5848932e-12	0.16	5.9545143e10	7.1930566e9	-0.88137	-0.058601481	-0.058601481	-6.3375202e7	1.9012977e8	0	102.65105010949466
33.113112	1.7378008e-12	0.16	5.4305816e10	6.5601456e9	-0.87813106	-0.058786221	-0.058786221	-5.7798871e7	1.7340041e8	0	105.66647385578226
33.113112	1.9054607e-12	0.16	4.9527493e10	5.9829239e9	-0.87489093	-0.058942253	-0.058942253	-5.2713198e7	1.5814306e8	0	108.68733137156717
33.113112	2.0892961e-12	0.16	4.516961e10	5.4564914e9	-0.87164982	-0.059073727	-0.059073727	-4.8075007e7	1.4422818e8	0	111.71280147673346
33.113112	2.2908677e-12	0.16	4.1195174e10	4.9763793e9	-0.86840789	-0.059184283	-0.059184283	-4.3844928e7	1.3153767e8	0	114.74218663796549
33.113112	2.5118864e-12	0.16	3.7570445e10	4.5385119e9	-0.86516527	-0.059277089	-0.059277089	-3.998705e7	1.1996378e8	0	117.77488846488292
33.113112	2.7542287e-12	0.16	3.4264653e10	4.1391721e9	-0.86192209	-0.059354879	-0.059354879	-3.6468623e7	1.0940826e8	0	120.8103738105237
33.113112	3.0199517e-12	0.16	3.1249735e10	3.7749698e9	-0.85867843	-0.059420002	-0.059420002	-3.3259779e7	9.9781524e7	0	123.8482143834186
33.113112	3.3113112e-12	0.16	2.8500098e10	3.4428134e9	-0.85543438	-0.059474463	-0.059474463	-3.033328e7	9.1001832e7	0	126.88802421012181
33.113112	3.6307805e-12	0.16	2.5992398e10	3.1398831e9	-0.85219	-0.059519969	-0.059519969	-2.766428e7	8.2994656e7	0	129.92949030262412
33.113112	3.9810717e-12	0.16	2.3705349e10	2.8636074e9	-0.84894535	-0.059557962	-0.059557962	-2.5230123e7	7.5692026e7	0	132.97233951048676
33.113112	4.3651583e-12	0.16	2.1619535e10	2.611641e9	-0.84570047	-0.059589663	-0.059589663	-2.3010146e7	6.9031949e7	0	136.0163506976091
33.113112	4.7863009e-12	0.16	1.971725e10	2.3818449e9	-0.8424554	-0.059616102	-0.059616102	-2.0985502e7	6.2957885e7	0	139.0613314410075
33.113112	5.2480746e-12	0.16	1.7982346e10	2.1722684e9	-0.83921017	-0.05963814	-0.05963814	-1.9139006e7	5.7418274e7	0	142.1071241191987
33.113112	5.7543994e-12	0.16	1.6400094e10	1.9811323e9	-0.83596482	-0.059656505	-0.059656505	-1.7454981e7	5.2366088e7	0	145.15358170899665
33.113112	6.3095734e-12	0.16	1.4957064e10	1.8068141e9	-0.83271935	-0.059671804	-0.059671804	-1.5919132e7	4.7758439e7	0	148.20061295981492
33.113112	6.9183097e-12	0.16	1.3641004e10	1.6478341e9	-0.8294738	-0.059684544	-0.059684544	-1.4518421e7	4.3556215e7	0	151.2481040714979
33.113112	7.5857758e-12	0.16	1.2440744e10	1.5028425e9	-0.82622817	-0.059695153	-0.059695153	-1.3240957e7	3.972374e7	0	154.29599070261068
33.113112	8.3176377e-12	0.16	1.1346093e10	1.3706087e9	-0.82298248	-0.059703984	-0.059703984	-1.2075897e7	3.6228482e7	0	157.3442009951953
33.113112	9.1201084e-12	0.16	1.034776e10	1.25001e9	-0.81973673	-0.059711336	-0.059711336	-1.1013349e7	3.3040768e7	0	160.39269000044527
33.113112	1.e-11	0.16	9.4372692e9	1.1400227e9	-0.81649095	-0.059717454	-0.059717454	-1.0044293e7	3.0133538e7	0	163.4413927004384
33.113112	1.0964782e-11	0.16	8.6068919e9	1.039713e9	-0.81324512	-0.059722545	-0.059722545	-9.1605046e6	2.7482114e7	0	166.49029676807743
33.113112	1.2022644e-11	0.16	7.8495787e9	9.4822956e8	-0.80999927	-0.059726783	-0.059726782	-8.3544795e6	2.5063986e7	0	169.53934800923284
33.113112	1.3182567e-11	0.16	7.1589008e9	8.6479564e8	-0.80675339	-0.059730307	-0.059730307	-7.619376e6	2.2858627e7	0	172.5885344726335
33.113112	1.4454398e-11	0.16	6.5289951e9	7.8870299e8	-0.80350749	-0.059733241	-0.059733241	-6.9489535e6	2.0847315e7	0	175.63782857264061
33.113112	1.5848932e-11	0.16	5.9545143e9	7.1930568e8	-0.80026158	-0.059735681	-0.059735681	-6.337521e6	1.9012977e7	0	178.68720633154643
33.113112	1.7378008e-11	0.16	5.4305816e9	6.5601458e8	-0.79701565	-0.059737711	-0.059737711	-5.7798879e6	1.7340041e7	0	181.7366645172463
33.113112	1.9054607e-11	0.16	4.9527493e9	5.9829241e8	-0.7937697	-0.0597394	-0.0597394	-5.2713205e6	1.5814306e7	0	184.7861927569386
33.113112	2.0892961e-11	0.16	4.5169611e9	5.4564917e8	-0.79052375	-0.059740805	-0.059740805	-4.8075015e6	1.4422818e7	0	187.83576369048043
33.113112	2.2908677e-11	0.16	4.1195174e9	4.9763796e8	-0.78727779	-0.059741974	-0.059741974	-4.3844935e6	1.3153767e7	0	190.88537949766337
33.113112	2.5118864e-11	0.16	3.7570446e9	4.5385121e8	-0.78403182	-0.059742946	-0.059742946	-3.9987057e6	1.1996378e7	0	193.93503431559958
33.113112	2.7542287e-11	0.16	3.4264653e9	4.1391722e8	-0.78078585	-0.059743755	-0.059743755	-3.646863e6	1.0940826e7	0	196.9847136374002
33.113112	3.0199517e-11	0.16	3.1249736e9	3.77497e8	-0.77753987	-0.059744427	-0.059744427	-3.3259787e6	9.9781524e6	0	200.03442295012675
33.113112	3.3113112e-11	0.16	2.8500098e9	3.4428136e8	-0.77429389	-0.059744987	-0.059744987	-3.0333287e6	9.1001831e6	0	203.08414909986436
33.113112	3.6307805e-11	0.16	2.5992398e9	3.1398833e8	-0.77104791	-0.059745452	-0.059745452	-2.7664287e6	8.2994657e6	0	206.13388953099542
33.113112	3.9810717e-11	0.16	2.3705349e9	2.8636076e8	-0.76780192	-0.05974584	-0.05974584	-2.523013e6	7.5692026e6	0	209.18365093322492
33.113112	4.3651583e-11	0.16	2.1619535e9	2.6116412e8	-0.76455593	-0.059746161	-0.059746161	-2.3010153e6	6.9031949e6	0	212.23342240759507
33.113112	4.7863009e-11	0.16	1.971725e9	2.3818452e8	-0.76130994	-0.059746429	-0.059746429	-2.098551e6	6.2957886e6	0	215.2832018494794
33.113112	5.2480746e-11	0.16	1.7982346e9	2.1722686e8	-0.75806394	-0.059746652	-0.059746652	-1.9139013e6	5.7418274e6	0	218.33299745188765
33.113112	5.7543994e-11	0.16	1.6400094e9	1.9811325e8	-0.75481795	-0.059746837	-0.059746837	-1.7454988e6	5.2366088e6	0	221.38278937119986
33.113112	6.3095734e-11	0.16	1.4957064e9	1.8068143e8	-0.75157195	-0.059746992	-0.059746992	-1.5919139e6	4.775844e6	0	224.43259519607915
33.113112	6.9183097e-11	0.16	1.3641004e9	1.6478343e8	-0.74832596	-0.05974712	-0.05974712	-1.4518428e6	4.3556215e6	0	227.4823956842273
33.113112	7.5857758e-11	0.16	1.2440744e9	1.5028428e8	-0.74507996	-0.059747227	-0.059747226	-1.3240964e6	3.972374e6	0	230.53220887529895
33.113112	8.3176377e-11	0.16	1.1346093e9	1.3706089e8	-0.74183396	-0.059747315	-0.059747315	-1.2075904e6	3.6228482e6	0	233.58202462198835
33.113112	9.1201084e-11	0.16	1.034776e9	1.2500102e8	-0.73858796	-0.059747389	-0.059747388	-1.1013356e6	3.3040768e6	0	236.63184277396502
33.113112	1.e-10	0.16	9.4372695e8	1.1400229e8	-0.73534196	-0.05974745	-0.05974745	-1.00443e6	3.0133539e6	0	239.68166257957682
33.113112	1.0964782e-10	0.16	8.6068921e8	1.0397132e8	-0.73209596	-0.059747502	-0.059747501	-916051.14	2.7482114e6	0	242.73148403882357
33.113112	1.2022644e-10	0.16	7.849579e8	9.4822977e7	-0.72884996	-0.059747544	-0.059747543	-835448.64	2.5063986e6	0	245.78130685104432
33.113112	1.3182567e-10	0.16	7.1589012e8	8.6479585e7	-0.72560396	-0.059747579	-0.059747578	-761938.28	2.2858627e6	0	248.8311307155784
33.113112	1.4454398e-10	0.16	6.5289955e8	7.8870321e7	-0.72235796	-0.059747608	-0.059747607	-694896.04	2.0847316e6	0	251.88095548209523
33.113112	1.5848932e-10	0.16	5.9545147e8	7.1930589e7	-0.71911196	-0.059747633	-0.059747632	-633752.78	1.9012978e6	0	254.9307808499338
33.113112	1.7378008e-10	0.16	5.4305819e8	6.5601478e7	-0.71586596	-0.059747653	-0.059747653	-577989.46	1.7340042e6	0	257.9806068190942
33.113112	1.9054607e-10	0.16	4.9527496e8	5.9829262e7	-0.71261996	-0.05974767	-0.059747669	-527132.73	1.5814306e6	0	261.0304335399069
33.113112	2.0892961e-10	0.16	4.5169613e8	5.4564937e7	-0.70937396	-0.059747684	-0.059747684	-480750.82	1.4422819e6	0	264.0802604110501
33.113112	2.2908677e-10	0.16	4.1195178e8	4.9763816e7	-0.70612796	-0.059747696	-0.059747695	-438450.02	1.3153767e6	0	267.1300878835151
33.113112	2.5118864e-10	0.16	3.7570448e8	4.5385141e7	-0.70288196	-0.059747706	-0.059747705	-399871.23	1.1996378e6	0	270.17991550631046
33.113112	2.7542287e-10	0.16	3.4264657e8	4.1391743e7	-0.69963596	-0.059747714	-0.059747713	-364686.97	1.0940827e6	0	273.22974342976687
33.113112	3.0199517e-10	0.16	3.1249739e8	3.774972e7	-0.69638996	-0.05974772	-0.059747719	-332598.53	997815.29	0	276.27957165388415
33.113112	3.3113112e-10	0.16	2.8500101e8	3.4428156e7	-0.69314395	-0.059747726	-0.059747725	-303333.52	910018.36	0	279.3294092736549
33.113112	3.6307805e-10	0.16	2.5992401e8	3.1398853e7	-0.68989795	-0.059747731	-0.05974773	-276643.52	829946.61	0	282.3792376481026
33.113112	3.9810717e-10	0.16	2.3705352e8	2.8636096e7	-0.68665195	-0.059747735	-0.059747733	-252301.95	756920.31	0	285.4290663232112
33.113112	4.3651583e-10	0.16	2.1619538e8	2.6116432e7	-0.68340595	-0.059747738	-0.059747737	-230102.18	690319.53	0	288.47889484798935
33.113112	4.7863009e-10	0.16	1.9717253e8	2.3818471e7	-0.68015995	-0.05974774	-0.059747739	-209855.74	629578.91	0	291.52872367342854
33.113112	5.2480746e-10	0.16	1.7982349e8	2.1722706e7	-0.67691395	-0.059747743	-0.059747741	-191390.77	574182.79	0	294.57855249886757
33.113112	5.7543994e-10	0.16	1.6400097e8	1.9811345e7	-0.67366795	-0.059747745	-0.059747743	-174550.52	523660.93	0	297.62838132430664
33.113112	6.3095734e-10	0.16	1.4957067e8	1.8068163e7	-0.67042195	-0.059747747	-0.059747745	-159192.02	477584.45	0	300.6782101497457
33.113112	6.9183097e-10	0.16	1.3641008e8	1.6478362e7	-0.66717594	-0.059747748	-0.059747746	-145184.91	435562.2	0	303.7280485211688
33.113112	7.5857758e-10	0.16	1.2440747e8	1.5028447e7	-0.66392994	-0.059747749	-0.059747747	-132410.27	397237.45	0	306.7778774969383
33.113112	8.3176377e-10	0.16	1.1346096e8	1.3706108e7	-0.66068394	-0.05974775	-0.059747747	-120759.66	362284.87	0	309.82770662303835
33.113112	9.1201084e-10	0.16	1.0347763e8	1.2500121e7	-0.65743794	-0.059747751	-0.059747748	-110134.18	330407.73	0	312.87753559880787
33.113112	1.e-9	0.16	9.4372725e7	1.1400248e7	-0.65419194	-0.059747752	-0.059747748	-100443.62	301335.44	0	315.9273647249079
33.113112	1.0964782e-9	0.16	8.6068951e7	1.0397151e7	-0.65094594	-0.059747752	-0.059747748	-91605.733	274821.19	0	318.977193851008
33.113112	1.2022644e-9	0.16	7.8495819e7	9.4823165e6	-0.64769994	-0.059747753	-0.059747749	-83545.478	250639.91	0	322.02702282677745
33.113112	1.3182567e-9	0.16	7.1589041e7	8.6479773e6	-0.64445394	-0.059747753	-0.059747748	-76194.44	228586.32	0	325.0768521032079
33.113112	1.4454398e-9	0.16	6.5289985e7	7.8870508e6	-0.64120793	-0.059747754	-0.059747748	-69490.213	208473.21	0	328.1266906249614
33.113112	1.5848932e-9	0.16	5.9545176e7	7.1930775e6	-0.63796193	-0.059747754	-0.059747749	-63375.884	190129.83	0	331.1765196007309
33.113112	1.7378008e-9	0.16	5.4305849e7	6.5601664e6	-0.63471593	-0.059747755	-0.059747749	-57799.55	173400.47	0	334.2263487268309
33.113112	1.9054607e-9	0.16	4.9527526e7	5.9829446e6	-0.63146993	-0.059747755	-0.059747748	-52713.873	158143.11	0	337.2761780032614
33.113112	2.0892961e-9	0.16	4.5169643e7	5.456512e6	-0.62822393	-0.059747756	-0.059747748	-48075.679	144228.24	0	340.3260071293614
33.113112	2.2908677e-9	0.16	4.1195207e7	4.9763999e6	-0.62497793	-0.059747756	-0.059747747	-43845.597	131537.72	0	343.3758364057918
33.113112	2.5118864e-9	0.16	3.7570478e7	4.5385324e6	-0.62173193	-0.059747756	-0.059747747	-39987.715	119963.83	0	346.4256655318918
33.113112	2.7542287e-9	0.16	3.4264686e7	4.1391924e6	-0.61848593	-0.059747757	-0.059747747	-36469.285	109408.32	0	349.4754946579919
33.113112	3.0199517e-9	0.16	3.1249768e7	3.77499e6	-0.61523992	-0.059747757	-0.059747746	-33260.439	99781.579	0	352.52533333007574
33.113112	3.3113112e-9	0.16	2.8500131e7	3.4428335e6	-0.61199392	-0.059747757	-0.059747745	-30333.935	91001.886	0	355.5751626065063
33.113112	3.6307805e-9	0.16	2.5992431e7	3.1399032e6	-0.60874792	-0.059747758	-0.059747745	-27664.932	82994.711	0	358.62499173260625
33.113112	3.9810717e-9	0.16	2.3705382e7	2.8636274e6	-0.60550192	-0.059747758	-0.059747744	-25230.773	75692.081	0	361.67482100903663
33.113112	4.3651583e-9	0.16	2.1619568e7	2.6116609e6	-0.60225592	-0.059747758	-0.059747743	-23010.792	69032.004	0	364.72465028546725
33.113112	4.7863009e-9	0.16	1.9717283e7	2.3818647e6	-0.59900992	-0.059747759	-0.059747742	-20986.145	62957.94	0	367.77447956189764
33.113112	5.2480746e-9	0.16	1.7982379e7	2.1722881e6	-0.59576392	-0.05974776	-0.059747741	-19139.646	57418.329	0	370.8243088383281
33.113112	5.7543994e-9	0.16	1.6400127e7	1.9811519e6	-0.59251792	-0.05974776	-0.059747739	-17455.617	52366.143	0	373.87413826508896
33.113112	6.3095734e-9	0.16	1.4957097e7	1.8068337e6	-0.58927191	-0.059747761	-0.059747739	-15919.765	47758.495	0	376.92397678684245
33.113112	6.9183097e-9	0.16	1.3641037e7	1.6478535e6	-0.58602591	-0.059747762	-0.059747737	-14519.051	43556.27	0	379.9738062136034
33.113112	7.5857758e-9	0.16	1.2440777e7	1.5028619e6	-0.58277991	-0.059747762	-0.059747735	-13241.584	39723.795	0	383.0236356403644
33.113112	8.3176377e-9	0.16	1.1346126e7	1.3706279e6	-0.57953391	-0.059747764	-0.059747734	-12076.52	36228.536	0	386.07346491679476
33.113112	9.1201084e-9	0.16	1.0347793e7	1.2500292e6	-0.57628791	-0.059747764	-0.059747732	-11013.969	33040.823	0	389.1232943435557
33.113112	1.e-8	0.16	9.4373023e6	1.1400417e6	-0.57304191	-0.059747765	-0.05974773	-10044.91	30133.593	0	392.1731237703166
33.113112	1.0964782e-8	0.16	8.6069248e6	1.039732e6	-0.56979591	-0.059747767	-0.059747728	-9161.1182	27482.168	0	395.2229531970775
33.113112	1.2022644e-8	0.16	7.8496117e6	948248.44	-0.56654991	-0.059747768	-0.059747725	-8355.09	25064.04	0	398.2727827741689
33.113112	1.3182567e-8	0.16	7.1589339e6	864814.42	-0.56330391	-0.05974777	-0.059747722	-7619.9832	22858.681	0	401.3226123512602
33.113112	1.4454398e-8	0.16	6.5290282e6	788721.69	-0.5600579	-0.059747771	-0.059747719	-6949.5575	20847.37	0	404.3724513240051
33.113112	1.5848932e-8	0.16	5.9545474e6	719324.28	-0.5568119	-0.059747773	-0.059747716	-6338.1217	19013.032	0	407.4222809010964
33.113112	1.7378008e-8	0.16	5.4306147e6	656033.09	-0.5535659	-0.059747774	-0.059747712	-5780.4854	17340.096	0	410.4721106285183
33.113112	1.9054607e-8	0.16	4.9527824e6	598310.83	-0.5503199	-0.059747776	-0.059747708	-5271.9148	15814.361	0	413.52194035594016
33.113112	2.0892961e-8	0.16	4.5169941e6	545667.49	-0.5470739	-0.059747779	-0.059747704	-4808.0925	14422.873	0	416.5717700833619
33.113112	2.2908677e-8	0.16	4.1195505e6	497656.19	-0.5438279	-0.059747781	-0.059747699	-4385.0813	13153.821	0	419.6215999611142
33.113112	2.5118864e-8	0.16	3.7570776e6	453869.36	-0.5405819	-0.059747784	-0.059747694	-3999.2903	11996.433	0	422.6714298388666
33.113112	2.7542287e-8	0.16	3.4264985e6	413935.28	-0.5373359	-0.059747787	-0.059747688	-3647.4443	10940.881	0	425.72125986694925
33.113112	3.0199517e-8	0.16	3.1250066e6	377514.96	-0.5340899	-0.05974779	-0.059747682	-3326.5567	9978.2072	0	428.771089895032
33.113112	3.3113112e-8	0.16	2.8500429e6	344299.23	-0.5308439	-0.059747794	-0.059747675	-3033.9035	9100.238	0	431.8209200734451
33.113112	3.6307805e-8	0.16	2.5992729e6	314006.11	-0.52759789	-0.059747797	-0.059747667	-2767.0003	8299.5205	0	434.87075979784237
33.113112	3.9810717e-8	0.16	2.3705679e6	286378.44	-0.52435189	-0.059747802	-0.05974766	-2523.5813	7569.2574	0	437.9205899762555
33.113112	4.3651583e-8	0.16	2.1619866e6	261181.71	-0.52110589	-0.059747806	-0.05974765	-2301.5804	6903.2497	0	440.9704206056601
33.113112	4.7863009e-8	0.16	1.9717581e6	238202.01	-0.51785989	-0.059747812	-0.05974764	-2099.1128	6295.8434	0	444.0202512350646
33.113112	5.2480746e-8	0.16	1.7982677e6	217244.27	-0.51461389	-0.059747817	-0.059747629	-1914.4599	5741.8823	0	447.07008201479965
33.113112	5.7543994e-8	0.16	1.6400425e6	198130.57	-0.51136789	-0.059747823	-0.059747617	-1746.0542	5236.6637	0	450.11991294486506
33.113112	6.3095734e-8	0.16	1.4957395e6	180698.66	-0.50812189	-0.05974783	-0.059747604	-1592.466	4775.8989	0	453.16974402526114
33.113112	6.9183097e-8	0.16	1.3641335e6	164800.56	-0.50487589	-0.059747837	-0.059747589	-1452.3917	4355.6764	0	456.21957540631786
33.113112	7.5857758e-8	0.16	1.2441075e6	150301.31	-0.50162989	-0.059747845	-0.059747574	-1324.6421	3972.4289	0	459.2694067873747
33.113112	8.3176377e-8	0.16	1.1346424e6	137077.84	-0.49838389	-0.059747854	-0.059747556	-1208.1328	3622.9031	0	462.319238619423
33.113112	9.1201084e-8	0.16	1.0348091e6	125017.88	-0.49513789	-0.059747863	-0.059747537	-1101.8747	3304.1317	0	465.3690706018015
33.113112	1.e-7	0.16	943760.03	114019.05	-0.49189189	-0.059747875	-0.059747517	-1004.9659	3013.4087	0	468.4189027345107
33.113112	1.0964782e-7	0.16	860722.29	103987.99	-0.48864589	-0.059747886	-0.059747494	-916.58381	2748.2662	0	471.4687353182112
33.113112	1.2022644e-7	0.16	784990.97	94839.555	-0.48539989	-0.059747899	-0.059747468	-835.97807	2506.4534	0	474.518568352903
33.113112	1.3182567e-7	0.16	715923.18	86496.07	-0.48215389	-0.059747913	-0.059747442	-762.46446	2285.9175	0	477.5684013875949
33.113112	1.4454398e-7	0.16	652932.62	78886.714	-0.47890789	-0.059747929	-0.059747411	-695.41897	2084.7864	0	480.61823517393907
33.113112	1.5848932e-7	0.16	595484.54	71946.891	-0.47566189	-0.059747945	-0.059747378	-634.27248	1901.3526	0	483.66806926094404
33.113112	1.7378008e-7	0.16	543091.27	65617.688	-0.47241589	-0.059747964	-0.059747342	-578.50592	1734.059	0	486.71790379894054
33.113112	1.9054607e-7	0.16	495308.04	59845.379	-0.4691699	-0.059747985	-0.059747302	-527.64593	1581.4855	0	489.7677295426052
33.113112	2.0892961e-7	0.16	451729.22	54580.964	-0.4659239	-0.059748006	-0.059747258	-481.2608	1442.3367	0	492.81756528324536
33.113112	2.2908677e-7	0.16	411984.86	49779.751	-0.4626779	-0.05974803	-0.05974721	-438.95675	1315.4316	0	495.86740162520726
33.113112	2.5118864e-7	0.16	375737.56	45400.983	-0.4594319	-0.059748058	-0.059747159	-400.37472	1199.6926	0	498.9172384181604
33.113112	2.7542287e-7	0.16	342679.65	41407.493	-0.4561859	-0.059748087	-0.059747101	-365.18721	1094.1375	0	501.96707626342703
33.113112	3.0199517e-7	0.16	312530.47	37765.378	-0.45293991	-0.059748119	-0.059747038	-333.09553	997.87013	0	505.0169054646921
33.113112	3.3113112e-7	0.16	285034.08	34443.722	-0.44969391	-0.059748154	-0.059746969	-303.82728	910.0732	0	508.0667449635937
33.113112	3.6307805e-7	0.16	259957.09	31414.327	-0.44644791	-0.059748193	-0.059746893	-277.13404	830.00145	0	511.1165855148082
33.113112	3.9810717e-7	0.16	237086.6	28651.478	-0.44320192	-0.059748236	-0.05974681	-252.78922	756.97515	0	514.1664177226826
33.113112	4.3651583e-7	0.16	216228.46	26131.722	-0.43995592	-0.059748282	-0.059746719	-230.58621	690.37438	0	517.216260528854
33.113112	4.7863009e-7	0.16	197205.61	23833.669	-0.43670993	-0.059748333	-0.059746619	-210.33653	629.63375	0	520.2660952923461
33.113112	5.2480746e-7	0.16	179856.57	21737.811	-0.43346393	-0.059748389	-0.05974651	-191.86831	574.23762	0	523.3159408044658
33.113112	5.7543994e-7	0.16	164034.06	19826.359	-0.43021794	-0.05974845	-0.05974639	-175.02482	523.71577	0	526.3657785745671
33.113112	6.3095734e-7	0.16	149603.75	18083.085	-0.42697195	-0.059748517	-0.059746258	-159.66308	477.63929	0	529.4156181486338
33.113112	6.9183097e-7	0.16	136443.15	16493.192	-0.42372596	-0.059748591	-0.059746114	-145.65273	435.61704	0	532.4654595266659
33.113112	7.5857758e-7	0.16	124440.55	15043.185	-0.42047997	-0.059748672	-0.059745956	-132.87485	397.29229	0	535.5153030093246
33.113112	8.3176377e-7	0.16	113494.04	13720.754	-0.41723398	-0.059748761	-0.059745783	-121.22099	362.33971	0	538.5651487469399
33.113112	9.1201084e-7	0.16	103510.71	12514.675	-0.41398799	-0.059748858	-0.059745593	-110.59227	330.46257	0	541.6149970401731
33.113112	1.e-6	0.16	94405.805	11414.71	-0.410742	-0.059748964	-0.059745384	-100.89847	301.39028	0	544.6648481896849
33.113112	1.0964782e-6	0.16	86102.03	10411.521	-0.40749602	-0.059749081	-0.059745156	-92.057334	274.87603	0	547.7146927998219
33.113112	1.2022644e-6	0.16	78528.899	9496.5945	-0.40425003	-0.059749209	-0.059744905	-83.993838	250.69475	0	550.7645502632128
33.113112	1.3182567e-6	0.16	71622.122	8662.1632	-0.40100405	-0.059749349	-0.05974463	-76.639558	228.64116	0	553.8144019388811
33.113112	1.4454398e-6	0.16	65323.064	7901.1446	-0.39775807	-0.059749504	-0.059744329	-69.932086	208.52804	0	556.8642575231414
33.113112	1.5848932e-6	0.16	59578.257	7207.0795	-0.39451209	-0.059749672	-0.059743998	-63.814516	190.18467	0	559.9141176173155
33.113112	1.7378008e-6	0.16	54338.929	6574.0763	-0.39126611	-0.059749858	-0.059743636	-58.234938	173.45531	0	562.9639823717334
33.113112	1.9054607e-6	0.16	49560.606	5996.7626	-0.38802014	-0.05975006	-0.059743239	-53.146019	158.19795	0	566.0138429920639
33.113112	2.0892961e-6	0.16	45202.723	5470.238	-0.38477417	-0.059750283	-0.059742803	-48.504583	144.28308	0	569.0637094752823
33.113112	2.2908677e-6	0.16	41228.288	4990.0338	-0.3815282	-0.059750527	-0.059742326	-44.271257	131.59256	0	572.1135821220494
33.113112	2.5118864e-6	0.16	37603.559	4552.0743	-0.37828223	-0.059750795	-0.059741802	-40.410133	120.01867	0	575.1634618343478
33.113112	2.7542287e-6	0.16	34297.767	4152.6423	-0.37503627	-0.059751088	-0.059741228	-36.88846	109.46316	0	578.2133396675154
33.113112	3.0199517e-6	0.16	31282.849	3788.3479	-0.37179031	-0.05975141	-0.059740598	-33.676371	99.836419	0	581.2632259191887
33.113112	3.3113112e-6	0.16	28533.211	3456.0994	-0.36854436	-0.059751763	-0.059739908	-30.746625	91.056726	0	584.3131117950359
33.113112	3.6307805e-6	0.16	26025.511	3153.077	-0.3652984	-0.05975215	-0.059739152	-28.074379	83.049551	0	587.3630169883465
33.113112	3.9810717e-6	0.16	23738.462	2876.7093	-0.36205246	-0.059752574	-0.059738322	-25.636976	75.746921	0	590.4129145148041
33.113112	4.3651583e-6	0.16	21652.648	2624.6508	-0.35880652	-0.059753039	-0.059737412	-23.413753	69.086844	0	593.4628240676981
33.113112	4.7863009e-6	0.16	19750.364	2394.7626	-0.35556059	-0.059753549	-0.059736414	-21.385863	63.012781	0	596.5127374540186
33.113112	5.2480746e-6	0.16	18015.459	2185.0939	-0.35231466	-0.059754108	-0.05973532	-19.536121	57.47317	0	599.562665272063
33.113112	5.7543994e-6	0.16	16433.208	1993.8658	-0.34906874	-0.059754722	-0.059734121	-17.84885	52.420984	0	602.6125994791519
33.113112	6.3095734e-6	0.16	14990.177	1819.4555	-0.34582283	-0.059755394	-0.059732805	-16.309755	47.813336	0	605.6625418792503
33.113112	6.9183097e-6	0.16	13674.118	1660.3834	-0.34257692	-0.059756132	-0.059731364	-14.905798	43.611112	0	608.712503070656
33.113112	7.5857758e-6	0.16	12473.858	1515.2997	-0.33933103	-0.05975694	-0.059729782	-13.625088	39.778637	0	611.7624666673489
33.113112	8.3176377e-6	0.16	11379.207	1382.9738	-0.33608514	-0.059757827	-0.059728049	-12.456781	36.283379	0	614.8124529639406
33.113112	9.1201084e-6	0.16	10380.874	1262.283	-0.33283927	-0.059758798	-0.059726148	-11.390987	33.095666	0	617.862445724742
33.113112	0.00001	0.16	9470.3833	1152.2036	-0.32959341	-0.059759864	-0.059724063	-10.418686	30.188437	0	620.9124567506937
33.113112	0.000010964782	0.16	8640.0061	1051.8018	-0.32634756	-0.059761032	-0.059721778	-9.531651	27.537013	0	623.9624884470832
33.113112	0.000012022644	0.16	7882.6903	960.22621	-0.32310563	-0.059772909	-0.059729867	-8.7223826	25.118881	0	627.0072775191502
33.113112	0.000013182567	0.16	7192.0123	876.70019	-0.31986019	-0.059775335	-0.059728141	-7.9840331	22.913522	0	630.0568399590212
33.113112	0.000014454398	0.16	6562.1065	800.51547	-0.3166148	-0.059777996	-0.059726248	-7.3103649	20.902211	0	633.1063805258109
33.113112	0.000015848932	0.16	5987.6256	731.02606	-0.31336947	-0.059780912	-0.059724172	-6.6956865	19.067873	0	636.155892229153
33.113112	0.000017378008	0.16	5463.6927	667.64287	-0.31012421	-0.05978411	-0.059721896	-6.1348076	17.394937	0	639.2053682290118
33.113112	0.000019054607	0.16	4985.8602	609.82861	-0.30687902	-0.059787617	-0.0597194	-5.6229944	15.869202	0	642.2548115319967
33.113112	0.000020892961	0.16	4550.0717	557.09328	-0.30363391	-0.059791461	-0.059716663	-5.1559297	14.477715	0	645.3042158993931
33.113112	0.000022908677	0.16	4152.6279	508.98998	-0.30038888	-0.059795675	-0.059713661	-4.729676	13.208664	0	648.3535849391325
33.113112	0.000025118864	0.16	3790.1547	465.11115	-0.29714395	-0.059800296	-0.059710369	-4.3406424	12.051275	0	651.4029036181691
33.113112	0.000027542287	0.16	3459.5753	425.08508	-0.29389912	-0.059805362	-0.059706759	-3.985554	10.995724	0	654.4521761457559
33.113112	0.000030199517	0.16	3158.0831	388.57277	-0.2906544	-0.059810916	-0.0597028	-3.661424	10.033051	0	657.5013977864832
33.113112	0.000033113112	0.16	2883.119	355.26505	-0.2874098	-0.059817004	-0.059698458	-3.3655284	9.1550819	0	660.5505642559331
33.113112	0.000036307805	0.16	2632.3487	324.87995	-0.28416534	-0.059823679	-0.059693695	-3.0953828	8.354365	0	663.599662475356
33.113112	0.000039810717	0.16	2403.6434	297.16031	-0.28092103	-0.059830996	-0.059688472	-2.8487215	7.6241026	0	666.6486889119863
33.113112	0.000043651583	0.16	2195.0616	271.87159	-0.27767688	-0.059839019	-0.059682744	-2.6234783	6.9580954	0	669.6976409350407
33.113112	0.000047863009	0.16	2004.8326	248.79992	-0.2744329	-0.059847812	-0.05967646	-2.4177685	6.3506898	0	672.7465168157191
33.113112	0.000052480746	0.16	1831.3417	227.7502	-0.27118912	-0.059857452	-0.059669568	-2.2298734	5.7967295	0	675.795296184245
33.113112	0.000057543994	0.16	1673.116	208.54453	-0.26794555	-0.059868018	-0.059662008	-2.0582255	5.2915118	0	678.8439786647918
33.113112	0.000063095734	0.16	1528.8123	191.02066	-0.26470222	-0.0598796	-0.059653715	-1.9013952	4.8307479	0	681.8925458418789
33.113112	0.000069183097	0.16	1397.2056	175.0306	-0.26145914	-0.059892296	-0.059644618	-1.7580789	4.4105264	0	684.9409989933151
33.113112	0.000075857758	0.16	1277.1788	160.4394	-0.25821634	-0.05990621	-0.059634637	-1.6270873	4.0272801	0	687.9893219585765
33.113112	0.000083176377	0.16	1167.713	147.12397	-0.25497384	-0.059921461	-0.059623688	-1.5073362	3.6777556	0	691.0375085741142
33.113112	0.000091201084	0.16	1067.8788	134.97206	-0.25173168	-0.059938175	-0.059611673	-1.3978363	3.3589856	0	694.0855359896991
33.113112	0.0001	0.16	976.82872	123.8813	-0.24848988	-0.059956493	-0.059598491	-1.2976859	3.0682642	0	697.1334005974002
33.113112	0.00010964782	0.16	893.78992	113.75831	-0.24524848	-0.059976566	-0.059584026	-1.2060621	2.8031234	0	700.1810822529361
33.113112	0.00012022644	0.16	818.05745	104.51795	-0.24200752	-0.059998561	-0.059568151	-1.1222149	2.5613124	0	703.2285624656612
33.113112	0.00013182567	0.16	748.98841	96.082553	-0.23876703	-0.060022663	-0.059550729	-1.0454599	2.3407786	0	706.275833643887
33.113112	0.00014454398	0.16	685.99647	88.381293	-0.23552707	-0.060049069	-0.059531606	-0.97517321	2.1396497	0	709.322862564583
33.113112	0.00015848932	0.16	628.54689	81.349575	-0.23228767	-0.060077999	-0.059510614	-0.91078561	1.9562184	0	712.3696462963054
33.113112	0.00017378008	0.16	576.15199	74.928491	-0.22904889	-0.060109691	-0.059487569	-0.85177811	1.7889276	0	715.4161561259369
33.113112	0.00019054607	0.16	528.367	69.064313	-0.2258108	-0.060144406	-0.059462267	-0.79767734	1.636357	0	718.4623569513162
33.113112	0.00020892961	0.16	484.78626	63.708041	-0.22257344	-0.060182428	-0.059434483	-0.7480516	1.4972116	0	721.5082450141816
33.113112	0.00022908677	0.16	445.03981	58.814988	-0.21933688	-0.060224067	-0.05940397	-0.70250715	1.3703101	0	724.5537916765817
33.113112	0.00025118864	0.16	408.79027	54.344399	-0.2161012	-0.060269663	-0.059370454	-0.66068493	1.2545753	0	727.598962963833
33.113112	0.00027542287	0.16	375.72991	50.259105	-0.21286648	-0.060319585	-0.059333635	-0.62225745	1.1490247	0	730.6437288098443
33.113112	0.00030199517	0.16	345.5781	46.525207	-0.2096328	-0.060374235	-0.05929318	-0.58692606	1.0527623	0	733.6880641094299
33.113112	0.00033113112	0.16	318.07887	43.111791	-0.20640025	-0.060434052	-0.059248722	-0.55441837	0.96497096	0	736.7319394729852
33.113112	0.00036307805	0.16	292.99882	39.990662	-0.20316893	-0.060499515	-0.059199856	-0.52448597	0.88490537	0	739.7753218278101
33.113112	0.00039810717	0.16	270.12503	37.136106	-0.19993894	-0.060571143	-0.059146135	-0.49690231	0.81188589	0	742.8181844150834
33.113112	0.00043651583	0.16	249.26336	34.524674	-0.1967104	-0.060649501	-0.059087063	-0.47146079	0.74529269	0	745.8604890508692
33.113112	0.00047863009	0.16	230.23673	32.134979	-0.19348342	-0.060735201	-0.059022091	-0.44797296	0.68456049	0	748.9022149143996
33.113112	0.00052480746	0.16	212.88365	29.947518	-0.19025814	-0.060828912	-0.058950615	-0.42626698	0.62917376	0	751.9433212661206
33.113112	0.00057543994	0.16	197.05684	27.944504	-0.18703469	-0.060931355	-0.058871963	-0.40618612	0.57866234	0	754.9837869846033
33.113112	0.00063095734	0.16	182.62199	26.109714	-0.18381321	-0.061043313	-0.058785392	-0.38758746	0.5325975	0	758.0235922262276
33.113112	0.00069183097	0.16	169.45659	24.428358	-0.18059386	-0.061165632	-0.058690079	-0.37034063	0.49058825	0	761.0627103825029
33.113112	0.00075857758	0.16	157.44893	22.886943	-0.1773768	-0.06129923	-0.058585115	-0.35432677	0.45227802	0	764.1011277733576
33.113112	0.00083176377	0.16	146.49715	21.473168	-0.1741622	-0.061445094	-0.058469486	-0.33943744	0.41734167	0	767.1388371077643
33.113112	0.00091201084	0.16	136.50833	20.175814	-0.17095022	-0.061604289	-0.058342075	-0.32557376	0.38548269	0	770.1758559743866
33.113112	0.001	0.16	127.39777	18.984652	-0.16774106	-0.061777965	-0.058201645	-0.31264556	0.35643074	0	773.2121824189288
33.113112	0.0010964782	0.16	119.08821	17.890352	-0.1645349	-0.061967353	-0.058046821	-0.30057058	0.3299393	0	776.2478540240045
33.113112	0.0012022644	0.16	111.50923	16.884409	-0.16133192	-0.062173779	-0.057876086	-0.28927382	0.30578361	0	779.2829297191527
33.113112	0.0013182567	0.16	104.59662	15.959067	-0.15813232	-0.062398659	-0.057687761	-0.27868684	0.28375874	0	782.3174739961389
33.113112	0.0014454398	0.16	98.291838	15.107254	-0.15493628	-0.062643513	-0.057479995	-0.26874723	0.26367789	0	785.3515959948743
33.113112	0.0015848932	0.16	92.54153	14.322523	-0.15174398	-0.062909956	-0.057250743	-0.25939808	0.24537076	0	788.3854340193781
33.113112	0.0017378008	0.16	87.297075	13.598997	-0.14855562	-0.063199713	-0.056997758	-0.25058745	0.22868215	0	791.4191379491152
33.113112	0.0019054607	0.16	82.514167	12.931317	-0.14537134	-0.063514616	-0.056718574	-0.24226795	0.21347059	0	794.4529469598411
33.113112	0.0020892961	0.16	78.15245	12.314599	-0.1421913	-0.063856606	-0.056410497	-0.23439634	0.19960719	0	797.4871157113483
33.113112	0.0022908677	0.16	74.175173	11.744391	-0.13901563	-0.064227735	-0.056070589	-0.22693318	0.18697451	0	800.5219637310208
33.113112	0.0025118864	0.16	70.548878	11.216635	-0.13584442	-0.06463017	-0.055695668	-0.21984244	0.17546555	0	803.5578848094883
33.113112	0.0027542287	0.16	67.243118	10.727633	-0.13267773	-0.065066186	-0.055282308	-0.21309123	0.16498285	0	806.5953376049721
33.113112	0.0030199517	0.16	64.2302	10.274014	-0.1295156	-0.065538175	-0.054826847	-0.2066495	0.15543768	0	809.6348350449878
33.113112	0.0033113112	0.16	61.484943	9.8527053	-0.12635797	-0.066048633	-0.054325404	-0.20048981	0.14674919	0	812.6770169359563
33.113112	0.0036307805	0.16	58.984463	9.4609066	-0.12320477	-0.066600167	-0.05377392	-0.19458705	0.13884379	0	815.7225592387729
33.113112	0.0039810717	0.16	56.707977	9.0960639	-0.12005582	-0.06719548	-0.053168199	-0.18891827	0.13165441	0	818.7722618617943
33.113112	0.0043651583	0.16	54.636609	8.7558471	-0.11691087	-0.06783738	-0.052503983	-0.18346245	0.12511997	0	821.8269998034393
33.113112	0.0047863009	0.16	52.753226	8.4381298	-0.11376959	-0.068528759	-0.05177704	-0.17820033	0.11918477	0	824.8877193187632
33.113112	0.0052480746	0.16	51.042277	8.1409687	-0.11063153	-0.069272593	-0.050983287	-0.17311427	0.11379799	0	827.9554570114256
33.113112	0.0057543994	0.16	49.489639	7.8625863	-0.10749612	-0.07007193	-0.050118915	-0.16818805	0.10891317	0	831.0313210423828
33.113112	0.0063095734	0.16	48.082486	7.6013537	-0.10436267	-0.070929876	-0.049180559	-0.16340681	0.10448779	0	834.1164655737106
33.113112	0.0069183097	0.16	46.80915	7.3557751	-0.10123037	-0.071849584	-0.048165461	-0.15875685	0.10048281	0	837.2120662647402
33.113112	0.0075857758	0.16	45.659008	7.1244739	-0.098098251	-0.072834229	-0.047071646	-0.1542256	0.096862318	0	840.3193304569465
33.113112	0.0083176377	0.16	44.622364	6.9061799	-0.094965197	-0.073886991	-0.045898081	-0.14980145	0.093593125	0	843.4394619966209
33.113112	0.0091201084	0.16	43.690353	6.6997174	-0.091829957	-0.07501102	-0.044644804	-0.14547373	0.090644491	0	846.5736305674594
33.113112	0.01	0.16	42.854849	6.5039961	-0.088691134	-0.076209401	-0.043313008	-0.14123257	0.087987838	0	849.7229693980212
33.113112	0.010964782	0.16	42.108385	6.3180021	-0.08554721	-0.077485101	-0.041905046	-0.1370689	0.085596524	0	852.8885510209454
33.113112	0.012022644	0.16	41.444084	6.1407915	-0.082396568	-0.078840906	-0.040424361	-0.13297431	0.083445673	0	856.0713771256426
33.113112	0.013182567	0.16	40.855595	5.9714851	-0.079237529	-0.080279331	-0.038875313	-0.12894108	0.081512033	0	859.272369801547
33.113112	0.014454398	0.16	40.337035	5.809264	-0.076068412	-0.081802512	-0.037262923	-0.12496207	0.079773887	0	862.4923536487928
33.113112	0.015848932	0.16	39.882926	5.6533666	-0.072887614	-0.083412054	-0.035592505	-0.12103069	0.078210977	0	865.7320359345927
33.113112	0.017378008	0.16	39.488132	5.5030858	-0.069693709	-0.085108846	-0.033869245	-0.11714087	0.076804444	0	868.991976865391
33.113112	0.019054607	0.16	39.147773	5.3577662	-0.066485586	-0.086892828	-0.032097696	-0.11328705	0.075536766	0	872.2725358437254
33.113112	0.020892961	0.16	38.857135	5.2168018	-0.06326262	-0.088762687	-0.030281224	-0.10946412	0.074391687	0	875.5737940856247
33.113112	0.022908677	0.16	38.61156	5.0796321	-0.06002487	-0.090715514	-0.028421431	-0.10566743	0.073354105	0	878.8954553273428
33.113112	0.025118864	0.16	38.406322	4.9457391	-0.056773301	-0.092746375	-0.026517534	-0.1018928	0.072409942	0	882.2367305970641
33.113112	0.027542287	0.16	38.236517	4.8146417	-0.05351002	-0.094847863	-0.024565766	-0.098136505	0.071545966	0	885.5962065254237
33.113112	0.030199517	0.16	38.09698	4.6858912	-0.05023848	-0.097009596	-0.022558768	-0.094395333	0.070749585	0	888.9717450750938
33.113112	0.033113112	0.16	37.982276	4.5590655	-0.046963599	-0.099217749	-0.020485056	-0.090666578	0.070008619	0	892.3604518586397
33.113112	0.036307805	0.16	37.886839	4.4337627	-0.043691703	-0.10145468	-0.018328621	-0.086948076	0.069311071	0	895.7587898259277
33.113112	0.039810717	0.16	37.805329	4.3095961	-0.040430172	-0.1036987	-0.016068707	-0.083238206	0.068644937	0	899.1629452436193
33.113112	0.043651583	0.16	37.733325	4.18619	-0.037186639	-0.10592417	-0.013679912	-0.079535831	0.067998112	0	902.5695651036415
33.113112	0.047863009	0.16	37.668433	4.0631778	-0.033967586	-0.10810197	-0.011132701	-0.075840157	0.067358466	0	905.9769991534131
33.113112	0.052480746	0.16	37.61184	3.9402038	-0.030776264	-0.11020042	-0.0083943653	-0.072150468	0.066714179	0	909.387109979768
33.113112	0.057543994	0.16	37.570238	3.8169289	-0.027609966	-0.11218669	-0.0054305	-0.068465673	0.066054394	0	912.8076130904138
33.113112	0.063095734	0.16	37.557848	3.6930406	-0.024456939	-0.11402865	-0.0022068592	-0.064783677	0.065370195	0	916.2546993986724
33.113112	0.069183097	0.16	37.598099	3.5682649	-0.021293427	-0.11569691	0.0013085079	-0.061100548	0.064655853	0	919.7554923973321
33.113112	0.075857758	0.16	37.724409	3.4423771	-0.018081534	-0.11716707	0.0051430151	-0.057409568	0.063910168	0	923.3497189839509
33.113112	0.083176377	0.16	37.979556	3.3152106	-0.014768563	-0.1184219	0.009317272	-0.053700274	0.063137732	0	927.0899896843439
33.113112	0.091201084	0.16	38.413286	3.1866641	-0.011288359	-0.11945379	0.013842633	-0.04995764	0.062349998	0	931.0401683563699
33.113112	0.1	0.16	39.078002	3.0567119	-0.0075649231	-0.12026775	0.018718157	-0.046161592	0.061566138	0	935.2715194571149
33.113112	0.10964782	0.16	40.022501	2.9254246	-0.0035183416	-0.12088617	0.023925827	-0.042287035	0.060813737	0	939.8564186262636
33.113112	0.12022644	0.16	41.284159	2.7930016	0.00092750998	-0.12135719	0.029422146	-0.038304583	0.060129206	0	944.8598508636657
33.113112	0.13182567	0.16	42.881704	2.6598045	0.0058380371	-0.12176881	0.035124023	-0.034182057	0.059557465	0	950.3307777653189
33.113112	0.14454398	0.16	44.815294	2.5263659	0.011269112	-0.1222678	0.040889852	-0.029886411	0.05915033	0	956.3004072574016
33.113112	0.15848932	0.16	45.463352	2.3948428	0.015578536	-0.12342301	0.046156149	-0.025424122	0.05897735	0	961.1410775557015
33.113112	0.17378008	0.16	48.565632	2.2689595	0.022860963	-0.12611614	0.050046864	-0.020821006	0.059143959	0	968.5682865889221
33.113112	0.19054607	0.16	52.424791	2.1446427	0.03134391	-0.12932079	0.053594196	-0.015877873	0.059705794	0	977.0718416931516
33.113112	0.20892961	0.16	57.20245	2.0226541	0.041297513	-0.13314467	0.056696515	-0.010512867	0.060771556	0	986.8902752095353
33.113112	0.22908677	0.16	63.090367	1.9038885	0.053039656	-0.13768515	0.059262696	-0.0046267735	0.062471991	0	998.3085610669889
33.113112	0.25118864	0.16	70.301924	1.7893358	0.06692811	-0.14302049	0.061220952	0.0018995827	0.064961164	0	1011.6520567279027
33.113112	0.27542287	0.16	79.054201	1.6800123	0.083341119	-0.14919952	0.062529144	0.0092066633	0.068415355	0	1027.2698123734363
33.113112	0.30199517	0.16	89.541205	1.5768641	0.10264643	-0.15623162	0.063184773	0.017455324	0.073028764	0	1045.506974666547
33.113112	0.33113112	0.16	101.90277	1.4806598	0.12516334	-0.16408019	0.063231558	0.026823038	0.079005947	0	1066.6701163019995
33.113112	0.36307805	0.16	116.1972	1.3918983	0.15112692	-0.17266283	0.06275923	0.037497172	0.086551858	0	1090.9935911483308
33.113112	0.39810717	0.16	132.38656	1.3107604	0.18066488	-0.18185997	0.061894889	0.049666142	0.095861287	0	1118.6164980973472
33.113112	0.43651583	0.16	150.33962	1.2371154	0.21379376	-0.1915306	0.060787315	0.063509977	0.10710965	0	1149.5767437251816
33.113112	0.47863009	0.16	169.85101	1.1705748	0.25043401	-0.20153088	0.059588362	0.079191997	0.12044658	0	1183.8224138893065
33.113112	0.52480746	0.16	190.66985	1.1105731	0.2904372	-0.21173074	0.058436319	0.096852914	0.13599285	0	1221.2348379532514
33.113112	0.57543994	0.16	212.52938	1.0564493	0.33361638	-0.22202524	0.057444609	0.11660784	0.15384029	0	1261.6554151061448
33.113112	0.63095734	0.16	235.17154	1.0075157	0.37977271	-0.23233949	0.056696843	0.13854598	0.17405387	0	1304.9098914535489
33.113112	0.69183097	0.16	258.36379	0.96310642	0.4287151	-0.24262824	0.056247259	0.16273241	0.19667518	0	1350.826879076005
33.113112	0.75857758	0.16	281.90822	0.92260716	0.4802722	-0.25287192	0.056124663	0.18921105	0.2217265	0	1399.249713869906
33.113112	0.83176377	0.16	305.64467	0.88547043	0.53429851	-0.26307115	0.056337957	0.21800826	0.2492149	0	1450.0430273185468
33.113112	0.91201084	0.16	329.44979	0.85121998	0.59067607	-0.27324101	0.056881832	0.24913652	0.27913608	0	1503.09519018885
33.113112	1.	0.16	353.23373	0.81944886	0.64931365	-0.2834061	0.057741786	0.28259792	0.31147777	0	1558.3183058416616
33.113112	1.0964782	0.16	376.93578	0.78981382	0.7101445	-0.29359649	0.058898122	0.31838718	0.3462226	0	1615.6466972308783
33.113112	1.2022644	0.16	400.51969	0.76202785	0.77312359	-0.30384482	0.060328868	0.35649432	0.38335047	0	1675.0347526680102
33.113112	1.3182567	0.16	423.96932	0.73585244	0.83822476	-0.31418434	0.062011788	0.3969068	0.42284046	0	1736.4545503754814
33.113112	1.4454398	0.16	447.28461	0.71108993	0.90543808	-0.3246476	0.063925643	0.43961136	0.46467231	0	1799.8935676008114
33.113112	1.5848932	0.16	470.47819	0.68757671	0.97476747	-0.33526576	0.066050924	0.48459536	0.50882763	0	1865.3525546433057
33.113112	1.7378008	0.16	493.57253	0.66517727	1.0462287	-0.34606827	0.068370212	0.53184788	0.55529073	0	1932.8437098423217
33.113112	1.9054607	0.16	516.59752	0.64377905	1.1198478	-0.35708269	0.070868287	0.58136062	0.60404933	0	2002.3892020543788
33.113112	2.0892961	0.16	539.58865	0.62328821	1.1956594	-0.36833481	0.073532094	0.63312847	0.65509502	0	2074.019605863445
33.113112	2.2908677	0.16	562.58541	0.60362615	1.2737059	-0.37984876	0.076350621	0.68715003	0.70842364	0	2147.7731034013777
33.113112	2.5118864	0.16	585.63013	0.58472664	1.3540365	-0.39164718	0.079314723	0.74342791	0.76403544	0	2223.6945465113786
33.113112	2.7542287	0.16	608.76704	0.56653348	1.4367064	-0.40375145	0.082416951	0.80196896	0.82193531	0	2301.8346793892
33.113112	3.0199517	0.16	632.0415	0.54899864	1.5217758	-0.41618184	0.085651356	0.86278444	0.8821328	0	2382.249169553028
33.113112	3.3113112	0.16	655.49951	0.53208075	1.6093104	-0.42895772	0.089013325	0.92589007	0.9446422	0	2464.999052971966
33.113112	3.6307805	0.16	679.18727	0.51574387	1.6993801	-0.44209775	0.092499419	0.99130613	1.0094825	0	2550.1494882775396
33.113112	3.9810717	0.16	703.15087	0.49995651	1.7920591	-0.45562	0.09610723	1.0590574	1.0766774	0	2637.7698292229816
33.113112	4.3651583	0.16	727.43611	0.48469086	1.8874257	-0.46954212	0.099835256	1.1291731	1.1462551	0	2727.9334179788516
33.113112	4.7863009	0.16	752.08831	0.46992212	1.9855619	-0.48388146	0.10368279	1.2016871	1.2182486	0	2820.7171926202172
33.113112	5.2480746	0.16	777.15227	0.45562799	2.0865537	-0.49865515	0.10764983	1.2766375	1.2926952	0	2916.201955466517
33.113112	5.7543994	0.16	802.67219	0.4417883	2.1904906	-0.51388025	0.111737	1.3540669	1.3696368	0	3014.471891422782
33.113112	6.3095734	0.16	828.6917	0.42838461	2.2974655	-0.52957378	0.11594547	1.434022	1.4491196	0	3115.614461996659
33.113112	6.9183097	0.16	855.25383	0.41539997	2.4075751	-0.54575286	0.12027688	1.516554	1.531194	0	3219.720769699442
33.113112	7.5857758	0.16	882.40108	0.40281869	2.5209197	-0.56243471	0.12473335	1.6017182	1.6159148	0	3326.8853716363024
33.113112	8.3176377	0.16	910.17544	0.39062615	2.6376029	-0.57963676	0.12931737	1.689574	1.7033408	0	3437.2059811003355
33.113112	9.1201084	0.16	938.61849	0.37880866	2.757732	-0.59737669	0.13403179	1.7801848	1.7935352	0	3550.783841895396
33.113112	10.	0.16	967.77143	0.36735336	2.8814179	-0.61567248	0.13887981	1.8736183	1.886565	0	3667.7236328762583