36.307805	1.e-12	0.31	1.364108e11	1.5028467e10	-0.9802208	-0.010885561	-0.010885561	-1.45185e8	4.3556296e8	0	15.413265232137476
36.307805	1.0964782e-12	0.31	1.2440813e11	1.3706125e10	-0.97848241	-0.011782876	-0.011782876	-1.324103e8	3.9723814e8	0	16.785239555493032
36.307805	1.2022644e-12	0.31	1.1346156e11	1.2500134e10	-0.97662075	-0.012727501	-0.012727501	-1.2075963e8	3.6228548e8	0	18.259254340163455
36.307805	1.3182567e-12	0.31	1.0347817e11	1.1400258e10	-0.97463376	-0.013715662	-0.013715662	-1.1013409e8	3.3040829e8	0	19.838344325855356
36.307805	1.4454398e-12	0.31	9.4373213e10	1.0397159e10	-0.97252073	-0.01474215	-0.01474215	-1.0044348e8	3.0133594e8	0	21.52469380469867
36.307805	1.5848932e-12	0.31	8.6069393e10	9.4823215e9	-0.97028231	-0.015800282	-0.015800282	-9.1605544e7	2.7482164e8	0	23.31963858493862
36.307805	1.7378008e-12	0.31	7.849622e10	8.64798e9	-0.96792065	-0.016881963	-0.016881963	-8.3545249e7	2.5064032e8	0	25.223516393340017
36.307805	1.9054607e-12	0.31	7.1589404e10	7.8870516e9	-0.96543934	-0.01797784	-0.01797784	-7.6194174e7	2.2858669e8	0	27.23567839425938
36.307805	2.0892961e-12	0.31	6.5290312e10	7.1930765e9	-0.9628433	-0.01907756	-0.01907756	-6.9489912e7	2.0847354e8	0	29.354517395395774
36.307805	2.2908677e-12	0.31	5.9545472e10	6.5601637e9	-0.96013867	-0.020170121	-0.020170121	-6.3375553e7	1.9013012e8	0	31.577468965874246
36.307805	2.5118864e-12	0.31	5.4306116e10	5.9829405e9	-0.95733251	-0.021244297	-0.021244297	-5.7799192e7	1.7340073e8	0	33.90116951811575
36.307805	2.7542287e-12	0.31	4.9527767e10	5.4565066e9	-0.95443257	-0.022289108	-0.022289108	-5.2713489e7	1.5814335e8	0	36.32153551319604
36.307805	3.0199517e-12	0.31	4.5169861e10	4.9763932e9	-0.95144703	-0.023294289	-0.023294289	-4.8075274e7	1.4422845e8	0	38.833871144430816
36.307805	3.3113112e-12	0.31	4.1195402e10	4.5385245e9	-0.94838418	-0.02425072	-0.02425072	-4.3845171e7	1.3153791e8	0	41.433043754225864
36.307805	3.6307805e-12	0.31	3.7570653e10	4.1391835e9	-0.94525224	-0.025150788	-0.025150788	-3.9987271e7	1.19964e8	0	44.113547517817324
36.307805	3.9810717e-12	0.31	3.4264843e10	3.7749802e9	-0.94205912	-0.025988646	-0.025988646	-3.6468825e7	1.0940847e8	0	46.86965350125298
36.307805	4.3651583e-12	0.31	3.1249908e10	3.4428229e9	-0.93881228	-0.026760346	-0.026760346	-3.3259964e7	9.9781708e7	0	49.695502462262496
36.307805	4.7863009e-12	0.31	2.8500255e10	3.1398918e9	-0.93551863	-0.027463851	-0.027463851	-3.0333447e7	9.1001999e7	0	52.585195311609
36.307805	5.2480746e-12	0.31	2.5992541e10	2.8636153e9	-0.93218446	-0.028098931	-0.028098931	-2.7664433e7	8.2994809e7	0	55.532889174250336
36.307805	5.7543994e-12	0.31	2.370548e10	2.6116483e9	-0.92881542	-0.028666959	-0.028666959	-2.5230263e7	7.5692166e7	0	58.53287559875915
36.307805	6.3095734e-12	0.31	2.1619654e10	2.3818515e9	-0.92541651	-0.029170649	-0.029170649	-2.3010273e7	6.9032075e7	0	61.5796662644737
36.307805	6.9183097e-12	0.31	1.9717359e10	2.1722744e9	-0.92199217	-0.029613743	-0.029613743	-2.0985619e7	6.2958002e7	0	64.66799958664292
36.307805	7.5857758e-12	0.31	1.7982445e10	1.9811378e9	-0.91854621	-0.030000711	-0.030000711	-1.9139112e7	5.7418379e7	0	67.79299386557767
36.307805	8.3176377e-12	0.31	1.6400185e10	1.8068191e9	-0.91508196	-0.030336451	-0.030336451	-1.7455077e7	5.2366184e7	0	70.95009373142643
36.307805	9.1201084e-12	0.31	1.4957147e10	1.6478387e9	-0.91160227	-0.030626043	-0.030626042	-1.591922e7	4.7758528e7	0	74.13514208669359
36.307805	1.e-11	0.31	1.364108e10	1.5028467e9	-0.90810959	-0.030874536	-0.030874536	-1.4518501e7	4.3556295e7	0	77.34436552418592
36.307805	1.0964782e-11	0.31	1.2440812e10	1.3706125e9	-0.90460598	-0.031086792	-0.031086792	-1.324103e7	3.9723813e7	0	80.57441328139123
36.307805	1.2022644e-11	0.31	1.1346156e10	1.2500134e9	-0.90109321	-0.031267376	-0.031267375	-1.2075963e7	3.6228548e7	0	83.82229270173507
36.307805	1.3182567e-11	0.31	1.0347817e10	1.1400258e9	-0.89757275	-0.031420485	-0.031420485	-1.101341e7	3.3040829e7	0	87.08539931006709
36.307805	1.4454398e-11	0.31	9.4373214e9	1.0397159e9	-0.89404588	-0.031549915	-0.031549915	-1.0044349e7	3.0133594e7	0	90.36142569361401
36.307805	1.5848932e-11	0.31	8.6069395e9	9.4823218e8	-0.89051363	-0.031659051	-0.031659051	-9.1605553e6	2.7482164e7	0	93.64841787589985
36.307805	1.7378008e-11	0.31	7.849622e9	8.6479802e8	-0.88697689	-0.031750876	-0.031750876	-8.3545257e6	2.5064032e7	0	96.94467079949703
36.307805	1.9054607e-11	0.31	7.1589405e9	7.8870519e8	-0.88343641	-0.031827992	-0.031827992	-7.6194182e6	2.2858669e7	0	100.24872191819061
36.307805	2.0892961e-11	0.31	6.5290312e9	7.1930767e8	-0.87989281	-0.031892657	-0.031892657	-6.948992e6	2.0847354e7	0	103.55933102450967
36.307805	2.2908677e-11	0.31	5.9545473e9	6.560164e8	-0.8763466	-0.031946808	-0.031946808	-6.3375562e6	1.9013013e7	0	106.87545475932015
36.307805	2.5118864e-11	0.31	5.4306116e9	5.9829406e8	-0.87279823	-0.031992106	-0.031992106	-5.7799199e6	1.7340073e7	0	110.19618652662008
36.307805	2.7542287e-11	0.31	4.9527767e9	5.4565068e8	-0.86924804	-0.032029961	-0.032029961	-5.2713498e6	1.5814335e7	0	113.52079619017607
36.307805	3.0199517e-11	0.31	4.5169861e9	4.9763933e8	-0.86569635	-0.032061573	-0.032061573	-4.8075282e6	1.4422845e7	0	116.84863357076586
36.307805	3.3113112e-11	0.31	4.1195403e9	4.5385247e8	-0.8621434	-0.032087954	-0.032087953	-4.3845179e6	1.3153791e7	0	120.17917870352915
36.307805	3.6307805e-11	0.31	3.7570653e9	4.1391837e8	-0.85858941	-0.032109957	-0.032109956	-3.9987279e6	1.19964e7	0	123.51197585229285
36.307805	3.9810717e-11	0.31	3.4264844e9	3.7749805e8	-0.85503454	-0.0321283	-0.032128299	-3.6468833e6	1.0940847e7	0	126.84666584941071
36.307805	4.3651583e-11	0.31	3.1249909e9	3.4428231e8	-0.85147896	-0.032143586	-0.032143586	-3.3259971e6	9.9781708e6	0	130.18291304455698
36.307805	4.7863009e-11	0.31	2.8500255e9	3.139892e8	-0.84792277	-0.032156321	-0.032156321	-3.0333455e6	9.1002e6	0	133.52047668350647
36.307805	5.2480746e-11	0.31	2.5992542e9	2.8636156e8	-0.84436608	-0.032166928	-0.032166928	-2.7664441e6	8.299481e6	0	136.85912991760108
36.307805	5.7543994e-11	0.31	2.370548e9	2.6116485e8	-0.84080898	-0.03217576	-0.032175759	-2.5230271e6	7.5692167e6	0	140.19868566058827
36.307805	6.3095734e-11	0.31	2.1619655e9	2.3818517e8	-0.83725152	-0.032183113	-0.032183113	-2.3010281e6	6.9032076e6	0	143.53900984588824
36.307805	6.9183097e-11	0.31	1.971736e9	2.1722746e8	-0.83369378	-0.032189233	-0.032189233	-2.0985627e6	6.2958002e6	0	146.8799565308152
36.307805	7.5857758e-11	0.31	1.7982446e9	1.981138e8	-0.8301358	-0.032194328	-0.032194327	-1.913912e6	5.741838e6	0	150.2214275495815
36.307805	8.3176377e-11	0.31	1.6400185e9	1.8068194e8	-0.82657762	-0.032198566	-0.032198566	-1.7455085e6	5.2366185e6	0	153.56333551321364
36.307805	9.1201084e-11	0.31	1.4957147e9	1.6478389e8	-0.82301927	-0.032202095	-0.032202094	-1.5919228e6	4.7758528e6	0	156.9056102925542
36.307805	1.e-10	0.31	1.364108e9	1.5028469e8	-0.81946079	-0.03220503	-0.032205029	-1.4518509e6	4.3556296e6	0	160.24817993568843
36.307805	1.0964782e-10	0.31	1.2440813e9	1.3706127e8	-0.81590218	-0.032207472	-0.032207471	-1.3241038e6	3.9723814e6	0	163.5910153160907
36.307805	1.2022644e-10	0.31	1.1346156e9	1.2500137e8	-0.81234349	-0.032209504	-0.032209503	-1.2075971e6	3.6228549e6	0	166.934045280477
36.307805	1.3182567e-10	0.31	1.0347818e9	1.140026e8	-0.80878471	-0.032211194	-0.032211194	-1.1013417e6	3.3040829e6	0	170.27725912719785
36.307805	1.4454398e-10	0.31	9.4373217e8	1.0397161e8	-0.80522587	-0.032212601	-0.0322126	-1.0044357e6	3.0133594e6	0	173.6206123584384
36.307805	1.5848932e-10	0.31	8.6069398e8	9.4823239e7	-0.80166697	-0.032213771	-0.03221377	-916056.28	2.7482165e6	0	176.96409070220096
36.307805	1.7378008e-10	0.31	7.8496224e8	8.6479823e7	-0.79810803	-0.032214744	-0.032214743	-835453.33	2.5064032e6	0	180.30766400783344
36.307805	1.9054607e-10	0.31	7.1589408e8	7.8870539e7	-0.79454905	-0.032215553	-0.032215552	-761942.57	2.2858669e6	0	183.65132266358233
36.307805	2.0892961e-10	0.31	6.5290316e8	7.1930789e7	-0.79099004	-0.032216226	-0.032216225	-694899.95	2.0847354e6	0	186.99504911836686
36.307805	2.2908677e-10	0.31	5.9545476e8	6.560166e7	-0.787431	-0.032216787	-0.032216786	-633756.35	1.9013013e6	0	190.33883638182084
36.307805	2.5118864e-10	0.31	5.430612e8	5.9829427e7	-0.78387193	-0.032217253	-0.032217251	-577992.73	1.7340074e6	0	193.68267979370012
36.307805	2.7542287e-10	0.31	4.9527771e8	5.4565088e7	-0.78031286	-0.03221764	-0.032217639	-527135.71	1.5814336e6	0	197.02654563300428
36.307805	3.0199517e-10	0.31	4.5169864e8	4.9763954e7	-0.77675376	-0.032217963	-0.032217961	-480753.55	1.4422845e6	0	200.3704588827761
36.307805	3.3113112e-10	0.31	4.1195406e8	4.5385268e7	-0.77319465	-0.03221823	-0.032218228	-438452.52	1.3153792e6	0	203.71439754779055
36.307805	3.6307805e-10	0.31	3.7570657e8	4.1391857e7	-0.76963553	-0.032218454	-0.032218452	-399873.52	1.19964e6	0	207.05835813286467
36.307805	3.9810717e-10	0.31	3.4264847e8	3.7749825e7	-0.76607641	-0.032218639	-0.032218637	-364689.05	1.0940847e6	0	210.4023300772838
36.307805	4.3651583e-10	0.31	3.1249912e8	3.4428251e7	-0.76251727	-0.032218794	-0.032218792	-332600.44	997817.13	0	213.74632955096772
36.307805	4.7863009e-10	0.31	2.8500259e8	3.139894e7	-0.75895814	-0.032218922	-0.03221892	-303335.27	910020.05	0	217.0903274931602
36.307805	5.2480746e-10	0.31	2.5992545e8	2.8636175e7	-0.75539899	-0.032219029	-0.032219026	-276645.12	829948.15	0	220.43435063449525
36.307805	5.7543994e-10	0.31	2.3705483e8	2.6116505e7	-0.75183984	-0.032219117	-0.032219114	-252303.42	756921.72	0	223.77837901860497
36.307805	6.3095734e-10	0.31	2.1619658e8	2.3818537e7	-0.74828069	-0.032219192	-0.032219188	-230103.52	690320.82	0	227.1224114804284
36.307805	6.9183097e-10	0.31	1.9717363e8	2.1722766e7	-0.74472153	-0.032219253	-0.032219249	-209856.97	629580.07	0	230.46645712435367
36.307805	7.5857758e-10	0.31	1.7982449e8	1.98114e7	-0.74116238	-0.032219305	-0.0322193	-191391.9	574183.85	0	233.8104962852779
36.307805	8.3176377e-10	0.31	1.6400189e8	1.8068213e7	-0.73760322	-0.032219346	-0.032219341	-174551.55	523661.91	0	237.15454775450831
36.307805	9.1201084e-10	0.31	1.495715e8	1.6478408e7	-0.73404406	-0.032219382	-0.032219377	-159192.97	477585.34	0	240.49860068006507
36.307805	1.e-9	0.31	1.3641083e8	1.5028489e7	-0.73048489	-0.032219412	-0.032219406	-145185.78	435563.01	0	243.84266504013198
36.307805	1.0964782e-9	0.31	1.2440816e8	1.3706146e7	-0.72692573	-0.032219436	-0.03221943	-132411.07	397238.19	0	247.1867214608718
36.307805	1.2022644e-9	0.31	1.1346159e8	1.2500156e7	-0.72336656	-0.032219457	-0.03221945	-120760.4	362285.54	0	250.53078844232616
36.307805	1.3182567e-9	0.31	1.0347821e8	1.1400279e7	-0.7198074	-0.032219473	-0.032219466	-110134.86	330408.35	0	253.874847193188
36.307805	1.4454398e-9	0.31	9.437325e7	1.039718e7	-0.71624823	-0.032219488	-0.03221948	-100444.25	301336.	0	257.21891592223386
36.307805	1.5848932e-9	0.31	8.6069431e7	9.4823429e6	-0.71268906	-0.032219499	-0.03221949	-91606.305	274821.7	0	260.5629858163408
36.307805	1.7378008e-9	0.31	7.8496257e7	8.6480012e6	-0.7091299	-0.03221951	-0.0322195	-83546.006	250640.38	0	263.9070463147943
36.307805	1.9054607e-9	0.31	7.158944e7	7.8870726e6	-0.70557073	-0.032219518	-0.032219507	-76194.927	228586.75	0	267.25111708269685
36.307805	2.0892961e-9	0.31	6.5290349e7	7.1930975e6	-0.70201156	-0.032219524	-0.032219512	-69490.662	208473.6	0	270.59518843313015
36.307805	2.2908677e-9	0.31	5.9545509e7	6.5601846e6	-0.69845239	-0.032219531	-0.032219517	-63376.299	190130.18	0	273.9392597835633
36.307805	2.5118864e-9	0.31	5.4306153e7	5.9829612e6	-0.69489322	-0.032219535	-0.03221952	-57799.934	173400.79	0	277.2833317165271
36.307805	2.7542287e-9	0.31	4.9527803e7	5.4565272e6	-0.69133406	-0.032219539	-0.032219523	-52714.228	158143.41	0	280.6273942538373
36.307805	3.0199517e-9	0.31	4.5169896e7	4.9764137e6	-0.68777489	-0.032219543	-0.032219525	-48076.009	144228.51	0	283.9714664780662
36.307805	3.3113112e-9	0.31	4.1195439e7	4.538545e6	-0.68421572	-0.032219545	-0.032219526	-43845.903	131537.97	0	287.3155389935605
36.307805	3.6307805e-9	0.31	3.7570689e7	4.1392039e6	-0.68065655	-0.032219548	-0.032219527	-39987.999	119964.06	0	290.65961150905474
36.307805	3.9810717e-9	0.31	3.4264879e7	3.7750005e6	-0.67709738	-0.03221955	-0.032219527	-36469.549	109408.53	0	294.00368431581427
36.307805	4.3651583e-9	0.31	3.1249945e7	3.4428431e6	-0.67353821	-0.032219551	-0.032219526	-33260.685	99781.768	0	297.347757413839
36.307805	4.7863009e-9	0.31	2.8500291e7	3.1399119e6	-0.66997904	-0.032219554	-0.032219526	-30334.165	91002.059	0	300.6918302205985
36.307805	5.2480746e-9	0.31	2.5992578e7	2.8636354e6	-0.66641987	-0.032219555	-0.032219525	-27665.147	82994.869	0	304.03590331862324
36.307805	5.7543994e-9	0.31	2.3705516e7	2.6116682e6	-0.6628607	-0.032219556	-0.032219523	-25230.973	75692.225	0	307.3799767079133
36.307805	6.3095734e-9	0.31	2.1619691e7	2.3818714e6	-0.65930153	-0.032219557	-0.03221952	-23010.98	69032.136	0	310.7240503884685
36.307805	6.9183097e-9	0.31	1.9717395e7	2.1722942e6	-0.65574237	-0.032219557	-0.032219517	-20986.322	62958.062	0	314.0681146733703
36.307805	7.5857758e-9	0.31	1.7982481e7	1.9811575e6	-0.6521832	-0.032219559	-0.032219515	-19139.812	57418.44	0	317.41218806266033
36.307805	8.3176377e-9	0.31	1.6400221e7	1.8068387e6	-0.64862403	-0.03221956	-0.032219512	-17455.774	52366.245	0	320.7562617432156
36.307805	9.1201084e-9	0.31	1.4957183e7	1.6478581e6	-0.64506486	-0.032219561	-0.032219508	-15919.912	47758.588	0	324.1003357150362
36.307805	1.e-8	0.31	1.3641116e7	1.5028661e6	-0.64150569	-0.032219561	-0.032219504	-14519.19	43556.355	0	327.4444096868567
36.307805	1.0964782e-8	0.31	1.2440849e7	1.3706318e6	-0.63794652	-0.032219562	-0.032219499	-13241.716	39723.873	0	330.7884839499425
36.307805	1.2022644e-8	0.31	1.1346192e7	1.2500327e6	-0.63438735	-0.032219563	-0.032219493	-12076.646	36228.609	0	334.1325585042935
36.307805	1.3182567e-8	0.31	1.0347853e7	1.1400449e6	-0.63082818	-0.032219565	-0.032219489	-11014.088	33040.889	0	337.47663247611405
36.307805	1.4454398e-8	0.31	9.4373577e6	1.0397349e6	-0.62726901	-0.032219565	-0.032219482	-10045.024	30133.654	0	340.82070732173037
36.307805	1.5848932e-8	0.31	8.6069757e6	948251.11	-0.62370984	-0.032219566	-0.032219474	-9161.2267	27482.224	0	344.16478245861197
36.307805	1.7378008e-8	0.31	7.8496584e6	864816.87	-0.62015067	-0.032219567	-0.032219467	-8355.1937	25064.092	0	347.50885730422823
36.307805	1.9054607e-8	0.31	7.1589766e6	788723.92	-0.6165915	-0.032219568	-0.032219458	-7620.0824	22858.729	0	350.85293273237517
36.307805	2.0892961e-8	0.31	6.5290675e6	719326.33	-0.61303234	-0.032219569	-0.032219449	-6949.6528	20847.414	0	354.19699876486845
36.307805	2.2908677e-8	0.31	5.9545836e6	656034.96	-0.60947317	-0.032219571	-0.032219439	-6338.2133	19013.073	0	357.54107448428044
36.307805	2.5118864e-8	0.31	5.4306479e6	598312.53	-0.605914	-0.032219573	-0.032219428	-5780.5735	17340.133	0	360.8851504949579
36.307805	2.7542287e-8	0.31	4.952813e6	545669.05	-0.60235483	-0.032219574	-0.032219415	-5271.9998	15814.395	0	364.22922708816566
36.307805	3.0199517e-8	0.31	4.5170223e6	497657.62	-0.59879566	-0.032219576	-0.032219402	-4808.1746	14422.905	0	367.5733036813736
36.307805	3.3113112e-8	0.31	4.1195765e6	453870.66	-0.59523649	-0.032219577	-0.032219386	-4385.1608	13153.851	0	370.91738114837716
36.307805	3.6307805e-8	0.31	3.7571016e6	413936.48	-0.59167732	-0.032219579	-0.03221937	-3999.3673	11996.46	0	374.2614586153809
36.307805	3.9810717e-8	0.31	3.4265206e6	377516.06	-0.58811816	-0.032219581	-0.032219351	-3647.5192	10940.907	0	377.6055275605268
36.307805	4.3651583e-8	0.31	3.1250271e6	344300.23	-0.58455899	-0.032219584	-0.032219332	-3326.6294	9978.231	0	380.9496059013261
36.307805	4.7863009e-8	0.31	2.8500618e6	314007.03	-0.58099982	-0.032219587	-0.032219311	-3033.9743	9100.2601	0	384.2936848246561
36.307805	5.2480746e-8	0.31	2.5992904e6	286379.29	-0.57744065	-0.03221959	-0.032219287	-2767.0692	8299.5411	0	387.6377646217818
36.307805	5.7543994e-8	0.31	2.3705843e6	261182.49	-0.57388148	-0.032219593	-0.032219261	-2523.6487	7569.2768	0	390.98184500143793
36.307805	6.3095734e-8	0.31	2.1620017e6	238202.72	-0.57032232	-0.032219597	-0.032219233	-2301.6461	6903.2677	0	394.32591656797126
36.307805	6.9183097e-8	0.31	1.9717722e6	217244.92	-0.56676315	-0.032219601	-0.032219201	-2099.1771	6295.8603	0	397.669998695219
36.307805	7.5857758e-8	0.31	1.7982808e6	198131.17	-0.56320398	-0.032219605	-0.032219167	-1914.5229	5741.8982	0	401.0140814049973
36.307805	8.3176377e-8	0.31	1.6400548e6	180699.21	-0.55964481	-0.03221961	-0.03221913	-1746.1159	5236.6786	0	404.35816498857133
36.307805	9.1201084e-8	0.31	1.4957509e6	164801.07	-0.55608565	-0.032219615	-0.032219089	-1592.5266	4775.913	0	407.70224034155297
36.307805	1.e-7	0.31	1.3641443e6	150301.78	-0.55252648	-0.03221962	-0.032219043	-1452.4512	4355.6898	0	411.0463265465143
36.307805	1.0964782e-7	0.31	1.2441176e6	137078.27	-0.54896732	-0.032219626	-0.032218993	-1324.7006	3972.4416	0	414.39040452088324
36.307805	1.2022644e-7	0.31	1.1346519e6	125018.27	-0.54540815	-0.032219633	-0.032218939	-1208.1903	3622.915	0	417.73449305596677
36.307805	1.3182567e-7	0.31	1.034818e6	114019.42	-0.54184899	-0.03221964	-0.032218879	-1101.9313	3304.1431	0	421.07857394298827
36.307805	1.4454398e-7	0.31	943768.45	103988.34	-0.53828982	-0.032219648	-0.032218814	-1005.0217	3013.4196	0	424.4226656819895
36.307805	1.5848932e-7	0.31	860730.25	94839.871	-0.53473066	-0.032219657	-0.032218742	-916.6388	2748.2767	0	427.7667500641941
36.307805	1.7378008e-7	0.31	784998.51	86496.362	-0.53117149	-0.032219667	-0.032218665	-836.03228	2506.4634	0	431.11084529837854
36.307805	1.9054607e-7	0.31	715930.35	78886.987	-0.52761233	-0.032219677	-0.032218578	-762.51797	2285.9271	0	434.45493404956204
36.307805	2.0892961e-7	0.31	652939.43	71947.144	-0.52405317	-0.032219689	-0.032218483	-695.4718	2084.7956	0	437.7990251308676
36.307805	2.2908677e-7	0.31	595491.03	65617.924	-0.52049401	-0.032219702	-0.03221838	-634.32465	1901.3615	0	441.14311854229527
36.307805	2.5118864e-7	0.31	543097.47	59845.599	-0.51693485	-0.032219715	-0.032218266	-578.55747	1734.0676	0	444.4872151576408
36.307805	2.7542287e-7	0.31	495313.98	54581.167	-0.51337569	-0.032219731	-0.032218142	-527.69689	1581.4937	0	447.83131468563863
36.307805	3.0199517e-7	0.31	451734.91	49779.941	-0.50981653	-0.032219748	-0.032218006	-481.31117	1442.3447	0	451.1754177088199
36.307805	3.3113112e-7	0.31	411990.33	45401.162	-0.50625737	-0.032219767	-0.032217856	-439.00658	1315.4393	0	454.51952480971465
36.307805	3.6307805e-7	0.31	375742.84	41407.661	-0.50269821	-0.032219787	-0.032217692	-400.42403	1199.7002	0	457.86363598832304
36.307805	3.9810717e-7	0.31	342684.74	37765.536	-0.49913906	-0.03221981	-0.032217513	-365.236	1094.1449	0	461.20774214025676
36.307805	4.3651583e-7	0.31	312535.39	34443.87	-0.4955799	-0.032219833	-0.032217315	-333.14384	997.87731	0	464.551863221884
36.307805	4.7863009e-7	0.31	285038.86	31414.467	-0.49202075	-0.03221986	-0.032217099	-303.87511	910.08022	0	467.89598015063234
36.307805	5.2480746e-7	0.31	259961.72	28651.611	-0.4884616	-0.032219889	-0.032216861	-277.18141	830.00833	0	471.2401034872164
36.307805	5.7543994e-7	0.31	237091.1	26131.847	-0.48490245	-0.032219922	-0.032216602	-252.83615	756.98189	0	474.58423294037084
36.307805	6.3095734e-7	0.31	216232.85	23833.788	-0.4813433	-0.032219956	-0.032216316	-230.6327	690.381	0	477.9283702576872
36.307805	6.9183097e-7	0.31	197209.9	21737.925	-0.47778416	-0.032219996	-0.032216004	-210.38259	629.64025	0	481.2725057522469
36.307805	7.5857758e-7	0.31	179860.76	19826.467	-0.47422501	-0.032220039	-0.032215662	-191.91396	574.24402	0	484.6166593804178
36.307805	8.3176377e-7	0.31	164038.16	18083.188	-0.47066587	-0.032220085	-0.032215286	-175.07006	523.72208	0	487.9608135159541
36.307805	9.1201084e-7	0.31	149607.77	16493.291	-0.46710674	-0.032220135	-0.032214874	-159.70793	477.64552	0	491.3049687413861
36.307805	1.e-6	0.31	136447.11	15043.28	-0.4635476	-0.032220191	-0.032214422	-145.69718	435.62319	0	494.6491450130818
36.307805	1.0964782e-6	0.31	124444.43	13720.845	-0.45998847	-0.032220253	-0.032213927	-132.91891	397.29837	0	497.99332441353033
36.307805	1.2022644e-6	0.31	113497.87	12514.763	-0.45642934	-0.032220319	-0.032213383	-121.26469	362.34572	0	501.33751808597646
36.307805	1.3182567e-6	0.31	103514.48	11414.795	-0.45287022	-0.032220393	-0.032212788	-110.63559	330.46853	0	504.6817172172973
36.307805	1.4454398e-6	0.31	94409.523	10411.603	-0.4493111	-0.032220474	-0.032212134	-100.94142	301.39618	0	508.02593353326824
36.307805	1.5848932e-6	0.31	86105.703	9496.6739	-0.44575199	-0.032220562	-0.032211418	-92.099926	274.88188	0	511.3701585120319
36.307805	1.7378008e-6	0.31	78532.529	8662.2402	-0.44219288	-0.03222066	-0.032210634	-84.03607	250.70055	0	514.7144032968331
36.307805	1.9054607e-6	0.31	71625.713	7901.2196	-0.43863378	-0.032220766	-0.032209773	-76.681436	228.64692	0	518.0586611134056
36.307805	2.0892961e-6	0.31	65326.622	7207.1525	-0.43507468	-0.032220883	-0.032208829	-69.973615	208.53377	0	521.4029431049946
36.307805	2.2908677e-6	0.31	59581.782	6574.1477	-0.43151559	-0.032221011	-0.032207794	-63.855697	190.19036	0	524.7472422060687
36.307805	2.5118864e-6	0.31	54342.425	5996.8322	-0.42795651	-0.032221152	-0.03220666	-58.275776	173.46097	0	528.0915607467498
36.307805	2.7542287e-6	0.31	49564.076	5470.3062	-0.42439744	-0.032221306	-0.032205416	-53.186514	158.20359	0	531.4359019309559
36.307805	3.0199517e-6	0.31	45206.17	4990.1007	-0.42083837	-0.032221474	-0.032204051	-48.544739	144.28869	0	534.7802783582582
36.307805	3.3113112e-6	0.31	41231.712	4552.14	-0.41727932	-0.03222166	-0.032202556	-44.311077	131.59815	0	538.1246738587372
36.307805	3.6307805e-6	0.31	37606.963	4152.7069	-0.41372028	-0.032221863	-0.032200915	-40.449618	120.02424	0	541.4691024882906
36.307805	3.9810717e-6	0.31	34301.153	3788.4115	-0.41016125	-0.032222085	-0.032199117	-36.927612	109.46871	0	544.8135674508356
36.307805	4.3651583e-6	0.31	31286.219	3456.1621	-0.40660223	-0.032222329	-0.032197145	-33.715192	99.841951	0	548.1580736978824
36.307805	4.7863009e-6	0.31	28536.565	3153.139	-0.40304323	-0.032222597	-0.032194983	-30.785116	91.062243	0	551.5026164940214
36.307805	5.2480746e-6	0.31	26028.852	2876.7704	-0.39948425	-0.03222289	-0.032192612	-28.112542	83.055053	0	554.8472013732923
36.307805	5.7543994e-6	0.31	23741.791	2624.7112	-0.39592528	-0.032223211	-0.032190012	-25.674813	75.752412	0	558.1918435566538
36.307805	6.3095734e-6	0.31	21655.966	2394.8224	-0.39236633	-0.032223564	-0.032187162	-23.451263	69.092323	0	561.536539765023
36.307805	6.9183097e-6	0.31	19753.671	2185.1532	-0.38880741	-0.032223951	-0.032184037	-21.423049	63.01825	0	564.8812878843778
36.307805	7.5857758e-6	0.31	18018.757	1993.9246	-0.3852485	-0.032224375	-0.03218061	-19.572983	57.47863	0	568.2261145701873
36.307805	8.3176377e-6	0.31	16436.497	1819.5138	-0.38168963	-0.03222484	-0.032176852	-17.885389	52.426436	0	571.5710000821832
36.307805	9.1201084e-6	0.31	14993.459	1660.4413	-0.37813078	-0.03222535	-0.032172733	-16.345972	47.818781	0	574.9159719496304
36.307805	0.00001	0.31	13677.393	1515.3572	-0.37457196	-0.032225909	-0.032168216	-14.941693	43.61655	0	578.2610315536903
36.307805	0.000010964782	0.31	12477.126	1383.031	-0.37101318	-0.032226522	-0.032163262	-13.660663	39.78407	0	581.6061808580537
36.307805	0.000012022644	0.31	11382.467	1262.3398	-0.36746031	-0.032233114	-0.032163751	-12.49204	36.288802	0	584.9441919743969
36.307805	0.000013182567	0.31	10384.128	1152.2601	-0.36390217	-0.032234423	-0.032158368	-11.425927	33.101084	0	588.2888649097323
36.307805	0.000014454398	0.31	9473.6329	1051.8582	-0.36034413	-0.032235857	-0.032152464	-10.453307	30.193852	0	591.6335956377326
36.307805	0.000015848932	0.31	8643.2512	960.28237	-0.3567862	-0.03223743	-0.032145991	-9.5659533	27.542424	0	594.9783887434763
36.307805	0.000017378008	0.31	7885.9343	876.75617	-0.35322838	-0.032239153	-0.032138893	-8.7563642	25.124294	0	598.3232605378182
36.307805	0.000019054607	0.31	7195.2531	800.57128	-0.3496707	-0.032241043	-0.03213111	-8.017697	22.918934	0	601.668200309713
36.307805	0.000020892961	0.31	6565.3444	731.08174	-0.34611316	-0.032243116	-0.032122577	-7.3437111	20.907622	0	605.0132269914028
36.307805	0.000022908677	0.31	5990.8609	667.69843	-0.34255578	-0.032245388	-0.032113219	-6.7287156	19.073284	0	608.358343636475
36.307805	0.000025118864	0.31	5466.926	609.88409	-0.33899857	-0.032247878	-0.032102958	-6.1675197	17.400349	0	611.7035635679658
36.307805	0.000027542287	0.31	4989.0916	557.14867	-0.33544155	-0.03225061	-0.032091708	-5.6553895	15.874614	0	615.048893043381
36.307805	0.000030199517	0.31	4553.3016	509.04533	-0.33188474	-0.032253604	-0.032079372	-5.1880081	14.483129	0	618.3943415241432
36.307805	0.000033113112	0.31	4155.8566	465.16647	-0.32832815	-0.032256887	-0.032065845	-4.7614379	13.21408	0	621.7399301974516
36.307805	0.000036307805	0.31	3793.3826	425.14039	-0.32477182	-0.032260485	-0.032051013	-4.3720879	12.056694	0	625.085654684931
36.307805	0.000039810717	0.31	3462.8024	388.62808	-0.32121575	-0.032264431	-0.032034749	-4.0166831	11.001147	0	628.4315519772697
36.307805	0.000043651583	0.31	3161.3099	355.32038	-0.31765998	-0.032268756	-0.032016915	-3.6922367	10.038478	0	631.7776246864595
36.307805	0.000047863009	0.31	2886.3457	324.93533	-0.31410454	-0.032273498	-0.03199736	-3.3960248	9.1605139	0	635.1238886065934
36.307805	0.000052480746	0.31	2635.5756	297.21575	-0.31054945	-0.032278696	-0.031975917	-3.1255629	8.3598028	0	638.4703735876628
36.307805	0.000057543994	0.31	2406.8707	271.92712	-0.30699476	-0.032284394	-0.031952404	-2.8785853	7.6295469	0	641.8170856616774
36.307805	0.000063095734	0.31	2198.2897	248.85554	-0.30344049	-0.032290641	-0.031926622	-2.6530256	6.9635473	0	645.1640639991167
36.307805	0.000069183097	0.31	2008.0617	227.80595	-0.2998867	-0.032297487	-0.031898349	-2.4469993	6.3561502	0	648.5113168869467
36.307805	0.000075857758	0.31	1834.5721	208.60043	-0.29633342	-0.032304993	-0.031867347	-2.2587876	5.8021993	0	651.8588854593387
36.307805	0.000083176377	0.31	1676.348	191.07673	-0.2927807	-0.032313219	-0.031833351	-2.086823	5.2969921	0	655.2067999233187
36.307805	0.000091201084	0.31	1532.0463	175.08687	-0.28922859	-0.032322235	-0.031796072	-1.9296758	4.8362401	0	658.5550974762788
36.307805	0.0001	0.31	1400.4419	160.4959	-0.28567717	-0.032332116	-0.031755192	-1.7860423	4.4160316	0	661.9037955753432
36.307805	0.00010964782	0.31	1280.4178	147.18073	-0.28212648	-0.032342945	-0.031710364	-1.6547334	4.0327999	0	665.2529577069428
36.307805	0.00012022644	0.31	1170.9549	135.0291	-0.27857659	-0.032354813	-0.031661205	-1.5346646	3.6832912	0	668.602629656097
36.307805	0.00013182567	0.31	1071.1242	123.93866	-0.27502759	-0.032367818	-0.031607296	-1.4248468	3.364539	0	671.9528489020674
36.307805	0.00014454398	0.31	980.078	113.81603	-0.27147956	-0.032382069	-0.031548181	-1.324378	3.073837	0	675.3036730965842
36.307805	0.00015848932	0.31	897.04357	104.57607	-0.26793258	-0.032397682	-0.03148335	-1.2324356	2.8087178	0	678.6551756197009
36.307805	0.00017378008	0.31	821.31596	96.141112	-0.26438675	-0.032414789	-0.031412256	-1.1482691	2.5669305	0	682.0074218369793
36.307805	0.00019054607	0.31	752.25234	88.440339	-0.26084218	-0.032433529	-0.031334289	-1.0711945	2.3464227	0	685.3604860680382
36.307805	0.00020892961	0.31	689.26645	81.409161	-0.25729899	-0.032454057	-0.031248783	-1.0005875	2.1453225	0	688.714449547698
36.307805	0.00022908677	0.31	631.82357	74.98867	-0.2537573	-0.032476543	-0.031155013	-0.93587903	1.9619227	0	692.069410695429
36.307805	0.00025118864	0.31	579.4361	69.125147	-0.25021724	-0.032501168	-0.031052175	-0.87654997	1.7946665	0	695.4254815450037
36.307805	0.00027542287	0.31	531.65933	63.769597	-0.24667898	-0.032528135	-0.030939391	-0.82212687	1.642134	0	698.7827581012093
36.307805	0.00030199517	0.31	488.08768	58.877338	-0.24314266	-0.032557662	-0.030815699	-0.77217795	1.5030304	0	702.1413890220757
36.307805	0.00033113112	0.31	448.35129	54.407622	-0.23960847	-0.032589987	-0.030680042	-0.72630939	1.3761749	0	705.5015036575646
36.307805	0.00036307805	0.31	412.11284	50.323288	-0.23607659	-0.032625371	-0.030531263	-0.68416202	1.2604905	0	708.8632698798169
36.307805	0.00039810717	0.31	379.06474	46.590446	-0.23254722	-0.032664098	-0.030368092	-0.64540824	1.1549954	0	712.2268696826411
36.307805	0.00043651583	0.31	348.92645	43.178189	-0.22902059	-0.032706474	-0.030189135	-0.60974929	1.0587938	0	715.5924929897772
36.307805	0.00047863009	0.31	321.44216	40.058333	-0.22549693	-0.032752836	-0.029992868	-0.57691265	0.97106927	0	718.9603675894481
36.307805	0.00052480746	0.31	296.37857	37.205176	-0.22197649	-0.032803547	-0.029777619	-0.54664976	0.89107705	0	722.3307455858289
36.307805	0.00057543994	0.31	273.52296	34.595279	-0.21845956	-0.032859002	-0.029541554	-0.51873392	0.81813815	0	725.7038886854523
36.307805	0.00063095734	0.31	252.68135	32.20727	-0.21494641	-0.032919631	-0.02928267	-0.49295834	0.75163342	0	729.0801266099862
36.307805	0.00069183097	0.31	233.67685	30.021657	-0.21143737	-0.0329859	-0.028998773	-0.46913438	0.69099831	0	732.4597883388426
36.307805	0.00075857758	0.31	216.34819	28.02067	-0.20793276	-0.033058312	-0.028687464	-0.44709	0.63571816	0	735.8432719564644
36.307805	0.00083176377	0.31	200.54833	26.188103	-0.20443294	-0.033137411	-0.028346122	-0.42666822	0.58532373	0	739.2310026255684
36.307805	0.00091201084	0.31	186.14321	24.509184	-0.20093827	-0.033223787	-0.027971889	-0.40772586	0.53938726	0	742.6234745387371
36.307805	0.001	0.31	173.01063	22.970439	-0.19744916	-0.033318074	-0.027561647	-0.39013228	0.49751884	0	746.0212106392531
36.307805	0.0010964782	0.31	161.03918	21.559588	-0.19396602	-0.033420957	-0.027112009	-0.37376827	0.45936306	0	749.4248122207538
36.307805	0.0012022644	0.31	150.12735	20.265435	-0.19048927	-0.033533173	-0.026619291	-0.35852507	0.42459605	0	752.8349576870037
36.307805	0.0013182567	0.31	140.18259	19.077773	-0.18701936	-0.033655515	-0.026079509	-0.34430341	0.39292266	0	756.2523846343859
36.307805	0.0014454398	0.31	131.12061	17.987299	-0.18355676	-0.03378883	-0.025488358	-0.33101269	0.36407397	0	759.6779053641234
36.307805	0.0015848932	0.31	122.86458	16.985532	-0.18010195	-0.03393403	-0.024841207	-0.31857019	0.33780499	0	763.1124177342604
36.307805	0.0017378008	0.31	115.34455	16.064742	-0.1766554	-0.034092087	-0.024133094	-0.30690039	0.31389256	0	766.556925407295
36.307805	0.0019054607	0.31	108.49677	15.217886	-0.17321762	-0.03426404	-0.023358733	-0.29593432	0.29213341	0	770.0124888330556
36.307805	0.0020892961	0.31	102.26323	14.438542	-0.16978907	-0.034450996	-0.02251253	-0.28560895	0.27234243	0	773.4803051493363
36.307805	0.0022908677	0.31	96.591072	13.720858	-0.16637026	-0.034654129	-0.021588606	-0.27586672	0.25435103	0	776.9616075262643
36.307805	0.0025118864	0.31	91.432187	13.059496	-0.16296165	-0.03487469	-0.020580849	-0.26665499	0.23800564	0	780.457743977038
36.307805	0.0027542287	0.31	86.742757	12.449591	-0.15956368	-0.035114	-0.019482975	-0.25792562	0.22316635	0	783.9701314037877
36.307805	0.0030199517	0.31	82.482876	11.886705	-0.15617677	-0.035373454	-0.018288614	-0.24963458	0.20970565	0	787.5002305487637
36.307805	0.0033113112	0.31	78.616175	11.366783	-0.15280131	-0.035654524	-0.016991428	-0.24174157	0.19750721	0	791.0495210206873
36.307805	0.0036307805	0.31	75.109485	10.886121	-0.1494376	-0.035958757	-0.015585249	-0.2342097	0.1864648	0	794.6195174740681
36.307805	0.0039810717	0.31	71.932522	10.441332	-0.1460859	-0.036287777	-0.014064248	-0.22700518	0.17648125	0	798.2116734071067
36.307805	0.0043651583	0.31	69.05759	10.02931	-0.1427464	-0.036643284	-0.012423122	-0.22009707	0.1674675	0	801.8273548820528
36.307805	0.0047863009	0.31	66.459311	9.6472029	-0.13941917	-0.037027052	-0.010657301	-0.21345703	0.1593417	0	805.467827211563
36.307805	0.0052480746	0.31	64.114378	9.2923868	-0.13610418	-0.037440927	-0.0087631551	-0.20705909	0.15202841	0	809.1341758463598
36.307805	0.0057543994	0.31	62.001333	8.9624412	-0.13280127	-0.037886829	-0.0067381914	-0.20087949	0.14545786	0	812.827277212062
36.307805	0.0063095734	0.31	60.10037	8.6551279	-0.12951015	-0.038366745	-0.0045812195	-0.19489647	0.13956531	0	816.5477505047847
36.307805	0.0069183097	0.31	58.393182	8.3683734	-0.12623035	-0.038882726	-0.0022924648	-0.18909016	0.13429051	0	820.2959716690534
36.307805	0.0075857758	0.31	56.862821	8.1002539	-0.12296123	-0.039436879	0.00012638207	-0.1834424	0.12957728	0	824.0720496049076
36.307805	0.0083176377	0.31	55.493609	7.8489831	-0.11970195	-0.040031366	0.0026721956	-0.17793664	0.12537314	0	827.875863194764
36.307805	0.0091201084	0.31	54.271075	7.6129036	-0.11645146	-0.040668381	0.0053405362	-0.17255779	0.12162912	0	831.7071058839106
36.307805	0.01	0.31	53.181909	7.3904796	-0.11320848	-0.041350149	0.0081258355	-0.16729215	0.11829959	0	835.565358443268
36.307805	0.010964782	0.31	52.213948	7.180292	-0.1099715	-0.042078896	0.011021661	-0.16212724	0.11534218	0	839.4501660527394
36.307805	0.012022644	0.31	51.356166	6.9810344	-0.10673875	-0.042856828	0.014021014	-0.15705172	0.11271774	0	843.3611532648297
36.307805	0.013182567	0.31	50.598673	6.7915086	-0.10350819	-0.043686091	0.017116654	-0.15205531	0.11039027	0	847.2981278867484
36.307805	0.014454398	0.31	49.932704	6.6106214	-0.10027757	-0.044568714	0.020301437	-0.14712859	0.10832693	0	851.2611231415269
36.307805	0.015848932	0.31	49.350604	6.4373788	-0.097044336	-0.045506558	0.023568616	-0.142263	0.10649788	0	855.2505735123696
36.307805	0.017378008	0.31	48.8458	6.2708809	-0.09380573	-0.046501203	0.026912148	-0.13745062	0.10487624	0	859.2673102045546
36.307805	0.019054607	0.31	48.412762	6.1103146	-0.090558768	-0.047553834	0.030326972	-0.13268417	0.1034379	0	863.3126627876134
36.307805	0.020892961	0.31	48.046955	5.9549462	-0.087300289	-0.048665089	0.033809268	-0.12795684	0.10216129	0	867.3884885943296
36.307805	0.022908677	0.31	47.744781	5.8041126	-0.084027004	-0.04983483	0.037356743	-0.12326223	0.10102721	0	871.4972099839017
36.307805	0.025118864	0.31	47.503527	5.6572128	-0.080735553	-0.051061887	0.040968917	-0.11859423	0.10001853	0	875.6418440885814
36.307805	0.027542287	0.31	47.321318	5.5136981	-0.077422576	-0.052343722	0.044647451	-0.11394698	0.099119921	0	879.8260316395392
36.307805	0.030199517	0.31	47.197084	5.3730632	-0.074084782	-0.053676001	0.048396548	-0.10931474	0.098317578	0	884.0540889342238
36.307805	0.033113112	0.31	47.130577	5.2348364	-0.070719	-0.055052125	0.052223387	-0.10469186	0.097598941	0	888.3310863276505
36.307805	0.036307805	0.31	47.122429	5.0985706	-0.067322175	-0.056462675	0.056138624	-0.10007264	0.096952412	0	892.6629979145579
36.307805	0.039810717	0.31	47.174322	4.9638345	-0.063891274	-0.057894828	0.06015693	-0.095451291	0.096367125	0	897.0569465492605
36.307805	0.043651583	0.31	47.289273	4.8302048	-0.060423	-0.059331836	0.064297452	-0.0908218	0.095832741	0	901.5216068346213
36.307805	0.047863009	0.31	47.472109	4.6972596	-0.056913255	-0.060752605	0.068584196	-0.086177761	0.095339352	0	906.0678212232403
36.307805	0.052480746	0.31	47.730148	4.5645733	-0.053356227	-0.062131584	0.073046081	-0.081512185	0.094877502	0	910.7094735689425
36.307805	0.057543994	0.31	48.074091	4.4317147	-0.04974305	-0.063439056	0.077716614	-0.076817208	0.094438401	0	915.4646534831371
36.307805	0.063095734	0.31	48.519037	4.2982494	-0.046060066	-0.06464198	0.082633008	-0.072083708	0.094014376	0	920.3570324034395
36.307805	0.069183097	0.31	49.085422	4.163746	-0.042286905	-0.065705412	0.087834729	-0.06730083	0.093599614	0	925.4172443507207
36.307805	0.075857758	0.31	49.799456	4.0277889	-0.03839486	-0.06659442	0.093361558	-0.06245543	0.093191197	0	930.6838482507317
36.307805	0.083176377	0.31	50.692428	3.8899996	-0.034346413	-0.067276232	0.099251415	-0.057531537	0.09279047	0	936.2031394948762
36.307805	0.091201084	0.31	51.797865	3.7500704	-0.030097097	-0.067722712	0.10553787	-0.052509963	0.092404734	0	942.0266755103005
36.307805	0.1	0.31	53.145077	3.6078201	-0.025601443	-0.067913564	0.11224691	-0.047368371	0.092049321	0	948.204746504176
36.307805	0.10964782	0.31	54.74726	3.4632732	-0.020824695	-0.067842366	0.11939093	-0.042082218	0.09174972	0	954.7736182426871
36.307805	0.12022644	0.31	56.583955	3.3167449	-0.015760166	-0.067528609	0.12695662	-0.036627159	0.091542458	0	961.7356968587382
36.307805	0.13182567	0.31	58.585357	3.1688556	-0.010443917	-0.067037567	0.13488516	-0.030983198	0.091471502	0	969.0399684637378
36.307805	0.14454398	0.31	60.640913	3.020374	-0.0049444734	-0.066499235	0.14305322	-0.025139428	0.09157747	0	976.5861272219206
36.307805	0.15848932	0.31	58.644926	2.8736815	-0.0035370847	-0.066544652	0.15083668	-0.019194793	0.091853436	0	980.1755123673465
36.307805	0.17378008	0.31	61.152672	2.7331122	0.0029176031	-0.067930989	0.15748551	-0.013348019	0.092268165	0	988.1766865579668
36.307805	0.19054607	0.31	64.593592	2.5930776	0.010714591	-0.069654231	0.16401108	-0.0071903516	0.093014447	0	997.4031380560859
36.307805	0.20892961	0.31	68.813576	2.4543787	0.019750908	-0.071715368	0.17042001	-0.00065868843	0.094186341	0	1007.7600470540604
36.307805	0.22908677	0.31	74.015612	2.3179418	0.030342427	-0.074166858	0.17666767	0.006332967	0.095905641	0	1019.5311976152469
36.307805	0.25118864	0.31	80.438261	2.1848962	0.042861253	-0.077050598	0.18272026	0.013892328	0.098323695	0	1033.0563619384707
36.307805	0.27542287	0.31	88.340687	2.0565272	0.057720494	-0.080391005	0.18856166	0.022151677	0.10162246	0	1048.718986790372
36.307805	0.30199517	0.31	97.97526	1.9341775	0.075343671	-0.084187912	0.1942006	0.03126864	0.10601144	0	1066.9195405732548
36.307805	0.33113112	0.31	109.54995	1.8190988	0.096120744	-0.088411731	0.1996755	0.041423738	0.11171953	0	1088.035606602237
36.307805	0.36307805	0.31	123.1888	1.7122835	0.12035984	-0.093003796	0.20505409	0.052814066	0.11898217	0	1112.376417725876
36.307805	0.39810717	0.31	138.90328	1.6143243	0.14824916	-0.097883483	0.21042634	0.065643517	0.12802616	0	1140.145006217915
36.307805	0.43651583	0.31	156.58543	1.5253511	0.17984203	-0.10296079	0.21589187	0.080111205	0.13905564	0	1171.420491185259
36.307805	0.47863009	0.31	176.02552	1.4450609	0.21506902	-0.10815034	0.22154596	0.096400443	0.15224221	0	1206.1653903594874
36.307805	0.52480746	0.31	196.94687	1.3728222	0.25376999	-0.11338234	0.22746858	0.11467038	0.16772061	0	1244.2525342281742
36.307805	0.57543994	0.31	219.04549	1.3078083	0.2957334	-0.11860798	0.23371903	0.13505139	0.18558928	0	1285.500439167009
36.307805	0.63095734	0.31	242.02401	1.2491218	0.34073149	-0.12379955	0.24033582	0.15764414	0.20591419	0	1329.706326396981
36.307805	0.69183097	0.31	265.61489	1.1958855	0.38854582	-0.12894712	0.24733997	0.18252145	0.22873429	0	1376.6710796587693
36.307805	0.75857758	0.31	289.5925	1.1472978	0.43898227	-0.13405386	0.25473976	0.20973194	0.25406719	0	1426.214722202972
36.307805	0.83176377	0.31	313.7767	1.1026582	0.49187784	-0.13913157	0.26253517	0.23930431	0.28191455	0	1478.184099052235
36.307805	0.91201084	0.31	338.03097	1.0613717	0.54710186	-0.14419695	0.27072161	0.27125179	0.31226658	0	1532.4551002947373
36.307805	1.	0.31	362.25763	1.0229429	0.60455421	-0.14926901	0.27929254	0.30557615	0.34510594	0	1588.931751772845
36.307805	1.0964782	0.31	386.39202	0.9869643	0.664162	-0.15436734	0.28824125	0.34227129	0.38041074	0	1647.543614178313
36.307805	1.2022644	0.31	410.39659	0.95310233	0.72587603	-0.15951105	0.29756184	0.38132611	0.41815703	0	1708.2427424308958
36.307805	1.3182567	0.31	434.25553	0.92108509	0.78966719	-0.16471824	0.30724984	0.42272696	0.45832062	0	1771.00048382755
36.307805	1.4454398	0.31	457.97014	0.89069068	0.8555234	-0.17000574	0.31730247	0.4664595	0.50087863	0	1835.8046787014284
36.307805	1.5848932	0.31	481.55493	0.86173761	0.9234469	-0.17538909	0.32771862	0.5125102	0.54581049	0	1902.657108374478
36.307805	1.7378008	0.31	505.03445	0.8340768	0.99345204	-0.18088258	0.33849892	0.56086747	0.59309886	0	1971.5714391065844
36.307805	1.9054607	0.31	528.44076	0.8075851	1.0655635	-0.18649936	0.34964553	0.6115225	0.64273017	0	2042.5714885035445
36.307805	2.0892961	0.31	551.8114	0.78216015	1.1398147	-0.19225159	0.36116209	0.66446993	0.6946951	0	2115.689717044895
36.307805	2.2908677	0.31	575.18784	0.7577162	1.2162467	-0.1981506	0.37305356	0.71970826	0.74898884	0	2190.96614795959
36.307805	2.5118864	0.31	598.61421	0.73418086	1.2949073	-0.204207	0.38532609	0.77724021	0.8056113	0	2268.4474837526996
36.307805	2.7542287	0.31	622.13638	0.71149251	1.3758503	-0.21043081	0.39798694	0.83707291	0.86456725	0	2348.1863876258285
36.307805	3.0199517	0.31	645.80124	0.68959818	1.4591347	-0.21683159	0.41104434	0.89921803	0.92586631	0	2430.2406910477066
36.307805	3.3113112	0.31	669.65615	0.66845195	1.5448243	-0.22341852	0.42450746	0.9636919	0.98952302	0	2514.6730091900836
36.307805	3.6307805	0.31	693.74857	0.64801364	1.6329875	-0.23020049	0.43838629	1.0305155	1.0555568	0	2601.550518062831
36.307805	3.9810717	0.31	718.12573	0.62824776	1.7236969	-0.23718621	0.45269163	1.0997143	1.1239918	0	2690.9445757751514
36.307805	4.3651583	0.31	742.83447	0.6091227	1.8170289	-0.24438422	0.46743498	1.1713187	1.1948571	0	2782.9303146702573
36.307805	4.7863009	0.31	767.92109	0.59061001	1.9130637	-0.25180297	0.48262857	1.2453633	1.2681864	0	2877.58665006333
36.307805	5.2480746	0.31	793.43129	0.57268393	2.0118854	-0.2594509	0.49828529	1.3218876	1.3440179	0	2974.9963538094876
36.307805	5.7543994	0.31	819.41012	0.5553209	2.1135815	-0.26733644	0.51441867	1.4009351	1.4223945	0	3075.2455786958008
36.307805	6.3095734	0.31	845.90201	0.53849925	2.2182428	-0.27546808	0.53104287	1.4825541	1.5033634	0	3178.4237615721117
36.307805	6.9183097	0.31	872.95075	0.52219889	2.325964	-0.28385437	0.54817267	1.5667969	1.5869763	0	3284.6241841775845
36.307805	7.5857758	0.31	900.59958	0.50640109	2.4368429	-0.29250398	0.56582343	1.6537203	1.6732893	0	3393.943209837821
36.307805	8.3176377	0.31	928.89121	0.49108831	2.5509811	-0.30142573	0.58401116	1.7433853	1.7623625	0	3506.4809615491695
36.307805	9.1201084	0.31	957.86789	0.476244	2.6684833	-0.31062857	0.60275243	1.8358568	1.8542604	0	3622.3406380691085
36.307805	10.	0.31	987.57152	0.46185254	2.7894582	-0.32012167	0.62206443	1.9312041	1.9490516	0	3741.629377000975