39.810717	1.e-12	0.19	1.971745e11	1.9811424e10	-0.99764152	-0.0018216239	-0.0018216239	-2.0985715e8	6.2958101e8	0	1.8907544942053942
39.810717	1.0964782e-12	0.19	1.7982528e11	1.8068234e10	-0.99741425	-0.0019971044	-0.0019971044	-1.9139199e8	5.741847e8	0	2.0729631857937676
39.810717	1.2022644e-12	0.19	1.640026e11	1.6478425e10	-0.99716514	-0.0021894304	-0.0021894304	-1.7455157e8	5.2366267e8	0	2.272684769486433
39.810717	1.3182567e-12	0.19	1.4957215e11	1.5028502e10	-0.9968921	-0.0024002001	-0.0024002001	-1.5919292e8	4.7758604e8	0	2.491597630330008
39.810717	1.4454398e-12	0.19	1.3641143e11	1.3706157e10	-0.99659288	-0.002631158	-0.002631158	-1.4518567e8	4.3556364e8	0	2.7315043667286796
39.810717	1.5848932e-12	0.19	1.244087e11	1.2500164e10	-0.99626497	-0.0028842052	-0.0028842052	-1.3241091e8	3.9723876e8	0	2.994423908250609
39.810717	1.7378008e-12	0.19	1.1346208e11	1.1400285e10	-0.99590569	-0.0031614122	-0.0031614122	-1.2076018e8	3.6228606e8	0	3.2825046697229614
39.810717	1.9054607e-12	0.19	1.0347865e11	1.0397183e10	-0.99551209	-0.0034650296	-0.0034650296	-1.101346e8	3.3040881e8	0	3.5981165976305087
39.810717	2.0892961e-12	0.19	9.4373649e10	9.4823438e9	-0.99508095	-0.0037975006	-0.0037975006	-1.0044395e8	3.0133642e8	0	3.943848938648334
39.810717	2.2908677e-12	0.19	8.606979e10	8.6480002e9	-0.99460881	-0.0041614712	-0.0041614712	-9.1605966e7	2.7482208e8	0	4.322480231803336
39.810717	2.5118864e-12	0.19	7.8496582e10	7.8870699e9	-0.99409188	-0.0045598001	-0.0045598001	-8.3545634e7	2.5064071e8	0	4.737061102033521
39.810717	2.7542287e-12	0.19	7.1589734e10	7.1930933e9	-0.99352608	-0.004995566	-0.004995566	-7.6194524e7	2.2858705e8	0	5.190875374396782
39.810717	3.0199517e-12	0.19	6.5290613e10	6.560179e9	-0.99290701	-0.0054720727	-0.0054720727	-6.9490232e7	2.0847386e8	0	5.687467350592288
39.810717	3.3113112e-12	0.19	5.9545747e10	5.9829544e9	-0.99222994	-0.0059928485	-0.0059928485	-6.3375845e7	1.9013042e8	0	6.230651311725121
39.810717	3.6307805e-12	0.19	5.4306367e10	5.4565193e9	-0.9914898	-0.0065616417	-0.0065616417	-5.7799458e7	1.7340101e8	0	6.824521717287354
39.810717	3.9810717e-12	0.19	4.9527995e10	4.9764048e9	-0.99068119	-0.0071824058	-0.0071824058	-5.2713732e7	1.581436e8	0	7.473446451562895
39.810717	4.3651583e-12	0.19	4.5170068e10	4.538535e9	-0.9897984	-0.0078592768	-0.0078592768	-4.8075495e7	1.4422868e8	0	8.182052084665644
39.810717	4.7863009e-12	0.19	4.1195592e10	4.1391932e9	-0.98883543	-0.0085965347	-0.0085965347	-4.3845373e7	1.3153812e8	0	8.955211954152935
39.810717	5.2480746e-12	0.19	3.7570827e10	3.7749891e9	-0.987786	-0.0093985515	-0.0093985514	-3.9987455e7	1.1996419e8	0	9.798046070129493
39.810717	5.7543994e-12	0.19	3.4265001e10	3.4428309e9	-0.98664366	-0.010269718	-0.010269718	-3.6468992e7	1.0940864e8	0	10.715830741275422
39.810717	6.3095734e-12	0.19	3.1250052e10	3.1398991e9	-0.98540185	-0.011214344	-0.011214344	-3.3260117e7	9.9781865e7	0	11.713960195480203
39.810717	6.9183097e-12	0.19	2.8500386e10	2.863622e9	-0.98405398	-0.012236543	-0.012236543	-3.0333587e7	9.1002142e7	0	12.797891819155845
39.810717	7.5857758e-12	0.19	2.5992661e10	2.6116543e9	-0.98259361	-0.013340073	-0.013340073	-2.766456e7	8.299494e7	0	13.97300554470509
39.810717	8.3176377e-12	0.19	2.3705589e10	2.3818571e9	-0.98101459	-0.014528161	-0.014528161	-2.5230379e7	7.5692286e7	0	15.244503623327425
39.810717	9.1201084e-12	0.19	2.1619754e10	2.1722794e9	-0.97931124	-0.015803298	-0.015803298	-2.3010379e7	6.9032184e7	0	16.61727809932636
39.810717	1.e-11	0.19	1.971745e10	1.9811424e9	-0.97747858	-0.017167007	-0.017167007	-2.0985715e7	6.29581e7	0	18.095736126119597
39.810717	1.0964782e-11	0.19	1.7982528e10	1.8068233e9	-0.97551252	-0.018619613	-0.018619613	-1.91392e7	5.7418469e7	0	19.683662507828192
39.810717	1.2022644e-11	0.19	1.6400261e10	1.6478425e9	-0.97341013	-0.020160002	-0.020160002	-1.7455158e7	5.2366267e7	0	21.384009039329683
39.810717	1.3182567e-11	0.19	1.4957216e10	1.5028502e9	-0.97116979	-0.021785413	-0.021785413	-1.5919293e7	4.7758603e7	0	23.198790703077954
39.810717	1.4454398e-11	0.19	1.3641143e10	1.3706157e9	-0.96879137	-0.023491272	-0.023491272	-1.4518568e7	4.3556364e7	0	25.128946181231676
39.810717	1.5848932e-11	0.19	1.244087e10	1.2500163e9	-0.96627631	-0.025271082	-0.025271082	-1.3241091e7	3.9723875e7	0	27.17428232734182
39.810717	1.7378008e-11	0.19	1.1346208e10	1.1400285e9	-0.96362769	-0.027116409	-0.027116409	-1.2076019e7	3.6228605e7	0	29.333410896021118
39.810717	1.9054607e-11	0.19	1.0347865e10	1.0397183e9	-0.96085011	-0.029016949	-0.029016949	-1.101346e7	3.304088e7	0	31.603849330119264
39.810717	2.0892961e-11	0.19	9.4373649e9	9.4823438e8	-0.95794959	-0.030960696	-0.030960696	-1.0044395e7	3.0133641e7	0	33.98208472633161
39.810717	2.2908677e-11	0.19	8.6069791e9	8.6480004e8	-0.95493334	-0.032934199	-0.032934199	-9.1605975e6	2.7482207e7	0	36.46374405625415
39.810717	2.5118864e-11	0.19	7.8496582e9	7.8870701e8	-0.95180948	-0.034922888	-0.034922888	-8.3545643e6	2.5064071e7	0	39.043799048003166
39.810717	2.7542287e-11	0.19	7.1589734e9	7.1930934e8	-0.94858676	-0.036911457	-0.036911457	-7.6194533e6	2.2858704e7	0	41.71676089234319
39.810717	3.0199517e-11	0.19	6.5290613e9	6.5601792e8	-0.94527423	-0.038884269	-0.038884268	-6.9490241e6	2.0847386e7	0	44.47691817821588
39.810717	3.3113112e-11	0.19	5.9545747e9	5.9829545e8	-0.94188098	-0.040825768	-0.040825768	-6.3375854e6	1.9013042e7	0	47.318506737968654
39.810717	3.6307805e-11	0.19	5.4306367e9	5.4565194e8	-0.93841591	-0.042720895	-0.042720895	-5.7799466e6	1.73401e7	0	50.235853269313715
39.810717	3.9810717e-11	0.19	4.9527995e9	4.9764048e8	-0.93488746	-0.044555458	-0.044555458	-5.271374e6	1.5814359e7	0	53.22356118135474
39.810717	4.3651583e-11	0.19	4.5170068e9	4.5385352e8	-0.93130358	-0.046316494	-0.046316494	-4.8075504e6	1.4422867e7	0	56.27647505082923
39.810717	4.7863009e-11	0.19	4.1195592e9	4.1391933e8	-0.92767153	-0.047992574	-0.047992574	-4.3845381e6	1.3153811e7	0	59.389813908849405
39.810717	5.2480746e-11	0.19	3.7570826e9	3.7749892e8	-0.9239979	-0.049574077	-0.049574077	-3.9987464e6	1.1996418e7	0	62.55910353582289
39.810717	5.7543994e-11	0.19	3.4265001e9	3.4428311e8	-0.92028857	-0.051053396	-0.051053395	-3.6469001e6	1.0940864e7	0	65.78017744799651
39.810717	6.3095734e-11	0.19	3.1250052e9	3.1398993e8	-0.91654874	-0.052425086	-0.052425086	-3.3260125e6	9.9781863e6	0	69.04912139733071
39.810717	6.9183097e-11	0.19	2.8500387e9	2.8636222e8	-0.91278296	-0.053685934	-0.053685933	-3.0333596e6	9.1002141e6	0	72.36223465201188
39.810717	7.5857758e-11	0.19	2.5992662e9	2.6116545e8	-0.90899517	-0.054834933	-0.054834933	-2.7664569e6	8.2994939e6	0	75.71599437752994
39.810717	8.3176377e-11	0.19	2.3705589e9	2.3818572e8	-0.90518879	-0.05587318	-0.05587318	-2.5230387e6	7.5692283e6	0	79.10699196233406
39.810717	9.1201084e-11	0.19	2.1619754e9	2.1722796e8	-0.90136672	-0.056803675	-0.056803675	-2.3010387e6	6.9032183e6	0	82.5319669361424
39.810717	1.e-10	0.19	1.971745e9	1.9811426e8	-0.89753147	-0.057631056	-0.057631056	-2.0985724e6	6.2958099e6	0	85.98773302614867
39.810717	1.0964782e-10	0.19	1.7982528e9	1.8068235e8	-0.89368513	-0.058361275	-0.058361275	-1.9139208e6	5.7418469e6	0	89.47126400510841
39.810717	1.2022644e-10	0.19	1.6400261e9	1.6478427e8	-0.88982951	-0.059001249	-0.059001249	-1.7455166e6	5.2366266e6	0	92.9796244547683
39.810717	1.3182567e-10	0.19	1.4957216e9	1.5028504e8	-0.88596611	-0.059558513	-0.059558512	-1.5919302e6	4.7758602e6	0	96.51006007688723
39.810717	1.4454398e-10	0.19	1.3641143e9	1.3706159e8	-0.88209621	-0.060040891	-0.060040891	-1.4518576e6	4.3556363e6	0	100.05997097199835
39.810717	1.5848932e-10	0.19	1.244087e9	1.2500165e8	-0.87822087	-0.060456219	-0.060456219	-1.32411e6	3.9723875e6	0	103.62696287390725
39.810717	1.7378008e-10	0.19	1.1346208e9	1.1400287e8	-0.874341	-0.060812107	-0.060812106	-1.2076027e6	3.6228605e6	0	107.20882226060583
39.810717	1.9054607e-10	0.19	1.0347865e9	1.0397185e8	-0.87045733	-0.061115767	-0.061115767	-1.1013469e6	3.304088e6	0	110.80357524622852
39.810717	2.0892961e-10	0.19	9.4373652e8	9.4823457e7	-0.86657051	-0.061373901	-0.0613739	-1.0044404e6	3.0133641e6	0	114.4094154036422
39.810717	2.2908677e-10	0.19	8.6069794e8	8.6480023e7	-0.86268106	-0.061592618	-0.061592618	-916060.57	2.7482207e6	0	118.02476288189759
39.810717	2.5118864e-10	0.19	7.8496586e8	7.8870721e7	-0.85878941	-0.061777417	-0.061777416	-835457.25	2.5064071e6	0	121.64823271469075
39.810717	2.7542287e-10	0.19	7.1589737e8	7.1930954e7	-0.85489593	-0.061933178	-0.061933178	-761946.14	2.2858704e6	0	125.27860538377989
39.810717	3.0199517e-10	0.19	6.5290616e8	6.5601811e7	-0.85100093	-0.062064193	-0.062064192	-694903.21	2.0847386e6	0	128.91482414122453
39.810717	3.3113112e-10	0.19	5.9545751e8	5.9829565e7	-0.84710467	-0.062174195	-0.062174194	-633759.34	1.9013042e6	0	132.5559777589657
39.810717	3.6307805e-10	0.19	5.430637e8	5.4565213e7	-0.84320734	-0.062266417	-0.062266416	-577995.46	1.7340101e6	0	136.20131075129677
39.810717	3.9810717e-10	0.19	4.9527999e8	4.9764068e7	-0.83930914	-0.062343634	-0.062343632	-527138.2	1.581436e6	0	139.85013999783428
39.810717	4.3651583e-10	0.19	4.5170072e8	4.5385372e7	-0.83541021	-0.062408217	-0.062408215	-480755.83	1.4422868e6	0	143.50191033759992
39.810717	4.7863009e-10	0.19	4.1195596e8	4.1391953e7	-0.83151067	-0.062462185	-0.062462184	-438454.6	1.3153812e6	0	147.15614859608786
39.810717	5.2480746e-10	0.19	3.757083e8	3.7749911e7	-0.82761063	-0.062507249	-0.062507247	-399875.42	1.1996419e6	0	150.81244651336212
39.810717	5.7543994e-10	0.19	3.4265005e8	3.442833e7	-0.82371016	-0.062544852	-0.06254485	-364690.79	1.0940864e6	0	154.470480183664
39.810717	6.3095734e-10	0.19	3.1250056e8	3.1399012e7	-0.81980934	-0.062576214	-0.062576212	-332602.03	997818.68	0	158.12995682903465
39.810717	6.9183097e-10	0.19	2.850039e8	2.8636241e7	-0.81590823	-0.062602359	-0.062602357	-303336.73	910021.45	0	161.7906372737188
39.810717	7.5857758e-10	0.19	2.5992665e8	2.6116564e7	-0.81200688	-0.062624146	-0.062624144	-276646.46	829949.43	0	165.45232119298802
39.810717	8.3176377e-10	0.19	2.3705593e8	2.3818592e7	-0.80810533	-0.062642296	-0.062642294	-252304.64	756922.89	0	169.1148422931711
39.810717	9.1201084e-10	0.19	2.1619758e8	2.1722816e7	-0.8042036	-0.062657412	-0.06265741	-230104.64	690321.88	0	172.7780741369587
39.810717	1.e-9	0.19	1.9717454e8	1.9811445e7	-0.80030174	-0.06267	-0.062669997	-209857.99	629581.04	0	176.44187959478825
39.810717	1.0964782e-9	0.19	1.7982532e8	1.8068255e7	-0.79639977	-0.062680478	-0.062680474	-191392.84	574184.75	0	180.10616507655513
39.810717	1.2022644e-9	0.19	1.6400264e8	1.6478446e7	-0.79249769	-0.062689201	-0.062689198	-174552.41	523662.71	0	183.7708668515415
39.810717	1.3182567e-9	0.19	1.4957219e8	1.5028523e7	-0.78859554	-0.062696461	-0.062696457	-159193.76	477586.07	0	187.4358959241177
39.810717	1.4454398e-9	0.19	1.3641146e8	1.3706178e7	-0.78469332	-0.062702502	-0.062702498	-145186.51	435563.69	0	191.10120820048158
39.810717	1.5848932e-9	0.19	1.2440874e8	1.2500184e7	-0.78079104	-0.06270753	-0.062707525	-132411.74	397238.81	0	194.76675786742683
39.810717	1.7378008e-9	0.19	1.1346212e8	1.1400305e7	-0.77688871	-0.062711713	-0.062711708	-120761.01	362286.1	0	198.43250518133908
39.810717	1.9054607e-9	0.19	1.0347869e8	1.0397204e7	-0.77298635	-0.062715193	-0.062715188	-110135.42	330408.86	0	202.09840617995565
39.810717	2.0892961e-9	0.19	9.4373689e7	9.4823644e6	-0.76908396	-0.062718088	-0.062718082	-100444.77	301336.47	0	205.76443997673886
39.810717	2.2908677e-9	0.19	8.606983e7	8.6480209e6	-0.76518154	-0.062720498	-0.062720491	-91606.785	274822.13	0	209.43058854142947
39.810717	2.5118864e-9	0.19	7.8496622e7	7.8870906e6	-0.7612791	-0.062722501	-0.062722494	-83546.449	250640.77	0	213.09682837549826
39.810717	2.7542287e-9	0.19	7.1589773e7	7.1931138e6	-0.75737664	-0.062724169	-0.062724161	-76195.335	228587.1	0	216.7631469827259
39.810717	3.0199517e-9	0.19	6.5290652e7	6.5601994e6	-0.75347416	-0.062725556	-0.062725547	-69491.038	208473.92	0	220.42953454465467
39.810717	3.3113112e-9	0.19	5.9545786e7	5.9829747e6	-0.74957167	-0.06272671	-0.0627267	-63376.648	190130.48	0	224.09597309679495
39.810717	3.6307805e-9	0.19	5.4306407e7	5.4565396e6	-0.74566917	-0.062727669	-0.062727659	-57800.257	173401.07	0	227.76245567696753
39.810717	3.9810717e-9	0.19	4.9528034e7	4.9764249e6	-0.74176666	-0.062728469	-0.062728457	-52714.526	158143.66	0	231.42897639409765
39.810717	4.3651583e-9	0.19	4.5170108e7	4.5385551e6	-0.73786415	-0.062729133	-0.06272912	-48076.286	144228.74	0	235.09552121107896
39.810717	4.7863009e-9	0.19	4.1195632e7	4.1392132e6	-0.73396163	-0.062729685	-0.062729671	-43846.16	131538.18	0	238.76209541766448
39.810717	5.2480746e-9	0.19	3.7570866e7	3.775009e6	-0.7300591	-0.062730145	-0.06273013	-39988.238	119964.25	0	242.42869544350592
39.810717	5.7543994e-9	0.19	3.4265041e7	3.4428508e6	-0.72615657	-0.062730528	-0.062730511	-36469.772	109408.7	0	246.09530939370566
39.810717	6.3095734e-9	0.19	3.1250092e7	3.1399189e6	-0.72225403	-0.062730847	-0.062730828	-33260.892	99781.926	0	249.76194416467368
39.810717	6.9183097e-9	0.19	2.8500426e7	2.8636417e6	-0.7183515	-0.062731112	-0.062731091	-30334.358	91002.205	0	253.42857917992856
39.810717	7.5857758e-9	0.19	2.5992701e7	2.6116739e6	-0.71444896	-0.062731332	-0.062731309	-27665.328	82995.003	0	257.0952316241208
39.810717	8.3176377e-9	0.19	2.3705629e7	2.3818766e6	-0.71054642	-0.062731515	-0.062731491	-25231.143	75692.349	0	260.76189049493996
39.810717	9.1201084e-9	0.19	2.1619794e7	2.1722989e6	-0.70664387	-0.062731668	-0.062731641	-23011.139	69032.249	0	264.4285644739701
39.810717	1.e-8	0.19	1.971749e7	1.9811618e6	-0.70274133	-0.062731796	-0.062731766	-20986.471	62958.164	0	268.0952335202819
39.810717	1.0964782e-8	0.19	1.7982568e7	1.8068426e6	-0.69883878	-0.062731902	-0.062731869	-19139.952	57418.535	0	271.7619158896306
39.810717	1.2022644e-8	0.19	1.64003e7	1.6478617e6	-0.69493623	-0.062731991	-0.062731956	-17455.906	52366.331	0	275.4286011152578
39.810717	1.3182567e-8	0.19	1.4957255e7	1.5028693e6	-0.69103369	-0.062732065	-0.062732026	-15920.038	47758.668	0	279.09527998002767
39.810717	1.4454398e-8	0.19	1.3641182e7	1.3706347e6	-0.68713114	-0.062732126	-0.062732084	-14519.308	43556.428	0	282.76197038266
39.810717	1.5848932e-8	0.19	1.244091e7	1.2500353e6	-0.68322859	-0.062732178	-0.062732132	-13241.828	39723.941	0	286.4286625704665
39.810717	1.7378008e-8	0.19	1.1346248e7	1.1400473e6	-0.67932604	-0.062732222	-0.062732171	-12076.752	36228.67	0	290.0953563649298
39.810717	1.9054607e-8	0.19	1.0347905e7	1.0397371e6	-0.67542349	-0.062732258	-0.062732202	-11014.189	33040.946	0	293.7620515875323
39.810717	2.0892961e-8	0.19	9.4374047e6	948253.04	-0.67152094	-0.062732289	-0.062732227	-10045.12	30133.707	0	297.4287478812395
39.810717	2.2908677e-8	0.19	8.6070189e6	864818.61	-0.66761839	-0.062732315	-0.062732247	-9161.3185	27482.273	0	301.09544506753366
39.810717	2.5118864e-8	0.19	7.849698e6	788725.49	-0.66371584	-0.062732337	-0.062732263	-8355.2813	25064.137	0	304.76214296789755
39.810717	2.7542287e-8	0.19	7.1590131e6	719327.72	-0.65981329	-0.062732356	-0.062732275	-7620.1663	22858.77	0	308.42884158233096
39.810717	3.0199517e-8	0.19	6.5291011e6	656036.22	-0.65591074	-0.062732372	-0.062732283	-6949.7333	20847.452	0	312.09554091083413
39.810717	3.3113112e-8	0.19	5.9546145e6	598313.66	-0.65200819	-0.062732386	-0.062732289	-6338.2907	19013.108	0	315.7622405963722
39.810717	3.6307805e-8	0.19	5.4306765e6	545670.06	-0.64810564	-0.062732399	-0.062732293	-5780.6481	17340.167	0	319.42894063894494
39.810717	3.9810717e-8	0.19	4.9528393e6	497658.51	-0.64420309	-0.062732411	-0.062732294	-5272.0716	15814.426	0	323.09564121707007
39.810717	4.3651583e-8	0.19	4.5170466e6	453871.45	-0.64030053	-0.062732421	-0.062732293	-4808.244	14422.933	0	326.7623515478835
39.810717	4.7863009e-8	0.19	4.119599e6	413937.17	-0.63639798	-0.062732431	-0.06273229	-4385.2279	13153.878	0	330.42905284007816
39.810717	5.2480746e-8	0.19	3.7571224e6	377516.67	-0.63249543	-0.06273244	-0.062732285	-3999.4322	11996.485	0	334.0957544893078
39.810717	5.7543994e-8	0.19	3.4265399e6	344300.76	-0.62859288	-0.062732449	-0.06273228	-3647.582	10940.93	0	337.7624561385374
39.810717	6.3095734e-8	0.19	3.125045e6	314007.49	-0.62469033	-0.062732457	-0.062732272	-3326.6906	9978.2526	0	341.42915832331926
39.810717	6.9183097e-8	0.19	2.8500784e6	286379.69	-0.62078778	-0.062732466	-0.062732262	-3034.0337	9100.2804	0	345.09586086513593
39.810717	7.5857758e-8	0.19	2.5993059e6	261182.83	-0.61688523	-0.062732475	-0.062732251	-2767.1271	8299.5602	0	348.76256358547
39.810717	8.3176377e-8	0.19	2.3705987e6	238203.02	-0.61298268	-0.062732484	-0.062732239	-2523.7051	7569.2947	0	352.42926648432143
39.810717	9.1201084e-8	0.19	2.1620152e6	217245.16	-0.60908013	-0.062732493	-0.062732225	-2301.7012	6903.2846	0	356.0959697402077
39.810717	1.e-7	0.19	1.9717848e6	198131.37	-0.60517758	-0.062732503	-0.062732208	-2099.2309	6295.8763	0	359.7626735316463
39.810717	1.0964782e-7	0.19	1.7982926e6	180699.37	-0.60127503	-0.062732513	-0.062732191	-1914.5754	5741.9133	0	363.4293773230849
39.810717	1.2022644e-7	0.19	1.6400659e6	164801.19	-0.59737248	-0.062732524	-0.062732171	-1746.1674	5236.693	0	367.0960816500758
39.810717	1.3182567e-7	0.19	1.4957613e6	150301.87	-0.59346993	-0.062732536	-0.062732148	-1592.577	4775.9266	0	370.76278651261885
39.810717	1.4454398e-7	0.19	1.3641541e6	137078.33	-0.58956738	-0.062732549	-0.062732124	-1452.5006	4355.7027	0	374.4294915536794
39.810717	1.5848932e-7	0.19	1.2441268e6	125018.3	-0.58566483	-0.062732563	-0.062732097	-1324.749	3972.4539	0	378.096197130292
39.810717	1.7378008e-7	0.19	1.1346606e6	114019.42	-0.58176228	-0.062732578	-0.062732067	-1208.2379	3622.9269	0	381.7629032424571
39.810717	1.9054607e-7	0.19	1.0348263e6	103988.32	-0.57785973	-0.062732595	-0.062732034	-1101.9781	3304.1545	0	385.42960989017433
39.810717	2.0892961e-7	0.19	943776.29	94839.831	-0.57395718	-0.062732613	-0.062731999	-1005.0677	3013.4305	0	389.0963168949265
39.810717	2.2908677e-7	0.19	860737.72	86496.305	-0.57005464	-0.062732633	-0.062731959	-916.684	2748.2872	0	392.7630153966121
39.810717	2.5118864e-7	0.19	785005.63	78886.91	-0.56615209	-0.062732655	-0.062731916	-836.07677	2506.4735	0	396.4297238295035
39.810717	2.7542287e-7	0.19	715937.14	71947.051	-0.56224954	-0.062732678	-0.062731868	-762.56177	2285.9369	0	400.0964331549819
39.810717	3.0199517e-7	0.19	652945.94	65617.817	-0.55834699	-0.062732704	-0.062731816	-695.51494	2084.8051	0	403.76314319453013
39.810717	3.3113112e-7	0.19	595497.28	59845.479	-0.55444445	-0.062732732	-0.062731759	-634.36718	1901.3707	0	407.4298447310119
39.810717	3.6307805e-7	0.19	543103.47	54581.035	-0.5505419	-0.062732764	-0.062731697	-578.59939	1734.0765	0	411.0965565557342
39.810717	3.9810717e-7	0.19	495319.76	49779.798	-0.54663936	-0.062732798	-0.062731627	-527.73824	1581.5024	0	414.7632604129423
39.810717	4.3651583e-7	0.19	451740.49	45401.009	-0.54273681	-0.062732836	-0.062731552	-481.35197	1442.3532	0	418.42997455839117
39.810717	4.7863009e-7	0.19	411995.73	41407.499	-0.53883427	-0.062732876	-0.062731468	-439.04684	1315.4476	0	422.0966809148431
39.810717	5.2480746e-7	0.19	375748.07	37765.365	-0.53493172	-0.062732921	-0.062731378	-400.46376	1199.7083	0	425.7633977380531
39.810717	5.7543994e-7	0.19	342689.82	34443.692	-0.53102918	-0.062732971	-0.062731278	-365.27523	1094.1529	0	429.43010695078374
39.810717	6.3095734e-7	0.19	312540.33	31414.282	-0.52712664	-0.062733025	-0.062731169	-333.18257	997.88513	0	433.0968177701711
39.810717	6.9183097e-7	0.19	285043.67	28651.419	-0.5232241	-0.062733084	-0.062731049	-303.91337	910.0879	0	436.7635305532501
39.810717	7.5857758e-7	0.19	259966.42	26131.65	-0.51932156	-0.062733149	-0.062730918	-277.2192	830.01589	0	440.4302453000207
39.810717	8.3176377e-7	0.19	237095.7	23833.585	-0.51541902	-0.06273322	-0.062730773	-252.87349	756.98934	0	444.0969625460351
39.810717	9.1201084e-7	0.19	216237.35	21737.717	-0.51151648	-0.062733298	-0.062730616	-230.66959	690.38833	0	447.7636819342584
39.810717	1.e-6	0.19	197214.31	19826.255	-0.50761395	-0.062733383	-0.062730442	-210.41905	629.6475	0	451.4303949616245
39.810717	1.0964782e-6	0.19	179865.09	18082.972	-0.50371142	-0.062733477	-0.062730252	-191.94999	574.2512	0	455.097110845269
39.810717	1.2022644e-6	0.19	164042.41	16493.071	-0.49980888	-0.06273358	-0.062730044	-175.10567	523.72917	0	458.7638393378807
39.810717	1.3182567e-6	0.19	149611.96	15043.057	-0.49590635	-0.062733692	-0.062729815	-159.74312	477.65254	0	462.43056218370447
39.810717	1.4454398e-6	0.19	136451.24	13720.619	-0.49200383	-0.062733815	-0.062729564	-145.73197	435.63015	0	466.09727956125806
39.810717	1.5848932e-6	0.19	124448.51	12514.534	-0.4881013	-0.062733952	-0.06272929	-132.9533	397.30526	0	469.76401044036567
39.810717	1.7378008e-6	0.19	113501.89	11414.563	-0.48419878	-0.0627341	-0.062728989	-121.29867	362.35256	0	473.4307367437901
39.810717	1.9054607e-6	0.19	103518.46	10411.369	-0.48029625	-0.062734263	-0.062728659	-110.66918	330.47532	0	477.0974776198731
39.810717	2.0892961e-6	0.19	94413.46	9496.4381	-0.47639374	-0.062734441	-0.062728296	-100.97463	301.40293	0	480.76420559572375
39.810717	2.2908677e-6	0.19	86109.601	8662.0025	-0.47249122	-0.062734638	-0.0627279	-92.132746	274.88859	0	484.4309488583027
39.810717	2.5118864e-6	0.19	78536.392	7900.9801	-0.46858871	-0.062734853	-0.062727465	-84.068511	250.70723	0	488.0976896874073
39.810717	2.7542287e-6	0.19	71629.544	7206.9113	-0.46468621	-0.062735088	-0.062726987	-76.713499	228.65356	0	491.7644287971075
39.810717	3.0199517e-6	0.19	65330.423	6573.905	-0.4607837	-0.062735347	-0.062726465	-70.005304	208.54038	0	495.43118515722733
39.810717	3.3113112e-6	0.19	59585.557	5996.5882	-0.4568812	-0.06273563	-0.062725891	-63.887014	190.19694	0	499.0979414045994
39.810717	3.6307805e-6	0.19	54346.177	5470.0611	-0.45297871	-0.06273594	-0.062725261	-58.306725	173.46753	0	502.7646982532932
39.810717	3.9810717e-6	0.19	49567.806	4989.8544	-0.44907623	-0.06273628	-0.062724571	-53.217096	158.21012	0	506.43145641737874
39.810717	4.3651583e-6	0.19	45209.879	4551.8927	-0.44517375	-0.062736654	-0.062723815	-48.574957	144.2952	0	510.0982263636136
39.810717	4.7863009e-6	0.19	41235.402	4152.4587	-0.44127127	-0.062737063	-0.062722986	-44.340932	131.60464	0	513.7650093416198
39.810717	5.2480746e-6	0.19	37610.637	3788.1625	-0.43736881	-0.062737512	-0.062722077	-40.479112	120.03071	0	517.4317878097125
39.810717	5.7543994e-6	0.19	34304.812	3455.9123	-0.43346635	-0.062738004	-0.062721079	-36.956747	109.47516	0	521.0985821658552
39.810717	6.3095734e-6	0.19	31289.863	3152.8884	-0.4295639	-0.062738544	-0.062719986	-33.743968	99.848387	0	524.7653840854989
39.810717	6.9183097e-6	0.19	28540.198	2876.5192	-0.42566146	-0.062739135	-0.062718787	-30.813536	91.068666	0	528.4321955323353
39.810717	7.5857758e-6	0.19	26032.473	2624.4594	-0.42175903	-0.062739784	-0.062717473	-28.140607	83.061464	0	532.099018113021
39.810717	8.3176377e-6	0.19	23745.4	2394.5701	-0.41785662	-0.062740496	-0.062716032	-25.702523	75.75881	0	535.7658445741116
39.810717	9.1201084e-6	0.19	21659.565	2184.9004	-0.41395422	-0.062741275	-0.062714452	-23.47862	69.09871	0	539.4326864534698
39.810717	0.00001	0.19	19757.261	1993.6713	-0.41005183	-0.062742131	-0.062712719	-21.450054	63.024626	0	543.099546250339
39.810717	0.000010964782	0.19	18022.34	1819.2601	-0.40614946	-0.062743068	-0.062710819	-19.599636	57.484997	0	546.7664170683099
39.810717	0.000012022644	0.19	16440.069	1660.1871	-0.40225072	-0.062753759	-0.062718398	-17.911694	52.432789	0	550.4281850974692
39.810717	0.000013182567	0.19	14997.024	1515.1027	-0.39834873	-0.062755818	-0.062717046	-16.371927	47.825126	0	554.094601053063
39.810717	0.000014454398	0.19	13680.951	1382.7761	-0.3944468	-0.062758075	-0.062715562	-14.967299	43.622887	0	557.7609841990345
39.810717	0.000015848932	0.19	12480.679	1262.0847	-0.39054493	-0.06276055	-0.062713936	-13.68592	39.7904	0	561.4273363205582
39.810717	0.000017378008	0.19	11386.017	1152.0047	-0.38664312	-0.062763265	-0.062712153	-12.516946	36.295129	0	565.0936600953953
39.810717	0.000019054607	0.19	10387.673	1051.6025	-0.38274139	-0.06276624	-0.062710198	-11.450485	33.107405	0	568.75993941
39.810717	0.000020892961	0.19	9477.173	960.02646	-0.37883973	-0.062769503	-0.062708053	-10.477517	30.200166	0	572.4261868733396
39.810717	0.000022908677	0.19	8646.787	876.50003	-0.37493816	-0.062773079	-0.062705701	-9.5898172	27.548733	0	576.0923867289025
39.810717	0.000025118864	0.19	7889.4657	800.3149	-0.37103668	-0.062777002	-0.062703123	-8.7798816	25.130596	0	579.7585423685204
39.810717	0.000027542287	0.19	7198.7807	730.82515	-0.36713531	-0.062781301	-0.062700295	-8.0408685	22.92523	0	583.4246392853036
39.810717	0.000030199517	0.19	6568.8682	667.44164	-0.36323405	-0.062786016	-0.062697194	-7.366537	20.913912	0	587.0906815851532
39.810717	0.000033113112	0.19	5994.3812	609.62709	-0.35933291	-0.062791184	-0.062693793	-6.7511961	19.079569	0	590.7566646923858
39.810717	0.000036307805	0.19	5470.4428	556.89149	-0.35543191	-0.06279685	-0.062690063	-6.1896553	17.406628	0	594.4225749926991
39.810717	0.000039810717	0.19	4992.6052	508.78796	-0.35153106	-0.062803062	-0.062685972	-5.6771806	15.880887	0	598.0884088029976
39.810717	0.000043651583	0.19	4556.8121	464.90891	-0.34763037	-0.062809871	-0.062681485	-5.2094549	14.489395	0	601.7541629757369
39.810717	0.000047863009	0.19	4159.3639	424.88264	-0.34372986	-0.062817337	-0.062676565	-4.7825406	13.22034	0	605.4198253247546
39.810717	0.000052480746	0.19	3796.8868	388.37016	-0.33982954	-0.062825522	-0.062671168	-4.392847	12.062948	0	609.0853943091635
39.810717	0.000057543994	0.19	3466.3037	355.06227	-0.33592944	-0.062834494	-0.062665248	-4.0370988	11.007393	0	612.7508499538042
39.810717	0.000063095734	0.19	3164.8081	324.67702	-0.33202958	-0.062844328	-0.062658754	-3.7123094	10.044717	0	616.4161825717581
39.810717	0.000069183097	0.19	2889.8408	296.95724	-0.32812997	-0.06285511	-0.062651632	-3.4157547	9.1667452	0	620.0813924073118
39.810717	0.000075857758	0.19	2639.0675	271.66841	-0.32423064	-0.062866927	-0.062643818	-3.1449503	8.3660257	0	623.7464626986199
39.810717	0.000083176377	0.19	2410.3593	248.59662	-0.32033163	-0.062879881	-0.062635247	-2.8976306	7.6357611	0	627.4113674667002
39.810717	0.000091201084	0.19	2201.7749	227.54681	-0.31643294	-0.062894079	-0.062625843	-2.6717291	6.969752	0	631.0761202788764
39.810717	0.0001	0.19	2011.5434	208.34105	-0.31253463	-0.062909639	-0.062615525	-2.4653614	6.3623446	0	634.7406792211383
39.810717	0.00010964782	0.19	1838.0501	190.8171	-0.30863672	-0.062926694	-0.062604205	-2.2768085	5.8083827	0	638.4050412117116
39.810717	0.00012022644	0.19	1679.8221	174.82697	-0.30473925	-0.062945385	-0.062591783	-2.1045032	5.3031637	0	642.0691865197239
39.810717	0.00013182567	0.19	1535.5162	160.23571	-0.30084226	-0.062965869	-0.062578152	-1.9470157	4.8423987	0	645.7330966639247
39.810717	0.00014454398	0.19	1403.9074	146.92023	-0.2969458	-0.062988314	-0.062563192	-1.8030422	4.4221763	0	649.3967460881364
39.810717	0.00015848932	0.19	1283.8785	134.76827	-0.29304992	-0.06301291	-0.062546774	-1.6713938	4.0389292	0	653.0601108428386
39.810717	0.00017378008	0.19	1174.4105	123.67747	-0.28915466	-0.063039859	-0.062528752	-1.550986	3.689404	0	656.7231794089597
39.810717	0.00019054607	0.19	1074.5742	113.55445	-0.28526009	-0.063069384	-0.062508969	-1.4408297	3.3706336	0	660.3859140441599
39.810717	0.00020892961	0.19	983.52214	104.31406	-0.28136627	-0.063101729	-0.062487248	-1.340023	3.0799119	0	664.0482899721007
39.810717	0.00022908677	0.19	900.48126	95.878645	-0.27747326	-0.063137162	-0.062463399	-1.2477433	2.814771	0	667.7102847371704
39.810717	0.00025118864	0.19	824.74667	88.17737	-0.27358115	-0.063175971	-0.062437209	-1.1632402	2.5729601	0	671.3718518026969
39.810717	0.00027542287	0.19	755.67547	81.145645	-0.26969001	-0.063218477	-0.062408445	-1.0858296	2.3524265	0	675.0329669936642
39.810717	0.00030199517	0.19	692.68133	74.724558	-0.26579992	-0.063265023	-0.062376848	-1.0148875	2.1512981	0	678.6936013808548
39.810717	0.00033113112	0.19	635.22949	68.860384	-0.26191099	-0.063315989	-0.062342133	-0.94984467	1.9678675	0	682.353702489544
39.810717	0.00036307805	0.19	582.83224	63.504121	-0.25802331	-0.063371788	-0.062303988	-0.8901822	1.8005775	0	686.0132414562844
39.810717	0.00039810717	0.19	535.04481	58.611084	-0.25413699	-0.063432869	-0.062262064	-0.8354267	1.6480081	0	689.6721772314659
39.810717	0.00043651583	0.19	491.46154	54.140519	-0.25025214	-0.063499718	-0.062215977	-0.78514647	1.5088641	0	693.3304750135876
39.810717	0.00047863009	0.19	451.71246	50.055254	-0.2463689	-0.063572873	-0.062165304	-0.73894779	1.3819644	0	696.9880787763678
39.810717	0.00052480746	0.19	415.46018	46.321394	-0.2424874	-0.063652908	-0.062109575	-0.6964716	1.2662316	0	700.6449502794969
39.810717	0.00057543994	0.19	382.39698	42.908023	-0.23860777	-0.063740456	-0.062048271	-0.65739043	1.1606834	0	704.3010600300187
39.810717	0.00063095734	0.19	352.24219	39.786948	-0.23473018	-0.0638362	-0.061980816	-0.62140562	1.0644238	0	707.9563511278551
39.810717	0.00069183097	0.19	324.7399	36.932456	-0.23085478	-0.063940881	-0.061906573	-0.58824482	0.97663574	0	711.6107963537984
39.810717	0.00075857758	0.19	299.65666	34.321098	-0.22698174	-0.064055304	-0.061824835	-0.55765961	0.896574	0	715.2643621935522
39.810717	0.00083176377	0.19	276.7796	31.931488	-0.22311124	-0.064180341	-0.061734819	-0.52942345	0.82355899	0	718.917019304491
39.810717	0.00091201084	0.19	255.91459	29.744125	-0.21924348	-0.064316932	-0.061635654	-0.50332976	0.75697101	0	722.5687352622142
39.810717	0.001	0.19	236.88456	27.741222	-0.21537864	-0.064466098	-0.061526376	-0.47919009	0.69624483	0	726.2195130357484
39.810717	0.0010964782	0.19	219.52808	25.906559	-0.21151694	-0.064628937	-0.061405913	-0.45683261	0.64086508	0	729.8693372913873
39.810717	0.0012022644	0.19	203.69789	24.225347	-0.20765856	-0.064806634	-0.061273076	-0.43610058	0.59036176	0	733.5182511645759
39.810717	0.0013182567	0.19	189.25974	22.684096	-0.20380374	-0.065000461	-0.061126544	-0.41685107	0.54430628	0	737.1662649811374
39.810717	0.0014454398	0.19	176.09119	21.270507	-0.19995268	-0.065211792	-0.060964852	-0.39895372	0.50230785	0	740.8134523560171
39.810717	0.0015848932	0.19	164.08063	19.973363	-0.1961056	-0.065442095	-0.060786373	-0.38228963	0.46401012	0	744.4598970326747
39.810717	0.0017378008	0.19	153.12629	18.782438	-0.1922627	-0.065692944	-0.060589304	-0.36675034	0.4290882	0	748.1057329649418
39.810717	0.0019054607	0.19	143.1354	17.688405	-0.18842417	-0.065966021	-0.060371646	-0.35223693	0.3972459	0	751.7511384917179
39.810717	0.0020892961	0.19	134.02338	16.682763	-0.18459022	-0.066263122	-0.060131189	-0.33865917	0.36821318	0	755.3963108277696
39.810717	0.0022908677	0.19	125.71318	15.757759	-0.18076099	-0.066586159	-0.059865492	-0.32593473	0.34174389	0	759.041554194962
39.810717	0.0025118864	0.19	118.13459	14.906327	-0.17693664	-0.06693716	-0.05957186	-0.31398853	0.31761369	0	762.6871993672764
39.810717	0.0027542287	0.19	111.22362	14.122022	-0.17311727	-0.067318279	-0.059247335	-0.30275201	0.29561811	0	766.3336804426956
39.810717	0.0030199517	0.19	104.92205	13.398972	-0.16930294	-0.06773179	-0.05888867	-0.29216263	0.27557085	0	769.9815206933499
39.810717	0.0033113112	0.19	99.176839	12.731825	-0.16549368	-0.068180094	-0.058492325	-0.2821633	0.25730217	0	773.6313238839336
39.810717	0.0036307805	0.19	93.939734	12.115698	-0.16168942	-0.068665713	-0.058054453	-0.27270189	0.24065745	0	777.2838425405224
39.810717	0.0039810717	0.19	89.166847	11.546147	-0.15789005	-0.069191296	-0.057570901	-0.26373075	0.22549586	0	780.9399213981353
39.810717	0.0043651583	0.19	84.818285	11.019115	-0.15409536	-0.069759608	-0.057037215	-0.25520639	0.21168916	0	784.600552882069
39.810717	0.0047863009	0.19	80.857797	10.530909	-0.15030502	-0.070373536	-0.056448663	-0.247089	0.19912055	0	788.2668917933039
39.810717	0.0052480746	0.19	77.25247	10.078158	-0.14651863	-0.071036076	-0.055800271	-0.23934218	0.18768369	0	791.9402019036097
39.810717	0.0057543994	0.19	73.972436	9.6577921	-0.14273562	-0.071750327	-0.055086874	-0.23193261	0.17728175	0	795.621940807692
39.810717	0.0063095734	0.19	70.990605	9.2670069	-0.13895528	-0.072519483	-0.054303194	-0.22482975	0.16782648	0	799.3137178118737
39.810717	0.0069183097	0.19	68.282414	8.9032436	-0.13517677	-0.073346819	-0.053443943	-0.21800559	0.15923748	0	803.0172661511474
39.810717	0.0075857758	0.19	65.825598	8.564164	-0.13139903	-0.074235671	-0.052503948	-0.21143441	0.15144137	0	806.7345052353792
39.810717	0.0083176377	0.19	63.599972	8.2476278	-0.12762085	-0.075189418	-0.051478302	-0.20509257	0.14437112	0	810.4674479236057
39.810717	0.0091201084	0.19	61.587223	7.9516738	-0.12384082	-0.076211449	-0.050362536	-0.19895834	0.13796537	0	814.2182167973048
39.810717	0.01	0.19	59.770721	7.6745001	-0.12005734	-0.077305125	-0.049152804	-0.19301166	0.1321678	0	817.9890017390202
39.810717	0.010964782	0.19	58.135336	7.4144476	-0.11626859	-0.078473727	-0.047846057	-0.18723405	0.12692661	0	821.7820570572918
39.810717	0.012022644	0.19	56.667267	7.1699839	-0.11247259	-0.079720396	-0.046440209	-0.18160845	0.12219394	0	825.5996154788436
39.810717	0.013182567	0.19	55.353893	6.9396901	-0.10866721	-0.081048037	-0.044934234	-0.17611908	0.11792544	0	829.4438614367401
39.810717	0.014454398	0.19	54.183621	6.7222479	-0.10485017	-0.082459215	-0.043328221	-0.17075135	0.11407984	0	833.3169212519296
39.810717	0.015848932	0.19	53.145765	6.5164303	-0.10101913	-0.083956	-0.041623294	-0.16549176	0.11061864	0	837.2207928537546
39.810717	0.017378008	0.19	52.230423	6.321092	-0.097171776	-0.085539788	-0.039821436	-0.16032783	0.10750581	0	841.1572963963984
39.810717	0.019054607	0.19	51.428376	6.1351639	-0.093305877	-0.087211058	-0.037925164	-0.15524801	0.10470759	0	845.1280787218193
39.810717	0.020892961	0.19	50.730991	5.9576469	-0.089419459	-0.088969074	-0.035937052	-0.15024161	0.10219235	0	849.1345350281881
39.810717	0.022908677	0.19	50.130131	5.787608	-0.085510938	-0.090811529	-0.033859139	-0.14529877	0.099930393	0	853.1777895900074
39.810717	0.025118864	0.19	49.618073	5.6241767	-0.081579303	-0.092734114	-0.031692203	-0.14041042	0.097893925	0	857.2586534212953
39.810717	0.027542287	0.19	49.187445	5.4665415	-0.077624308	-0.094730011	-0.029434941	-0.13556822	0.0960569	0	861.3775902633224
39.810717	0.030199517	0.19	48.831181	5.313946	-0.073646644	-0.096789358	-0.027083122	-0.13076453	0.0943949	0	865.5347061836203
39.810717	0.033113112	0.19	48.542543	5.1656847	-0.069648048	-0.09889867	-0.024628728	-0.1259924	0.092884991	0	869.729800509822
39.810717	0.036307805	0.19	48.315235	5.0210981	-0.065631299	-0.1010403	-0.02205917	-0.1212455	0.091505547	0	873.962509545576
39.810717	0.039810717	0.19	48.14368	4.8795673	-0.061599974	-0.10319202	-0.019356686	-0.11651812	0.090236071	0	878.2326432919774
39.810717	0.043651583	0.19	48.023534	4.7405083	-0.057557883	-0.1053268	-0.016497989	-0.111805	0.089057062	0	882.5407791401207
39.810717	0.047863009	0.19	47.952505	4.6033675	-0.053508025	-0.10741294	-0.01345431	-0.10710125	0.087949966	0	886.8892351010762
39.810717	0.052480746	0.19	47.931525	4.4676183	-0.04945098	-0.10941468	-0.010191964	-0.10240203	0.086897299	0	891.283479586116
39.810717	0.057543994	0.19	47.966233	4.3327605	-0.045382724	-0.11129335	-0.0066735003	-0.097702202	0.085883009	0	895.7339790084186
39.810717	0.063095734	0.19	48.068596	4.1983235	-0.041292032	-0.11300906	-0.0028594486	-0.092995788	0.084893136	0	900.2583261250222
39.810717	0.069183097	0.19	48.258324	4.0638722	-0.037157842	-0.11452303	0.0012893811	-0.088275252	0.083916782	0	904.8833061588813
39.810717	0.075857758	0.19	48.563545	3.9290169	-0.032947228	-0.11580016	0.0058092277	-0.083530721	0.0829473	0	909.6463245135144
39.810717	0.083176377	0.19	49.020127	3.7934246	-0.028614757	-0.11681192	0.01073044	-0.078749169	0.081983616	0	914.5954862508382
39.810717	0.091201084	0.19	49.66901	3.6568348	-0.024104048	-0.11753964	0.016074131	-0.073913779	0.081031501	0	919.7875340430658
39.810717	0.1	0.19	50.55105	3.5190785	-0.019352179	-0.11797873	0.021847906	-0.069003668	0.080104682	0	925.2829448996573
39.810717	0.10964782	0.19	51.699236	3.3801047	-0.014297101	-0.11814518	0.028039321	-0.06399426	0.079225574	0	931.1377964402839
39.810717	0.12022644	0.19	53.129207	3.2400086	-0.0088869686	-0.11808598	0.034605407	-0.058858521	0.078425242	0	937.393130091473
39.810717	0.13182567	0.19	54.831875	3.0990449	-0.0030872368	-0.11789412	0.041457607	-0.053569058	0.077741873	0	944.0655941713875
39.810717	0.14454398	0.19	56.776776	2.9576054	0.0031234296	-0.11772399	0.04844639	-0.048100524	0.077217416	0	951.1485406068758
39.810717	0.15848932	0.19	56.425101	2.8173838	0.0071236681	-0.11820755	0.054944983	-0.042491257	0.076885291	0	956.0671381264567
39.810717	0.17378008	0.19	59.386064	2.6814142	0.01499495	-0.12035108	0.05995267	-0.036819933	0.076795391	0	964.3566812056596
39.810717	0.19054607	0.19	63.027325	2.54635	0.023960495	-0.1229206	0.064709269	-0.030826108	0.077066354	0	973.6295323963318
39.810717	0.20892961	0.19	67.50036	2.4128627	0.034272435	-0.12601216	0.069124901	-0.024435947	0.077800471	0	984.1065411284657
39.810717	0.22908677	0.19	72.989881	2.2818	0.046233496	-0.12971537	0.073116402	-0.017559118	0.079123985	0	996.057292039779
39.810717	0.25118864	0.19	79.7081	2.1541688	0.060192564	-0.13410619	0.076614516	-0.010085757	0.081189432	0	1009.7972229247753
39.810717	0.27542287	0.19	87.879753	2.0310852	0.076529066	-0.13923787	0.079572983	-0.0018844148	0.084175545	0	1025.6745720298215
39.810717	0.30199517	0.19	97.717247	1.9136843	0.095624744	-0.14513111	0.081978337	0.0071980193	0.088283538	0	1044.0456069952268
39.810717	0.33113112	0.19	109.38892	1.8029997	0.11782565	-0.15176625	0.083857733	0.017333591	0.093729247	0	1065.2403139299342
39.810717	0.36307805	0.19	122.98782	1.6998362	0.14340256	-0.15908085	0.085281365	0.028707383	0.10073186	0	1089.5256354326896
39.810717	0.39810717	0.19	138.51067	1.6046725	0.17252111	-0.16697517	0.086356962	0.041508988	0.10950124	0	1117.076428852567
39.810717	0.43651583	0.19	155.85455	1.5176219	0.20523099	-0.17532534	0.087216653	0.055922738	0.12022653	0	1147.9629685195334
39.810717	0.47863009	0.19	174.83209	1.4384602	0.24147625	-0.18400069	0.087999626	0.072118549	0.13306815	0	1182.1575332344237
39.810717	0.52480746	0.19	195.19946	1.3667013	0.28112126	-0.19288037	0.088835494	0.090244944	0.14815402	0	1219.5558279267223
39.810717	0.57543994	0.19	216.68796	1.3016929	0.32398268	-0.20186535	0.089832324	0.11042508	0.16557965	0	1260.0048845268088
39.810717	0.63095734	0.19	239.0318	1.2427069	0.36985901	-0.21088414	0.091070908	0.1327557	0.18541095	0	1303.3298033957728
39.810717	0.69183097	0.19	261.9879	1.189009	0.4185531	-0.21989299	0.092604577	0.1573085	0.2076885	0	1349.3548697372003
39.810717	0.75857758	0.19	285.34724	1.1399049	0.46988636	-0.22887237	0.094462731	0.18413296	0.23243235	0	1397.9175349872808
39.810717	0.83176377	0.19	308.93937	1.0947667	0.52370621	-0.23782173	0.096656067	0.21325992	0.25964674	0	1448.8763498657142
39.810717	0.91201084	0.19	332.63207	1.0530429	0.57988844	-0.24675406	0.099182041	0.24470542	0.28932434	0	1502.114156812071
39.810717	1.	0.19	356.32824	1.0142599	0.63833662	-0.2556911	0.10202966	0.2784743	0.32144993	0	1557.5383910976905
39.810717	1.0964782	0.19	379.96144	0.97801659	0.69897986	-0.26465961	0.10518325	0.31456339	0.35600334	0	1615.0796488529247
39.810717	1.2022644	0.19	403.491	0.94397714	0.76176988	-0.27368857	0.10862521	0.35296436	0.39296201	0	1674.6894257776282
39.810717	1.3182567	0.19	426.89742	0.91186182	0.82667802	-0.28280743	0.11233782	0.39366592	0.4323028	0	1736.3376306002492
39.810717	1.4454398	0.19	450.17816	0.88143863	0.8936924	-0.29204494	0.1163044	0.43665576	0.47400356	0	1800.0101236139226
39.810717	1.5848932	0.19	473.34398	0.85251531	0.96281547	-0.30142851	0.12050997	0.48192199	0.51804427	0	1865.706532562857
39.810717	1.7378008	0.19	496.416	0.82493241	1.0340618	-0.31098397	0.1249415	0.5294543	0.56440786	0	1933.4382208322645
39.810717	1.9054607	0.19	519.42313	0.79855737	1.1074566	-0.32073544	0.12958801	0.57924487	0.61308088	0	2003.2269147433863
39.810717	2.0892961	0.19	542.40014	0.77327957	1.1830336	-0.33070545	0.13444055	0.63128899	0.66405394	0	2075.102708104599
39.810717	2.2908677	0.19	565.38602	0.74900621	1.2608349	-0.34091506	0.13949203	0.6855856	0.71732206	0	2149.1038909286553
39.810717	2.5118864	0.19	588.42275	0.72565897	1.3409088	-0.35138402	0.14473706	0.7421376	0.7728848	0	2225.2748820130855
39.810717	2.7542287	0.19	611.55429	0.70317133	1.4233101	-0.36213095	0.15017183	0.80095212	0.83074649	0	2303.6664893877123
39.810717	3.0199517	0.19	634.82586	0.68148632	1.5080989	-0.37317354	0.15579389	0.86204066	0.89091621	0	2384.3347435624005
39.810717	3.3113112	0.19	658.28334	0.66055478	1.5953402	-0.38452871	0.16160202	0.9254192	0.95340784	0	2467.340498493651
39.810717	3.6307805	0.19	681.97287	0.64033394	1.6851036	-0.39621278	0.1675961	0.99110821	1.0182401	0	2552.7491265077356
39.810717	3.9810717	0.19	705.94051	0.62078624	1.7774631	-0.40824156	0.17377696	1.0591327	1.0854363	0	2640.6303036100094
39.810717	4.3651583	0.19	730.23203	0.60187843	1.8724964	-0.42063052	0.18014628	1.1295222	1.1550246	0	2731.0573339374255
39.810717	4.7863009	0.19	754.89278	0.58358082	1.9702854	-0.4333949	0.18670652	1.2023107	1.2270378	0	2824.107607044996
39.810717	5.2480746	0.19	779.96758	0.56586665	2.0709155	-0.44654977	0.19346081	1.2775365	1.3015131	0	2919.8619205731225
39.810717	5.7543994	0.19	805.50064	0.54871164	2.174476	-0.46011015	0.2004129	1.3552425	1.3784921	0	3018.4048471478727
39.810717	6.3095734	0.19	831.53564	0.53209357	2.2810595	-0.47409106	0.20756709	1.4354756	1.4580212	0	3119.8241581455477
39.810717	6.9183097	0.19	858.11563	0.51599196	2.3907622	-0.48850762	0.21492821	1.5182873	1.5401506	0	3224.21110199194
39.810717	7.5857758	0.19	885.28316	0.50038782	2.503684	-0.50337507	0.22250154	1.603733	1.6249351	0	3331.660483837471
39.810717	8.3176377	0.19	913.08027	0.48526342	2.6199281	-0.51870883	0.23029279	1.6918723	1.7124336	0	3442.270286160712
39.810717	9.1201084	0.19	941.54857	0.47060214	2.7396014	-0.53452458	0.23830808	1.7827692	1.8027092	0	3556.1420410241653
39.810717	10.	0.19	970.72932	0.4563883	2.8628145	-0.55083827	0.24655395	1.8764912	1.8958291	0	3673.3808318594447