5.2480746	1.e-12	0.31	5.9469516e7	4.5356187e7	-0.12762738	-0.0058342409	-0.0058342406	-63294.839	190048.53	0	817.9517744442066
5.2480746	1.0964782e-12	0.31	5.4236844e7	4.1365336e7	-0.12711292	-0.0058342409	-0.0058342406	-57725.591	173326.32	0	818.4351432341678
5.2480746	1.2022644e-12	0.31	4.946459e7	3.7725637e7	-0.12659847	-0.0058342408	-0.0058342404	-52646.376	158075.49	0	818.9185026867282
5.2480746	1.3182567e-12	0.31	4.5112242e7	3.4406192e7	-0.12608401	-0.0058342409	-0.0058342405	-48014.076	144166.56	0	819.4018714475626
5.2480746	1.4454398e-12	0.31	4.1142855e7	3.1378822e7	-0.12556955	-0.0058342408	-0.0058342404	-43789.37	131481.46	0	819.8852402666502
5.2480746	1.5848932e-12	0.31	3.752273e7	2.8617828e7	-0.1250551	-0.0058342409	-0.0058342404	-39936.391	119912.52	0	820.3685996609578
5.2480746	1.7378008e-12	0.31	3.4221137e7	2.6099772e7	-0.12454064	-0.0058342409	-0.0058342404	-36422.432	109361.52	0	820.8519684509188
5.2480746	1.9054607e-12	0.31	3.1210048e7	2.3803277e7	-0.12402619	-0.0058342408	-0.0058342403	-33217.665	99738.891	0	821.3353278743527
5.2480746	2.0892961e-12	0.31	2.8463903e7	2.1708849e7	-0.12351173	-0.0058342408	-0.0058342402	-30294.881	90962.951	0	821.8186966934402
5.2480746	2.2908677e-12	0.31	2.5959388e7	1.9798707e7	-0.12299727	-0.0058342409	-0.0058342403	-27629.271	82959.197	0	822.3020654542747
5.2480746	2.5118864e-12	0.31	2.3675244e7	1.8056638e7	-0.12248282	-0.0058342408	-0.0058342401	-25198.206	75659.689	0	822.7854249068354
5.2480746	2.7542287e-12	0.31	2.159208e7	1.6467851e7	-0.12196836	-0.0058342408	-0.00583424	-22981.048	69002.457	0	823.2687937259229
5.2480746	3.0199517e-12	0.31	1.9692211e7	1.5018861e7	-0.1214539	-0.0058342408	-0.00583424	-20958.975	62930.989	0	823.7521625158839
5.2480746	3.3113112e-12	0.31	1.7959511e7	1.3697366e7	-0.12093945	-0.0058342408	-0.0058342399	-19114.824	57393.745	0	824.2355219393179
5.2480746	3.6307805e-12	0.31	1.6379269e7	1.2492149e7	-0.12042499	-0.0058342408	-0.0058342398	-17432.937	52343.718	0	824.7188907584055
5.2480746	3.9810717e-12	0.31	1.4938071e7	1.1392977e7	-0.11991053	-0.0058342409	-0.0058342398	-15899.038	47738.039	0	825.2022595483664
5.2480746	4.3651583e-12	0.31	1.3623683e7	1.039052e7	-0.11939608	-0.0058342409	-0.0058342397	-14500.106	43537.61	0	825.6856189718005
5.2480746	4.7863009e-12	0.31	1.2424947e7	9.4762693e6	-0.11888162	-0.0058342409	-0.0058342395	-13224.264	39706.773	0	826.1689878200145
5.2480746	5.2480746e-12	0.31	1.1331687e7	8.6424622e6	-0.11836716	-0.0058342409	-0.0058342395	-12060.683	36213.007	0	826.6523566099755
5.2480746	5.7543994e-12	0.31	1.0334622e7	7.8820213e6	-0.11785271	-0.0058342408	-0.0058342392	-10999.484	33026.656	0	827.1357160916626
5.2480746	6.3095734e-12	0.31	9.4252876e6	7.1884909e6	-0.11733825	-0.0058342408	-0.0058342391	-10031.659	30120.669	0	827.6190849107501
5.2480746	6.9183097e-12	0.31	8.5959648e6	6.5559836e6	-0.11682379	-0.0058342409	-0.005834239	-9148.9925	27470.377	0	828.1024537298376
5.2480746	7.5857758e-12	0.31	7.8396136e6	5.9791301e6	-0.11630934	-0.0058342408	-0.0058342387	-8343.9908	25053.283	0	828.5858132115247
5.2480746	8.3176377e-12	0.31	7.1498131e6	5.4530335e6	-0.11579488	-0.0058342408	-0.0058342385	-7609.8204	22848.866	0	829.0691820597388
5.2480746	9.1201084e-12	0.31	6.5207074e6	4.9732276e6	-0.11528042	-0.0058342409	-0.0058342384	-6940.249	20838.414	0	829.5525508788263
5.2480746	1.e-11	0.31	5.9469564e6	4.5356395e6	-0.11476597	-0.0058342408	-0.0058342381	-6329.5926	19004.861	0	830.0359103605133
5.2480746	1.0964782e-11	0.31	5.4236891e6	4.1365543e6	-0.11425151	-0.0058342408	-0.0058342378	-5772.6673	17332.639	0	830.5192792378539
5.2480746	1.2022644e-11	0.31	4.9464637e6	3.7725843e6	-0.11373705	-0.0058342409	-0.0058342375	-5264.7453	15807.556	0	831.0026481151945
5.2480746	1.3182567e-11	0.31	4.511229e6	3.4406397e6	-0.1132226	-0.0058342408	-0.0058342372	-4801.515	14416.663	0	831.4860075968816
5.2480746	1.4454398e-11	0.31	4.1142902e6	3.1379027e6	-0.11270814	-0.0058342408	-0.0058342368	-4379.0438	13148.154	0	831.9693765033487
5.2480746	1.5848932e-11	0.31	3.7522777e6	2.8618032e6	-0.11219368	-0.0058342409	-0.0058342365	-3993.7455	11991.259	0	832.4527453806893
5.2480746	1.7378008e-11	0.31	3.4221184e6	2.6099974e6	-0.11167923	-0.0058342408	-0.005834236	-3642.3492	10936.159	0	832.9361049206295
5.2480746	1.9054607e-11	0.31	3.1210096e6	2.3803479e6	-0.11116477	-0.0058342408	-0.0058342355	-3321.8719	9973.8964	0	833.419473856223
5.2480746	2.0892961e-11	0.31	2.846395e6	2.1709049e6	-0.11065032	-0.0058342409	-0.0058342351	-3029.5931	9096.3023	0	833.9028333670367
5.2480746	2.2908677e-11	0.31	2.5959436e6	1.9798907e6	-0.11013586	-0.0058342409	-0.0058342346	-2763.0316	8295.927	0	834.3862023026304
5.2480746	2.5118864e-11	0.31	2.3675291e6	1.8056837e6	-0.1096214	-0.005834241	-0.0058342341	-2519.9246	7565.9759	0	834.8695712382239
5.2480746	2.7542287e-11	0.31	2.1592127e6	1.646805e6	-0.10910695	-0.0058342409	-0.0058342333	-2298.2083	6900.2528	0	835.3529308655436
5.2480746	3.0199517e-11	0.31	1.9692258e6	1.5019059e6	-0.10859249	-0.0058342409	-0.0058342326	-2096.0006	6293.1061	0	835.8362998593904
5.2480746	3.3113112e-11	0.31	1.7959558e6	1.3697563e6	-0.10807803	-0.0058342409	-0.0058342318	-1911.585	5739.3817	0	836.3196688823635
5.2480746	3.6307805e-11	0.31	1.6379316e6	1.2492344e6	-0.10756358	-0.005834241	-0.0058342309	-1743.3959	5234.379	0	836.8030285388098
5.2480746	3.9810717e-11	0.31	1.4938118e6	1.1393172e6	-0.10704912	-0.0058342409	-0.0058342299	-1590.0055	4773.8111	0	837.286397620036
5.2480746	4.3651583e-11	0.31	1.362373e6	1.0390715e6	-0.10653466	-0.005834241	-0.0058342289	-1450.1118	4353.7682	0	837.7697667012623
5.2480746	4.7863009e-11	0.31	1.2424994e6	947646.26	-0.10602021	-0.005834241	-0.0058342278	-1322.5272	3970.6844	0	838.2531264159614
5.2480746	5.2480746e-11	0.31	1.1331734e6	864265.48	-0.10550575	-0.005834241	-0.0058342265	-1206.1686	3621.308	0	838.7364955845674
5.2480746	5.7543994e-11	0.31	1.0334669e6	788221.3	-0.10499129	-0.005834241	-0.0058342251	-1100.0483	3302.6728	0	839.2198647822997
5.2480746	6.3095734e-11	0.31	942533.47	718868.17	-0.10447684	-0.005834241	-0.0058342236	-1003.2653	3012.0741	0	839.7032246135052
5.2480746	6.9183097e-11	0.31	859601.21	655617.36	-0.10396238	-0.005834241	-0.0058342219	-914.99819	2747.045	0	840.186593898617
5.2480746	7.5857758e-11	0.31	783966.08	597931.93	-0.10344792	-0.0058342411	-0.0058342201	-834.49755	2505.3355	0	840.6699632128555
5.2480746	8.3176377e-11	0.31	714986.02	545322.18	-0.10293347	-0.0058342411	-0.0058342181	-761.08004	2284.8938	0	841.1533231896935
5.2480746	9.1201084e-11	0.31	652075.47	497341.51	-0.10241901	-0.0058342411	-0.0058342159	-694.12245	2083.8486	0	841.6366926204381
5.2480746	1.e-10	0.31	594700.36	453582.61	-0.10190455	-0.0058342411	-0.0058342135	-633.05634	1900.4932	0	842.1200621094357
5.2480746	1.0964782e-10	0.31	542373.63	413674.02	-0.1013901	-0.0058342411	-0.0058342108	-577.36335	1733.2711	0	842.6034222901594
5.2480746	1.2022644e-10	0.31	494651.09	377276.93	-0.10087564	-0.0058342412	-0.005834208	-526.57069	1580.7628	0	843.0867918956632
5.2480746	1.3182567e-10	0.31	451127.62	344082.39	-0.10036118	-0.0058342411	-0.0058342047	-480.24719	1441.6735	0	843.5701616467996
5.2480746	1.4454398e-10	0.31	411433.75	313808.61	-0.099846728	-0.0058342412	-0.0058342012	-437.99961	1314.8226	0	844.0535239396661
5.2480746	1.5848932e-10	0.31	375232.5	286198.57	-0.099332272	-0.0058342413	-0.0058341974	-399.46931	1199.1331	0	844.5368900781737
5.2480746	1.7378008e-10	0.31	342216.57	261017.92	-0.098817815	-0.0058342412	-0.0058341931	-364.32922	1093.6231	0	845.0202573018792
5.2480746	1.9054607e-10	0.31	312105.68	238052.87	-0.098303359	-0.0058342414	-0.0058341887	-332.28103	997.39684	0	845.503623615146
5.2480746	2.0892961e-10	0.31	284644.22	217108.5	-0.097788902	-0.0058342414	-0.0058341836	-303.05269	909.63744	0	845.9869910718637
5.2480746	2.2908677e-10	0.31	259599.08	198007.	-0.097274446	-0.0058342414	-0.0058341781	-276.39607	829.5999	0	846.4703577055222
5.2480746	2.5118864e-10	0.31	236757.63	180586.21	-0.096759989	-0.0058342415	-0.005834172	-252.08491	756.60481	0	846.9537254535053
5.2480746	2.7542287e-10	0.31	215925.99	164698.26	-0.096245533	-0.0058342416	-0.0058341655	-229.91282	690.03249	0	847.437092378429
5.2480746	3.0199517e-10	0.31	196927.31	150208.26	-0.095731076	-0.0058342417	-0.0058341581	-209.69159	629.31782	0	847.920460505057
5.2480746	3.3113112e-10	0.31	179600.3	136993.22	-0.09521662	-0.0058342418	-0.0058341502	-191.24956	573.94538	0	848.403827837752
5.2480746	3.6307805e-10	0.31	163797.88	124940.95	-0.094702163	-0.0058342417	-0.0058341413	-174.43019	523.44511	0	848.887196401278
5.2480746	3.9810717e-10	0.31	149385.9	113949.15	-0.094187707	-0.005834242	-0.0058341319	-159.09069	477.38831	0	849.3705641708709
5.2480746	4.3651583e-10	0.31	136242.03	103924.49	-0.09367325	-0.0058342419	-0.0058341212	-145.10086	435.38403	0	849.853933258674
5.2480746	4.7863009e-10	0.31	124254.67	94781.888	-0.093158794	-0.0058342421	-0.0058341097	-132.34193	397.07565	0	850.3373016399241
5.2480746	5.2480746e-10	0.31	113322.06	86443.727	-0.092644337	-0.0058342422	-0.0058340971	-120.70561	362.13801	0	850.8206712811314
5.2480746	5.7543994e-10	0.31	103351.41	78839.226	-0.092129881	-0.0058342424	-0.0058340833	-110.09311	330.27449	0	851.3040403322915
5.2480746	6.3095734e-10	0.31	94258.071	71903.831	-0.091615425	-0.0058342425	-0.005834068	-100.41436	301.21462	0	851.7874098203496
5.2480746	6.9183097e-10	0.31	85964.844	65578.667	-0.091100968	-0.0058342427	-0.0058340513	-91.587178	274.7117	0	852.2707806557444
5.2480746	7.5857758e-10	0.31	78401.332	59810.041	-0.090586512	-0.0058342428	-0.005834033	-83.536651	250.54076	0	852.7541510175982
5.2480746	8.3176377e-10	0.31	71503.325	54548.983	-0.090072055	-0.0058342431	-0.0058340131	-76.194438	228.49659	0	853.2375227850418
5.2480746	9.1201084e-10	0.31	65212.27	49750.833	-0.089557599	-0.0058342432	-0.005833991	-69.498215	208.39207	0	853.7208942537036
5.2480746	1.e-9	0.31	59474.759	45374.86	-0.089043143	-0.0058342435	-0.005833967	-63.391142	190.05653	0	854.2042662757692
5.2480746	1.0964782e-9	0.31	54242.087	41383.918	-0.088528686	-0.0058342437	-0.0058339405	-57.82138	173.33432	0	854.6876399655637
5.2480746	1.2022644e-9	0.31	49469.833	37744.127	-0.08801423	-0.0058342439	-0.0058339115	-52.741651	158.08349	0	855.1710134439559
5.2480746	1.3182567e-9	0.31	45117.485	34424.59	-0.087499773	-0.0058342443	-0.0058338798	-48.108837	144.17456	0	855.6543886483295
5.2480746	1.4454398e-9	0.31	41148.098	31397.128	-0.086985317	-0.0058342446	-0.0058338449	-43.883616	131.48946	0	856.1377638451866
5.2480746	1.5848932e-9	0.31	37527.972	28636.042	-0.086470861	-0.005834245	-0.0058338068	-40.030123	119.92052	0	856.6211399740926
5.2480746	1.7378008e-9	0.31	34226.38	26117.893	-0.085956405	-0.0058342454	-0.0058337649	-36.515651	109.36952	0	857.1045172098063
5.2480746	1.9054607e-9	0.31	31215.291	23821.306	-0.085441948	-0.0058342458	-0.0058337189	-33.310369	99.746893	0	857.5878965792732
5.2480746	2.0892961e-9	0.31	28469.146	21726.786	-0.084927492	-0.0058342464	-0.0058336686	-30.387072	90.970952	0	858.0712762616154
5.2480746	2.2908677e-9	0.31	25964.631	19816.553	-0.084413036	-0.0058342468	-0.0058336133	-27.720948	82.9672	0	858.5546574002839
5.2480746	2.5118864e-9	0.31	23680.487	18074.391	-0.08389858	-0.0058342475	-0.0058335529	-25.289368	75.66769	0	859.0380400244048
5.2480746	2.7542287e-9	0.31	21597.323	16485.513	-0.083384124	-0.0058342481	-0.0058334865	-23.071696	69.010459	0	859.5214243961177
5.2480746	3.0199517e-9	0.31	19697.454	15036.43	-0.082869668	-0.0058342488	-0.0058334137	-21.04911	62.938991	0	860.0048106319282
5.2480746	3.3113112e-9	0.31	17964.753	13714.844	-0.082355212	-0.0058342496	-0.0058333339	-19.204444	57.401747	0	860.4881989065955
5.2480746	3.6307805e-9	0.31	16384.512	12509.534	-0.081840756	-0.0058342503	-0.0058332463	-17.522044	52.35172	0	860.9715894531316
5.2480746	3.9810717e-9	0.31	14943.314	11410.27	-0.0813263	-0.0058342513	-0.0058331504	-15.987631	47.746041	0	861.4549824171695
5.2480746	4.3651583e-9	0.31	13628.926	10407.722	-0.080811844	-0.0058342523	-0.0058330452	-14.588185	43.545612	0	861.9383780899744
5.2480746	4.7863009e-9	0.31	12430.19	9493.3789	-0.080297388	-0.0058342533	-0.0058329298	-13.31183	39.714775	0	862.4217767336849
5.2480746	5.2480746e-9	0.31	11336.93	8659.4798	-0.079782933	-0.0058342546	-0.0058328033	-12.147734	36.22101	0	862.9051776708743
5.2480746	5.7543994e-9	0.31	10339.865	7898.9468	-0.079268477	-0.0058342559	-0.0058326647	-11.086021	33.034659	0	863.3885830719385
5.2480746	6.3095734e-9	0.31	9430.5306	7205.3244	-0.078754021	-0.0058342573	-0.0058325126	-10.117683	30.128672	0	863.8719924050843
5.2480746	6.9183097e-9	0.31	8601.208	6572.7252	-0.078239566	-0.0058342589	-0.0058323458	-9.2345019	27.47838	0	864.3554050802634
5.2480746	7.5857758e-9	0.31	7844.8567	5995.7796	-0.077725111	-0.0058342608	-0.0058321631	-8.428986	25.061285	0	864.8388223865604
5.2480746	8.3176377e-9	0.31	7155.0562	5469.591	-0.077210655	-0.0058342626	-0.0058319625	-7.6943018	22.856869	0	865.3222458460708
5.2480746	9.1201084e-9	0.31	6525.9507	4989.6931	-0.0766962	-0.0058342646	-0.0058317427	-7.0242165	20.846418	0	865.805673958309
5.2480746	1.e-8	0.31	5952.1995	4552.0129	-0.076181745	-0.0058342671	-0.0058315018	-6.413046	19.012863	0	866.2891082162441
5.2480746	1.0964782e-8	0.31	5428.9323	4152.8358	-0.07566729	-0.0058342696	-0.0058312375	-5.8556067	17.340643	0	866.7725492897861
5.2480746	1.2022644e-8	0.31	4951.707	3788.7738	-0.075152836	-0.0058342724	-0.0058309478	-5.3471707	15.815559	0	867.2559968219005
5.2480746	1.3182567e-8	0.31	4516.4724	3456.7373	-0.074638381	-0.0058342754	-0.00583063	-4.8834264	14.424667	0	867.7394534781338
5.2480746	1.4454398e-8	0.31	4119.5336	3153.9082	-0.074123927	-0.0058342787	-0.0058302816	-4.4604413	13.156157	0	868.2229181075186
5.2480746	1.5848932e-8	0.31	3757.5212	2877.7167	-0.073609473	-0.0058342824	-0.0058298997	-4.0746289	11.999263	0	868.70639249429
5.2480746	1.7378008e-8	0.31	3427.3619	2625.819	-0.073095019	-0.0058342864	-0.0058294809	-3.7227186	10.944163	0	869.189877628749
5.2480746	1.9054607e-8	0.31	3126.2531	2396.0774	-0.072580566	-0.0058342908	-0.0058290216	-3.4017273	9.9819007	0	869.6733736198858
5.2480746	2.0892961e-8	0.31	2851.6387	2186.5425	-0.072066113	-0.0058342956	-0.0058285181	-3.1089345	9.1043069	0	870.1568824849469
5.2480746	2.2908677e-8	0.31	2601.1873	1995.4363	-0.07155166	-0.0058343009	-0.005827966	-2.841859	8.3039318	0	870.6404055054998
5.2480746	2.5118864e-8	0.31	2372.7729	1821.1373	-0.071037207	-0.0058343066	-0.0058273605	-2.598238	7.5739812	0	871.1239440796172
5.2480746	2.7542287e-8	0.31	2164.4566	1662.1666	-0.070522755	-0.0058343129	-0.0058266967	-2.3760077	6.9082583	0	871.6074986949341
5.2480746	3.0199517e-8	0.31	1974.4698	1517.1755	-0.070008303	-0.00583432	-0.005825969	-2.1732859	6.3011118	0	872.0910719221008
5.2480746	3.3113112e-8	0.31	1801.1999	1384.934	-0.069493852	-0.0058343276	-0.0058251708	-1.9883562	5.7473878	0	872.5746647439031
5.2480746	3.6307805e-8	0.31	1643.1758	1264.3202	-0.068979401	-0.005834336	-0.0058242959	-1.819653	5.2423855	0	873.0582799057506
5.2480746	3.9810717e-8	0.31	1499.0562	1154.311	-0.068464951	-0.0058343452	-0.0058233364	-1.6657486	4.781818	0	873.5419187690736
5.2480746	4.3651583e-8	0.31	1367.6176	1053.9733	-0.067950501	-0.0058343553	-0.0058222844	-1.5253408	4.3617756	0	874.0255845744331
5.2480746	4.7863009e-8	0.31	1247.7441	962.45616	-0.067436052	-0.0058343663	-0.0058211308	-1.397242	3.9786924	0	874.5092790327774
5.2480746	5.2480746e-8	0.31	1138.4183	878.98344	-0.066921604	-0.0058343785	-0.0058198661	-1.2803693	3.6293165	0	874.9930049111266
5.2480746	5.7543994e-8	0.31	1038.712	802.84732	-0.066407157	-0.0058343918	-0.0058184792	-1.1737348	3.310682	0	875.4767654425251
5.2480746	6.3095734e-8	0.31	947.77876	733.40227	-0.06589271	-0.0058344063	-0.0058169585	-1.0764377	3.020084	0	875.9605649452153
5.2480746	6.9183097e-8	0.31	864.84674	670.05954	-0.065378264	-0.0058344222	-0.0058152911	-0.98765635	2.7550556	0	876.4444062369532
5.2480746	7.5857758e-8	0.31	789.21188	612.2822	-0.06486382	-0.0058344397	-0.0058134629	-0.9066415	2.513347	0	876.9282924850143
5.2480746	8.3176377e-8	0.31	720.2321	559.58055	-0.064349377	-0.005834459	-0.0058114584	-0.83270975	2.2929062	0	877.412229143575
5.2480746	9.1201084e-8	0.31	657.32186	511.50799	-0.063834935	-0.00583448	-0.0058092603	-0.76523788	2.0918621	0	877.8962212515244
5.2480746	1.e-7	0.31	599.94709	467.65721	-0.063320494	-0.0058345031	-0.0058068503	-0.70365746	1.9085078	0	878.3802741390166
5.2480746	1.0964782e-7	0.31	547.62074	427.65675	-0.062806055	-0.0058345285	-0.0058042078	-0.64745012	1.7412869	0	878.8643928665509
5.2480746	1.2022644e-7	0.31	499.89862	391.16782	-0.062291617	-0.0058345562	-0.0058013102	-0.59614308	1.5887799	0	879.3485849562874
5.2480746	1.3182567e-7	0.31	456.3756	357.88144	-0.061777181	-0.0058345866	-0.0057981331	-0.54930516	1.4496921	0	879.8328565755328
5.2480746	1.4454398e-7	0.31	416.68221	327.51583	-0.061262748	-0.00583462	-0.0057946496	-0.5065431	1.3228427	0	880.3172146197572
5.2480746	1.5848932e-7	0.31	380.48151	299.814	-0.060748316	-0.0058346566	-0.00579083	-0.46749829	1.2071551	0	880.8016696186698
5.2480746	1.7378008e-7	0.31	347.46618	274.54157	-0.060233887	-0.0058346968	-0.0057866419	-0.43184362	1.101647	0	881.2862291301341
5.2480746	1.9054607e-7	0.31	317.35595	251.48477	-0.059719461	-0.0058347408	-0.0057820497	-0.39928079	1.0054228	0	881.7709035231932
5.2480746	2.0892961e-7	0.31	289.89521	230.44866	-0.059205038	-0.005834789	-0.0057770145	-0.36953774	0.91766572	0	882.2557041280659
5.2480746	2.2908677e-7	0.31	264.85085	211.25545	-0.058690617	-0.0058348421	-0.0057714938	-0.34236634	0.83763072	0	882.7406442630909
5.2480746	2.5118864e-7	0.31	242.01027	193.74299	-0.058176201	-0.0058349001	-0.0057654402	-0.31754032	0.76463842	0	883.2257349155452
5.2480746	2.7542287e-7	0.31	221.17957	177.76339	-0.057661788	-0.0058349638	-0.0057588028	-0.29485328	0.69806916	0	883.7109927899616
5.2480746	3.0199517e-7	0.31	202.18192	163.18178	-0.057147379	-0.0058350336	-0.0057515251	-0.27411701	0.63735784	0	884.1964334032616
5.2480746	3.3113112e-7	0.31	184.85606	149.87517	-0.056632975	-0.0058351101	-0.0057435452	-0.25515983	0.58198908	0	884.6820738451993
5.2480746	3.6307805e-7	0.31	169.05488	137.73138	-0.056118576	-0.0058351942	-0.0057347958	-0.23782518	0.53149283	0	885.1679337179265
5.2480746	3.9810717e-7	0.31	154.64427	126.64809	-0.055604183	-0.0058352863	-0.0057252024	-0.22197029	0.48544046	0	885.6540337811401
5.2480746	4.3651583e-7	0.31	141.5019	116.53201	-0.055089795	-0.0058353871	-0.0057146835	-0.20746492	0.44344101	0	886.1403987125235
5.2480746	4.7863009e-7	0.31	129.51618	107.29803	-0.054575415	-0.0058354979	-0.0057031503	-0.1941903	0.40513795	0	886.6270515577357
5.2480746	5.2480746e-7	0.31	118.58538	98.868554	-0.054061041	-0.0058356194	-0.0056905048	-0.18203812	0.37020612	0	887.1140227399031
5.2480746	5.7543994e-7	0.31	108.6167	91.172809	-0.053546676	-0.0058357525	-0.0056766397	-0.17090957	0.338349	0	887.6013406930915
5.2480746	6.3095734e-7	0.31	99.525529	84.146243	-0.05303232	-0.0058358984	-0.0056614376	-0.16071457	0.30929613	0	888.0890396118423
5.2480746	6.9183097e-7	0.31	91.234676	77.729988	-0.052517973	-0.0058360587	-0.0056447701	-0.15137092	0.28280088	0	888.5771568946147
5.2480746	7.5857758e-7	0.31	83.673768	71.870361	-0.052003637	-0.0058362343	-0.0056264955	-0.14280368	0.25863835	0	889.0657319345654
5.2480746	8.3176377e-7	0.31	76.778617	66.518399	-0.051489312	-0.005836427	-0.0056064596	-0.13494448	0.23660341	0	889.5548096447969
5.2480746	9.1201084e-7	0.31	70.490691	61.629451	-0.050975	-0.0058366382	-0.0055844928	-0.12773098	0.216509	0	890.0444375447665
5.2480746	1.e-6	0.31	64.756612	57.162798	-0.050460703	-0.0058368697	-0.0055604093	-0.12110631	0.19818455	0	890.5346678724285
5.2480746	1.0964782e-6	0.31	59.527701	53.081302	-0.04994642	-0.0058371238	-0.0055340063	-0.1150186	0.18147449	0	891.0255606359427
5.2480746	1.2022644e-6	0.31	54.759571	49.351098	-0.049432155	-0.0058374025	-0.0055050608	-0.10942054	0.16623698	0	891.5171770292004
5.2480746	1.3182567e-6	0.31	50.411743	45.941302	-0.048917908	-0.005837708	-0.005473329	-0.10426896	0.15234265	0	892.0095880626716
5.2480746	1.4454398e-6	0.31	46.44731	42.82375	-0.048403681	-0.005838043	-0.0054385442	-0.09952452	0.13967357	0	892.5028695376698
5.2480746	1.5848932e-6	0.31	42.832614	39.972756	-0.047889476	-0.0058384106	-0.0054004148	-0.095151296	0.12812217	0	892.997104508014
5.2480746	1.7378008e-6	0.31	39.536971	37.364902	-0.047375296	-0.0058388137	-0.0053586213	-0.091116534	0.11759039	0	893.4923832142582
5.2480746	1.9054607e-6	0.31	36.532403	34.97883	-0.046861143	-0.0058392557	-0.0053128148	-0.087390353	0.10798883	0	893.9888053997201
5.2480746	2.0892961e-6	0.31	33.793401	32.795065	-0.046347019	-0.0058397405	-0.0052626145	-0.083945487	0.099235969	0	894.4864800990799
5.2480746	2.2908677e-6	0.31	31.296712	30.79585	-0.045832927	-0.0058402723	-0.0052076043	-0.08075706	0.091257499	0	894.9855256891153
5.2480746	2.5118864e-6	0.31	29.021138	28.964994	-0.04531887	-0.0058408556	-0.0051473308	-0.077802375	0.083985681	0	895.4860714107983
5.2480746	2.7542287e-6	0.31	26.947358	27.287736	-0.044804852	-0.0058414952	-0.0050812996	-0.075060719	0.077358774	0	895.9882575074118
5.2480746	3.0199517e-6	0.31	25.057763	25.750615	-0.044290877	-0.0058421969	-0.0050089737	-0.072513185	0.071320503	0	896.4922366301378
5.2480746	3.3113112e-6	0.31	23.336306	24.341362	-0.043776948	-0.0058429664	-0.0049297692	-0.070142518	0.065819589	0	896.9981760300648
5.2480746	3.6307805e-6	0.31	21.768363	23.048791	-0.04326307	-0.0058438104	-0.0048430536	-0.067932963	0.060809306	0	897.5062552346421
5.2480746	3.9810717e-6	0.31	20.340614	21.862705	-0.042749249	-0.0058447363	-0.0047481427	-0.065870135	0.056247086	0	898.0166678901675
5.2480746	4.3651583e-6	0.31	19.040923	20.773811	-0.042235489	-0.0058457519	-0.0046442988	-0.063940894	0.052094152	0	898.5296251047606
5.2480746	4.7863009e-6	0.31	17.858238	19.773635	-0.041721797	-0.0058468659	-0.0045307289	-0.062133238	0.048315188	0	899.045351274814
5.2480746	5.2480746e-6	0.31	16.782495	18.854458	-0.041208179	-0.005848088	-0.0044065841	-0.060436197	0.044878035	0	899.5640880180138
5.2480746	5.7543994e-6	0.31	15.804528	18.009242	-0.040694643	-0.0058494285	-0.0042709601	-0.058839746	0.041753412	0	900.0860912090102
5.2480746	6.3095734e-6	0.31	14.915994	17.231572	-0.040181196	-0.005850899	-0.004122899	-0.057334714	0.038914659	0	900.6116332738369
5.2480746	6.9183097e-6	0.31	14.109296	16.515601	-0.039667847	-0.0058525122	-0.0039613937	-0.055912712	0.036337506	0	901.1409990896477
5.2480746	7.5857758e-6	0.31	13.377518	15.855999	-0.039154606	-0.0058542821	-0.0037853941	-0.054566063	0.033999855	0	901.6744851184369
5.2480746	8.3176377e-6	0.31	12.714358	15.247904	-0.038641483	-0.0058562237	-0.0035938158	-0.053287737	0.031881581	0	902.2123978125974
5.2480746	9.1201084e-6	0.31	12.114078	14.68688	-0.038128491	-0.0058583539	-0.0033855537	-0.052071291	0.029964347	0	902.755046835017
5.2480746	0.00001	0.31	11.571441	14.168876	-0.037615641	-0.0058606912	-0.0031594983	-0.050910824	0.028231432	0	903.3027450092807
5.2480746	0.000010964782	0.31	11.081667	13.690191	-0.037102948	-0.0058632558	-0.0029145561	-0.049800922	0.026667567	0	903.8557967404688
5.2480746	0.000012022644	0.31	10.635171	13.247402	-0.036599804	-0.0058718611	-0.002655465	-0.048742243	0.025252987	0	904.4039976451459
5.2480746	0.000013182567	0.31	10.237882	12.837469	-0.036088358	-0.0058754939	-0.0023702023	-0.047719522	0.023985968	0	904.9676216991977
5.2480746	0.000014454398	0.31	9.8813467	12.457506	-0.035577202	-0.0058794772	-0.0020631772	-0.04673372	0.022849434	0	905.5373119103599
5.2480746	0.000015848932	0.31	9.5621646	12.104887	-0.035066363	-0.0058838447	-0.0017336355	-0.045781011	0.021832538	0	906.1132625826256
5.2480746	0.000017378008	0.31	9.2771867	11.777186	-0.034555872	-0.0058886339	-0.0013809812	-0.04485789	0.020925241	0	906.695618183563
5.2480746	0.000019054607	0.31	9.0234886	11.472161	-0.034045763	-0.0058938851	-0.0010047999	-0.043961147	0.020118224	0	907.2844674682735
5.2480746	0.000020892961	0.31	8.7983442	11.187733	-0.033536071	-0.005899643	-0.00060487747	-0.043087854	0.019402804	0	907.8798399205997
5.2480746	0.000022908677	0.31	8.5992067	10.921971	-0.033026837	-0.0059059567	-0.00018120722	-0.042235335	0.018770873	0	908.4816989669266
5.2480746	0.000025118864	0.31	8.423693	10.673083	-0.032518105	-0.0059128794	0.00026601365	-0.041401161	0.018214849	0	909.0899458288699
5.2480746	0.000027542287	0.31	8.2695733	10.439405	-0.032009922	-0.0059204705	0.00073639767	-0.040583126	0.017727641	0	909.7044234903087
5.2480746	0.000030199517	0.31	8.1347645	10.219395	-0.031502341	-0.0059287944	0.0012293942	-0.039779237	0.017302632	0	910.3249217719768
5.2480746	0.000033113112	0.31	8.017326	10.011628	-0.030995419	-0.0059379223	0.0017443221	-0.038987695	0.016933662	0	910.951188726232
5.2480746	0.000036307805	0.31	7.915458	9.8147938	-0.03048922	-0.0059479318	0.0022804097	-0.038206888	0.016615025	0	911.5829394602293
5.2480746	0.000039810717	0.31	7.8274999	9.6276927	-0.029983812	-0.0059589089	0.0028368351	-0.037435373	0.016341461	0	912.2198706926091
5.2480746	0.000043651583	0.31	7.7519281	9.4492318	-0.029479271	-0.0059709483	0.0034127651	-0.03667186	0.016108155	0	912.8616683341913
5.2480746	0.000047863009	0.31	7.6873538	9.2784211	-0.028975679	-0.0059841529	0.0040073916	-0.035915207	0.015910722	0	913.508019969162
5.2480746	0.000052480746	0.31	7.6325177	9.1143688	-0.028473126	-0.0059986375	0.0046199573	-0.035164396	0.015745195	0	914.1586204614593
5.2480746	0.000057543994	0.31	7.5862843	8.9562755	-0.027971712	-0.006014528	0.0052497787	-0.03441853	0.015608009	0	914.8131767747439
5.2480746	0.000063095734	0.31	7.5476336	8.8034271	-0.027471545	-0.0060319633	0.0058962595	-0.033676816	0.015495966	0	915.4714137544847
5.2480746	0.000069183097	0.31	7.5156531	8.6551885	-0.026972742	-0.006051097	0.0065588976	-0.032938558	0.015406217	0	916.1330752272493
5.2480746	0.000075857758	0.31	7.4895275	8.5109956	-0.026475432	-0.0060720983	0.007237288	-0.032203141	0.015336224	0	916.7979220266777
5.2480746	0.000083176377	0.31	7.4685288	8.3703479	-0.025979757	-0.0060951547	0.007931119	-0.031470029	0.015283729	0	917.4657299471091
5.2480746	0.000091201084	0.31	7.4520064	8.2328012	-0.025485868	-0.0061204741	0.0086401664	-0.03073875	0.015246721	0	918.1362918125052
5.2480746	0.0001	0.31	7.4393771	8.0979605	-0.024993932	-0.0061482866	0.0093642859	-0.030008896	0.015223403	0	918.809408685875
5.2480746	0.00010964782	0.31	7.4301162	7.965473	-0.02450413	-0.0061788467	0.010103404	-0.02928011	0.015212161	0	919.4848890978944
5.2480746	0.00012022644	0.31	7.423749	7.8350226	-0.024016655	-0.0062124376	0.010857506	-0.028552087	0.015211535	0	920.162547430851
5.2480746	0.00013182567	0.31	7.4198435	7.7063237	-0.023531717	-0.0062493726	0.011626628	-0.027824564	0.015220193	0	920.8421968906973
5.2480746	0.00014454398	0.31	7.4180039	7.5791169	-0.023049537	-0.0062899985	0.012410843	-0.02709732	0.015236905	0	921.5236510958548
5.2480746	0.00015848932	0.31	7.417866	7.4531645	-0.022570352	-0.0063346993	0.013210258	-0.026370169	0.015260531	0	922.2067185347184
5.2480746	0.00017378008	0.31	7.419093	7.3282473	-0.022094409	-0.0063838985	0.014024996	-0.025642963	0.015289994	0	922.8912029602732
5.2480746	0.00019054607	0.31	7.4213735	7.204162	-0.021621962	-0.0064380623	0.014855195	-0.024915582	0.01532428	0	923.5769059175261
5.2480746	0.00020892961	0.31	7.4244212	7.08072	-0.021153274	-0.0064977016	0.015701	-0.024187938	0.015362421	0	924.2636225342526
5.2480746	0.00022908677	0.31	7.4279756	6.9577464	-0.020688603	-0.006563372	0.016562555	-0.023459968	0.015403504	0	924.9511523447894
5.2480746	0.00025118864	0.31	7.431805	6.8350806	-0.020228203	-0.0066356755	0.017440003	-0.022731635	0.015446671	0	925.6392983504696
5.2480746	0.00027542287	0.31	7.4357108	6.7125778	-0.01977231	-0.0067152587	0.018333483	-0.022002921	0.015491128	0	926.3278792997419
5.2480746	0.00030199517	0.31	7.4395332	6.5901115	-0.01932114	-0.0068028086	0.019243132	-0.021273827	0.01553617	0	927.0167321498307
5.2480746	0.00033113112	0.31	7.4431577	6.4675766	-0.018874868	-0.0068990493	0.020169088	-0.020544367	0.015581193	0	927.7057326714053
5.2480746	0.00036307805	0.31	7.4465226	6.3448931	-0.01843363	-0.0070047331	0.021111494	-0.019814564	0.01562573	0	928.3947947345107
5.2480746	0.00039810717	0.31	7.4496246	6.2220098	-0.017997504	-0.0071206334	0.022070508	-0.019084445	0.015669467	0	929.0838910729599
5.2480746	0.00043651583	0.31	7.4525249	6.0989078	-0.017566503	-0.0072475339	0.023046311	-0.018354032	0.015712276	0	929.7730621914154
5.2480746	0.00047863009	0.31	7.455352	5.9756032	-0.017140573	-0.0073862163	0.024039121	-0.01762334	0.015754233	0	930.4624223222321
5.2480746	0.00052480746	0.31	7.4583024	5.8521481	-0.016719584	-0.0075374489	0.0250492	-0.016892367	0.015795631	0	931.1521699204038
5.2480746	0.00057543994	0.31	7.4616376	5.7286299	-0.016303333	-0.0077019766	0.026076869	-0.016161088	0.015836982	0	931.8425892138439
5.2480746	0.00063095734	0.31	7.4656785	5.6051698	-0.015891546	-0.0078805073	0.02712252	-0.01542945	0.015879016	0	932.5340518194403
5.2480746	0.00069183097	0.31	7.4707963	5.4819179	-0.015483887	-0.0080737037	0.028186622	-0.014697366	0.015922658	0	933.2270100345562
5.2480746	0.00075857758	0.31	7.4774014	5.3590482	-0.015079967	-0.0082821732	0.029269734	-0.013964712	0.015969007	0	933.9219921673925
5.2480746	0.00083176377	0.31	7.4859302	5.2367514	-0.014679359	-0.0085064613	0.030372514	-0.013231319	0.016019294	0	934.6195910648942
5.2480746	0.00091201084	0.31	7.4968315	5.1152279	-0.01428161	-0.0087470434	0.031495723	-0.012496978	0.016074848	0	935.3204540030258
5.2480746	0.001	0.31	7.5105529	4.9946795	-0.01388626	-0.0090043199	0.032640237	-0.011761433	0.016137053	0	936.0252683302151
5.2480746	0.0010964782	0.31	7.5275275	4.8753026	-0.013492859	-0.0092786118	0.033807045	-0.011024387	0.016207302	0	936.7347449122103
5.2480746	0.0012022644	0.31	7.5481621	4.7572806	-0.013100979	-0.0095701519	0.034997266	-0.010285501	0.01628696	0	937.4496118088056
5.2480746	0.0013182567	0.31	7.5728271	4.6407783	-0.012710237	-0.0098790835	0.036212145	-0.009544398	0.016377323	0	938.1705914987765
5.2480746	0.0014454398	0.31	7.6018472	4.5259365	-0.012320305	-0.010205451	0.037453071	-0.0088006658	0.01647959	0	938.898396727002
5.2480746	0.0015848932	0.31	7.6354947	4.4128674	-0.011930927	-0.010549195	0.038721573	-0.0080538639	0.016594829	0	939.6337133667921
5.2480746	0.0017378008	0.31	7.673983	4.3016521	-0.011541933	-0.010910148	0.040019335	-0.007303528	0.016723956	0	940.3771916349515
5.2480746	0.0019054607	0.31	7.7174629	4.1923374	-0.011153254	-0.011288021	0.041348206	-0.0065491754	0.016867716	0	941.1294349109523
5.2480746	0.0020892961	0.31	7.7660182	4.0849342	-0.010764932	-0.011682402	0.042710204	-0.0057903122	0.017026663	0	941.8909915063415
5.2480746	0.0022908677	0.31	7.8196635	3.9794166	-0.010377134	-0.012092745	0.044107527	-0.0050264397	0.017201152	0	942.6623447147438
5.2480746	0.0025118864	0.31	7.8783426	3.8757211	-0.0099901643	-0.012518359	0.045542568	-0.0042570608	0.017391325	0	943.4439056241868
5.2480746	0.0027542287	0.31	7.9419266	3.7737464	-0.0096044755	-0.012958409	0.047017916	-0.0034816881	0.017597104	0	944.2360030731472
5.2480746	0.0030199517	0.31	8.0102142	3.6733534	-0.0092206771	-0.013411901	0.048536367	-0.0026998498	0.017818183	0	945.0388787742072
5.2480746	0.0033113112	0.31	8.0829292	3.5743642	-0.0088395466	-0.013877687	0.050100927	-0.0019110981	0.018054017	0	945.8526777586742
5.2480746	0.0036307805	0.31	8.1597171	3.4765594	-0.0084620404	-0.014354465	0.05171481	-0.0011150152	0.018303797	0	946.6774375527882
5.2480746	0.0039810717	0.31	8.240131	3.3796689	-0.0080893103	-0.014840804	0.053381417	-0.00031122326	0.018566394	0	947.5130665583231
5.2480746	0.0043651583	0.31	8.3235949	3.2833479	-0.0077227403	-0.015335186	0.055104294	0.00050060637	0.018840209	0	948.3592972434412
5.2480746	0.0047863009	0.31	8.4093012	3.1871102	-0.0073640325	-0.015836137	0.056887006	0.0013207358	0.019122789	0	949.2155687346071
5.2480746	0.0052480746	0.31	8.4959117	3.0901319	-0.0070154403	-0.016342615	0.058732746	0.0021493259	0.019409693	0	950.0806938252312
5.2480746	0.0057543994	0.31	8.5805309	2.9905712	-0.0066805145	-0.016855428	0.060642923	0.0029863446	0.019690601	0	950.951746699418
5.2480746	0.0063095734	0.31	8.6543643	2.8827167	-0.0063671956	-0.017383177	0.062611219	0.0038312526	0.019933073	0	951.8194265246026
5.2480746	0.0069183097	0.31	8.6944916	2.7518234	-0.0060935163	-0.017955485	0.064610364	0.0046819584	0.020052656	0	952.6588475970989
5.2480746	0.0075857758	0.31	8.6981037	2.5965083	-0.0058603634	-0.018593977	0.066621156	0.0055346124	0.020037775	0	953.4635838348606
5.2480746	0.0083176377	0.31	8.6950634	2.4361796	-0.0056427313	-0.019286191	0.068658555	0.0063870738	0.019994698	0	954.2614869614708
5.2480746	0.0091201084	0.31	8.7031642	2.2822276	-0.0054263864	-0.020018363	0.070738896	0.007239703	0.019987407	0	955.0706881922933
5.2480746	0.01	0.31	8.7275316	2.138199	-0.0052100813	-0.020775006	0.072880319	0.0080939143	0.020037126	0	955.8976430929345
5.2480746	0.010964782	0.31	8.7664656	2.0040185	-0.005003168	-0.021529505	0.075112171	0.0089512633	0.020144991	0	956.7421126097823
5.2480746	0.012022644	0.31	8.8138584	1.8777208	-0.00482382	-0.022243297	0.077475827	0.0098129035	0.020301177	0	957.5990726520192
5.2480746	0.013182567	0.31	8.8639061	1.7572181	-0.0046878497	-0.022886561	0.08000401	0.010679344	0.020494533	0	958.4631975095585
5.2480746	0.014454398	0.31	8.9187277	1.6425309	-0.0045912913	-0.023466893	0.082692115	0.011550867	0.020725454	0	959.3368720341501
5.2480746	0.015848932	0.31	8.9876124	1.5355856	-0.0045127509	-0.0240216	0.085505914	0.012428369	0.021005599	0	960.2302277656673
5.2480746	0.017378008	0.31	9.0792798	1.4381801	-0.0044295841	-0.024591051	0.088408214	0.013313686	0.021346843	0	961.1537075689622
5.2480746	0.019054607	0.31	9.1982719	1.3510536	-0.0043257866	-0.025206512	0.091371021	0.014209308	0.021755808	0	962.1141948501195
5.2480746	0.020892961	0.31	9.3453698	1.2739743	-0.0041931797	-0.025886212	0.09437948	0.015117977	0.02223394	0	963.1150472868521
5.2480746	0.022908677	0.31	9.5190359	1.2060731	-0.0040306082	-0.026633949	0.097433269	0.016042386	0.022779077	0	964.1572564776391
5.2480746	0.025118864	0.31	9.7168298	1.14619	-0.0038415887	-0.027442316	0.10054338	0.016985023	0.023387229	0	965.2407199346922
5.2480746	0.027542287	0.31	9.9364155	1.0931531	-0.0036312717	-0.028299165	0.10372565	0.017948134	0.024054095	0	966.3652111945748
5.2480746	0.030199517	0.31	10.17598	1.0459256	-0.0034045216	-0.029192245	0.10699614	0.018933762	0.024775927	0	967.5308378469155
5.2480746	0.033113112	0.31	10.434227	1.0036356	-0.00316558	-0.030110148	0.11037018	0.019943799	0.025549747	0	968.7380797277385
5.2480746	0.036307805	0.31	10.710219	0.96555366	-0.0029186693	-0.031040767	0.11386393	0.020980028	0.026373264	0	969.9876764628871
5.2480746	0.039810717	0.31	11.003175	0.93106639	-0.0026692631	-0.031967811	0.11749785	0.02204415	0.027244752	0	971.2804445346505
5.2480746	0.043651583	0.31	11.31222	0.89966519	-0.0024265181	-0.032863809	0.1213037	0.023137786	0.028162992	0	972.6170312095984
5.2480746	0.047863009	0.31	11.636226	0.87096324	-0.002205727	-0.033682826	0.12533186	0.02426246	0.029127347	0	973.9977419404263
5.2480746	0.052480746	0.31	11.974496	0.84471211	-0.0020224293	-0.034377104	0.12963465	0.025419594	0.030137852	0	975.4232153497022
5.2480746	0.057543994	0.31	12.32797	0.82073436	-0.0018783511	-0.034937947	0.13422548	0.026610619	0.031194947	0	976.8957355207922
5.2480746	0.063095734	0.31	12.04797	0.82681112	-0.0023983952	-0.035539464	0.13893509	0.027848565	0.032466835	0	977.7788658780444
5.2480746	0.069183097	0.31	11.183401	0.85905904	-0.0034824287	-0.036696856	0.1432533	0.029023354	0.033821749	0	978.0180901151123
5.2480746	0.075857758	0.31	10.394906	0.88846948	-0.0044710791	-0.038403831	0.14719155	0.030094774	0.035057445	0	978.2362638602965
5.2480746	0.083176377	0.31	9.7918538	0.90766185	-0.0052704919	-0.040557947	0.1508576	0.03107368	0.036143553	0	978.5529562939939
5.2480746	0.091201084	0.31	10.563177	0.84565167	-0.0048197343	-0.042151411	0.15526474	0.032069715	0.036793222	0	980.2601192875486
5.2480746	0.1	0.31	11.554054	0.78622375	-0.0041012243	-0.043763264	0.15983959	0.033151815	0.037543379	0	982.2677012550257
5.2480746	0.10964782	0.31	12.805278	0.72946471	-0.0030412379	-0.045421394	0.16456008	0.034343448	0.038417976	0	984.6385424880337
5.2480746	0.12022644	0.31	14.365406	0.67545196	-0.001551008	-0.047161691	0.16939634	0.03567244	0.039445272	0	987.4473453846811
5.2480746	0.13182567	0.31	16.294195	0.62425369	0.00047745454	-0.049026764	0.17431196	0.037171892	0.040658749	0	990.7849678310258
5.2480746	0.14454398	0.31	18.667334	0.57592928	0.0031771526	-0.051064132	0.17926581	0.0388815	0.042098434	0	994.7643949844842
5.2480746	0.15848932	0.31	21.582252	0.53052995	0.0067134279	-0.053323979	0.18421429	0.040849395	0.043812745	0	999.5282770308072
5.2480746	0.17378008	0.31	25.164346	0.48809933	0.011292194	-0.055856483	0.18911404	0.04313458	0.045860927	0	1005.2574539544571
5.2480746	0.19054607	0.31	29.572316	0.44867339	0.017167634	-0.058708599	0.19392508	0.045809946	0.048316075	0	1012.1791026037149
5.2480746	0.20892961	0.31	35.000513	0.41227898	0.02464689	-0.061920104	0.19861488	0.048965691	0.051268533	0	1020.572328194408
5.2480746	0.22908677	0.31	41.67539	0.37892986	0.034088183	-0.065518831	0.20316305	0.052712697	0.054829263	0	1030.7677638671573
5.2480746	0.25118864	0.31	49.842891	0.34861936	0.045888376	-0.069515411	0.20756663	0.05718515	0.059132412	0	1043.1374262002953
5.2480746	0.27542287	0.31	59.744741	0.32130968	0.060457106	-0.073898533	0.21184486	0.062541374	0.064336095	0	1058.0717998686735
5.2480746	0.30199517	0.31	71.584945	0.29691969	0.07817836	-0.078632444	0.21604165	0.068961845	0.070620332	0	1075.9444552098423
5.2480746	0.33113112	0.31	85.49296	0.27531528	0.099366261	-0.083658567	0.220224	0.076643668	0.078181481	0	1097.07004608256
5.2480746	0.36307805	0.31	101.4944	0.25630678	0.12422708	-0.08890211	0.22447537	0.08579173	0.087223367	0	1121.666686569611
5.2480746	0.39810717	0.31	119.5	0.23965651	0.15283982	-0.094282527	0.22888528	0.096607791	0.097946426	0	1149.834679218282
5.2480746	0.43651583	0.31	139.31714	0.22509528	0.18516115	-0.099724824	0.23353793	0.10927962	0.11053692	0	1181.5578362571573
5.2480746	0.47863009	0.31	160.67967	0.21234325	0.22105103	-0.10516841	0.23850344	0.1239722	0.12515827	0	1216.7250044745497
5.2480746	0.52480746	0.31	183.28524	0.2011295	0.2603085	-0.11057153	0.24383337	0.14082234	0.14194578	0	1255.162386454451
5.2480746	0.57543994	0.31	206.82988	0.19120622	0.30270669	-0.11591139	0.24956064	0.15993691	0.16100492	0	1296.6664114582168
5.2480746	0.63095734	0.31	231.03351	0.18235654	0.34802025	-0.12118133	0.25570232	0.18139394	0.18241252	0	1341.030320332187
5.2480746	0.69183097	0.31	255.65478	0.17439673	0.39604308	-0.12638678	0.26226376	0.20524586	0.20621998	0	1388.06202692686
5.2480746	0.75857758	0.31	280.49701	0.16717474	0.4465975	-0.13154118	0.26924262	0.23152359	0.23245737	0	1437.5939077101423
5.2480746	0.83176377	0.31	305.40795	0.16056663	0.49953738	-0.13666261	0.27663223	0.260241	0.26113786	0	1489.4867212581644
5.2480746	0.91201084	0.31	330.27592	0.15447235	0.55474744	-0.14177136	0.28442411	0.29139901	0.29226184	0	1543.629684547986
5.2480746	1.	0.31	355.02443	0.14881155	0.61214071	-0.14688819	0.29260965	0.32498942	0.32582063	0	1599.9385757872428
5.2480746	1.0964782	0.31	379.60631	0.14351977	0.67165515	-0.15203337	0.30118113	0.36099798	0.36179963	0	1658.3528557738246
5.2480746	1.2022644	0.31	403.99824	0.13854531	0.7332502	-0.15722605	0.31013232	0.39940704	0.4001809	0	1718.8326011545744
5.2480746	1.3182567	0.31	428.19583	0.13384651	0.79690363	-0.16248408	0.31945871	0.44019763	0.44094524	0	1781.355611785447
5.2480746	1.4454398	0.31	452.20948	0.1293897	0.8626087	-0.16782388	0.32915763	0.4833511	0.48407382	0	1845.9147773177422
5.2480746	1.5848932	0.31	476.06095	0.12514753	0.93037179	-0.17326056	0.33922814	0.5288504	0.52954943	0	1912.5158183890508
5.2480746	1.7378008	0.31	499.78056	0.12109758	1.0002105	-0.17880798	0.349671	0.57668107	0.57735748	0	1981.1754927111278
5.2480746	1.9054607	0.31	523.40494	0.1172214	1.0721519	-0.18447892	0.3604885	0.62683194	0.62748669	0	2051.919901315442
5.2480746	2.0892961	0.31	546.97531	0.11350366	1.1462313	-0.19028523	0.37168433	0.67929564	0.67992963	0	2124.783295023304
5.2480746	2.2908677	0.31	570.53604	0.10993153	1.2224914	-0.19623796	0.38326348	0.73406905	0.73468309	0	2199.8072466887993
5.2480746	2.5118864	0.31	594.13362	0.10649418	1.300981	-0.20234751	0.39523206	0.79115348	0.79174832	0	2277.0393867317375
5.2480746	2.7542287	0.31	617.8158	0.10318236	1.3817546	-0.20862373	0.40759728	0.85055489	0.85113123	0	2356.5330214862065
5.2480746	3.0199517	0.31	641.63101	0.099988127	1.464872	-0.21507603	0.42036727	0.91228392	0.91284242	0	2438.346704946689
5.2480746	3.3113112	0.31	665.62784	0.096904599	1.5503975	-0.22171351	0.43355109	0.97635601	0.97689728	0	2522.5434900284317
5.2480746	3.6307805	0.31	689.85477	0.093925735	1.6383997	-0.22854498	0.44715859	1.0427913	1.043316	0	2609.19069987724
5.2480746	3.9810717	0.31	714.35986	0.091046199	1.7289516	-0.23557907	0.46120041	1.1116148	1.1121234	0	2698.360021826016
5.2480746	4.3651583	0.31	739.19064	0.088261235	1.8221296	-0.2428243	0.47568789	1.182856	1.183349	0	2790.1265416155293
5.2480746	4.7863009	0.31	764.39398	0.085566563	1.9180143	-0.25028911	0.4906331	1.2565493	1.2570272	0	2884.5695037846613
5.2480746	5.2480746	0.31	790.01606	0.082958303	2.0166896	-0.25798191	0.50604873	1.3327333	1.3331966	0	2981.7714340224065
5.2480746	5.7543994	0.31	816.10234	0.080432911	2.118243	-0.26591113	0.52194813	1.4114513	1.4119006	0	3081.818432688092
5.2480746	6.3095734	0.31	842.69757	0.077987127	2.2227656	-0.27408527	0.53834529	1.4927511	1.4931867	0	3184.8001689860675
5.2480746	6.9183097	0.31	869.84584	0.07561793	2.3303518	-0.28251288	0.55525479	1.5766847	1.5771071	0	3290.8095845328426
5.2480746	7.5857758	0.31	897.59064	0.073322508	2.4410995	-0.29120266	0.57269184	1.6633085	1.6637181	0	3399.9430929207656
5.2480746	8.3176377	0.31	925.97489	0.071098225	2.5551101	-0.30016343	0.59067223	1.7526831	1.7530802	0	3512.300565154756
5.2480746	9.1201084	0.31	955.04104	0.068942604	2.6724884	-0.30940418	0.60921237	1.8448731	1.8452582	0	3627.985247346387
5.2480746	10.	0.31	984.83115	0.066853302	2.7933429	-0.31893409	0.62832927	1.9399476	1.9403211	0	3747.104036758181