5.7543994	1.e-12	0.04	8.5978397e7	5.9797674e7	-0.13877035	-0.020828061	-0.020828061	-91508.833	274724.02	0	808.3987645556961
5.7543994	1.0964782e-12	0.04	7.8413231e7	5.4536129e7	-0.13820626	-0.020828061	-0.020828061	-83457.06	250551.29	0	808.9287639739774
5.7543994	1.2022644e-12	0.04	7.1513718e7	4.9737543e7	-0.13764217	-0.020828061	-0.020828061	-76113.756	228505.49	0	809.458763392259
5.7543994	1.3182567e-12	0.04	6.5221286e7	4.5361181e7	-0.13707808	-0.020828061	-0.020828061	-69416.583	208399.48	0	809.9887628105405
5.7543994	1.4454398e-12	0.04	5.948252e7	4.1369891e7	-0.13651399	-0.020828061	-0.020828061	-63308.688	190062.59	0	810.518762228822
5.7543994	1.5848932e-12	0.04	5.4248703e7	3.772979e7	-0.1359499	-0.020828061	-0.020828061	-57738.221	173339.14	0	811.0487616471036
5.7543994	1.7378008e-12	0.04	4.9475406e7	3.440998e7	-0.13538581	-0.020828061	-0.020828061	-52657.896	158087.18	0	811.5787610653849
5.7543994	1.9054607e-12	0.04	4.5122107e7	3.1382277e7	-0.13482172	-0.020828061	-0.020828061	-48024.584	144177.22	0	812.1087604836664
5.7543994	2.0892961e-12	0.04	4.1151851e7	2.8620979e7	-0.13425763	-0.020828061	-0.020828061	-43798.953	131491.19	0	812.638759901948
5.7543994	2.2908677e-12	0.04	3.7530935e7	2.6102645e7	-0.13369354	-0.020828061	-0.020828061	-39945.132	119921.39	0	813.1687593202295
5.7543994	2.5118864e-12	0.04	3.422862e7	2.3805897e7	-0.13312945	-0.020828061	-0.020828061	-36430.405	109369.61	0	813.6987587385111
5.7543994	2.7542287e-12	0.04	3.1216873e7	2.1711238e7	-0.13256536	-0.020828061	-0.020828061	-33224.936	99746.269	0	814.2287581567925
5.7543994	3.0199517e-12	0.04	2.8470127e7	1.9800887e7	-0.13200127	-0.020828061	-0.020828061	-30301.514	90969.68	0	814.758757575074
5.7543994	3.3113112e-12	0.04	2.5965065e7	1.8058626e7	-0.13143718	-0.020828061	-0.020828061	-27635.32	82965.335	0	815.2887569933555
5.7543994	3.6307805e-12	0.04	2.3680421e7	1.6469664e7	-0.13087309	-0.020828061	-0.020828061	-25203.723	75665.285	0	815.818756411637
5.7543994	3.9810717e-12	0.04	2.1596802e7	1.5020514e7	-0.130309	-0.020828061	-0.020828061	-22986.081	69007.562	0	816.3487558299184
5.7543994	4.3651583e-12	0.04	1.9696518e7	1.3698874e7	-0.12974491	-0.020828061	-0.020828061	-20963.566	62935.645	0	816.8787552482
5.7543994	4.7863009e-12	0.04	1.7963438e7	1.2493523e7	-0.12918082	-0.020828061	-0.020828061	-19119.011	57397.991	0	817.4087546664815
5.7543994	5.2480746e-12	0.04	1.6382851e7	1.1394231e7	-0.12861673	-0.020828061	-0.020828061	-17436.756	52347.59	0	817.9387540847629
5.7543994	5.7543994e-12	0.04	1.4941338e7	1.0391664e7	-0.12805263	-0.020828061	-0.020828061	-15902.522	47741.571	0	818.468762898698
5.7543994	6.3095734e-12	0.04	1.3626663e7	9.4773122e6	-0.12748854	-0.020828061	-0.020828061	-14503.284	43540.831	0	818.9987623169795
5.7543994	6.9183097e-12	0.04	1.2427664e7	8.6434133e6	-0.12692445	-0.020828061	-0.020828061	-13227.164	39709.711	0	819.528761735261
5.7543994	7.5857758e-12	0.04	1.1334165e7	7.8828886e6	-0.12636036	-0.020828061	-0.020828061	-12063.328	36215.687	0	820.0587611535424
5.7543994	8.3176377e-12	0.04	1.0336882e7	7.1892819e6	-0.12579627	-0.020828061	-0.020828061	-11001.897	33029.1	0	820.5887605718241
5.7543994	9.1201084e-12	0.04	9.4273489e6	6.5567049e6	-0.12523218	-0.020828061	-0.020828061	-10033.86	30122.898	0	821.1187599901054
5.7543994	1.e-11	0.04	8.5978449e6	5.9797879e6	-0.12466809	-0.020828061	-0.020828061	-9151.0004	27472.41	0	821.6487594083869
5.7543994	1.0964782e-11	0.04	7.8413282e6	5.4536333e6	-0.124104	-0.020828062	-0.020828061	-8345.8225	25055.137	0	822.1787588266685
5.7543994	1.2022644e-11	0.04	7.1513769e6	4.9737746e6	-0.12353991	-0.020828061	-0.020828061	-7611.4916	22850.557	0	822.70875824495
5.7543994	1.3182567e-11	0.04	6.5221338e6	4.5361383e6	-0.12297582	-0.020828061	-0.020828061	-6941.7738	20839.957	0	823.2387576632316
5.7543994	1.4454398e-11	0.04	5.9482571e6	4.1370092e6	-0.12241173	-0.020828062	-0.020828061	-6330.9837	19006.267	0	823.768757081513
5.7543994	1.5848932e-11	0.04	5.4248756e6	3.7729991e6	-0.12184764	-0.020828061	-0.020828061	-5773.9367	17333.923	0	824.2987564997944
5.7543994	1.7378008e-11	0.04	4.9475458e6	3.441018e6	-0.12128355	-0.020828061	-0.020828061	-5265.9036	15808.726	0	824.828755918076
5.7543994	1.9054607e-11	0.04	4.5122159e6	3.1382476e6	-0.12071946	-0.020828062	-0.020828061	-4802.5718	14417.73	0	825.3587553363575
5.7543994	2.0892961e-11	0.04	4.1151903e6	2.8621177e6	-0.12015537	-0.020828061	-0.020828061	-4380.0083	13149.127	0	825.888754754639
5.7543994	2.2908677e-11	0.04	3.7530987e6	2.6102842e6	-0.11959128	-0.020828062	-0.020828061	-3994.6257	11992.147	0	826.4187541729206
5.7543994	2.5118864e-11	0.04	3.4228672e6	2.3806094e6	-0.11902719	-0.020828062	-0.020828061	-3643.1524	10936.969	0	826.948753591202
5.7543994	2.7542287e-11	0.04	3.1216925e6	2.1711434e6	-0.1184631	-0.020828062	-0.020828061	-3322.6051	9974.6353	0	827.4787530094834
5.7543994	3.0199517e-11	0.04	2.8470179e6	1.9801082e6	-0.11789901	-0.020828062	-0.020828061	-3030.2623	9096.9763	0	828.008752427765
5.7543994	3.3113112e-11	0.04	2.5965117e6	1.8058819e6	-0.11733492	-0.020828062	-0.020828061	-2763.6425	8296.5417	0	828.5387518460465
5.7543994	3.6307805e-11	0.04	2.3680473e6	1.6469857e6	-0.11677083	-0.020828062	-0.020828061	-2520.4823	7566.5368	0	829.068751264328
5.7543994	3.9810717e-11	0.04	2.1596853e6	1.5020706e6	-0.11620674	-0.020828062	-0.020828061	-2298.7175	6900.7644	0	829.5987506826095
5.7543994	4.3651583e-11	0.04	1.9696569e6	1.3699065e6	-0.11564265	-0.020828062	-0.02082806	-2096.4655	6293.5728	0	830.1287501384737
5.7543994	4.7863009e-11	0.04	1.796349e6	1.2493714e6	-0.11507856	-0.020828062	-0.02082806	-1912.0095	5739.8074	0	830.6587495567551
5.7543994	5.2480746e-11	0.04	1.6382902e6	1.139442e6	-0.11451447	-0.020828062	-0.02082806	-1743.7836	5234.7673	0	831.1887489750366
5.7543994	5.7543994e-11	0.04	1.494139e6	1.0391853e6	-0.11395038	-0.020828062	-0.02082806	-1590.3596	4774.1654	0	831.718748393318
5.7543994	6.3095734e-11	0.04	1.3626714e6	947750.02	-0.11338629	-0.020828062	-0.02082806	-1450.4353	4354.0914	0	832.2487478115996
5.7543994	6.9183097e-11	0.04	1.2427716e6	864360.06	-0.11282219	-0.020828062	-0.02082806	-1322.8227	3970.9793	0	832.7787566255346
5.7543994	7.5857758e-11	0.04	1.1334217e6	788307.51	-0.1122581	-0.020828062	-0.02082806	-1206.4387	3621.577	0	833.3087560438161
5.7543994	8.3176377e-11	0.04	1.0336934e6	718946.74	-0.11169401	-0.020828062	-0.020828059	-1100.2951	3302.9183	0	833.8387554996801
5.7543994	9.1201084e-11	0.04	942740.08	655688.97	-0.11112992	-0.020828062	-0.020828059	-1003.4909	3012.2981	0	834.3687549179617
5.7543994	1.e-10	0.04	859789.67	597997.18	-0.11056583	-0.020828062	-0.020828059	-915.20439	2747.2493	0	834.8987543362433
5.7543994	1.0964782e-10	0.04	784138.01	545381.64	-0.11000174	-0.020828062	-0.020828059	-834.68611	2505.522	0	835.4287537545248
5.7543994	1.2022644e-10	0.04	715142.87	497395.69	-0.10943765	-0.020828062	-0.020828058	-761.25251	2285.064	0	835.9587532103889
5.7543994	1.3182567e-10	0.04	652218.55	453631.97	-0.10887356	-0.020828062	-0.020828058	-694.28021	2084.0039	0	836.4887526286702
5.7543994	1.4454398e-10	0.04	594830.9	413718.98	-0.10830947	-0.020828062	-0.020828058	-633.20071	1900.635	0	837.0187520469517
5.7543994	1.5848932e-10	0.04	542492.74	377317.89	-0.10774538	-0.020828062	-0.020828058	-577.49549	1733.4005	0	837.5487514652333
5.7543994	1.7378008e-10	0.04	494759.76	344119.69	-0.10718129	-0.020828062	-0.020828057	-526.69167	1580.8809	0	838.0787509210975
5.7543994	1.9054607e-10	0.04	451226.77	313842.57	-0.1066172	-0.020828062	-0.020828057	-480.358	1441.7813	0	838.608750339379
5.7543994	2.0892961e-10	0.04	411524.21	286229.5	-0.10605311	-0.020828063	-0.020828056	-438.10113	1314.921	0	839.1387497952431
5.7543994	2.2908677e-10	0.04	375315.05	261046.07	-0.10548902	-0.020828063	-0.020828056	-399.56236	1199.223	0	839.6687492135245
5.7543994	2.5118864e-10	0.04	342291.9	238078.5	-0.10492493	-0.020828063	-0.020828055	-364.41453	1093.7052	0	840.1987486693887
5.7543994	2.7542287e-10	0.04	312174.43	217131.82	-0.10436084	-0.020828063	-0.020828055	-332.35928	997.4718	0	840.7287480876702
5.7543994	3.0199517e-10	0.04	284706.97	198028.21	-0.10379675	-0.020828063	-0.020828054	-303.1245	909.70591	0	841.2587475435342
5.7543994	3.3113112e-10	0.04	259656.35	180605.51	-0.10323266	-0.020828063	-0.020828054	-276.46201	829.66246	0	841.7887469618158
5.7543994	3.6307805e-10	0.04	236809.91	164715.8	-0.10266857	-0.020828064	-0.020828053	-252.14548	756.66196	0	842.3187464176799
5.7543994	3.9810717e-10	0.04	215973.71	150224.21	-0.10210448	-0.020828064	-0.020828052	-229.96849	690.08473	0	842.848745873544
5.7543994	4.3651583e-10	0.04	196970.87	137007.72	-0.10154039	-0.020828064	-0.020828051	-209.74279	629.36556	0	843.3787453294082
5.7543994	4.7863009e-10	0.04	179640.08	124954.12	-0.1009763	-0.020828064	-0.02082805	-191.29668	573.98902	0	843.9087447852722
5.7543994	5.2480746e-10	0.04	163834.2	113961.1	-0.10041221	-0.020828065	-0.020828049	-174.47358	523.48501	0	844.4387442411363
5.7543994	5.7543994e-10	0.04	149419.08	103935.35	-0.099848116	-0.020828065	-0.020828048	-159.13068	477.42482	0	844.9687474552619
5.7543994	6.3095734e-10	0.04	136272.32	94791.737	-0.099284026	-0.020828065	-0.020828046	-145.13774	435.41742	0	845.4987469487087
5.7543994	6.9183097e-10	0.04	124282.34	86452.657	-0.098719935	-0.020828065	-0.020828045	-132.37597	397.10621	0	846.0287473441381
5.7543994	7.5857758e-10	0.04	113347.35	78847.32	-0.098155845	-0.020828066	-0.020828043	-120.73706	362.16599	0	846.5587468375849
5.7543994	8.3176377e-10	0.04	103374.52	71911.159	-0.097591755	-0.020828066	-0.020828042	-110.12219	330.30011	0	847.0887462934488
5.7543994	9.1201084e-10	0.04	94279.187	65585.299	-0.097027664	-0.020828067	-0.02082804	-100.44127	301.23809	0	847.6187467264609
5.7543994	1.e-9	0.04	85984.146	59816.038	-0.096463574	-0.020828067	-0.020828038	-91.612109	274.73321	0	848.1487462199078
5.7543994	1.0964782e-9	0.04	78418.98	54554.401	-0.095899483	-0.020828068	-0.020828035	-83.559772	250.56048	0	848.6787466905024
5.7543994	1.2022644e-9	0.04	71519.465	49755.722	-0.095335393	-0.020828068	-0.020828033	-76.215904	228.51468	0	849.2087461839491
5.7543994	1.3182567e-9	0.04	65227.035	45379.268	-0.094771303	-0.020828069	-0.02082803	-69.518168	208.40868	0	849.7387457149784
5.7543994	1.4454398e-9	0.04	59488.269	41387.886	-0.094207212	-0.02082807	-0.020828027	-63.409709	190.07178	0	850.2687461855731
5.7543994	1.5848932e-9	0.04	54254.452	37747.694	-0.093643122	-0.020828071	-0.020828024	-57.838679	173.34833	0	850.7987457166024
5.7543994	1.7378008e-9	0.04	49481.155	34427.791	-0.093079032	-0.020828072	-0.02082802	-52.75779	158.09637	0	851.3287452852145
5.7543994	1.9054607e-9	0.04	45127.856	31399.996	-0.092514941	-0.020828073	-0.020828016	-48.123914	144.18641	0	851.8587457933917
5.7543994	2.0892961e-9	0.04	41157.6	28638.606	-0.091950851	-0.020828074	-0.020828012	-43.89772	131.50038	0	852.3887453620036
5.7543994	2.2908677e-9	0.04	37536.684	26120.18	-0.09138676	-0.020828075	-0.020828007	-40.043335	119.93058	0	852.9187459077637
5.7543994	2.5118864e-9	0.04	34234.369	23823.341	-0.09082267	-0.020828076	-0.020828001	-36.528045	109.3788	0	853.4487455515409
5.7543994	2.7542287e-9	0.04	31222.622	21728.59	-0.09025858	-0.020828077	-0.020827996	-33.322013	99.755462	0	853.9787451577354
5.7543994	3.0199517e-9	0.04	28475.876	19818.146	-0.089694489	-0.020828079	-0.020827989	-30.398026	90.978872	0	854.5087457786606
5.7543994	3.3113112e-9	0.04	25970.814	18075.793	-0.089130399	-0.020828081	-0.020827982	-27.73127	82.974527	0	855.0387454600203
5.7543994	3.6307805e-9	0.04	23686.17	16486.739	-0.088566308	-0.020828083	-0.020827975	-25.299109	75.674477	0	855.5687460809454
5.7543994	3.9810717e-9	0.04	21602.55	15037.498	-0.088002218	-0.020828085	-0.020827966	-23.080903	69.016754	0	856.0987458374706
5.7543994	4.3651583e-9	0.04	19702.266	13715.765	-0.087438128	-0.020828087	-0.020827957	-21.057825	62.944837	0	856.6287455939954
5.7543994	4.7863009e-9	0.04	17969.187	12510.323	-0.086874037	-0.020828089	-0.020827947	-19.212707	57.407184	0	857.1587463276685
5.7543994	5.2480746e-9	0.04	16388.599	11410.938	-0.086309947	-0.020828092	-0.020827936	-17.529889	52.356784	0	857.688746159359
5.7543994	5.7543994e-9	0.04	14947.086	10408.279	-0.085745856	-0.020828095	-0.020827924	-15.995091	47.750763	0	858.2187469681971
5.7543994	6.3095734e-9	0.04	13632.411	9493.8354	-0.085181766	-0.020828098	-0.020827911	-14.595289	43.550023	0	858.7487468750526
5.7543994	6.9183097e-9	0.04	12433.413	8659.8446	-0.084617676	-0.020828102	-0.020827897	-13.318605	39.718903	0	859.2787468194906
5.7543994	7.5857758e-9	0.04	11339.914	7899.2278	-0.084053585	-0.020828106	-0.020827881	-12.154206	36.224879	0	859.8087477786592
5.7543994	8.3176377e-9	0.04	10342.631	7205.5291	-0.083489495	-0.02082811	-0.020827863	-11.092211	33.038293	0	860.3387478734278
5.7543994	9.1201084e-9	0.04	9433.0977	6572.8602	-0.082925404	-0.020828115	-0.020827844	-10.123611	30.132091	0	860.8687489453442
5.7543994	1.e-8	0.04	8603.5936	5995.8511	-0.082361314	-0.02082812	-0.020827823	-9.2401878	27.481603	0	861.3987491528607
5.7543994	1.0964782e-8	0.04	7847.077	5469.6045	-0.081797223	-0.020828125	-0.0208278	-8.4344464	25.06433	0	861.9287503751077
5.7543994	1.2022644e-8	0.04	7157.1255	4989.6538	-0.081233133	-0.020828132	-0.020827775	-7.6995519	22.85975	0	862.4587507329546
5.7543994	1.3182567e-8	0.04	6527.8825	4551.9255	-0.080669043	-0.020828138	-0.020827747	-7.0292706	20.849149	0	862.9887512035492
5.7543994	1.4454398e-8	0.04	5954.0058	4152.7044	-0.080104952	-0.020828146	-0.020827717	-6.417917	19.01546	0	863.5187526888745
5.7543994	1.5848932e-8	0.04	5430.6242	3788.6023	-0.079540862	-0.020828154	-0.020827684	-5.8603064	17.343115	0	864.0487533473823
5.7543994	1.7378008e-8	0.04	4953.2945	3456.5292	-0.078976771	-0.020828163	-0.020827647	-5.3517098	15.817919	0	864.5787550957858
5.7543994	1.9054607e-8	0.04	4517.9646	3153.6667	-0.078412681	-0.020828173	-0.020827607	-4.8878145	14.426923	0	865.1087560173719
5.7543994	2.0892961e-8	0.04	4120.939	2877.4448	-0.07784859	-0.020828183	-0.020827563	-4.4646874	13.15832	0	865.6387580288538
5.7543994	2.2908677e-8	0.04	3758.8473	2625.5193	-0.0772845	-0.020828195	-0.020827515	-4.0787412	12.00134	0	866.1687592511007
5.7543994	2.5118864e-8	0.04	3428.6159	2395.7525	-0.076720409	-0.020828208	-0.020827463	-3.7267046	10.946162	0	866.6987615632435
5.7543994	2.7542287e-8	0.04	3127.4411	2186.1945	-0.076156318	-0.020828222	-0.020827405	-3.4055936	9.9838277	0	867.228764100882
5.7543994	3.0199517e-8	0.04	2852.7665	1995.0672	-0.075592228	-0.020828238	-0.020827342	-3.1126873	9.1061687	0	867.7587658868682
5.7543994	3.3113112e-8	0.04	2602.2603	1820.749	-0.075028137	-0.020828255	-0.020827272	-2.845504	8.3057343	0	868.288768875498
5.7543994	3.6307805e-8	0.04	2373.796	1661.7608	-0.074464047	-0.020828273	-0.020827196	-2.6017802	7.5757293	0	868.8187711500582
5.7543994	3.9810717e-8	0.04	2165.434	1516.7537	-0.073899956	-0.020828294	-0.020827113	-2.3794519	6.9099569	0	869.348774627262
5.7543994	4.3651583e-8	0.04	1975.4056	1384.4976	-0.073335866	-0.020828316	-0.020827021	-2.1766364	6.3027653	0	869.878777503144
5.7543994	4.7863009e-8	0.04	1802.0976	1263.8704	-0.072771775	-0.020828341	-0.020826921	-1.9916169	5.7489999	0	870.4087816192522
5.7543994	5.2480746e-8	0.04	1644.0389	1153.8491	-0.072207684	-0.020828368	-0.020826811	-1.8228274	5.2439598	0	870.9387861111866
5.7543994	5.7543994e-8	0.04	1499.8876	1053.5003	-0.071643593	-0.020828397	-0.02082669	-1.66884	4.7833579	0	871.4687910165297
5.7543994	6.3095734e-8	0.04	1368.4201	961.97303	-0.071079503	-0.02082843	-0.020826558	-1.5283521	4.3632839	0	871.9987953957162
5.7543994	6.9183097e-8	0.04	1248.5203	878.49107	-0.070515412	-0.020828465	-0.020826413	-1.400176	3.9801719	0	872.5288012030421
5.7543994	7.5857758e-8	0.04	1139.1704	802.3465	-0.069951321	-0.020828504	-0.020826254	-1.2832284	3.6307696	0	873.0588075365247
5.7543994	8.3176377e-8	0.04	1039.4421	732.89373	-0.06938723	-0.020828547	-0.020826079	-1.1765213	3.3121109	0	873.5888144713289
5.7543994	9.1201084e-8	0.04	948.48876	669.54394	-0.068823139	-0.020828594	-0.020825888	-1.0791536	3.0214907	0	874.118822007455
5.7543994	1.e-7	0.04	865.53837	611.76015	-0.068259048	-0.020828646	-0.020825678	-0.99030354	2.7564419	0	874.648830257651
5.7543994	1.0964782e-7	0.04	789.88671	559.0526	-0.067694957	-0.020828702	-0.020825448	-0.90922172	2.5147146	0	875.1788392594989
5.7543994	1.2022644e-7	0.04	720.89157	510.97463	-0.067130866	-0.020828764	-0.020825196	-0.83522458	2.2942566	0	875.7088490881646
5.7543994	1.3182567e-7	0.04	657.96727	467.11891	-0.066566775	-0.020828831	-0.02082492	-0.76768876	2.0931966	0	876.2388598188129
5.7543994	1.4454398e-7	0.04	600.57961	427.1139	-0.066002684	-0.020828906	-0.020824617	-0.70604572	1.9098277	0	876.7688715641918
5.7543994	1.5848932e-7	0.04	548.24145	390.6208	-0.065438592	-0.020828987	-0.020824285	-0.64977696	1.7425932	0	877.2988853390317
5.7543994	1.7378008e-7	0.04	500.50848	357.3306	-0.064874501	-0.020829077	-0.02082392	-0.59840961	1.5900736	0	877.8288994145327
5.7543994	1.9054607e-7	0.04	456.9755	326.96147	-0.064310409	-0.020829175	-0.020823521	-0.5515124	1.4509741	0	878.358915707408
5.7543994	2.0892961e-7	0.04	417.27295	299.25639	-0.063746317	-0.020829282	-0.020823083	-0.508692	1.3241138	0	878.888933466005
5.7543994	2.2908677e-7	0.04	381.0638	273.98095	-0.063182226	-0.0208294	-0.020822603	-0.46958969	1.2084158	0	879.4189518635065
5.7543994	2.5118864e-7	0.04	348.04066	250.92138	-0.062618134	-0.020829529	-0.020822076	-0.43387833	1.102898	0	879.9489729669564
5.7543994	2.7542287e-7	0.04	317.9232	229.88269	-0.062054042	-0.020829671	-0.020821499	-0.40125954	1.0066647	0	880.478995949537
5.7543994	3.0199517e-7	0.04	290.45576	210.68707	-0.061489949	-0.020829826	-0.020820865	-0.37146121	0.91889882	0	881.0090220138917
5.7543994	3.3113112e-7	0.04	265.40515	193.17237	-0.060925857	-0.020829996	-0.020820171	-0.34423519	0.83885543	0	881.5390493936379
5.7543994	3.6307805e-7	0.04	242.55873	177.19065	-0.060361764	-0.020830183	-0.02081941	-0.31935511	0.76585497	0	882.0690802309848
5.7543994	3.9810717e-7	0.04	221.72255	162.60706	-0.059797672	-0.020830388	-0.020818576	-0.29661458	0.69927779	0	882.5991128722972
5.7543994	4.3651583e-7	0.04	202.71972	149.29856	-0.059233579	-0.020830612	-0.020817661	-0.27582533	0.63855868	0	883.1291494973664
5.7543994	4.7863009e-7	0.04	185.38895	137.15296	-0.058669485	-0.020830859	-0.020816657	-0.25681568	0.58318221	0	883.6591904068537
5.7543994	5.2480746e-7	0.04	169.5831	126.06794	-0.058105392	-0.020831129	-0.020815557	-0.23942903	0.53267828	0	884.1892339847068
5.7543994	5.7543994e-7	0.04	155.168	115.95018	-0.057541298	-0.020831425	-0.020814351	-0.22352257	0.48661816	0	884.7192824858821
5.7543994	6.3095734e-7	0.04	142.02127	106.71457	-0.056977204	-0.020831749	-0.020813028	-0.20896608	0.44461085	0	885.2493353842234
5.7543994	6.9183097e-7	0.04	130.03132	98.283486	-0.056413109	-0.020832105	-0.020811578	-0.19564076	0.40629974	0	885.7793939951218
5.7543994	7.5857758e-7	0.04	119.09636	90.586148	-0.055849014	-0.020832496	-0.020809988	-0.18343828	0.37135961	0	886.3094578675864
5.7543994	8.3176377e-7	0.04	109.12356	83.557991	-0.055284918	-0.020832924	-0.020808245	-0.17225985	0.33949386	0	886.8395284297562
5.7543994	9.1201084e-7	0.04	100.02827	77.140133	-0.054720822	-0.020833393	-0.020806333	-0.16201536	0.31043197	0	887.3696053433879
5.7543994	1.e-6	0.04	91.733272	71.278876	-0.054156726	-0.020833908	-0.020804237	-0.15262263	0.28392723	0	887.8996891722203
5.7543994	1.0964782e-6	0.04	84.168152	65.925244	-0.053592629	-0.020834473	-0.020801939	-0.14400672	0.25975464	0	888.4297815323063
5.7543994	1.2022644e-6	0.04	77.268688	61.034572	-0.053028531	-0.020835092	-0.020799419	-0.13609927	0.23770901	0	888.9598831752978
5.7543994	1.3182567e-6	0.04	70.976313	56.566127	-0.052464433	-0.02083577	-0.020796656	-0.12883795	0.21760319	0	889.4899939508646
5.7543994	1.4454398e-6	0.04	65.237608	52.482755	-0.051900333	-0.020836515	-0.020793627	-0.1221659	0.19926649	0	890.0201166025374
5.7543994	1.5848932e-6	0.04	60.003858	48.750576	-0.051336233	-0.020837331	-0.020790306	-0.11603127	0.18254326	0	890.5502502283335
5.7543994	1.7378008e-6	0.04	55.230634	45.338688	-0.050772132	-0.020838226	-0.020786664	-0.11038677	0.16729154	0	891.080396857714
5.7543994	1.9054607e-6	0.04	50.877416	42.218911	-0.05020803	-0.020839208	-0.020782671	-0.10518929	0.15338184	0	891.6105576181575
5.7543994	2.0892961e-6	0.04	46.907248	39.365541	-0.049643927	-0.020840284	-0.020778293	-0.10039947	0.1406961	0	892.1407337874726
5.7543994	2.2908677e-6	0.04	43.286429	36.755139	-0.049079823	-0.020841465	-0.020773493	-0.095981458	0.12912662	0	892.6709267562162
5.7543994	2.5118864e-6	0.04	39.98422	34.366326	-0.048515717	-0.020842759	-0.02076823	-0.091902528	0.11857518	0	893.2011390048407
5.7543994	2.7542287e-6	0.04	36.972589	32.179605	-0.04795161	-0.020844179	-0.020762459	-0.088132845	0.10895222	0	893.7313712849985
5.7543994	3.0199517e-6	0.04	34.225971	30.177196	-0.047387501	-0.020845736	-0.020756132	-0.084645198	0.10017605	0	894.2616263402206
5.7543994	3.3113112e-6	0.04	31.721048	28.342882	-0.046823391	-0.020847443	-0.020749195	-0.081414766	0.092172162	0	894.7919052604025
5.7543994	3.6307805e-6	0.04	29.436558	26.661872	-0.046259278	-0.020849316	-0.02074159	-0.078418916	0.084872613	0	895.3222121044664
5.7543994	3.9810717e-6	0.04	27.353106	25.12068	-0.045695164	-0.020851369	-0.020733251	-0.075637004	0.078215437	0	895.8525474737345
5.7543994	4.3651583e-6	0.04	25.453006	23.707002	-0.045131047	-0.020853621	-0.020724108	-0.073050204	0.072144122	0	896.3829158781201
5.7543994	4.7863009e-6	0.04	23.720128	22.409621	-0.044566928	-0.020856091	-0.020714084	-0.070641344	0.066607127	0	896.9133192719196
5.7543994	5.2480746e-6	0.04	22.139762	21.218304	-0.044002805	-0.0208588	-0.020703094	-0.068394764	0.06155745	0	897.4437627287855
5.7543994	5.7543994e-6	0.04	20.698492	20.123721	-0.04343868	-0.020861771	-0.020691045	-0.066296181	0.056952222	0	897.9742478647704
5.7543994	6.3095734e-6	0.04	19.384083	19.117361	-0.042874552	-0.020865029	-0.020677835	-0.064332569	0.05275235	0	898.5047794528662
5.7543994	6.9183097e-6	0.04	18.185376	18.191464	-0.04231042	-0.020868603	-0.020663353	-0.062492049	0.048922182	0	899.0353626043081
5.7543994	7.5857758e-6	0.04	17.092196	17.338951	-0.041746284	-0.020872523	-0.020647475	-0.060763782	0.045429202	0	899.5660019793409
5.7543994	8.3176377e-6	0.04	16.095263	16.553366	-0.041182143	-0.020876822	-0.020630069	-0.059137888	0.042243759	0	900.0967034784346
5.7543994	9.1201084e-6	0.04	15.186114	15.828824	-0.040617998	-0.020881538	-0.020610988	-0.057605352	0.03933881	0	900.6274716866681
5.7543994	0.00001	0.04	14.357031	15.159955	-0.040053848	-0.020886711	-0.02059007	-0.056157954	0.036689697	0	901.1583136319902
5.7543994	0.000010964782	0.04	13.600975	14.541862	-0.039489693	-0.020892385	-0.020567141	-0.054788194	0.034273928	0	901.6892358537757
5.7543994	0.000012022644	0.04	12.908797	13.970026	-0.038930793	-0.020912686	-0.020556083	-0.053492153	0.032067739	0	902.2147745164364
5.7543994	0.000013182567	0.04	12.279846	13.44048	-0.03836713	-0.020920843	-0.020529863	-0.052258034	0.030058636	0	902.7453581564527
5.7543994	0.000014454398	0.04	11.70629	12.94946	-0.037803507	-0.020929786	-0.02050112	-0.051082814	0.028226586	0	903.27599903479
5.7543994	0.000015848932	0.04	11.18326	12.493579	-0.03723993	-0.020939588	-0.020469613	-0.049961303	0.026556039	0	903.806700571466
5.7543994	0.000017378008	0.04	10.706315	12.069749	-0.036676401	-0.020950333	-0.020435078	-0.04888877	0.025032813	0	904.3374708091607
5.7543994	0.000019054607	0.04	10.271407	11.675154	-0.036112926	-0.020962111	-0.020397227	-0.047860899	0.023643975	0	904.8683149342744
5.7543994	0.000020892961	0.04	9.8748443	11.307227	-0.03554951	-0.02097502	-0.020355745	-0.046873754	0.022377735	0	905.399240087504
5.7543994	0.000022908677	0.04	9.5132595	10.963624	-0.034986159	-0.020989169	-0.020310289	-0.045923741	0.021223344	0	905.9302535222938
5.7543994	0.000025118864	0.04	9.1835832	10.642212	-0.034422877	-0.021004676	-0.020260486	-0.045007586	0.020171	0	906.4613654986975
5.7543994	0.000027542287	0.04	8.8830165	10.341044	-0.033859673	-0.02102167	-0.020205927	-0.044122299	0.019211769	0	906.9925829319161
5.7543994	0.000030199517	0.04	8.6090074	10.058343	-0.033296553	-0.021040293	-0.020146172	-0.043265155	0.018337505	0	907.5239167209078
5.7543994	0.000033113112	0.04	8.3592294	9.7924928	-0.032733525	-0.021060699	-0.020080741	-0.042433666	0.017540783	0	908.0553773888041
5.7543994	0.000036307805	0.04	8.1315612	9.5420166	-0.032170598	-0.021083057	-0.020009114	-0.041625561	0.016814838	0	908.5869760224766
5.7543994	0.000039810717	0.04	7.9240693	9.3055697	-0.031607781	-0.021107553	-0.019930732	-0.040838771	0.016153502	0	909.1187251745182
5.7543994	0.000043651583	0.04	7.7349908	9.0819257	-0.031045084	-0.021134388	-0.019844994	-0.040071404	0.015551154	0	909.6506380364261
5.7543994	0.000047863009	0.04	7.5627188	8.8699668	-0.030482518	-0.021163783	-0.019751256	-0.039321736	0.015002673	0	910.1827284761855
5.7543994	0.000052480746	0.04	7.4057885	8.6686741	-0.029920095	-0.021195979	-0.019648832	-0.038588191	0.014503393	0	910.7150110006847
5.7543994	0.000057543994	0.04	7.2628642	8.4771184	-0.029357828	-0.021231237	-0.019536995	-0.037869334	0.014049062	0	911.2475007181351
5.7543994	0.000063095734	0.04	7.1327286	8.2944532	-0.028795731	-0.021269845	-0.019414983	-0.03716385	0.013635806	0	911.7802131125736
5.7543994	0.000069183097	0.04	7.0142712	8.1199061	-0.02823382	-0.021312114	-0.019282001	-0.036470542	0.013260094	0	912.3131630291324
5.7543994	0.000075857758	0.04	6.9064791	7.9527732	-0.02767211	-0.021358383	-0.019137234	-0.035788316	0.012918709	0	912.8463670041617
5.7543994	0.000083176377	0.04	6.8084278	7.7924121	-0.027110619	-0.021409023	-0.018979852	-0.035116172	0.012608716	0	913.3798393190551
5.7543994	0.000091201084	0.04	6.719273	7.6382367	-0.026549366	-0.021464434	-0.018809032	-0.034453197	0.012327439	0	913.9135930525622
5.7543994	0.0001	0.04	6.6382423	7.4897115	-0.025988372	-0.021525053	-0.018623973	-0.033798557	0.012072431	0	914.4476385774843
5.7543994	0.00010964782	0.04	6.5646287	7.346347	-0.025427657	-0.021591353	-0.01842392	-0.033151492	0.011841456	0	914.9819854773881
5.7543994	0.00012022644	0.04	6.4977834	7.2076951	-0.024867245	-0.021663846	-0.018208193	-0.032511306	0.011632464	0	915.5166367588827
5.7543994	0.00013182567	0.04	6.4371096	7.0733451	-0.024307159	-0.021743086	-0.017976219	-0.031877365	0.011443573	0	916.0515923468027
5.7543994	0.00014454398	0.04	6.3820568	6.9429194	-0.023747427	-0.02182967	-0.017727567	-0.031249092	0.01127305	0	916.5868421314254
5.7543994	0.00015848932	0.04	6.3321156	6.8160706	-0.023188073	-0.021924244	-0.01746198	-0.030625962	0.011119291	0	917.1223732219137
5.7543994	0.00017378008	0.04	6.2868128	6.692478	-0.022629126	-0.022027498	-0.017179414	-0.030007496	0.010980809	0	917.6581600245077
5.7543994	0.00019054607	0.04	6.2457078	6.5718449	-0.022070615	-0.022140173	-0.016880062	-0.029393261	0.010856223	0	918.1941680383676
5.7543994	0.00020892961	0.04	6.2083885	6.4538966	-0.021512569	-0.022263063	-0.01656438	-0.028782868	0.010744238	0	918.7303528784266
5.7543994	0.00022908677	0.04	6.1744693	6.3383779	-0.020955016	-0.022397009	-0.016233097	-0.028175963	0.010643645	0	919.2666608391287
5.7543994	0.00025118864	0.04	6.1435891	6.2250524	-0.020397986	-0.022542902	-0.015887212	-0.027572231	0.010553311	0	919.8030261884828
5.7543994	0.00027542287	0.04	6.1154101	6.1137009	-0.019841507	-0.022701684	-0.015527979	-0.026971391	0.010472175	0	920.3393754900604
5.7543994	0.00030199517	0.04	6.0896174	6.0041207	-0.019285605	-0.022874339	-0.015156878	-0.026373194	0.010399244	0	920.875628692894
5.7543994	0.00033113112	0.04	6.0659191	5.8961257	-0.018730307	-0.02306189	-0.014775574	-0.02577742	0.010333598	0	921.4116978536671
5.7543994	0.00036307805	0.04	6.0440471	5.7895454	-0.018175632	-0.023265394	-0.014385867	-0.025183878	0.010274386	0	921.9474974719324
5.7543994	0.00039810717	0.04	6.0237572	5.6842255	-0.017621599	-0.023485933	-0.013989638	-0.024592401	0.010220828	0	922.4829390030515
5.7543994	0.00043651583	0.04	6.0048303	5.5800272	-0.01706822	-0.023724599	-0.013588792	-0.024002844	0.010172219	0	923.0179395773606
5.7543994	0.00047863009	0.04	5.9870728	5.4768276	-0.016515503	-0.023982485	-0.013185208	-0.023415084	0.01012793	0	923.5524210606051
5.7543994	0.00052480746	0.04	5.9703169	5.3745188	-0.015963447	-0.024260667	-0.012780685	-0.022829014	0.010087406	0	924.0863167812279
5.7543994	0.00057543994	0.04	5.9544204	5.2730078	-0.015412047	-0.024560188	-0.012376902	-0.022244543	0.01005017	0	924.6195683358467
5.7543994	0.00063095734	0.04	5.9392663	5.172216	-0.014861287	-0.024882042	-0.011975379	-0.021661594	0.010015816	0	925.1521336319338
5.7543994	0.00069183097	0.04	5.9247623	5.0720783	-0.014311145	-0.02522715	-0.011577452	-0.021080097	0.0099840158	0	925.6839831295547
5.7543994	0.00075857758	0.04	5.9108388	4.9725418	-0.013761588	-0.025596349	-0.011184243	-0.020499993	0.0099545052	0	926.2151056666729
5.7543994	0.00083176377	0.04	5.8974478	4.8735655	-0.013212579	-0.025990373	-0.010796652	-0.019921228	0.0099270869	0	926.745502182854
5.7543994	0.00091201084	0.04	5.8845607	4.7751185	-0.01266407	-0.026409839	-0.01041534	-0.019343751	0.0099016224	0	927.2751929351266
5.7543994	0.001	0.04	5.8721659	4.6771789	-0.012116008	-0.026855238	-0.010040733	-0.018767513	0.0098780263	0	927.8042117102611
5.7543994	0.0010964782	0.04	5.8602663	4.5797323	-0.011568334	-0.027326935	-0.0096730167	-0.018192465	0.0098562586	0	928.3326069635212
5.7543994	0.0012022644	0.04	5.8488769	4.4827704	-0.011020985	-0.027825163	-0.0093121554	-0.017618559	0.0098363181	0	928.860439229224
5.7543994	0.0013182567	0.04	5.8380218	4.3862897	-0.010473893	-0.028350038	-0.0089579011	-0.017045744	0.0098182337	0	929.3877817183009
5.7543994	0.0014454398	0.04	5.8277324	4.2902896	-0.0099269894	-0.028901569	-0.0086098189	-0.016473966	0.0098020568	0	929.914715229614
5.7543994	0.0015848932	0.04	5.8180442	4.1947717	-0.0093802016	-0.029479682	-0.0082673162	-0.015903166	0.0097878533	0	930.4413302470648
5.7543994	0.0017378008	0.04	5.8089958	4.0997379	-0.0088334572	-0.030084246	-0.0079296753	-0.015333286	0.0097756962	0	930.9677217682267
5.7543994	0.0019054607	0.04	5.8006263	4.0051895	-0.0082866818	-0.030715111	-0.0075960975	-0.014764259	0.0097656578	0	931.4939897139953
5.7543994	0.0020892961	0.04	5.7929742	3.911126	-0.0077397991	-0.031372148	-0.0072657501	-0.014196019	0.0097578034	0	932.02023706825
5.7543994	0.0022908677	0.04	5.786076	3.817544	-0.0071927309	-0.032055304	-0.0069378208	-0.013628491	0.0097521844	0	932.546567833358
5.7543994	0.0025118864	0.04	5.7799652	3.7244361	-0.0066453948	-0.032764653	-0.0066115803	-0.013061602	0.0097488318	0	933.0730868385049
5.7543994	0.0027542287	0.04	5.7746713	3.6317904	-0.0060977041	-0.033500472	-0.0062864528	-0.012495271	0.0097477504	0	933.5998971840754
5.7543994	0.0030199517	0.04	5.770219	3.5395891	-0.0055495647	-0.03426331	-0.0059620935	-0.011929419	0.0097489129	0	934.1271002416544
5.7543994	0.0033113112	0.04	5.7666285	3.4478081	-0.005000873	-0.03505407	-0.0056384717	-0.011363961	0.009752255	0	934.6547945039983
5.7543994	0.0036307805	0.04	5.7639153	3.3564165	-0.0044515123	-0.0358741	-0.0053159609	-0.010798812	0.0097576729	0	935.1830755812774
5.7543994	0.0039810717	0.04	5.7620931	3.2653767	-0.0039013468	-0.036725271	-0.0049954199	-0.010233886	0.0097650232	0	935.712038790517
5.7543994	0.0043651583	0.04	5.7611783	3.1746458	-0.0033502143	-0.037610051	-0.0046782671	-0.0096690933	0.009774131	0	936.2417832220372
5.7543994	0.0047863009	0.04	5.7611988	3.0841781	-0.0027979143	-0.038531543	-0.0043665193	-0.0091043453	0.0097848064	0	936.7724214620749
5.7543994	0.0052480746	0.04	5.7622084	2.9939296	-0.002244191	-0.039493482	-0.0040627878	-0.0085395473	0.0097968746	0	937.3040957119669
5.7543994	0.0057543994	0.04	5.7643069	2.9038652	-0.0016887116	-0.040500158	-0.0037702049	-0.007974598	0.0098102216	0	937.8370009390394
5.7543994	0.0063095734	0.04	5.7676645	2.8139672	-0.0011310405	-0.041556271	-0.0034922716	-0.0074093831	0.0098248532	0	938.3714148412273
5.7543994	0.0069183097	0.04	5.7725491	2.7242447	-0.00057061094	-0.042666694	-0.0032326312	-0.0068437667	0.0098409613	0	938.9077330018512
5.7543994	0.0075857758	0.04	5.7793484	2.6347421	-6.7026598e-6	-0.043836208	-0.0029947901	-0.0062775815	0.0098589843	0	939.4465003727597
5.7543994	0.0083176377	0.04	5.7885811	2.5455431	0.00056157172	-0.0450692	-0.0027818296	-0.0057106153	0.0098796485	0	939.9884349015814
5.7543994	0.0091201084	0.04	5.8008903	2.4567709	0.0011352619	-0.046369423	-0.0025961511	-0.0051425988	0.0099039766	0	940.534432599738
5.7543994	0.01	0.04	5.8170164	2.3685812	0.0017155547	-0.0477398	-0.0024392928	-0.0045731951	0.0099332594	0	941.0855507524142
5.7543994	0.010964782	0.04	5.8377486	2.281151	0.0023037264	-0.049182349	-0.0023118424	-0.0040019912	0.0099689943	0	941.6429664207722
5.7543994	0.012022644	0.04	5.8638541	2.1946632	0.0029010711	-0.050698245	-0.0022135032	-0.0034284975	0.010012791	0	942.2079066470928
5.7543994	0.013182567	0.04	5.8959763	2.1092829	0.0035088026	-0.052288229	-0.0021435041	-0.0028521544	0.010066219	0	942.7815408557522
5.7543994	0.014454398	0.04	5.9344755	2.0251132	0.0041279205	-0.053953993	-0.002101978	-0.0022723509	0.010130522	0	943.3648032415441
5.7543994	0.015848932	0.04	5.9791847	1.942113	0.0047590433	-0.055701486	-0.0020932702	-0.0016884649	0.010206071	0	943.9581116179053
5.7543994	0.017378008	0.04	6.0292075	1.8600375	0.0054022741	-0.057544529	-0.002129552	-0.0010999257	0.010291936	0	944.5611054247534
5.7543994	0.019054607	0.04	6.0832303	1.7786706	0.0060571923	-0.059497829	-0.0022238309	-0.00050627632	0.010387251	0	945.1729006250506
5.7543994	0.020892961	0.04	6.1401282	1.6983113	0.006722656	-0.061556139	-0.00236911	0.000092818458	0.010494183	0	945.792687290916
5.7543994	0.022908677	0.04	6.1983626	1.6197325	0.0073959429	-0.063688747	-0.002532878	0.00069757447	0.010617681	0	946.4191295032352
5.7543994	0.025118864	0.04	6.2544769	1.5437444	0.008071549	-0.065852302	-0.0026699305	0.0013079748	0.010762689	0	947.0487547938387
5.7543994	0.027542287	0.04	6.3016631	1.4710613	0.0087396248	-0.067996305	-0.0027278602	0.0019235121	0.010933076	0	947.6742785171382
5.7543994	0.030199517	0.04	6.3274398	1.4024588	0.0093828248	-0.07005681	-0.0026407571	0.0025427615	0.011132168	0	948.2818805124436
5.7543994	0.033113112	0.04	6.3074722	1.3390519	0.0099683153	-0.071941203	-0.0023139834	0.003162575	0.011363643	0	948.8442681088303
5.7543994	0.036307805	0.04	6.1875707	1.2822289	0.0104267	-0.073527862	-0.0016238359	0.0037761789	0.011629232	0	949.3008880370159
5.7543994	0.039810717	0.04	5.9110249	1.2249599	0.010702517	-0.075279924	-0.0010313038	0.0043700315	0.011872339	0	949.5823050383536
5.7543994	0.043651583	0.04	5.6367128	1.1558824	0.011000575	-0.078303621	-0.001640413	0.004935681	0.012014921	0	949.8394580914966
5.7543994	0.047863009	0.04	5.3998011	1.0867954	0.011335604	-0.081953142	-0.0028030752	0.0054763543	0.012132469	0	950.1105438464668
5.7543994	0.052480746	0.04	5.189046	1.0208111	0.011686663	-0.085928004	-0.004216464	0.0059951895	0.012247181	0	950.38726787297
5.7543994	0.057543994	0.04	4.9977187	0.95819526	0.012042587	-0.090077448	-0.0057274078	0.0064943095	0.012362808	0	950.6648965129924
5.7543994	0.063095734	0.04	4.8357308	0.89860905	0.012412659	-0.094316187	-0.0072481324	0.0069759591	0.01247952	0	950.9554505355554
5.7543994	0.069183097	0.04	4.7299795	0.84173864	0.01282741	-0.098592828	-0.0087246829	0.0074442015	0.012599458	0	951.2896435765404
5.7543994	0.075857758	0.04	4.7225695	0.78739811	0.013337749	-0.10287594	-0.010122987	0.0079064951	0.012728941	0	951.7165884944491
5.7543994	0.083176377	0.04	4.8694716	0.73549235	0.014014809	-0.10715042	-0.011425225	0.0083751151	0.012879663	0	952.30378910223
5.7543994	0.091201084	0.04	5.2389539	0.68590881	0.014949617	-0.11141758	-0.012629918	0.0088684872	0.013069359	0	953.1368267959253
5.7543994	0.1	0.04	5.9108357	0.63877012	0.016253754	-0.11570712	-0.013763852	0.009412168	0.013324337	0	954.3195325289547
5.7543994	0.10964782	0.04	6.9720794	0.59394502	0.01805552	-0.12006816	-0.0148732	0.010040055	0.013677691	0	955.9707172336873
5.7543994	0.12022644	0.04	8.5158226	0.5514139	0.020499867	-0.12458199	-0.016036179	0.010794843	0.014171996	0	958.2236331874165
5.7543994	0.13182567	0.04	10.639368	0.51115461	0.023746647	-0.12935815	-0.017359161	0.011728568	0.014859152	0	961.2244740526546
5.7543994	0.14454398	0.04	13.444633	0.4731459	0.027971321	-0.13452992	-0.018972185	0.012903016	0.015800814	0	965.1332096997359
5.7543994	0.15848932	0.04	17.040854	0.43737031	0.033368093	-0.14024657	-0.021021153	0.014390293	0.017068982	0	970.1268240993436
5.7543994	0.17378008	0.04	21.548717	0.40381618	0.040154827	-0.14666341	-0.023657926	0.016273739	0.018746924	0	976.4043073835459
5.7543994	0.19054607	0.04	27.103961	0.37247804	0.048577764	-0.15393108	-0.027029584	0.018649241	0.020930495	0	984.1914914128248
5.7543994	0.20892961	0.04	33.857861	0.34335504	0.058913138	-0.16218475	-0.031267616	0.02162677	0.023729659	0	993.74297438174
5.7543994	0.22908677	0.04	41.972072	0.31644693	0.071462594	-0.17153348	-0.036477306	0.025331706	0.027269795	0	1005.3382146323601
5.7543994	0.25118864	0.04	51.606401	0.29174742	0.086540243	-0.18205019	-0.042727664	0.029905312	0.031692129	0	1019.2697464001462
5.7543994	0.27542287	0.04	62.900006	0.2692357	0.10445125	-0.19376309	-0.050042871	0.035503682	0.037152625	0	1035.8233833599425
5.7543994	0.30199517	0.04	75.949227	0.24886741	0.12546494	-0.20665044	-0.058397063	0.04229463	0.043818827	0	1055.2531459863662
5.7543994	0.33113112	0.04	90.787558	0.23056749	0.14978824	-0.22064075	-0.067714464	0.050452477	0.051864595	0	1077.756303578755
5.7543994	0.36307805	0.04	107.37386	0.2142271	0.17754661	-0.23561935	-0.077876003	0.060151215	0.061463256	0	1103.4552090053517
5.7543994	0.39810717	0.04	125.5928	0.19970605	0.20877755	-0.25144074	-0.088731639	0.071557113	0.072780219	0	1132.3907348997682
5.7543994	0.43651583	0.04	145.26739	0.18684019	0.24343787	-0.26794407	-0.10011584	0.084821965	0.085966274	0	1164.5285225597988
5.7543994	0.47863009	0.04	166.17978	0.17545199	0.28142132	-0.28496845	-0.11186289	0.10007803	0.10115259	0	1199.7749712074674
5.7543994	0.52480746	0.04	188.09438	0.16536163	0.32258089	-0.3023654	-0.12381933	0.11743514	0.11844791	0	1237.9977227310328
5.7543994	0.57543994	0.04	210.77864	0.15639641	0.36675048	-0.32000715	-0.13585227	0.13698006	0.13793792	0	1279.0457096794341
5.7543994	0.63095734	0.04	234.0183	0.14839741	0.41376249	-0.33779094	-0.14785366	0.15877754	0.1596864	0	1322.765521701454
5.7543994	0.69183097	0.04	257.62677	0.14122306	0.46346009	-0.35564003	-0.15974131	0.18287262	0.18373754	0	1369.0128956782971
5.7543994	0.75857758	0.04	281.44931	0.13475027	0.51570459	-0.37350254	-0.17145771	0.2092936	0.21011889	0	1417.6596846677023
5.7543994	0.83176377	0.04	305.36342	0.12887386	0.57037891	-0.39134903	-0.18296765	0.23805522	0.23884451	0	1468.5972076423316
5.7543994	0.91201084	0.04	329.27681	0.12350501	0.62738842	-0.40916947	-0.1942551	0.26916168	0.26991809	0	1521.7371559824155
5.7543994	1.	0.04	353.12422	0.11856929	0.68666017	-0.42696989	-0.20531995	0.30260952	0.3033357	0	1577.0109925297602
5.7543994	1.0964782	0.04	376.86363	0.11400461	0.74814124	-0.44476924	-0.2161748	0.33839002	0.33908825	0	1634.3685219451067
5.7543994	1.2022644	0.04	400.47253	0.10975934	0.81179673	-0.46259631	-0.22684187	0.37649136	0.37716359	0	1693.776118312057
5.7543994	1.3182567	0.04	423.9445	0.10579058	0.87760776	-0.48048703	-0.23735038	0.41690031	0.41754823	0	1755.2149444728227
5.7543994	1.4454398	0.04	447.28608	0.1020627	0.94556943	-0.49848221	-0.24773415	0.45960368	0.46022876	0	1818.6791255131823
5.7543994	1.5848932	0.04	470.51416	0.098546082	1.0156891	-0.51662555	-0.25802973	0.50458942	0.50519297	0	1884.1742029895706
5.7543994	1.7378008	0.04	493.6537	0.095216093	1.087985	-0.53496216	-0.2682748	0.55184759	0.55243075	0	1951.7158890654225
5.7543994	1.9054607	0.04	516.73593	0.092052177	1.1624847	-0.55353737	-0.2785071	0.60137099	0.60193477	0	2021.3286691895858
5.7543994	2.0892961	0.04	539.79676	0.089037152	1.2392238	-0.57239597	-0.28876352	0.65315573	0.65370104	0	2093.0446054658887
5.7543994	2.2908677	0.04	562.8756	0.086156604	1.3182456	-0.59158156	-0.29907958	0.70720162	0.70772928	0	2166.9030461395373
5.7543994	2.5118864	0.04	586.01432	0.083398393	1.3995999	-0.61113632	-0.30948908	0.76351245	0.76402323	0	2242.94951127261
5.7543994	2.7542287	0.04	609.25648	0.080752246	1.4833422	-0.63110079	-0.32002396	0.82209623	0.8225908	0	2321.2349463533383
5.7543994	3.0199517	0.04	632.64671	0.078209427	1.5695336	-0.65151387	-0.33071421	0.88296528	0.88344428	0	2401.8156317220146
5.7543994	3.3113112	0.04	656.23021	0.075762456	1.65824	-0.67241286	-0.34158797	0.94613632	0.94660033	0	2484.7524271604466
5.7543994	3.6307805	0.04	680.05241	0.073404896	1.7495321	-0.6938336	-0.35267164	1.0116305	1.0120801	0	2570.1107677578675
5.7543994	3.9810717	0.04	704.15868	0.071131163	1.8434846	-0.71581061	-0.36398999	1.0794735	1.0799092	0	2657.959908124576
5.7543994	4.3651583	0.04	728.59414	0.068936379	1.9401767	-0.73837726	-0.37556634	1.1496953	1.1501176	0	2748.3733854097322
5.7543994	4.7863009	0.04	753.40352	0.06681625	2.0396913	-0.76156596	-0.38742274	1.2223305	1.2227397	0	2841.4282608842122
5.7543994	5.2480746	0.04	778.63109	0.064766968	2.1421151	-0.78540836	-0.39958016	1.2974178	1.2978145	0	2937.2052067564464
5.7543994	5.7543994	0.04	804.3206	0.062785131	2.2475388	-0.80993548	-0.41205861	1.3750004	1.3753849	0	3035.7886895755732
5.7543994	6.3095734	0.04	830.51528	0.060867672	2.3560564	-0.83517791	-0.42487731	1.4551257	1.4554984	0	3137.266306146651
5.7543994	6.9183097	0.04	857.25784	0.059011811	2.4677658	-0.86116596	-0.43805487	1.5378452	1.5382067	0	3241.729340505
5.7543994	7.5857758	0.04	884.5905	0.057215006	2.5827684	-0.8879298	-0.45160938	1.6232149	1.6235653	0	3349.2723847076204
5.7543994	8.3176377	0.04	912.55506	0.055474918	2.7011693	-0.91549957	-0.46555853	1.7112946	1.7116343	0	3459.9935222363574
5.7543994	9.1201084	0.04	941.19292	0.053789384	2.8230773	-0.94390555	-0.47991976	1.8021482	1.8024777	0	3573.9943223605023
5.7543994	10.	0.04	970.54517	0.052156388	2.9486048	-0.97317821	-0.49471031	1.8958438	1.8961633	0	3691.3797443011294