57.543994	1.e-12	0.2	8.607125e11	5.9831337e10	-0.9999987	-9.822411e-7	-9.8223962e-7	-9.1607518e8	2.7483151e9	0	0.0010368592925131333
57.543994	1.0964782e-12	0.2	7.8497913e11	5.4566828e10	-0.99999857	-1.077006e-6	-1.0770044e-6	-8.354705e8	2.5064931e9	0	0.0011411952472633242
57.543994	1.2022644e-12	0.2	7.1590947e11	4.9765539e10	-0.99999844	-1.1809137e-6	-1.1809119e-6	-7.6195815e8	2.2859489e9	0	0.0012438131654301647
57.543994	1.3182567e-12	0.2	6.529172e11	4.5386711e10	-0.99999829	-1.294846e-6	-1.2948441e-6	-6.9491409e8	2.0848102e9	0	0.001363338618538598
57.543994	1.4454398e-12	0.2	5.9546756e11	4.1393172e10	-0.99999812	-1.4197705e-6	-1.4197684e-6	-6.3376918e8	1.9013695e9	0	0.0014995898192760805
57.543994	1.5848932e-12	0.2	5.4307287e11	3.7751022e10	-0.99999794	-1.5567473e-6	-1.556745e-6	-5.7800436e8	1.7340696e9	0	0.001642971888867213
57.543994	1.7378008e-12	0.2	4.9528834e11	3.4429341e10	-0.99999774	-1.7069395e-6	-1.7069369e-6	-5.2714625e8	1.5814903e9	0	0.0018026619378544832
57.543994	1.9054607e-12	0.2	4.5170834e11	3.1399932e10	-0.99999752	-1.8716219e-6	-1.871619e-6	-4.8076309e8	1.4423363e9	0	0.001978420395864949
57.543994	2.0892961e-12	0.2	4.119629e11	2.8637079e10	-0.99999728	-2.0521926e-6	-2.0521895e-6	-4.3846115e8	1.3154263e9	0	0.002169984522844136
57.543994	2.2908677e-12	0.2	3.7571463e11	2.6117326e10	-0.99999702	-2.2501844e-6	-2.250181e-6	-3.9988132e8	1.199683e9	0	0.0023770663232209614
57.543994	2.5118864e-12	0.2	3.4265582e11	2.3819284e10	-0.99999673	-2.467278e-6	-2.4672742e-6	-3.646961e8	1.0941239e9	0	0.0026087456250458887
57.543994	2.7542287e-12	0.2	3.1250582e11	2.1723446e10	-0.99999642	-2.7053166e-6	-2.7053125e-6	-3.326068e8	9.9785289e8	0	0.002855280375818468
57.543994	3.0199517e-12	0.2	2.8500869e11	1.9812018e10	-0.99999607	-2.9663206e-6	-2.9663161e-6	-3.03341e8	9.1005265e8	0	0.0031350822605447936
57.543994	3.3113112e-12	0.2	2.5993102e11	1.8068775e10	-0.99999569	-3.2525059e-6	-3.252501e-6	-2.7665028e8	8.2997788e8	0	0.003438339210418849
57.543994	3.6307805e-12	0.2	2.3705991e11	1.6478919e10	-0.99999528	-3.5663018e-6	-3.5662964e-6	-2.5230806e8	7.5694883e8	0	0.003764594746906676
57.543994	3.9810717e-12	0.2	2.162012e11	1.5028952e10	-0.99999482	-3.9103722e-6	-3.9103663e-6	-2.3010768e8	6.9034553e8	0	0.00413213957678853
57.543994	4.3651583e-12	0.2	1.9717784e11	1.3706568e10	-0.99999432	-4.2876378e-6	-4.2876313e-6	-2.098607e8	6.2960261e8	0	0.004531029227396332
57.543994	4.7863009e-12	0.2	1.7982833e11	1.2500538e10	-0.99999377	-4.7013014e-6	-4.7012943e-6	-1.9139523e8	5.742044e8	0	0.004970057485609704
57.543994	5.2480746e-12	0.2	1.6400538e11	1.1400626e10	-0.99999317	-5.1548745e-6	-5.1548667e-6	-1.7455453e8	5.2368064e8	0	0.005448564513474648
57.543994	5.7543994e-12	0.2	1.4957469e11	1.0397495e10	-0.99999251	-5.6522075e-6	-5.652199e-6	-1.5919562e8	4.7760242e8	0	0.005975222405158024
57.543994	6.3095734e-12	0.2	1.3641374e11	9.4826279e9	-0.99999179	-6.1975222e-6	-6.1975129e-6	-1.4518813e8	4.3557858e8	0	0.006549237848052216
57.543994	6.9183097e-12	0.2	1.2441081e11	8.6482595e9	-0.999991	-6.795448e-6	-6.7954378e-6	-1.3241315e8	3.9725239e8	0	0.0071791365710424885
57.543994	7.5857758e-12	0.2	1.13464e11	7.8873064e9	-0.99999013	-7.4510606e-6	-7.4510493e-6	-1.2076223e8	3.6229849e8	0	0.007873360455785024
57.543994	8.3176377e-12	0.2	1.034804e11	7.1933089e9	-0.99998918	-8.1699255e-6	-8.1699131e-6	-1.1013646e8	3.3042015e8	0	0.008630863634714747
57.543994	9.1201084e-12	0.2	9.4375248e10	6.5603757e9	-0.99998814	-8.9581452e-6	-8.9581316e-6	-1.0044565e8	3.0134675e8	0	0.009459895040556186
57.543994	1.e-11	0.2	8.607125e10	5.9831337e9	-0.99998699	-9.8224109e-6	-9.822396e-6	-9.1607519e7	2.7483151e8	0	0.010377988616365472
57.543994	1.0964782e-11	0.2	7.8497913e10	5.4566828e9	-0.99998574	-0.000010770059	-0.000010770043	-8.3547051e7	2.5064931e8	0	0.011374370046879032
57.543994	1.2022644e-11	0.2	7.1590947e10	4.9765539e9	-0.99998436	-0.000011809135	-0.000011809117	-7.6195816e7	2.2859489e8	0	0.012475714644525255
57.543994	1.3182567e-11	0.2	6.529172e10	4.5386711e9	-0.99998285	-0.000012948459	-0.00001294844	-6.949141e7	2.0848102e8	0	0.013680364640409226
57.543994	1.4454398e-11	0.2	5.9546756e10	4.1393172e9	-0.9999812	-0.000014197703	-0.000014197682	-6.3376919e7	1.9013695e8	0	0.014995898568482631
57.543994	1.5848932e-11	0.2	5.4307287e10	3.7751022e9	-0.99997938	-0.000015567471	-0.000015567448	-5.7800437e7	1.7340696e8	0	0.016448510571279752
57.543994	1.7378008e-11	0.2	4.9528834e10	3.4429341e9	-0.99997739	-0.000017069393	-0.000017069367	-5.2714626e7	1.5814902e8	0	0.018036015407605247
57.543994	1.9054607e-11	0.2	4.5170834e10	3.1399932e9	-0.99997521	-0.000018716217	-0.000018716189	-4.807631e7	1.4423362e8	0	0.019774808492806724
57.543994	2.0892961e-11	0.2	4.119629e10	2.8637079e9	-0.99997282	-0.000020521924	-0.000020521893	-4.3846116e7	1.3154263e8	0	0.02168105429717308
57.543994	2.2908677e-11	0.2	3.7571463e10	2.6117326e9	-0.9999702	-0.000022501842	-0.000022501808	-3.9988133e7	1.199683e8	0	0.02377066360814007
57.543994	2.5118864e-11	0.2	3.4265582e10	2.3819284e9	-0.99996732	-0.000024672779	-0.000024672741	-3.6469611e7	1.0941239e8	0	0.026068665131381848
57.543994	2.7542287e-11	0.2	3.1250582e10	2.1723446e9	-0.99996417	-0.000027053163	-0.000027053123	-3.3260681e7	9.9785288e7	0	0.028580991094443824
57.543994	3.0199517e-11	0.2	2.8500869e10	1.9812018e9	-0.99996072	-0.000029663203	-0.000029663159	-3.0334101e7	9.1005264e7	0	0.03133203167438828
57.543994	3.3113112e-11	0.2	2.5993102e10	1.8068775e9	-0.99995693	-0.000032525055	-0.000032525006	-2.7665029e7	8.2997787e7	0	0.03435520589530345
57.543994	3.6307805e-11	0.2	2.3705991e10	1.6478919e9	-0.99995277	-0.000035663013	-0.000035662959	-2.5230807e7	7.5694882e7	0	0.037674135369482366
57.543994	3.9810717e-11	0.2	2.162012e10	1.5028952e9	-0.99994821	-0.000039103715	-0.000039103656	-2.3010769e7	6.9034553e7	0	0.04131200142931233
57.543994	4.3651583e-11	0.2	1.9717784e10	1.3706568e9	-0.99994322	-0.00004287637	-0.000042876305	-2.0986071e7	6.296026e7	0	0.04529150247017347
57.543994	4.7863009e-11	0.2	1.7982833e10	1.2500538e9	-0.99993774	-0.000047013003	-0.000047012932	-1.9139524e7	5.742044e7	0	0.049662994309160595
57.543994	5.2480746e-11	0.2	1.6400538e10	1.1400626e9	-0.99993173	-0.00005154873	-0.000051548652	-1.7455454e7	5.2368063e7	0	0.05445746099280088
57.543994	5.7543994e-11	0.2	1.4957469e10	1.0397495e9	-0.99992514	-0.000056522056	-0.00005652197	-1.5919563e7	4.7760241e7	0	0.059714645195861414
57.543994	6.3095734e-11	0.2	1.3641374e10	9.4826279e8	-0.99991792	-0.000061975198	-0.000061975104	-1.4518814e7	4.3557858e7	0	0.06547359187177604
57.543994	6.9183097e-11	0.2	1.2441081e10	8.6482595e8	-0.99991	-0.000067954447	-0.000067954345	-1.3241316e7	3.9725238e7	0	0.07179137191124327
57.543994	7.5857758e-11	0.2	1.13464e10	7.8873064e8	-0.99990132	-0.000074510563	-0.00007451045	-1.2076224e7	3.6229848e7	0	0.07871482133143508
57.543994	8.3176377e-11	0.2	1.034804e10	7.1933089e8	-0.9998918	-0.000081699198	-0.000081699075	-1.1013647e7	3.3042014e7	0	0.08630864687059234
57.543994	9.1201084e-11	0.2	9.4375248e9	6.5603757e8	-0.99988136	-0.000089581377	-0.000089581242	-1.0044566e7	3.0134675e7	0	0.09463654692531791
57.543994	1.e-10	0.2	8.607125e9	5.9831337e8	-0.99986992	-0.000098224011	-0.000098223862	-9.1607528e6	2.748315e7	0	0.1037611132723541
57.543994	1.0964782e-10	0.2	7.8497913e9	5.4566828e8	-0.99985737	-0.00010770046	-0.0001077003	-8.354706e6	2.506493e7	0	0.11377191185760949
57.543994	1.2022644e-10	0.2	7.1590947e9	4.9765539e8	-0.99984361	-0.00011809118	-0.000118091	-7.6195825e6	2.2859488e7	0	0.12474778273713588
57.543994	1.3182567e-10	0.2	6.529172e9	4.5386711e8	-0.99982852	-0.00012948437	-0.00012948417	-6.9491419e6	2.0848101e7	0	0.13678489831689963
57.543994	1.4454398e-10	0.2	5.9546756e9	4.1393172e8	-0.99981197	-0.00014197674	-0.00014197653	-6.3376928e6	1.9013694e7	0	0.14998722714025825
57.543994	1.5848932e-10	0.2	5.4307287e9	3.7751022e8	-0.99979383	-0.00015567433	-0.0001556741	-5.7800446e6	1.7340695e7	0	0.16445699015901818
57.543994	1.7378008e-10	0.2	4.9528834e9	3.4429341e8	-0.99977394	-0.00017069343	-0.00017069317	-5.2714635e6	1.5814902e7	0	0.18032266541829434
57.543994	1.9054607e-10	0.2	4.5170834e9	3.1399932e8	-0.99975213	-0.00018716151	-0.00018716123	-4.8076319e6	1.4423362e7	0	0.19772002199026045
57.543994	2.0892961e-10	0.2	4.119629e9	2.8637079e8	-0.99972822	-0.00020521837	-0.00020521806	-4.3846125e6	1.3154262e7	0	0.21679191514900725
57.543994	2.2908677e-10	0.2	3.7571463e9	2.6117326e8	-0.999702	-0.00022501727	-0.00022501693	-3.9988142e6	1.1996829e7	0	0.23770685218174412
57.543994	2.5118864e-10	0.2	3.4265582e9	2.3819284e8	-0.99967325	-0.00024672627	-0.0002467259	-3.646962e6	1.0941238e7	0	0.2606399567950268
57.543994	2.7542287e-10	0.2	3.1250582e9	2.1723446e8	-0.99964172	-0.00027052964	-0.00027052923	-3.326069e6	9.9785279e6	0	0.28579149546400534
57.543994	3.0199517e-10	0.2	2.8500869e9	1.9812018e8	-0.99960716	-0.00029662941	-0.00029662896	-3.033411e6	9.1005255e6	0	0.3133583935694458
57.543994	3.3113112e-10	0.2	2.5993102e9	1.8068775e8	-0.99956926	-0.00032524709	-0.0003252466	-2.7665038e6	8.2997778e6	0	0.3435902917459239
57.543994	3.6307805e-10	0.2	2.3705991e9	1.6478919e8	-0.9995277	-0.00035662556	-0.00035662503	-2.5230816e6	7.5694873e6	0	0.3767422105788401
57.543994	3.9810717e-10	0.2	2.162012e9	1.5028952e8	-0.99948214	-0.00039103113	-0.00039103054	-2.3010778e6	6.9034544e6	0	0.4130835629158245
57.543994	4.3651583e-10	0.2	1.9717784e9	1.3706568e8	-0.99943217	-0.00042875576	-0.00042875512	-2.098608e6	6.2960251e6	0	0.45294470181312574
57.543994	4.7863009e-10	0.2	1.7982833e9	1.2500538e8	-0.99937739	-0.00047011957	-0.00047011886	-1.9139533e6	5.7420431e6	0	0.49664130431596964
57.543994	5.2480746e-10	0.2	1.6400538e9	1.1400626e8	-0.99931733	-0.00051547351	-0.00051547273	-1.7455463e6	5.2368054e6	0	0.5445490142889154
57.543994	5.7543994e-10	0.2	1.4957469e9	1.0397495e8	-0.99925147	-0.00056520238	-0.00056520153	-1.5919572e6	4.7760232e6	0	0.5970840967644742
57.543994	6.3095734e-10	0.2	1.3641374e9	9.4826279e7	-0.99917925	-0.00061972801	-0.00061972708	-1.4518823e6	4.3557849e6	0	0.654693442847599
57.543994	6.9183097e-10	0.2	1.2441081e9	8.6482595e7	-0.99910008	-0.00067951289	-0.00067951186	-1.3241325e6	3.9725229e6	0	0.7178444900580405
57.543994	7.5857758e-10	0.2	1.13464e9	7.8873064e7	-0.99901326	-0.00074506399	-0.00074506286	-1.2076233e6	3.6229839e6	0	0.7870996640934066
57.543994	8.3176377e-10	0.2	1.034804e9	7.1933089e7	-0.99891807	-0.00081693709	-0.00081693586	-1.1013656e6	3.3042005e6	0	0.863031013679818
57.543994	9.1201084e-10	0.2	9.4375248e8	6.5603757e7	-0.9988137	-0.00089574141	-0.00089574006	-1.0044575e6	3.0134666e6	0	0.9462851101083909
57.543994	1.e-9	0.2	8.607125e8	5.9831337e7	-0.99869926	-0.00098214472	-0.00098214324	-916076.18	2.7483141e6	0	1.0375726819508742
57.543994	1.0964782e-9	0.2	7.8497913e8	5.4566828e7	-0.99857379	-0.0010768789	-0.0010768773	-835471.49	2.5064922e6	0	1.1376581783671733
57.543994	1.2022644e-9	0.2	7.1590947e8	4.9765539e7	-0.99843622	-0.0011807461	-0.0011807443	-761959.15	2.2859479e6	0	1.247396216725013
57.543994	1.3182567e-9	0.2	6.529172e8	4.5386711e7	-0.99828539	-0.0012946252	-0.0012946233	-694915.09	2.0848092e6	0	1.367711505966922
57.543994	1.4454398e-9	0.2	5.9546756e8	4.1393172e7	-0.99812002	-0.0014194794	-0.0014194773	-633770.18	1.9013685e6	0	1.499625729454692
57.543994	1.5848932e-9	0.2	5.4307287e8	3.7751022e7	-0.99793871	-0.0015563637	-0.0015563614	-578005.36	1.7340686e6	0	1.644256011597996
57.543994	1.7378008e-9	0.2	4.9528835e8	3.4429341e7	-0.99773992	-0.0017064339	-0.0017064313	-527147.24	1.5814893e6	0	1.8028321119009065
57.543994	1.9054607e-9	0.2	4.5170834e8	3.1399932e7	-0.99752199	-0.0018709556	-0.0018709527	-480764.09	1.4423353e6	0	1.9766758672717397
57.543994	2.0892961e-9	0.2	4.119629e8	2.8637079e7	-0.99728307	-0.0020513144	-0.0020513113	-438462.15	1.3154253e6	0	2.1672650824667627
57.543994	2.2908677e-9	0.2	3.7571463e8	2.6117326e7	-0.99702114	-0.0022490269	-0.0022490235	-399882.32	1.1996821e6	0	2.376212728113881
57.543994	2.5118864e-9	0.2	3.4265582e8	2.3819285e7	-0.996734	-0.0024657526	-0.0024657489	-364697.1	1.094123e6	0	2.6052739874518687
57.543994	2.7542287e-9	0.2	3.1250582e8	2.1723446e7	-0.99641925	-0.0027033062	-0.0027033022	-332607.79	997851.92	0	2.856362811472766
57.543994	3.0199517e-9	0.2	2.850087e8	1.9812018e7	-0.99607424	-0.0029636713	-0.0029636669	-303342.	910051.68	0	3.1315963227796173
57.543994	3.3113112e-9	0.2	2.5993102e8	1.8068776e7	-0.99569608	-0.0032490148	-0.0032490099	-276651.28	829976.92	0	3.4332826764026234
57.543994	3.6307805e-9	0.2	2.3705991e8	1.6478919e7	-0.99528163	-0.0035617017	-0.0035616963	-252309.05	756947.86	0	3.7639276743388326
57.543994	3.9810717e-9	0.2	2.1620121e8	1.5028953e7	-0.99482744	-0.0039043114	-0.0039043055	-230108.68	690344.57	0	4.126288114073108
57.543994	4.3651583e-9	0.2	1.9717784e8	1.3706568e7	-0.99432976	-0.0042796534	-0.0042796469	-209861.7	629601.65	0	4.523359442689063
57.543994	4.7863009e-9	0.2	1.7982833e8	1.2500539e7	-0.9937845	-0.0046907842	-0.0046907771	-191396.23	574203.45	0	4.9584101073783415
57.543994	5.2480746e-9	0.2	1.6400539e8	1.1400627e7	-0.99318719	-0.0051410232	-0.0051410154	-174555.52	523679.69	0	5.435016225402225
57.543994	5.7543994e-9	0.2	1.4957469e8	1.0397496e7	-0.992533	-0.0056339686	-0.0056339601	-159196.62	477601.48	0	5.957039729801494
57.543994	6.3095734e-9	0.2	1.3641374e8	9.4826289e6	-0.99181667	-0.0061735115	-0.0061735022	-145189.13	435577.65	0	6.528691564561787
57.543994	6.9183097e-9	0.2	1.2441081e8	8.6482605e6	-0.99103251	-0.0067638474	-0.0067638372	-132414.15	397251.46	0	7.154529467239264
57.543994	7.5857758e-9	0.2	1.1346401e8	7.8873075e6	-0.99017437	-0.0074094844	-0.0074094732	-120763.22	362297.56	0	7.839484633825804
57.543994	8.3176377e-9	0.2	1.0348041e8	7.1933102e6	-0.98923565	-0.0081152459	-0.0081152336	-110137.46	330419.23	0	8.588851815729328
57.543994	9.1201084e-9	0.2	9.4375253e7	6.5603771e6	-0.98820923	-0.0088862657	-0.0088862522	-100446.64	301345.85	0	9.4083560101232
57.543994	1.e-8	0.2	8.6071255e7	5.9831352e6	-0.98708754	-0.0097279733	-0.0097279585	-91608.513	274830.61	0	10.30408945269342
57.543994	1.0964782e-8	0.2	7.8497918e7	5.4566845e6	-0.98586253	-0.010646066	-0.010646049	-83548.044	250648.42	0	11.282545197704055
57.543994	1.2022644e-8	0.2	7.1590953e7	4.9765557e6	-0.98452571	-0.011646462	-0.011646444	-76196.808	228594.01	0	12.350587653228423
57.543994	1.3182567e-8	0.2	6.5291726e7	4.5386731e6	-0.98306819	-0.012735237	-0.012735217	-69492.402	208480.15	0	13.515428265197302
57.543994	1.4454398e-8	0.2	5.9546763e7	4.1393194e6	-0.98148074	-0.013918528	-0.013918507	-63377.91	190136.09	0	14.784585623454547
57.543994	1.5848932e-8	0.2	5.4307295e7	3.7751045e6	-0.97975395	-0.015202412	-0.015202389	-57801.428	173406.11	0	16.165759466043284
57.543994	1.7378008e-8	0.2	4.9528843e7	3.4429367e6	-0.97787827	-0.016592744	-0.016592718	-52715.615	158148.19	0	17.66682241103119
57.543994	1.9054607e-8	0.2	4.5170843e7	3.139996e6	-0.9758443	-0.018094956	-0.018094928	-48077.299	144232.81	0	19.295585253086045
57.543994	2.0892961e-8	0.2	4.11963e7	2.8637109e6	-0.97364288	-0.019713821	-0.01971379	-43847.103	131541.83	0	21.059757877556713
57.543994	2.2908677e-8	0.2	3.7571474e7	2.6117359e6	-0.97126548	-0.021453167	-0.021453133	-39989.12	119967.52	0	22.966635257733678
57.543994	2.5118864e-8	0.2	3.4265594e7	2.381932e6	-0.96870437	-0.023315563	-0.023315526	-36470.596	109411.63	0	25.022997485095697
57.543994	2.7542287e-8	0.2	3.1250595e7	2.1723485e6	-0.96595301	-0.025301984	-0.025301943	-33261.665	99784.543	0	27.234806289701492
57.543994	3.0199517e-8	0.2	2.8500884e7	1.981206e6	-0.96300635	-0.027411466	-0.027411422	-30335.084	91004.54	0	29.606987248941955
57.543994	3.3113112e-8	0.2	2.5993117e7	1.8068821e6	-0.95986112	-0.029640789	-0.02964074	-27666.011	82997.085	0	32.14321838533619
57.543994	3.6307805e-8	0.2	2.3706007e7	1.6478968e6	-0.95651612	-0.031984202	-0.031984148	-25231.786	75694.203	0	34.84570748954367
57.543994	3.9810717e-8	0.2	2.1620138e7	1.5029005e6	-0.95297235	-0.034433234	-0.034433175	-23011.747	69033.898	0	37.715106807830225
57.543994	4.3651583e-8	0.2	1.9717803e7	1.3706624e6	-0.94923316	-0.036976617	-0.036976552	-20987.047	62959.63	0	40.750386388659344
57.543994	4.7863009e-8	0.2	1.7982854e7	1.2500599e6	-0.94530421	-0.039600333	-0.039600263	-19140.499	57419.836	0	43.948862081739115
57.543994	5.2480746e-8	0.2	1.6400561e7	1.1400691e6	-0.94119327	-0.042287812	-0.042287734	-17456.426	52367.486	0	47.30634793552215
57.543994	5.7543994e-8	0.2	1.4957492e7	1.0397563e6	-0.93691	-0.045020258	-0.045020173	-15920.533	47759.691	0	50.81729901113887
57.543994	6.3095734e-8	0.2	1.3641399e7	948270.05	-0.93246558	-0.047777108	-0.047777014	-14519.782	43557.334	0	54.47507558817401
57.543994	6.9183097e-8	0.2	1.2441107e7	864833.61	-0.92787229	-0.05053657	-0.050536468	-13242.281	39724.742	0	58.272234242011706
57.543994	7.5857758e-8	0.2	1.1346428e7	788738.7	-0.92314306	-0.053276235	-0.053276123	-12077.186	36229.379	0	62.200837900401375
57.543994	8.3176377e-8	0.2	1.0348069e7	719339.35	-0.91829105	-0.055973702	-0.055973579	-11014.607	33041.573	0	66.25273113610497
57.543994	9.1201084e-8	0.2	9.4375555e6	656046.42	-0.91332929	-0.058607211	-0.058607076	-10045.522	30134.26	0	70.41976040101521
57.543994	1.e-7	0.2	8.607157e6	598322.61	-0.90827033	-0.061156236	-0.061156088	-9161.7064	27482.762	0	74.69399125366434
57.543994	1.0964782e-7	0.2	7.8498246e6	545677.89	-0.90312601	-0.063602043	-0.06360188	-8355.6563	25064.569	0	79.06781979167486
57.543994	1.2022644e-7	0.2	7.1591294e6	497665.36	-0.89790728	-0.065928171	-0.065927993	-7620.5295	22859.152	0	83.53405063568353
57.543994	1.3182567e-7	0.2	6.529208e6	453877.42	-0.89262415	-0.068120846	-0.06812065	-6950.0855	20847.789	0	88.08586761490206
57.543994	1.4454398e-7	0.2	5.9547129e6	413942.37	-0.88728558	-0.070169292	-0.070169078	-6338.6328	19013.406	0	92.71687661129752
57.543994	1.5848932e-7	0.2	5.4307672e6	377521.19	-0.88189954	-0.072065935	-0.0720657	-5780.9809	17340.43	0	97.42101310636197
57.543994	1.7378008e-7	0.2	4.9529231e6	344304.68	-0.87647304	-0.073806476	-0.073806219	-5272.3959	15814.659	0	102.19249820945363
57.543994	1.9054607e-7	0.2	4.5171242e6	314010.88	-0.87101219	-0.075389837	-0.075389554	-4808.5604	14423.141	0	107.02579431031276
57.543994	2.0892961e-7	0.2	4.1196709e6	286382.61	-0.86552225	-0.076817957	-0.076817647	-4385.5369	13154.062	0	111.91559436801617
57.543994	2.2908677e-7	0.2	3.7571892e6	261185.35	-0.86000776	-0.07809548	-0.07809514	-3999.7345	11996.649	0	116.8567604634042
57.543994	2.5118864e-7	0.2	3.4266021e6	238205.17	-0.8544726	-0.079229329	-0.079228957	-3647.878	10941.077	0	121.84434597282198
57.543994	2.7542287e-7	0.2	3.125103e6	217247.	-0.84892006	-0.080228224	-0.080227816	-3326.9806	9978.3847	0	126.8736215001239
57.543994	3.0199517e-7	0.2	2.8501327e6	198132.93	-0.84335295	-0.081102165	-0.081101718	-3034.3183	9100.3994	0	131.94006754806327
57.543994	3.3113112e-7	0.2	2.5993568e6	180700.69	-0.83777363	-0.081861932	-0.081861441	-2767.4065	8299.6679	0	137.03944141534558
57.543994	3.6307805e-7	0.2	2.3706464e6	164802.3	-0.83218409	-0.082518624	-0.082518086	-2523.9797	7569.3926	0	142.16778734393444
57.543994	3.9810717e-7	0.2	2.1620602e6	150302.8	-0.82658601	-0.083083272	-0.083082682	-2301.9713	6903.374	0	147.32145437079276
57.543994	4.3651583e-7	0.2	1.9718273e6	137079.1	-0.82098079	-0.083566523	-0.083565876	-2099.4967	6295.9583	0	152.49712639397416
57.543994	4.7863009e-7	0.2	1.7983328e6	125018.93	-0.81536962	-0.083978415	-0.083977706	-1914.8372	5741.989	0	157.69179905931557
57.543994	5.2480746e-7	0.2	1.640104e6	114019.93	-0.80975348	-0.084328226	-0.084327448	-1746.4252	5236.7632	0	162.90280851113658
57.543994	5.7543994e-7	0.2	1.4957976e6	103988.71	-0.8041332	-0.084624383	-0.08462353	-1592.8312	4775.9921	0	168.12779117884293
57.543994	6.3095734e-7	0.2	1.3641886e6	94840.129	-0.79850946	-0.084874441	-0.084873506	-1452.7514	4355.764	0	173.36468866266557
57.543994	6.9183097e-7	0.2	1.2441598e6	86496.518	-0.79288285	-0.085085088	-0.085084062	-1324.9965	3972.5117	0	178.61169023226213
57.543994	7.5857758e-7	0.2	1.1346923e6	78887.05	-0.78725384	-0.085262184	-0.08526106	-1208.4822	3622.9816	0	183.86725274550184
57.543994	8.3176377e-7	0.2	1.0348567e6	71947.126	-0.78162284	-0.085410825	-0.085409593	-1102.2194	3304.2064	0	189.13003393932544
57.543994	9.1201084e-7	0.2	943805.54	65617.834	-0.77599018	-0.085535408	-0.085534056	-1005.306	3013.4801	0	194.39889787922513
57.543994	1.e-6	0.2	860765.92	59845.444	-0.77035614	-0.085639703	-0.085638222	-916.91953	2748.3347	0	199.67287249088952
57.543994	1.0964782e-6	0.2	785032.89	54580.956	-0.76472094	-0.08572693	-0.085725306	-836.30959	2506.5193	0	204.95114692942155
57.543994	1.2022644e-6	0.2	715963.55	49779.678	-0.75908479	-0.085799824	-0.085798043	-762.79195	2285.9811	0	210.23300994385153
57.543994	1.3182567e-6	0.2	652971.57	45400.854	-0.75344784	-0.085860702	-0.085858749	-695.74258	2084.8479	0	215.5178853927066
57.543994	1.4454398e-6	0.2	595522.2	41407.311	-0.74781023	-0.085911519	-0.085909377	-634.59233	1901.4123	0	220.80527474261208
57.543994	1.5848932e-6	0.2	543127.76	37765.15	-0.74217207	-0.085953924	-0.085951575	-578.82214	1734.1171	0	226.0947649606403
57.543994	1.7378008e-6	0.2	495343.46	34443.451	-0.73653345	-0.0859893	-0.085986725	-527.95863	1581.542	0	231.38601179004672
57.543994	1.9054607e-6	0.2	451763.66	31414.018	-0.73089445	-0.086018811	-0.086015988	-481.57006	1442.392	0	236.67872189852937
57.543994	2.0892961e-6	0.2	412018.41	28651.135	-0.72525513	-0.086043431	-0.086040335	-439.26269	1315.4857	0	241.9726564485761
57.543994	2.2908677e-6	0.2	375770.31	26131.348	-0.71961556	-0.086063975	-0.08606058	-400.67741	1199.7457	0	247.26759670937338
57.543994	2.5118864e-6	0.2	342711.66	23833.267	-0.71397576	-0.086081124	-0.086077402	-365.48672	1094.1897	0	252.5633962966399
57.543994	2.7542287e-6	0.2	312561.81	21737.384	-0.70833578	-0.086095449	-0.086091368	-333.39194	997.92143	0	257.85990168539723
57.543994	3.0199517e-6	0.2	285064.82	19825.909	-0.70269565	-0.086107426	-0.086102951	-304.12065	910.12375	0	263.1569958058029
57.543994	3.3113112e-6	0.2	259987.26	18082.614	-0.6970554	-0.086117453	-0.086112546	-277.42442	830.05132	0	268.4545762452338
57.543994	3.6307805e-6	0.2	237116.26	16492.703	-0.69141505	-0.086125861	-0.086120481	-253.07668	757.02441	0	273.7525625768958
57.543994	3.9810717e-6	0.2	216257.66	15042.678	-0.68577461	-0.086132927	-0.086127028	-230.87077	690.42308	0	279.0508942927806
57.543994	4.3651583e-6	0.2	197234.4	13720.232	-0.6801341	-0.086138884	-0.086132416	-210.61825	629.68195	0	284.3495095694879
57.543994	4.7863009e-6	0.2	179884.97	12514.139	-0.67449353	-0.086143924	-0.086136832	-192.14724	574.28538	0	289.6483638716203
57.543994	5.2480746e-6	0.2	164062.1	11414.161	-0.66885291	-0.08614821	-0.086140434	-175.30098	523.76312	0	294.9474181132591
57.543994	5.7543994e-6	0.2	149631.48	10410.961	-0.66321226	-0.086151878	-0.086143351	-159.93651	477.68627	0	300.24662926231144
57.543994	6.3095734e-6	0.2	136470.59	9496.0234	-0.65757158	-0.08615504	-0.08614569	-145.92345	435.66368	0	305.5459772120787
57.543994	6.9183097e-6	0.2	124467.72	8661.5826	-0.65193087	-0.086157793	-0.086147541	-133.14289	397.33863	0	310.84544505038457
57.543994	7.5857758e-6	0.2	113520.98	7900.5554	-0.64629015	-0.086160216	-0.086148976	-121.48638	362.38577	0	316.1450004561812
57.543994	8.3176377e-6	0.2	103537.42	7206.4823	-0.64064941	-0.086162379	-0.086150054	-110.85503	330.50839	0	321.44464173825077
57.543994	9.1201084e-6	0.2	94432.316	6573.472	-0.63500866	-0.08616434	-0.086150825	-101.15862	301.43587	0	326.7443501052863
57.543994	0.00001	0.2	86128.358	5996.1517	-0.6293679	-0.086166147	-0.086151329	-92.314899	274.92142	0	332.044118040765
57.543994	0.000010964782	0.2	78555.059	5469.6212	-0.62372714	-0.086167843	-0.086151596	-84.24883	250.73995	0	337.34393051164136
57.543994	0.000012022644	0.2	71648.129	4989.4116	-0.61808637	-0.086169467	-0.086151652	-76.891991	228.68619	0	342.6437920278289
57.543994	0.000013182567	0.2	65348.933	4551.4471	-0.61244561	-0.08617105	-0.086151516	-70.181979	208.57292	0	347.9436802276724
57.543994	0.000014454398	0.2	59603.999	4152.0107	-0.60680485	-0.086172622	-0.086151203	-64.061878	190.22941	0	353.24360168812933
57.543994	0.000015848932	0.2	54364.556	3787.7123	-0.6011641	-0.086174209	-0.086150724	-58.479783	173.49992	0	358.5435449465023
57.543994	0.000017378008	0.2	49586.128	3455.46	-0.59552335	-0.086175836	-0.086150085	-53.388356	158.24245	0	363.84351827096657
57.543994	0.000019054607	0.2	45228.149	3152.4343	-0.58988262	-0.086177526	-0.08614929	-48.744423	144.32747	0	369.1435021185627
57.543994	0.000020892961	0.2	41253.625	2876.0634	-0.58424189	-0.0861793	-0.086148341	-44.50861	131.63686	0	374.4435149047716
57.543994	0.000022908677	0.2	37628.817	2624.0021	-0.57860118	-0.08618118	-0.086147234	-40.645006	120.06288	0	379.7435385899386
57.543994	0.000025118864	0.2	34322.952	2394.1114	-0.57296048	-0.086183187	-0.086145966	-37.12086	109.50729	0	385.04358313345637
57.543994	0.000027542287	0.2	31307.968	2184.4404	-0.5673198	-0.086185342	-0.08614453	-33.906305	99.880477	0	390.3436404550629
57.543994	0.000030199517	0.2	28558.269	1993.2101	-0.56167913	-0.086187668	-0.086142919	-30.9741	91.100719	0	395.64372126580315
57.543994	0.000033113112	0.2	26050.514	1818.7979	-0.55603849	-0.086190187	-0.086141121	-28.2994	83.093485	0	400.943809029327
57.543994	0.000036307805	0.2	23763.415	1659.724	-0.55039788	-0.086192924	-0.086139123	-25.859549	75.790801	0	406.2439061885044
57.543994	0.000039810717	0.2	21677.555	1514.6387	-0.54475728	-0.086195902	-0.086136911	-23.633882	69.130674	0	411.5440341654253
57.543994	0.000043651583	0.2	19775.229	1382.3113	-0.53911672	-0.08619915	-0.086134467	-21.603553	63.056566	0	416.8441681555643
57.543994	0.000047863009	0.2	18040.286	1261.6192	-0.53347619	-0.086202696	-0.086131773	-19.751375	57.516914	0	422.14432093701043
57.543994	0.000052480746	0.2	16458.	1151.5385	-0.52783569	-0.086206572	-0.086128807	-18.061672	52.464691	0	427.44449664385104
57.543994	0.000057543994	0.2	15014.938	1051.1357	-0.52219523	-0.086210812	-0.086125544	-16.520148	47.85701	0	432.74469057825945
57.543994	0.000063095734	0.2	13698.85	959.55912	-0.51655482	-0.086215452	-0.086121957	-15.113765	43.654754	0	438.0448984182351
57.543994	0.000069183097	0.2	12498.563	876.03218	-0.51091445	-0.086220533	-0.086118017	-13.830633	39.822251	0	443.3451350089103
57.543994	0.000075857758	0.2	11403.888	799.84661	-0.50527413	-0.086226097	-0.086113692	-12.659905	36.326968	0	448.64539696785005
57.543994	0.000083176377	0.2	10405.533	730.35644	-0.49963386	-0.086232194	-0.086108944	-11.591693	33.139231	0	453.9456914357509
57.543994	0.000091201084	0.2	9495.0227	666.97254	-0.49399366	-0.086238875	-0.086103733	-10.616975	30.231981	0	459.24600713782866
57.543994	0.0001	0.2	8664.6272	609.15764	-0.48835352	-0.086246197	-0.086098017	-9.7275258	27.580538	0	464.54636136208586
57.543994	0.00010964782	0.2	7907.2975	556.42172	-0.48271345	-0.086254222	-0.086091747	-8.915842	25.162393	0	469.8467539206092
57.543994	0.00012022644	0.2	7216.6047	508.31789	-0.47707347	-0.08626302	-0.086084869	-8.1750811	22.957018	0	475.1471761693977
57.543994	0.00013182567	0.2	6586.6854	464.43858	-0.47143357	-0.086272664	-0.086077325	-7.4990028	20.945693	0	480.4476484030627
57.543994	0.00014454398	0.2	6012.1923	424.41206	-0.46579376	-0.086283237	-0.086069053	-6.8819156	19.111343	0	485.74817287656134
57.543994	0.00015848932	0.2	5488.2483	387.89935	-0.46015406	-0.086294829	-0.086059981	-6.3186291	17.438396	0	491.0487443283273
57.543994	0.00017378008	0.2	5010.4058	354.59126	-0.45451447	-0.086307539	-0.086050032	-5.8044092	15.912651	0	496.3493772276672
57.543994	0.00019054607	0.2	4574.6083	324.20581	-0.448875	-0.086321473	-0.086039123	-5.3349388	14.521155	0	501.65007777571236
57.543994	0.00020892961	0.2	4177.1563	296.48586	-0.44323567	-0.086336751	-0.086027161	-4.9062802	13.252095	0	506.95084465707134
57.543994	0.00022908677	0.2	3814.6759	271.19686	-0.43759649	-0.086353503	-0.086014044	-4.5148425	12.0947	0	512.2516876432235
57.543994	0.00025118864	0.2	3484.0899	248.12492	-0.43195746	-0.086371871	-0.085999661	-4.1573507	11.039143	0	517.5526275925197
57.543994	0.00027542287	0.2	3182.592	227.07496	-0.4263186	-0.08639201	-0.085983891	-3.8308179	10.076464	0	522.8536684511346
57.543994	0.00030199517	0.2	2907.6228	207.86907	-0.42067994	-0.086414092	-0.085966599	-3.5325199	9.198491	0	528.1548074003722
57.543994	0.00033113112	0.2	2656.8479	190.345	-0.41504148	-0.086438304	-0.085947638	-3.2599725	8.3977704	0	533.4560720634533
57.543994	0.00036307805	0.2	2428.1387	174.35475	-0.40940324	-0.086464852	-0.085926849	-3.0109099	7.6675051	0	538.7574735272495
57.543994	0.00039810717	0.2	2219.5536	159.76338	-0.40376524	-0.086493962	-0.085904053	-2.7832656	7.0014957	0	544.0590266368933
57.543994	0.00043651583	0.2	2029.3218	146.44779	-0.3981275	-0.08652588	-0.085879059	-2.575155	6.3940887	0	549.3607484924739
57.543994	0.00047863009	0.2	1855.8286	134.29573	-0.39249004	-0.086560878	-0.085851655	-2.3848594	5.8401275	0	554.6626601402552
57.543994	0.00052480746	0.2	1697.601	123.20483	-0.38685288	-0.086599252	-0.085821606	-2.2108112	5.3349097	0	559.9647869485017
57.543994	0.00057543994	0.2	1553.2961	113.08171	-0.38121606	-0.086641329	-0.08578866	-2.0515808	4.8741464	0	565.2671386886927
57.543994	0.00063095734	0.2	1421.6886	103.84123	-0.37557958	-0.086687465	-0.085752536	-1.9058644	4.4539262	0	570.5697681644015
57.543994	0.00069183097	0.2	1301.6615	95.405711	-0.36994348	-0.086738052	-0.085712928	-1.7724729	4.0706818	0	575.872695294413
57.543994	0.00075857758	0.2	1192.1957	87.70434	-0.36430779	-0.08679352	-0.0856695	-1.6503217	3.7211599	0	581.1759550305585
57.543994	0.00083176377	0.2	1092.3622	80.672516	-0.35867253	-0.086854339	-0.085621884	-1.5384219	3.4023933	0	586.4795977335407
57.543994	0.00091201084	0.2	1001.3133	74.251329	-0.35303773	-0.086921025	-0.085569677	-1.4358713	3.1116762	0	591.7836709453661
57.543994	0.001	0.2	918.27617	68.387051	-0.34740342	-0.086994144	-0.085512435	-1.3418474	2.8465404	0	597.0882299124776
57.543994	0.0010964782	0.2	842.54597	63.030681	-0.34176962	-0.087074315	-0.085449673	-1.2555997	2.6047354	0	602.3933469814069
57.543994	0.0012022644	0.2	773.4798	58.13753	-0.33613636	-0.087162219	-0.085380859	-1.176444	2.3842084	0	607.6990939349469
57.543994	0.0013182567	0.2	710.49139	53.666843	-0.33050366	-0.087258599	-0.085305411	-1.1037563	2.1830875	0	613.0055613471973
57.543994	0.0014454398	0.2	653.04606	49.58145	-0.32487155	-0.087364271	-0.085222688	-1.0369673	1.9996652	0	618.3128414834754
57.543994	0.0015848932	0.2	600.65619	45.847452	-0.31924004	-0.08748013	-0.085131989	-0.97555799	1.8323845	0	623.6210566751897
57.543994	0.0017378008	0.2	552.87709	42.433931	-0.31360914	-0.087607153	-0.085032546	-0.91905486	1.6798254	0	628.9303418439247
57.543994	0.0019054607	0.2	509.3032	39.312694	-0.30797885	-0.087746415	-0.084923516	-0.86702612	1.5406929	0	634.2408554003983
57.543994	0.0020892961	0.2	469.56469	36.458024	-0.30234916	-0.087899087	-0.084803975	-0.81907795	1.4138059	0	639.5527803719408
57.543994	0.0022908677	0.2	433.32428	33.846472	-0.29672006	-0.088066456	-0.08467291	-0.77485118	1.2980873	0	644.8663165101455
57.543994	0.0025118864	0.2	400.27442	31.456649	-0.2910915	-0.088249925	-0.08452921	-0.73401819	1.1925548	0	650.1817195647003
57.543994	0.0027542287	0.2	370.13464	29.269049	-0.28546343	-0.088451032	-0.084371657	-0.69628018	1.0963125	0	655.4992653919924
57.543994	0.0030199517	0.2	342.64921	27.265884	-0.27983576	-0.088671455	-0.084198915	-0.6613646	1.0085436	0	660.819289604765
57.543994	0.0033113112	0.2	317.58493	25.430931	-0.27420837	-0.088913027	-0.08400952	-0.62902288	0.92850301	0	666.142180055594
57.543994	0.0036307805	0.2	294.72919	23.749395	-0.26858112	-0.089177747	-0.083801863	-0.59902823	0.8555114	0	671.4683706357587
57.543994	0.0039810717	0.2	273.88817	22.207782	-0.2629538	-0.089467795	-0.083574184	-0.57117383	0.78894923	0	676.7983893809851
57.543994	0.0043651583	0.2	254.88516	20.793788	-0.25732617	-0.08978554	-0.083324547	-0.54527095	0.72825157	0	682.1328255866613
57.543994	0.0047863009	0.2	237.5591	19.496191	-0.25169792	-0.090133559	-0.08305083	-0.52114745	0.67290329	0	687.4723692695798
57.543994	0.0052480746	0.2	221.76321	18.304756	-0.24606865	-0.090514644	-0.082750703	-0.49864624	0.62243469	0	692.8178340933342
57.543994	0.0057543994	0.2	207.36372	17.210151	-0.2404379	-0.090931813	-0.082421609	-0.47762397	0.5764175	0	698.1701327517054
57.543994	0.0063095734	0.2	194.23878	16.203865	-0.23480509	-0.091388324	-0.082060737	-0.45794984	0.53446127	0	703.5303384162358
57.543994	0.0069183097	0.2	182.27742	15.278134	-0.22916956	-0.091887673	-0.081664998	-0.43950441	0.49621003	0	708.8996516635302
57.543994	0.0075857758	0.2	171.37857	14.425882	-0.22353049	-0.092433602	-0.081230997	-0.42217866	0.46133929	0	714.2794809020476
57.543994	0.0083176377	0.2	161.45027	13.640652	-0.21788696	-0.093030088	-0.080754997	-0.40587302	0.42955324	0	719.6713927630533
57.543994	0.0091201084	0.2	152.40882	12.916556	-0.21223788	-0.093681331	-0.080232882	-0.39049651	0.40058228	0	725.0771848229743
57.543994	0.01	0.2	144.17811	12.248225	-0.20658203	-0.094391729	-0.079660117	-0.37596597	0.37418066	0	730.4988555373103
57.543994	0.010964782	0.2	136.68895	11.630761	-0.20091801	-0.095165832	-0.079031697	-0.36220539	0.35012443	0	735.9386608024668
57.543994	0.012022644	0.2	129.87846	11.059694	-0.19524429	-0.096008282	-0.078342094	-0.34914521	0.32820948	0	741.39907693688
57.543994	0.013182567	0.2	123.68953	10.530949	-0.1895592	-0.096923724	-0.077585191	-0.33672172	0.30824979	0	746.8828224789336
57.543994	0.014454398	0.2	118.07029	10.040803	-0.18386096	-0.097916688	-0.076754214	-0.3248766	0.29007576	0	752.392842778087
57.543994	0.015848932	0.2	112.97363	9.5858586	-0.1781477	-0.098991428	-0.075841645	-0.31355634	0.27353277	0	757.9323075520049
57.543994	0.017378008	0.2	108.35675	9.1630097	-0.17241756	-0.10015172	-0.074839132	-0.30271185	0.25847975	0	763.5045338421988
57.543994	0.019054607	0.2	104.18073	8.7694174	-0.16666871	-0.10140061	-0.073737379	-0.29229802	0.24478788	0	769.1129878931581
57.543994	0.020892961	0.2	100.41016	8.4024822	-0.16089947	-0.1027401	-0.072526027	-0.28227341	0.23233942	0	774.7611947661627
57.543994	0.022908677	0.2	97.012759	8.0598209	-0.15510837	-0.1041708	-0.071193524	-0.27259988	0.22102655	0	780.4527063940618
57.543994	0.025118864	0.2	93.959035	7.7392448	-0.14929426	-0.10569149	-0.069726986	-0.26324231	0.21075032	0	786.191024349002
57.543994	0.027542287	0.2	91.222044	7.4387393	-0.14345633	-0.10729869	-0.068112054	-0.25416836	0.20141971	0	791.9796079226887
57.543994	0.030199517	0.2	88.777184	7.1564454	-0.13759415	-0.10898618	-0.066332766	-0.2453482	0.19295069	0	797.8218605966459
57.543994	0.033113112	0.2	86.602094	6.8906427	-0.13170751	-0.11074461	-0.064371455	-0.23675431	0.18526541	0	803.7212995398047
57.543994	0.036307805	0.2	84.676683	6.639735	-0.12579625	-0.1125611	-0.062208709	-0.22836124	0.17829154	0	809.6817228511359
57.543994	0.039810717	0.2	82.983302	6.4022365	-0.11985978	-0.11441908	-0.059823427	-0.22014541	0.1719617	0	815.7076500278861
57.543994	0.043651583	0.2	81.507075	6.1767617	-0.11389646	-0.11629833	-0.057193031	-0.21208483	0.16621301	0	821.8048646585238
57.543994	0.047863009	0.2	80.236372	5.9620161	-0.10790269	-0.11817537	-0.054293901	-0.2041588	0.16098686	0	827.9811876850224
57.543994	0.052480746	0.2	79.163388	5.7567895	-0.10187186	-0.1200242	-0.0511021	-0.19634761	0.15622889	0	834.2473277095019
57.543994	0.057543994	0.2	78.284745	5.5599517	-0.09579299	-0.12181767	-0.04759447	-0.18863205	0.15188905	0	840.6179528503807
57.543994	0.063095734	0.2	77.601997	5.3704493	-0.089649532	-0.12352924	-0.043750141	-0.18099307	0.1479219	0	847.112532780841
57.543994	0.069183097	0.2	77.121906	5.1873043	-0.083418126	-0.12513532	-0.039552453	-0.17341115	0.14428703	0	853.7561463792052
57.543994	0.075857758	0.2	76.856355	5.0096131	-0.077067753	-0.12661796	-0.034991216	-0.1658659	0.14094953	0	860.5798528572483
57.543994	0.083176377	0.2	76.821858	4.8365479	-0.070559301	-0.1279677	-0.03006509	-0.15833551	0.13788049	0	867.6206522984535
57.543994	0.091201084	0.2	77.038699	4.6673567	-0.06384562	-0.1291862	-0.024783788	-0.15079635	0.13505747	0	874.9210200094238
57.543994	0.1	0.2	77.529951	4.501366	-0.056871923	-0.13028827	-0.019169722	-0.14322269	0.13246497	0	882.5282204492654
57.543994	0.10964782	0.2	78.32076	4.3379835	-0.049576161	-0.13130286	-0.01325872	-0.13558641	0.13009484	0	890.4938201589084
57.543994	0.12022644	0.2	79.438411	4.1767025	-0.041888846	-0.13227294	-0.0070996241	-0.12785681	0.12794672	0	898.8739295864369
57.543994	0.13182567	0.2	80.913647	4.0171091	-0.03373167	-0.13325411	-0.00075282657	-0.1200004	0.12602879	0	907.7307757184193
57.543994	0.14454398	0.2	82.783567	3.858892	-0.025014403	-0.13431256	0.0057119632	-0.11198038	0.12435875	0	917.136036230903
57.543994	0.15848932	0.2	85.09613	3.7018559	-0.015629774	-0.13552242	0.012218266	-0.1037558	0.12296561	0	927.1761277954058
57.543994	0.17378008	0.2	87.915916	3.5459399	-0.0054465011	-0.13696337	0.01868531	-0.095280276	0.121892	0	937.9592202537049
57.543994	0.19054607	0.2	91.330412	3.3912387	0.00569889	-0.1387183	0.025030292	-0.086500012	0.12119753	0	949.6233485901779
57.543994	0.20892961	0.2	95.455642	3.2380266	0.01801014	-0.14087098	0.031170608	-0.077351272	0.12096275	0	962.3444181356956
57.543994	0.22908677	0.2	100.43946	3.0867784	0.0317372	-0.14350328	0.03702658	-0.067757402	0.12129338	0	976.3423017454206
57.543994	0.25118864	0.2	106.46031	2.9381803	0.047177248	-0.14669121	0.04252536	-0.057625719	0.12232412	0	991.882528479612
57.543994	0.27542287	0.2	113.71909	2.793118	0.064667559	-0.15049916	0.047606565	-0.046844847	0.1242206	0	1009.2706434867853
57.543994	0.30199517	0.2	122.42231	2.6526315	0.084567565	-0.1549725	0.052229613	-0.035283265	0.12717804	0	1028.8367307316146
57.543994	0.33113112	0.2	132.75687	2.5178277	0.10722978	-0.16012958	0.056381664	-0.022789938	0.13141526	0	1050.9095873500714
57.543994	0.36307805	0.2	144.86024	2.3897577	0.13296347	-0.16595539	0.060083877	-0.0091976884	0.13716382	0	1075.783765012337
57.543994	0.39810717	0.2	158.79362	2.2692812	0.16199948	-0.1723998	0.063393146	0.0056705852	0.14465347	0	1103.6868488078362
57.543994	0.43651583	0.2	174.52666	2.1569565	0.19446662	-0.17938215	0.066397415	0.021993554	0.15409708	0	1134.756389976331
57.543994	0.47863009	0.2	191.93925	2.0529863	0.23038659	-0.18680197	0.069204964	0.039942429	0.16567826	0	1169.0331243131359
57.543994	0.52480746	0.2	210.83946	1.9572307	0.26968789	-0.19455283	0.071930486	0.059672927	0.17954418	0	1206.4714252094636
57.543994	0.57543994	0.2	230.99115	1.8692747	0.31223212	-0.20253561	0.074681825	0.081319541	0.1958039	0	1246.9615221179947
57.543994	0.63095734	0.2	252.14298	1.7885189	0.35784388	-0.21066804	0.077550372	0.10499265	0.21453109	0	1290.35578883972
57.543994	0.69183097	0.2	274.05238	1.7142697	0.40633695	-0.21888951	0.080606281	0.13077825	0.23576927	0	1336.4924423686753
57.543994	0.75857758	0.2	296.50179	1.6458115	0.45753345	-0.22716151	0.083897978	0.15873969	0.25953797	0	1385.21345269873
57.543994	0.83176377	0.2	319.30729	1.5824558	0.51127544	-0.23546521	0.087454593	0.1889206	0.28583864	0	1436.3758987862345
57.543994	0.91201084	0.2	342.32131	1.5235704	0.56743048	-0.24379757	0.091289834	0.22134837	0.31465995	0	1489.8579205085982
57.543994	1.	0.2	365.43142	1.4685927	0.62589308	-0.25216716	0.095406165	0.25603763	0.34598208	0	1545.5608661348547
57.543994	1.0964782	0.2	388.55694	1.4170326	0.68658358	-0.26059039	0.09979859	0.29299362	0.37978026	0	1603.4089510755243
57.543994	1.2022644	0.2	411.64458	1.3684698	0.74944584	-0.2690884	0.10445772	0.33221503	0.41602742	0	1663.3476638160444
57.543994	1.3182567	0.2	434.66395	1.3225475	0.81444445	-0.27768482	0.10937208	0.37369649	0.45469635	0	1725.3415780448931
57.543994	1.4454398	0.2	457.60331	1.2789643	0.88156189	-0.2864041	0.11452971	0.41743059	0.49576119	0	1789.3719851368214
57.543994	1.5848932	0.2	480.46579	1.2374671	0.95079598	-0.29527056	0.11991921	0.46340954	0.53919863	0	1855.4346946303679
57.543994	1.7378008	0.2	503.26619	1.1978432	1.0221576	-0.3043077	0.12553032	0.51162644	0.58498875	0	1923.5380010084423
57.543994	1.9054607	0.2	526.02826	1.1599139	1.0956689	-0.31353793	0.13135432	0.56207631	0.63311562	0	1993.701077041577
57.543994	2.0892961	0.2	548.78255	1.123529	1.1713613	-0.32298245	0.13738409	0.61475683	0.68356774	0	2065.9521059320114
57.543994	2.2908677	0.2	571.56463	1.0885613	1.2492749	-0.33266122	0.14361414	0.66966896	0.73633826	0	2140.327732607525
57.543994	2.5118864	0.2	594.41369	1.054903	1.3294567	-0.34259309	0.15004054	0.72681732	0.79142521	0	2216.8713781412025
57.543994	2.7542287	0.2	617.37145	1.0224621	1.4119603	-0.35279591	0.15666078	0.78621049	0.84883153	0	2295.632931574
57.543994	3.0199517	0.2	640.48127	0.99115959	1.4968448	-0.36328666	0.16347369	0.84786126	0.90856516	0	2376.6677013598082
57.543994	3.3113112	0.2	663.78755	0.96092706	1.5841745	-0.37408157	0.17047928	0.91178669	0.97063899	0	2460.0361034297644
57.543994	3.6307805	0.2	687.3352	0.93170491	1.6740184	-0.38519631	0.17767863	0.97800824	1.0350708	0	2545.803170739134
57.543994	3.9810717	0.2	711.1693	0.90344077	1.7664501	-0.39664607	0.18507376	1.0465518	1.1018833	0	2634.0384348820785
57.543994	4.3651583	0.2	735.33481	0.87608824	1.8615471	-0.4084457	0.19266757	1.1174476	1.1711039	0	2724.815257121125
57.543994	4.7863009	0.2	759.87638	0.84960583	1.9593908	-0.4206098	0.20046369	1.1907304	1.2427648	0	2818.2108002002083
57.543994	5.2480746	0.2	784.83829	0.82395618	2.0600665	-0.43315284	0.20846647	1.2664392	1.3169026	0	2914.3060264655383
57.543994	5.7543994	0.2	810.26431	0.79910538	2.1636632	-0.44608919	0.21668086	1.3446173	1.3935588	0	3013.18548740296
57.543994	6.3095734	0.2	836.1977	0.77502237	2.2702735	-0.45943325	0.2251124	1.4253124	1.4727789	0	3114.9372278022934
57.543994	6.9183097	0.2	862.68124	0.75167853	2.3799934	-0.47319948	0.23376712	1.5085763	1.5546131	0	3219.6525790529486
57.543994	7.5857758	0.2	889.75717	0.7290473	2.4929228	-0.48740248	0.24265157	1.594465	1.6391158	0	3327.4266345640003
57.543994	8.3176377	0.2	917.46731	0.7071039	2.6091647	-0.50205702	0.25177272	1.6830387	1.7263455	0	3438.3574793205953
57.543994	9.1201084	0.2	945.8531	0.68582503	2.7288261	-0.51717809	0.26113797	1.7743615	1.8163651	0	3552.5470373719036
57.543994	10.	0.2	974.95561	0.66518875	2.8520173	-0.53278097	0.27075512	1.8685017	1.9092414	0	3670.1004084979736