57.543994	1.e-12	0.57	8.607125e11	5.9831337e10	-0.9999993	2.0878581e-7	2.0879003e-7	-9.1607518e8	2.7483151e9	0	0.0007695137152064285
57.543994	1.0964782e-12	0.57	7.8497913e11	5.4566828e10	-0.99999923	2.2892902e-7	2.2893365e-7	-8.354705e8	2.5064931e9	0	0.0008460712507280399
57.543994	1.2022644e-12	0.57	7.1590947e11	4.9765539e10	-0.99999916	2.5101561e-7	2.5102069e-7	-7.6195815e8	2.2859489e9	0	0.0009236695892023746
57.543994	1.3182567e-12	0.57	6.529172e11	4.5386711e10	-0.99999908	2.7523315e-7	2.7523872e-7	-6.9491409e8	2.0848102e9	0	0.0010118048376077692
57.543994	1.4454398e-12	0.57	5.9546756e11	4.1393172e10	-0.99999899	3.0178723e-7	3.0179333e-7	-6.3376918e8	1.9013695e9	0	0.0011105871002355119
57.543994	1.5848932e-12	0.57	5.4307287e11	3.7751022e10	-0.99999889	3.3090306e-7	3.3090975e-7	-5.7800437e8	1.7340696e9	0	0.0012201369995187565
57.543994	1.7378008e-12	0.57	4.9528834e11	3.4429341e10	-0.99999878	3.62828e-7	3.6283534e-7	-5.2714625e8	1.5814903e9	0	0.0013405870095576275
57.543994	1.9054607e-12	0.57	4.5170834e11	3.1399932e10	-0.99999867	3.9783294e-7	3.9784098e-7	-4.8076309e8	1.4423363e9	0	0.0014626865473025713
57.543994	2.0892961e-12	0.57	4.119629e11	2.8637079e10	-0.99999854	4.3621513e-7	4.3622396e-7	-4.3846115e8	1.3154263e9	0	0.0016053861340719503
57.543994	2.2908677e-12	0.57	3.7571463e11	2.6117326e10	-0.9999984	4.7830042e-7	4.7831009e-7	-3.9988132e8	1.199683e9	0	0.001759464604701276
57.543994	2.5118864e-12	0.57	3.4265582e11	2.3819284e10	-0.99999824	5.2444596e-7	5.2445657e-7	-3.646961e8	1.0941239e9	0	0.0019345089117926554
57.543994	2.7542287e-12	0.57	3.1250582e11	2.1723446e10	-0.99999807	5.7504353e-7	5.7505516e-7	-3.326068e8	9.9785289e8	0	0.00212133321006108
57.543994	3.0199517e-12	0.57	2.8500869e11	1.9812018e10	-0.99999789	6.3052272e-7	6.3053548e-7	-3.03341e8	9.1005265e8	0	0.0023201675832553543
57.543994	3.3113112e-12	0.57	2.5993102e11	1.8068775e10	-0.99999768	6.9135441e-7	6.9136839e-7	-2.7665028e8	8.2997788e8	0	0.002550055508497787
57.543994	3.6307805e-12	0.57	2.3705991e11	1.6478919e10	-0.99999746	7.5805501e-7	7.5807034e-7	-2.5230806e8	7.5694883e8	0	0.002792482264861836
57.543994	3.9810717e-12	0.57	2.162012e11	1.5028952e10	-0.99999722	8.3119076e-7	8.3120757e-7	-2.3010768e8	6.9034553e8	0	0.003057146756896157
57.543994	4.3651583e-12	0.57	1.9717784e11	1.3706568e10	-0.99999695	9.1138252e-7	9.1140096e-7	-2.098607e8	6.2960261e8	0	0.0033537771518286287
57.543994	4.7863009e-12	0.57	1.7982833e11	1.2500538e10	-0.99999665	9.9931102e-7	9.9933123e-7	-1.9139523e8	5.742044e8	0	0.0036827380106822204
57.543994	5.2480746e-12	0.57	1.6400538e11	1.1400626e10	-0.99999633	1.0957233e-6	1.0957454e-6	-1.7455453e8	5.2368064e8	0	0.004035033748359767
57.543994	5.7543994e-12	0.57	1.4957469e11	1.0397495e10	-0.99999598	1.2014366e-6	1.2014609e-6	-1.5919562e8	4.7760242e8	0	0.004420497794675161
57.543994	6.3095734e-12	0.57	1.3641374e11	9.4826279e9	-0.99999559	1.3173491e-6	1.3173757e-6	-1.4518813e8	4.3557858e8	0	0.0048490067130291005
57.543994	6.9183097e-12	0.57	1.2441081e11	8.6482595e9	-0.99999516	1.4444445e-6	1.4444737e-6	-1.3241315e8	3.9725239e8	0	0.005321087433384178
57.543994	7.5857758e-12	0.57	1.13464e11	7.8873064e9	-0.9999947	1.5838019e-6	1.583834e-6	-1.2076223e8	3.6229849e8	0	0.005827922216521309
57.543994	8.3176377e-12	0.57	1.034804e11	7.1933089e9	-0.99999418	1.7366043e-6	1.7366394e-6	-1.1013646e8	3.3042015e8	0	0.00639833147428283
57.543994	9.1201084e-12	0.57	9.4375248e10	6.5603757e9	-0.99999362	1.9041487e-6	1.9041872e-6	-1.0044565e8	3.0134675e8	0	0.007014218671403286
57.543994	1.e-11	0.57	8.607125e10	5.9831337e9	-0.99999301	2.0878576e-6	2.0878998e-6	-9.1607519e7	2.7483151e8	0	0.007685741231158201
57.543994	1.0964782e-11	0.57	7.8497913e10	5.4566828e9	-0.99999233	2.2892903e-6	2.2893366e-6	-8.3547051e7	2.5064931e8	0	0.008432525600506929
57.543994	1.2022644e-11	0.57	7.1590947e10	4.9765539e9	-0.99999159	2.5101569e-6	2.5102077e-6	-7.6195816e7	2.2859489e8	0	0.009246091973908443
57.543994	1.3182567e-11	0.57	6.529172e10	4.5386711e9	-0.99999078	2.7523323e-6	2.752388e-6	-6.949141e7	2.0848102e8	0	0.010136840111926853
57.543994	1.4454398e-11	0.57	5.9546756e10	4.1393172e9	-0.99998989	3.0178723e-6	3.0179334e-6	-6.3376919e7	1.9013695e8	0	0.011115266709666179
57.543994	1.5848932e-11	0.57	5.4307287e10	3.7751022e9	-0.99998892	3.3090312e-6	3.3090981e-6	-5.7800437e7	1.7340696e8	0	0.012182579009320182
57.543994	1.7378008e-11	0.57	4.9528834e10	3.4429341e9	-0.99998785	3.6282805e-6	3.6283539e-6	-5.2714626e7	1.5814902e8	0	0.013358892095616349
57.543994	1.9054607e-11	0.57	4.5170834e10	3.1399932e9	-0.99998668	3.9783305e-6	3.978411e-6	-4.807631e7	1.4423362e8	0	0.014645657422469895
57.543994	2.0892961e-11	0.57	4.119629e10	2.8637079e9	-0.99998539	4.3621526e-6	4.3622408e-6	-4.3846116e7	1.3154263e8	0	0.0160632576368251
57.543994	2.2908677e-11	0.57	3.7571463e10	2.6117326e9	-0.99998398	4.7830052e-6	4.7831019e-6	-3.9988133e7	1.199683e8	0	0.017613437889137867
57.543994	2.5118864e-11	0.57	3.4265582e10	2.3819284e9	-0.99998244	5.2444608e-6	5.2445669e-6	-3.6469611e7	1.0941239e8	0	0.019307507146921973
57.543994	2.7542287e-11	0.57	3.1250582e10	2.1723446e9	-0.99998074	5.7504369e-6	5.7505532e-6	-3.3260681e7	9.9785288e7	0	0.021175750343096926
57.543994	3.0199517e-11	0.57	2.8500869e10	1.9812018e9	-0.99997888	6.3052286e-6	6.3053561e-6	-3.0334101e7	9.1005264e7	0	0.02322046783524001
57.543994	3.3113112e-11	0.57	2.5993102e10	1.8068775e9	-0.99997685	6.9135456e-6	6.9136854e-6	-2.7665029e7	8.2997787e7	0	0.025453577620778812
57.543994	3.6307805e-11	0.57	2.3705991e10	1.6478919e9	-0.99997461	7.5805518e-6	7.5807052e-6	-2.5230807e7	7.5694882e7	0	0.027915427959169514
57.543994	3.9810717e-11	0.57	2.162012e10	1.5028952e9	-0.99997216	8.3119096e-6	8.3120777e-6	-2.3010769e7	6.9034553e7	0	0.03060905125425491
57.543994	4.3651583e-11	0.57	1.9717784e10	1.3706568e9	-0.99996948	9.1138274e-6	9.1140117e-6	-2.0986071e7	6.296026e7	0	0.03355656394993613
57.543994	4.7863009e-11	0.57	1.7982833e10	1.2500538e9	-0.99996653	9.9931127e-6	9.9933148e-6	-1.9139524e7	5.742044e7	0	0.03679919448558276
57.543994	5.2480746e-11	0.57	1.6400538e10	1.1400626e9	-0.99996331	0.00001095723	0.000010957451	-1.7455454e7	5.2368063e7	0	0.0403409402232894
57.543994	5.7543994e-11	0.57	1.4957469e10	1.0397495e9	-0.99995977	0.000012014363	0.000012014606	-1.5919563e7	4.7760241e7	0	0.04423316330063219
57.543994	6.3095734e-11	0.57	1.3641374e10	9.4826279e8	-0.99995588	0.000013173486	0.000013173753	-1.4518814e7	4.3557858e7	0	0.04850885629548937
57.543994	6.9183097e-11	0.57	1.2441081e10	8.6482595e8	-0.99995163	0.000014444439	0.000014444732	-1.3241316e7	3.9725238e7	0	0.053182684695543214
57.543994	7.5857758e-11	0.57	1.13464e10	7.8873064e8	-0.99994696	0.000015838012	0.000015838332	-1.2076224e7	3.6229848e7	0	0.05831680049487961
57.543994	8.3176377e-11	0.57	1.034804e10	7.1933089e8	-0.99994184	0.000017366033	0.000017366384	-1.1013647e7	3.3042014e7	0	0.06394572677290833
57.543994	9.1201084e-11	0.57	9.4375248e9	6.5603757e8	-0.99993623	0.000019041474	0.000019041859	-1.0044566e7	3.0134675e7	0	0.07011399279162922
57.543994	1.e-10	0.57	8.607125e9	5.9831337e8	-0.99993008	0.000020878558	0.00002087898	-9.1607528e6	2.748315e7	0	0.07687619397821438
57.543994	1.0964782e-10	0.57	7.8497913e9	5.4566828e8	-0.99992333	0.000022892879	0.000022893342	-8.354706e6	2.506493e7	0	0.08429705619117367
57.543994	1.2022644e-10	0.57	7.1590947e9	4.9765539e8	-0.99991594	0.000025101538	0.000025102045	-7.6195825e6	2.2859488e7	0	0.09242331998784947
57.543994	1.3182567e-10	0.57	6.529172e9	4.5386711e8	-0.99990783	0.000027523282	0.000027523839	-6.9491419e6	2.0848101e7	0	0.10134019220077603
57.543994	1.4454398e-10	0.57	5.9546756e9	4.1393172e8	-0.99989894	0.000030178669	0.00003017928	-6.3376928e6	1.9013694e7	0	0.11111505556327735
57.543994	1.5848932e-10	0.57	5.4307287e9	3.7751022e8	-0.99988918	0.000033090241	0.00003309091	-5.7800446e6	1.7340695e7	0	0.12184454337546066
57.543994	1.7378008e-10	0.57	4.9528834e9	3.4429341e8	-0.99987849	0.000036282711	0.000036283445	-5.2714635e6	1.5814902e7	0	0.13359826626790355
57.543994	1.9054607e-10	0.57	4.5170834e9	3.1399932e8	-0.99986677	0.000039783181	0.000039783986	-4.8076319e6	1.4423362e7	0	0.14648469477686166
57.543994	2.0892961e-10	0.57	4.119629e9	2.8637079e8	-0.99985392	0.000043621363	0.000043622245	-4.3846125e6	1.3154262e7	0	0.16061369776603557
57.543994	2.2908677e-10	0.57	3.7571463e9	2.6117326e8	-0.99983982	0.000047829837	0.000047830804	-3.9988142e6	1.1996829e7	0	0.1761154724405506
57.543994	2.5118864e-10	0.57	3.4265582e9	2.3819284e8	-0.99982437	0.000052444325	0.000052445386	-3.646962e6	1.0941238e7	0	0.1931031068686791
57.543994	2.7542287e-10	0.57	3.1250582e9	2.1723446e8	-0.99980743	0.000057503995	0.000057505158	-3.326069e6	9.9785279e6	0	0.2117291161742036
57.543994	3.0199517e-10	0.57	2.8500869e9	1.9812018e8	-0.99978885	0.000063051793	0.000063053069	-3.033411e6	9.1005255e6	0	0.23215743659337457
57.543994	3.3113112e-10	0.57	2.5993102e9	1.8068775e8	-0.99976847	0.000069134806	0.000069136204	-2.7665038e6	8.2997778e6	0	0.2545636150595719
57.543994	3.6307805e-10	0.57	2.3705991e9	1.6478919e8	-0.99974614	0.000075804662	0.000075806195	-2.5230816e6	7.5694873e6	0	0.2791162380093328
57.543994	3.9810717e-10	0.57	2.162012e9	1.5028952e8	-0.99972165	0.000083117967	0.000083119648	-2.3010778e6	6.9034544e6	0	0.306042929636532
57.543994	4.3651583e-10	0.57	1.9717784e9	1.3706568e8	-0.99969479	0.000091136786	0.000091138629	-2.098608e6	6.2960251e6	0	0.33557423825074395
57.543994	4.7863009e-10	0.57	1.7982833e9	1.2500538e8	-0.99966534	0.000099929165	0.000099931186	-1.9139533e6	5.7420431e6	0	0.3679533114885425
57.543994	5.2480746e-10	0.57	1.6400538e9	1.1400626e8	-0.99963306	0.00010956971	0.00010957193	-1.7455463e6	5.2368054e6	0	0.40344560312259203
57.543994	5.7543994e-10	0.57	1.4957469e9	1.0397495e8	-0.99959766	0.00012014022	0.00012014265	-1.5919572e6	4.7760232e6	0	0.44236738938734
57.543994	6.3095734e-10	0.57	1.3641374e9	9.4826279e7	-0.99955884	0.00013173037	0.00013173303	-1.4518823e6	4.3557849e6	0	0.48504857035599935
57.543994	6.9183097e-10	0.57	1.2441081e9	8.6482595e7	-0.99951628	0.00014443847	0.00014444139	-1.3241325e6	3.9725229e6	0	0.5318424624373742
57.543994	7.5857758e-10	0.57	1.13464e9	7.8873064e7	-0.99946961	0.00015837231	0.00015837551	-1.2076233e6	3.6229839e6	0	0.583154426632702
57.543994	8.3176377e-10	0.57	1.034804e9	7.1933089e7	-0.99941844	0.00017365003	0.00017365354	-1.1013656e6	3.3042005e6	0	0.6394141689266203
57.543994	9.1201084e-10	0.57	9.4375248e8	6.5603757e7	-0.99936233	0.00019040117	0.00019040502	-1.0044575e6	3.0134666e6	0	0.7011044735116249
57.543994	1.e-9	0.57	8.607125e8	5.9831337e7	-0.99930082	0.00020876769	0.00020877191	-916076.18	2.7483141e6	0	0.7687335674459317
57.543994	1.0964782e-9	0.57	7.8497913e8	5.4566828e7	-0.99923336	0.00022890521	0.00022890984	-835471.5	2.5064921e6	0	0.8429015596687233
57.543994	1.2022644e-9	0.57	7.1590947e8	4.9765539e7	-0.9991594	0.00025098429	0.00025098937	-761959.15	2.2859479e6	0	0.9242165549140589
57.543994	1.3182567e-9	0.57	6.529172e8	4.5386711e7	-0.99907831	0.00027519184	0.00027519741	-694915.09	2.0848092e6	0	1.0133705794235504
57.543994	1.4454398e-9	0.57	5.9546756e8	4.1393172e7	-0.9989894	0.00030173267	0.00030173878	-633770.18	1.9013685e6	0	1.1111216251003597
57.543994	1.5848932e-9	0.57	5.4307287e8	3.7751022e7	-0.99889191	0.0003308312	0.00033083789	-578005.36	1.7340686e6	0	1.2183039448908393
57.543994	1.7378008e-9	0.57	4.9528834e8	3.4429341e7	-0.99878501	0.00036273325	0.00036274059	-527147.24	1.5814893e6	0	1.3358290435559823
57.543994	1.9054607e-9	0.57	4.5170834e8	3.1399932e7	-0.99866781	0.00039770809	0.00039771613	-480764.09	1.4423353e6	0	1.4646773317003923
57.543994	2.0892961e-9	0.57	4.119629e8	2.8637079e7	-0.99853931	0.00043605054	0.00043605937	-438462.15	1.3154253e6	0	1.605946287610592
57.543994	2.2908677e-9	0.57	3.7571463e8	2.6117326e7	-0.99839841	0.00047808341	0.00047809308	-399882.32	1.1996821e6	0	1.7608422933709225
57.543994	2.5118864e-9	0.57	3.4265582e8	2.3819285e7	-0.99824393	0.00052415991	0.00052417052	-364697.1	1.094123e6	0	1.9306632252820832
57.543994	2.7542287e-9	0.57	3.1250582e8	2.1723446e7	-0.99807456	0.00057466651	0.00057467814	-332607.79	997851.91	0	2.116846878119424
57.543994	3.0199517e-9	0.57	2.8500869e8	1.9812018e7	-0.99788887	0.00063002574	0.00063003849	-303342.	910051.68	0	2.3209631279365466
57.543994	3.3113112e-9	0.57	2.5993102e8	1.8068775e7	-0.99768529	0.00069069938	0.00069071337	-276651.28	829976.91	0	2.5447344103617753
57.543994	3.6307805e-9	0.57	2.3705991e8	1.6478919e7	-0.99746209	0.00075719175	0.00075720709	-252309.05	756947.85	0	2.7900562578053787
57.543994	3.9810717e-9	0.57	2.1620121e8	1.5028953e7	-0.9972174	0.00083005314	0.00083006995	-230108.68	690344.56	0	3.0589803718748225
57.543994	4.3651583e-9	0.57	1.9717784e8	1.3706568e7	-0.99694915	0.00090988343	0.00090990187	-209861.7	629601.64	0	3.353772941350303
57.543994	4.7863009e-9	0.57	1.7982833e8	1.2500539e7	-0.99665509	0.00099733581	0.00099735602	-191396.23	574203.44	0	3.676897794931899
57.543994	5.2480746e-9	0.57	1.6400539e8	1.1400627e7	-0.99633275	0.0010931204	0.0010931426	-174555.53	523679.68	0	4.031056008241789
57.543994	5.7543994e-9	0.57	1.4957469e8	1.0397495e7	-0.99597942	0.001198008	0.0011980323	-159196.62	477601.46	0	4.419206548141706
57.543994	6.3095734e-9	0.57	1.3641374e8	9.4826286e6	-0.99559216	0.0013128332	0.0013128598	-145189.13	435577.63	0	4.844558751512169
57.543994	6.9183097e-9	0.57	1.2441081e8	8.6482602e6	-0.99516774	0.0014384978	0.001438527	-132414.15	397251.44	0	5.310630429007517
57.543994	7.5857758e-9	0.57	1.1346401e8	7.8873072e6	-0.99470264	0.0015759725	0.0015760046	-120763.23	362297.54	0	5.821248711228375
57.543994	8.3176377e-9	0.57	1.0348041e8	7.1933098e6	-0.99419302	0.0017262989	0.001726334	-110137.46	330419.21	0	6.380579253231349
57.543994	9.1201084e-9	0.57	9.4375252e7	6.5603767e6	-0.9936347	0.0018905885	0.001890627	-100446.64	301345.82	0	6.993144865170453
57.543994	1.e-8	0.57	8.6071253e7	5.9831349e6	-0.99302311	0.0020700209	0.0020700631	-91608.514	274830.58	0	7.6638710445734555
57.543994	1.0964782e-8	0.57	7.8497917e7	5.4566841e6	-0.99235332	0.0022658389	0.0022658852	-83548.045	250648.39	0	8.398055486506774
57.543994	1.2022644e-8	0.57	7.1590952e7	4.9765552e6	-0.99161996	0.0024793394	0.0024793902	-76196.81	228593.98	0	9.201438214612285
57.543994	1.3182567e-8	0.57	6.5291725e7	4.5386726e6	-0.99081721	0.0027118602	0.0027119159	-69492.404	208480.11	0	10.080203961026314
57.543994	1.4454398e-8	0.57	5.9546762e7	4.1393188e6	-0.98993882	0.0029647603	0.0029648214	-63377.912	190136.05	0	11.04095287824874
57.543994	1.5848932e-8	0.57	5.4307293e7	3.7751039e6	-0.98897804	0.0032393931	0.00323946	-57801.43	173406.07	0	12.090751795251268
57.543994	1.7378008e-8	0.57	4.9528841e7	3.442936e6	-0.98792765	0.0035370693	0.0035371427	-52715.617	158148.15	0	13.237086482859961
57.543994	1.9054607e-8	0.57	4.5170841e7	3.1399953e6	-0.98677995	0.0038590105	0.003859091	-48077.301	144232.76	0	14.48784577134274
57.543994	2.0892961e-8	0.57	4.1196298e7	2.8637102e6	-0.98552676	0.0042062887	0.0042063769	-43847.106	131541.78	0	15.851289417273886
57.543994	2.2908677e-8	0.57	3.7571472e7	2.6117351e6	-0.98415949	0.0045797531	0.0045798499	-39989.123	119967.47	0	17.335943238645825
57.543994	2.5118864e-8	0.57	3.4265591e7	2.3819312e6	-0.98266915	0.0049799429	0.004980049	-36470.6	109411.57	0	18.950542590617733
57.543994	2.7542287e-8	0.57	3.1250592e7	2.1723476e6	-0.98104646	0.005406987	0.0054071033	-33261.668	99784.484	0	20.703875779432916
57.543994	3.0199517e-8	0.57	2.8500881e7	1.9812051e6	-0.97928195	0.0058604948	0.0058606223	-30335.088	91004.478	0	22.604631355802404
57.543994	3.3113112e-8	0.57	2.5993114e7	1.8068811e6	-0.9773661	0.0063394428	0.0063395827	-27666.015	82997.02	0	24.661205951241268
57.543994	3.6307805e-8	0.57	2.3706004e7	1.6478957e6	-0.97528953	0.0068420678	0.0068422212	-25231.791	75694.134	0	26.881468349451126
57.543994	3.9810717e-8	0.57	2.1620135e7	1.5028994e6	-0.97304325	0.0073657781	0.0073659462	-23011.752	69033.827	0	29.272477305718454
57.543994	4.3651583e-8	0.57	1.97178e7	1.3706613e6	-0.97061888	0.0079070992	0.0079072836	-20987.053	62959.557	0	31.840245815606494
57.543994	4.7863009e-8	0.57	1.798285e7	1.2500587e6	-0.96800898	0.0084616714	0.0084618735	-19140.504	57419.761	0	34.58942929106642
57.543994	5.2480746e-8	0.57	1.6400557e7	1.1400679e6	-0.96520737	0.0090243127	0.0090245344	-17456.432	52367.409	0	37.52305928198063
57.543994	5.7543994e-8	0.57	1.4957488e7	1.0397552e6	-0.96220942	0.0095891602	0.0095894032	-15920.54	47759.614	0	40.642345979525516
57.543994	6.3095734e-8	0.57	1.3641395e7	948268.91	-0.95901239	0.010149887	0.010150154	-14519.789	43557.258	0	43.94647594278488
57.543994	6.9183097e-8	0.57	1.2441103e7	864832.49	-0.95561562	0.010699988	0.010700281	-13242.288	39724.667	0	47.43258508906511
57.543994	7.5857758e-8	0.57	1.1346424e7	788737.62	-0.95202073	0.011233106	0.011233427	-12077.194	36229.306	0	51.09574670973855
57.543994	8.3176377e-8	0.57	1.0348066e7	719338.32	-0.94823168	0.011743368	0.011743719	-11014.615	33041.501	0	54.92909482765786
57.543994	9.1201084e-8	0.57	9.4375519e6	656045.45	-0.94425468	0.012225687	0.012226072	-10045.531	30134.192	0	58.92407145881094
57.543994	1.e-7	0.57	8.6071536e6	598321.7	-0.94009804	0.012676007	0.012676429	-9161.7152	27482.697	0	63.07069607966305
57.543994	1.0964782e-7	0.57	7.8498215e6	545677.05	-0.93577183	0.013091443	0.013091906	-8355.6654	25064.508	0	67.35796273445207
57.543994	1.2022644e-7	0.57	7.1591265e6	497664.6	-0.93128758	0.013470332	0.013470839	-7620.5389	22859.096	0	71.77414707574931
57.543994	1.3182567e-7	0.57	6.5292053e6	453876.74	-0.92665776	0.013812178	0.013812735	-6950.0952	20847.738	0	76.30726869638139
57.543994	1.4454398e-7	0.57	5.9547104e6	413941.77	-0.92189542	0.014117525	0.014118135	-6338.6427	19013.359	0	80.94535600229764
57.543994	1.5848932e-7	0.57	5.430765e6	377520.66	-0.91701371	0.014387773	0.014388442	-5780.9911	17340.388	0	85.6768050889518
57.543994	1.7378008e-7	0.57	4.9529211e6	344304.23	-0.91202556	0.014624972	0.014625706	-5272.4063	15814.622	0	90.49056525847963
57.543994	1.9054607e-7	0.57	4.5171224e6	314010.5	-0.90694336	0.014831616	0.01483242	-4808.5709	14423.107	0	95.37633042795281
57.543994	2.0892961e-7	0.57	4.1196693e6	286382.31	-0.90177873	0.015010453	0.015011336	-4385.5476	13154.032	0	100.32465668779486
57.543994	2.2908677e-7	0.57	3.7571879e6	261185.1	-0.89654238	0.015164328	0.015165296	-3999.7453	11996.623	0	105.32700333260038
57.543994	2.5118864e-7	0.57	3.4266009e6	238204.98	-0.89124406	0.015296056	0.015297116	-3647.889	10941.055	0	110.37571771534141
57.543994	2.7542287e-7	0.57	3.125102e6	217246.86	-0.88589246	0.015408329	0.015409492	-3326.9917	9978.365	0	115.46407886199125
57.543994	3.0199517e-7	0.57	2.8501318e6	198132.84	-0.88049531	0.01550366	0.015504935	-3034.3294	9100.3824	0	120.58616870409273
57.543994	3.3113112e-7	0.57	2.599356e6	180700.64	-0.87505937	0.015584344	0.015585743	-2767.4178	8299.6533	0	125.73686647894937
57.543994	3.6307805e-7	0.57	2.3706458e6	164802.29	-0.86959051	0.015652444	0.015653978	-2523.991	7569.3801	0	130.91176124669502
57.543994	3.9810717e-7	0.57	2.1620596e6	150302.81	-0.86409382	0.015709789	0.01571147	-2301.9826	6903.3634	0	136.10705068031473
57.543994	4.3651583e-7	0.57	1.9718268e6	137079.13	-0.85857364	0.015757981	0.015759824	-2099.5081	6295.9492	0	141.31951662755006
57.543994	4.7863009e-7	0.57	1.7983324e6	125018.99	-0.8530337	0.015798414	0.015800436	-1914.8486	5741.9812	0	146.54640214058577
57.543994	5.2480746e-7	0.57	1.6401037e6	114020.01	-0.84747716	0.015832291	0.015834507	-1746.4367	5236.7566	0	151.78538139116753
57.543994	5.7543994e-7	0.57	1.4957973e6	103988.81	-0.84190671	0.015860641	0.015863071	-1592.8428	4775.9864	0	157.03448070952976
57.543994	6.3095734e-7	0.57	1.3641884e6	94840.239	-0.83632459	0.015884343	0.015887007	-1452.7629	4355.7592	0	162.2920662197157
57.543994	6.9183097e-7	0.57	1.2441596e6	86496.64	-0.83073272	0.015904143	0.015907064	-1325.0081	3972.5076	0	167.5567350848885
57.543994	7.5857758e-7	0.57	1.1346921e6	78887.181	-0.8251327	0.015920673	0.015923876	-1208.4938	3622.978	0	172.82732354061397
57.543994	8.3176377e-7	0.57	1.0348565e6	71947.266	-0.81952588	0.015934465	0.015937978	-1102.231	3304.2034	0	178.10284969412345
57.543994	9.1201084e-7	0.57	943805.43	65617.981	-0.81391337	0.015945969	0.015949821	-1005.3176	3013.4775	0	183.38251216194286
57.543994	1.e-6	0.57	860765.83	59845.597	-0.80829613	0.015955561	0.015959784	-916.93115	2748.3325	0	188.6656119356386
57.543994	1.0964782e-6	0.57	785032.82	54581.114	-0.80267495	0.015963558	0.015968188	-836.32121	2506.5173	0	193.9515786708564
57.543994	1.2022644e-6	0.57	715963.49	49779.84	-0.79705048	0.015970223	0.0159753	-762.80359	2285.9794	0	199.23994464256933
57.543994	1.3182567e-6	0.57	652971.52	45401.019	-0.79142327	0.015975779	0.015981346	-695.75422	2084.8464	0	204.53031412464333
57.543994	1.4454398e-6	0.57	595522.16	41407.479	-0.78579378	0.015980411	0.015986515	-634.60397	1901.4109	0	209.8223561363925
57.543994	1.5848932e-6	0.57	543127.72	37765.32	-0.78016239	0.015984273	0.015990966	-578.83379	1734.1159	0	215.11579879579153
57.543994	1.7378008e-6	0.57	495343.43	34443.624	-0.77452943	0.015987495	0.015994834	-527.97028	1581.541	0	220.41040434582862
57.543994	1.9054607e-6	0.57	451763.63	31414.193	-0.76889516	0.015990184	0.015998231	-481.58172	1442.391	0	225.7059884813646
57.543994	2.0892961e-6	0.57	412018.39	28651.311	-0.76325981	0.01599243	0.016001254	-439.27435	1315.4848	0	231.0023870509374
57.543994	2.2908677e-6	0.57	375770.3	26131.525	-0.75762355	0.015994309	0.016003984	-400.68907	1199.7449	0	236.29948370816945
57.543994	2.5118864e-6	0.57	342711.65	23833.445	-0.75198654	0.015995883	0.016006491	-365.49838	1094.1889	0	241.59716561126254
57.543994	2.7542287e-6	0.57	312561.8	21737.563	-0.74634891	0.015997203	0.016008834	-333.4036	997.9207	0	246.89534221430355
57.543994	3.0199517e-6	0.57	285064.81	19826.088	-0.74071077	0.015998314	0.016011068	-304.13231	910.12306	0	252.19393962047798
57.543994	3.3113112e-6	0.57	259987.26	18082.794	-0.73507221	0.015999252	0.016013236	-277.43608	830.05066	0	257.4928962976509
57.543994	3.6307805e-6	0.57	237116.26	16492.883	-0.7294333	0.016000047	0.016015381	-253.08834	757.02378	0	262.7921695049946
57.543994	3.9810717e-6	0.57	216257.66	15042.859	-0.7237941	0.016000725	0.016017538	-230.88244	690.42247	0	268.09172161291673
57.543994	4.3651583e-6	0.57	197234.39	13720.413	-0.71815467	0.016001307	0.016019742	-210.62991	629.68136	0	273.3915149918251
57.543994	4.7863009e-6	0.57	179884.97	12514.32	-0.71251506	0.016001811	0.016022025	-192.1589	574.28481	0	278.6915198011243
57.543994	5.2480746e-6	0.57	164062.11	11414.342	-0.7068753	0.016002252	0.016024416	-175.31264	523.76256	0	283.9917233848688
57.543994	5.7543994e-6	0.57	149631.48	10411.142	-0.70123541	0.016002643	0.016026944	-159.94817	477.68572	0	289.292122482767
57.543994	6.3095734e-6	0.57	136470.6	9496.2051	-0.69559544	0.016002994	0.01602964	-145.93511	435.66315	0	294.5926867186712
57.543994	6.9183097e-6	0.57	124467.73	8661.7644	-0.6899554	0.016003314	0.016032531	-133.15455	397.33811	0	299.8934211568385
57.543994	7.5857758e-6	0.57	113520.98	7900.7374	-0.68431531	0.016003612	0.016035648	-121.49804	362.38526	0	305.1943236080817
57.543994	8.3176377e-6	0.57	103537.43	7206.6644	-0.67867519	0.016003894	0.01603902	-110.86669	330.50788	0	310.495390812109
57.543994	9.1201084e-6	0.57	94432.322	6573.6542	-0.67303505	0.016004166	0.016042682	-101.17028	301.43537	0	315.79663211759566
57.543994	0.00001	0.57	86128.366	5996.334	-0.66739492	0.016004434	0.016046665	-92.326557	274.92092	0	321.0980359397009
57.543994	0.000010964782	0.57	78555.068	5469.8036	-0.66175479	0.016004702	0.016051008	-84.260487	250.73946	0	326.39963256061594
57.543994	0.000012022644	0.57	71648.139	4989.5941	-0.65611469	0.016004975	0.016055748	-76.903648	228.68571	0	331.70141360881365
57.543994	0.000013182567	0.57	65348.944	4551.6297	-0.65047461	0.016005256	0.016060927	-70.193634	208.57245	0	337.00341097314185
57.543994	0.000014454398	0.57	59604.011	4152.1933	-0.64483459	0.016005549	0.016066592	-64.073532	190.22894	0	342.3056122419422
57.543994	0.000015848932	0.57	54364.57	3787.8949	-0.63919462	0.016005859	0.016072791	-58.491437	173.49946	0	347.60805251737634
57.543994	0.000017378008	0.57	49586.143	3455.6428	-0.63355471	0.016006188	0.016079578	-53.400008	158.24199	0	352.91075132361226
57.543994	0.000019054607	0.57	45228.166	3152.6171	-0.62791488	0.016006541	0.016087011	-48.756074	144.32702	0	358.21372093137325
57.543994	0.000020892961	0.57	41253.644	2876.2463	-0.62227513	0.01600692	0.016095154	-44.520258	131.63641	0	363.5169956160034
57.543994	0.000022908677	0.57	37628.837	2624.1851	-0.61663549	0.016007331	0.016104077	-40.656652	120.06244	0	368.8205846791997
57.543994	0.000025118864	0.57	34322.974	2394.2944	-0.61099595	0.016007776	0.016113856	-37.132505	109.50686	0	374.12453821858657
57.543994	0.000027542287	0.57	31307.992	2184.6236	-0.60535653	0.016008259	0.016124574	-33.917948	99.880052	0	379.4288818936937
57.543994	0.000030199517	0.57	28558.296	1993.3934	-0.59971725	0.016008787	0.016136323	-30.98574	91.100303	0	384.7336461840211
57.543994	0.000033113112	0.57	26050.544	1818.9813	-0.59407811	0.016009362	0.016149202	-28.311038	83.093078	0	390.0388841092414
57.543994	0.000036307805	0.57	23763.447	1659.9075	-0.58843915	0.01600999	0.016163322	-25.871184	75.790404	0	395.34461753304026
57.543994	0.000039810717	0.57	21677.59	1514.8223	-0.58280036	0.016010677	0.016178803	-23.645513	69.130288	0	400.65092011734134
57.543994	0.000043651583	0.57	19775.267	1382.4951	-0.57716177	0.016011429	0.016195775	-21.615181	63.056192	0	405.95783329697633
57.543994	0.000047863009	0.57	18040.329	1261.8031	-0.57152341	0.016012252	0.016214383	-19.762998	57.516553	0	411.2654065400611
57.543994	0.000052480746	0.57	16458.046	1151.7226	-0.56588528	0.016013153	0.016234785	-18.073291	52.464344	0	416.5737244638508
57.543994	0.000057543994	0.57	15014.989	1051.3199	-0.56024743	0.01601414	0.016257155	-16.531763	47.856678	0	421.88283327616966
57.543994	0.000063095734	0.57	13698.905	959.74354	-0.55460986	0.016015222	0.016281682	-15.125374	43.654439	0	427.1928341963926
57.543994	0.000069183097	0.57	12498.624	876.21681	-0.54897261	0.016016407	0.016308575	-13.842236	39.821955	0	432.503801572326
57.543994	0.000075857758	0.57	11403.955	800.03147	-0.54333572	0.016017706	0.016338062	-12.671502	36.326692	0	437.8158199272685
57.543994	0.000083176377	0.57	10405.607	730.54155	-0.5376992	0.01601913	0.016370393	-11.603283	33.138978	0	443.129013753629
57.543994	0.000091201084	0.57	9495.103	667.15793	-0.53206311	0.016020691	0.016405843	-10.628558	30.231752	0	448.44347395435534
57.543994	0.0001	0.57	8664.7153	609.34333	-0.52642749	0.016022403	0.016444713	-9.7391005	27.580336	0	453.7593241480604
57.543994	0.00010964782	0.57	7907.3941	556.60775	-0.52079237	0.016024279	0.016487333	-8.9274075	25.16222	0	459.0767128800261
57.543994	0.00012022644	0.57	7216.7106	508.50428	-0.5151578	0.016026336	0.016534064	-8.1866368	22.956878	0	464.3957865063469
57.543994	0.00013182567	0.57	6586.8016	464.62536	-0.50952385	0.016028592	0.016585303	-7.5105476	20.945588	0	469.71669187169164
57.543994	0.00014454398	0.57	6012.3196	424.59929	-0.50389056	0.016031065	0.016641485	-6.8934485	19.111277	0	475.03962435867453
57.543994	0.00015848932	0.57	5488.3879	388.08705	-0.49825801	0.016033776	0.016703088	-6.3301489	17.438372	0	480.3647647960429
57.543994	0.00017378008	0.57	5010.5589	354.77948	-0.49262626	0.016036749	0.016770633	-5.8159147	15.912673	0	485.69233583259796
57.543994	0.00019054607	0.57	4574.7762	324.39462	-0.48699539	0.016040008	0.016844694	-5.3464285	14.521228	0	491.02256971010274
57.543994	0.00020892961	0.57	4177.3404	296.6753	-0.48136548	0.016043582	0.016925899	-4.9177527	13.252225	0	496.3557275901418
57.543994	0.00022908677	0.57	3814.8777	271.38699	-0.47573662	0.016047501	0.017014938	-4.5262961	12.094891	0	501.692094442886
57.543994	0.00025118864	0.57	3484.3112	248.31581	-0.47010892	0.016051798	0.017112566	-4.1687836	11.039401	0	507.03197125809527
57.543994	0.00027542287	0.57	3182.8347	227.26669	-0.46448249	0.01605651	0.017219611	-3.842228	10.076796	0	512.3756981208435
57.543994	0.00030199517	0.57	2907.8888	208.06171	-0.45885744	0.016061675	0.017336982	-3.5439052	9.1989038	0	517.7236584959369
57.543994	0.00033113112	0.57	2657.1396	190.53863	-0.45323391	0.01606734	0.017465673	-3.2713305	8.3982719	0	523.0762531831629
57.543994	0.00036307805	0.57	2428.4585	174.54949	-0.44761205	0.016073551	0.017606776	-3.0222379	7.6681038	0	528.4339260707751
57.543994	0.00039810717	0.57	2219.9042	159.95932	-0.441992	0.016080361	0.017761488	-2.7945607	7.002201	0	533.7971866756674
57.543994	0.00043651583	0.57	2029.7063	146.64505	-0.43637395	0.016087828	0.017931119	-2.5864141	6.3949108	0	539.1665580538697
57.543994	0.00047863009	0.57	1856.2501	134.49444	-0.43075808	0.016096016	0.018117106	-2.396079	5.8410777	0	544.542640672202
57.543994	0.00052480746	0.57	1698.0633	123.40512	-0.42514459	0.016104994	0.018321026	-2.2219876	5.3360004	0	549.9260911834915
57.543994	0.00057543994	0.57	1553.8028	113.28374	-0.41953372	0.016114838	0.018544603	-2.0627097	4.875391	0	555.3176073841324
57.543994	0.00063095734	0.57	1422.2443	104.04517	-0.4139257	0.016125631	0.01878973	-1.9169413	4.4553396	0	560.7179869745025
57.543994	0.00069183097	0.57	1302.2707	95.611741	-0.4083208	0.016137466	0.01905848	-1.7834927	4.0722803	0	566.1280864717708
57.543994	0.00075857758	0.57	1192.8637	87.912661	-0.40271932	0.016150443	0.019353121	-1.661279	3.7229613	0	571.5488386388337
57.543994	0.00083176377	0.57	1093.0945	80.883348	-0.39712158	0.016164672	0.019676142	-1.5493106	3.4044171	0	576.9812758043283
57.543994	0.00091201084	0.57	1002.1161	74.464913	-0.3915279	0.016180273	0.020030265	-1.4466848	3.1139437	0	582.4265550805661
57.543994	0.001	0.57	919.15635	68.603651	-0.38593869	0.01619738	0.02041847	-1.3525784	2.8490751	0	587.8858871914567
57.543994	0.0010964782	0.57	843.51088	63.250586	-0.38035433	0.016216136	0.02084402	-1.2662404	2.6075629	0	593.3606626091574
57.543994	0.0012022644	0.57	774.53758	58.361057	-0.37477529	0.016236702	0.021310483	-1.1869856	2.3873568	0	598.85235058838
57.543994	0.0013182567	0.57	711.65092	53.894338	-0.36920203	0.01625925	0.02182176	-1.1141893	2.1865875	0	604.3626081183885
57.543994	0.0014454398	0.57	654.31707	49.813291	-0.36363509	0.016283973	0.022382116	-1.0472813	2.0035504	0	609.8932119642384
57.543994	0.0015848932	0.57	602.0493	46.084051	-0.35807502	0.016311079	0.022996205	-0.98574146	1.8366917	0	615.446137825156
57.543994	0.0017378008	0.57	554.40392	42.675741	-0.35252244	0.016340796	0.02366911	-0.9290953	1.6845947	0	621.0235253827088
57.543994	0.0019054607	0.57	510.97644	39.560206	-0.34697802	0.016373378	0.024406368	-0.87690982	1.5459682	0	626.6277104809178
57.543994	0.0020892961	0.57	471.39819	36.711776	-0.34144246	0.016409096	0.02521401	-0.8287899	1.4196351	0	632.2612653396544
57.543994	0.0022908677	0.57	435.33313	34.107048	-0.33591653	0.016448253	0.02609859	-0.78437492	1.3045226	0	637.9269765030429
57.543994	0.0025118864	0.57	402.47505	31.724683	-0.33040105	0.016491177	0.027067226	-0.74333575	1.199653	0	643.6278855884075
57.543994	0.0027542287	0.57	372.54492	29.545231	-0.32489691	0.016538228	0.028127624	-0.70537189	1.1041356	0	649.3672833482217
57.543994	0.0030199517	0.57	345.28854	27.550959	-0.31940505	0.016589798	0.029288113	-0.67020898	1.0171587	0	655.1487472057427
57.543994	0.0033113112	0.57	320.47433	25.725706	-0.31392646	0.016646316	0.030557665	-0.63759645	0.937983	0	660.9761519660562
57.543994	0.0036307805	0.57	297.8914	24.054736	-0.30846222	0.01670825	0.031945911	-0.60730539	0.86593498	0	666.8536408022997
57.543994	0.0039810717	0.57	277.34766	22.524621	-0.30301344	0.01677611	0.033463146	-0.57912664	0.80040132	0	672.7856843073429
57.543994	0.0043651583	0.57	258.66824	21.123119	-0.2975813	0.016850451	0.03512032	-0.552869	0.74082346	0	678.7770380912048
57.543994	0.0047863009	0.57	241.69391	19.839068	-0.29216705	0.016931875	0.036929003	-0.52835765	0.68669272	0	684.8327240367247
57.543994	0.0052480746	0.57	226.2797	18.662295	-0.28677197	0.017021035	0.038901338	-0.50543265	0.63754583	0	690.9580427112203
57.543994	0.0057543994	0.57	212.29362	17.583517	-0.28139736	0.017118639	0.04104995	-0.48394765	0.59296073	0	697.1585340268865
57.543994	0.0063095734	0.57	199.61545	16.594267	-0.27604459	0.017225448	0.043387829	-0.46376863	0.55255282	0	703.4398676029148
57.543994	0.0069183097	0.57	188.13563	15.686813	-0.270715	0.017342279	0.045928166	-0.44477283	0.51597129	0	709.8078488914593
57.543994	0.0075857758	0.57	177.75427	14.854088	-0.26540995	0.017470009	0.048684154	-0.42684775	0.48289587	0	716.268265624472
57.543994	0.0083176377	0.57	168.38015	14.089627	-0.26013074	0.017609568	0.051668728	-0.40989025	0.45303367	0	722.8268237353446
57.543994	0.0091201084	0.57	159.92987	13.387503	-0.25487861	0.017761937	0.054894284	-0.39380574	0.42611634	0	729.4889968687282
57.543994	0.01	0.57	152.32705	12.742274	-0.24965468	0.017928143	0.058372347	-0.37850746	0.40189735	0	736.2599049511066
57.543994	0.010964782	0.57	145.5015	12.148931	-0.24445992	0.018109249	0.062113231	-0.36391582	0.38014954	0	743.1441602899911
57.543994	0.012022644	0.57	139.38868	11.602854	-0.23929505	0.018306336	0.066125699	-0.34995783	0.36066287	0	750.1457794426924
57.543994	0.013182567	0.57	133.92899	11.099769	-0.23416052	0.018520483	0.070416652	-0.33656658	0.34324246	0	757.2680354508766
57.543994	0.014454398	0.57	129.06738	10.635711	-0.22905636	0.018752739	0.074990878	-0.3236808	0.32770688	0	764.5134643517541
57.543994	0.015848932	0.57	124.75289	10.207	-0.22398212	0.019004079	0.079850881	-0.31124436	0.31388678	0	771.8838299725649
57.543994	0.017378008	0.57	120.93844	9.8102138	-0.21893674	0.019275358	0.084996823	-0.29920599	0.30162384	0	779.3802150120443
57.543994	0.019054607	0.57	117.58057	9.4421692	-0.21391838	0.019567246	0.090426575	-0.28751882	0.29076999	0	787.0032080796974
57.543994	0.020892961	0.57	114.6394	9.0999101	-0.2089243	0.019880148	0.096135876	-0.27614008	0.28118696	0	794.753101596448
57.543994	0.022908677	0.57	112.07857	8.7806972	-0.20395064	0.02021411	0.10211859	-0.26503073	0.27274601	0	802.6302361359442
57.543994	0.025118864	0.57	109.86531	8.4820005	-0.19899225	0.020568719	0.10836701	-0.25415512	0.26532784	0	810.6353229585516
57.543994	0.027542287	0.57	107.97044	8.201493	-0.19404249	0.020942981	0.11487219	-0.24348065	0.25882254	0	818.7698097277698
57.543994	0.030199517	0.57	106.36844	7.937045	-0.18909297	0.021335206	0.12162432	-0.23297737	0.2531296	0	827.0363256293182
57.543994	0.033113112	0.57	105.03746	7.6867171	-0.18413341	0.021742905	0.12861296	-0.22261769	0.24815786	0	835.4389382295099
57.543994	0.036307805	0.57	103.95932	7.4487517	-0.17915138	0.022162709	0.13582739	-0.21237596	0.24382533	0	843.9835852055307
57.543994	0.039810717	0.57	103.11944	7.2215638	-0.17413223	0.022590347	0.1432568	-0.20222813	0.24005896	0	852.6782418699411
57.543994	0.043651583	0.57	102.50667	7.0037295	-0.16905896	0.023020691	0.15089059	-0.19215142	0.23679433	0	861.5332039798462
57.543994	0.047863009	0.57	102.1132	6.7939738	-0.16391228	0.023447918	0.1587186	-0.18212399	0.23397521	0	870.5611545399927
57.543994	0.052480746	0.57	101.93421	6.5911583	-0.15867072	0.023865787	0.16673151	-0.17212458	0.23155311	0	879.7772746714797
57.543994	0.057543994	0.57	101.96767	6.3942676	-0.15331096	0.02426805	0.1749212	-0.1621323	0.22948675	0	889.1991263540034
57.543994	0.063095734	0.57	102.21389	6.2023974	-0.14780817	0.024648982	0.18328128	-0.15212633	0.22774158	0	898.8466168163297
57.543994	0.069183097	0.57	102.67521	6.0147425	-0.14213658	0.025003986	0.19180766	-0.1420857	0.22628922	0	908.7417682488281
57.543994	0.075857758	0.57	103.35559	5.8305862	-0.13626999	0.025330217	0.20049905	-0.13198914	0.22510706	0	918.9085064012664
57.543994	0.083176377	0.57	104.26027	5.649291	-0.13018222	0.025627134	0.20935747	-0.12181495	0.22417776	0	929.3725109100517
57.543994	0.091201084	0.57	105.39571	5.4702914	-0.12384735	0.025896914	0.21838858	-0.11154082	0.223489	0	940.1611665347882
57.543994	0.1	0.57	106.76975	5.2930884	-0.1172394	0.026144669	0.2276018	-0.10114377	0.2230332	0	951.3039280854591
57.543994	0.10964782	0.57	108.39232	5.1172468	-0.11033143	0.026378435	0.23701022	-0.090599925	0.22280757	0	962.8331178315393
57.543994	0.12022644	0.57	110.27684	4.9423956	-0.10309358	0.026608976	0.24663038	-0.079884319	0.22281435	0	974.7856492285867
57.543994	0.13182567	0.57	112.44254	4.7682312	-0.09548995	0.026849451	0.25648181	-0.068970384	0.22306153	0	987.205712008099
57.543994	0.14454398	0.57	114.91782	4.5945264	-0.087474071	0.027115013	0.26658662	-0.057829256	0.22356405	0	1000.1488078925618
57.543994	0.15848932	0.57	117.74471	4.4211434	-0.078982746	0.027422421	0.27696906	-0.046428662	0.22434575	0	1013.6873017354494
57.543994	0.17378008	0.57	120.98443	4.2480544	-0.069928351	0.027789687	0.28765512	-0.034731315	0.2254422	0	1027.9174410139547
57.543994	0.19054607	0.57	124.72361	4.0753679	-0.060189792	0.028235728	0.29867215	-0.022692733	0.22690454	0	1042.9676488085943
57.543994	0.20892961	0.57	129.08052	3.9033624	-0.049602823	0.028779947	0.31004844	-0.01025844	0.2288043	0	1059.0073957429827
57.543994	0.22908677	0.57	134.20997	3.7325227	-0.037951112	0.029441574	0.32181249	0.002639394	0.231239	0	1076.255203107527
57.543994	0.25118864	0.57	140.30468	3.5635732	-0.024960423	0.030238577	0.33399195	0.016085645	0.23433787	0	1094.9835415652485
57.543994	0.27542287	0.57	147.59034	3.3974943	-0.010299393	0.031185985	0.34661192	0.03018577	0.23826644	0	1115.5171906706814
57.543994	0.30199517	0.57	156.31112	3.2355042	0.0064089748	0.03229361	0.35969263	0.04506842	0.24322796	0	1138.2211977761744
57.543994	0.33113112	0.57	166.70392	3.0789861	0.025561946	0.033563523	0.37324698	0.060886081	0.24945961	0	1163.4757284982527
57.543994	0.36307805	0.57	178.96313	2.9293519	0.047538347	0.03498808	0.38727848	0.077812689	0.25722183	0	1191.6385947844171
57.543994	0.39810717	0.57	193.20365	2.7878611	0.072653373	0.036549542	0.40178093	0.09603762	0.26678111	0	1223.0026226991276
57.543994	0.43651583	0.57	209.43388	2.6554382	0.10111951	0.038222012	0.41674035	0.11575644	0.27838964	0	1257.7599697048959
57.543994	0.47863009	0.57	227.54938	2.5325514	0.13302654	0.039975458	0.43213897	0.13715996	0.29226692	0	1295.985475094502
57.543994	0.52480746	0.57	247.34997	2.4191891	0.16834658	0.041780517	0.44796009	0.16042384	0.30858789	0	1337.6439972447254
57.543994	0.57543994	0.57	268.57332	2.3149315	0.20695977	0.043612501	0.46419205	0.18570076	0.32747951	0	1382.6166753134862
57.543994	0.63095734	0.57	290.93314	2.2190774	0.24868937	0.045453572	0.48083043	0.2131162	0.34902434	0	1430.7350833798816
57.543994	0.69183097	0.57	314.15151	2.1307793	0.29333544	0.047293047	0.49787836	0.24276777	0.37326806	0	1481.8130410263748
57.543994	0.75857758	0.57	337.98066	2.0491549	0.34070044	0.049126425	0.51534558	0.27472719	0.40022837	0	1535.6701627926361
57.543994	0.83176377	0.57	362.2139	1.9733617	0.39060533	0.050953859	0.53324687	0.30904384	0.42990304	0	1592.1461443606497
57.543994	0.91201084	0.57	386.68835	1.9026382	0.44289756	0.052778635	0.55160059	0.345749	0.46227671	0	1651.1074877755732
57.543994	1.	0.57	411.28265	1.8363204	0.49745357	0.054605893	0.5704274	0.38486004	0.4973261	0	1712.4491648522358
57.543994	1.0964782	0.57	435.91201	1.7738427	0.55417786	0.056441705	0.58974934	0.42638427	0.53502386	0	1776.0932506712911
57.543994	1.2022644	0.57	460.52241	1.71473	0.61300052	0.058292459	0.60958922	0.47032227	0.57534148	0	1841.9862761659324
57.543994	1.3182567	0.57	485.08496	1.6585867	0.67387407	0.060164476	0.62997028	0.51667057	0.61825127	0	1910.0960770076192
57.543994	1.4454398	0.57	509.59068	1.6050848	0.73677032	0.062063806	0.65091598	0.5654239	0.66372785	0	1980.4087309049091
57.543994	1.5848932	0.57	534.04622	1.5539522	0.80167753	0.063996128	0.67244993	0.61657689	0.71174921	0	2052.925851749203
57.543994	1.7378008	0.57	558.47016	1.5049629	0.86859787	0.065966724	0.69459586	0.67012547	0.76229742	0	2127.6621870521913
57.543994	1.9054607	0.57	582.89014	1.4579286	0.93754532	0.067980488	0.71737765	0.72606782	0.81535914	0	2204.6436609251855
57.543994	2.0892961	0.57	607.34052	1.4126912	1.008544	0.070041962	0.74081941	0.78440518	0.87092593	0	2283.9058478491625
57.543994	2.2908677	0.57	631.86049	1.3691175	1.0816265	0.072155375	0.7649455	0.84514244	0.9289945	0	2365.492414311677
57.543994	2.5118864	0.57	656.49275	1.3270941	1.1568331	0.074324688	0.78978062	0.90828848	0.9895668	0	2449.4544341455894
57.543994	2.7542287	0.57	681.28229	1.2865239	1.2342107	0.07655364	0.81534987	0.97385649	1.0526501	0	2535.8494153272777
57.543994	3.0199517	0.57	706.27564	1.2473227	1.3138119	0.078845785	0.84167878	1.0418642	1.1182569	0	2624.7404516430806
57.543994	3.3113112	0.57	731.5202	1.2094173	1.3956946	0.081204532	0.86879342	1.1123338	1.186405	0	2716.1959057739077
57.543994	3.6307805	0.57	757.06376	1.1727431	1.4799213	0.083633176	0.8967204	1.1852924	1.2571174	0	2810.2887515994944
57.543994	3.9810717	0.57	782.95418	1.1372426	1.5665593	0.086134925	0.92548698	1.2607715	1.3304223	0	2907.096821022216
57.543994	4.3651583	0.57	809.23914	1.1028643	1.6556796	0.088712926	0.95512103	1.3388076	1.4063529	0	3006.7017490231174
57.543994	4.7863009	0.57	835.96596	1.0695618	1.7473574	0.091370289	0.98565119	1.4194416	1.4849473	0	3109.189529132942
57.543994	5.2480746	0.57	863.18154	1.0372923	1.8416714	0.094110101	1.0171068	1.5027192	1.5662485	0	3214.649818247737
57.543994	5.7543994	0.57	890.93227	1.006017	1.938704	0.096935448	1.049518	1.5886905	1.6503043	0	3323.1761780971406
57.543994	6.3095734	0.57	919.264	0.97569951	2.038541	0.099849426	1.0829158	1.6774102	1.7371673	0	3434.865830863442
57.543994	6.9183097	0.57	948.22213	0.94630627	2.1412719	0.10285515	1.117332	1.7689376	1.8268944	0	3549.819898206999
57.543994	7.5857758	0.57	977.85155	0.91780563	2.2469893	0.10595579	1.1527995	1.8633362	1.9195475	0	3668.1430035482304
57.543994	8.3176377	0.57	1008.1967	0.89016783	2.3557893	0.10915452	1.1893518	1.960674	2.0151926	0	3789.943380117629
57.543994	9.1201084	0.57	1039.3018	0.8633647	2.4677715	0.11245462	1.2270237	2.0610234	2.1139004	0	3915.3332458423383
57.543994	10.	0.57	1071.2106	0.83736945	2.5830388	0.1158594	1.265851	2.1644609	2.2157459	0	4044.428454767404