57.543994	1.e-12	0.04	8.6071249e11	5.9831337e10	-0.99999844	-1.4972812e-6	-1.4972809e-6	-9.1607518e8	2.7483151e9	0	0.0014094502158444248
57.543994	1.0964782e-12	0.04	7.8497912e11	5.4566828e10	-0.99999829	-1.6417351e-6	-1.6417348e-6	-8.354705e8	2.5064931e9	0	0.0015449560632622174
57.543994	1.2022644e-12	0.04	7.1590947e11	4.9765539e10	-0.99999812	-1.8001276e-6	-1.8001272e-6	-7.6195815e8	2.2859489e9	0	0.0016987293723005675
57.543994	1.3182567e-12	0.04	6.529172e11	4.5386711e10	-0.99999794	-1.9738002e-6	-1.9737999e-6	-6.9491409e8	2.0848102e9	0	0.0018613240612694241
57.543994	1.4454398e-12	0.04	5.9546756e11	4.1393172e10	-0.99999774	-2.1642282e-6	-2.1642278e-6	-6.3376918e8	1.9013695e9	0	0.002042080353014297
57.543994	1.5848932e-12	0.04	5.4307287e11	3.7751022e10	-0.99999753	-2.3730282e-6	-2.3730278e-6	-5.7800436e8	1.7340696e9	0	0.0022315418266593986
57.543994	1.7378008e-12	0.04	4.9528834e11	3.4429341e10	-0.99999729	-2.6019744e-6	-2.6019739e-6	-5.2714625e8	1.5814903e9	0	0.002448433117741915
57.543994	1.9054607e-12	0.04	4.5170834e11	3.1399932e10	-0.99999703	-2.8530077e-6	-2.8530071e-6	-4.8076309e8	1.4423363e9	0	0.002683285624965174
57.543994	2.0892961e-12	0.04	4.119629e11	2.8637079e10	-0.99999674	-3.1282608e-6	-3.1282602e-6	-4.3846115e8	1.3154263e9	0	0.0029454148453643084
57.543994	2.2908677e-12	0.04	3.7571463e11	2.6117326e10	-0.99999642	-3.4300698e-6	-3.4300691e-6	-3.9988132e8	1.199683e9	0	0.0032347329900242147
57.543994	2.5118864e-12	0.04	3.4265582e11	2.3819284e10	-0.99999608	-3.7609967e-6	-3.760996e-6	-3.646961e8	1.0941239e9	0	0.003541748111119778
57.543994	2.7542287e-12	0.04	3.1250582e11	2.1723446e10	-0.9999957	-4.1238505e-6	-4.1238497e-6	-3.326068e8	9.9785289e8	0	0.0038851459534905916
57.543994	3.0199517e-12	0.04	2.8500869e11	1.9812018e10	-0.99999529	-4.5217122e-6	-4.5217113e-6	-3.03341e8	9.1005265e8	0	0.004255415068110387
57.543994	3.3113112e-12	0.04	2.5993102e11	1.8068775e10	-0.99999483	-4.9579589e-6	-4.9579579e-6	-2.7665028e8	8.2997788e8	0	0.004671219841514909
57.543994	3.6307805e-12	0.04	2.3705991e11	1.6478919e10	-0.99999433	-5.4362939e-6	-5.4362928e-6	-2.5230806e8	7.5694883e8	0	0.005123025440566833
57.543994	3.9810717e-12	0.04	2.162012e11	1.5028952e10	-0.99999379	-5.9607778e-6	-5.9607766e-6	-2.3010768e8	6.9034553e8	0	0.005610679257408063
57.543994	4.3651583e-12	0.04	1.9717784e11	1.3706568e10	-0.99999319	-6.5358632e-6	-6.5358619e-6	-2.098607e8	6.2960261e8	0	0.0061528052585773
57.543994	4.7863009e-12	0.04	1.7982833e11	1.2500538e10	-0.99999253	-7.1664311e-6	-7.1664297e-6	-1.9139523e8	5.742044e8	0	0.006749220003335608
57.543994	5.2480746e-12	0.04	1.6400538e11	1.1400626e10	-0.99999181	-7.8578355e-6	-7.8578339e-6	-1.7455453e8	5.2368064e8	0	0.007399722278125895
57.543994	5.7543994e-12	0.04	1.4957469e11	1.0397495e10	-0.99999102	-8.6159454e-6	-8.6159437e-6	-1.5919562e8	4.7760242e8	0	0.008113487156721593
57.543994	6.3095734e-12	0.04	1.3641374e11	9.4826279e9	-0.99999015	-9.4471963e-6	-9.4471944e-6	-1.4518813e8	4.3557858e8	0	0.008899668436961104
57.543994	6.9183097e-12	0.04	1.2441081e11	8.6482595e9	-0.9999892	-0.000010358645	-0.000010358642	-1.3241315e8	3.9725239e8	0	0.009758000936128665
57.543994	7.5857758e-12	0.04	1.13464e11	7.8873064e9	-0.99998816	-0.000011358028	-0.000011358026	-1.2076223e8	3.6229849e8	0	0.010697589437026124
57.543994	8.3176377e-12	0.04	1.034804e11	7.1933089e9	-0.99998702	-0.00001245383	-0.000012453828	-1.1013646e8	3.3042015e8	0	0.011727510832501793
57.543994	9.1201084e-12	0.04	9.4375248e10	6.5603757e9	-0.99998576	-0.000013655353	-0.00001365535	-1.0044565e8	3.0134675e8	0	0.01286620683596603
57.543994	1.e-11	0.04	8.607125e10	5.9831337e9	-0.99998439	-0.000014972797	-0.000014972794	-9.1607519e7	2.7483151e8	0	0.014103898376147922
57.543994	1.0964782e-11	0.04	7.8497913e10	5.4566828e9	-0.99998288	-0.000016417345	-0.000016417342	-8.3547051e7	2.5064931e8	0	0.015468352164690717
57.543994	1.2022644e-11	0.04	7.1590947e10	4.9765539e9	-0.99998123	-0.000018001261	-0.000018001257	-7.6195816e7	2.2859489e8	0	0.01695910732610325
57.543994	1.3182567e-11	0.04	6.529172e10	4.5386711e9	-0.99997942	-0.00001973799	-0.000019737986	-6.949141e7	2.0848102e8	0	0.018594449794069486
57.543994	1.4454398e-11	0.04	5.9546756e10	4.1393172e9	-0.99997744	-0.000021642276	-0.000021642271	-6.3376919e7	1.9013695e8	0	0.020383221178928115
57.543994	1.5848932e-11	0.04	5.4307287e10	3.7751022e9	-0.99997526	-0.000023730283	-0.000023730279	-5.7800437e7	1.7340696e8	0	0.022353000843200216
57.543994	1.7378008e-11	0.04	4.9528834e10	3.4429341e9	-0.99997287	-0.000026019738	-0.000026019733	-5.2714626e7	1.5814902e8	0	0.024512518363765095
57.543994	1.9054607e-11	0.04	4.5170834e10	3.1399932e9	-0.99997026	-0.000028530075	-0.00002853007	-4.807631e7	1.4423362e8	0	0.026870438900797322
57.543994	2.0892961e-11	0.04	4.119629e10	2.8637079e9	-0.99996739	-0.000031282605	-0.000031282599	-4.3846116e7	1.3154263e8	0	0.02946354422035539
57.543994	2.2908677e-11	0.04	3.7571463e10	2.6117326e9	-0.99996424	-0.000034300694	-0.000034300688	-3.9988133e7	1.199683e8	0	0.032309747399009776
57.543994	2.5118864e-11	0.04	3.4265582e10	2.3819284e9	-0.99996079	-0.000037609963	-0.000037609956	-3.6469611e7	1.0941239e8	0	0.03542687691455388
57.543994	2.7542287e-11	0.04	3.1250582e10	2.1723446e9	-0.99995701	-0.000041238504	-0.000041238496	-3.3260681e7	9.9785288e7	0	0.03884206391935857
57.543994	3.0199517e-11	0.04	2.8500869e10	1.9812018e9	-0.99995286	-0.000045217119	-0.00004521711	-3.0334101e7	9.1005264e7	0	0.04259173340762331
57.543994	3.3113112e-11	0.04	2.5993102e10	1.8068775e9	-0.99994831	-0.000049579585	-0.000049579575	-2.7665029e7	8.2997787e7	0	0.04670280291203665
57.543994	3.6307805e-11	0.04	2.3705991e10	1.6478919e9	-0.99994332	-0.000054362932	-0.000054362921	-2.5230807e7	7.5694882e7	0	0.05121146336217377
57.543994	3.9810717e-11	0.04	2.162012e10	1.5028952e9	-0.99993786	-0.000059607768	-0.000059607756	-2.3010769e7	6.9034553e7	0	0.05614437556388699
57.543994	4.3651583e-11	0.04	1.9717784e10	1.3706568e9	-0.99993186	-0.000065358615	-0.000065358603	-2.0986071e7	6.296026e7	0	0.06156563580086641
57.543994	4.7863009e-11	0.04	1.7982833e10	1.2500538e9	-0.99992529	-0.000071664294	-0.00007166428	-1.9139524e7	5.742044e7	0	0.06750159632570342
57.543994	5.2480746e-11	0.04	1.6400538e10	1.1400626e9	-0.99991808	-0.000078578331	-0.000078578316	-1.7455454e7	5.2368063e7	0	0.07401601495296212
57.543994	5.7543994e-11	0.04	1.4957469e10	1.0397495e9	-0.99991017	-0.000086159422	-0.000086159405	-1.5919563e7	4.7760241e7	0	0.08116305972987534
57.543994	6.3095734e-11	0.04	1.3641374e10	9.4826279e8	-0.99990151	-0.00009447192	-0.000094471902	-1.4518814e7	4.3557858e7	0	0.08898729029474224
57.543994	6.9183097e-11	0.04	1.2441081e10	8.6482595e8	-0.99989201	-0.00010358639	-0.00010358637	-1.3241316e7	3.9725238e7	0	0.09757061558707877
57.543994	7.5857758e-11	0.04	1.13464e10	7.8873064e8	-0.99988159	-0.00011358021	-0.00011358018	-1.2076224e7	3.6229848e7	0	0.1069852930305219
57.543994	8.3176377e-11	0.04	1.034804e10	7.1933089e8	-0.99987016	-0.0001245382	-0.00012453818	-1.1013647e7	3.3042014e7	0	0.11731269469684229
57.543994	9.1201084e-11	0.04	9.4375248e9	6.5603757e8	-0.99985764	-0.0001365534	-0.00013655338	-1.0044566e7	3.0134675e7	0	0.1286244902550722
57.543994	1.e-10	0.04	8.607125e9	5.9831337e8	-0.9998439	-0.0001497278	-0.00014972777	-9.1607528e6	2.748315e7	0	0.14103899015000204
57.543994	1.0964782e-10	0.04	7.8497913e9	5.4566828e8	-0.99982884	-0.00016417323	-0.0001641732	-8.354706e6	2.506493e7	0	0.15464594730120637
57.543994	1.2022644e-10	0.04	7.1590947e9	4.9765539e8	-0.99981233	-0.00018001232	-0.00018001228	-7.6195825e6	2.2859488e7	0	0.1695628971999748
57.543994	1.3182567e-10	0.04	6.529172e9	4.5386711e8	-0.99979422	-0.00019737952	-0.00019737948	-6.9491419e6	2.0848101e7	0	0.18592572091468085
57.543994	1.4454398e-10	0.04	5.9546756e9	4.1393172e8	-0.99977437	-0.00021642225	-0.00021642221	-6.3376928e6	1.9013694e7	0	0.20386041754102113
57.543994	1.5848932e-10	0.04	5.4307287e9	3.7751022e8	-0.9997526	-0.00023730217	-0.00023730212	-5.7800446e6	1.7340695e7	0	0.22353003361266652
57.543994	1.7378008e-10	0.04	4.9528834e9	3.4429341e8	-0.99972873	-0.0002601965	-0.00026019645	-5.2714635e6	1.5814902e7	0	0.2450970297500226
57.543994	1.9054607e-10	0.04	4.5170834e9	3.1399932e8	-0.99970256	-0.0002852996	-0.00028529954	-4.8076319e6	1.4423362e7	0	0.2687420152177856
57.543994	2.0892961e-10	0.04	4.119629e9	2.8637079e8	-0.99967386	-0.00031282453	-0.00031282446	-4.3846125e6	1.3154262e7	0	0.2946730823190379
57.543994	2.2908677e-10	0.04	3.7571463e9	2.6117326e8	-0.9996424	-0.00034300493	-0.00034300486	-3.9988142e6	1.1996829e7	0	0.32309754990645645
57.543994	2.5118864e-10	0.04	3.4265582e9	2.3819284e8	-0.9996079	-0.00037609698	-0.0003760969	-3.646962e6	1.0941238e7	0	0.3542688691157093
57.543994	2.7542287e-10	0.04	3.1250582e9	2.1723446e8	-0.99957007	-0.00041238154	-0.00041238146	-3.326069e6	9.9785279e6	0	0.3884489576935849
57.543994	3.0199517e-10	0.04	2.8500869e9	1.9812018e8	-0.99952859	-0.00045216659	-0.0004521665	-3.033411e6	9.1005255e6	0	0.42592690261022187
57.543994	3.3113112e-10	0.04	2.5993102e9	1.8068775e8	-0.99948311	-0.00049578977	-0.00049578967	-2.7665038e6	8.2997778e6	0	0.46701886196869513
57.543994	3.6307805e-10	0.04	2.3705991e9	1.6478919e8	-0.99943324	-0.00054362131	-0.0005436212	-2.5230816e6	7.5694873e6	0	0.5120773520441827
57.543994	3.9810717e-10	0.04	2.162012e9	1.5028952e8	-0.99937857	-0.00059606712	-0.000596067	-2.3010778e6	6.9034544e6	0	0.5614723394713939
57.543994	4.3651583e-10	0.04	1.9717784e9	1.3706568e8	-0.99931861	-0.00065357224	-0.00065357211	-2.098608e6	6.2960251e6	0	0.6156474855052081
57.543994	4.7863009e-10	0.04	1.7982833e9	1.2500538e8	-0.99925288	-0.00071662459	-0.00071662445	-1.9139533e6	5.7420431e6	0	0.6750354442046782
57.543994	5.2480746e-10	0.04	1.6400538e9	1.1400626e8	-0.9991808	-0.00078575913	-0.00078575897	-1.7455463e6	5.2368054e6	0	0.7401610586534711
57.543994	5.7543994e-10	0.04	1.4957469e9	1.0397495e8	-0.99910177	-0.00086156234	-0.00086156217	-1.5919572e6	4.7760232e6	0	0.8115660258583874
57.543994	6.3095734e-10	0.04	1.3641374e9	9.4826279e7	-0.99901512	-0.00094467718	-0.00094467699	-1.4518823e6	4.3557849e6	0	0.8898556912381159
57.543994	6.9183097e-10	0.04	1.2441081e9	8.6482595e7	-0.99892011	-0.0010358085	-0.0010358083	-1.3241325e6	3.9725229e6	0	0.9756988422945777
57.543994	7.5857758e-10	0.04	1.13464e9	7.8873064e7	-0.99881593	-0.001135729	-0.0011357288	-1.2076233e6	3.6229839e6	0	1.0698274868753994
57.543994	8.3176377e-10	0.04	1.034804e9	7.1933089e7	-0.99870171	-0.0012452858	-0.0012452855	-1.1013656e6	3.3042005e6	0	1.173027213985236
57.543994	9.1201084e-10	0.04	9.4375248e8	6.5603757e7	-0.99857648	-0.0013654071	-0.0013654069	-1.0044575e6	3.0134666e6	0	1.286174506556374
57.543994	1.e-9	0.04	8.607125e8	5.9831338e7	-0.99843917	-0.0014971108	-0.0014971105	-916076.18	2.7483141e6	0	1.4102364592036132
57.543994	1.0964782e-9	0.04	7.8497913e8	5.4566828e7	-0.99828862	-0.0016415118	-0.0016415115	-835471.49	2.5064922e6	0	1.5462610556019765
57.543994	1.2022644e-9	0.04	7.1590947e8	4.9765539e7	-0.99812356	-0.0017998326	-0.0017998322	-761959.15	2.2859479e6	0	1.6953956065166096
57.543994	1.3182567e-9	0.04	6.529172e8	4.5386711e7	-0.99794259	-0.0019734121	-0.0019734117	-694915.09	2.0848092e6	0	1.858905176559351
57.543994	1.4454398e-9	0.04	5.9546756e8	4.1393173e7	-0.99774418	-0.0021637176	-0.0021637171	-633770.18	1.9013685e6	0	2.038172163262519
57.543994	1.5848932e-9	0.04	5.4307287e8	3.7751022e7	-0.99752666	-0.0023723561	-0.0023723556	-578005.36	1.7340686e6	0	2.2347052379834524
57.543994	1.7378008e-9	0.04	4.9528835e8	3.4429341e7	-0.99728818	-0.0026010878	-0.0026010873	-527147.24	1.5814893e6	0	2.450176447460827
57.543994	1.9054607e-9	0.04	4.5170834e8	3.1399933e7	-0.99702674	-0.0028518397	-0.0028518391	-480764.09	1.4423353e6	0	2.686392504455571
57.543994	2.0892961e-9	0.04	4.119629e8	2.8637079e7	-0.99674015	-0.0031267214	-0.0031267207	-438462.15	1.3154253e6	0	2.945331769043546
57.543994	2.2908677e-9	0.04	3.7571463e8	2.6117326e7	-0.99642599	-0.0034280409	-0.0034280403	-399882.32	1.1996821e6	0	3.2291812411821708
57.543994	2.5118864e-9	0.04	3.4265582e8	2.3819285e7	-0.99608162	-0.0037583231	-0.0037583223	-364697.1	1.094123e6	0	3.5403264998445065
57.543994	2.7542287e-9	0.04	3.1250582e8	2.1723446e7	-0.99570417	-0.0041203277	-0.0041203268	-332607.79	997851.93	0	3.8813603658122453
57.543994	3.0199517e-9	0.04	2.850087e8	1.9812018e7	-0.9952905	-0.0045170702	-0.0045170693	-303342.	910051.69	0	4.25511974391188
57.543994	3.3113112e-9	0.04	2.5993102e8	1.8068776e7	-0.99483716	-0.0049518427	-0.0049518417	-276651.28	829976.93	0	4.664722416393798
57.543994	3.6307805e-9	0.04	2.3705991e8	1.6478919e7	-0.99434041	-0.0054282363	-0.0054282352	-252309.05	756947.88	0	5.113547390983731
57.543994	3.9810717e-9	0.04	2.1620121e8	1.5028953e7	-0.99379616	-0.0059501639	-0.0059501627	-230108.68	690344.59	0	5.605290432952664
57.543994	4.3651583e-9	0.04	1.9717784e8	1.3706568e7	-0.99319997	-0.006521884	-0.0065218827	-209861.7	629601.67	0	6.143963166893082
57.543994	4.7863009e-9	0.04	1.7982833e8	1.2500539e7	-0.992547	-0.007148024	-0.0071480226	-191396.23	574203.47	0	6.733939179310964
57.543994	5.2480746e-9	0.04	1.6400539e8	1.1400627e7	-0.99183199	-0.0078336026	-0.007833601	-174555.52	523679.71	0	7.379971971840489
57.543994	5.7543994e-9	0.04	1.4957469e8	1.0397496e7	-0.99104928	-0.0085840513	-0.0085840496	-159196.62	477601.5	0	8.087175346878315
57.543994	6.3095734e-9	0.04	1.3641374e8	9.4826292e6	-0.99019273	-0.0094052325	-0.0094052306	-145189.13	435577.67	0	8.861097918873742
57.543994	6.9183097e-9	0.04	1.2441081e8	8.6482609e6	-0.98925572	-0.010303453	-0.010303451	-132414.14	397251.48	0	9.707722576897131
57.543994	7.5857758e-9	0.04	1.1346401e8	7.8873079e6	-0.98823117	-0.011285472	-0.01128547	-120763.22	362297.59	0	10.633447415221875
57.543994	8.3176377e-9	0.04	1.0348041e8	7.1933106e6	-0.98711151	-0.012358498	-0.012358495	-110137.45	330419.26	0	11.645114070615598
57.543994	9.1201084e-9	0.04	9.4375255e7	6.5603776e6	-0.9858887	-0.013530176	-0.013530173	-100446.64	301345.88	0	12.749989254242823
57.543994	1.e-8	0.04	8.6071256e7	5.9831358e6	-0.98455426	-0.014808557	-0.014808554	-91608.511	274830.64	0	13.955737940228829
57.543994	1.0964782e-8	0.04	7.849792e7	5.4566851e6	-0.98309929	-0.016202048	-0.016202044	-83548.041	250648.46	0	15.270406340735523
57.543994	1.2022644e-8	0.04	7.1590955e7	4.9765563e6	-0.98151461	-0.017719335	-0.017719331	-76196.806	228594.05	0	16.70229314792531
57.543994	1.3182567e-8	0.04	6.5291729e7	4.5386737e6	-0.97979076	-0.01936928	-0.019369276	-69492.399	208480.19	0	18.25995363046655
57.543994	1.4454398e-8	0.04	5.9546766e7	4.1393201e6	-0.97791823	-0.021160777	-0.021160773	-63377.908	190136.14	0	19.951988795068875
57.543994	1.5848932e-8	0.04	5.4307298e7	3.7751053e6	-0.97588758	-0.023102575	-0.02310257	-57801.425	173406.16	0	21.786939365929044
57.543994	1.7378008e-8	0.04	4.9528846e7	3.4429375e6	-0.97368969	-0.025203053	-0.025203048	-52715.612	158148.25	0	23.77305919915098
57.543994	1.9054607e-8	0.04	4.5170847e7	3.139997e6	-0.97131596	-0.027469963	-0.027469957	-48077.295	144232.87	0	25.91813729148642
57.543994	2.0892961e-8	0.04	4.1196304e7	2.8637119e6	-0.96875868	-0.029910128	-0.029910122	-43847.1	131541.89	0	28.229161190443104
57.543994	2.2908677e-8	0.04	3.7571478e7	2.611737e6	-0.96601128	-0.032529126	-0.03252912	-39989.115	119967.59	0	30.71209424213229
57.543994	2.5118864e-8	0.04	3.4265598e7	2.3819332e6	-0.96306866	-0.03533096	-0.035330952	-36470.592	109411.7	0	33.37157786180045
57.543994	2.7542287e-8	0.04	3.1250599e7	2.1723497e6	-0.95992751	-0.03831774	-0.038317732	-33261.66	99784.623	0	36.21064256111006
57.543994	3.0199517e-8	0.04	2.8500888e7	1.9812073e6	-0.95658659	-0.041489421	-0.041489412	-30335.079	91004.625	0	39.230455205060515
57.543994	3.3113112e-8	0.04	2.5993122e7	1.8068834e6	-0.95304687	-0.044843594	-0.044843584	-27666.005	82997.175	0	42.43019491419693
57.543994	3.6307805e-8	0.04	2.3706012e7	1.6478982e6	-0.94931164	-0.048375393	-0.048375382	-25231.78	75694.297	0	45.80695339551744
57.543994	3.9810717e-8	0.04	2.1620144e7	1.502902e6	-0.9453865	-0.052077504	-0.052077493	-23011.74	69033.996	0	49.355743924718276
57.543994	4.3651583e-8	0.04	1.9717809e7	1.370664e6	-0.94127919	-0.055940304	-0.055940291	-20987.04	62959.732	0	53.06965603623278
57.543994	4.7863009e-8	0.04	1.7982859e7	1.2500614e6	-0.93699934	-0.059952107	-0.059952092	-19140.491	57419.941	0	56.94008083100255
57.543994	5.2480746e-8	0.04	1.6400566e7	1.1400707e6	-0.9325581	-0.064099507	-0.064099491	-17456.417	52367.594	0	60.957045950315575
57.543994	5.7543994e-8	0.04	1.4957498e7	1.039758e6	-0.92796773	-0.068367779	-0.068367762	-15920.524	47759.801	0	65.10958576455464
57.543994	6.3095734e-8	0.04	1.3641405e7	948271.71	-0.92324115	-0.0727413	-0.072741281	-14519.772	43557.446	0	69.38614828015899
57.543994	6.9183097e-8	0.04	1.2441113e7	864835.28	-0.91839153	-0.077203953	-0.077203933	-13242.271	39724.855	0	73.77496506529369
57.543994	7.5857758e-8	0.04	1.1346434e7	788740.37	-0.91343189	-0.081739492	-0.08173947	-12077.175	36229.492	0	78.26441362141388
57.543994	8.3176377e-8	0.04	1.0348075e7	719341.01	-0.90837479	-0.086331837	-0.086331812	-11014.595	33041.685	0	82.84329733615692
57.543994	9.1201084e-8	0.04	9.4375613e6	656048.05	-0.9032321	-0.090965291	-0.090965264	-10045.51	30134.372	0	87.50105342794491
57.543994	1.e-7	0.04	8.6071627e6	598324.21	-0.8980148	-0.095624691	-0.095624662	-9161.6939	27482.872	0	92.22793537199351
57.543994	1.0964782e-7	0.04	7.8498303e6	545679.44	-0.89273289	-0.10029548	-0.10029544	-8355.6432	25064.677	0	97.01509494315833
57.543994	1.2022644e-7	0.04	7.1591349e6	497666.85	-0.88739537	-0.10496371	-0.10496367	-7620.5159	22859.257	0	101.85459950393708
57.543994	1.3182567e-7	0.04	6.5292133e6	453878.86	-0.88201023	-0.10961603	-0.10961599	-6950.0713	20847.891	0	106.73944410607163
57.543994	1.4454398e-7	0.04	5.954718e6	413943.74	-0.87658449	-0.11423962	-0.11423957	-6338.6181	19013.505	0	111.66351518574245
57.543994	1.5848932e-7	0.04	5.4307721e6	377522.48	-0.87112428	-0.11882209	-0.11882204	-5780.9657	17340.525	0	116.62151810428945
57.543994	1.7378008e-7	0.04	4.9529278e6	344305.9	-0.86563489	-0.12335142	-0.12335137	-5272.3802	15814.749	0	121.60893467985727
57.543994	1.9054607e-7	0.04	4.5171286e6	314012.01	-0.86012086	-0.12781583	-0.12781578	-4808.5443	14423.226	0	126.6219420089501
57.543994	2.0892961e-7	0.04	4.1196751e6	286383.66	-0.85458608	-0.13220375	-0.13220369	-4385.5204	13154.143	0	131.6573203890263
57.543994	2.2908677e-7	0.04	3.7571932e6	261186.3	-0.84903387	-0.13650369	-0.13650362	-3999.7176	11996.725	0	136.71238191153284
57.543994	2.5118864e-7	0.04	3.4266057e6	238206.04	-0.84346703	-0.14070425	-0.14070417	-3647.8607	10941.148	0	141.78492423528908
57.543994	2.7542287e-7	0.04	3.1251064e6	217247.78	-0.83788793	-0.14479408	-0.14479399	-3326.963	9978.4501	0	146.8731471530847
57.543994	3.0199517e-7	0.04	2.8501358e6	198133.62	-0.83229858	-0.14876189	-0.1487618	-3034.3003	9100.4597	0	151.97558607045178
57.543994	3.3113112e-7	0.04	2.5993596e6	180701.3	-0.82670065	-0.15259655	-0.15259645	-2767.3883	8299.7232	0	157.09109095940215
57.543994	3.6307805e-7	0.04	2.3706491e6	164802.83	-0.82109556	-0.1562871	-0.156287	-2523.9611	7569.443	0	162.21873879093604
57.543994	3.9810717e-7	0.04	2.1620626e6	150303.24	-0.81548449	-0.15982301	-0.15982289	-2301.9525	6903.4198	0	167.35781775034403
57.543994	4.3651583e-7	0.04	1.9718294e6	137079.46	-0.80986843	-0.16319427	-0.16319414	-2099.4777	6295.9996	0	172.50777274241756
57.543994	4.7863009e-7	0.04	1.7983347e6	125019.22	-0.80424821	-0.16639166	-0.16639152	-1914.818	5742.026	0	177.6681708154432
57.543994	5.2480746e-7	0.04	1.6401057e6	114020.15	-0.79862453	-0.16940707	-0.16940691	-1746.4059	5236.7963	0	182.83865944450176
57.543994	5.7543994e-7	0.04	1.4957991e6	103988.87	-0.79299796	-0.1722337	-0.17223353	-1592.8117	4776.0214	0	188.0189578874666
57.543994	6.3095734e-7	0.04	1.36419e6	94840.231	-0.78736898	-0.17486645	-0.17486626	-1452.7317	4355.79	0	193.20880757595336
57.543994	6.9183097e-7	0.04	1.244161e6	86496.567	-0.781738	-0.17730214	-0.17730193	-1324.9767	3972.5345	0	198.40794242505493
57.543994	7.5857758e-7	0.04	1.1346933e6	78887.05	-0.77610535	-0.17953976	-0.17953954	-1208.4623	3623.0015	0	203.61608996081992
57.543994	8.3176377e-7	0.04	1.0348576e6	71947.083	-0.77047131	-0.18158065	-0.18158041	-1102.1993	3304.2238	0	208.83293749589973
57.543994	9.1201084e-7	0.04	943806.32	65617.752	-0.76483612	-0.18342851	-0.18342824	-1005.2859	3013.4952	0	214.05812047893863
57.543994	1.e-6	0.04	860766.59	59845.328	-0.75919996	-0.18508932	-0.18508903	-916.89936	2748.3477	0	219.29124429248955
57.543994	1.0964782e-6	0.04	785033.47	54580.809	-0.753563	-0.18657123	-0.18657091	-836.28936	2506.5305	0	224.53184366379125
57.543994	1.2022644e-6	0.04	715964.05	49779.504	-0.74792538	-0.18788417	-0.18788382	-762.77167	2285.9907	0	229.77941348251153
57.543994	1.3182567e-6	0.04	652971.99	45400.656	-0.74228719	-0.18903953	-0.18903914	-695.72226	2084.8561	0	235.03344149762154
57.543994	1.4454398e-6	0.04	595522.56	41407.094	-0.73664855	-0.1900497	-0.19004927	-634.57197	1901.4193	0	240.29334893686573
57.543994	1.5848932e-6	0.04	543128.06	37764.914	-0.73100952	-0.19092763	-0.19092716	-578.80175	1734.1231	0	245.55859273147178
57.543994	1.7378008e-6	0.04	495343.71	34443.201	-0.72537018	-0.19168642	-0.19168591	-527.93821	1581.5471	0	250.82860538396827
57.543994	1.9054607e-6	0.04	451763.87	31413.755	-0.71973056	-0.19233895	-0.19233838	-481.54962	1442.3963	0	256.10287539497864
57.543994	2.0892961e-6	0.04	412018.59	28650.861	-0.71409072	-0.19289756	-0.19289694	-439.24223	1315.4893	0	261.3808814936469
57.543994	2.2908677e-6	0.04	375770.47	26131.065	-0.7084507	-0.19337385	-0.19337317	-400.65693	1199.7489	0	266.66215089068857
57.543994	2.5118864e-6	0.04	342711.79	23832.976	-0.70281052	-0.19377852	-0.19377778	-365.46623	1094.1923	0	271.946262285001
57.543994	2.7542287e-6	0.04	312561.91	21737.086	-0.69717021	-0.19412129	-0.19412047	-333.37143	997.92369	0	277.2328229382679
57.543994	3.0199517e-6	0.04	285064.91	19825.605	-0.69152979	-0.19441084	-0.19440995	-304.10014	910.12567	0	282.5214867146141
57.543994	3.3113112e-6	0.04	259987.34	18082.306	-0.68588928	-0.1946549	-0.19465392	-277.4039	830.05297	0	287.8119454366051
57.543994	3.6307805e-6	0.04	237116.33	16492.39	-0.68024869	-0.19486022	-0.19485914	-253.05615	757.02582	0	293.1039356501165
57.543994	3.9810717e-6	0.04	216257.72	15042.363	-0.67460804	-0.19503267	-0.19503149	-230.85024	690.42429	0	298.39721757807115
57.543994	4.3651583e-6	0.04	197234.44	13719.914	-0.66896734	-0.19517734	-0.19517604	-210.59771	629.68299	0	303.6915912809624
57.543994	4.7863009e-6	0.04	179885.01	12513.818	-0.66332658	-0.19529858	-0.19529716	-192.12669	574.28629	0	308.98690191842076
57.543994	5.2480746e-6	0.04	164062.13	11413.838	-0.65768579	-0.19540011	-0.19539855	-175.28043	523.76391	0	314.2829822478138
57.543994	5.7543994e-6	0.04	149631.51	10410.637	-0.65204496	-0.19548509	-0.19548339	-159.91596	477.68696	0	319.5797221520825
57.543994	6.3095734e-6	0.04	136470.62	9495.6979	-0.6464041	-0.19555622	-0.19555435	-145.90289	435.6643	0	324.87701188999404
57.543994	6.9183097e-6	0.04	124467.74	8661.256	-0.64076322	-0.19561576	-0.19561371	-133.12233	397.33918	0	330.17475637753506
57.543994	7.5857758e-6	0.04	113520.99	7900.2279	-0.63512231	-0.19566561	-0.19566337	-121.46583	362.38627	0	335.4728936033923
57.543994	8.3176377e-6	0.04	103537.44	7206.154	-0.62948137	-0.1957074	-0.19570493	-110.83447	330.50884	0	340.7713634353834
57.543994	9.1201084e-6	0.04	94432.326	6573.143	-0.62384042	-0.19574246	-0.19573976	-101.13807	301.43628	0	346.07009559402036
57.543994	0.00001	0.04	86128.367	5995.8221	-0.61819945	-0.19577195	-0.19576898	-92.29434	274.92179	0	351.36905738242876
57.543994	0.000010964782	0.04	78555.067	5469.2912	-0.61255845	-0.1957968	-0.19579355	-84.22827	250.7403	0	356.6682221169528
57.543994	0.000012022644	0.04	71648.135	4989.0812	-0.60691744	-0.19581781	-0.19581425	-76.871431	228.68652	0	361.96754169184646
57.543994	0.000013182567	0.04	65348.938	4551.1165	-0.60127641	-0.19583566	-0.19583176	-70.161418	208.57323	0	367.2669999465858
57.543994	0.000014454398	0.04	59604.003	4151.6798	-0.59563536	-0.19585092	-0.19584663	-64.041317	190.2297	0	372.5665762107332
57.543994	0.000015848932	0.04	54364.56	3787.3811	-0.58999429	-0.19586404	-0.19585934	-58.459222	173.5002	0	377.8662524446337
57.543994	0.000017378008	0.04	49586.131	3455.1287	-0.58435319	-0.19587543	-0.19587028	-53.367794	158.24272	0	383.16602338672163
57.543994	0.000019054607	0.04	45228.152	3152.1028	-0.57871208	-0.19588542	-0.19587977	-48.723861	144.32773	0	388.4658582192533
57.543994	0.000020892961	0.04	41253.628	2875.7318	-0.57307094	-0.1958943	-0.19588811	-44.488047	131.63711	0	393.76576445875145
57.543994	0.000022908677	0.04	37628.819	2623.6703	-0.56742978	-0.19590231	-0.19589552	-40.624443	120.06312	0	399.0657244413877
57.543994	0.000025118864	0.04	34322.954	2393.7795	-0.56178859	-0.19590965	-0.19590221	-37.100297	109.50753	0	404.36573967046655
57.543994	0.000027542287	0.04	31307.969	2184.1085	-0.55614736	-0.19591651	-0.19590835	-33.885742	99.88071	0	409.6658131525971
57.543994	0.000030199517	0.04	28558.271	1992.8781	-0.55050611	-0.19592303	-0.19591408	-30.953537	91.100948	0	414.9659208349063
57.543994	0.000033113112	0.04	26050.516	1818.4658	-0.54486482	-0.19592935	-0.19591953	-28.278837	83.09371	0	420.2660766229616
57.543994	0.000036307805	0.04	23763.416	1659.3919	-0.53922349	-0.19593559	-0.19592483	-25.838986	75.791023	0	425.56627563102285
57.543994	0.000039810717	0.04	21677.557	1514.3066	-0.53358212	-0.19594186	-0.19593006	-23.613318	69.130893	0	430.86651485248115
57.543994	0.000043651583	0.04	19775.23	1381.9791	-0.52794071	-0.19594825	-0.19593531	-21.582989	63.056783	0	436.1667909049012
57.543994	0.000047863009	0.04	18040.288	1261.2869	-0.52229924	-0.19595487	-0.19594068	-19.730811	57.517128	0	441.4671188213284
57.543994	0.000052480746	0.04	16458.002	1151.2062	-0.51665772	-0.19596179	-0.19594624	-18.041108	52.464903	0	446.76748657532664
57.543994	0.000057543994	0.04	15014.94	1050.8034	-0.51101614	-0.19596911	-0.19595205	-16.499584	47.857219	0	452.0679013075923
57.543994	0.000063095734	0.04	13698.851	959.22673	-0.50537449	-0.1959769	-0.1959582	-15.093201	43.654961	0	457.3683690313437
57.543994	0.000069183097	0.04	12498.565	875.69975	-0.49973277	-0.19598526	-0.19596475	-13.810068	39.822456	0	462.66888749162393
57.543994	0.000075857758	0.04	11403.89	799.51414	-0.49409097	-0.19599426	-0.19597178	-12.63934	36.32717	0	467.96946307747754
57.543994	0.000083176377	0.04	10405.535	730.02392	-0.48844909	-0.196004	-0.19597935	-11.571128	33.139432	0	473.27009353394754
57.543994	0.000091201084	0.04	9495.025	666.63999	-0.4828071	-0.19601457	-0.19598754	-10.59641	30.232179	0	478.5708040413854
57.543994	0.0001	0.04	8664.6297	608.82504	-0.47716501	-0.19602607	-0.19599643	-9.7069603	27.580733	0	483.8715821975284
57.543994	0.00010964782	0.04	7907.3003	556.08908	-0.47152281	-0.1960386	-0.19600611	-8.8952761	25.162585	0	489.172434015595
57.543994	0.00012022644	0.04	7216.6077	507.98519	-0.46588048	-0.19605228	-0.19601665	-8.154515	22.957208	0	494.47337565610883
57.543994	0.00013182567	0.04	6586.6887	464.10582	-0.46023801	-0.19606723	-0.19602816	-7.4784364	20.94588	0	499.77441238063625
57.543994	0.00014454398	0.04	6012.1958	424.07925	-0.45459538	-0.19608357	-0.19604074	-6.8613489	19.111526	0	505.07555922222264
57.543994	0.00015848932	0.04	5488.2522	387.56647	-0.44895259	-0.19610146	-0.19605449	-6.298062	17.438576	0	510.37681242260663
57.543994	0.00017378008	0.04	5010.4101	354.2583	-0.44330961	-0.19612104	-0.19606954	-5.7838417	15.912827	0	515.6781952830089
57.543994	0.00019054607	0.04	4574.613	323.87278	-0.43766643	-0.19614248	-0.19608601	-5.3143708	14.521326	0	520.9797126891693
57.543994	0.00020892961	0.04	4177.1615	296.15275	-0.43202302	-0.19616598	-0.19610406	-4.8857118	13.252262	0	526.2813868148302
57.543994	0.00022908677	0.04	3814.6816	270.86366	-0.42637937	-0.19619172	-0.19612383	-4.4942736	12.094862	0	531.5832217940789
57.543994	0.00025118864	0.04	3484.0961	247.79161	-0.42073544	-0.19621993	-0.19614549	-4.1367812	11.039299	0	536.8852488204851
57.543994	0.00027542287	0.04	3182.5988	226.74155	-0.41509122	-0.19625085	-0.19616923	-3.8102477	10.076614	0	542.1874701490058
57.543994	0.00030199517	0.04	2907.6302	207.53553	-0.40944666	-0.19628475	-0.19619525	-3.5119491	9.1986342	0	547.4899252413855
57.543994	0.00033113112	0.04	2656.8561	190.01133	-0.40380174	-0.1963219	-0.19622377	-3.2394009	8.3979062	0	552.7926246207562
57.543994	0.00036307805	0.04	2428.1477	174.02093	-0.39815642	-0.19636264	-0.19625504	-2.9903374	7.6676329	0	558.0955964740783
57.543994	0.00039810717	0.04	2219.5634	159.4294	-0.39251065	-0.1964073	-0.19628932	-2.7626922	7.0016147	0	563.39887800814
57.543994	0.00043651583	0.04	2029.3325	146.11364	-0.3868644	-0.19645626	-0.1963269	-2.5545806	6.394198	0	568.7024865109433
57.543994	0.00047863009	0.04	1855.8403	133.96139	-0.38121761	-0.19650995	-0.1963681	-2.3642839	5.8402262	0	574.006466329973
57.543994	0.00052480746	0.04	1697.614	122.87028	-0.37557022	-0.19656881	-0.19641328	-2.1902345	5.3349968	0	579.3108603094091
57.543994	0.00057543994	0.04	1553.3102	112.74693	-0.36992217	-0.19663334	-0.19646281	-2.0310028	4.8742207	0	584.6157109176052
57.543994	0.00063095734	0.04	1421.7041	103.5062	-0.36427339	-0.19670411	-0.19651712	-1.8852849	4.4539866	0	589.9210677636119
57.543994	0.00069183097	0.04	1301.6785	95.070405	-0.3586238	-0.19678169	-0.19657666	-1.7518918	4.0707269	0	595.2269891004808
57.543994	0.00075857758	0.04	1192.2144	87.368731	-0.35297331	-0.19686676	-0.19664195	-1.6297389	3.7211883	0	600.5335399461342
57.543994	0.00083176377	0.04	1092.3826	80.336577	-0.34732183	-0.19696004	-0.19671354	-1.5178372	3.4024033	0	605.8407841910158
57.543994	0.00091201084	0.04	1001.3357	73.915026	-0.34166924	-0.19706231	-0.19679203	-1.4152845	3.111666	0	611.1488120333995
57.543994	0.001	0.04	918.30078	68.050349	-0.33601543	-0.19717445	-0.19687809	-1.3212582	2.8465082	0	616.4577016451223
57.543994	0.0010964782	0.04	842.57295	62.693542	-0.33036025	-0.1972974	-0.19697245	-1.235008	2.6046789	0	621.7675665256781
57.543994	0.0012022644	0.04	773.50938	57.799913	-0.32470355	-0.19743221	-0.19707591	-1.1558496	2.3841254	0	627.0785175437787
57.543994	0.0013182567	0.04	710.52382	53.328702	-0.31904516	-0.19758002	-0.19718935	-1.0831588	2.1829753	0	632.390681352833
57.543994	0.0014454398	0.04	653.08161	49.242733	-0.31338488	-0.19774209	-0.19731372	-1.0163665	1.9995211	0	637.7042101624279
57.543994	0.0015848932	0.04	600.69516	45.508103	-0.30772249	-0.19791977	-0.19745007	-0.95495352	1.8322055	0	643.0192712151955
57.543994	0.0017378008	0.04	552.9198	42.093892	-0.30205774	-0.19811457	-0.19759956	-0.89844638	1.6796081	0	648.3360558066412
57.543994	0.0019054607	0.04	509.35	38.971896	-0.29639035	-0.19832815	-0.19776345	-0.84641326	1.5404335	0	653.6547796609691
57.543994	0.0020892961	0.04	469.61596	36.116396	-0.29072	-0.19856229	-0.19794311	-0.79846029	1.4135004	0	658.9756919509105
57.543994	0.0022908677	0.04	433.38045	33.503933	-0.28504634	-0.19881896	-0.19814005	-0.75422826	1.2977313	0	664.2990647745902
57.543994	0.0025118864	0.04	400.33592	31.113111	-0.27936896	-0.19910033	-0.19835592	-0.7133895	1.1921434	0	669.625221342489
57.543994	0.0027542287	0.04	370.20197	28.924417	-0.27368741	-0.19940875	-0.19859252	-0.67564518	1.0958404	0	674.9545168103093
57.543994	0.0030199517	0.04	342.72288	26.920054	-0.26800115	-0.19974679	-0.19885182	-0.6407227	1.008005	0	680.28738450559
57.543994	0.0033113112	0.04	317.6655	25.083787	-0.26230962	-0.20011727	-0.19913596	-0.60837342	0.92789153	0	685.6242701581334
57.543994	0.0036307805	0.04	294.81727	23.400812	-0.25661215	-0.20052325	-0.19944727	-0.57837052	0.85482005	0	690.9657157092336
57.543994	0.0039810717	0.04	273.98437	21.857623	-0.25090798	-0.20096807	-0.19978829	-0.55050708	0.78817037	0	696.3123397687168
57.543994	0.0043651583	0.04	254.99013	20.441903	-0.2451963	-0.20145537	-0.20016177	-0.52459436	0.72737684	0	701.6648000323281
57.543994	0.0047863009	0.04	237.67351	19.142416	-0.23947614	-0.2019891	-0.20057071	-0.5004601	0.67192354	0	707.023895130615
57.543994	0.0052480746	0.04	221.88774	17.948912	-0.23374647	-0.20257354	-0.20101833	-0.47794719	0.62133994	0	712.3904717998707
57.543994	0.0057543994	0.04	207.49904	16.852043	-0.22800609	-0.20321333	-0.20150809	-0.45691219	0.57519683	0	717.7655274826712
57.543994	0.0063095734	0.04	194.38552	15.84328	-0.22225371	-0.20391346	-0.20204373	-0.43722423	0.53310277	0	723.1501336593412
57.543994	0.0069183097	0.04	182.43615	14.914843	-0.21648788	-0.2046793	-0.20262923	-0.41876384	0.4947007	0	728.5455031208347
57.543994	0.0075857758	0.04	171.54973	14.059632	-0.21070704	-0.20551659	-0.20326878	-0.40142193	0.45966496	0	733.952944117945
57.543994	0.0083176377	0.04	161.63412	13.271172	-0.20490947	-0.20643145	-0.20396685	-0.38509889	0.42769849	0	739.3739047087895
57.543994	0.0091201084	0.04	152.60537	12.543553	-0.19909336	-0.20743034	-0.20472804	-0.36970372	0.39853035	0	744.8099126266274
57.543994	0.01	0.04	144.38699	11.871381	-0.19325679	-0.20852001	-0.20555712	-0.35515332	0.37191336	0	750.2625925678619
57.543994	0.010964782	0.04	136.90928	11.249734	-0.18739779	-0.2097075	-0.20645891	-0.34137169	0.34762205	0	755.7336143280328
57.543994	0.012022644	0.04	130.10866	10.674121	-0.18151438	-0.21099998	-0.20743818	-0.3282894	0.32545073	0	761.2246589774644
57.543994	0.013182567	0.04	123.92709	10.140441	-0.17560467	-0.21240468	-0.20849951	-0.31584297	0.3052117	0	766.7373301662963
57.543994	0.014454398	0.04	118.3115	9.6449472	-0.16966694	-0.21392867	-0.20964709	-0.30397434	0.28673367	0	772.2730864757777
57.543994	0.015848932	0.04	113.21321	9.1842218	-0.16369979	-0.21557869	-0.21088451	-0.29263047	0.26986027	0	777.8331083758144
57.543994	0.017378008	0.04	108.58743	8.7551407	-0.15770229	-0.21736086	-0.21221441	-0.28176285	0.25444867	0	783.4181704440806
57.543994	0.019054607	0.04	104.39278	8.35485	-0.15167418	-0.21928031	-0.21363814	-0.27132724	0.24036835	0	789.0284662310389
57.543994	0.020892961	0.04	100.59078	7.9807416	-0.14561607	-0.22134077	-0.21515533	-0.26128326	0.22749992	0	794.6634365073929
57.543994	0.022908677	0.04	97.145453	7.6304308	-0.13952965	-0.22354412	-0.21676334	-0.25159422	0.21573406	0	800.3215926258016
57.543994	0.025118864	0.04	94.02294	7.3017371	-0.13341789	-0.22588982	-0.2184567	-0.24222683	0.2049705	0	806.0003496540746
57.543994	0.027542287	0.04	91.191248	6.9926654	-0.12728512	-0.22837433	-0.22022652	-0.23315102	0.19511711	0	811.6959733836846
57.543994	0.030199517	0.04	88.620084	6.7013896	-0.1211371	-0.23099049	-0.22205982	-0.22433979	0.18608906	0	817.4035397405455
57.543994	0.033113112	0.04	86.280889	6.4262376	-0.11498081	-0.23372696	-0.22393891	-0.215769	0.17780807	0	823.1171553949556
57.543994	0.036307805	0.04	84.14707	6.1656779	-0.10882404	-0.23656771	-0.22584089	-0.20741725	0.17020175	0	828.8303617746994
57.543994	0.039810717	0.04	82.1945	5.9183067	-0.10267471	-0.2394916	-0.22773719	-0.1992656	0.16320307	0	834.5367912574867
57.543994	0.043651583	0.04	80.402295	5.6828372	-0.096539684	-0.24247224	-0.22959338	-0.19129734	0.15674992	0	840.2312886361552
57.543994	0.047863009	0.04	78.753875	5.4580896	-0.090423366	-0.245478	-0.23136921	-0.18349761	0.15078491	0	845.9112287651169
57.543994	0.052480746	0.04	77.238275	5.242982	-0.08432574	-0.24847259	-0.23301911	-0.17585289	0.14525529	0	851.5783393171373
57.543994	0.057543994	0.04	75.851628	5.0365229	-0.078240155	-0.25141591	-0.23449311	-0.16835043	0.1401131	0	857.2407473445811
57.543994	0.063095734	0.04	74.598666	4.8378046	-0.072150884	-0.25426572	-0.2357385	-0.16097742	0.13531554	0	862.9152103712917
57.543994	0.069183097	0.04	73.494052	4.6459973	-0.066030705	-0.2569801	-0.23670227	-0.15372013	0.13082553	0	868.6292974995944
57.543994	0.075857758	0.04	72.563252	4.4603454	-0.059838805	-0.2595208	-0.23733463	-0.14656285	0.12661249	0	874.4232264484704
57.543994	0.083176377	0.04	71.842634	4.2801642	-0.053519425	-0.26185775	-0.23759353	-0.13948686	0.12265323	0	880.3509667911889
57.543994	0.091201084	0.04	71.37852	4.1048388	-0.047001613	-0.26397442	-0.23745019	-0.13246935	0.11893288	0	886.4802641960938
57.543994	0.1	0.04	71.2251	3.9338244	-0.04020034	-0.26587344	-0.23689484	-0.12548257	0.11544582	0	892.8913761474693
57.543994	0.10964782	0.04	71.441463	3.7666494	-0.033018806	-0.26758163	-0.23594203	-0.1184932	0.1121965	0	899.6747057441614
57.543994	0.12022644	0.04	72.088549	3.60292	-0.025351236	-0.26915306	-0.23463388	-0.11146201	0.10920002	0	906.9280525313651
57.543994	0.13182567	0.04	73.22719	3.4423286	-0.017084872	-0.2706691	-0.23304049	-0.1043438	0.10648277	0	914.7547254775739
57.543994	0.14454398	0.04	74.918463	3.2846653	-0.0080997355	-0.27223522	-0.23125699	-0.097087378	0.10408305	0	923.2638769900631
57.543994	0.15848932	0.04	77.226966	3.1298324	0.0017348051	-0.27397515	-0.22939808	-0.089635472	0.10205216	0	932.5739332679819
57.543994	0.17378008	0.04	80.226672	2.9778618	0.012566613	-0.27602399	-0.22759145	-0.081924051	0.10045609	0	942.8190225266092
57.543994	0.19054607	0.04	84.007927	2.8289331	0.024569244	-0.27852157	-0.2259714	-0.073881091	0.09937786	0	954.1571644368559
57.543994	0.20892961	0.04	88.683467	2.6833887	0.03795004	-0.28160671	-0.22467337	-0.065424654	0.098920384	0	966.7780800743246
57.543994	0.22908677	0.04	94.390975	2.5417411	0.052955016	-0.2854122	-0.22382898	-0.056460527	0.099209256	0	980.9079699849419
57.543994	0.25118864	0.04	101.28978	2.4046618	0.069867481	-0.29005953	-0.22356072	-0.046879885	0.10039443	0	996.8084179940612
57.543994	0.27542287	0.04	109.54999	2.272945	0.08899785	-0.29565252	-0.22397551	-0.036557631	0.10264965	0	1014.7670609467142
57.543994	0.30199517	0.04	119.33376	2.1474388	0.11066361	-0.30226986	-0.22515699	-0.025352205	0.1061684	0	1035.0790552173416
57.543994	0.33113112	0.04	130.77105	2.0289484	0.13516129	-0.30995762	-0.22715761	-0.013107517	0.11115611	0	1058.0210379715088
57.543994	0.36307805	0.04	143.93525	1.9181265	0.16273583	-0.31872393	-0.22999292	0.00034266991	0.11781897	0	1083.8225619363975
57.543994	0.39810717	0.04	158.82546	1.8153782	0.19355527	-0.32853799	-0.23364012	0.015168245	0.12635169	0	1112.642368557021
57.543994	0.43651583	0.04	175.36158	1.7208078	0.22769797	-0.33933473	-0.23804227	0.031535109	0.13692656	0	1144.5562221282455
57.543994	0.47863009	0.04	193.39349	1.6342207	0.26515537	-0.35102405	-0.24311714	0.049597751	0.14968614	0	1179.5591703890254
57.543994	0.52480746	0.04	212.72125	1.555174	0.30584794	-0.36350243	-0.24876846	0.069493307	0.16474046	0	1217.5801077853246
57.543994	0.57543994	0.04	233.11976	1.4830554	0.34964821	-0.37666396	-0.25489671	0.091337879	0.1821681	0	1258.5030081437235
57.543994	0.63095734	0.04	254.36175	1.4171666	0.39640431	-0.39040894	-0.26140748	0.11522523	0.20202007	0	1302.1887278491056
57.543994	0.69183097	0.04	276.23539	1.3567925	0.44595952	-0.40464926	-0.2682168	0.14122747	0.22432468	0	1348.4931740319166
57.543994	0.75857758	0.04	298.55519	1.301251	0.49816618	-0.41931109	-0.27525375	0.16939719	0.24909275	0	1397.2802758315606
57.543994	0.83176377	0.04	321.1671	1.2499215	0.55289394	-0.43433548	-0.28246106	0.19977032	0.27632218	0	1448.4297132609684
57.543994	0.91201084	0.04	343.94921	1.2022574	0.61003372	-0.44967781	-0.28979457	0.23236925	0.30600191	0	1501.840658179996
57.543994	1.	0.04	366.80993	1.1577884	0.66949868	-0.46530667	-0.29722223	0.26720594	0.33811507	0	1557.4327232564285
57.543994	1.0964782	0.04	389.68455	1.1161146	0.73122344	-0.48120249	-0.30472272	0.30428472	0.37264154	0	1615.1452809690138
57.543994	1.2022644	0.04	412.53142	1.0768996	0.79516235	-0.4973562	-0.31228427	0.34360475	0.40955983	0	1674.9358825068907
57.543994	1.3182567	0.04	435.32812	1.0398608	0.86128745	-0.51376786	-0.31990334	0.38516206	0.44884868	0	1736.7783906653265
57.543994	1.4454398	0.04	458.06788	1.0047607	0.92958631	-0.53044544	-0.32758346	0.42895128	0.49048819	0	1800.6609939803939
57.543994	1.5848932	0.04	480.75652	0.97139949	1.0000601	-0.54740356	-0.33533407	0.47496703	0.53446072	0	1866.5844369636757
57.543994	1.7378008	0.04	503.40978	0.93960794	1.0727218	-0.56466232	-0.34316943	0.523205	0.5807516	0	1934.5603792453398
57.543994	1.9054607	0.04	526.05117	0.90924207	1.1475949	-0.58224616	-0.35110748	0.57366281	0.62934965	0	2004.610216983362
57.543994	2.0892961	0.04	548.71012	0.88017865	1.2247117	-0.60018282	-0.35916894	0.62634071	0.68024755	0	2076.7635194267864
57.543994	2.2908677	0.04	571.42057	0.85231153	1.3041125	-0.6185024	-0.36737633	0.68124205	0.73344215	0	2151.0573046987483
57.543994	2.5118864	0.04	594.21981	0.82554883	1.385845	-0.63723656	-0.37575326	0.73837367	0.78893468	0	2227.5355027409278
57.543994	2.7542287	0.04	617.1475	0.79981061	1.4699628	-0.65641784	-0.38432376	0.79774621	0.84673088	0	2306.2475711458715
57.543994	3.0199517	0.04	640.24499	0.77502698	1.5565255	-0.67607914	-0.39311181	0.85937428	0.90684107	0	2387.248606777354
57.543994	3.3113112	0.04	663.55471	0.75113659	1.6455981	-0.69625337	-0.40214095	0.9232766	0.96928021	0	2470.5987966883913
57.543994	3.6307805	0.04	687.11973	0.72808536	1.73725	-0.71697315	-0.41143409	0.98947607	1.0340679	0	2556.3624856965885
57.543994	3.9810717	0.04	710.98346	0.70582539	1.8315557	-0.7382707	-0.4210133	1.0579999	1.1012284	0	2644.608841972228
57.543994	4.3651583	0.04	735.18934	0.68431409	1.9285935	-0.76017774	-0.43089982	1.1288794	1.1707904	0	2735.4106352274957
57.543994	4.7863009	0.04	759.78068	0.66351339	2.028446	-0.78272547	-0.44111399	1.2021502	1.2427873	0	2828.84470912993
57.543994	5.2480746	0.04	784.80057	0.6433891	2.1311999	-0.80594468	-0.45167536	1.2778524	1.317257	0	2924.991789255274
57.543994	5.7543994	0.04	810.29175	0.62391035	2.2369454	-0.82986572	-0.46260271	1.35603	1.3942416	0	3023.9359185966064
57.543994	6.3095734	0.04	836.29657	0.60504913	2.3457766	-0.85451868	-0.47391414	1.4367312	1.4737877	0	3125.7648300080477
57.543994	6.9183097	0.04	862.85704	0.58677984	2.4577913	-0.87993345	-0.48562722	1.5200086	1.5559461	0	3230.5697526543017
57.543994	7.5857758	0.04	890.01474	0.56907902	2.5730911	-0.90613983	-0.49775903	1.6059185	1.6407719	0	3338.4455044638803
57.543994	8.3176377	0.04	917.81094	0.55192497	2.6917809	-0.93316763	-0.51032631	1.6945216	1.7283244	0	3449.4900167090404
57.543994	9.1201084	0.04	946.28658	0.53529759	2.8139698	-0.9610468	-0.52334552	1.7858824	1.8186669	0	3563.8051773596408
57.543994	10.	0.04	975.48236	0.51917811	2.9397702	-0.98980752	-0.53683294	1.8800696	1.9118669	0	3681.495981716064