6.3095734	1.e-12	0.11	1.2429922e8	7.88359e7	-0.15360226	-0.015402962	-0.015402962	-132294.54	397121.43	0	793.6540589902266
6.3095734	1.0964782e-12	0.11	1.1336224e8	7.1899198e7	-0.15298375	-0.015402962	-0.015402962	-120654.07	362179.05	0	794.2351895548552
6.3095734	1.2022644e-12	0.11	1.0338759e8	6.557285e7	-0.15236524	-0.015402962	-0.015402962	-110037.83	330311.22	0	794.8163201194837
6.3095734	1.3182567e-12	0.11	9.4290603e7	5.9803151e7	-0.15174673	-0.015402962	-0.015402962	-100355.71	301247.41	0	795.3974506841122
6.3095734	1.4454398e-12	0.11	8.5994053e7	5.4541125e7	-0.15112821	-0.015402962	-0.015402962	-91525.509	274740.91	0	795.9785906443942
6.3095734	1.5848932e-12	0.11	7.8427509e7	4.97421e7	-0.1505097	-0.015402962	-0.015402962	-83472.27	250566.69	0	796.5597212090227
6.3095734	1.7378008e-12	0.11	7.1526739e7	4.5365336e7	-0.14989119	-0.015402962	-0.015402962	-76127.628	228519.54	0	797.1408517736511
6.3095734	1.9054607e-12	0.11	6.5233161e7	4.137368e7	-0.14927267	-0.015402962	-0.015402962	-69429.235	208412.29	0	797.7219917339331
6.3095734	2.0892961e-12	0.11	5.9493351e7	3.7733247e7	-0.14865416	-0.015402962	-0.015402962	-63320.228	190074.27	0	798.3031222985617
6.3095734	2.2908677e-12	0.11	5.4258581e7	3.4413132e7	-0.14803565	-0.015402962	-0.015402962	-57748.747	173349.8	0	798.8842528631902
6.3095734	2.5118864e-12	0.11	4.9484415e7	3.1385152e7	-0.14741714	-0.015402962	-0.015402962	-52667.497	158096.9	0	799.4653834278187
6.3095734	2.7542287e-12	0.11	4.5130324e7	2.8623601e7	-0.14679862	-0.015402962	-0.015402962	-48033.342	144186.08	0	800.0465233881007
6.3095734	3.0199517e-12	0.11	4.1159345e7	2.6105036e7	-0.14618011	-0.015402962	-0.015402962	-43806.941	131499.27	0	800.6276539527291
6.3095734	3.3113112e-12	0.11	3.7537769e7	2.3808078e7	-0.1455616	-0.015402962	-0.015402962	-39952.418	119928.76	0	801.2087845173577
6.3095734	3.6307805e-12	0.11	3.4234853e7	2.1713227e7	-0.14494308	-0.015402962	-0.015402962	-36437.051	109376.33	0	801.7899244776397
6.3095734	3.9810717e-12	0.11	3.1222557e7	1.98027e7	-0.14432457	-0.015402962	-0.015402962	-33230.998	99752.4	0	802.3710550422682
6.3095734	4.3651583e-12	0.11	2.8475311e7	1.806028e7	-0.14370606	-0.015402962	-0.015402962	-30307.044	90975.272	0	802.9521856068967
6.3095734	4.7863009e-12	0.11	2.5969793e7	1.6471173e7	-0.14308755	-0.015402962	-0.015402962	-27640.365	82970.435	0	803.5333161715253
6.3095734	5.2480746e-12	0.11	2.3684733e7	1.502189e7	-0.14246903	-0.015402962	-0.015402962	-25208.325	75669.937	0	804.1144561318072
6.3095734	5.7543994e-12	0.11	2.1600734e7	1.3700129e7	-0.14185052	-0.015402962	-0.015402962	-22990.278	69011.803	0	804.6955866964356
6.3095734	6.3095734e-12	0.11	1.9700104e7	1.2494668e7	-0.14123201	-0.015402962	-0.015402962	-20967.396	62939.513	0	805.2767172610642
6.3095734	6.9183097e-12	0.11	1.7966709e7	1.1395274e7	-0.14061349	-0.015402962	-0.015402962	-19122.505	57401.519	0	805.8578572213462
6.3095734	7.5857758e-12	0.11	1.6385834e7	1.0392616e7	-0.13999498	-0.015402962	-0.015402962	-17439.944	52350.809	0	806.4389877859746
6.3095734	8.3176377e-12	0.11	1.4944059e7	9.4781803e6	-0.13937647	-0.015402962	-0.015402962	-15905.431	47744.506	0	807.0201183506032
6.3095734	9.1201084e-12	0.11	1.3629144e7	8.6442051e6	-0.13875796	-0.015402962	-0.015402962	-14505.937	43543.508	0	807.6012489152317
6.3095734	1.e-11	0.11	1.2429928e7	7.8836108e6	-0.13813944	-0.015402962	-0.015402961	-13229.585	39712.152	0	808.1823889788659
6.3095734	1.0964782e-11	0.11	1.1336229e7	7.1899404e6	-0.13752093	-0.015402962	-0.015402961	-12065.537	36217.914	0	808.7635195434943
6.3095734	1.2022644e-11	0.11	1.0338765e7	6.5573056e6	-0.13690242	-0.015402962	-0.015402961	-11003.913	33031.131	0	809.3446501081228
6.3095734	1.3182567e-11	0.11	9.429066e6	5.9803357e6	-0.13628391	-0.015402962	-0.015402961	-10035.7	30124.75	0	809.9257806727514
6.3095734	1.4454398e-11	0.11	8.599411e6	5.4541329e6	-0.13566539	-0.015402962	-0.015402961	-9152.679	27474.1	0	810.5069206330332
6.3095734	1.5848932e-11	0.11	7.8427565e6	4.9742302e6	-0.13504688	-0.015402962	-0.015402961	-8347.3545	25056.678	0	811.0880511976619
6.3095734	1.7378008e-11	0.11	7.1526796e6	4.5365538e6	-0.13442837	-0.015402962	-0.015402961	-7612.8898	22851.963	0	811.6691817622903
6.3095734	1.9054607e-11	0.11	6.5233219e6	4.1373882e6	-0.13380985	-0.015402962	-0.015402961	-6943.05	20841.239	0	812.2503217225724
6.3095734	2.0892961e-11	0.11	5.9493408e6	3.7733448e6	-0.13319134	-0.015402962	-0.015402961	-6332.1487	19007.436	0	812.8314522872008
6.3095734	2.2908677e-11	0.11	5.4258638e6	3.4413332e6	-0.13257283	-0.015402962	-0.015402961	-5775.0001	17334.989	0	813.4125828518294
6.3095734	2.5118864e-11	0.11	4.9484472e6	3.1385351e6	-0.13195432	-0.015402962	-0.01540296	-5266.8745	15809.699	0	813.9937135198101
6.3095734	2.7542287e-11	0.11	4.513038e6	2.8623799e6	-0.1313358	-0.015402962	-0.01540296	-4803.4583	14418.617	0	814.5748534800921
6.3095734	3.0199517e-11	0.11	4.1159402e6	2.6105234e6	-0.13071729	-0.015402962	-0.01540296	-4380.8178	13149.936	0	815.1559840447205
6.3095734	3.3113112e-11	0.11	3.7537826e6	2.3808275e6	-0.13009878	-0.015402962	-0.01540296	-3995.3649	11992.885	0	815.737114609349
6.3095734	3.6307805e-11	0.11	3.423491e6	2.1713423e6	-0.12948026	-0.015402962	-0.01540296	-3643.8277	10937.642	0	816.318254569631
6.3095734	3.9810717e-11	0.11	3.1222614e6	1.9802896e6	-0.12886175	-0.015402962	-0.01540296	-3323.2218	9975.249	0	816.8993851342595
6.3095734	4.3651583e-11	0.11	2.8475368e6	1.8060474e6	-0.12824324	-0.015402962	-0.015402959	-3030.8258	9097.5361	0	817.4805158022402
6.3095734	4.7863009e-11	0.11	2.596985e6	1.6471366e6	-0.12762473	-0.015402962	-0.015402959	-2764.1574	8297.0525	0	818.0616463668688
6.3095734	5.2480746e-11	0.11	2.368479e6	1.5022083e6	-0.12700621	-0.015402962	-0.015402959	-2520.9529	7567.0027	0	818.6427863271508
6.3095734	5.7543994e-11	0.11	2.1600791e6	1.370032e6	-0.1263877	-0.015402962	-0.015402958	-2299.1476	6901.1894	0	819.2239169951314
6.3095734	6.3095734e-11	0.11	1.9700161e6	1.2494859e6	-0.12576919	-0.015402962	-0.015402958	-2096.8588	6293.9603	0	819.8050475597599
6.3095734	6.9183097e-11	0.11	1.7966766e6	1.1395465e6	-0.12515067	-0.015402962	-0.015402958	-1912.3692	5740.161	0	820.3861875200417
6.3095734	7.5857758e-11	0.11	1.6385891e6	1.0392805e6	-0.12453216	-0.015402962	-0.015402957	-1744.1125	5235.0899	0	820.9673181880225
6.3095734	8.3176377e-11	0.11	1.4944116e6	947836.87	-0.12391365	-0.015402962	-0.015402957	-1590.6606	4774.4596	0	821.5484487526512
6.3095734	9.1201084e-11	0.11	1.3629201e6	864439.27	-0.12329514	-0.015402963	-0.015402956	-1450.7107	4354.3598	0	822.1295794206318
6.3095734	1.e-10	0.11	1.2429985e6	788379.75	-0.12267662	-0.015402963	-0.015402956	-1323.0749	3971.2242	0	822.7107193809138
6.3095734	1.0964782e-10	0.11	1.1336286e6	719012.63	-0.12205811	-0.015402963	-0.015402955	-1206.6695	3621.8004	0	823.2918500488945
6.3095734	1.2022644e-10	0.11	1.0338821e6	655749.07	-0.1214396	-0.015402963	-0.015402954	-1100.5066	3303.1221	0	823.8729807168751
6.3095734	1.3182567e-10	0.11	942912.28	598052.	-0.12082109	-0.015402963	-0.015402954	-1003.6847	3012.4841	0	824.4541112815037
6.3095734	1.4454398e-10	0.11	859946.77	545431.64	-0.12020257	-0.015402963	-0.015402953	-915.3821	2747.419	0	825.0352513451378
6.3095734	1.5848932e-10	0.11	784281.34	497441.29	-0.11958406	-0.015402963	-0.015402952	-834.84911	2505.6768	0	825.6163820131186
6.3095734	1.7378008e-10	0.11	715273.64	453673.57	-0.11896555	-0.015402963	-0.015402951	-761.40208	2285.2053	0	826.1975126810993
6.3095734	1.9054607e-10	0.11	652337.86	413756.92	-0.11834703	-0.015402963	-0.01540295	-694.41753	2084.1328	0	826.7786527447334
6.3095734	2.0892961e-10	0.11	594939.75	377352.49	-0.11772852	-0.015402963	-0.015402949	-633.32685	1900.7526	0	827.3597834127141
6.3095734	2.2908677e-10	0.11	542592.06	344151.25	-0.11711001	-0.015402963	-0.015402948	-577.61143	1733.5079	0	827.9409140806947
6.3095734	2.5118864e-10	0.11	494850.39	313871.35	-0.1164915	-0.015402963	-0.015402946	-526.79831	1580.9788	0	828.5220448520276
6.3095734	2.7542287e-10	0.11	451309.48	286255.76	-0.11587298	-0.015402963	-0.015402945	-480.45614	1441.8707	0	829.1031849156618
6.3095734	3.0199517e-10	0.11	411599.69	261070.02	-0.11525447	-0.015402963	-0.015402943	-438.19153	1315.0026	0	829.6843156869948
6.3095734	3.3113112e-10	0.11	375383.93	238100.35	-0.11463596	-0.015402964	-0.015402941	-399.64568	1199.2975	0	830.2654464583276
6.3095734	3.6307805e-10	0.11	342354.78	217151.75	-0.11401744	-0.015402964	-0.015402939	-364.49141	1093.7732	0	830.846586625314
6.3095734	3.9810717e-10	0.11	312231.82	198046.39	-0.11339893	-0.015402964	-0.015402937	-332.43027	997.53392	0	831.4277173966468
6.3095734	4.3651583e-10	0.11	284759.36	180622.09	-0.11278042	-0.015402964	-0.015402934	-303.1901	909.76262	0	832.0088482713319
6.3095734	4.7863009e-10	0.11	259704.18	164730.93	-0.11216191	-0.015402964	-0.015402932	-276.52271	829.71426	0	832.5899790426648
6.3095734	5.2480746e-10	0.11	236853.58	150238.01	-0.11154339	-0.015402964	-0.015402929	-252.2017	756.70928	0	833.1711193130034
6.3095734	5.7543994e-10	0.11	216013.59	137020.31	-0.11092488	-0.015402965	-0.015402926	-230.02062	690.12794	0	833.7522501876884
6.3095734	6.3095734e-10	0.11	197007.29	124965.61	-0.11030637	-0.015402965	-0.015402922	-209.79118	629.40504	0	834.3333811657257
6.3095734	6.9183097e-10	0.11	179673.34	113971.58	-0.10968786	-0.015402965	-0.015402918	-191.34166	574.0251	0	834.914512143763
6.3095734	7.5857758e-10	0.11	163864.59	103944.91	-0.10906934	-0.015402966	-0.015402914	-174.51544	523.51799	0	835.4956525174537
6.3095734	8.3176377e-10	0.11	149446.83	94800.46	-0.10845083	-0.015402966	-0.015402909	-159.16969	477.45497	0	836.0767835988432
6.3095734	9.1201084e-10	0.11	136297.69	86460.617	-0.10783232	-0.015402966	-0.015402904	-145.17414	435.44498	0	836.6579146802326
6.3095734	1.e-9	0.11	124305.52	78854.581	-0.1072138	-0.015402967	-0.015402899	-132.41	397.13142	0	837.2390551572755
6.3095734	1.0964782e-9	0.11	113368.54	71917.787	-0.10659529	-0.015402967	-0.015402893	-120.76891	362.18904	0	837.820186342017
6.3095734	1.2022644e-9	0.11	103393.89	65591.347	-0.10597678	-0.015402968	-0.015402886	-110.15206	330.32121	0	838.401317630111
6.3095734	1.3182567e-9	0.11	94296.906	59821.557	-0.10535827	-0.015402968	-0.015402879	-100.46932	301.25741	0	838.9824489182049
6.3095734	1.4454398e-9	0.11	86000.356	54559.439	-0.10473975	-0.015402969	-0.015402871	-91.638499	274.7509	0	839.5635897053043
6.3095734	1.5848932e-9	0.11	78433.812	49760.321	-0.10412124	-0.015402969	-0.015402862	-83.584641	250.57668	0	840.1447212001026
6.3095734	1.7378008e-9	0.11	71533.042	45383.466	-0.10350273	-0.01540297	-0.015402852	-76.239382	228.52953	0	840.7258527982528
6.3095734	1.9054607e-9	0.11	65239.465	41391.718	-0.10288421	-0.015402971	-0.015402841	-69.540372	208.42229	0	841.3069938954089
6.3095734	2.0892961e-9	0.11	59499.654	37751.193	-0.1022657	-0.015402972	-0.01540283	-63.430746	190.08427	0	841.8881255969116
6.3095734	2.2908677e-9	0.11	54264.884	34430.986	-0.10164719	-0.015402973	-0.015402817	-57.858648	173.35979	0	842.4692575051184
6.3095734	2.5118864e-9	0.11	49490.718	31402.913	-0.10102868	-0.015402974	-0.015402803	-52.776779	158.10689	0	843.0503895166777
6.3095734	2.7542287e-9	0.11	45136.627	28641.27	-0.10041016	-0.015402975	-0.015402788	-48.142006	144.19608	0	843.6315310272424
6.3095734	3.0199517e-9	0.11	41165.648	26122.614	-0.099791651	-0.015402976	-0.015402771	-43.914988	131.50927	0	844.2126624092928
6.3095734	3.3113112e-9	0.11	37544.072	23825.564	-0.099173138	-0.015402977	-0.015402753	-40.059847	119.93876	0	844.7937976529566
6.3095734	3.6307805e-9	0.11	34241.156	21730.621	-0.098554626	-0.015402979	-0.015402732	-36.543862	109.38633	0	845.3749322671118
6.3095734	3.9810717e-9	0.11	31228.86	19820.002	-0.097936113	-0.01540298	-0.01540271	-33.337191	99.762396	0	845.9560679241846
6.3095734	4.3651583e-9	0.11	28481.615	18077.489	-0.0973176	-0.015402982	-0.015402686	-30.412619	90.985268	0	846.5372037879616
6.3095734	4.7863009e-9	0.11	25976.096	16488.291	-0.096699088	-0.015402984	-0.015402659	-27.745322	82.98043	0	847.11833902223
6.3095734	5.2480746e-9	0.11	23691.037	15038.916	-0.096080575	-0.015402986	-0.01540263	-25.312665	75.679933	0	847.699475402768
6.3095734	5.7543994e-9	0.11	21607.037	13717.062	-0.095462062	-0.015402988	-0.015402598	-23.094	69.021798	0	848.2806120933625
6.3095734	6.3095734e-9	0.11	19706.407	12511.51	-0.09484355	-0.015402991	-0.015402563	-21.070499	62.949509	0	848.8617481544484
6.3095734	6.9183097e-9	0.11	17973.012	11412.024	-0.094225037	-0.015402994	-0.015402524	-19.22499	57.411515	0	849.4428855685084
6.3095734	7.5857758e-9	0.11	16392.137	10409.274	-0.093606525	-0.015402997	-0.015402482	-17.541812	52.360805	0	850.0240223530593
6.3095734	8.3176377e-9	0.11	14950.362	9494.746	-0.092988012	-0.015403	-0.015402436	-16.006681	47.754502	0	850.6051604905846
6.3095734	9.1201084e-9	0.11	13635.447	8660.6789	-0.0923695	-0.015403004	-0.015402385	-14.60657	43.553504	0	851.1862982053054
6.3095734	1.e-8	0.11	12436.231	7899.9924	-0.091750987	-0.015403008	-0.015402329	-13.329599	39.722147	0	851.7674373763526
6.3095734	1.0964782e-8	0.11	11342.533	7206.2301	-0.091132475	-0.015403012	-0.015402268	-12.164933	36.22791	0	852.3485761245952
6.3095734	1.2022644e-8	0.11	10345.068	6573.5032	-0.090513962	-0.015403017	-0.015402201	-11.102691	33.041127	0	852.9297164325164
6.3095734	1.3182567e-8	0.11	9435.3693	5996.4414	-0.08989545	-0.015403022	-0.015402128	-10.13386	30.134746	0	853.5108564209854
6.3095734	1.4454398e-8	0.11	8605.7142	5470.1465	-0.089276937	-0.015403028	-0.015402047	-9.2502215	27.484095	0	854.0919981758371
6.3095734	1.5848932e-8	0.11	7849.0598	4990.1519	-0.088658425	-0.015403035	-0.015401959	-8.4442791	25.066673	0	854.673139714589
6.3095734	1.7378008e-8	0.11	7158.9828	4552.3834	-0.088039913	-0.015403042	-0.015401862	-7.7091965	22.861958	0	855.2542821835103
6.3095734	1.9054607e-8	0.11	6529.6251	4153.1258	-0.087421401	-0.015403049	-0.015401756	-7.0387388	20.851234	0	855.8354255826017
6.3095734	2.0892961e-8	0.11	5955.6441	3788.9904	-0.086802888	-0.015403058	-0.01540164	-6.4272196	19.017432	0	856.4165709547801
6.3095734	2.2908677e-8	0.11	5432.1672	3456.8868	-0.086184376	-0.015403067	-0.015401512	-5.8694532	17.344985	0	856.9977166276194
6.3095734	2.5118864e-8	0.11	4954.7505	3153.9967	-0.085565864	-0.015403077	-0.015401373	-5.3607096	15.819694	0	857.5788634373329
6.3095734	2.7542287e-8	0.11	4519.3414	2877.7495	-0.084947352	-0.015403088	-0.015401219	-4.8966756	14.428613	0	858.1600117973289
6.3095734	3.0199517e-8	0.11	4122.2435	2625.8009	-0.08432884	-0.0154031	-0.015401051	-4.4734171	13.159932	0	858.7411616042559
6.3095734	3.3113112e-8	0.11	3760.0859	2396.013	-0.083710329	-0.015403114	-0.015400867	-4.0873463	12.002881	0	859.3223121252526
6.3095734	3.6307805e-8	0.11	3429.7943	2186.4359	-0.083091817	-0.015403128	-0.015400664	-3.7351912	10.947638	0	859.9034655495058
6.3095734	3.9810717e-8	0.11	3128.5648	1995.2911	-0.082473305	-0.015403144	-0.015400443	-3.4139675	9.9852452	0	860.4846208340988
6.3095734	4.3651583e-8	0.11	2853.8402	1820.957	-0.081854794	-0.015403162	-0.0154002	-3.1209535	9.1075324	0	861.0657774528744
6.3095734	4.7863009e-8	0.11	2603.2884	1661.9542	-0.081236282	-0.015403181	-0.015399933	-2.8536672	8.3070487	0	861.6469374916678
6.3095734	5.2480746e-8	0.11	2374.7824	1516.9338	-0.080617771	-0.015403202	-0.015399641	-2.6098448	7.5769989	0	862.2280991747009
6.3095734	5.7543994e-8	0.11	2166.3825	1384.6656	-0.07999926	-0.015403225	-0.015399321	-2.3874216	6.9111856	0	862.809263751595
6.3095734	6.3095734e-8	0.11	1976.3195	1264.0274	-0.079380749	-0.015403251	-0.015398969	-2.1845149	6.3039567	0	863.3904316357591
6.3095734	6.9183097e-8	0.11	1802.9801	1153.996	-0.078762238	-0.015403278	-0.015398584	-1.9994073	5.7501574	0	863.9716029305455
6.3095734	7.5857758e-8	0.11	1644.8926	1053.638	-0.078143728	-0.015403309	-0.015398162	-1.8305328	5.2450863	0	864.5527771097976
6.3095734	8.3176377e-8	0.11	1500.7151	962.10239	-0.077525217	-0.015403343	-0.015397699	-1.6764629	4.7844562	0	865.1339564660548
6.3095734	9.1201084e-8	0.11	1369.2236	878.61279	-0.076906707	-0.015403379	-0.015397191	-1.5358951	4.3643565	0	865.715139533595
6.3095734	1.e-7	0.11	1249.302	802.46126	-0.076288197	-0.01540342	-0.015396634	-1.4076414	3.9812209	0	866.2963276653926
6.3095734	1.0964782e-7	0.11	1139.9322	733.00215	-0.075669688	-0.015403464	-0.015396024	-1.2906181	3.6317972	0	866.8775203352907
6.3095734	1.2022644e-7	0.11	1040.1858	669.64658	-0.075051179	-0.015403512	-0.015395354	-1.1838372	3.3131191	0	867.45871920632
6.3095734	1.3182567e-7	0.11	949.21595	611.85751	-0.07443267	-0.015403565	-0.01539462	-1.0863974	3.0224811	0	868.0399246918896
6.3095734	1.4454398e-7	0.11	866.25049	559.14515	-0.073814161	-0.015403623	-0.015393815	-0.99747687	2.7574162	0	868.6211375154645
6.3095734	1.5848932e-7	0.11	790.58508	511.0628	-0.073195653	-0.015403687	-0.015392933	-0.91632591	2.5156741	0	869.2023573575925
6.3095734	1.7378008e-7	0.11	721.57744	467.20309	-0.072577145	-0.015403757	-0.015391965	-0.84226095	2.2952028	0	869.7835860880087
6.3095734	1.9054607e-7	0.11	658.64171	427.19444	-0.071958638	-0.015403834	-0.015390905	-0.77465846	2.0941305	0	870.364823387261
6.3095734	2.0892961e-7	0.11	601.24366	390.69803	-0.071340132	-0.015403918	-0.015389741	-0.71294982	1.9107505	0	870.9460704955757
6.3095734	2.2908677e-7	0.11	548.89604	357.4048	-0.070721626	-0.01540401	-0.015388466	-0.65661645	1.743506	0	871.5273290759831
6.3095734	2.5118864e-7	0.11	501.15444	327.03292	-0.07010312	-0.015404111	-0.015387067	-0.60518536	1.5909772	0	872.1086004720619
6.3095734	2.7542287e-7	0.11	457.6136	299.32533	-0.069484616	-0.015404223	-0.015385534	-0.55822521	1.4518693	0	872.6898838382033
6.3095734	3.0199517e-7	0.11	417.9039	274.04761	-0.068866112	-0.015404344	-0.015383852	-0.51534262	1.3250015	0	873.2711826038206
6.3095734	3.3113112e-7	0.11	381.68823	250.98595	-0.068247609	-0.015404478	-0.015382009	-0.47617878	1.2092967	0	873.8524970695751
6.3095734	3.6307805e-7	0.11	348.65917	229.94538	-0.067629107	-0.015404624	-0.015379987	-0.4404065	1.1037727	0	874.433829095806
6.3095734	3.9810717e-7	0.11	318.53632	210.74805	-0.067010606	-0.015404784	-0.015377771	-0.40772735	1.0075337	0	875.015180232796
6.3095734	4.3651583e-7	0.11	291.06398	193.23178	-0.066392106	-0.01540496	-0.015375341	-0.37786917	0.91976286	0	875.5965525475891
6.3095734	4.7863009e-7	0.11	266.00893	177.24865	-0.065773607	-0.015405153	-0.015372676	-0.35058374	0.83971492	0	876.1779482105811
6.3095734	5.2480746e-7	0.11	243.15848	162.66377	-0.06515511	-0.015405365	-0.015369754	-0.32564468	0.76671043	0	876.7593685559548
6.3095734	5.7543994e-7	0.11	222.31864	149.35411	-0.064536614	-0.015405596	-0.01536655	-0.30284554	0.70012961	0	877.3408171070805
6.3095734	6.3095734e-7	0.11	203.31251	137.20745	-0.06391812	-0.015405851	-0.015363038	-0.28199802	0.63940729	0	877.9222956115494
6.3095734	6.9183097e-7	0.11	185.97875	126.12148	-0.063299628	-0.01540613	-0.015359186	-0.26293041	0.58402799	0	878.5038073766316
6.3095734	7.5857758e-7	0.11	170.17021	116.00286	-0.062681138	-0.015406436	-0.015354963	-0.24548607	0.53352157	0	879.0853556062452
6.3095734	8.3176377e-7	0.11	155.75269	106.76648	-0.062062649	-0.015406771	-0.015350332	-0.22952219	0.4874593	0	879.6669450639862
6.3095734	9.1201084e-7	0.11	142.60379	98.334712	-0.061444164	-0.015407139	-0.015345255	-0.21490848	0.44545015	0	880.2485768585422
6.3095734	1.e-6	0.11	130.6119	90.636758	-0.060825681	-0.015407542	-0.015339688	-0.20152615	0.40713751	0	880.8302574165394
6.3095734	1.0964782e-6	0.11	119.67522	83.608054	-0.0602072	-0.015407984	-0.015333584	-0.18926685	0.37219612	0	881.4119915955314
6.3095734	1.2022644e-6	0.11	109.7009	77.189714	-0.059588723	-0.015408469	-0.015326891	-0.17803175	0.3403294	0	881.993782890701
6.3095734	1.3182567e-6	0.11	100.60427	71.328035	-0.05897025	-0.015409001	-0.015319553	-0.16773073	0.31126679	0	882.5756370897707
6.3095734	1.4454398e-6	0.11	92.308118	65.974039	-0.05835178	-0.015409584	-0.015311506	-0.1582816	0.28476161	0	883.1575617468461
6.3095734	1.5848932e-6	0.11	84.742007	61.083056	-0.057733314	-0.015410223	-0.015302684	-0.14960939	0.26058883	0	883.7395627436061
6.3095734	1.7378008e-6	0.11	77.841712	56.61435	-0.057114853	-0.015410925	-0.015293011	-0.14164572	0.23854326	0	884.321646995252
6.3095734	1.9054607e-6	0.11	71.548656	52.530767	-0.056496397	-0.015411694	-0.015282404	-0.13432826	0.21843776	0	884.9038230800148
6.3095734	2.0892961e-6	0.11	65.809417	48.798424	-0.055877946	-0.015412537	-0.015270775	-0.12760014	0.20010164	0	885.4861000928878
6.3095734	2.2908677e-6	0.11	60.575275	45.386418	-0.055259501	-0.015413462	-0.015258025	-0.12140948	0.18337926	0	886.0684873261719
6.3095734	2.5118864e-6	0.11	55.801795	42.266566	-0.054641063	-0.015414476	-0.015244044	-0.11570898	0.16812865	0	886.6509952090425
6.3095734	2.7542287e-6	0.11	51.448457	39.413167	-0.054022632	-0.015415588	-0.015228716	-0.11045551	0.15422035	0	887.2336357303539
6.3095734	3.0199517e-6	0.11	47.478305	36.802778	-0.053404209	-0.015416808	-0.01521191	-0.10560972	0.14153629	0	887.8164214896769
6.3095734	3.3113112e-6	0.11	43.857635	34.414023	-0.052785795	-0.015418146	-0.015193484	-0.10113572	0.12996881	0	888.399366223457
6.3095734	3.6307805e-6	0.11	40.555711	32.227404	-0.05216739	-0.015419613	-0.015173281	-0.097000784	0.11941969	0	888.9824861579879
6.3095734	3.9810717e-6	0.11	37.544504	30.225142	-0.051548996	-0.015421222	-0.015151132	-0.09317506	0.10979938	0	889.565796880659
6.3095734	4.3651583e-6	0.11	34.798451	28.391021	-0.050930613	-0.015422986	-0.015126848	-0.089631321	0.10102623	0	890.1493179250335
6.3095734	4.7863009e-6	0.11	32.294241	26.710253	-0.050312243	-0.015424921	-0.015100225	-0.086344737	0.093025759	0	890.7330684958274
6.3095734	5.2480746e-6	0.11	30.010615	25.169351	-0.049693887	-0.015427043	-0.015071039	-0.083292657	0.085730043	0	891.3170708043657
6.3095734	5.7543994e-6	0.11	27.928187	23.756018	-0.049075546	-0.015429371	-0.015039042	-0.080454423	0.07907715	0	891.9013495424256
6.3095734	6.3095734e-6	0.11	26.02928	22.459036	-0.048457222	-0.015431923	-0.015003966	-0.077811191	0.073010606	0	892.4859305292626
6.3095734	6.9183097e-6	0.11	24.297773	21.268177	-0.047838916	-0.015434723	-0.014965516	-0.075345775	0.067478909	0	893.0708433142075
6.3095734	7.5857758e-6	0.11	22.718967	20.174114	-0.04722063	-0.015437793	-0.01492337	-0.073042495	0.062435099	0	893.6561192975342
6.3095734	8.3176377e-6	0.11	21.279459	19.168341	-0.046602366	-0.015441161	-0.014877175	-0.07088705	0.057836358	0	894.2417930834343
6.3095734	9.1201084e-6	0.11	19.967029	18.243101	-0.045984126	-0.015444855	-0.014826545	-0.068866393	0.053643645	0	894.8279026867222
6.3095734	0.00001	0.11	18.770533	17.391322	-0.045365913	-0.015448906	-0.014771061	-0.06696862	0.049821366	0	895.4144885932684
6.3095734	0.000010964782	0.11	17.679816	16.606554	-0.044747729	-0.01545335	-0.014710262	-0.065182873	0.046337071	0	896.0015965693015
6.3095734	0.000012022644	0.11	16.682069	15.882866	-0.044135834	-0.015470196	-0.014655621	-0.063503044	0.043157028	0	896.5821591760715
6.3095734	0.000013182567	0.11	15.775607	15.214994	-0.043518315	-0.015476678	-0.014583781	-0.061912855	0.040262177	0	897.16978345266
6.3095734	0.000014454398	0.11	14.949494	14.598002	-0.042900892	-0.015483783	-0.014505094	-0.060407527	0.037624148	0	897.7580251834096
6.3095734	0.000015848932	0.11	14.196716	14.027433	-0.042283573	-0.015491572	-0.014418925	-0.058979531	0.035220537	0	898.3469424804372
6.3095734	0.000017378008	0.11	13.510879	13.499225	-0.041666368	-0.015500109	-0.014324585	-0.057621998	0.03303093	0	898.9365971577469
6.3095734	0.000019054607	0.11	12.886157	13.009672	-0.041049289	-0.015509467	-0.014221332	-0.056328655	0.031036725	0	899.5270546278787
6.3095734	0.000020892961	0.11	12.31724	12.5554	-0.040432346	-0.015519724	-0.014108364	-0.055093775	0.029220974	0	900.1183883836343
6.3095734	0.000022908677	0.11	11.799292	12.133329	-0.039815553	-0.015530966	-0.01398482	-0.053912129	0.027568239	0	900.7106742573329
6.3095734	0.000025118864	0.11	11.327907	11.740655	-0.039198924	-0.015543287	-0.01384978	-0.05277894	0.026064458	0	901.303994179073
6.3095734	0.000027542287	0.11	10.89907	11.374821	-0.038582475	-0.015556789	-0.013702263	-0.051689842	0.024696825	0	901.8984345043061
6.3095734	0.000030199517	0.11	10.509125	11.033495	-0.037966221	-0.015571584	-0.013541233	-0.050640848	0.023453676	0	902.4940882124192
6.3095734	0.000033113112	0.11	10.15474	10.714554	-0.037350182	-0.015587797	-0.0133656	-0.049628311	0.022324391	0	903.0910491659909
6.3095734	0.000036307805	0.11	9.8328822	10.41606	-0.036734377	-0.015605561	-0.013174234	-0.048648895	0.021299294	0	903.6894163012519
6.3095734	0.000039810717	0.11	9.5407837	10.136246	-0.036118828	-0.015625023	-0.012965967	-0.047699549	0.020369573	0	904.2892896631215
6.3095734	0.000043651583	0.11	9.2759219	9.8735004	-0.035503558	-0.015646343	-0.012739616	-0.046777483	0.019527193	0	904.890769907235
6.3095734	0.000047863009	0.11	9.0359939	9.626351	-0.034888594	-0.015669697	-0.012494001	-0.045880141	0.018764824	0	905.4939536209108
6.3095734	0.000052480746	0.11	8.8188948	9.3934525	-0.034273963	-0.015695275	-0.012227966	-0.045005183	0.018075772	0	906.0989349110143
6.3095734	0.000057543994	0.11	8.6226972	9.1735739	-0.033659696	-0.015723288	-0.011940411	-0.044150467	0.017453911	0	906.7057983384268
6.3095734	0.000063095734	0.11	8.4456322	8.9655868	-0.033045824	-0.015753963	-0.011630327	-0.043314032	0.016893625	0	907.314619058981
6.3095734	0.000069183097	0.11	8.2860716	8.7684547	-0.032432384	-0.015787548	-0.011296832	-0.042494083	0.01638975	0	907.9254534653886
6.3095734	0.000075857758	0.11	8.1425118	8.5812238	-0.031819414	-0.015824314	-0.010939204	-0.04168898	0.015937519	0	908.5383404744472
6.3095734	0.000083176377	0.11	8.0135585	8.4030138	-0.031206955	-0.015864556	-0.010556929	-0.040897223	0.015532522	0	909.1532946870016
6.3095734	0.000091201084	0.11	7.8979144	8.2330104	-0.030595052	-0.015908596	-0.010149721	-0.040117445	0.015170656	0	909.7703033813374
6.3095734	0.0001	0.11	7.7943677	8.0704586	-0.029983752	-0.015956782	-0.0097175588	-0.0393484	0.014848098	0	910.3893245889493
6.3095734	0.00010964782	0.11	7.7017831	7.9146574	-0.029373106	-0.016009495	-0.009260691	-0.038588959	0.014561269	0	911.0102846986507
6.3095734	0.00012022644	0.11	7.6190949	7.7649551	-0.02876317	-0.016067148	-0.0087796431	-0.037838101	0.014306813	0	911.6330767832065
6.3095734	0.00013182567	0.11	7.5453021	7.6207461	-0.028154001	-0.016130187	-0.0082752032	-0.037094904	0.014081587	0	912.2575658355325
6.3095734	0.00014454398	0.11	7.4794652	7.4814685	-0.027545662	-0.016199099	-0.0077483964	-0.036358544	0.01388264	0	912.8835867166828
6.3095734	0.00015848932	0.11	7.4207047	7.3466023	-0.026938216	-0.016274408	-0.0072004469	-0.035628284	0.013707217	0	913.5109537102913
6.3095734	0.00017378008	0.11	7.3682002	7.2156679	-0.026331733	-0.016356681	-0.0066327358	-0.034903471	0.013552751	0	914.1394583070761
6.3095734	0.00019054607	0.11	7.3211901	7.0882253	-0.025726284	-0.016446532	-0.0060467523	-0.034183529	0.013416862	0	914.7688798858181
6.3095734	0.00020892961	0.11	7.2789717	6.9638726	-0.025121941	-0.016544618	-0.0054440469	-0.033467956	0.013297355	0	915.398990550244
6.3095734	0.00022908677	0.11	7.2409007	6.8422455	-0.024518783	-0.016651648	-0.004826189	-0.032756313	0.013192221	0	916.0295538737663
6.3095734	0.00025118864	0.11	7.20639	6.7230148	-0.023916883	-0.016768379	-0.0041947314	-0.032048222	0.013099628	0	916.6603407828363
6.3095734	0.00027542287	0.11	7.1749091	6.6058857	-0.023316319	-0.01689562	-0.0035511811	-0.031343362	0.013017917	0	917.2911222396085
6.3095734	0.00030199517	0.11	7.1459816	6.4905955	-0.022717167	-0.017034229	-0.002896979	-0.03064146	0.012945598	0	917.921677916948
6.3095734	0.00033113112	0.11	7.1191837	6.3769111	-0.022119498	-0.017185114	-0.002233487	-0.029942285	0.012881335	0	918.5518003503694
6.3095734	0.00036307805	0.11	7.094142	6.264628	-0.02152338	-0.017349232	-0.0015619786	-0.029245648	0.012823944	0	919.1812940304168
6.3095734	0.00039810717	0.11	7.070531	6.1535674	-0.020928873	-0.01752758	-0.00088363542	-0.028551394	0.012772379	0	919.8099804601563
6.3095734	0.00043651583	0.11	7.0480719	6.0435744	-0.020336028	-0.017721192	-0.00019954434	-0.027859395	0.012725729	0	920.4376993903285
6.3095734	0.00047863009	0.11	7.0265303	5.934517	-0.019744885	-0.017931133	0.00048930324	-0.027169552	0.012683207	0	921.0643107749594
6.3095734	0.00052480746	0.11	7.0057151	5.8262839	-0.019155468	-0.018158485	0.0011820139	-0.026481783	0.012644145	0	921.6896997275686
6.3095734	0.00057543994	0.11	6.9854771	5.7187832	-0.018567786	-0.018404336	0.0018777956	-0.025796025	0.012607991	0	922.3137759330007
6.3095734	0.00063095734	0.11	6.9657078	5.6119418	-0.017981828	-0.01866977	0.002575962	-0.025112227	0.012574304	0	922.9364787917331
6.3095734	0.00069183097	0.11	6.9463383	5.5057037	-0.017397561	-0.018955842	0.0032759417	-0.024430348	0.01254275	0	923.5577802539821
6.3095734	0.00075857758	0.11	6.9273375	5.4000293	-0.016814933	-0.01926357	0.0039772843	-0.023750349	0.012513102	0	924.1776826273201
6.3095734	0.00083176377	0.11	6.9087098	5.2948942	-0.016233867	-0.019593915	0.0046796719	-0.023072194	0.01248523	0	924.7962254026186
6.3095734	0.00091201084	0.11	6.8904929	5.1902877	-0.015654265	-0.01994776	0.0053829294	-0.022395846	0.012459103	0	925.4134825603132
6.3095734	0.001	0.11	6.8727535	5.0862118	-0.015076012	-0.020325901	0.0060870332	-0.021721261	0.012434774	0	926.029559711308
6.3095734	0.0010964782	0.11	6.8555837	4.9826787	-0.014498972	-0.020729032	0.0067921187	-0.021048387	0.01241238	0	926.6445986303764
6.3095734	0.0012022644	0.11	6.8390951	4.8797096	-0.013922999	-0.021157737	0.0074984852	-0.020377165	0.012392122	0	927.25876742737
6.3095734	0.0013182567	0.11	6.8234138	4.7773315	-0.013347936	-0.021612481	0.0082065983	-0.01970752	0.012374256	0	927.8722617348278
6.3095734	0.0014454398	0.11	6.8086735	4.6755758	-0.012773625	-0.02209362	0.0089170824	-0.019039367	0.012359076	0	928.4852945371811
6.3095734	0.0015848932	0.11	6.7950093	4.5744748	-0.012199909	-0.022601398	0.0096307175	-0.018372608	0.0123469	0	929.098093960897
6.3095734	0.0017378008	0.11	6.7825507	4.4740593	-0.011626639	-0.023135966	0.010348419	-0.01770713	0.012338046	0	929.7108946098064
6.3095734	0.0019054607	0.11	6.7714152	4.3743563	-0.011053678	-0.023697397	0.011071225	-0.017042809	0.012332819	0	930.3239324942685
6.3095734	0.0020892961	0.11	6.7617021	4.2753861	-0.010480912	-0.02428571	0.011800264	-0.016379511	0.012331491	0	930.9374313576785
6.3095734	0.0022908677	0.11	6.7534854	4.1771597	-0.00990825	-0.024900906	0.012536729	-0.015717092	0.012334278	0	931.5515999996438
6.3095734	0.0025118864	0.11	6.7468084	4.0796768	-0.0093356302	-0.025542991	0.01328184	-0.015055404	0.012341329	0	932.1666225749732
6.3095734	0.0027542287	0.11	6.7416772	3.9829236	-0.0087630279	-0.026212031	0.014036806	-0.014394294	0.0123527	0	932.7826472437265
6.3095734	0.0030199517	0.11	6.738055	3.8868704	-0.0081904583	-0.026908185	0.014802776	-0.013733613	0.012368344	0	933.3997784761754
6.3095734	0.0033113112	0.11	6.7358571	3.7914704	-0.0076179827	-0.02763176	0.015580796	-0.013073216	0.01238809	0	934.0180667833525
6.3095734	0.0036307805	0.11	6.734946	3.6966582	-0.0070457115	-0.028383265	0.01637175	-0.01241297	0.012411633	0	934.6374998005783
6.3095734	0.0039810717	0.11	6.7351303	3.6023497	-0.0064738054	-0.029163458	0.017176314	-0.011752758	0.012438524	0	935.2579964057802
6.3095734	0.0043651583	0.11	6.7361667	3.5084431	-0.0059024728	-0.029973402	0.017994902	-0.011092484	0.012468176	0	935.8794035813455
6.3095734	0.0047863009	0.11	6.7377707	3.4148229	-0.0053319587	-0.030814513	0.01882762	-0.010432078	0.012499883	0	936.5015020890953
6.3095734	0.0052480746	0.11	6.7396359	3.3213661	-0.004762522	-0.031688596	0.019674229	-0.0097714991	0.01253286	0	937.1240239743875
6.3095734	0.0057543994	0.11	6.7414679	3.2279534	-0.0041943984	-0.032597871	0.020534121	-0.0091107371	0.012566317	0	937.7466849435384
6.3095734	0.0063095734	0.11	6.743031	3.1344838	-0.0036277461	-0.033544978	0.021406316	-0.0084498072	0.01259956	0	938.3692350721649
6.3095734	0.0069183097	0.11	6.7442079	3.0408922	-0.003062577	-0.034532956	0.02228948	-0.0077887426	0.012632117	0	938.99152530762
6.3095734	0.0075857758	0.11	6.7450614	2.9471677	-0.0024986797	-0.035565209	0.023181968	-0.00712758	0.012663881	0	939.6135842596685
6.3095734	0.0083176377	0.11	6.7458892	2.8533681	-0.0019355478	-0.036645442	0.024081884	-0.0064663384	0.012695219	0	940.2356917684543
6.3095734	0.0091201084	0.11	6.7472509	2.759625	-0.0013723353	-0.037777589	0.024987156	-0.0058049952	0.012727038	0	940.858428560529
6.3095734	0.01	0.11	6.749915	2.666119	-0.0008078798	-0.038965887	0.025895465	-0.0051434612	0.012760641	0	941.4826471129302
6.3095734	0.010964782	0.11	6.754503	2.57294	-0.00024096269	-0.040215896	0.026803222	-0.004481574	0.012796792	0	942.1091214583845
6.3095734	0.012022644	0.11	6.7599438	2.4794717	0.00032860554	-0.041540256	0.027699819	-0.0038191708	0.012831516	0	942.736933293906
6.3095734	0.013182567	0.11	6.7598394	2.3829117	0.00089771291	-0.042976259	0.028550054	-0.0031564264	0.01284582	0	943.3595205071769
6.3095734	0.014454398	0.11	6.746612	2.2799056	0.0014635928	-0.044583133	0.029296855	-0.0024943202	0.012816198	0	943.9683851618066
6.3095734	0.015848932	0.11	6.72762	2.1732126	0.0020342273	-0.046374087	0.029929228	-0.0018339111	0.012760118	0	944.5698906990195
6.3095734	0.017378008	0.11	6.716574	2.0683002	0.0026206887	-0.048318194	0.030480382	-0.0011750662	0.012714433	0	945.1778724816725
6.3095734	0.019054607	0.11	6.7212536	1.9682079	0.003229016	-0.050386396	0.030981726	-0.00051657176	0.012700766	0	945.8012507338028
6.3095734	0.020892961	0.11	6.744492	1.8739175	0.0038615383	-0.052559352	0.031455025	0.00014328032	0.012727418	0	946.4444632574501
6.3095734	0.022908677	0.11	6.7867397	1.7854614	0.0045187782	-0.054823087	0.031916744	0.00080634422	0.012796463	0	947.1097027632497
6.3095734	0.025118864	0.11	6.8472729	1.7025151	0.0052001265	-0.057164949	0.032382104	0.0014744553	0.012907555	0	947.7979699916513
6.3095734	0.027542287	0.11	6.92452	1.6246672	0.0059037095	-0.0595701	0.032868591	0.0021493359	0.013059654	0	948.5093116954273
6.3095734	0.030199517	0.11	7.0158814	1.55155	0.0066257023	-0.062017817	0.033399649	0.0028325073	0.013251813	0	949.2425571197772
6.3095734	0.033113112	0.11	7.1171015	1.4829249	0.0073590043	-0.06447669	0.0340095	0.0035251622	0.013483622	0	949.9945717055717
6.3095734	0.036307805	0.11	7.2208736	1.4187895	0.0080906309	-0.066896424	0.034751327	0.0042279429	0.013755706	0	950.7586521520084
6.3095734	0.039810717	0.11	7.3133126	1.3596165	0.0087954419	-0.069188983	0.035716148	0.0049404992	0.014070891	0	951.5205845077681
6.3095734	0.043651583	0.11	6.7331484	1.2985158	0.0086190626	-0.070103797	0.038157604	0.0056501616	0.014370237	0	951.6071944497571
6.3095734	0.047863009	0.11	6.2040323	1.2427913	0.0084582028	-0.071335485	0.040384238	0.0062973814	0.014643244	0	951.6861836523578
6.3095734	0.052480746	0.11	5.7214727	1.19197	0.008311497	-0.072868405	0.042414952	0.0068876528	0.014892229	0	951.7582227021514
6.3095734	0.057543994	0.11	5.2813731	1.1456204	0.0081776997	-0.074688677	0.044266985	0.0074259868	0.015119306	0	951.8239230588721
6.3095734	0.063095734	0.11	4.8799976	1.103349	0.008055675	-0.076784041	0.04595606	0.0079169532	0.015326402	0	951.8838424766986
6.3095734	0.069183097	0.11	4.7973497	1.0406098	0.0083732813	-0.080093861	0.046546377	0.0083874582	0.015375587	0	952.243264904979
6.3095734	0.075857758	0.11	4.8636435	0.97632316	0.0088550414	-0.083556488	0.047103264	0.008859918	0.015416336	0	952.7534654921487
6.3095734	0.083176377	0.11	5.0856667	0.91425902	0.0095007023	-0.087000929	0.047801501	0.0093460809	0.015485712	0	953.4322704236802
6.3095734	0.091201084	0.11	5.519908	0.85447866	0.010389155	-0.090438352	0.048633827	0.0098639166	0.015602097	0	954.3530525093595
6.3095734	0.1	0.11	6.2301818	0.7970342	0.011615007	-0.093898353	0.049574669	0.010437301	0.015789719	0	955.6020586525206
6.3095734	0.10964782	0.11	7.2864394	0.74197025	0.013288253	-0.097431465	0.050577643	0.011096677	0.016079316	0	957.2778421740553
6.3095734	0.12022644	0.11	8.7641574	0.68932672	0.015534248	-0.10110972	0.051574992	0.011879612	0.016508728	0	959.4911794541769
6.3095734	0.13182567	0.11	10.745045	0.63914247	0.018494818	-0.10502481	0.052479434	0.012831369	0.017123477	0	962.3663045024975
6.3095734	0.14454398	0.11	13.31955	0.59145946	0.022331189	-0.10928389	0.053188354	0.014005618	0.017977515	0	966.0440941973138
6.3095734	0.15848932	0.11	16.591041	0.54632646	0.02722882	-0.11400356	0.053589833	0.015465493	0.019134303	0	970.6872323152863
6.3095734	0.17378008	0.11	20.680739	0.50380141	0.033403371	-0.11930266	0.053569867	0.017285092	0.020668329	0	976.4865629568986
6.3095734	0.19054607	0.11	25.731673	0.46395118	0.041106	-0.12529434	0.053020277	0.019551446	0.022667072	0	983.6668849399261
6.3095734	0.20892961	0.11	31.909357	0.42684749	0.050625362	-0.13207762	0.05184717	0.022366722	0.025233181	0	992.4897044534381
6.3095734	0.22908677	0.11	39.396725	0.39255818	0.062283245	-0.13972844	0.049979893	0.025850235	0.028486427	0	1003.2500602101065
6.3095734	0.25118864	0.11	48.381499	0.3611339	0.076421282	-0.14829058	0.047380122	0.030139605	0.03256477	0	1016.2649778698757
6.3095734	0.27542287	0.11	59.035851	0.33259182	0.093377953	-0.15776768	0.044049844	0.035390286	0.037623779	0	1031.8526868732122
6.3095734	0.30199517	0.11	71.491064	0.30689998	0.11345834	-0.1681184	0.040036176	0.041772817	0.043833778	0	1050.3047013412902
6.3095734	0.33113112	0.11	85.812945	0.28396677	0.1369028	-0.17925718	0.035430667	0.049467577	0.051374533	0	1071.8563141724446
6.3095734	0.36307805	0.11	101.98522	0.26363958	0.16386278	-0.19106175	0.03036174	0.058657461	0.060427911	0	1096.6630925183413
6.3095734	0.39810717	0.11	119.90649	0.24571364	0.19439074	-0.20338678	0.024981078	0.069519557	0.071169626	0	1124.790002747248
6.3095734	0.43651583	0.11	139.40176	0.22994848	0.22844645	-0.2160806	0.019446889	0.082217257	0.083761457	0	1156.215597288174
6.3095734	0.47863009	0.11	160.2447	0.21608756	0.26591615	-0.2290012	0.01390794	0.096894079	0.098345198	0	1190.8483665819292
6.3095734	0.52480746	0.11	182.18393	0.20387625	0.30663819	-0.24202825	0.0084915128	0.11366991	0.11503902	0	1228.5495847422721
6.3095734	0.57543994	0.11	204.9672	0.19307528	0.35042822	-0.25506983	0.0032967055	0.13263977	0.13393635	0	1269.156284902442
6.3095734	0.63095734	0.11	228.35979	0.18346903	0.39709983	-0.26806408	-0.0016072315	0.1538747	0.15510677	0	1312.5004798659393
6.3095734	0.69183097	0.11	252.1559	0.17486915	0.4464788	-0.28097714	-0.0061788013	0.17742408	0.1785984	0	1358.4227673529183
6.3095734	0.75857758	0.11	276.18416	0.16711481	0.49841162	-0.29379884	-0.010399983	0.20331876	0.20444101	0	1406.780777185954
6.3095734	0.83176377	0.11	300.30849	0.16007095	0.55276929	-0.30653761	-0.014271097	0.23157456	0.2326495	0	1457.4532723208558
6.3095734	0.91201084	0.11	324.42616	0.15362546	0.6094481	-0.31921542	-0.01780574	0.26219559	0.26322725	0	1510.341405186473
6.3095734	1.	0.11	348.46432	0.147686	0.66836853	-0.3318633	-0.021026337	0.29517742	0.29616919	0	1565.368143873347
6.3095734	1.0964782	0.11	372.3758	0.14217689	0.72947311	-0.34451777	-0.023960523	0.33050972	0.3314645	0	1622.4766354230837
6.3095734	1.2022644	0.11	396.135	0.13703628	0.79272407	-0.35721809	-0.026638386	0.36817869	0.36909894	0	1681.6282827917667
6.3095734	1.3182567	0.11	419.73391	0.13221362	0.85810081	-0.37000427	-0.029090496	0.40816885	0.40905672	0	1742.800571456783
6.3095734	1.4454398	0.11	443.17867	0.12766761	0.92559762	-0.38291578	-0.031346572	0.45046471	0.45132205	0	1805.985064976294
6.3095734	1.5848932	0.11	466.4866	0.1233644	0.99522164	-0.39599068	-0.033434651	0.49505192	0.49588036	0	1871.1855741615902
6.3095734	1.7378008	0.11	489.68361	0.11927621	1.0669911	-0.40926525	-0.035380635	0.54191827	0.54271926	0	1938.4165502606152
6.3095734	1.9054607	0.11	512.8022	0.11538007	1.140934	-0.42277373	-0.037208089	0.59105444	0.59182927	0	2007.701865608847
6.3095734	2.0892961	0.11	535.87976	0.11165698	1.2170863	-0.43654833	-0.038938219	0.64245454	0.64320436	0	2079.073115289763
6.3095734	2.2908677	0.11	558.95718	0.10809107	1.2954918	-0.45061934	-0.040589958	0.69611652	0.6968424	0	2152.5694954987066
6.3095734	2.5118864	0.11	582.07782	0.10466905	1.3762005	-0.46501528	-0.042180124	0.75204249	0.75274539	0	2228.2362463260733
6.3095734	2.7542287	0.11	605.28664	0.10137966	1.4592683	-0.47976311	-0.043723598	0.81023887	0.81091968	0	2306.1243514910107
6.3095734	3.0199517	0.11	628.62957	0.098213338	1.5447565	-0.49488842	-0.045233526	0.87071656	0.8713761	0	2386.2900476816035
6.3095734	3.3113112	0.11	652.15297	0.095161879	1.632731	-0.51041565	-0.04672151	0.93349096	0.93413001	0	2468.794053162325
6.3095734	3.6307805	0.11	675.90333	0.092218181	1.7232625	-0.52636828	-0.048197801	0.99858205	0.99920133	0	2553.701735740137
6.3095734	3.9810717	0.11	699.92694	0.089376054	1.8164258	-0.54276901	-0.049671459	1.0660143	1.0666145	0	2641.082438532392
6.3095734	4.3651583	0.11	724.26971	0.086630052	1.9122996	-0.55963995	-0.05115052	1.1358169	1.1363987	0	2731.009274793947
6.3095734	4.7863009	0.11	748.97708	0.083975347	2.0109666	-0.57700277	-0.052642127	1.2080232	1.2085871	0	2823.559208334565
6.3095734	5.2480746	0.11	774.0939	0.081407618	2.1125131	-0.59487878	-0.054152657	1.2826712	1.2832179	0	2918.8126645670454
6.3095734	5.7543994	0.11	799.66442	0.078922971	2.2170293	-0.61328915	-0.055687833	1.3598033	1.3603333	0	3016.8538008013825
6.3095734	6.3095734	0.11	825.73228	0.076517869	2.3246087	-0.63225493	-0.057252809	1.439466	1.4399798	0	3117.7699337206227
6.3095734	6.9183097	0.11	852.34052	0.074189074	2.4353486	-0.65179721	-0.058852265	1.5217102	1.5222084	0	3221.651999345078
6.3095734	7.5857758	0.11	879.53166	0.071933601	2.5493497	-0.67193717	-0.060490473	1.6065909	1.607074	0	3328.594170384945
6.3095734	8.3176377	0.11	907.34769	0.069748686	2.6667164	-0.69269618	-0.062171359	1.6941675	1.6946359	0	3438.694131702071
6.3095734	9.1201084	0.11	935.83017	0.067631749	2.7875565	-0.71409586	-0.063898564	1.7845031	1.7849572	0	3552.0527921358675
6.3095734	10.	0.11	965.02032	0.065580371	2.9119817	-0.73615815	-0.065675486	1.8776651	1.8781055	0	3668.7747499451943