6.3095734	1.e-12	0.57	1.2429922e8	7.88359e7	-0.1584873	0.00052998509	0.00052998544	-132294.54	397121.43	0	790.9400093995391
6.3095734	1.0964782e-12	0.57	1.1336224e8	7.1899198e7	-0.15786879	0.00052998529	0.00052998567	-120654.07	362179.05	0	791.5211400873447
6.3095734	1.2022644e-12	0.57	1.0338759e8	6.557285e7	-0.15725028	0.00052998514	0.00052998556	-110037.84	330311.22	0	792.1022705930625
6.3095734	1.3182567e-12	0.57	9.4290603e7	5.9803152e7	-0.15663176	0.00052998494	0.0005299854	-100355.71	301247.41	0	792.6834104676561
6.3095734	1.4454398e-12	0.57	8.5994053e7	5.4541125e7	-0.15601325	0.00052998524	0.00052998575	-91525.512	274740.91	0	793.264541219728
6.3095734	1.5848932e-12	0.57	7.8427509e7	4.9742099e7	-0.15539474	0.00052998504	0.0005299856	-83472.272	250566.69	0	793.8456717040235
6.3095734	1.7378008e-12	0.57	7.1526739e7	4.5365336e7	-0.15477622	0.00052998519	0.0005299858	-76127.631	228519.54	0	794.4268117714162
6.3095734	1.9054607e-12	0.57	6.5233162e7	4.137368e7	-0.15415771	0.00052998509	0.00052998576	-69429.238	208412.29	0	795.0079423146224
6.3095734	2.0892961e-12	0.57	5.9493351e7	3.7733247e7	-0.1535392	0.00052998524	0.00052998597	-63320.231	190074.27	0	795.5890729917169
6.3095734	2.2908677e-12	0.57	5.4258582e7	3.4413133e7	-0.15292069	0.00052998504	0.00052998585	-57748.751	173349.8	0	796.1702034920793
6.3095734	2.5118864e-12	0.57	4.9484415e7	3.1385152e7	-0.15230217	0.00052998519	0.00052998607	-52667.5	158096.89	0	796.7513435701826
6.3095734	2.7542287e-12	0.57	4.5130323e7	2.8623601e7	-0.15168366	0.00052998499	0.00052998596	-48033.344	144186.08	0	797.3324740759004
6.3095734	3.0199517e-12	0.57	4.1159345e7	2.6105036e7	-0.15106515	0.00052998529	0.00052998635	-43806.944	131499.27	0	797.9136048493942
6.3095734	3.3113112e-12	0.57	3.7537769e7	2.3808078e7	-0.15044664	0.00052998509	0.00052998625	-39952.421	119928.76	0	798.4947353604675
6.3095734	3.6307805e-12	0.57	3.4234853e7	2.1713227e7	-0.14982812	0.00052998524	0.00052998651	-36437.054	109376.33	0	799.0758754599931
6.3095734	3.9810717e-12	0.57	3.1222557e7	1.9802701e7	-0.14920961	0.00052998504	0.00052998644	-33231.001	99752.4	0	799.6570059871331
6.3095734	4.3651583e-12	0.57	2.8475311e7	1.806028e7	-0.1485911	0.00052998519	0.00052998672	-30307.047	90975.271	0	800.2381367017161
6.3095734	4.7863009e-12	0.57	2.5969793e7	1.6471173e7	-0.14797258	0.00052998499	0.00052998667	-27640.368	82970.434	0	800.8192766352204
6.3095734	5.2480746e-12	0.57	2.3684733e7	1.5021891e7	-0.14735407	0.00052998514	0.00052998699	-25208.328	75669.936	0	801.4004073712257
6.3095734	5.7543994e-12	0.57	2.1600734e7	1.3700129e7	-0.14673556	0.00052998521	0.00052998724	-22990.281	69011.803	0	801.9815380697423
6.3095734	6.3095734e-12	0.57	1.9700104e7	1.2494668e7	-0.14611705	0.00052998502	0.00052998723	-20967.399	62939.513	0	802.5626686290152
6.3095734	6.9183097e-12	0.57	1.7966709e7	1.1395275e7	-0.14549853	0.00052998517	0.0005299876	-19122.508	57401.519	0	803.1438087874515
6.3095734	7.5857758e-12	0.57	1.6385834e7	1.0392616e7	-0.14488002	0.00052998507	0.00052998773	-17439.947	52350.808	0	803.7249394217018
6.3095734	8.3176377e-12	0.57	1.4944059e7	9.4781806e6	-0.14426151	0.00052998521	0.00052998814	-15905.433	47744.505	0	804.3060702059068
6.3095734	9.1201084e-12	0.57	1.3629144e7	8.6442055e6	-0.14364299	0.00052998502	0.00052998822	-14505.94	43543.507	0	804.8872102090329
6.3095734	1.e-11	0.57	1.2429928e7	7.883611e6	-0.14302448	0.00052998516	0.00052998868	-13229.587	39712.151	0	805.4683410200155
6.3095734	1.0964782e-11	0.57	1.1336229e7	7.1899407e6	-0.14240597	0.00052998507	0.00052998892	-12065.54	36217.913	0	806.0494717131766
6.3095734	1.2022644e-11	0.57	1.0338765e7	6.5573059e6	-0.14178746	0.00052998521	0.00052998944	-11003.915	33031.131	0	806.6306025562922
6.3095734	1.3182567e-11	0.57	9.429066e6	5.980336e6	-0.14116894	0.00052998502	0.00052998965	-10035.703	30124.75	0	807.2117426290401
6.3095734	1.4454398e-11	0.57	8.5994109e6	5.4541332e6	-0.14055043	0.00052998516	0.00052999025	-9152.6819	27474.099	0	807.7928735150001
6.3095734	1.5848932e-11	0.57	7.8427566e6	4.9742306e6	-0.13993192	0.00052998507	0.00052999064	-8347.3574	25056.677	0	808.3740042884939
6.3095734	1.7378008e-11	0.57	7.1526796e6	4.5365542e6	-0.1393134	0.00052998521	0.00052999132	-7612.8927	22851.962	0	808.9551446129515
6.3095734	1.9054607e-11	0.57	6.5233218e6	4.1373885e6	-0.13869489	0.00052998502	0.00052999172	-6943.0528	20841.238	0	809.5362753918008
6.3095734	2.0892961e-11	0.57	5.9493408e6	3.7733451e6	-0.13807638	0.00052998517	0.00052999251	-6332.1516	19007.436	0	810.1174063795156
6.3095734	2.2908677e-11	0.57	5.4258638e6	3.4413336e6	-0.13745787	0.00052998507	0.00052999312	-5775.003	17334.988	0	810.698537270831
6.3095734	2.5118864e-11	0.57	4.9484472e6	3.1385354e6	-0.13683935	0.00052998502	0.00052999385	-5266.8774	15809.698	0	811.2796776220662
6.3095734	2.7542287e-11	0.57	4.513038e6	2.8623802e6	-0.13622084	0.00052998517	0.00052999485	-4803.4612	14418.617	0	811.8608087222469
6.3095734	3.0199517e-11	0.57	4.1159401e6	2.6105237e6	-0.13560233	0.00052998507	0.00052999569	-4380.8206	13149.936	0	812.4419397367392
6.3095734	3.3113112e-11	0.57	3.7537826e6	2.3808278e6	-0.13498382	0.00052998521	0.00052999686	-3995.3678	11992.885	0	813.023070927964
6.3095734	3.6307805e-11	0.57	3.423491e6	2.1713426e6	-0.1343653	0.00052998502	0.00052999778	-3643.8306	10937.642	0	813.604211380954
6.3095734	3.9810717e-11	0.57	3.1222614e6	1.9802899e6	-0.13374679	0.00052998516	0.00052999916	-3323.2247	9975.2484	0	814.1853426846445
6.3095734	4.3651583e-11	0.57	2.8475368e6	1.8060477e6	-0.13312828	0.00052998524	0.00053000058	-3030.8287	9097.5355	0	814.7664740097573
6.3095734	4.7863009e-11	0.57	2.596985e6	1.6471369e6	-0.13250976	0.00052998514	0.00053000197	-2764.1603	8297.0518	0	815.3476147144569
6.3095734	5.2480746e-11	0.57	2.368479e6	1.5022086e6	-0.13189125	0.00052998521	0.00053000367	-2520.9557	7567.0021	0	815.9287461895243
6.3095734	5.7543994e-11	0.57	2.1600791e6	1.3700324e6	-0.13127274	0.00052998525	0.00053000548	-2299.1505	6901.1887	0	816.5098777235023
6.3095734	6.3095734e-11	0.57	1.9700161e6	1.2494862e6	-0.13065423	0.00052998505	0.00053000724	-2096.8617	6293.9597	0	817.0910092307029
6.3095734	6.9183097e-11	0.57	1.7966766e6	1.1395468e6	-0.13003571	0.0005299852	0.00053000953	-1912.372	5740.1603	0	817.6721504173995
6.3095734	7.5857758e-11	0.57	1.6385891e6	1.0392808e6	-0.1294172	0.0005299851	0.00053001178	-1744.1154	5235.0893	0	818.2532821870204
6.3095734	8.3176377e-11	0.57	1.4944116e6	947837.21	-0.12879869	0.00052998525	0.0005300145	-1590.6635	4774.459	0	818.8344142083511
6.3095734	9.1201084e-11	0.57	1.3629201e6	864439.61	-0.12818017	0.00052998506	0.00053001712	-1450.7136	4354.3592	0	819.4155555717799
6.3095734	1.e-10	0.57	1.2429985e6	788380.09	-0.12756166	0.0005299852	0.00053002037	-1323.0778	3971.2236	0	819.9966878769533
6.3095734	1.0964782e-10	0.57	1.1336286e6	719012.98	-0.12694315	0.00052998528	0.00053002383	-1206.6724	3621.7998	0	820.5778202945926
6.3095734	1.2022644e-10	0.57	1.0338821e6	655749.4	-0.12632464	0.00052998508	0.00053002735	-1100.5095	3303.1215	0	821.158952744365
6.3095734	1.3182567e-10	0.57	942912.28	598052.34	-0.12570612	0.00052998538	0.00053003173	-1003.6876	3012.4834	0	821.7400950503659
6.3095734	1.4454398e-10	0.57	859946.77	545431.97	-0.12508761	0.00052998518	0.000530036	-915.38499	2747.4184	0	822.3212279018023
6.3095734	1.5848932e-10	0.57	784281.33	497441.62	-0.1244691	0.00052998533	0.00053004105	-834.85198	2505.6761	0	822.9023611709698
6.3095734	1.7378008e-10	0.57	715273.63	453673.9	-0.12385059	0.00052998513	0.00053004623	-761.40496	2285.2046	0	823.4834945097591
6.3095734	1.9054607e-10	0.57	652337.86	413757.25	-0.12323207	0.00052998528	0.00053005228	-694.42042	2084.1322	0	824.064637710132
6.3095734	2.0892961e-10	0.57	594939.76	377352.83	-0.12261356	0.00052998535	0.00053005882	-633.32974	1900.752	0	824.6457717772723
6.3095734	2.2908677e-10	0.57	542592.06	344151.59	-0.12199505	0.00052998526	0.0005300658	-577.61432	1733.5072	0	825.2269060800554
6.3095734	2.5118864e-10	0.57	494850.39	313871.69	-0.12137653	0.0005299854	0.00053007372	-526.8012	1580.9782	0	825.8080502819113
6.3095734	2.7542287e-10	0.57	451309.48	286256.09	-0.12075802	0.00052998531	0.00053008215	-480.45903	1441.8701	0	826.3891853612453
6.3095734	3.0199517e-10	0.57	411599.69	261070.36	-0.12013951	0.00052998545	0.00053009164	-438.19442	1315.002	0	826.9703210082646
6.3095734	3.3113112e-10	0.57	375383.94	238100.68	-0.119521	0.00052998526	0.00053010169	-399.64857	1199.2969	0	827.5514569551933
6.3095734	3.6307805e-10	0.57	342354.77	217152.08	-0.11890248	0.00052998555	0.00053011321	-364.49429	1093.7726	0	828.1326030850371
6.3095734	3.9810717e-10	0.57	312231.82	198046.73	-0.11828397	0.00052998536	0.00053012534	-332.43315	997.53328	0	828.7137401459145
6.3095734	4.3651583e-10	0.57	284759.36	180622.43	-0.11766546	0.0005299855	0.00053013899	-303.19299	909.76199	0	829.2948780208312
6.3095734	4.7863009e-10	0.57	259704.18	164731.27	-0.11704695	0.00052998541	0.0005301537	-276.52559	829.71362	0	829.8760164634332
6.3095734	5.2480746e-10	0.57	236853.58	150238.35	-0.11642843	0.00052998556	0.00053017009	-252.20459	756.70864	0	830.4571652014166
6.3095734	5.7543994e-10	0.57	216013.59	137020.64	-0.11580992	0.00052998563	0.00053018796	-230.02351	690.12731	0	831.0383053363637
6.3095734	6.3095734e-10	0.57	197007.29	124965.94	-0.11519141	0.00052998553	0.00053020739	-209.79407	629.40441	0	831.6194463067725
6.3095734	6.9183097e-10	0.57	179673.34	113971.92	-0.1145729	0.00052998583	0.00053022909	-191.34454	574.02447	0	832.2005884928849
6.3095734	7.5857758e-10	0.57	163864.59	103945.24	-0.11395438	0.00052998564	0.00053025236	-174.51833	523.51736	0	832.7817409154676
6.3095734	8.3176377e-10	0.57	149446.83	94800.796	-0.11333587	0.00052998579	0.00053027824	-159.17258	477.45433	0	833.3628853401883
6.3095734	9.1201084e-10	0.57	136297.69	86460.953	-0.11271736	0.00052998594	0.00053030661	-145.17703	435.44435	0	833.9440310984342
6.3095734	1.e-9	0.57	124305.52	78854.918	-0.11209884	0.00052998601	0.00053033762	-132.41289	397.13079	0	834.5251876661914
6.3095734	1.0964782e-9	0.57	113368.54	71918.123	-0.11148033	0.00052998592	0.00053037145	-120.7718	362.18841	0	835.1063363485525
6.3095734	1.2022644e-9	0.57	103393.89	65591.684	-0.11086182	0.00052998621	0.00053040894	-110.15495	330.32058	0	835.6874869910349
6.3095734	1.3182567e-9	0.57	94296.907	59821.894	-0.11024331	0.00052998612	0.00053044963	-100.47221	301.25678	0	836.2686393472845
6.3095734	1.4454398e-9	0.57	86000.356	54559.775	-0.10962479	0.00052998642	0.00053049465	-91.641387	274.75027	0	836.8498034181287
6.3095734	1.5848932e-9	0.57	78433.812	49760.657	-0.10900628	0.00052998632	0.00053054359	-83.58753	250.57605	0	837.4309601926842
6.3095734	1.7378008e-9	0.57	71533.042	45383.801	-0.10838777	0.00052998662	0.00053059765	-76.24227	228.5289	0	838.0121197092674
6.3095734	1.9054607e-9	0.57	65239.465	41392.054	-0.10776926	0.00052998677	0.00053065675	-69.54326	208.42166	0	838.5932819250338
6.3095734	2.0892961e-9	0.57	59499.655	37751.529	-0.10715075	0.00052998693	0.00053072154	-63.433635	190.08364	0	839.1744471880927
6.3095734	2.2908677e-9	0.57	54264.885	34431.322	-0.10653223	0.00052998708	0.00053079257	-57.861536	173.35916	0	839.7556251886508
6.3095734	2.5118864e-9	0.57	49490.718	31403.249	-0.10591372	0.00052998723	0.00053087043	-52.779668	158.10626	0	840.3367974513775
6.3095734	2.7542287e-9	0.57	45136.627	28641.606	-0.10529521	0.00052998738	0.0005309558	-48.144894	144.19545	0	840.9179737361017
6.3095734	3.0199517e-9	0.57	41165.648	26122.95	-0.1046767	0.00052998769	0.00053104953	-43.917876	131.50863	0	841.4991544980423
6.3095734	3.3113112e-9	0.57	37544.073	23825.9	-0.10405819	0.00052998799	0.00053115228	-40.062735	119.93813	0	842.0803400906645
6.3095734	3.6307805e-9	0.57	34241.156	21730.957	-0.10343967	0.00052998814	0.00053126476	-36.54675	109.3857	0	842.6615402898635
6.3095734	3.9810717e-9	0.57	31228.861	19820.338	-0.10282116	0.00052998845	0.00053138823	-33.34008	99.761765	0	843.2427369791283
6.3095734	4.3651583e-9	0.57	28481.615	18077.825	-0.10220265	0.00052998875	0.00053152358	-30.415507	90.984635	0	843.8239400307539
6.3095734	4.7863009e-9	0.57	25976.097	16488.627	-0.10158414	0.00052998906	0.00053167197	-27.74821	82.979798	0	844.4051500659805
6.3095734	5.2480746e-9	0.57	23691.037	15039.252	-0.10096563	0.00052998937	0.00053183464	-25.315553	75.679301	0	844.9863677488934
6.3095734	5.7543994e-9	0.57	21607.038	13717.398	-0.10034712	0.00052998997	0.00053201327	-23.096888	69.021168	0	845.5675939792203
6.3095734	6.3095734e-9	0.57	19706.408	12511.846	-0.099728605	0.00052999028	0.00053220878	-21.073387	62.948878	0	846.1488339474959
6.3095734	6.9183097e-9	0.57	17973.013	11412.36	-0.099110094	0.00052999088	0.00053242343	-19.227879	57.410884	0	846.73008040798
6.3095734	7.5857758e-9	0.57	16392.138	10409.61	-0.098491583	0.00052999149	0.00053265872	-17.5447	52.360174	0	847.3113379222627
6.3095734	8.3176377e-9	0.57	14950.363	9495.0821	-0.097873073	0.0005299921	0.00053291666	-16.009568	47.753871	0	847.8926066272384
6.3095734	9.1201084e-9	0.57	13635.448	8661.015	-0.097254562	0.00052999271	0.00053319943	-14.609457	43.552873	0	848.4738895695418
6.3095734	1.e-8	0.57	12436.232	7900.3286	-0.096636052	0.00052999332	0.00053350942	-13.332486	39.721517	0	849.0551861500122
6.3095734	1.0964782e-8	0.57	11342.534	7206.5663	-0.096017542	0.00052999423	0.00053384955	-12.167821	36.22728	0	849.6364988720272
6.3095734	1.2022644e-8	0.57	10345.069	6573.8394	-0.095399033	0.00052999484	0.00053422213	-11.105578	33.040497	0	850.2178280331476
6.3095734	1.3182567e-8	0.57	9435.3705	5996.7776	-0.094780523	0.00052999605	0.00053463118	-10.136747	30.134117	0	850.7991776654237
6.3095734	1.4454398e-8	0.57	8605.7156	5470.4828	-0.094162014	0.00052999697	0.00053507928	-9.2531088	27.483467	0	851.3805472714499
6.3095734	1.5848932e-8	0.57	7849.0613	4990.4882	-0.093543506	0.00052999818	0.00053557083	-8.4471663	25.066045	0	851.9619392076559
6.3095734	1.7378008e-8	0.57	7158.9844	4552.7198	-0.092924998	0.0005299994	0.00053610969	-7.7120835	22.86133	0	852.5433564808388
6.3095734	1.9054607e-8	0.57	6529.6269	4153.4622	-0.09230649	0.00053000092	0.00053670071	-7.0416256	20.850607	0	853.1248016884272
6.3095734	2.0892961e-8	0.57	5955.646	3789.3268	-0.091687983	0.00053000229	0.00053734847	-6.4301063	19.016805	0	853.7062763436849
6.3095734	2.2908677e-8	0.57	5432.1692	3457.2233	-0.091069476	0.00053000396	0.00053805888	-5.8723396	17.344358	0	854.2877845512908
6.3095734	2.5118864e-8	0.57	4954.7528	3154.3333	-0.09045097	0.00053000579	0.00053883783	-5.3635959	15.819069	0	854.8693285260827
6.3095734	2.7542287e-8	0.57	4519.3438	2878.0861	-0.089832465	0.00053000762	0.00053969176	-4.8995616	14.427988	0	855.4509117170169
6.3095734	3.0199517e-8	0.57	4122.2462	2626.1377	-0.08921396	0.00053001005	0.0005406285	-4.4763028	13.159308	0	856.0325392570328
6.3095734	3.3113112e-8	0.57	3760.0889	2396.3498	-0.088595456	0.00053001218	0.00054165508	-4.0902318	12.002258	0	856.6142139714975
6.3095734	3.6307805e-8	0.57	3429.7976	2186.7728	-0.087976953	0.00053001492	0.0005427811	-3.7380764	10.947016	0	857.1959410017125
6.3095734	3.9810717e-8	0.57	3128.5684	1995.6281	-0.087358451	0.0005300178	0.00054401564	-3.4168523	9.9846235	0	857.7777252104922
6.3095734	4.3651583e-8	0.57	2853.8441	1821.2941	-0.086739949	0.00053002085	0.00054536918	-3.123838	9.1069118	0	858.3595731499897
6.3095734	4.7863009e-8	0.57	2603.2927	1662.2914	-0.08612145	0.0005300245	0.0005468536	-2.8565513	8.3064293	0	858.9414883638697
6.3095734	5.2480746e-8	0.57	2374.7872	1517.2712	-0.085502951	0.00053002815	0.00054848089	-2.6127284	7.5763809	0	859.5234800920994
6.3095734	5.7543994e-8	0.57	2166.3877	1385.0031	-0.084884453	0.0005300324	0.00055026543	-2.3903047	6.9105691	0	860.1055550963549
6.3095734	6.3095734e-8	0.57	1976.3252	1264.3651	-0.084265957	0.00053003696	0.00055222203	-2.1873975	6.3033418	0	860.6877203686
6.3095734	6.9183097e-8	0.57	1802.9863	1154.3338	-0.083647463	0.00053004183	0.00055436727	-2.0022893	5.7495442	0	861.2699847882906
6.3095734	7.5857758e-8	0.57	1644.8994	1053.9761	-0.08302897	0.0005300473	0.00055671961	-1.8334141	5.2444751	0	861.8523591812868
6.3095734	8.3176377e-8	0.57	1500.7226	962.44064	-0.08241048	0.00053005338	0.00055929897	-1.6793436	4.783847	0	862.4348523366584
6.3095734	9.1201084e-8	0.57	1369.2318	878.95127	-0.081791991	0.00053006007	0.00056212721	-1.538775	4.3637496	0	863.0174778407088
6.3095734	1.e-7	0.57	1249.311	802.8	-0.081173505	0.00053006736	0.00056522827	-1.4105204	3.9806166	0	863.6002466354277
6.3095734	1.0964782e-7	0.57	1139.9421	733.34116	-0.080555022	0.00053007497	0.00056862812	-1.2934963	3.6311957	0	864.1831726291073
6.3095734	1.2022644e-7	0.57	1040.1966	669.98589	-0.079936541	0.00053008378	0.00057235644	-1.1867143	3.3125205	0	864.7662726565034
6.3095734	1.3182567e-7	0.57	949.22779	612.19715	-0.079318064	0.00053009321	0.00057644421	-1.0892734	3.0218859	0	865.3495614298944
6.3095734	1.4454398e-7	0.57	866.26347	559.48516	-0.078699589	0.00053010384	0.00058092666	-1.0003517	2.7568247	0	865.9330596959164
6.3095734	1.5848932e-7	0.57	790.59933	511.40321	-0.078081119	0.00053011509	0.00058584114	-0.91919939	2.5150866	0	866.5167846387501
6.3095734	1.7378008e-7	0.57	721.59305	467.54393	-0.077462653	0.00053012785	0.00059123016	-0.84513295	2.2946197	0	867.1007599642867
6.3095734	1.9054607e-7	0.57	658.65883	427.53577	-0.076844191	0.00053014153	0.00059713876	-0.77752886	2.0935523	0	867.6850097937997
6.3095734	2.0892961e-7	0.57	601.26244	391.03988	-0.076225734	0.00053015642	0.00060361728	-0.71581847	1.9101775	0	868.2695601474243
6.3095734	2.2908677e-7	0.57	548.91662	357.74723	-0.075607282	0.00053017313	0.00061072116	-0.65948316	1.7429388	0	868.8544407161766
6.3095734	2.5118864e-7	0.57	501.17701	327.37598	-0.074988837	0.00053019136	0.00061851026	-0.60804996	1.5904164	0	869.4396816790838
6.3095734	2.7542287e-7	0.57	457.63834	299.66908	-0.074370397	0.00053021111	0.00062705051	-0.5610875	1.4513155	0	870.0253202242367
6.3095734	3.0199517e-7	0.57	417.93103	274.39213	-0.073751965	0.00053023298	0.00063641482	-0.51820236	1.3244553	0	870.6113925800532
6.3095734	3.3113112e-7	0.57	381.71797	251.33131	-0.073133541	0.00053025668	0.00064668215	-0.47903574	1.2087589	0	871.1979410337395
6.3095734	3.6307805e-7	0.57	348.69178	230.29165	-0.072515125	0.0005302831	0.00065794031	-0.44326041	1.1032441	0	871.7850126121384
6.3095734	3.9810717e-7	0.57	318.57208	211.09532	-0.071896719	0.00053031195	0.00067028426	-0.41057791	1.0070153	0	872.3726562921606
6.3095734	4.3651583e-7	0.57	291.10319	193.58015	-0.071278323	0.00053034324	0.00068381845	-0.38071606	0.91925543	0	872.960928012239
6.3095734	4.7863009e-7	0.57	266.05192	177.59823	-0.070659938	0.00053037786	0.00069865828	-0.3534266	0.83921962	0	873.5498886355374
6.3095734	5.2480746e-7	0.57	243.20562	163.01467	-0.070041566	0.00053041581	0.00071492925	-0.32848313	0.76622841	0	874.1396034947327
6.3095734	5.7543994e-7	0.57	222.37033	149.70646	-0.069423207	0.00053045741	0.00073276924	-0.30567914	0.69966218	0	874.7301464317688
6.3095734	6.3095734e-7	0.57	203.36919	137.56139	-0.068804863	0.00053050295	0.00075232933	-0.28482632	0.63895584	0	875.3215964787493
6.3095734	6.9183097e-7	0.57	186.04089	126.47716	-0.068186535	0.00053055288	0.00077377523	-0.26575288	0.58359406	0	875.9140414424717
6.3095734	7.5857758e-7	0.57	170.23834	116.36045	-0.067568226	0.00053060752	0.00079728835	-0.24830217	0.53310685	0	876.5075756587735
6.3095734	8.3176377e-7	0.57	155.82738	107.12617	-0.066949935	0.00053066761	0.00082306787	-0.23233129	0.48706564	0	877.1023067385173
6.3095734	9.1201084e-7	0.57	142.68569	98.696695	-0.066331667	0.00053073346	0.00085133152	-0.21770991	0.44507959	0	877.6983465896678
6.3095734	1.e-6	0.57	130.70169	91.001259	-0.065713422	0.00053080599	0.00088231834	-0.20431918	0.40679226	0	878.2958232306345
6.3095734	1.0964782e-6	0.57	119.77366	83.975313	-0.065095202	0.00053088487	0.00091628886	-0.19205065	0.37187862	0	878.894874309714
6.3095734	1.2022644e-6	0.57	109.80883	77.559997	-0.064477012	0.00053097164	0.00095353019	-0.18080545	0.3400423	0	879.4956488914863
6.3095734	1.3182567e-6	0.57	100.7226	71.701632	-0.063858852	0.00053106719	0.00099435585	-0.17049334	0.31101304	0	880.0983148822928
6.3095734	1.4454398e-6	0.57	92.437845	66.351267	-0.063240727	0.00053117153	0.0010391079	-0.16103206	0.28454439	0	880.7030507753088
6.3095734	1.5848932e-6	0.57	84.884224	61.464265	-0.062622638	0.00053128585	0.0010881618	-0.15234653	0.26041166	0	881.3100567094166
6.3095734	1.7378008e-6	0.57	77.997616	56.999919	-0.062004591	0.00053141139	0.0011419278	-0.14436827	0.23840998	0	881.9195467575348
6.3095734	1.9054607e-6	0.57	71.719556	52.921112	-0.061386589	0.00053154903	0.0012008538	-0.1370348	0.21835256	0	882.5317579748194
6.3095734	2.0892961e-6	0.57	65.996745	49.193999	-0.060768637	0.0005317	0.0012654291	-0.13028913	0.20006911	0	883.1469477091598
6.3095734	2.2908677e-6	0.57	60.780597	45.787721	-0.060150738	0.0005318655	0.0013361873	-0.12407923	0.18340442	0	883.7653989125401
6.3095734	2.5118864e-6	0.57	56.026823	42.674139	-0.059532899	0.00053204703	0.0014137102	-0.11835766	0.16821699	0	884.3874165923014
6.3095734	2.7542287e-6	0.57	51.695058	39.8276	-0.058915125	0.00053224611	0.0014986308	-0.11308109	0.15437786	0	885.0133350551912
6.3095734	3.0199517e-6	0.57	47.748518	37.224715	-0.058297422	0.00053246425	0.0015916373	-0.10820998	0.14176952	0	885.6435172308754
6.3095734	3.3113112e-6	0.57	44.153681	34.844164	-0.057679798	0.00053270355	0.0016934763	-0.10370825	0.13028486	0	886.2783554461406
6.3095734	3.6307805e-6	0.57	40.880011	32.666511	-0.05706226	0.00053296616	0.0018049565	-0.099542927	0.11982633	0	886.9182762251335
6.3095734	3.9810717e-6	0.57	37.899685	30.674038	-0.056444816	0.00053325383	0.0019269504	-0.095683921	0.11030505	0	887.5637393206694
6.3095734	4.3651583e-6	0.57	35.187367	28.850597	-0.055827476	0.00053356947	0.002060398	-0.092103736	0.10164007	0	888.2152387562087
6.3095734	4.7863009e-6	0.57	32.719982	27.181471	-0.055210249	0.00053391547	0.0022063073	-0.088777248	0.093757671	0	888.873305912331
6.3095734	5.2480746e-6	0.57	30.476519	25.653243	-0.054593147	0.000534295	0.0023657548	-0.085681494	0.086590739	0	889.5385060362489
6.3095734	5.7543994e-6	0.57	28.437849	24.253688	-0.053976181	0.00053471123	0.0025398839	-0.082795474	0.080078164	0	890.2114411431855
6.3095734	6.3095734e-6	0.57	26.58656	22.971662	-0.053359366	0.00053516779	0.0027299015	-0.080099981	0.074164318	0	890.8927434976703
6.3095734	6.9183097e-6	0.57	24.906797	21.797005	-0.052742714	0.00053566804	0.0029370706	-0.077577434	0.068798554	0	891.5830782274104
6.3095734	7.5857758e-6	0.57	23.384124	20.720454	-0.052126243	0.00053621692	0.0031627032	-0.075211738	0.063934761	0	892.2831310647807
6.3095734	8.3176377e-6	0.57	22.005393	19.733559	-0.05150997	0.00053681927	0.0034081447	-0.072988149	0.059530936	0	892.993606569167
6.3095734	9.1201084e-6	0.57	20.758616	18.828605	-0.050893913	0.00053747946	0.0036747555	-0.070893153	0.055548792	0	893.7152163936728
6.3095734	0.00001	0.57	19.632857	17.998547	-0.050278095	0.00053820355	0.0039638911	-0.068914358	0.051953399	0	894.4486648693697
6.3095734	0.000010964782	0.57	18.618124	17.236939	-0.049662539	0.00053899788	0.0042768731	-0.067040399	0.04871284	0	895.1946381721074
6.3095734	0.000012022644	0.57	17.699632	16.537835	-0.04906055	0.00054201877	0.0046171071	-0.065266905	0.045791557	0	895.942459261645
6.3095734	0.000013182567	0.57	16.87972	15.895897	-0.048446856	0.00054317807	0.0049816537	-0.063572769	0.043174814	0	896.7142986312253
6.3095734	0.000014454398	0.57	16.145506	15.306103	-0.047833624	0.00054444895	0.0053734975	-0.061954746	0.040832127	0	897.5003229984792
6.3095734	0.000015848932	0.57	15.489842	14.763859	-0.0472209	0.00054584188	0.0057934878	-0.060404791	0.038740686	0	898.3009439879258
6.3095734	0.000017378008	0.57	14.906105	14.264919	-0.046608731	0.00054736914	0.0062422714	-0.05891553	0.036879351	0	899.1164638351888
6.3095734	0.000019054607	0.57	14.38813	13.805349	-0.045997171	0.00054904332	0.0067202669	-0.057480221	0.035228461	0	899.9470559859104
6.3095734	0.000020892961	0.57	13.930169	13.381504	-0.045386277	0.00055087811	0.0072276517	-0.0560927	0.033769681	0	900.7927618918357
6.3095734	0.000022908677	0.57	13.526852	12.989995	-0.044776112	0.00055288897	0.0077643613	-0.054747351	0.032485884	0	901.6534878172266
6.3095734	0.000025118864	0.57	13.173156	12.627678	-0.044166747	0.00055509336	0.008330103	-0.053439067	0.031361063	0	902.5290102968003
6.3095734	0.000027542287	0.57	12.864393	12.29164	-0.043558257	0.00055750886	0.0089243801	-0.052163216	0.030380279	0	903.418992854353
6.3095734	0.000030199517	0.57	12.596198	11.979186	-0.042950724	0.00056015689	0.0095465337	-0.050915609	0.029529626	0	904.3230055701491
6.3095734	0.000033113112	0.57	12.36452	11.687834	-0.042344238	0.00056305806	0.010195784	-0.049692471	0.028796214	0	905.2405462596628
6.3095734	0.000036307805	0.57	12.165624	11.415309	-0.0417389	0.00056623827	0.010871285	-0.048490408	0.028168159	0	906.1710669495906
6.3095734	0.000039810717	0.57	11.996086	11.159538	-0.041134816	0.00056972248	0.011572171	-0.047306377	0.027634577	0	907.1140044184231
6.3095734	0.000043651583	0.57	11.852788	10.918639	-0.040532105	0.00057354105	0.012297602	-0.046137654	0.027185564	0	908.0687969939939
6.3095734	0.000047863009	0.57	11.73291	10.690919	-0.039930895	0.00057772489	0.013046805	-0.044981809	0.026812177	0	909.0349104300494
6.3095734	0.000052480746	0.57	11.633918	10.474861	-0.039331325	0.00058230878	0.013819099	-0.043836672	0.026506389	0	910.0118494159244
6.3095734	0.000057543994	0.57	11.55355	10.26911	-0.038733549	0.00058733137	0.014613925	-0.042700309	0.02626105	0	910.9991698848471
6.3095734	0.000063095734	0.57	11.4898	10.072467	-0.038137735	0.00059283446	0.015430853	-0.041570994	0.026069824	0	911.9964837023715
6.3095734	0.000069183097	0.57	11.440892	9.8838709	-0.037544062	0.00059886215	0.016269589	-0.040447188	0.02592713	0	913.0034652339386
6.3095734	0.000075857758	0.57	11.405266	9.7023879	-0.036952729	0.00060546557	0.017129984	-0.039327512	0.025828072	0	914.0198477087588
6.3095734	0.000083176377	0.57	11.381552	9.527197	-0.036363951	0.00061269896	0.01801202	-0.038210735	0.025768369	0	915.0454194803411
6.3095734	0.000091201084	0.57	11.368552	9.3575779	-0.035777963	0.00062062127	0.018915814	-0.037095748	0.025744293	0	916.0800224104414
6.3095734	0.0001	0.57	11.365217	9.1928986	-0.035195018	0.00062929797	0.019841603	-0.035981554	0.025752597	0	917.1235457149096
6.3095734	0.00010964782	0.57	11.37063	9.0326051	-0.034615393	0.00063880061	0.020789742	-0.034867251	0.025790462	0	918.1759192551921
6.3095734	0.00012022644	0.57	11.383986	8.8762101	-0.034039389	0.0006492064	0.021760691	-0.033752022	0.025855434	0	919.2371065761532
6.3095734	0.00013182567	0.57	11.404582	8.7232849	-0.033467331	0.00066060012	0.022755007	-0.032635123	0.025945376	0	920.3071006216575
6.3095734	0.00014454398	0.57	11.431795	8.5734505	-0.032899569	0.00067307346	0.023773339	-0.031515877	0.026058422	0	921.385920117242
6.3095734	0.00015848932	0.57	11.465079	8.4263706	-0.032336486	0.00068672896	0.024816422	-0.03039366	0.026192935	0	922.4735988402813
6.3095734	0.00017378008	0.57	11.503944	8.2817454	-0.03177849	0.00070167357	0.025885063	-0.029267904	0.026347473	0	923.5701856387776
6.3095734	0.00019054607	0.57	11.547956	8.1393058	-0.031226024	0.00071802846	0.026980147	-0.028138083	0.026520752	0	924.6757382490222
6.3095734	0.00020892961	0.57	11.596723	7.9988084	-0.030679559	0.00073592276	0.028102624	-0.02700371	0.026711626	0	925.790322910372
6.3095734	0.00022908677	0.57	11.649893	7.8600321	-0.030139602	0.00075549347	0.029253506	-0.025864339	0.026919057	0	926.914005242071
6.3095734	0.00025118864	0.57	11.707146	7.7227743	-0.029606688	0.00077689139	0.030433872	-0.024719553	0.027142099	0	928.0468604375343
6.3095734	0.00027542287	0.57	11.768194	7.5868481	-0.029081386	0.00080027831	0.031644853	-0.023568967	0.027379885	0	929.1889595936717
6.3095734	0.00030199517	0.57	11.832778	7.4520806	-0.028564291	0.00082582432	0.032887641	-0.022412221	0.027631611	0	930.3403820473816
6.3095734	0.00033113112	0.57	11.900664	7.3183116	-0.028056023	0.0008537113	0.034163476	-0.02124898	0.027896537	0	931.501209352936
6.3095734	0.00036307805	0.57	11.971652	7.1853927	-0.027557222	0.00088413176	0.035473656	-0.020078931	0.02817398	0	932.6715353353314
6.3095734	0.00039810717	0.57	12.045573	7.0531873	-0.027068539	0.00091728553	0.036819524	-0.018901777	0.028463319	0	933.8514675841956
6.3095734	0.00043651583	0.57	12.122291	6.9215716	-0.026590628	0.00095337704	0.038202471	-0.01771724	0.028764002	0	935.0411365769687
6.3095734	0.00047863009	0.57	12.201717	6.7904359	-0.026124136	0.00099261889	0.039623933	-0.016525049	0.029075562	0	936.2407034678996
6.3095734	0.00052480746	0.57	12.283804	6.6596862	-0.025669692	0.0010352236	0.041085389	-0.015324942	0.029397631	0	937.4503693521604
6.3095734	0.00057543994	0.57	12.368561	6.5292466	-0.02522789	0.0010814064	0.042588358	-0.014116656	0.02972996	0	938.6703896317999
6.3095734	0.00063095734	0.57	12.456055	6.3990614	-0.024799281	0.0011313735	0.044134393	-0.01289993	0.030072438	0	939.9010783189536
6.3095734	0.00069183097	0.57	12.546418	6.2690974	-0.024384357	0.0011853281	0.045725085	-0.011674487	0.030425119	0	941.1428252110986
6.3095734	0.00075857758	0.57	12.639849	6.1393461	-0.023983538	0.0012434609	0.047362053	-0.010440037	0.030788234	0	942.3961027498799
6.3095734	0.00083176377	0.57	12.736616	6.009824	-0.023597167	0.0013059494	0.049046946	-0.0091962675	0.031162209	0	943.6614717900416
6.3095734	0.00091201084	0.57	12.837055	5.8805737	-0.023225497	0.0013729549	0.05078144	-0.0079428356	0.031547671	0	944.9395922071203
6.3095734	0.001	0.57	12.941568	5.7516629	-0.022868693	0.0014446216	0.05256724	-0.0066793614	0.031945456	0	946.2312220894188
6.3095734	0.0010964782	0.57	13.050617	5.6231826	-0.022526827	0.0015210706	0.054406071	-0.0054054239	0.032356594	0	947.5372176158623
6.3095734	0.0012022644	0.57	13.164713	5.4952442	-0.022199884	0.0016024053	0.05629969	-0.0041205532	0.032782305	0	948.8585338452333
6.3095734	0.0013182567	0.57	13.284412	5.3679764	-0.021887765	0.0016887005	0.058249873	-0.0028242285	0.033223974	0	950.1962149352967
6.3095734	0.0014454398	0.57	13.410301	5.2415206	-0.021590299	0.0017800154	0.060258429	-0.001515871	0.033683128	0	951.5513903657463
6.3095734	0.0015848932	0.57	13.542986	5.1160265	-0.021307246	0.0018763798	0.06232719	-0.00019484522	0.034161408	0	952.9252667639878
6.3095734	0.0017378008	0.57	13.683088	4.9916474	-0.021038316	0.0019778061	0.064458023	0.0011395462	0.034660542	0	954.3191164800221
6.3095734	0.0019054607	0.57	13.831225	4.868536	-0.020783172	0.0020842777	0.06665282	0.0024880597	0.035182311	0	955.7342694122283
6.3095734	0.0020892961	0.57	13.988008	4.74684	-0.020541446	0.0021957631	0.068913515	0.003851514	0.035728526	0	957.172107078706
6.3095734	0.0022908677	0.57	14.154035	4.6266987	-0.020312745	0.0023122024	0.071242072	0.0052307856	0.036300998	0	958.6340505532552
6.3095734	0.0025118864	0.57	14.32988	4.5082399	-0.020096666	0.0024335162	0.073640493	0.0066268093	0.036901522	0	960.1215506563158
6.3095734	0.0027542287	0.57	14.516094	4.3915775	-0.019892796	0.0025596002	0.076110818	0.0080405739	0.03753185	0	961.6360879549663
6.3095734	0.0030199517	0.57	14.713198	4.2768096	-0.019700727	0.0026903366	0.078655139	0.0094731229	0.038193684	0	963.1791661671756
6.3095734	0.0033113112	0.57	14.921685	4.164017	-0.019520058	0.0028255797	0.081275582	0.010925547	0.038888659	0	964.7523006427314
6.3095734	0.0036307805	0.57	15.142015	4.0532628	-0.019350405	0.0029651727	0.083974332	0.012398986	0.039618338	0	966.3570223563931
6.3095734	0.0039810717	0.57	15.374616	3.9445916	-0.019191405	0.0031089417	0.086753627	0.013894622	0.0403842	0	967.9948709363172
6.3095734	0.0043651583	0.57	15.619886	3.8380291	-0.019042722	0.0032567012	0.089615764	0.015413676	0.041187643	0	969.6673922399783
6.3095734	0.0047863009	0.57	15.878191	3.7335824	-0.01890406	0.0034082658	0.092563116	0.016957409	0.042029974	0	971.3761352442084
6.3095734	0.0052480746	0.57	16.149867	3.6312402	-0.018775166	0.0035634577	0.09559814	0.018527117	0.04291241	0	973.1226535109179
6.3095734	0.0057543994	0.57	16.435221	3.5309718	-0.018655845	0.0037221222	0.098723395	0.020124124	0.043836074	0	974.9085007335563
6.3095734	0.0063095734	0.57	16.734525	3.4327276	-0.018545981	0.0038841398	0.10194156	0.021749785	0.044801984	0	976.7352206461808
6.3095734	0.0069183097	0.57	17.048017	3.3364368	-0.018445558	0.0040494707	0.10525547	0.023405481	0.045811046	0	978.6043465724645
6.3095734	0.0075857758	0.57	17.37589	3.242004	-0.018354701	0.0042181813	0.10866816	0.02509261	0.04686402	0	980.5173864678155
6.3095734	0.0083176377	0.57	17.718276	3.1493023	-0.018273748	0.0043905408	0.11218296	0.026812591	0.04796147	0	982.4758061481367
6.3095734	0.0091201084	0.57	18.075209	3.0581583	-0.018203367	0.0045671323	0.11580361	0.028566849	0.049103658	0	984.4809809491871
6.3095734	0.01	0.57	18.446557	2.9683229	-0.018144785	0.0047491149	0.1195345	0.030356804	0.050290331	0	986.5341090986578
6.3095734	0.010964782	0.57	18.831887	2.8794088	-0.018100266	0.0049387467	0.12338124	0.032183852	0.051520284	0	988.6360678687163
6.3095734	0.012022644	0.57	19.230166	2.7907594	-0.01807415	0.0051406008	0.12735186	0.03404932	0.052790435	0	990.7870800303065
6.3095734	0.013182567	0.57	19.639163	2.7011695	-0.018075222	0.0053644259	0.13145964	0.035954382	0.054093863	0	992.9860036357026
6.3095734	0.014454398	0.57	20.0543	2.608373	-0.018121773	0.0056315939	0.13572963	0.037899887	0.055416201	0	995.2290686789372
6.3095734	0.015848932	0.57	20.468279	2.5089504	-0.018246199	0.0059819929	0.14020549	0.039886094	0.056734743	0	997.509219212145
6.3095734	0.017378008	0.57	20.877686	2.4014536	-0.018476489	0.0064538268	0.14492931	0.041912638	0.058039401	0	999.8226991349267
6.3095734	0.019054607	0.57	21.290666	2.2896849	-0.018804671	0.0070440767	0.14990207	0.043979389	0.059355579	0	1002.1775235034565
6.3095734	0.020892961	0.57	21.719232	2.1788721	-0.019202471	0.0077231169	0.15509829	0.046087301	0.060719336	0	1004.5866117171236
6.3095734	0.022908677	0.57	22.17173	2.072281	-0.019646181	0.0084641372	0.16049541	0.048238346	0.062154578	0	1007.0601569324963
6.3095734	0.025118864	0.57	22.652874	1.9713913	-0.020120689	0.0092496013	0.16608029	0.050435125	0.06367384	0	1009.6053207045861
6.3095734	0.027542287	0.57	23.165407	1.8767412	-0.020617253	0.010069951	0.17184788	0.052680589	0.06528369	0	1012.2276121748224
6.3095734	0.030199517	0.57	23.711223	1.7884639	-0.021131586	0.010922109	0.17779978	0.054977915	0.066988196	0	1014.9319161434601
6.3095734	0.033113112	0.57	24.291929	1.7065364	-0.021662423	0.01180791	0.18394263	0.057330442	0.068790547	0	1017.722977227603
6.3095734	0.036307805	0.57	24.909038	1.6308582	-0.02221016	0.012732048	0.19028607	0.059741666	0.07069356	0	1020.6055860830584
6.3095734	0.039810717	0.57	25.563975	1.5612456	-0.022775493	0.013699688	0.19684039	0.062215229	0.072699644	0	1023.5845996049898
6.3095734	0.043651583	0.57	26.258017	1.4974055	-0.023358293	0.014714334	0.20361434	0.064754899	0.074810602	0	1026.6648250795101
6.3095734	0.047863009	0.57	26.992272	1.4389245	-0.02395701	0.01577673	0.21061411	0.067364566	0.077027545	0	1029.851033901337
6.3095734	0.052480746	0.57	25.323441	1.4448409	-0.025551904	0.013909227	0.21486764	0.069970358	0.079673067	0	1030.6305143218297
6.3095734	0.057543994	0.57	23.80145	1.4502366	-0.027006466	0.01147803	0.21874691	0.072346868	0.082085812	0	1031.341410042121
6.3095734	0.063095734	0.57	24.031612	1.3858435	-0.028084417	0.011347913	0.22512263	0.074658113	0.083964631	0	1033.7431358217054
6.3095734	0.069183097	0.57	24.824126	1.3042885	-0.029001929	0.011929245	0.23241132	0.077051661	0.085810503	0	1036.7845476637042
6.3095734	0.075857758	0.57	25.756412	1.2248403	-0.029802021	0.012505746	0.23990301	0.07952958	0.087754895	0	1040.0450003757487
6.3095734	0.083176377	0.57	26.850253	1.1476829	-0.030451536	0.013079282	0.24760609	0.082106619	0.089813789	0	1043.5601404095219
6.3095734	0.091201084	0.57	28.13036	1.0730025	-0.030913696	0.013654607	0.25553202	0.084799798	0.092005458	0	1047.3706605282453
6.3095734	0.1	0.57	29.625509	1.0009842	-0.031146658	0.014239556	0.26369559	0.087628747	0.094350774	0	1051.5237957826291
6.3095734	0.10964782	0.57	31.370383	0.93180697	-0.031101059	0.014845005	0.2721148	0.090616188	0.096873661	0	1056.0755658775367
6.3095734	0.12022644	0.57	33.408329	0.8656398	-0.030716214	0.015484592	0.28081065	0.093788641	0.099601774	0	1061.094234933472
6.3095734	0.13182567	0.57	35.795238	0.80263739	-0.029914701	0.016174246	0.28980669	0.097177453	0.1025675	0	1066.6651582344389
6.3095734	0.14454398	0.57	38.604611	0.74293745	-0.028595141	0.016931568	0.29912832	0.10082027	0.1058094	0	1072.8971910031914
6.3095734	0.15848932	0.57	41.933688	0.6866592	-0.026623238	0.017775074	0.30880215	0.10476304	0.10937425	0	1079.930764153333
6.3095734	0.17378008	0.57	45.910059	0.63390322	-0.023821565	0.018723275	0.318855	0.1090627	0.11331963	0	1087.9469454575496
6.3095734	0.19054607	0.57	50.697569	0.58475202	-0.019959351	0.019793518	0.32931281	0.11379042	0.11771727	0	1097.176451576578
6.3095734	0.20892961	0.57	56.499393	0.53926981	-0.014744621	0.021000497	0.34019912	0.11903533	0.12265676	0	1107.906219003438
6.3095734	0.22908677	0.57	63.555153	0.49749948	-0.0078224266	0.022354387	0.35153323	0.12490837	0.12824929	0	1120.4800811142227
6.3095734	0.25118864	0.57	72.128433	0.45945484	0.001216121	0.023858718	0.36332807	0.13154525	0.13463068	0	1135.2891403480007
6.3095734	0.27542287	0.57	82.481944	0.42510776	0.012809764	0.025508427	0.37558828	0.13910774	0.14196252	0	1152.748108635913
6.3095734	0.30199517	0.57	94.841175	0.39437236	0.027387201	0.027288828	0.38830919	0.1477819	0.15043027	0	1173.2572752991082
6.3095734	0.33113112	0.57	109.35333	0.36709188	0.045317324	0.029176295	0.40147747	0.15777234	0.16023751	0	1197.156099567192
6.3095734	0.36307805	0.57	126.0539	0.34303486	0.066862622	0.031141033	0.41507397	0.16929285	0.17159647	0	1224.6809511837432
6.3095734	0.39810717	0.57	144.85355	0.32190522	0.092150926	0.033151423	0.42907802	0.18255459	0.18471632	0	1255.9408658620198
6.3095734	0.43651583	0.57	165.55071	0.30336472	0.12117442	0.035178586	0.44347207	0.19775425	0.19979147	0	1290.9191010172685
6.3095734	0.47863009	0.57	187.8648	0.28706128	0.15381354	0.037199791	0.45824502	0.21506457	0.2169923	0	1329.4973738280114
6.3095734	0.52480746	0.57	211.47773	0.2726551	0.18987449	0.039199959	0.47339384	0.23462859	0.23645958	0	1371.4919775643643
6.3095734	0.57543994	0.57	236.07154	0.25983719	0.2291278	0.041171426	0.48892323	0.25655793	0.25830284	0	1416.6898272610358
6.3095734	0.63095734	0.57	261.35554	0.24833901	0.27133929	0.043112613	0.50484441	0.28093418	0.28260188	0	1464.8769044006017
6.3095734	0.69183097	0.57	287.08142	0.23793467	0.31629069	0.04502633	0.52117337	0.30781246	0.30941029	0	1515.856693534587
6.3095734	0.75857758	0.57	313.04871	0.22843841	0.36379077	0.046918178	0.53792929	0.33722586	0.33875992	0	1569.4597934732574
6.3095734	0.83176377	0.57	339.10373	0.21969968	0.4136797	0.048795293	0.55513332	0.36919015	0.37066553	0	1625.5473604167978
6.3095734	0.91201084	0.57	365.13508	0.21159751	0.46582905	0.050665442	0.57280767	0.40370815	0.40512912	0	1684.010620602771
6.3095734	1.	0.57	391.06754	0.20403505	0.52013955	0.052536445	0.59097507	0.44077358	0.44214376	0	1744.7684764815124
6.3095734	1.0964782	0.57	416.85584	0.19693478	0.57653782	0.05441584	0.60965841	0.4803743	0.4816968	0	1807.7642415386301
6.3095734	1.2022644	0.57	442.47886	0.19023456	0.63497297	0.056310704	0.62888061	0.52249497	0.52377247	0	1872.9623761510215
6.3095734	1.3182567	0.57	467.93452	0.18388433	0.69541333	0.058227585	0.64866455	0.56711916	0.56835402	0	1940.345377719521
6.3095734	1.4454398	0.57	493.23556	0.17784358	0.75784353	0.060172501	0.66903309	0.61423097	0.61542526	0	2009.9110478491214
6.3095734	1.5848932	0.57	518.40604	0.17207932	0.82226207	0.062150964	0.69000911	0.66381635	0.66497193	0	2081.6702306272673
6.3095734	1.7378008	0.57	543.47848	0.16656444	0.88867921	0.064168035	0.71161558	0.71586403	0.71698258	0	2155.6448676296204
6.3095734	1.9054607	0.57	568.49166	0.16127654	0.9571153	0.066228378	0.73387562	0.77036627	0.77144931	0	2231.866460979062
6.3095734	2.0892961	0.57	593.48886	0.15619691	1.0275994	0.068336316	0.75681261	0.82731934	0.82836826	0	2310.374835656256
6.3095734	2.2908677	0.57	618.51645	0.15130981	1.1001679	0.070495883	0.78045021	0.88672392	0.88774003	0	2391.216853610512
6.3095734	2.5118864	0.57	643.62285	0.14660187	1.1748642	0.072710877	0.80481246	0.94858536	0.94956986	0	2474.4461666540983
6.3095734	2.7542287	0.57	668.85774	0.1420616	1.2517372	0.0749849	0.82992385	1.0129138	1.0138678	0	2560.1218352072206
6.3095734	3.0199517	0.57	694.2714	0.13767908	1.3308413	0.077321394	0.85580933	1.0797243	1.0806489	0	2648.3083336535424
6.3095734	3.3113112	0.57	719.9143	0.13344563	1.4122357	0.079723682	0.88249444	1.1490369	1.1499331	0	2739.074962266238
6.3095734	3.6307805	0.57	745.83675	0.12935358	1.4959839	0.082194992	0.91000529	1.2208765	1.2217452	0	2832.4953667142645
6.3095734	3.9810717	0.57	772.08868	0.12539611	1.5821538	0.084738481	0.93836864	1.295273	1.2961151	0	2928.6476748630857
6.3095734	4.3651583	0.57	798.71946	0.12156709	1.6708168	0.087357264	0.96761195	1.372261	1.3730774	0	3027.613677943461
6.3095734	4.7863009	0.57	825.77787	0.11786098	1.7620485	0.090054424	0.99776339	1.4518802	1.4526717	0	3129.47949360272
6.3095734	5.2480746	0.57	853.31197	0.11427271	1.8559278	0.092833037	1.0288519	1.5341747	1.5349421	0	3234.3347524290784
6.3095734	5.7543994	0.57	881.36917	0.11079763	1.952537	0.095696182	1.0609073	1.6191936	1.6199377	0	3342.272750818921
6.3095734	6.3095734	0.57	909.9962	0.10743143	2.0519621	0.098646955	1.0939602	1.7069905	1.7077119	0	3453.3906846467053
6.3095734	6.9183097	0.57	939.23916	0.1041701	2.1542923	0.10168848	1.128042	1.7976234	1.7983229	0	3567.7891794822835
6.3095734	7.5857758	0.57	969.14359	0.10100989	2.2596202	0.10482393	1.1631852	1.891155	1.8918333	0	3685.5726445251776
6.3095734	8.3176377	0.57	999.75452	0.097947254	2.3680417	0.1080565	1.1994232	1.9876522	1.98831	0	3806.8490715375833
6.3095734	9.1201084	0.57	1031.1166	0.09497887	2.4796562	0.11138948	1.2367904	2.0871867	2.0878245	0	3931.7302763126745
6.3095734	10.	0.57	1063.274	0.092101575	2.5945664	0.1148262	1.2753221	2.1898342	2.1904527	0	4060.3316572063036