6.3095734	1.e-12	0.18	1.2429922e8	7.88359e7	-0.15415237	-0.011545669	-0.011545669	-132294.54	397121.43	0	792.776500631326
6.3095734	1.0964782e-12	0.18	1.1336224e8	7.1899198e7	-0.15353386	-0.011545669	-0.011545669	-120654.07	362179.05	0	793.3576311959545
6.3095734	1.2022644e-12	0.18	1.0338759e8	6.5572849e7	-0.15291535	-0.011545669	-0.011545669	-110037.83	330311.22	0	793.938761760583
6.3095734	1.3182567e-12	0.18	9.4290603e7	5.9803152e7	-0.15229683	-0.011545669	-0.011545669	-100355.71	301247.41	0	794.519901720865
6.3095734	1.4454398e-12	0.18	8.5994052e7	5.4541125e7	-0.15167832	-0.011545669	-0.011545669	-91525.509	274740.91	0	795.1010322854936
6.3095734	1.5848932e-12	0.18	7.8427509e7	4.9742099e7	-0.15105981	-0.011545669	-0.011545669	-83472.27	250566.69	0	795.682162850122
6.3095734	1.7378008e-12	0.18	7.1526738e7	4.5365336e7	-0.15044129	-0.011545669	-0.011545669	-76127.628	228519.53	0	796.263302810404
6.3095734	1.9054607e-12	0.18	6.5233162e7	4.137368e7	-0.14982278	-0.011545669	-0.011545669	-69429.236	208412.3	0	796.8444333750325
6.3095734	2.0892961e-12	0.18	5.9493351e7	3.7733247e7	-0.14920427	-0.011545669	-0.011545669	-63320.23	190074.27	0	797.4255639396611
6.3095734	2.2908677e-12	0.18	5.4258582e7	3.4413132e7	-0.14858576	-0.011545669	-0.011545669	-57748.749	173349.8	0	798.0066945042896
6.3095734	2.5118864e-12	0.18	4.9484415e7	3.1385152e7	-0.14796724	-0.011545669	-0.011545669	-52667.498	158096.9	0	798.5878344645715
6.3095734	2.7542287e-12	0.18	4.5130323e7	2.86236e7	-0.14734873	-0.011545669	-0.011545669	-48033.342	144186.08	0	799.1689650292001
6.3095734	3.0199517e-12	0.18	4.1159345e7	2.6105036e7	-0.14673022	-0.011545669	-0.011545669	-43806.942	131499.27	0	799.7500955938285
6.3095734	3.3113112e-12	0.18	3.7537769e7	2.3808078e7	-0.1461117	-0.011545669	-0.011545669	-39952.419	119928.76	0	800.3312355541104
6.3095734	3.6307805e-12	0.18	3.4234853e7	2.1713227e7	-0.14549319	-0.011545669	-0.011545669	-36437.052	109376.33	0	800.912366118739
6.3095734	3.9810717e-12	0.18	3.1222557e7	1.9802701e7	-0.14487468	-0.011545669	-0.011545669	-33230.999	99752.4	0	801.4934966833675
6.3095734	4.3651583e-12	0.18	2.8475311e7	1.806028e7	-0.14425617	-0.011545669	-0.011545669	-30307.045	90975.272	0	802.074627247996
6.3095734	4.7863009e-12	0.18	2.5969793e7	1.6471173e7	-0.14363765	-0.011545669	-0.011545669	-27640.366	82970.435	0	802.655767208278
6.3095734	5.2480746e-12	0.18	2.3684733e7	1.502189e7	-0.14301914	-0.011545669	-0.011545669	-25208.326	75669.937	0	803.2368977729066
6.3095734	5.7543994e-12	0.18	2.1600734e7	1.3700129e7	-0.14240063	-0.011545669	-0.011545669	-22990.279	69011.803	0	803.818028337535
6.3095734	6.3095734e-12	0.18	1.9700104e7	1.2494668e7	-0.14178212	-0.011545669	-0.011545669	-20967.397	62939.513	0	804.3991589021635
6.3095734	6.9183097e-12	0.18	1.7966709e7	1.1395275e7	-0.1411636	-0.011545669	-0.011545669	-19122.506	57401.519	0	804.9802988624455
6.3095734	7.5857758e-12	0.18	1.6385834e7	1.0392616e7	-0.14054509	-0.011545669	-0.011545668	-17439.945	52350.809	0	805.5614295961958
6.3095734	8.3176377e-12	0.18	1.4944059e7	9.4781804e6	-0.13992658	-0.011545669	-0.011545668	-15905.431	47744.506	0	806.1425601608244
6.3095734	9.1201084e-12	0.18	1.3629144e7	8.6442052e6	-0.13930806	-0.011545669	-0.011545668	-14505.938	43543.508	0	806.7237001211063
6.3095734	1.e-11	0.18	1.2429928e7	7.8836109e6	-0.13868955	-0.011545669	-0.011545668	-13229.586	39712.152	0	807.3048306857347
6.3095734	1.0964782e-11	0.18	1.133623e7	7.1899406e6	-0.13807104	-0.011545669	-0.011545668	-12065.538	36217.914	0	807.8859612503633
6.3095734	1.2022644e-11	0.18	1.0338765e7	6.5573057e6	-0.13745253	-0.011545669	-0.011545668	-11003.913	33031.131	0	808.4670918149918
6.3095734	1.3182567e-11	0.18	9.429066e6	5.9803358e6	-0.13683401	-0.011545669	-0.011545668	-10035.701	30124.75	0	809.0482317752737
6.3095734	1.4454398e-11	0.18	8.5994109e6	5.454133e6	-0.1362155	-0.011545669	-0.011545668	-9152.6798	27474.099	0	809.6293623399023
6.3095734	1.5848932e-11	0.18	7.8427565e6	4.9742304e6	-0.13559699	-0.011545669	-0.011545668	-8347.3554	25056.678	0	810.2104929045308
6.3095734	1.7378008e-11	0.18	7.1526795e6	4.5365539e6	-0.13497847	-0.011545669	-0.011545667	-7612.8907	22851.962	0	810.7916330339347
6.3095734	1.9054607e-11	0.18	6.5233218e6	4.1373883e6	-0.13435996	-0.011545669	-0.011545667	-6943.0509	20841.238	0	811.372763598563
6.3095734	2.0892961e-11	0.18	5.9493407e6	3.7733449e6	-0.13374145	-0.011545669	-0.011545667	-6332.1496	19007.436	0	811.9538941631915
6.3095734	2.2908677e-11	0.18	5.4258639e6	3.4413334e6	-0.13312294	-0.011545669	-0.011545667	-5775.0011	17334.989	0	812.5350247278201
6.3095734	2.5118864e-11	0.18	4.9484472e6	3.1385352e6	-0.13250442	-0.011545669	-0.011545666	-5266.8755	15809.699	0	813.1161648572239
6.3095734	2.7542287e-11	0.18	4.513038e6	2.86238e6	-0.13188591	-0.011545669	-0.011545666	-4803.4593	14418.617	0	813.6972954218522
6.3095734	3.0199517e-11	0.18	4.1159401e6	2.6105235e6	-0.1312674	-0.011545669	-0.011545666	-4380.8187	13149.936	0	814.2784259864808
6.3095734	3.3113112e-11	0.18	3.7537825e6	2.3808276e6	-0.13064888	-0.011545669	-0.011545666	-3995.3658	11992.885	0	814.8595659467629
6.3095734	3.6307805e-11	0.18	3.4234909e6	2.1713424e6	-0.13003037	-0.011545669	-0.011545665	-3643.8286	10937.642	0	815.440696680513
6.3095734	3.9810717e-11	0.18	3.1222614e6	1.9802897e6	-0.12941186	-0.011545669	-0.011545665	-3323.2228	9975.249	0	816.0218272451416
6.3095734	4.3651583e-11	0.18	2.8475368e6	1.8060475e6	-0.12879335	-0.011545669	-0.011545665	-3030.8267	9097.5361	0	816.60295780977
6.3095734	4.7863009e-11	0.18	2.596985e6	1.6471367e6	-0.12817483	-0.01154567	-0.011545664	-2764.1583	8297.0523	0	817.1840979391739
6.3095734	5.2480746e-11	0.18	2.368479e6	1.5022084e6	-0.12755632	-0.011545669	-0.011545664	-2520.9538	7567.0026	0	817.7652285038023
6.3095734	5.7543994e-11	0.18	2.1600791e6	1.3700322e6	-0.12693781	-0.011545669	-0.011545663	-2299.1486	6901.1893	0	818.3463592375526
6.3095734	6.3095734e-11	0.18	1.9700161e6	1.249486e6	-0.1263193	-0.01154567	-0.011545663	-2096.8597	6293.9603	0	818.9274898021811
6.3095734	6.9183097e-11	0.18	1.7966766e6	1.1395466e6	-0.12570078	-0.01154567	-0.011545662	-1912.3701	5740.1609	0	819.5086299315848
6.3095734	7.5857758e-11	0.18	1.6385891e6	1.0392806e6	-0.12508227	-0.01154567	-0.011545661	-1744.1135	5235.0898	0	820.0897606653351
6.3095734	8.3176377e-11	0.18	1.4944116e6	947836.99	-0.12446376	-0.01154567	-0.01154566	-1590.6615	4774.4595	0	820.6708913990853
6.3095734	9.1201084e-11	0.18	1.3629201e6	864439.41	-0.12384524	-0.01154567	-0.011545659	-1450.7117	4354.3597	0	821.2520315284892
6.3095734	1.e-10	0.18	1.2429985e6	788379.89	-0.12322673	-0.01154567	-0.011545659	-1323.0758	3971.2242	0	821.8331620931176
6.3095734	1.0964782e-10	0.18	1.1336286e6	719012.76	-0.12260822	-0.01154567	-0.011545657	-1206.6705	3621.8003	0	822.4142929959896
6.3095734	1.2022644e-10	0.18	1.0338821e6	655749.19	-0.12198971	-0.01154567	-0.011545656	-1100.5075	3303.122	0	822.99542372974
6.3095734	1.3182567e-10	0.18	942912.28	598052.12	-0.12137119	-0.01154567	-0.011545655	-1003.6857	3012.484	0	823.5765638591438
6.3095734	1.4454398e-10	0.18	859946.77	545431.76	-0.12075268	-0.01154567	-0.011545654	-915.38303	2747.4189	0	824.1576945928939
6.3095734	1.5848932e-10	0.18	784281.34	497441.42	-0.12013417	-0.01154567	-0.011545652	-834.85004	2505.6767	0	824.7388254957662
6.3095734	1.7378008e-10	0.18	715273.64	453673.69	-0.11951565	-0.01154567	-0.011545651	-761.40301	2285.2052	0	825.3199656251697
6.3095734	1.9054607e-10	0.18	652337.86	413757.04	-0.11889714	-0.01154567	-0.011545649	-694.41846	2084.1327	0	825.9010965280419
6.3095734	2.0892961e-10	0.18	594939.75	377352.62	-0.11827863	-0.01154567	-0.011545647	-633.32778	1900.7525	0	826.4822274309138
6.3095734	2.2908677e-10	0.18	542592.06	344151.38	-0.11766012	-0.01154567	-0.011545645	-577.61236	1733.5078	0	827.0633583337858
6.3095734	2.5118864e-10	0.18	494850.39	313871.48	-0.1170416	-0.01154567	-0.011545642	-526.79924	1580.9787	0	827.6444988014332
6.3095734	2.7542287e-10	0.18	451309.48	286255.88	-0.11642309	-0.01154567	-0.01154564	-480.45708	1441.8706	0	828.2256297043051
6.3095734	3.0199517e-10	0.18	411599.69	261070.14	-0.11580458	-0.01154567	-0.011545637	-438.19246	1315.0025	0	828.806760776299
6.3095734	3.3113112e-10	0.18	375383.93	238100.47	-0.11518607	-0.011545671	-0.011545634	-399.64662	1199.2974	0	829.3878918482927
6.3095734	3.6307805e-10	0.18	342354.77	217151.87	-0.11456755	-0.011545671	-0.01154563	-364.49234	1093.7731	0	829.9690324850619
6.3095734	3.9810717e-10	0.18	312231.82	198046.52	-0.11394904	-0.011545671	-0.011545627	-332.4312	997.53382	0	830.5501635570555
6.3095734	4.3651583e-10	0.18	284759.36	180622.21	-0.11333053	-0.011545671	-0.011545623	-303.19104	909.76252	0	831.1312947981711
6.3095734	4.7863009e-10	0.18	259704.18	164731.06	-0.11271201	-0.011545671	-0.011545618	-276.52364	829.71416	0	831.712435604062
6.3095734	5.2480746e-10	0.18	236853.58	150238.14	-0.1120935	-0.011545671	-0.011545613	-252.20263	756.70918	0	832.2935670142994
6.3095734	5.7543994e-10	0.18	216013.59	137020.43	-0.11147499	-0.011545671	-0.011545608	-230.02155	690.12784	0	832.8746984245366
6.3095734	6.3095734e-10	0.18	197007.29	124965.73	-0.11085648	-0.011545672	-0.011545602	-209.79211	629.40494	0	833.4558300038957
6.3095734	6.9183097e-10	0.18	179673.34	113971.71	-0.11023796	-0.011545672	-0.011545595	-191.34259	574.02501	0	834.03697114803
6.3095734	7.5857758e-10	0.18	163864.59	103945.03	-0.10961945	-0.011545672	-0.011545588	-174.51637	523.5179	0	834.618102896511
6.3095734	8.3176377e-10	0.18	149446.83	94800.584	-0.10900094	-0.011545672	-0.01154558	-159.17062	477.45487	0	835.1992348141134
6.3095734	9.1201084e-10	0.18	136297.69	86460.743	-0.10838242	-0.011545673	-0.011545571	-145.17508	435.44489	0	835.7803762964915
6.3095734	1.e-9	0.18	124305.53	78854.707	-0.10776391	-0.011545673	-0.011545562	-132.41094	397.13133	0	836.3615083832157
6.3095734	1.0964782e-9	0.18	113368.54	71917.912	-0.1071454	-0.011545673	-0.011545552	-120.76985	362.18895	0	836.9426406390617
6.3095734	1.2022644e-9	0.18	103393.89	65591.473	-0.10652689	-0.011545674	-0.01154554	-110.15299	330.32112	0	837.5237732331516
6.3095734	1.3182567e-9	0.18	94296.907	59821.683	-0.10590837	-0.011545674	-0.011545528	-100.47025	301.25731	0	838.1049152228946
6.3095734	1.4454398e-9	0.18	86000.355	54559.563	-0.10528986	-0.011545675	-0.011545514	-91.639432	274.7508	0	838.6860481552279
6.3095734	1.5848932e-9	0.18	78433.811	49760.445	-0.10467135	-0.011545675	-0.011545499	-83.585575	250.57658	0	839.2671812566826
6.3095734	1.7378008e-9	0.18	71533.042	45383.59	-0.10405284	-0.011545676	-0.011545483	-76.240316	228.52943	0	839.8483145272594
6.3095734	1.9054607e-9	0.18	65239.465	41391.842	-0.10343432	-0.011545676	-0.011545465	-69.541305	208.42219	0	840.4294575317332
6.3095734	2.0892961e-9	0.18	59499.654	37751.317	-0.10281581	-0.011545677	-0.011545445	-63.43168	190.08417	0	841.010591478797
6.3095734	2.2908677e-9	0.18	54264.885	34431.111	-0.1021973	-0.011545678	-0.011545423	-57.859582	173.3597	0	841.5917257641042
6.3095734	2.5118864e-9	0.18	49490.718	31403.038	-0.10157879	-0.011545679	-0.0115454	-52.777713	158.10679	0	842.1728602185333
6.3095734	2.7542287e-9	0.18	45136.627	28641.395	-0.10096027	-0.01154568	-0.011545374	-48.14294	144.19598	0	842.7540045759813
6.3095734	3.0199517e-9	0.18	41165.648	26122.739	-0.10034176	-0.011545681	-0.011545345	-43.915922	131.50917	0	843.3351400451409
6.3095734	3.3113112e-9	0.18	37544.073	23825.689	-0.099723248	-0.011545682	-0.011545314	-40.060781	119.93866	0	843.9162777316747
6.3095734	3.6307805e-9	0.18	34241.156	21730.746	-0.099104735	-0.011545683	-0.01154528	-36.544796	109.38623	0	844.4974168651391
6.3095734	3.9810717e-9	0.18	31228.861	19820.127	-0.098486222	-0.011545684	-0.011545242	-33.338126	99.7623	0	845.0785566750907
6.3095734	4.3651583e-9	0.18	28481.614	18077.614	-0.09786771	-0.011545686	-0.011545201	-30.413553	90.98517	0	845.6596960528422
6.3095734	4.7863009e-9	0.18	25976.096	16488.415	-0.097249197	-0.011545687	-0.011545156	-27.746256	82.980334	0	846.2408370466461
6.3095734	5.2480746e-9	0.18	23691.037	15039.041	-0.096630685	-0.011545689	-0.011545106	-25.313599	75.679836	0	846.8219779464932
6.3095734	5.7543994e-9	0.18	21607.037	13717.187	-0.096012172	-0.011545691	-0.011545052	-23.094934	69.021703	0	847.4031204623931
6.3095734	6.3095734e-9	0.18	19706.408	12511.634	-0.09539366	-0.011545693	-0.011544992	-21.071433	62.949413	0	847.984263053458
6.3095734	6.9183097e-9	0.18	17973.012	11412.149	-0.094775148	-0.011545695	-0.011544927	-19.225924	57.411419	0	848.565406490132
6.3095734	7.5857758e-9	0.18	16392.137	10409.398	-0.094156635	-0.011545698	-0.011544855	-17.542746	52.360708	0	849.1465520502234
6.3095734	8.3176377e-9	0.18	14950.362	9494.8707	-0.093538123	-0.011545701	-0.011544777	-16.007614	47.754405	0	849.7276976854802
6.3095734	9.1201084e-9	0.18	13635.447	8660.8035	-0.092919611	-0.011545704	-0.011544691	-14.607503	43.553407	0	850.3088446737111
6.3095734	1.e-8	0.18	12436.231	7900.1172	-0.092301099	-0.011545707	-0.011544596	-13.330533	39.722052	0	850.8899931840376
6.3095734	1.0964782e-8	0.18	11342.533	7206.3549	-0.091682587	-0.01154571	-0.011544493	-12.165867	36.227814	0	851.4711430473384
6.3095734	1.2022644e-8	0.18	10345.068	6573.628	-0.091064075	-0.011545714	-0.011544379	-11.103625	33.041031	0	852.0522947709786
6.3095734	1.3182567e-8	0.18	9435.3693	5996.5661	-0.090445563	-0.011545719	-0.011544255	-10.134794	30.13465	0	852.6334481858363
6.3095734	1.4454398e-8	0.18	8605.7144	5470.2713	-0.089827051	-0.011545723	-0.011544119	-9.2511555	27.484	0	853.2146036301554
6.3095734	1.5848932e-8	0.18	7849.0599	4990.2766	-0.089208539	-0.011545729	-0.011543969	-8.445213	25.066577	0	853.795761442179
6.3095734	1.7378008e-8	0.18	7158.9829	4552.5082	-0.088590028	-0.011545734	-0.011543805	-7.7101304	22.861862	0	854.376920682342
6.3095734	1.9054607e-8	0.18	6529.6252	4153.2506	-0.087971516	-0.011545741	-0.011543625	-7.0396727	20.851138	0	854.9580835680187
6.3095734	2.0892961e-8	0.18	5955.6442	3789.1152	-0.087353005	-0.011545748	-0.011543428	-6.4281536	19.017336	0	855.5392483891997
6.3095734	2.2908677e-8	0.18	5432.1673	3457.0116	-0.086734493	-0.011545755	-0.011543212	-5.870387	17.344889	0	856.1204173632597
6.3095734	2.5118864e-8	0.18	4954.7507	3154.1215	-0.086115982	-0.011545763	-0.011542974	-5.3616435	15.819599	0	856.701589118433
6.3095734	2.7542287e-8	0.18	4519.3415	2877.8743	-0.085497471	-0.011545773	-0.011542715	-4.8976094	14.428517	0	857.2827644251636
6.3095734	3.0199517e-8	0.18	4122.2437	2625.9257	-0.08487896	-0.011545783	-0.011542429	-4.4743509	13.159836	0	857.8639442981817
6.3095734	3.3113112e-8	0.18	3760.0861	2396.1378	-0.08426045	-0.011545794	-0.011542117	-4.0882801	12.002785	0	858.4451276288003
6.3095734	3.6307805e-8	0.18	3429.7946	2186.5607	-0.083641939	-0.011545805	-0.011541774	-3.736125	10.947543	0	859.0263171417587
6.3095734	3.9810717e-8	0.18	3128.5651	1995.4159	-0.083023429	-0.011545819	-0.011541398	-3.4149013	9.9851497	0	859.6075112961702
6.3095734	4.3651583e-8	0.18	2853.8405	1821.0818	-0.082404919	-0.011545833	-0.011540986	-3.1218873	9.1074368	0	860.1887115389651
6.3095734	4.7863009e-8	0.18	2603.2887	1662.079	-0.08178641	-0.011545849	-0.011540534	-2.8546009	8.3069532	0	860.769917607065
6.3095734	5.2480746e-8	0.18	2374.7828	1517.0587	-0.0811679	-0.011545866	-0.011540039	-2.6107785	7.5769036	0	861.3511318869662
6.3095734	5.7543994e-8	0.18	2166.3829	1384.7904	-0.080549391	-0.011545885	-0.011539496	-2.3883553	6.9110903	0	861.9323533451467
6.3095734	6.3095734e-8	0.18	1976.3199	1264.1523	-0.079930883	-0.011545906	-0.0115389	-2.1854485	6.3038615	0	862.5135828272154
6.3095734	6.9183097e-8	0.18	1802.9805	1154.1208	-0.079312374	-0.011545929	-0.011538247	-2.0003409	5.7500623	0	863.0948228887895
6.3095734	7.5857758e-8	0.18	1644.893	1053.7629	-0.078693866	-0.011545954	-0.011537531	-1.8314663	5.2449914	0	863.6760726654696
6.3095734	8.3176377e-8	0.18	1500.7155	962.22728	-0.078075359	-0.011545981	-0.011536746	-1.6773964	4.7843613	0	864.2573331719863
6.3095734	9.1201084e-8	0.18	1369.2242	878.7377	-0.077456852	-0.011546012	-0.011535885	-1.5368286	4.3642618	0	864.8386065317566
6.3095734	1.e-7	0.18	1249.3026	802.58618	-0.076838346	-0.011546045	-0.011534941	-1.4085748	3.9811264	0	865.419892989068
6.3095734	1.0964782e-7	0.18	1139.9328	733.12708	-0.076219841	-0.011546081	-0.011533906	-1.2915515	3.6317029	0	866.0011938968944
6.3095734	1.2022644e-7	0.18	1040.1864	669.77153	-0.075601336	-0.011546121	-0.011532771	-1.1847705	3.3130249	0	866.5825117168972
6.3095734	1.3182567e-7	0.18	949.21669	611.98249	-0.074982832	-0.011546164	-0.011531527	-1.0873306	3.0223872	0	867.1638470316067
6.3095734	1.4454398e-7	0.18	866.2513	559.27015	-0.074364328	-0.011546212	-0.011530163	-0.99841001	2.7573225	0	867.7452026409278
6.3095734	1.5848932e-7	0.18	790.58599	511.18784	-0.073745826	-0.011546264	-0.011528667	-0.91725899	2.5155807	0	868.326578695191
6.3095734	1.7378008e-7	0.18	721.57841	467.32814	-0.073127324	-0.011546322	-0.011527026	-0.84319391	2.2951096	0	868.9079792721097
6.3095734	1.9054607e-7	0.18	658.64278	427.31953	-0.072508824	-0.011546385	-0.011525228	-0.77559132	2.0940377	0	869.4894045220145
6.3095734	2.0892961e-7	0.18	601.24484	390.82315	-0.071890325	-0.011546454	-0.011523255	-0.71388258	1.910658	0	870.0708584286626
6.3095734	2.2908677e-7	0.18	548.89733	357.52996	-0.071271827	-0.01154653	-0.011521093	-0.65754908	1.7434138	0	870.6523433597586
6.3095734	2.5118864e-7	0.18	501.15585	327.15811	-0.070653331	-0.011546613	-0.011518722	-0.60611787	1.5908854	0	871.2338617581722
6.3095734	2.7542287e-7	0.18	457.61514	299.45057	-0.070034836	-0.011546704	-0.011516122	-0.55915757	1.451778	0	871.8154179459043
6.3095734	3.0199517e-7	0.18	417.90559	274.1729	-0.069416344	-0.011546804	-0.011513272	-0.51627482	1.3249106	0	872.3970135953812
6.3095734	3.3113112e-7	0.18	381.69009	251.1113	-0.068797853	-0.011546913	-0.011510146	-0.47711081	1.2092064	0	872.9786549828991
6.3095734	3.6307805e-7	0.18	348.6612	230.07078	-0.068179364	-0.011547033	-0.011506719	-0.44133834	1.103683	0	873.560345396937
6.3095734	3.9810717e-7	0.18	318.53856	210.87351	-0.067560877	-0.011547165	-0.011502961	-0.40865898	1.0074447	0	874.1420899111478
6.3095734	4.3651583e-7	0.18	291.06643	193.35731	-0.066942393	-0.011547309	-0.011498841	-0.37880057	0.91967447	0	874.7238928287408
6.3095734	4.7863009e-7	0.18	266.01162	177.37426	-0.066323912	-0.011547468	-0.011494323	-0.35151489	0.83962732	0	875.3057602380994
6.3095734	5.2480746e-7	0.18	243.16142	162.78946	-0.065705433	-0.011547641	-0.01148937	-0.32657555	0.76662365	0	875.8876993362942
6.3095734	5.7543994e-7	0.18	222.32187	149.47989	-0.065086958	-0.011547832	-0.011483938	-0.30377611	0.70004377	0	876.4697156855522
6.3095734	6.3095734e-7	0.18	203.31605	137.33334	-0.064468487	-0.01154804	-0.011477983	-0.28292826	0.63932246	0	877.0518167272307
6.3095734	6.9183097e-7	0.18	185.98263	126.24748	-0.06385002	-0.011548269	-0.011471453	-0.26386028	0.58394427	0	877.6340112556616
6.3095734	7.5857758e-7	0.18	170.17447	116.12899	-0.063231557	-0.01154852	-0.011464293	-0.24641555	0.53343907	0	878.2163085725416
6.3095734	8.3176377e-7	0.18	155.75735	106.89274	-0.062613099	-0.011548796	-0.011456443	-0.23045122	0.48737814	0	878.7987178856113
6.3095734	9.1201084e-7	0.18	142.6089	98.461117	-0.061994646	-0.011549098	-0.011447835	-0.21583704	0.44537045	0	879.3812506951508
6.3095734	1.e-6	0.18	130.61751	90.763324	-0.061376199	-0.011549429	-0.011438397	-0.20245419	0.40705941	0	879.9639182383614
6.3095734	1.0964782e-6	0.18	119.68136	83.734796	-0.060757759	-0.011549792	-0.011428049	-0.19019431	0.37211979	0	880.546733105419
6.3095734	1.2022644e-6	0.18	109.70764	77.316649	-0.060139325	-0.01155019	-0.011416702	-0.17895858	0.34025499	0	881.1297112877257
6.3095734	1.3182567e-6	0.18	100.61166	71.455182	-0.059520899	-0.011550627	-0.011404261	-0.16865687	0.3111945	0	881.7128669727183
6.3095734	1.4454398e-6	0.18	92.316222	66.101418	-0.058902482	-0.011551105	-0.01139062	-0.15920697	0.28469164	0	882.2962171477383
6.3095734	1.5848932e-6	0.18	84.750893	61.210691	-0.058284073	-0.01155163	-0.011375664	-0.15053393	0.26052141	0	882.8797822013538
6.3095734	1.7378008e-6	0.18	77.851456	56.742265	-0.057665675	-0.011552206	-0.011359266	-0.14256935	0.23847863	0	883.4635807933329
6.3095734	1.9054607e-6	0.18	71.55934	52.658988	-0.057047288	-0.011552838	-0.011341287	-0.13525089	0.21837619	0	884.0476364316003
6.3095734	2.0892961e-6	0.18	65.821131	48.926981	-0.056428913	-0.01155353	-0.011321574	-0.12852167	0.20004343	0	884.6319740522206
6.3095734	2.2908677e-6	0.18	60.588118	45.515343	-0.055810551	-0.011554289	-0.01129996	-0.12232981	0.18332472	0	885.2166209589626
6.3095734	2.5118864e-6	0.18	55.815877	42.395896	-0.055192204	-0.011555122	-0.011276264	-0.11662799	0.16807814	0	885.8016058837352
6.3095734	2.7542287e-6	0.18	51.463895	39.542938	-0.054573873	-0.011556035	-0.011250285	-0.11137308	0.15417426	0	886.386961880447
6.3095734	3.0199517e-6	0.18	47.49523	36.933034	-0.05395556	-0.011557037	-0.011221802	-0.1065257	0.14149504	0	886.972724445877
6.3095734	3.3113112e-6	0.18	43.876191	34.544811	-0.053337266	-0.011558136	-0.011190577	-0.10204996	0.12993286	0	887.5589328914397
6.3095734	3.6307805e-6	0.18	40.576055	32.358775	-0.052718993	-0.01155934	-0.011156345	-0.09791312	0.11938956	0	888.1456301552712
6.3095734	3.9810717e-6	0.18	37.566807	30.357152	-0.052100743	-0.011560661	-0.011118818	-0.094085307	0.10977564	0	888.7328630653088
6.3095734	4.3651583e-6	0.18	34.822901	28.52373	-0.051482519	-0.01156211	-0.011077682	-0.090539279	0.10100948	0	889.3206819070899
6.3095734	4.7863009e-6	0.18	32.321044	26.843729	-0.050864323	-0.011563699	-0.011032591	-0.087250185	0.09301666	0	889.909143317614
6.3095734	5.2480746e-6	0.18	30.039995	25.303667	-0.050246157	-0.011565442	-0.010983168	-0.084195353	0.085729335	0	890.4983091766549
6.3095734	5.7543994e-6	0.18	27.960391	23.891253	-0.049628025	-0.011567354	-0.010929001	-0.081354102	0.079085634	0	891.0882454041175
6.3095734	6.3095734e-6	0.18	26.064576	22.595278	-0.04900993	-0.01156945	-0.010869639	-0.078707565	0.073029157	0	891.679025455221
6.3095734	6.9183097e-6	0.18	24.336455	21.405521	-0.048391875	-0.01157175	-0.010804592	-0.076238525	0.067508483	0	892.2707293809331
6.3095734	7.5857758e-6	0.18	22.761356	20.312664	-0.047773865	-0.011574272	-0.010733325	-0.073931274	0.062476743	0	892.8634429635702
6.3095734	8.3176377e-6	0.18	21.325905	19.30821	-0.047155904	-0.011577038	-0.010655252	-0.071771478	0.057891211	0	893.4572615502243
6.3095734	9.1201084e-6	0.18	20.017912	18.384412	-0.046537996	-0.011580072	-0.010569742	-0.069746053	0.053712948	0	894.0522880984663
6.3095734	0.00001	0.18	18.82627	17.534209	-0.045920148	-0.0115834	-0.010476106	-0.067843058	0.049906471	0	894.6486325562333
6.3095734	0.000010964782	0.18	17.740855	16.751161	-0.045302363	-0.01158705	-0.010373597	-0.066051592	0.046439446	0	895.2464184387866
6.3095734	0.000012022644	0.18	16.748195	16.029352	-0.044691968	-0.011600877	-0.010271233	-0.064366262	0.043277527	0	895.8372364107474
6.3095734	0.000013182567	0.18	15.847988	15.363525	-0.04407503	-0.011606201	-0.01014943	-0.062769289	0.040403196	0	896.4374895167444
6.3095734	0.000014454398	0.18	15.028696	14.74876	-0.043458243	-0.011612037	-0.010016236	-0.061256536	0.037787541	0	897.0395272143759
6.3095734	0.000015848932	0.18	14.283346	14.180611	-0.042841621	-0.011618434	-0.0098706589	-0.059820417	0.035408303	0	897.643504135428
6.3095734	0.000017378008	0.18	13.605587	13.655028	-0.04222518	-0.011625447	-0.0097116481	-0.058454001	0.033245208	0	898.2495829261794
6.3095734	0.000019054607	0.18	12.989638	13.168318	-0.041608937	-0.011633133	-0.0095380905	-0.05715095	0.031279801	0	898.8579358634536
6.3095734	0.000020892961	0.18	12.430231	12.717116	-0.040992911	-0.011641559	-0.0093488193	-0.055905466	0.029495274	0	899.4687424267818
6.3095734	0.000022908677	0.18	11.922569	12.298352	-0.040377123	-0.011650794	-0.0091426207	-0.054712246	0.027876321	0	900.0821881652877
6.3095734	0.000025118864	0.18	11.462281	11.909228	-0.039761594	-0.011660915	-0.008918247	-0.053566435	0.026409	0	900.6984643613225
6.3095734	0.000027542287	0.18	11.04538	11.547188	-0.03914635	-0.011672007	-0.0086744319	-0.052463588	0.025080601	0	901.317760745076
6.3095734	0.000030199517	0.18	10.66823	11.209901	-0.038531416	-0.011684163	-0.008409912	-0.051399631	0.023879532	0	901.9402674958495
6.3095734	0.000033113112	0.18	10.327505	10.895233	-0.037916823	-0.011697484	-0.0081234519	-0.050370834	0.022795202	0	902.5661644201433
6.3095734	0.000036307805	0.18	10.020164	10.601232	-0.037302601	-0.011712079	-0.0078138746	-0.049373778	0.02181792	0	903.1956223873117
6.3095734	0.000039810717	0.18	9.7434112	10.326108	-0.036688785	-0.011728071	-0.0074800966	-0.048405328	0.020938794	0	903.828791755998
6.3095734	0.000043651583	0.18	9.494677	10.068215	-0.036075413	-0.011745592	-0.0071211624	-0.047462615	0.02014965	0	904.4657984185632
6.3095734	0.000047863009	0.18	9.2715857	9.8260382	-0.035462525	-0.011764785	-0.0067362854	-0.046543008	0.019442939	0	905.1067378235721
6.3095734	0.000052480746	0.18	9.0719357	9.5981785	-0.034850167	-0.011785809	-0.0063248798	-0.045644105	0.01881167	0	905.7516658225475
6.3095734	0.000057543994	0.18	8.8936779	9.3833409	-0.034238385	-0.011808836	-0.0058865916	-0.044763708	0.018249342	0	906.4005990645871
6.3095734	0.000063095734	0.18	8.734899	9.1803243	-0.033627233	-0.011834055	-0.00542132	-0.043899816	0.017749894	0	907.0535038606364
6.3095734	0.000069183097	0.18	8.5938079	8.9880134	-0.033016768	-0.01186167	-0.0049292254	-0.043050607	0.017307655	0	907.7102995283389
6.3095734	0.000075857758	0.18	8.4687252	8.8053718	-0.03240705	-0.011891907	-0.0044107262	-0.042214431	0.016917316	0	908.3708589332283
6.3095734	0.000083176377	0.18	8.3580764	8.6314372	-0.031798146	-0.011925009	-0.0038664804	-0.041389796	0.016573907	0	909.0350078423061
6.3095734	0.000091201084	0.18	8.2603868	8.4653177	-0.031190127	-0.011961245	-0.0032973549	-0.040575362	0.01627278	0	909.7025329347758
6.3095734	0.0001	0.18	8.1742796	8.3061889	-0.030583071	-0.012000903	-0.0027043851	-0.039769925	0.016009601	0	910.3731858158671
6.3095734	0.00010964782	0.18	8.0984743	8.1532924	-0.029977059	-0.012044303	-0.0020887289	-0.038972414	0.015780348	0	911.0466945546973
6.3095734	0.00012022644	0.18	8.0317857	8.0059333	-0.029372181	-0.012091787	-0.0014516184	-0.038181878	0.015581306	0	911.7227662154604
6.3095734	0.00013182567	0.18	7.973123	7.8634785	-0.028768531	-0.012143732	-0.00079431538	-0.037397477	0.015409063	0	912.4010990845555
6.3095734	0.00014454398	0.18	7.9214876	7.7253544	-0.02816621	-0.012200545	-0.00011807005	-0.036618475	0.015260504	0	913.081386828163
6.3095734	0.00015848932	0.18	7.8759703	7.5910436	-0.027565323	-0.012262671	0.00057590929	-0.035844228	0.015132798	0	913.7633264420949
6.3095734	0.00017378008	0.18	7.8357476	7.4600822	-0.026965985	-0.01233059	0.0012864816	-0.035074176	0.015023389	0	914.4466169016393
6.3095734	0.00019054607	0.18	7.8000768	7.3320558	-0.026368312	-0.012404824	0.0020125872	-0.034307839	0.014929976	0	915.130970002266
6.3095734	0.00020892961	0.18	7.7682906	7.2065957	-0.025772426	-0.012485936	0.0027532549	-0.033544802	0.014850495	0	915.8161068676374
6.3095734	0.00022908677	0.18	7.7397916	7.0833746	-0.025178455	-0.012574536	0.0035076043	-0.032784716	0.0147831	0	916.5017583385882
6.3095734	0.00025118864	0.18	7.7140468	6.9621029	-0.024586527	-0.012671279	0.0042748424	-0.032027285	0.014726142	0	917.1876700371957
6.3095734	0.00027542287	0.18	7.6905823	6.8425251	-0.023996773	-0.01277687	0.0050542568	-0.031272262	0.01467815	0	917.8735983980552
6.3095734	0.00030199517	0.18	7.6689788	6.7244159	-0.02340932	-0.012892063	0.0058452078	-0.030519444	0.014637815	0	918.5593159091754
6.3095734	0.00033113112	0.18	7.6488676	6.6075775	-0.022824293	-0.013017659	0.0066471203	-0.029768669	0.014603972	0	919.2446078629615
6.3095734	0.00036307805	0.18	7.6299278	6.491837	-0.022241811	-0.013154509	0.0074594758	-0.029019805	0.01457559	0	919.9292747615029
6.3095734	0.00039810717	0.18	7.6118846	6.3770442	-0.021661981	-0.01330351	0.0082818066	-0.028272752	0.014551762	0	920.6131369730585
6.3095734	0.00043651583	0.18	7.5945076	6.26307	-0.021084896	-0.013465597	0.0091136903	-0.027527432	0.014531697	0	921.2960356810186
6.3095734	0.00047863009	0.18	7.5776108	6.1498056	-0.02051063	-0.013641743	0.0099547494	-0.026783792	0.014514719	0	921.9778375140808
6.3095734	0.00052480746	0.18	7.5610532	6.0371611	-0.019939233	-0.013832945	0.010804652	-0.02604179	0.014500266	0	922.658439362465
6.3095734	0.00057543994	0.18	7.5447387	5.9250659	-0.019370729	-0.014040218	0.011663116	-0.025301399	0.014487891	0	923.3377709673533
6.3095734	0.00063095734	0.18	7.5286176	5.8134677	-0.01880511	-0.014264579	0.012529915	-0.024562598	0.014477264	0	924.0158015561017
6.3095734	0.00069183097	0.18	7.5126862	5.7023328	-0.018242331	-0.014507037	0.01340489	-0.023825367	0.014468177	0	924.6925465187903
6.3095734	0.00075857758	0.18	7.4969866	5.5916456	-0.017682313	-0.014768574	0.014287957	-0.023089688	0.014460546	0	925.3680658748538
6.3095734	0.00083176377	0.18	7.4816055	5.481408	-0.017124939	-0.015050131	0.015179125	-0.022355533	0.01445441	0	926.0424710755337
6.3095734	0.00091201084	0.18	7.466671	5.3716385	-0.016570054	-0.015352593	0.016078506	-0.021622865	0.01444993	0	926.7159266950972
6.3095734	0.001	0.18	7.4523485	5.2623705	-0.016017473	-0.01567677	0.016986326	-0.020891632	0.014447382	0	927.3886447746522
6.3095734	0.0010964782	0.18	7.4388346	5.1536506	-0.01546698	-0.016023389	0.017902941	-0.020161766	0.014447149	0	928.0608884676619
6.3095734	0.0012022644	0.18	7.4263505	5.0455358	-0.01491834	-0.016393078	0.018828847	-0.019433175	0.014449703	0	928.7329624563783
6.3095734	0.0013182567	0.18	7.4151332	4.9380903	-0.014371302	-0.016786364	0.019764682	-0.018705748	0.014455589	0	929.4052104713887
6.3095734	0.0014454398	0.18	7.405426	4.8313823	-0.013825614	-0.01720366	0.020711235	-0.017979349	0.0144654	0	930.0780027202323
6.3095734	0.0015848932	0.18	7.3974696	4.7254803	-0.013281029	-0.017645272	0.021669447	-0.017253818	0.014479755	0	930.7517304191299
6.3095734	0.0017378008	0.18	7.3914912	4.6204489	-0.012737318	-0.018111397	0.022640404	-0.016528971	0.014499272	0	931.4267923947809
6.3095734	0.0019054607	0.18	7.3876956	4.5163455	-0.012194279	-0.018602131	0.023625335	-0.015804605	0.01452454	0	932.1035862900329
6.3095734	0.0020892961	0.18	7.386255	4.4132163	-0.011651752	-0.019117478	0.024625603	-0.015080497	0.014556093	0	932.7824929483048
6.3095734	0.0022908677	0.18	7.3873005	4.3110932	-0.011109627	-0.019657365	0.025642687	-0.014356409	0.014594381	0	933.4638658528728
6.3095734	0.0025118864	0.18	7.3909133	4.2099904	-0.010567854	-0.020221652	0.026678177	-0.013632093	0.014639749	0	934.1480208856071
6.3095734	0.0027542287	0.18	7.3971167	4.1099021	-0.010026458	-0.020810153	0.027733752	-0.012907296	0.014692411	0	934.8352185128144
6.3095734	0.0030199517	0.18	7.4058689	4.0107995	-0.0094855468	-0.02142265	0.028811165	-0.012181766	0.014752427	0	935.5256539198006
6.3095734	0.0033113112	0.18	7.4170563	3.91263	-0.0089453217	-0.022058916	0.029912227	-0.011455256	0.014819687	0	936.2194442515731
6.3095734	0.0036307805	0.18	7.4304891	3.8153151	-0.0084060884	-0.022718726	0.03103879	-0.010727539	0.014893895	0	936.9166154965098
6.3095734	0.0039810717	0.18	7.4458989	3.7187515	-0.0078682624	-0.02340188	0.032192729	-0.0099984047	0.014974564	0	937.6170943685133
6.3095734	0.0043651583	0.18	7.4629413	3.6228119	-0.0073323713	-0.024108224	0.033375924	-0.0092676771	0.015061017	0	938.3207031018195
6.3095734	0.0047863009	0.18	7.4812057	3.5273498	-0.0067990468	-0.024837671	0.034590238	-0.0085352152	0.015152411	0	939.0271632468412
6.3095734	0.0052480746	0.18	7.5002338	3.4322056	-0.0062690053	-0.025590234	0.035837482	-0.0078009217	0.015247771	0	939.7361079784745
6.3095734	0.0057543994	0.18	7.5195509	3.3372177	-0.0057430096	-0.026366078	0.037119375	-0.0070647449	0.015346065	0	940.4471113165808
6.3095734	0.0063095734	0.18	7.5387091	3.2422354	-0.0052218091	-0.02716559	0.038437466	-0.0063266788	0.015446285	0	941.1597311204979
6.3095734	0.0069183097	0.18	7.5573428	3.147136	-0.0047060598	-0.027989474	0.039793042	-0.005586758	0.015547574	0	941.873568695065
6.3095734	0.0075857758	0.18	7.5752297	3.0518418	-0.0041962228	-0.028838886	0.041186999	-0.004845046	0.015649345	0	942.5883423397993
6.3095734	0.0083176377	0.18	7.5923467	2.9563337	-0.0036924622	-0.029715587	0.04261969	-0.0041016191	0.015751396	0	943.3039575720088
6.3095734	0.0091201084	0.18	7.608857	2.8606392	-0.0031946105	-0.030622098	0.044090768	-0.0033565456	0.01585384	0	944.0205130836378
6.3095734	0.01	0.18	7.6246795	2.7646607	-0.0027025903	-0.031561882	0.045599009	-0.0026098822	0.015955969	0	944.7378745920068
6.3095734	0.010964782	0.18	7.6367634	2.6671207	-0.0022193477	-0.032539843	0.047141816	-0.0018617955	0.016049033	0	945.4528348344195
6.3095734	0.012022644	0.18	7.6294534	2.5617982	-0.0017612579	-0.0335654	0.048712146	-0.0011132662	0.016090278	0	946.1488171157796
6.3095734	0.013182567	0.18	7.5810626	2.4400831	-0.0013508395	-0.034661425	0.05028957	-0.00036740816	0.016018768	0	946.8012087513006
6.3095734	0.014454398	0.18	7.5083121	2.3086166	-0.00096890206	-0.035857844	0.051846683	0.00037223981	0.015875564	0	947.4234056315424
6.3095734	0.015848932	0.18	7.4404326	2.1789969	-0.00058204951	-0.03717474	0.053365998	0.0011048146	0.015737688	0	948.0438281144341
6.3095734	0.017378008	0.18	7.3925041	2.0570294	-0.00017137728	-0.038623304	0.054838995	0.0018316376	0.015645449	0	948.6787973614828
6.3095734	0.019054607	0.18	7.370506	1.9447679	0.00027217603	-0.040208512	0.056263451	0.0025550061	0.015614934	0	949.3364511924726
6.3095734	0.020892961	0.18	7.3762627	1.8425516	0.00075260589	-0.04192987	0.057642699	0.0032775737	0.015651076	0	950.0211072954083
6.3095734	0.022908677	0.18	7.4095946	1.7499004	0.0012709792	-0.043782156	0.058984881	0.0040020639	0.015753376	0	950.735145081956
6.3095734	0.025118864	0.18	7.4693268	1.6659342	0.0018266059	-0.04575677	0.060301609	0.0047311274	0.015918571	0	951.4798800375623
6.3095734	0.027542287	0.18	7.5538659	1.5896042	0.0024179012	-0.047843476	0.061606221	0.0054672759	0.016142131	0	952.2560788945311
6.3095734	0.030199517	0.18	7.6615781	1.5198362	0.0030430946	-0.050032238	0.06291195	0.0062128601	0.016419194	0	953.0643161406999
6.3095734	0.033113112	0.18	7.7910482	1.4556199	0.003700807	-0.052314833	0.064230312	0.0069700798	0.016745175	0	953.9052436277175
6.3095734	0.036307805	0.18	7.9412504	1.3960612	0.0043904742	-0.054686038	0.065569924	0.0077410136	0.017116148	0	954.7797885750451
6.3095734	0.039810717	0.18	8.1116325	1.3404103	0.0051125439	-0.057143984	0.066936154	0.0085276632	0.017529078	0	955.6892794717133
6.3095734	0.043651583	0.18	8.3020658	1.2880786	0.0058682458	-0.059688929	0.068332347	0.0093319976	0.017981983	0	956.6354374135308
6.3095734	0.047863009	0.18	8.5125129	1.2386557	0.0066584377	-0.062318655	0.069764438	0.010155982	0.018474073	0	957.6200720973179
6.3095734	0.052480746	0.18	7.8591392	1.1956638	0.0060307559	-0.062292047	0.073977369	0.010982028	0.019011409	0	957.7428223453295
6.3095734	0.057543994	0.18	7.2632553	1.1564547	0.0054583034	-0.062764585	0.077819606	0.011735391	0.019501467	0	957.8547717071126
6.3095734	0.063095734	0.18	6.7198028	1.1206956	0.0049362205	-0.063707718	0.081323768	0.012422465	0.019948404	0	957.9568707597227
6.3095734	0.069183097	0.18	6.2241682	1.0880829	0.0044600753	-0.065095891	0.084519602	0.013049085	0.020356016	0	958.0499863085691
6.3095734	0.075857758	0.18	5.8368338	1.0545164	0.0041099639	-0.066978896	0.087361638	0.013622788	0.020704306	0	958.2016839073187
6.3095734	0.083176377	0.18	6.1668939	0.98751685	0.0046647355	-0.069719294	0.089491767	0.014209693	0.020841281	0	959.0831792517401
6.3095734	0.091201084	0.18	6.6975829	0.92278916	0.0054471525	-0.072455985	0.091775681	0.014838391	0.021035305	0	960.2045707164114
6.3095734	0.1	0.18	7.4800716	0.86042585	0.0065380832	-0.075217454	0.094189628	0.015531012	0.021309131	0	961.6378223738112
6.3095734	0.10964782	0.18	8.5709936	0.80051554	0.0080323601	-0.078048259	0.096693927	0.01631497	0.021690766	0	963.465324634316
6.3095734	0.12022644	0.18	10.033201	0.74314459	0.010040076	-0.08100865	0.099233359	0.017223524	0.02221405	0	965.7811781434585
6.3095734	0.13182567	0.18	11.937875	0.68839947	0.012689174	-0.084172588	0.10173915	0.018296478	0.022919368	0	968.6939626246423
6.3095734	0.14454398	0.18	14.368213	0.63636908	0.016129753	-0.087624385	0.10413232	0.019581167	0.023854651	0	972.3313485665386
6.3095734	0.15848932	0.18	17.424438	0.58714651	0.020540009	-0.091454258	0.10632818	0.02113387	0.025076804	0	976.8464400032695
6.3095734	0.17378008	0.18	21.229278	0.54082891	0.026133078	-0.095753147	0.10824145	0.023021753	0.026653645	0	982.4250694313237
6.3095734	0.19054607	0.18	25.932388	0.49751466	0.033163113	-0.10060684	0.10979222	0.025325304	0.028666322	0	989.2925156830185
6.3095734	0.20892961	0.18	31.711529	0.45729681	0.041928093	-0.10608933	0.11091251	0.02814107	0.031212008	0	997.7172526043328
6.3095734	0.22908677	0.18	38.767961	0.42025247	0.052766139	-0.11225533	0.11155386	0.031584242	0.034406413	0	1008.008771330339
6.3095734	0.25118864	0.18	47.313708	0.38642891	0.066042286	-0.11913226	0.11169523	0.035790411	0.038385442	0	1020.5064877766806
6.3095734	0.27542287	0.18	57.549896	0.3558282	0.082124192	-0.12671311	0.11135028	0.040915627	0.043305162	0	1035.558150864091
6.3095734	0.30199517	0.18	69.63832	0.32839376	0.10134868	-0.13495211	0.11057157	0.047133975	0.049339276	0	1053.4891168523159
6.3095734	0.33113112	0.18	83.672236	0.30400259	0.12398556	-0.14376599	0.10944943	0.054632262	0.056673767	0	1074.5681666372911
6.3095734	0.36307805	0.18	99.654842	0.28246641	0.15020826	-0.15304189	0.10810397	0.063602146	0.065499026	0	1098.9785603734902
6.3095734	0.39810717	0.18	117.49285	0.26354261	0.18008023	-0.16265115	0.1066713	0.074230848	0.076000647	0	1126.8029326455326
6.3095734	0.43651583	0.18	137.00746	0.2469527	0.21356044	-0.17246566	0.10528726	0.086692099	0.088350489	0	1158.0257065873934
6.3095734	0.47863009	0.18	157.95886	0.23240383	0.25052484	-0.18237235	0.10407286	0.10113887	0.10269956	0	1192.5507945419463
6.3095734	0.52480746	0.18	180.07637	0.21960865	0.29079567	-0.19228284	0.10312467	0.11769888	0.11917365	0	1230.2275114612276
6.3095734	0.57543994	0.18	203.0867	0.20830011	0.3341706	-0.20213721	0.10251106	0.13647296	0.13787178	0	1270.8773179429088
6.3095734	0.63095734	0.18	226.73538	0.1982403	0.38044618	-0.21190285	0.10227335	0.15753594	0.15886721	0	1314.3160475277791
6.3095734	0.69183097	0.18	250.8001	0.18922398	0.42943384	-0.22157027	0.10243002	0.1809392	0.18220992	0	1360.369651747969
6.3095734	0.75857758	0.18	275.0968	0.1810782	0.48096893	-0.23114759	0.1029822	0.20671418	0.20793019	0	1408.883622276194
6.3095734	0.83176377	0.18	299.48049	0.17365962	0.53491441	-0.24065519	0.10391906	0.2348762	0.23604239	0	1459.727369488196
6.3095734	0.91201084	0.18	323.84278	0.16685085	0.59116113	-0.25012111	0.10522241	0.26542819	0.26654866	0	1512.7952635011545
6.3095734	1.	0.18	348.10771	0.16055635	0.64962612	-0.25957749	0.10687025	0.29836409	0.2994423	0	1568.0056278991926
6.3095734	1.0964782	0.18	372.22689	0.15469872	0.71024994	-0.26905806	0.10883934	0.33367178	0.33471065	0	1625.2986845281355
6.3095734	1.2022644	0.18	396.17476	0.14921532	0.77299379	-0.27859638	0.11110689	0.37133555	0.37233759	0	1684.6341239674239
6.3095734	1.3182567	0.18	419.94423	0.14405539	0.83783668	-0.2882249	0.11365159	0.41133811	0.41230551	0	1745.9886207555915
6.3095734	1.4454398	0.18	443.54281	0.13917773	0.90477284	-0.29797432	0.11645421	0.45366226	0.4545969	0	1809.3535013890662
6.3095734	1.5848932	0.18	466.9894	0.13454878	0.97380953	-0.30787342	0.11949781	0.49829208	0.49919563	0	1874.7327221896244
6.3095734	1.7378008	0.18	490.31165	0.13014104	1.0449652	-0.31794895	0.12276783	0.54521396	0.54608791	0	1942.1411557251045
6.3095734	1.9054607	0.18	513.5437	0.12593188	1.1182678	-0.32822583	0.12625194	0.59441734	0.59526303	0	2011.6029775757002
6.3095734	2.0892961	0.18	536.72451	0.12190257	1.1937537	-0.3387272	0.12993996	0.64589527	0.64671389	0	2083.1506380736446
6.3095734	2.2908677	0.18	559.89643	0.11803745	1.2714666	-0.3494747	0.13382363	0.69964476	0.70043743	0	2156.82379927897
6.3095734	2.5118864	0.18	583.10412	0.11432338	1.3514563	-0.36048865	0.13789643	0.75566712	0.75643485	0	2232.6681488722106
6.3095734	2.7542287	0.18	606.39371	0.11074921	1.4337786	-0.37178823	0.14215339	0.81396811	0.81471184	0	2310.7352740647366
6.3095734	3.0199517	0.18	629.81217	0.10730544	1.5184946	-0.3833917	0.14659092	0.87455806	0.87527866	0	2391.081975152302
6.3095734	3.3113112	0.18	653.40679	0.10398385	1.6056699	-0.39531655	0.15120664	0.93745191	0.93815021	0	2473.7694851120714
6.3095734	3.6307805	0.18	677.22485	0.10077732	1.6953746	-0.40757968	0.15599927	1.0026693	1.003346	0	2558.863450999223
6.3095734	3.9810717	0.18	701.31334	0.097679591	1.7876831	-0.4201975	0.16096844	1.0702343	1.0708903	0	2646.4337139007444
6.3095734	4.3651583	0.18	725.71881	0.094685128	1.8826736	-0.4331861	0.16611467	1.1401758	1.1408117	0	2736.5538357703235
6.3095734	4.7863009	0.18	750.48721	0.091788994	1.9804282	-0.44656133	0.17143918	1.2125272	1.2131436	0	2829.301161251744
6.3095734	5.2480746	0.18	775.66388	0.088986743	2.0810324	-0.4603389	0.17694391	1.2873262	1.2879238	0	2924.7563512786537
6.3095734	5.7543994	0.18	801.29349	0.086274346	2.1845756	-0.47453445	0.18263138	1.3646151	1.3651944	0	3023.003829180183
6.3095734	6.3095734	0.18	827.42004	0.083648118	2.2911508	-0.48916367	0.18850464	1.4444403	1.4450021	0	3124.13149035526
6.3095734	6.9183097	0.18	854.08689	0.08110467	2.4008541	-0.50424232	0.19456727	1.5268528	1.5273975	0	3228.2302324899324
6.3095734	7.5857758	0.18	881.33685	0.078640861	2.5137856	-0.51978631	0.20082328	1.6119077	1.6124358	0	3335.394784254003
6.3095734	8.3176377	0.18	909.21217	0.076253767	2.6300486	-0.53581175	0.20727711	1.6996641	1.7001761	0	3445.722953648755
6.3095734	9.1201084	0.18	937.75463	0.073940648	2.7497502	-0.55233501	0.21393359	1.7901854	1.7906819	0	3559.316184981289
6.3095734	10.	0.18	967.00566	0.071698927	2.8730007	-0.56937272	0.22079791	1.883539	1.8840205	0	3676.2789900516605