6.9183097	1.e-12	0.07	1.7969427e8	1.0393387e8	-0.16912398	-0.02040804	-0.02040804	-191252.72	574044.42	0	779.320090430728
6.9183097	1.0964782e-12	0.07	1.6388312e8	9.4788815e7	-0.16844579	-0.02040804	-0.02040804	-174424.57	523534.74	0	779.9572942554445
6.9183097	1.2022644e-12	0.07	1.4946319e8	8.644843e7	-0.16776761	-0.02040804	-0.02040804	-159077.12	477469.36	0	780.5944886845075
6.9183097	1.3182567e-12	0.07	1.3631204e8	7.8841906e7	-0.16708942	-0.02040804	-0.02040804	-145080.07	435457.23	0	781.2316925092241
6.9183097	1.4454398e-12	0.07	1.2431806e8	7.1904676e7	-0.16641124	-0.02040804	-0.02040804	-132314.61	397141.72	0	781.868886938287
6.9183097	1.5848932e-12	0.07	1.1337942e8	6.5577846e7	-0.16573305	-0.02040804	-0.02040804	-120672.37	362197.55	0	782.5060907630034
6.9183097	1.7378008e-12	0.07	1.0340326e8	5.9807708e7	-0.16505486	-0.02040804	-0.02040804	-110054.53	330328.09	0	783.1432945877199
6.9183097	1.9054607e-12	0.07	9.4304896e7	5.454528e7	-0.16437668	-0.02040804	-0.02040804	-100370.93	301262.8	0	783.780489016783
6.9183097	2.0892961e-12	0.07	8.6007089e7	4.9745889e7	-0.16369849	-0.02040804	-0.02040804	-91539.396	274754.94	0	784.4176928414994
6.9183097	2.2908677e-12	0.07	7.8439398e7	4.5368792e7	-0.16302031	-0.02040804	-0.02040804	-83484.936	250579.49	0	785.0548872705624
6.9183097	2.5118864e-12	0.07	7.1537582e7	4.1376832e7	-0.16234212	-0.02040804	-0.02040804	-76139.18	228531.21	0	785.6920910952789
6.9183097	2.7542287e-12	0.07	6.5243051e7	3.7736122e7	-0.16166394	-0.02040804	-0.02040804	-69439.773	208422.94	0	786.329285524342
6.9183097	3.0199517e-12	0.07	5.9502371e7	3.4415754e7	-0.16098575	-0.02040804	-0.02040804	-63329.84	190083.98	0	786.9664893490584
6.9183097	3.3113112e-12	0.07	5.4266807e7	3.1387543e7	-0.16030756	-0.02040804	-0.02040804	-57757.514	173358.65	0	787.6036931737749
6.9183097	3.6307805e-12	0.07	4.9491917e7	2.8625781e7	-0.15962938	-0.02040804	-0.02040804	-52675.493	158104.97	0	788.240887602838
6.9183097	3.9810717e-12	0.07	4.5137165e7	2.6107025e7	-0.15895119	-0.02040804	-0.02040804	-48040.635	144193.45	0	788.8780914275544
6.9183097	4.3651583e-12	0.07	4.1165584e7	2.3809891e7	-0.15827301	-0.02040804	-0.02040804	-43813.594	131505.99	0	789.5152858566174
6.9183097	4.7863009e-12	0.07	3.754346e7	2.1714881e7	-0.15759482	-0.02040804	-0.02040804	-39958.487	119934.89	0	790.152489681334
6.9183097	5.2480746e-12	0.07	3.4240043e7	1.9804209e7	-0.15691664	-0.02040804	-0.02040804	-36442.587	109381.92	0	790.789684110397
6.9183097	5.7543994e-12	0.07	3.1227291e7	1.8061655e7	-0.15623845	-0.02040804	-0.02040804	-33236.048	99757.497	0	791.4268879351134
6.9183097	6.3095734e-12	0.07	2.8479629e7	1.6472428e7	-0.15556026	-0.02040804	-0.02040804	-30311.65	90979.92	0	792.0640917598299
6.9183097	6.9183097e-12	0.07	2.597373e7	1.5023034e7	-0.15488208	-0.02040804	-0.02040804	-27644.567	82974.673	0	792.7012861888929
6.9183097	7.5857758e-12	0.07	2.3688324e7	1.3701172e7	-0.15420389	-0.02040804	-0.02040804	-25212.159	75673.803	0	793.3384900136094
6.9183097	8.3176377e-12	0.07	2.1604009e7	1.249562e7	-0.15352571	-0.02040804	-0.02040804	-22993.776	69015.329	0	793.9756844426724
6.9183097	9.1201084e-12	0.07	1.9703091e7	1.1396143e7	-0.15284752	-0.02040804	-0.02040804	-20970.586	62942.73	0	794.6128882673889
6.9183097	1.e-11	0.07	1.7969433e7	1.0393407e7	-0.15216933	-0.02040804	-0.02040804	-19125.415	57404.452	0	795.2500920921054
6.9183097	1.0964782e-11	0.07	1.6388319e7	9.4789023e6	-0.15149115	-0.02040804	-0.02040804	-17442.6	52353.484	0	795.8872865211684
6.9183097	1.2022644e-11	0.07	1.4946325e7	8.6448636e6	-0.15081296	-0.02040804	-0.020408039	-15907.854	47746.946	0	796.5244904116545
6.9183097	1.3182567e-11	0.07	1.3631211e7	7.8842112e6	-0.15013478	-0.02040804	-0.02040804	-14508.148	43545.733	0	797.161684774948
6.9183097	1.4454398e-11	0.07	1.2431813e7	7.1904881e6	-0.14945659	-0.02040804	-0.020408039	-13231.602	39714.182	0	797.798888665434
6.9183097	1.5848932e-11	0.07	1.1337948e7	6.5578049e6	-0.14877841	-0.02040804	-0.020408039	-12067.377	36219.765	0	798.4360830944969
6.9183097	1.7378008e-11	0.07	1.0340333e7	5.9807911e6	-0.14810022	-0.02040804	-0.020408039	-11005.592	33032.819	0	799.0732869192135
6.9183097	1.9054607e-11	0.07	9.4304959e6	5.4545482e6	-0.14742203	-0.02040804	-0.020408039	-10037.232	30126.29	0	799.7104907439301
6.9183097	2.0892961e-11	0.07	8.6007151e6	4.974609e6	-0.14674385	-0.02040804	-0.020408039	-9154.0779	27475.504	0	800.3476851729931
6.9183097	2.2908677e-11	0.07	7.843946e6	4.5368992e6	-0.14606566	-0.02040804	-0.020408039	-8348.6312	25057.958	0	800.9848889977096
6.9183097	2.5118864e-11	0.07	7.1537644e6	4.1377032e6	-0.14538748	-0.02040804	-0.020408039	-7614.0552	22853.131	0	801.6220834267725
6.9183097	2.7542287e-11	0.07	6.5243113e6	3.7736321e6	-0.14470929	-0.02040804	-0.020408039	-6944.1137	20842.304	0	802.2592872514891
6.9183097	3.0199517e-11	0.07	5.9502432e6	3.4415952e6	-0.14403111	-0.02040804	-0.020408039	-6333.1198	19008.408	0	802.896481680552
6.9183097	3.3113112e-11	0.07	5.426687e6	3.138774e6	-0.14335292	-0.02040804	-0.020408039	-5775.8867	17335.875	0	803.5336855052685
6.9183097	3.6307805e-11	0.07	4.9491979e6	2.8625977e6	-0.14267473	-0.02040804	-0.020408039	-5267.6839	15810.507	0	804.170889329985
6.9183097	3.9810717e-11	0.07	4.5137228e6	2.610722e6	-0.14199655	-0.02040804	-0.020408039	-4804.1975	14419.355	0	804.8080837590479
6.9183097	4.3651583e-11	0.07	4.1165647e6	2.3810086e6	-0.14131836	-0.02040804	-0.020408039	-4381.4928	13150.609	0	805.4452875837645
6.9183097	4.7863009e-11	0.07	3.7543522e6	2.1715075e6	-0.14064018	-0.02040804	-0.020408038	-3995.9815	11993.499	0	806.082482078597
6.9183097	5.2480746e-11	0.07	3.4240105e6	1.9804402e6	-0.13996199	-0.02040804	-0.020408038	-3644.3908	10938.202	0	806.7196859033136
6.9183097	5.7543994e-11	0.07	3.1227353e6	1.8061848e6	-0.1392838	-0.02040804	-0.020408038	-3323.7364	9975.7597	0	807.35688972803
6.9183097	6.3095734e-11	0.07	2.8479691e6	1.6472619e6	-0.13860562	-0.02040804	-0.020408038	-3031.296	9098.002	0	807.9940841570931
6.9183097	6.9183097e-11	0.07	2.5973793e6	1.5023225e6	-0.13792743	-0.02040804	-0.020408038	-2764.5871	8297.4773	0	808.6312879818096
6.9183097	7.5857758e-11	0.07	2.3688387e6	1.3701362e6	-0.13724925	-0.02040804	-0.020408037	-2521.3456	7567.3903	0	809.2684824766422
6.9183097	8.3176377e-11	0.07	2.1604071e6	1.2495808e6	-0.13657106	-0.02040804	-0.020408037	-2299.5067	6901.5429	0	809.9056863013589
6.9183097	9.1201084e-11	0.07	1.9703153e6	1.1396331e6	-0.13589288	-0.02040804	-0.020408037	-2097.1871	6294.2829	0	810.5428807304216
6.9183097	1.e-10	0.07	1.7969496e6	1.0393595e6	-0.13521469	-0.02040804	-0.020408037	-1912.6695	5740.4552	0	811.1800845551383
6.9183097	1.0964782e-10	0.07	1.6388381e6	947908.86	-0.1345365	-0.02040804	-0.020408036	-1744.3873	5235.3583	0	811.8172884456242
6.9183097	1.2022644e-10	0.07	1.4946387e6	864504.9	-0.13385832	-0.020408041	-0.020408036	-1590.912	4774.7045	0	812.4544828746872
6.9183097	1.3182567e-10	0.07	1.3631273e6	788439.6	-0.13318013	-0.02040804	-0.020408036	-1450.9409	4354.5833	0	813.0916866994038
6.9183097	1.4454398e-10	0.07	1.2431875e6	719067.2	-0.13250195	-0.020408041	-0.020408035	-1323.2856	3971.4281	0	813.7288811942364
6.9183097	1.5848932e-10	0.07	1.1338011e6	655798.8	-0.13182376	-0.020408041	-0.020408035	-1206.8626	3621.9864	0	814.3660850189528
6.9183097	1.7378008e-10	0.07	1.0340395e6	598097.34	-0.13114558	-0.020408041	-0.020408034	-1100.6835	3303.2919	0	815.0032795137854
6.9183097	1.9054607e-10	0.07	943055.83	545472.97	-0.13046739	-0.020408041	-0.020408034	-1003.8469	3012.639	0	815.6404833385019
6.9183097	2.0892961e-10	0.07	860077.74	497478.96	-0.1297892	-0.020408041	-0.020408033	-915.53081	2747.5604	0	816.2776872289879
6.9183097	2.2908677e-10	0.07	784400.83	453707.9	-0.12911102	-0.020408041	-0.020408033	-834.98554	2505.8058	0	816.914881658051
6.9183097	2.5118864e-10	0.07	715382.67	413788.21	-0.12843283	-0.020408041	-0.020408032	-761.52732	2285.323	0	817.5520855485371
6.9183097	2.7542287e-10	0.07	652437.35	377381.01	-0.12775465	-0.020408041	-0.020408031	-694.53256	2084.2403	0	818.1892800433695
6.9183097	3.0199517e-10	0.07	595030.55	344177.25	-0.12707646	-0.020408041	-0.02040803	-633.43257	1900.8508	0	818.8264839338558
6.9183097	3.3113112e-10	0.07	542674.92	313895.04	-0.12639827	-0.020408041	-0.020408029	-577.70864	1733.5975	0	819.4636878243418
6.9183097	3.6307805e-10	0.07	494926.01	286277.34	-0.12572009	-0.020408042	-0.020408029	-526.88776	1581.0606	0	820.1008822534048
6.9183097	3.9810717e-10	0.07	451378.5	261089.68	-0.1250419	-0.020408042	-0.020408027	-480.53851	1441.9454	0	820.7380862096604
6.9183097	4.3651583e-10	0.07	411662.7	238118.26	-0.12436372	-0.020408042	-0.020408026	-438.26743	1315.0708	0	821.3752807044931
6.9183097	4.7863009e-10	0.07	375441.45	217168.06	-0.12368553	-0.020408042	-0.020408025	-399.71568	1199.3598	0	822.0124845949791
6.9183097	5.2480746e-10	0.07	342407.28	198061.25	-0.12300735	-0.020408042	-0.020408023	-364.55601	1093.8301	0	822.6496791555812
6.9183097	5.7543994e-10	0.07	312279.76	180635.62	-0.12232916	-0.020408043	-0.020408022	-332.48995	997.58591	0	823.2868830460673
6.9183097	6.3095734e-10	0.07	284803.13	164743.25	-0.12165097	-0.020408043	-0.02040802	-303.2453	909.81014	0	823.924087002323
6.9183097	6.9183097e-10	0.07	259744.15	150249.23	-0.12097279	-0.020408043	-0.020408018	-276.5738	829.75768	0	824.5612815629252
6.9183097	7.5857758e-10	0.07	236890.09	137030.52	-0.1202946	-0.020408043	-0.020408016	-252.24904	756.74897	0	825.1984855191807
6.9183097	8.3176377e-10	0.07	216046.94	124974.9	-0.11961642	-0.020408044	-0.020408014	-230.06454	690.16424	0	825.8356800797828
6.9183097	9.1201084e-10	0.07	197037.76	113980.04	-0.11893823	-0.020408044	-0.020408011	-209.83198	629.43823	0	826.472884101808
6.9183097	1.e-9	0.07	179701.18	103952.6	-0.11826004	-0.020408045	-0.020408009	-191.3796	574.05547	0	827.1100880580638
6.9183097	1.0964782e-9	0.07	163890.03	94807.452	-0.11758186	-0.020408045	-0.020408006	-174.55077	523.54577	0	827.7472826844354
6.9183097	1.2022644e-9	0.07	149470.1	86466.975	-0.11690367	-0.020408045	-0.020408002	-159.20263	477.4804	0	828.3844867722303
6.9183097	1.3182567e-9	0.07	136318.96	78860.361	-0.11622549	-0.020408046	-0.020407999	-145.20491	435.46827	0	829.021681398602
6.9183097	1.4454398e-9	0.07	124324.97	71923.037	-0.1155473	-0.020408047	-0.020407995	-132.43877	397.15275	0	829.6588854863968
6.9183097	1.5848932e-9	0.07	113386.33	65596.116	-0.11486912	-0.020408047	-0.02040799	-120.79586	362.20859	0	830.2960802443076
6.9183097	1.7378008e-9	0.07	103410.17	59825.886	-0.11419093	-0.020408048	-0.020407986	-110.17734	330.33913	0	830.9332843321024
6.9183097	1.9054607e-9	0.07	94311.808	54563.366	-0.11351274	-0.020408049	-0.02040798	-100.49307	301.27384	0	831.5704885514365
6.9183097	2.0892961e-9	0.07	86014.001	49763.883	-0.11283456	-0.02040805	-0.020407975	-91.66085	274.76598	0	832.2076833093472
6.9183097	2.2908677e-9	0.07	78446.31	45386.694	-0.11215637	-0.020408051	-0.020407968	-83.605712	250.59053	0	832.8448875944507
6.9183097	2.5118864e-9	0.07	71544.493	41394.641	-0.11147819	-0.020408052	-0.020407961	-76.259279	228.54225	0	833.4820824839007
6.9183097	2.7542287e-9	0.07	65249.962	37753.839	-0.1108	-0.020408053	-0.020407954	-69.559194	208.43398	0	834.1192867690042
6.9183097	3.0199517e-9	0.07	59509.281	34433.38	-0.11012182	-0.020408054	-0.020407946	-63.448583	190.09502	0	834.7564817242239
6.9183097	3.3113112e-9	0.07	54273.719	31405.076	-0.10944363	-0.020408055	-0.020407936	-57.875581	173.36969	0	835.3936862066362
6.9183097	3.6307805e-9	0.07	49498.828	28643.223	-0.10876544	-0.020408057	-0.020407926	-52.792882	158.11601	0	836.0308906890483
6.9183097	3.9810717e-9	0.07	45144.076	26124.374	-0.10808726	-0.020408058	-0.020407916	-48.157346	144.20449	0	836.6680857758071
6.9183097	4.3651583e-9	0.07	41172.496	23827.149	-0.10740907	-0.02040806	-0.020407904	-43.929628	131.51703	0	837.3052903897585
6.9183097	4.7863009e-9	0.07	37550.371	21732.047	-0.10673089	-0.020408062	-0.02040789	-40.073843	119.94593	0	837.9424857395956
6.9183097	5.2480746e-9	0.07	34246.954	19821.283	-0.1060527	-0.020408064	-0.020407876	-36.557266	109.39296	0	838.5796904850862
6.9183097	5.7543994e-9	0.07	31234.202	18078.637	-0.10537452	-0.020408067	-0.02040786	-33.35005	99.768536	0	839.2168859664624
6.9183097	6.3095734e-9	0.07	28486.54	16489.317	-0.10469633	-0.020408069	-0.020407843	-30.424974	90.990958	0	839.8540909092617
6.9183097	6.9183097e-9	0.07	25980.642	15039.832	-0.10401814	-0.020408072	-0.020407824	-27.757214	82.985713	0	840.4912959836
6.9183097	7.5857758e-9	0.07	23695.236	13717.878	-0.10333996	-0.020408075	-0.020407803	-25.324128	75.684842	0	841.1284917938241
6.9183097	8.3176377e-9	0.07	21610.92	12512.233	-0.10266177	-0.020408079	-0.02040778	-23.105067	69.026367	0	841.7656971312408
6.9183097	9.1201084e-9	0.07	19710.003	11412.664	-0.10198359	-0.020408082	-0.020407755	-21.0812	62.953768	0	842.4028932045431
6.9183097	1.e-8	0.07	17976.345	10409.837	-0.1013054	-0.020408087	-0.020407727	-19.235352	57.415491	0	843.0400988708078
6.9183097	1.0964782e-8	0.07	16395.23	9495.2397	-0.10062722	-0.020408091	-0.020407697	-17.551858	52.364522	0	843.677295272958
6.9183097	1.2022644e-8	0.07	14953.236	8661.1089	-0.099949029	-0.020408096	-0.020407664	-16.016435	47.757984	0	844.3145022076358
6.9183097	1.3182567e-8	0.07	13638.122	7900.3646	-0.099270844	-0.020408101	-0.020407628	-14.616052	43.556772	0	844.9517037022301
6.9183097	1.4454398e-8	0.07	12438.724	7206.5494	-0.098592658	-0.020408107	-0.020407588	-13.338828	39.72522	0	845.5889063994683
6.9183097	1.5848932e-8	0.07	11344.86	6573.7743	-0.097914472	-0.020408114	-0.020407545	-12.173926	36.230804	0	846.226109294015
6.9183097	1.7378008e-8	0.07	10347.244	5996.6684	-0.097236287	-0.020408121	-0.020407497	-11.111463	33.043858	0	846.8633115778445
6.9183097	1.9054607e-8	0.07	9437.4073	5470.3336	-0.096558101	-0.020408129	-0.020407445	-10.142426	30.137329	0	847.5005150643175
6.9183097	2.0892961e-8	0.07	8607.6265	4990.3023	-0.095879915	-0.020408137	-0.020407387	-9.2585941	27.486543	0	848.1377189454078
6.9183097	2.2908677e-8	0.07	7850.8574	4552.5006	-0.09520173	-0.020408147	-0.020407324	-8.4524699	25.068997	0	848.7749222157809
6.9183097	2.5118864e-8	0.07	7160.6758	4153.2125	-0.094523544	-0.020408157	-0.020407255	-7.7172164	22.864169	0	849.4121268203365
6.9183097	2.7542287e-8	0.07	6531.2227	3789.0493	-0.093845359	-0.020408168	-0.020407179	-7.0465973	20.853342	0	850.0493309457139
6.9183097	3.0199517e-8	0.07	5957.1547	3456.9205	-0.093167173	-0.020408181	-0.020407096	-6.434926	19.019447	0	850.6865364710437
6.9183097	3.3113112e-8	0.07	5433.5983	3154.0072	-0.092488987	-0.020408194	-0.020407005	-5.8770153	17.346914	0	851.3237425225302
6.9183097	3.6307805e-8	0.07	4956.1094	2877.739	-0.091810802	-0.020408209	-0.020406905	-5.3681352	15.821546	0	851.9609482263774
6.9183097	3.9810717e-8	0.07	4520.6342	2625.7713	-0.091132617	-0.020408226	-0.020406796	-4.9039712	14.430394	0	852.5981545221506
6.9183097	4.3651583e-8	0.07	4123.4761	2395.9659	-0.090454431	-0.020408244	-0.020406676	-4.4805889	13.161647	0	853.2353624809548
6.9183097	4.7863009e-8	0.07	3761.2636	2186.3727	-0.089776246	-0.020408263	-0.020406545	-4.0944001	12.004537	0	853.8725702236587
6.9183097	5.2480746e-8	0.07	3430.922	1995.2134	-0.08909806	-0.020408285	-0.0204064	-3.742132	10.949241	0	854.5097798267021
6.9183097	5.7543994e-8	0.07	3129.6468	1820.866	-0.088419875	-0.020408308	-0.020406242	-3.4208	9.9867984	0	855.1469893451846
6.9183097	6.3095734e-8	0.07	2854.8805	1661.8511	-0.087741689	-0.020408335	-0.020406069	-3.127682	9.1090405	0	855.7842007897762
6.9183097	6.9183097e-8	0.07	2604.2907	1516.8197	-0.087063504	-0.020408363	-0.020405879	-2.8602956	8.308516	0	856.4214124128852
6.9183097	7.5857758e-8	0.07	2375.7501	1384.5414	-0.086385319	-0.020408394	-0.02040567	-2.6163767	7.578429	0	857.0586252856158
6.9183097	8.3176377e-8	0.07	2167.3186	1263.894	-0.085707134	-0.020408428	-0.020405441	-2.3938603	6.9125817	0	857.6958394737383
6.9183097	9.1201084e-8	0.07	1977.2268	1153.8542	-0.085028949	-0.020408466	-0.020405191	-2.1908632	6.3053216	0	858.3330550430214
6.9183097	1.e-7	0.07	1803.861	1053.4886	-0.084350764	-0.020408507	-0.020404916	-2.005668	5.751494	0	858.9702722565444
6.9183097	1.0964782e-7	0.07	1645.7496	961.94601	-0.083672579	-0.020408552	-0.020404614	-1.8367083	5.2463972	0	859.6074912458455
6.9183097	1.2022644e-7	0.07	1501.5502	878.45005	-0.082994394	-0.020408601	-0.020404284	-1.6825555	4.7857434	0	860.2447120766949
6.9183097	1.3182567e-7	0.07	1370.0388	802.29272	-0.082316209	-0.020408655	-0.020403922	-1.5419068	4.3656222	0	860.8819350121706
6.9183097	1.4454398e-7	0.07	1250.099	732.82832	-0.081638024	-0.020408715	-0.020403524	-1.4135741	3.9824671	0	861.519160315351
6.9183097	1.5848932e-7	0.07	1140.7126	669.46792	-0.08095984	-0.02040878	-0.020403089	-1.2964735	3.6330255	0	862.1563871124403
6.9183097	1.7378008e-7	0.07	1040.951	611.67444	-0.080281655	-0.020408851	-0.020402611	-1.1896168	3.3143309	0	862.7936176771866
6.9183097	1.9054607e-7	0.07	949.9674	558.95807	-0.079603471	-0.02040893	-0.020402087	-1.0921027	3.0236781	0	863.4308503277681
6.9183097	2.0892961e-7	0.07	866.98934	510.87206	-0.078925287	-0.020409016	-0.020401513	-1.0031092	2.7585996	0	864.0680862668281
6.9183097	2.2908677e-7	0.07	791.31244	467.00899	-0.078247103	-0.02040911	-0.020400883	-0.92188635	2.516845	0	864.7053258889846
6.9183097	2.5118864e-7	0.07	722.29431	426.9973	-0.077568919	-0.020409213	-0.020400193	-0.8477506	2.2963624	0	865.3425694573154
6.9183097	2.7542287e-7	0.07	659.34902	390.4981	-0.076890735	-0.020409326	-0.020399436	-0.78007832	2.0952798	0	865.9798174322077
6.9183097	3.0199517e-7	0.07	601.94224	357.20233	-0.076212551	-0.02040945	-0.020398606	-0.71830078	1.9118903	0	866.617070208279
6.9183097	3.3113112e-7	0.07	549.58664	326.82812	-0.075534368	-0.020409586	-0.020397696	-0.66189932	1.7446371	0	867.2543273063508
6.9183097	3.6307805e-7	0.07	501.83777	299.11842	-0.074856185	-0.020409736	-0.020396698	-0.61040089	1.5921004	0	867.8915901921451
6.9183097	3.9810717e-7	0.07	458.29028	273.83876	-0.074178002	-0.0204099	-0.020395604	-0.56337409	1.4529852	0	868.5288593918187
6.9183097	4.3651583e-7	0.07	418.57452	250.77534	-0.07349982	-0.020410079	-0.020394404	-0.52042546	1.3261108	0	869.1661346235019
6.9183097	4.7863009e-7	0.07	382.35331	229.73315	-0.072821638	-0.020410276	-0.020393088	-0.48119617	1.2103999	0	869.8034174844556
6.9183097	5.2480746e-7	0.07	349.31919	210.53433	-0.072143456	-0.020410492	-0.020391646	-0.44535894	1.1048704	0	870.4407086323756
6.9183097	5.7543994e-7	0.07	319.19172	193.01671	-0.071465274	-0.020410728	-0.020390064	-0.41261532	1.0086263	0	871.0780089880362
6.9183097	6.3095734e-7	0.07	291.71515	177.03235	-0.070787093	-0.020410988	-0.02038833	-0.3826931	0.92085073	0	871.715318401107
6.9183097	6.9183097e-7	0.07	266.65623	162.44633	-0.070108913	-0.020411272	-0.020386429	-0.35534403	0.84079847	0	872.352637858131
6.9183097	7.5857758e-7	0.07	243.80223	149.13563	-0.069430733	-0.020411584	-0.020384344	-0.3303417	0.76779	0	872.9899694167568
6.9183097	8.3176377e-7	0.07	222.95915	136.98802	-0.068752553	-0.020411927	-0.020382058	-0.30747961	0.7012055	0	873.6273141950671
6.9183097	9.1201084e-7	0.07	203.95005	125.90118	-0.068074374	-0.020412302	-0.020379552	-0.28656945	0.64047977	0	874.2646725031183
6.9183097	1.e-6	0.07	186.61356	115.78175	-0.067396196	-0.020412713	-0.020376804	-0.26743948	0.58509729	0	874.9020457878414
6.9183097	1.0964782e-6	0.07	170.80251	106.54463	-0.066718019	-0.020413164	-0.02037379	-0.24993304	0.53458794	0	875.539435627706
6.9183097	1.2022644e-6	0.07	156.38268	98.11217	-0.066039842	-0.020413659	-0.020370486	-0.23390729	0.48852291	0	876.176844540747
6.9183097	1.3182567e-6	0.07	143.23165	90.41358	-0.065361666	-0.020414202	-0.020366864	-0.21923193	0.44651117	0	876.8142734289474
6.9183097	1.4454398e-6	0.07	131.23779	83.384285	-0.064683491	-0.020414796	-0.020362891	-0.20578815	0.40819608	0	877.4517244627032
6.9183097	1.5848932e-6	0.07	120.29929	76.965395	-0.064005317	-0.020415449	-0.020358536	-0.19346759	0.37325238	0	878.089199680871
6.9183097	1.7378008e-6	0.07	110.32328	71.103203	-0.063327145	-0.020416164	-0.020353761	-0.18217139	0.34138344	0	878.7267006431296
6.9183097	1.9054607e-6	0.07	101.22508	65.748723	-0.062648973	-0.020416949	-0.020348525	-0.17180944	0.3123187	0	879.3642319251618
6.9183097	2.0892961e-6	0.07	92.927454	60.857287	-0.061970804	-0.020417809	-0.020342784	-0.16229952	0.28581146	0	880.001793602133
6.9183097	2.2908677e-6	0.07	85.359961	56.388149	-0.061292635	-0.020418752	-0.020336489	-0.15356667	0.26163668	0	880.6393917154487
6.9183097	2.5118864e-6	0.07	78.458363	52.304155	-0.060614468	-0.020419786	-0.020329587	-0.1455425	0.23958915	0	881.2770278717653
6.9183097	2.7542287e-6	0.07	72.164071	48.571417	-0.059936304	-0.020420921	-0.020322019	-0.13816465	0.21948169	0	881.9147050119226
6.9183097	3.0199517e-6	0.07	66.423652	45.159029	-0.059258141	-0.020422165	-0.020313722	-0.13137625	0.20114362	0	882.5524291585342
6.9183097	3.3113112e-6	0.07	61.188376	42.038805	-0.05857998	-0.020423529	-0.020304624	-0.12512543	0.18441927	0	883.1902041074444
6.9183097	3.6307805e-6	0.07	56.413801	39.18504	-0.057901822	-0.020425025	-0.020294649	-0.11936489	0.16916666	0	883.8280339175753
6.9183097	3.9810717e-6	0.07	52.059395	36.57429	-0.057223667	-0.020426665	-0.020283712	-0.11405148	0.15525631	0	884.4659241793408
6.9183097	4.3651583e-6	0.07	48.088192	34.185173	-0.056545514	-0.020428464	-0.02027172	-0.10914585	0.14257013	0	885.103881948877
6.9183097	4.7863009e-6	0.07	44.466483	31.998191	-0.055867365	-0.020430437	-0.020258572	-0.10461212	0.13100044	0	885.7419119897795
6.9183097	5.2480746e-6	0.07	41.163521	29.99556	-0.055189219	-0.020432601	-0.020244157	-0.10041755	0.12044902	0	886.3800225420371
6.9183097	5.7543994e-6	0.07	38.151268	28.161061	-0.054511077	-0.020434974	-0.020228351	-0.096532293	0.11082629	0	887.0182208215112
6.9183097	6.3095734e-6	0.07	35.404152	26.479903	-0.05383294	-0.020437576	-0.020211023	-0.092929127	0.10205057	0	887.6565145044511
6.9183097	6.9183097e-6	0.07	32.898854	24.938596	-0.053154807	-0.020440429	-0.020192024	-0.08958322	0.094047362	0	888.2949143300888
6.9183097	7.5857758e-6	0.07	30.614105	23.524839	-0.052476679	-0.020443559	-0.020171194	-0.086471926	0.086748724	0	888.9334298819903
6.9183097	8.3176377e-6	0.07	28.530511	22.227411	-0.051798557	-0.020446991	-0.020148357	-0.08357459	0.080092699	0	889.5720717960359
6.9183097	9.1201084e-6	0.07	26.630382	21.036081	-0.051120442	-0.020450756	-0.020123321	-0.080872374	0.074022782	0	890.2108517604183
6.9183097	0.00001	0.07	24.89759	19.941516	-0.050442333	-0.020454884	-0.020095874	-0.078348095	0.068487447	0	890.8497846578528
6.9183097	0.000010964782	0.07	23.317424	18.935208	-0.049764232	-0.020459412	-0.020065784	-0.075986082	0.063439702	0	891.4888838677497
6.9183097	0.000012022644	0.07	21.873421	18.00934	-0.049091718	-0.020477612	-0.020046033	-0.073775302	0.05883303	0	892.1220537344057
6.9183097	0.000013182567	0.07	20.559155	17.15694	-0.048414169	-0.020484317	-0.020011133	-0.071696508	0.05463534	0	892.7609506558829
6.9183097	0.000014454398	0.07	19.360687	16.371504	-0.047736682	-0.020491666	-0.019972874	-0.069740787	0.050807651	0	893.4000102443091
6.9183097	0.000015848932	0.07	18.267842	15.647145	-0.047059261	-0.020499722	-0.019930936	-0.067897292	0.047317466	0	894.0392497876869
6.9183097	0.000017378008	0.07	17.271344	14.978496	-0.046381913	-0.020508553	-0.019884967	-0.066156131	0.044135159	0	894.6786858599488
6.9183097	0.000019054607	0.07	16.362732	14.360663	-0.045704646	-0.020518231	-0.019834584	-0.064508282	0.041233712	0	895.3183361343192
6.9183097	0.000020892961	0.07	15.534294	13.789182	-0.045027466	-0.020528839	-0.019779366	-0.062945511	0.038588495	0	895.9582226623971
6.9183097	0.000022908677	0.07	14.778995	13.259984	-0.044350382	-0.020540464	-0.019718858	-0.061460311	0.036177048	0	896.5983669132503
6.9183097	0.000025118864	0.07	14.090424	12.769359	-0.043673404	-0.020553205	-0.01965256	-0.06004583	0.033978901	0	897.2387923760128
6.9183097	0.000027542287	0.07	13.462735	12.313922	-0.04299654	-0.020567166	-0.01957993	-0.058695819	0.031975389	0	897.8795271812711
6.9183097	0.000030199517	0.07	12.890599	11.890589	-0.042319801	-0.020582463	-0.019500378	-0.057404575	0.0301495	0	898.5205997978554
6.9183097	0.000033113112	0.07	12.369156	11.496546	-0.0416432	-0.020599225	-0.019413263	-0.056166892	0.028485728	0	899.1620401697132
6.9183097	0.000036307805	0.07	11.893979	11.129231	-0.040966749	-0.020617588	-0.019317892	-0.054978024	0.026969942	0	899.8038826003759
6.9183097	0.000039810717	0.07	11.461031	10.786306	-0.040290462	-0.020637704	-0.019213517	-0.053833635	0.025589266	0	900.4461631315697
6.9183097	0.000043651583	0.07	11.066634	10.465639	-0.039614354	-0.02065974	-0.019099331	-0.052729768	0.024331964	0	901.0889207458613
6.9183097	0.000047863009	0.07	10.707435	10.165289	-0.038938441	-0.020683874	-0.01897447	-0.051662812	0.02318735	0	901.7321972351175
6.9183097	0.000052480746	0.07	10.380379	9.8834849	-0.038262742	-0.020710304	-0.018838012	-0.050629468	0.022145682	0	902.3760353871443
6.9183097	0.000057543994	0.07	10.082683	9.6186129	-0.037587276	-0.020739245	-0.018688977	-0.049626724	0.021198092	0	903.020481804383
6.9183097	0.000063095734	0.07	9.8118077	9.3692019	-0.036912063	-0.02077093	-0.018526333	-0.048651829	0.020336497	0	903.6655855697275
6.9183097	0.000069183097	0.07	9.565442	9.1339107	-0.036237127	-0.020805616	-0.018349001	-0.047702267	0.019553538	0	904.3113950989804
6.9183097	0.000075857758	0.07	9.3414771	8.9115166	-0.035562491	-0.020843578	-0.018155863	-0.046775741	0.018842507	0	904.9579623125228
6.9183097	0.000083176377	0.07	9.1379899	8.700904	-0.034888183	-0.020885121	-0.017945779	-0.045870151	0.018197291	0	905.6053358798399
6.9183097	0.000091201084	0.07	8.953225	8.5010551	-0.034214231	-0.02093057	-0.017717602	-0.044983577	0.017612316	0	906.2535649308037
6.9183097	0.0001	0.07	8.7855786	8.3110402	-0.033540666	-0.020980285	-0.0174702	-0.044114264	0.017082491	0	906.9026947900469
6.9183097	0.00010964782	0.07	8.6335831	8.1300097	-0.032867521	-0.02103465	-0.017202487	-0.043260606	0.016603165	0	907.5527658776708
6.9183097	0.00012022644	0.07	8.4958931	7.9571858	-0.03219483	-0.021094087	-0.016913453	-0.042421137	0.016170079	0	908.2038126757236
6.9183097	0.00013182567	0.07	8.3712724	7.7918555	-0.031522631	-0.021159049	-0.016602203	-0.041594514	0.015779323	0	908.8558583444915
6.9183097	0.00014454398	0.07	8.2585812	7.6333637	-0.030850965	-0.021230029	-0.016268002	-0.040779514	0.015427299	0	909.5089127024322
6.9183097	0.00015848932	0.07	8.1567657	7.4811074	-0.030179874	-0.021307555	-0.015910309	-0.03997502	0.015110683	0	910.1629718691404
6.9183097	0.00017378008	0.07	8.0648475	7.3345301	-0.029509402	-0.021392201	-0.015528826	-0.039180014	0.014826396	0	910.8180141030748
6.9183097	0.00019054607	0.07	7.981915	7.1931167	-0.028839596	-0.021484581	-0.015123526	-0.03839357	0.014571569	0	911.4739970204417
6.9183097	0.00020892961	0.07	7.9071164	7.0563901	-0.028170505	-0.021585358	-0.014694686	-0.037614851	0.014343528	0	912.1308563643671
6.9183097	0.00022908677	0.07	7.839653	6.9239071	-0.027502181	-0.021695238	-0.014242896	-0.036843098	0.014139767	0	912.7885044734038
6.9183097	0.00025118864	0.07	7.7787756	6.7952561	-0.026834674	-0.02181498	-0.013769059	-0.03607763	0.013957939	0	913.4468349793586
6.9183097	0.00027542287	0.07	7.7237815	6.6700552	-0.026168039	-0.021945389	-0.013274376	-0.035317835	0.013795841	0	914.1057172168784
6.9183097	0.00030199517	0.07	7.6740126	6.5479506	-0.025502329	-0.022087321	-0.012760312	-0.03456317	0.013651411	0	914.7650050365725
6.9183097	0.00033113112	0.07	7.6288552	6.4286156	-0.024837597	-0.022241683	-0.012228555	-0.033813153	0.013522728	0	915.4245376224361
6.9183097	0.00036307805	0.07	7.5877401	6.3117501	-0.024173895	-0.022409428	-0.011680959	-0.033067361	0.013408004	0	916.0841441802796
6.9183097	0.00039810717	0.07	7.5501432	6.19708	-0.023511274	-0.022591556	-0.011119487	-0.032325422	0.013305592	0	916.7436476865956
6.9183097	0.00043651583	0.07	7.5155863	6.0843568	-0.022849781	-0.022789109	-0.010546159	-0.031587015	0.013213982	0	917.4028711272723
6.9183097	0.00047863009	0.07	7.4836374	5.9733569	-0.022189457	-0.023003163	-0.0099629912	-0.030851865	0.013131805	0	918.0616433755138
6.9183097	0.00052480746	0.07	7.4539108	5.8638807	-0.021530338	-0.023234827	-0.0093719563	-0.030119736	0.013057828	0	918.7198008633279
6.9183097	0.00057543994	0.07	7.4260672	5.7557522	-0.020872453	-0.02348523	-0.0087749377	-0.029390425	0.012990955	0	919.3771924729034
6.9183097	0.00063095734	0.07	7.3998128	5.6488175	-0.020215822	-0.023755509	-0.0081736999	-0.028663764	0.012930223	0	920.0336833625184
6.9183097	0.00069183097	0.07	7.3748982	5.5429437	-0.019560452	-0.024046803	-0.0075698643	-0.027939608	0.012874797	0	920.689160316428
6.9183097	0.00075857758	0.07	7.3511169	5.4380179	-0.018906341	-0.02436023	-0.0069648864	-0.027217838	0.012823966	0	921.3435294861467
6.9183097	0.00083176377	0.07	7.3283039	5.3339453	-0.018253473	-0.024696881	-0.0063600443	-0.026498351	0.012777135	0	921.9967218446272
6.9183097	0.00091201084	0.07	7.3063328	5.2306484	-0.017601818	-0.025057798	-0.0057564239	-0.025781058	0.012733821	0	922.6486941596489
6.9183097	0.001	0.07	7.285114	5.1280651	-0.01695133	-0.025443959	-0.0051549138	-0.025065881	0.012693645	0	923.2994312083741
6.9183097	0.0010964782	0.07	7.2645915	5.0261473	-0.016301952	-0.025856264	-0.0045561948	-0.02435275	0.012656325	0	923.9489417701016
6.9183097	0.0012022644	0.07	7.2447397	4.9248594	-0.01565361	-0.026295524	-0.0039607406	-0.023641597	0.012621664	0	924.5972642176196
6.9183097	0.0013182567	0.07	7.2255602	4.8241768	-0.015006219	-0.026762441	-0.0033688133	-0.022932358	0.012589546	0	925.2444611757775
6.9183097	0.0014454398	0.07	7.2070774	4.7240838	-0.014359681	-0.027257612	-0.0027804668	-0.022224965	0.012559923	0	925.8906211769992
6.9183097	0.0015848932	0.07	7.1893352	4.6245723	-0.013713892	-0.027781519	-0.002195553	-0.021519347	0.012532806	0	926.5358516765557
6.9183097	0.0017378008	0.07	7.172392	4.52564	-0.013068736	-0.02833453	-0.0016137321	-0.020815431	0.012508253	0	927.1802840125283
6.9183097	0.0019054607	0.07	7.1563169	4.4272883	-0.012424094	-0.028916918	-0.0010344899	-0.020113133	0.012486357	0	927.8240638119095
6.9183097	0.0020892961	0.07	7.1411854	4.3295209	-0.011779845	-0.029528866	-0.00045715732	-0.019412366	0.012467233	0	928.4673487672133
6.9183097	0.0022908677	0.07	7.1270749	4.2323419	-0.011135864	-0.030170492	0.00011906103	-0.018713032	0.012451008	0	929.1103086365702
6.9183097	0.0025118864	0.07	7.1140612	4.1357542	-0.010492031	-0.030841883	0.00069505123	-0.018015029	0.012437806	0	929.753114444927
6.9183097	0.0027542287	0.07	7.102214	4.0397576	-0.0098482249	-0.031543132	0.0012717485	-0.017318245	0.012427738	0	930.3959414826686
6.9183097	0.0030199517	0.07	7.091593	3.9443476	-0.0092043299	-0.032274382	0.001850087	-0.016622562	0.012420887	0	931.038959990769
6.9183097	0.0033113112	0.07	7.0822445	3.8495133	-0.0085602363	-0.033035882	0.0024309452	-0.015927858	0.012417297	0	931.6823308161445
6.9183097	0.0036307805	0.07	7.0741972	3.7552364	-0.0079158395	-0.033828054	0.003015076	-0.015234007	0.012416957	0	932.3262017552438
6.9183097	0.0039810717	0.07	7.0674585	3.6614893	-0.0072710426	-0.034651563	0.0036030352	-0.014540881	0.012419795	0	932.9707004066786
6.9183097	0.0043651583	0.07	7.0620112	3.5682344	-0.0066257556	-0.035507398	0.0041950979	-0.013848352	0.01242566	0	933.6159294245402
6.9183097	0.0047863009	0.07	7.0578116	3.4754229	-0.0059798942	-0.036396956	0.0047911768	-0.013156295	0.012434316	0	934.2619622725043
6.9183097	0.0052480746	0.07	7.0547896	3.3829949	-0.0053333761	-0.03732213	0.0053907334	-0.012464592	0.012445444	0	934.9088408598827
6.9183097	0.0057543994	0.07	7.0528539	3.2908809	-0.0046861131	-0.038285377	0.0059927064	-0.011773131	0.012458642	0	935.5565782550902
6.9183097	0.0063095734	0.07	7.0519036	3.1990056	-0.0040379965	-0.039289778	0.0065954572	-0.01108181	0.012473456	0	936.2051688188556
6.9183097	0.0069183097	0.07	7.0518494	3.1072935	-0.0033888732	-0.040339046	0.0071967589	-0.010390538	0.012489423	0	936.8546099363684
6.9183097	0.0075857758	0.07	7.0526457	3.0156789	-0.0027385128	-0.041437484	0.0077938396	-0.0096992296	0.012506145	0	937.5049357768016
6.9183097	0.0083176377	0.07	7.0543324	2.9241184	-0.0020865642	-0.042589874	0.008383495	-0.0090078003	0.012523387	0	938.1562654761024
6.9183097	0.0091201084	0.07	7.0570811	2.8326043	-0.0014325091	-0.043801284	0.0089622825	-0.0083161555	0.012541184	0	938.808859592654
6.9183097	0.01	0.07	7.0612357	2.7411773	-0.00077562251	-0.045076809	0.0095267777	-0.007624176	0.012559959	0	939.463174080609
6.9183097	0.010964782	0.07	7.067334	2.6499354	-0.00011495231	-0.04642127	0.010073881	-0.0069316992	0.012580593	0	940.119899659555
6.9183097	0.012022644	0.07	7.0760982	2.5590343	0.00055066608	-0.047838893	0.010601141	-0.0062385005	0.012604459	0	940.7799693009729
6.9183097	0.013182567	0.07	7.0883815	2.4686803	0.0012225484	-0.049333002	0.011107057	-0.0055442774	0.012633378	0	941.444520528175
6.9183097	0.014454398	0.07	7.1050616	2.379111	0.0019020422	-0.050905829	0.011591273	-0.0048486415	0.012669487	0	942.114796038481
6.9183097	0.015848932	0.07	7.1268414	2.2905545	0.0025903284	-0.052558807	0.012054289	-0.0041511249	0.012714935	0	942.791938268191
6.9183097	0.017378008	0.07	7.1538522	2.2031288	0.0032881043	-0.054294552	0.012495478	-0.0034512139	0.012771103	0	943.4765611386999
6.9183097	0.019054607	0.07	7.1849164	2.1166162	0.0039951449	-0.056123094	0.012906857	-0.0027484392	0.01283686	0	944.1679282092914
6.9183097	0.020892961	0.07	7.2170885	2.0303109	0.0047101648	-0.05806919	0.013265777	-0.0020425364	0.01290727	0	944.8633421475715
6.9183097	0.022908677	0.07	7.2476961	1.9438157	0.005431683	-0.060155056	0.013552191	-0.0013335455	0.012979369	0	945.5600929745967
6.9183097	0.025118864	0.07	7.2765915	1.8581801	0.0061578587	-0.062361376	0.013787647	-0.00062164195	0.013060712	0	946.2578683412621
6.9183097	0.027542287	0.07	7.3028264	1.7751869	0.0068832477	-0.064629754	0.014032841	0.000092988396	0.013164238	0	946.9555450159833
6.9183097	0.030199517	0.07	7.3199564	1.6963637	0.0075949109	-0.066883073	0.014367257	0.00080982883	0.013300678	0	947.6461934975994
6.9183097	0.033113112	0.07	7.3114378	1.6231061	0.0082662697	-0.069018346	0.01489632	0.0015272886	0.01347872	0	948.3117752118907
6.9183097	0.036307805	0.07	7.2370822	1.5574957	0.0088380904	-0.070862546	0.015795565	0.0022411947	0.013709516	0	948.9081810890448
6.9183097	0.039810717	0.07	6.9747542	1.5029205	0.0091465881	-0.072096646	0.017386606	0.0029402668	0.014006734	0	949.3026769281014
6.9183097	0.043651583	0.07	6.4891961	1.4375953	0.0092063396	-0.073821888	0.018570862	0.0035997063	0.014185164	0	949.436705380331
6.9183097	0.047863009	0.07	6.1125614	1.3562232	0.0094249373	-0.07685379	0.018535557	0.0042166932	0.014202984	0	949.6397702100128
6.9183097	0.052480746	0.07	5.8046196	1.2762932	0.0097051102	-0.080287452	0.018188413	0.0048003151	0.014198056	0	949.8801794456919
6.9183097	0.057543994	0.07	5.5517665	1.200025	0.010024421	-0.083927363	0.017727852	0.0053565042	0.014192658	0	950.1499019082512
6.9183097	0.063095734	0.07	5.3555092	1.127503	0.010382849	-0.087677029	0.017253363	0.0058905989	0.014192752	0	950.4554614978861
6.9183097	0.069183097	0.07	5.2344043	1.0583612	0.010802073	-0.091476823	0.016827659	0.0064089183	0.014201959	0	950.8213514712315
6.9183097	0.075857758	0.07	5.2231967	0.99224369	0.011325196	-0.09528961	0.016491058	0.0069204072	0.014226604	0	951.2907216112734
6.9183097	0.083176377	0.07	5.3709919	0.92891058	0.012016069	-0.099097495	0.01626473	0.0074381361	0.014277991	0	951.9249564470665
6.9183097	0.091201084	0.07	5.7391737	0.86822815	0.012958462	-0.10290287	0.016149657	0.0079806093	0.014373641	0	952.8028279537025
6.9183097	0.1	0.07	6.3990852	0.81013327	0.014254863	-0.10673106	0.016123997	0.0085728561	0.014538117	0	954.0191937657261
6.9183097	0.10964782	0.07	7.4296459	0.7546027	0.016024986	-0.11063284	0.01614055	0.0092472895	0.014803662	0	955.683428685531
6.9183097	0.12022644	0.07	8.9154568	0.7016344	0.018404459	-0.11468543	0.016125799	0.010044348	0.015210699	0	957.918128900598
6.9183097	0.13182567	0.07	10.945651	0.65115846	0.021543888	-0.11898835	0.015984022	0.011013074	0.015807754	0	960.8585029948193
6.9183097	0.14454398	0.07	13.617823	0.60341112	0.025613793	-0.1236704	0.015590351	0.012211371	0.016654473	0	964.6565531364481
6.9183097	0.15848932	0.07	17.037339	0.55825462	0.030803231	-0.12886171	0.014818687	0.013707325	0.017817926	0	969.4816172542844
6.9183097	0.17378008	0.07	21.324832	0.51571883	0.037329073	-0.13470138	0.013534108	0.015579974	0.019377371	0	975.5285860628176
6.9183097	0.19054607	0.07	26.619117	0.4758393	0.045439857	-0.14132314	0.011607162	0.017921049	0.021424801	0	983.0224632520475
6.9183097	0.20892961	0.07	33.077727	0.43865636	0.05541752	-0.14884565	0.0089236307	0.020836823	0.024066786	0	992.220634969066
6.9183097	0.22908677	0.07	40.871784	0.40421046	0.067572871	-0.1573625	0.0053944842	0.024449749	0.027426075	0	1003.4092711221008
6.9183097	0.25118864	0.07	50.173574	0.37253298	0.082232481	-0.16693245	0.00096564791	0.028899241	0.031642316	0	1016.8916500442907
6.9183097	0.27542287	0.07	61.137092	0.34363355	0.099716586	-0.17757103	-0.0043735423	0.03434089	0.03687117	0	1032.9679530097662
6.9183097	0.30199517	0.07	73.874507	0.31748576	0.12031075	-0.18924532	-0.010585196	0.040943529	0.043281275	0	1051.9089780955933
6.9183097	0.33113112	0.07	88.434156	0.29401546	0.14423725	-0.20187443	-0.017583246	0.048884012	0.051048938	0	1073.9292296715385
6.9183097	0.36307805	0.07	104.78666	0.27309534	0.17163377	-0.21533655	-0.02524059	0.058340189	0.060351074	0	1099.1664303174402
6.9183097	0.39810717	0.07	122.8238	0.25454841	0.20254533	-0.22948214	-0.033402212	0.069483117	0.071357436	0	1127.6730746017165
6.9183097	0.43651583	0.07	142.37054	0.23815972	0.23693103	-0.24415026	-0.041901533	0.082469828	0.084223472	0	1159.4216901315026
6.9183097	0.47863009	0.07	163.20635	0.22369293	0.27468222	-0.25918457	-0.050576395	0.097437767	0.099084887	0	1194.3208581941828
6.9183097	0.52480746	0.07	185.08962	0.21090749	0.31564619	-0.27444601	-0.059281743	0.11450153	0.11605451	0	1232.2366379707883
6.9183097	0.57543994	0.07	207.77975	0.1995727	0.3596493	-0.28982081	-0.067897638	0.13375192	0.13522144	0	1273.01377167094
6.9183097	0.63095734	0.07	231.05383	0.18947714	0.40651586	-0.30522392	-0.07633265	0.15525691	0.15665209	0	1316.4932003704935
6.9183097	0.69183097	0.07	254.71683	0.1804335	0.4560813	-0.32059877	-0.084523636	0.17906393	0.18039252	0	1362.5244526880422
6.9183097	0.75857758	0.07	278.60639	0.17227992	0.50820008	-0.33591464	-0.092433114	0.20520287	0.20647142	0	1410.973249457738
6.9183097	0.83176377	0.07	302.59349	0.16487889	0.56274941	-0.35116277	-0.10004533	0.23368936	0.23490341	0	1461.7252575841312
6.9183097	0.91201084	0.07	326.58058	0.15811505	0.61963012	-0.36635195	-0.10736189	0.26452791	0.26569216	0	1514.687194745526
6.9183097	1.	0.07	350.4983	0.15189238	0.67876578	-0.38150428	-0.11439747	0.29771493	0.29883336	0	1569.7862847279464
6.9183097	1.0964782	0.07	374.30162	0.14613138	0.74010095	-0.39665129	-0.12117594	0.33324122	0.33431723	0	1626.968868108645
6.9183097	1.2022644	0.07	397.96597	0.14076645	0.80359901	-0.41183071	-0.12772716	0.3710942	0.37213071	0	1686.1985741250098
6.9183097	1.3182567	0.07	421.48363	0.13574354	0.86923993	-0.42708387	-0.1340843	0.41125977	0.41225929	0	1747.4544017062951
6.9183097	1.4454398	0.07	444.86045	0.13101812	0.93701818	-0.44245368	-0.1402819	0.45372371	0.45468844	0	1810.7288833750113
6.9183097	1.5848932	0.07	468.11312	0.12655347	1.0069408	-0.45798325	-0.14635443	0.49847297	0.49940482	0	1876.0263665939897
6.9183097	1.7378008	0.07	491.26673	0.12231924	1.079026	-0.47371485	-0.15233524	0.54549654	0.54639722	0	1943.3617674329444
6.9183097	1.9054607	0.07	514.35284	0.11829029	1.1533012	-0.48968937	-0.15825602	0.59478623	0.59565723	0	2012.7587645359563
6.9183097	2.0892961	0.07	537.40788	0.11444573	1.2298024	-0.50594591	-0.1641464	0.64633715	0.64717985	0	2084.249233503133
6.9183097	2.2908677	0.07	560.47182	0.11076808	1.308573	-0.5225217	-0.17003384	0.7001482	0.70096382	0	2157.872145438149
6.9183097	2.5118864	0.07	583.58713	0.1072427	1.3896629	-0.53945208	-0.1759436	0.75622232	0.75701198	0	2233.6727233125166
6.9183097	2.7542287	0.07	606.79796	0.10385718	1.473128	-0.55677058	-0.18189883	0.8145667	0.81533143	0	2311.701966263652
6.9183097	3.0199517	0.07	630.14951	0.10060102	1.5590293	-0.57450914	-0.18792075	0.8751929	0.87593366	0	2392.015792147534
6.9183097	3.3113112	0.07	653.68751	0.097465205	1.6474329	-0.59269821	-0.19402877	0.93811697	0.93883463	0	2474.6750296463565
6.9183097	3.6307805	0.07	677.45787	0.094441962	1.7384095	-0.611367	-0.20024071	1.0033594	1.0040548	0	2559.7449340165467
6.9183097	3.9810717	0.07	701.50638	0.091524543	1.832034	-0.63054367	-0.20657299	1.0709453	1.0716192	0	2647.294798766407
6.9183097	4.3651583	0.07	725.87853	0.088707035	1.9283854	-0.65025552	-0.21304079	1.1409041	1.1415573	0	2737.3978511764462
6.9183097	4.7863009	0.07	750.61938	0.085984216	2.0275465	-0.67052913	-0.21965824	1.2132697	1.2139028	0	2830.1309579335557
6.9183097	5.2480746	0.07	775.77348	0.083351435	2.1296039	-0.69139061	-0.22643853	1.2880805	1.2886943	0	2925.574617896359
6.9183097	5.7543994	0.07	801.38479	0.080804521	2.2346482	-0.71286567	-0.23339413	1.3653792	1.3659742	0	3023.8131355389723
6.9183097	6.3095734	0.07	827.49674	0.078339698	2.3427732	-0.73497981	-0.24053685	1.4452127	1.4457895	0	3124.933865352549
6.9183097	6.9183097	0.07	854.15219	0.075953528	2.4540765	-0.75775843	-0.24787797	1.5276321	1.5281914	0	3229.0277670344512
6.9183097	7.5857758	0.07	881.3935	0.073642855	2.5686593	-0.78122695	-0.25542836	1.6126929	1.6132352	0	3336.189209682822
6.9183097	8.3176377	0.07	909.26253	0.071404764	2.6866265	-0.8054109	-0.26319853	1.7004545	1.7009803	0	3446.5160624646487
6.9183097	9.1201084	0.07	937.80076	0.069236549	2.8080864	-0.83033602	-0.27119878	1.7909805	1.7914904	0	3560.109402880721
6.9183097	10.	0.07	967.04931	0.067135678	2.9331511	-0.85602836	-0.27943918	1.8843386	1.8848329	0	3677.073893907156