63.095734	1.e-12	0.49	1.2441274e12	7.8877731e10	-0.99999981	-1.0604282e-8	-1.0601262e-8	-1.3241521e9	3.9728167e9	0	0.00017363673302187152
63.095734	1.0964782e-12	0.49	1.1346577e12	7.1937345e10	-0.9999998	-1.1627421e-8	-1.162411e-8	-1.2076411e9	3.6232519e9	0	0.00018256148062491517
63.095734	1.2022644e-12	0.49	1.0348201e12	6.5607639e10	-0.99999978	-1.2749076e-8	-1.2745445e-8	-1.1013818e9	3.304445e9	0	0.00020083653953427059
63.095734	1.3182567e-12	0.49	9.4376717e11	5.9834878e10	-0.99999975	-1.3979346e-8	-1.3975366e-8	-1.0044721e9	3.0136897e9	0	0.00022845726040572026
63.095734	1.4454398e-12	0.49	8.6072589e11	5.4570057e10	-0.99999973	-1.5327826e-8	-1.5323461e-8	-9.1608944e8	2.7485176e9	0	0.0002466279219540803
63.095734	1.5848932e-12	0.49	7.8499134e11	4.9768484e10	-0.9999997	-1.6806594e-8	-1.6801808e-8	-8.354835e8	2.5066779e9	0	0.0002741342706150141
63.095734	1.7378008e-12	0.49	7.1592061e11	4.5389396e10	-0.99999968	-1.8428109e-8	-1.8422861e-8	-7.6197001e8	2.2861174e9	0	0.00029217926594707225
63.095734	1.9054607e-12	0.49	6.5292736e11	4.1395622e10	-0.99999964	-2.020585e-8	-2.0200096e-8	-6.9492491e8	2.0849639e9	0	0.0003289436639991349
63.095734	2.0892961e-12	0.49	5.9547683e11	3.7753256e10	-0.99999961	-2.2155255e-8	-2.2148946e-8	-6.3377905e8	1.9015096e9	0	0.0003562333991852919
63.095734	2.2908677e-12	0.49	5.4308132e11	3.4431378e10	-0.99999957	-2.4292818e-8	-2.42859e-8	-5.7801336e8	1.7341974e9	0	0.0003928321873826803
63.095734	2.5118864e-12	0.49	4.9529605e11	3.140179e10	-0.99999953	-2.6636701e-8	-2.6629116e-8	-5.2715445e8	1.5816068e9	0	0.0004293360151279273
63.095734	2.7542287e-12	0.49	4.5171537e11	2.8638773e10	-0.99999949	-2.9206323e-8	-2.9198006e-8	-4.8077057e8	1.4424426e9	0	0.00046573594549248427
63.095734	3.0199517e-12	0.49	4.1196931e11	2.6118871e10	-0.99999944	-3.2024076e-8	-3.2014957e-8	-4.3846797e8	1.3155233e9	0	0.0005114173253393119
63.095734	3.3113112e-12	0.49	3.7572048e11	2.3820694e10	-0.99999938	-3.5113594e-8	-3.5103595e-8	-3.9988755e8	1.1997715e9	0	0.0005663692774603274
63.095734	3.6307805e-12	0.49	3.4266115e11	2.1724731e10	-0.99999932	-3.8501347e-8	-3.8490383e-8	-3.6470178e8	1.0942046e9	0	0.0006211839651908828
63.095734	3.9810717e-12	0.49	3.1251068e11	1.981319e10	-0.99999926	-4.2215914e-8	-4.2203893e-8	-3.3261197e8	9.9792644e8	0	0.0006758482344573122
63.095734	4.3651583e-12	0.49	2.8501313e11	1.8069844e10	-0.99999919	-4.6288925e-8	-4.6275744e-8	-3.0334572e8	9.1011973e8	0	0.0007397431815166559
63.095734	4.7863009e-12	0.49	2.5993506e11	1.6479894e10	-0.99999911	-5.0754744e-8	-5.0740291e-8	-2.7665459e8	8.3003906e8	0	0.0008128529900857282
63.095734	5.2480746e-12	0.49	2.370636e11	1.5029842e10	-0.99999902	-5.5651403e-8	-5.5635555e-8	-2.5231198e8	7.5700462e8	0	0.0008951601555809592
63.095734	5.7543994e-12	0.49	2.1620457e11	1.3707379e10	-0.99999893	-6.1020639e-8	-6.1003263e-8	-2.3011126e8	6.9039642e8	0	0.000977249813990205
63.095734	6.3095734e-12	0.49	1.9718091e11	1.2501278e10	-0.99999882	-6.6907783e-8	-6.688873e-8	-2.0986397e8	6.2964902e8	0	0.0010778924098656943
63.095734	6.9183097e-12	0.49	1.7983113e11	1.1401301e10	-0.99999871	-7.3362988e-8	-7.3342097e-8	-1.9139821e8	5.7424673e8	0	0.0011782735519516746
63.095734	7.5857758e-12	0.49	1.6400794e11	1.039811e10	-0.99999859	-8.0440889e-8	-8.0417983e-8	-1.7455725e8	5.2371924e8	0	0.0012877637478123155
63.095734	8.3176377e-12	0.49	1.4957702e11	9.483189e9	-0.99999845	-8.8201663e-8	-8.8176547e-8	-1.591981e8	4.7763762e8	0	0.0014157309546763146
63.095734	9.1201084e-12	0.49	1.3641586e11	8.6487712e9	-0.9999983	-9.671119e-8	-9.6683651e-8	-1.4519039e8	4.3561069e8	0	0.0015527491968821386
63.095734	1.e-11	0.49	1.2441274e11	7.8877731e9	-0.99999814	-1.0604175e-7	-1.0601155e-7	-1.3241521e8	3.9728167e8	0	0.001698785209269861
63.095734	1.0964782e-11	0.49	1.1346577e11	7.1937345e9	-0.99999796	-1.162725e-7	-1.1623939e-7	-1.2076411e8	3.6232519e8	0	0.0018631982074911765
63.095734	1.2022644e-11	0.49	1.0348201e11	6.5607639e9	-0.99999776	-1.2749023e-7	-1.2745392e-7	-1.1013818e8	3.304445e8	0	0.002045948253432358
63.095734	1.3182567e-11	0.49	9.4376717e10	5.9834878e9	-0.99999754	-1.3979025e-7	-1.3975044e-7	-1.0044721e8	3.0136897e8	0	0.0022469914722102555
63.095734	1.4454398e-11	0.49	8.6072589e10	5.4570057e9	-0.99999731	-1.5327701e-7	-1.5323337e-7	-9.1608945e7	2.7485176e8	0	0.0024568841366648733
63.095734	1.5848932e-11	0.49	7.8499134e10	4.9768484e9	-0.99999705	-1.6806492e-7	-1.6801706e-7	-8.3548351e7	2.5066779e8	0	0.002694364908634725
63.095734	1.7378008e-11	0.49	7.1592061e10	4.5389396e9	-0.99999676	-1.8427951e-7	-1.8422704e-7	-7.6197002e7	2.2861174e8	0	0.0029593759957370013
63.095734	1.9054607e-11	0.49	6.5292736e10	4.1395622e9	-0.99999645	-2.0205846e-7	-2.0200093e-7	-6.9492492e7	2.0849638e8	0	0.0032424583859625923
63.095734	2.0892961e-11	0.49	5.9547683e10	3.7753256e9	-0.99999611	-2.2155274e-7	-2.2148965e-7	-6.3377906e7	1.9015096e8	0	0.0035529382512494243
63.095734	2.2908677e-11	0.49	5.4308132e10	3.4431378e9	-0.99999573	-2.4292778e-7	-2.4285861e-7	-5.7801337e7	1.7341974e8	0	0.0039001350924231697
63.095734	2.5118864e-11	0.49	4.9529605e10	3.140179e9	-0.99999532	-2.6636506e-7	-2.6628921e-7	-5.2715446e7	1.5816068e8	0	0.004274569741730917
63.095734	2.7542287e-11	0.49	4.5171537e10	2.8638773e9	-0.99999487	-2.9206353e-7	-2.9198036e-7	-4.8077058e7	1.4424426e8	0	0.004685546277241744
63.095734	3.0199517e-11	0.49	4.1196931e10	2.6118871e9	-0.99999437	-3.2024076e-7	-3.2014957e-7	-4.3846798e7	1.3155232e8	0	0.005142360213513188
63.095734	3.3113112e-11	0.49	3.7572048e10	2.3820694e9	-0.99999383	-3.5113701e-7	-3.5103702e-7	-3.9988755e7	1.1997715e8	0	0.0056355053214518416
63.095734	3.6307805e-11	0.49	3.4266115e10	2.1724731e9	-0.99999324	-3.8501408e-7	-3.8490444e-7	-3.6470178e7	1.0942046e8	0	0.006174256757301152
63.095734	3.9810717e-11	0.49	3.1251068e10	1.981319e9	-0.99999258	-4.2215954e-7	-4.2203933e-7	-3.3261198e7	9.9792643e7	0	0.006777273466886859
63.095734	4.3651583e-11	0.49	2.8501313e10	1.8069844e9	-0.99999187	-4.6288873e-7	-4.6275692e-7	-3.0334573e7	9.1011972e7	0	0.007425619015418068
63.095734	4.7863009e-11	0.49	2.5993506e10	1.6479894e9	-0.99999108	-5.075474e-7	-5.0740288e-7	-2.766546e7	8.3003905e7	0	0.008147321221346064
63.095734	5.2480746e-11	0.49	2.370636e10	1.5029842e9	-0.99999022	-5.5651465e-7	-5.5635618e-7	-2.5231199e7	7.5700461e7	0	0.00893280995835841
63.095734	5.7543994e-11	0.49	2.1620457e10	1.3707379e9	-0.99998928	-6.1020618e-7	-6.1003242e-7	-2.3011127e7	6.9039641e7	0	0.00979128954315618
63.095734	6.3095734e-11	0.49	1.9718091e10	1.2501278e9	-0.99998824	-6.6907777e-7	-6.6888724e-7	-2.0986398e7	6.2964901e7	0	0.0107413415118827
63.095734	6.9183097e-11	0.49	1.7983113e10	1.1401301e9	-0.99998711	-7.3362919e-7	-7.3342028e-7	-1.9139822e7	5.7424672e7	0	0.011773340183323641
63.095734	7.5857758e-11	0.49	1.6400794e10	1.039811e9	-0.99998587	-8.044084e-7	-8.0417934e-7	-1.7455725e7	5.2371923e7	0	0.012905824664354429
63.095734	8.3176377e-11	0.49	1.4957702e10	9.483189e8	-0.9999845	-8.8201627e-7	-8.8176511e-7	-1.5919811e7	4.7763761e7	0	0.01415730971229385
63.095734	9.1201084e-11	0.49	1.3641586e10	8.6487712e8	-0.99998301	-9.6711161e-7	-9.6683621e-7	-1.451904e7	4.3561068e7	0	0.015518096453494593
63.095734	1.e-10	0.49	1.2441274e10	7.8877731e8	-0.99998137	-1.0604168e-6	-1.0601148e-6	-1.3241522e7	3.9728166e7	0	0.01701603937529822
63.095734	1.0964782e-10	0.49	1.1346577e10	7.1937345e8	-0.99997957	-1.1627239e-6	-1.1623928e-6	-1.2076412e7	3.6232518e7	0	0.018660169541457557
63.095734	1.2022644e-10	0.49	1.0348201e10	6.5607639e8	-0.9999776	-1.2749014e-6	-1.2745383e-6	-1.1013819e7	3.3044449e7	0	0.020459482948254646
63.095734	1.3182567e-10	0.49	9.4376717e9	5.9834878e8	-0.99997544	-1.3979015e-6	-1.3975035e-6	-1.0044722e7	3.0136896e7	0	0.022432332522053407
63.095734	1.4454398e-10	0.49	8.6072589e9	5.4570057e8	-0.99997307	-1.5327685e-6	-1.5323321e-6	-9.1608954e6	2.7485175e7	0	0.02459702906401391
63.095734	1.5848932e-10	0.49	7.8499134e9	4.9768484e8	-0.99997047	-1.6806472e-6	-1.6801687e-6	-8.354836e6	2.5066778e7	0	0.026971836922141473
63.095734	1.7378008e-10	0.49	7.1592061e9	4.5389396e8	-0.99996762	-1.842793e-6	-1.8422683e-6	-7.6197011e6	2.2861173e7	0	0.029574969617609897
63.095734	1.9054607e-10	0.49	6.5292736e9	4.1395622e8	-0.9999645	-2.0205823e-6	-2.020007e-6	-6.9492501e6	2.0849638e7	0	0.032424584918829005
63.095734	2.0892961e-10	0.49	5.9547683e9	3.7753256e8	-0.99996107	-2.2155244e-6	-2.2148935e-6	-6.3377915e6	1.9015095e7	0	0.03555757085408831
63.095734	2.2908677e-10	0.49	5.4308132e9	3.4431378e8	-0.99995732	-2.4292741e-6	-2.4285824e-6	-5.7801346e6	1.7341973e7	0	0.03898256132036063
63.095734	2.5118864e-10	0.49	4.9529605e9	3.140179e8	-0.9999532	-2.663646e-6	-2.6628875e-6	-5.2715455e6	1.5816067e7	0	0.042745699535298096
63.095734	2.7542287e-10	0.49	4.5171537e9	2.8638773e8	-0.99994868	-2.9206296e-6	-2.919798e-6	-4.8077067e6	1.4424425e7	0	0.04687425665736625
63.095734	3.0199517e-10	0.49	4.1196931e9	2.6118871e8	-0.99994373	-3.2024065e-6	-3.2014946e-6	-4.3846807e6	1.3155232e7	0	0.05139541568122891
63.095734	3.3113112e-10	0.49	3.7572048e9	2.3820694e8	-0.99993831	-3.5113687e-6	-3.5103688e-6	-3.9988764e6	1.1997714e7	0	0.056345658205304405
63.095734	3.6307805e-10	0.49	3.4266115e9	2.1724731e8	-0.99993235	-3.8501389e-6	-3.8490426e-6	-3.6470187e6	1.0942045e7	0	0.06178954666923559
63.095734	3.9810717e-10	0.49	3.1251068e9	1.981319e8	-0.99992583	-4.221593e-6	-4.2203908e-6	-3.3261207e6	9.9792634e6	0	0.06774454885950747
63.095734	4.3651583e-10	0.49	2.8501313e9	1.8069844e8	-0.99991867	-4.6288841e-6	-4.627566e-6	-3.0334582e6	9.1011963e6	0	0.07428437858795647
63.095734	4.7863009e-10	0.49	2.5993506e9	1.6479894e8	-0.99991082	-5.0754698e-6	-5.0740245e-6	-2.7665469e6	8.3003896e6	0	0.08145442288644766
63.095734	5.2480746e-10	0.49	2.370636e9	1.5029842e8	-0.99990222	-5.565141e-6	-5.5635563e-6	-2.5231208e6	7.5700452e6	0	0.08930931080913987
63.095734	5.7543994e-10	0.49	2.1620457e9	1.3707379e8	-0.99989279	-6.1020546e-6	-6.1003169e-6	-2.3011136e6	6.9039632e6	0	0.09792229444572564
63.095734	6.3095734e-10	0.49	1.9718091e9	1.2501278e8	-0.99988244	-6.6907681e-6	-6.6888629e-6	-2.0986407e6	6.2964892e6	0	0.10737583687821053
63.095734	6.9183097e-10	0.49	1.7983113e9	1.1401301e8	-0.9998711	-7.3362792e-6	-7.3341902e-6	-1.9139831e6	5.7424663e6	0	0.11773340763369562
63.095734	7.5857758e-10	0.49	1.6400794e9	1.039811e8	-0.99985867	-8.0440674e-6	-8.0417768e-6	-1.7455734e6	5.2371914e6	0	0.12908644124702773
63.095734	8.3176377e-10	0.49	1.4957702e9	9.483189e7	-0.99984503	-8.8201408e-6	-8.8176292e-6	-1.591982e6	4.7763752e6	0	0.1415449202453985
63.095734	9.1201084e-10	0.49	1.3641586e9	8.6487712e7	-0.99983008	-9.6710871e-6	-9.6683332e-6	-1.4519049e6	4.3561059e6	0	0.15519976914722527
63.095734	1.e-9	0.49	1.2441274e9	7.8877731e7	-0.99981368	-0.00001060413	-0.00001060111	-1.3241531e6	3.9728157e6	0	0.1701792025544705
63.095734	1.0964782e-9	0.49	1.1346577e9	7.1937345e7	-0.99979571	-0.000011627188	-0.000011623877	-1.2076421e6	3.6232509e6	0	0.18659232324118374
63.095734	1.2022644e-9	0.49	1.0348201e9	6.5607639e7	-0.999776	-0.000012748947	-0.000012745317	-1.1013828e6	3.304444e6	0	0.20459485986829853
63.095734	1.3182567e-9	0.49	9.4376717e8	5.9834878e7	-0.99975439	-0.000013978928	-0.000013974947	-1.0044731e6	3.0136887e6	0	0.2243327613885564
63.095734	1.4454398e-9	0.49	8.6072589e8	5.4570057e7	-0.99973069	-0.00001532757	-0.000015323205	-916090.44	2.7485167e6	0	0.24597973969868514
63.095734	1.5848932e-9	0.49	7.8499134e8	4.9768484e7	-0.99970471	-0.000016806321	-0.000016801535	-835484.5	2.5066769e6	0	0.2697090435461732
63.095734	1.7378008e-9	0.49	7.1592061e8	4.5389396e7	-0.99967622	-0.00001842773	-0.000018422483	-761971.01	2.2861164e6	0	0.2957309969459916
63.095734	1.9054607e-9	0.49	6.5292736e8	4.1395622e7	-0.99964498	-0.000020205559	-0.000020199806	-694925.91	2.0849629e6	0	0.3242647620377668
63.095734	2.0892961e-9	0.49	5.9547683e8	3.7753256e7	-0.99961073	-0.000022154896	-0.000022148587	-633780.05	1.9015086e6	0	0.35554768179513374
63.095734	2.2908677e-9	0.49	5.4308132e8	3.4431378e7	-0.99957318	-0.000024292283	-0.000024285365	-578014.36	1.7341964e6	0	0.3898446158286566
63.095734	2.5118864e-9	0.49	4.9529605e8	3.140179e7	-0.999532	-0.000026635856	-0.000026628271	-527155.45	1.5816058e6	0	0.42745727342663764
63.095734	2.7542287e-9	0.49	4.5171537e8	2.8638773e7	-0.99948685	-0.000029205499	-0.000029197183	-480771.57	1.4424416e6	0	0.46869595523490404
63.095734	3.0199517e-9	0.49	4.1196931e8	2.6118872e7	-0.99943734	-0.000032023015	-0.000032013896	-438468.97	1.3155223e6	0	0.5139170576049945
63.095734	3.3113112e-9	0.49	3.7572048e8	2.3820694e7	-0.99938306	-0.000035112302	-0.000035102303	-399888.54	1.1997705e6	0	0.5634948023030492
63.095734	3.6307805e-9	0.49	3.4266115e8	2.1724731e7	-0.99932354	-0.000038499563	-0.0000384886	-364702.77	1.0942036e6	0	0.6178587247452856
63.095734	3.9810717e-9	0.49	3.1251068e8	1.981319e7	-0.99925828	-0.000042213523	-0.000042201502	-332612.97	997925.45	0	0.6774653875933426
63.095734	4.3651583e-9	0.49	2.8501313e8	1.8069844e7	-0.99918672	-0.000046285668	-0.000046272487	-303346.72	910118.74	0	0.7428264553806981
63.095734	4.7863009e-9	0.49	2.5993506e8	1.6479894e7	-0.99910826	-0.000050750516	-0.000050736063	-276655.59	830038.07	0	0.8144897802818215
63.095734	5.2480746e-9	0.49	2.370636e8	1.5029842e7	-0.99902223	-0.000055645897	-0.00005563005	-252312.98	757003.63	0	0.8930674592440935
63.095734	5.7543994e-9	0.49	2.1620457e8	1.3707379e7	-0.99892791	-0.000061013278	-0.000060995902	-230112.26	690395.43	0	0.979216894435986
63.095734	6.3095734e-9	0.49	1.9718091e8	1.2501278e7	-0.99882449	-0.000066898101	-0.000066879048	-209864.97	629648.03	0	1.073678218869068
63.095734	6.9183097e-9	0.49	1.7983113e8	1.1401301e7	-0.99871109	-0.000073350164	-0.000073329273	-191399.21	574245.74	0	1.1772553296832475
63.095734	7.5857758e-9	0.49	1.6400794e8	1.039811e7	-0.99858675	-0.000080424027	-0.000080401121	-174558.24	523718.25	0	1.2908250982650795
63.095734	8.3176377e-9	0.49	1.4957702e8	9.4831892e6	-0.99845043	-0.000088179464	-0.000088154348	-159199.1	477636.64	0	1.4153371616915056
63.095734	9.1201084e-9	0.49	1.3641586e8	8.6487714e6	-0.99830096	-0.000096681946	-0.000096654407	-145191.39	435609.7	0	1.551860677710407
63.095734	1.e-8	0.49	1.2441274e8	7.8877733e6	-0.99813708	-0.00010600317	-0.00010597297	-132416.21	397280.69	0	1.701546501804182
63.095734	1.0964782e-8	0.49	1.1346577e8	7.1937348e6	-0.9979574	-0.00011622163	-0.00011618852	-120765.11	362324.21	0	1.8656644972547118
63.095734	1.2022644e-8	0.49	1.0348201e8	6.5607641e6	-0.9977604	-0.00012742323	-0.00012738693	-110139.17	330443.52	0	2.0456032685792787
63.095734	1.3182567e-8	0.49	9.4376718e7	5.983488e6	-0.99754442	-0.00013970197	-0.00013966216	-100448.21	301367.99	0	2.2428792362943555
63.095734	1.4454398e-8	0.49	8.607259e7	5.457006e6	-0.99730764	-0.00015316063	-0.00015311698	-91609.943	274850.79	0	2.4591550953626773
63.095734	1.5848932e-8	0.49	7.8499136e7	4.9768487e6	-0.99704804	-0.00016791154	-0.00016786369	-83549.348	250666.81	0	2.6962770663288778
63.095734	1.7378008e-8	0.49	7.1592063e7	4.53894e6	-0.99676345	-0.00018407743	-0.00018402495	-76197.999	228610.77	0	2.956227534930318
63.095734	1.9054607e-8	0.49	6.5292738e7	4.1395626e6	-0.99645147	-0.0002017922	-0.00020173466	-69493.489	208495.41	0	3.241199812184779
63.095734	2.0892961e-8	0.49	5.9547685e7	3.775326e6	-0.99610949	-0.00022120188	-0.00022113879	-63378.903	190149.99	0	3.5535789609622466
63.095734	2.2908677e-8	0.49	5.4308134e7	3.4431383e6	-0.99573462	-0.0002424655	-0.00024239633	-57802.334	173418.77	0	3.896007128191755
63.095734	2.5118864e-8	0.49	4.9529607e7	3.1401795e6	-0.99532374	-0.00026575604	-0.00026568019	-52716.443	158159.72	0	4.271336152245334
63.095734	2.7542287e-8	0.49	4.5171539e7	2.8638779e6	-0.99487341	-0.00029126128	-0.00029117811	-48078.055	144243.3	0	4.682711704867641
63.095734	3.0199517e-8	0.49	4.1196934e7	2.6118878e6	-0.99437991	-0.0003191847	-0.00031909351	-43847.795	131551.37	0	5.133535317232587
63.095734	3.3113112e-8	0.49	3.7572051e7	2.3820701e6	-0.99383915	-0.00034974625	-0.00034964626	-39989.751	119976.2	0	5.627548586327482
63.095734	3.6307805e-8	0.49	3.4266118e7	2.1724739e6	-0.99324667	-0.00038318289	-0.00038307326	-36471.174	109419.51	0	6.168832907927806
63.095734	3.9810717e-8	0.49	3.1251072e7	1.9813198e6	-0.99259763	-0.00041974904	-0.00041962883	-33262.194	99791.703	0	6.761818692700262
63.095734	4.3651583e-8	0.49	2.8501317e7	1.8069853e6	-0.99188677	-0.00045971657	-0.00045958476	-30335.568	91011.038	0	7.41132292579728
63.095734	4.7863009e-8	0.49	2.599351e7	1.6479904e6	-0.99110836	-0.00050337434	-0.00050322981	-27666.454	83002.977	0	8.122596375318068
63.095734	5.2480746e-8	0.49	2.3706364e7	1.5029853e6	-0.99025623	-0.00055102716	-0.00055086868	-25232.194	75699.54	0	8.901295879546701
63.095734	5.7543994e-8	0.49	2.1620462e7	1.3707391e6	-0.98932367	-0.00060299377	-0.00060282001	-23012.121	69038.727	0	9.75357922426101
63.095734	6.3095734e-8	0.49	1.9718096e7	1.2501291e6	-0.98830349	-0.00065960383	-0.00065941331	-20987.391	62963.995	0	10.68605018220019
63.095734	6.9183097e-8	0.49	1.7983119e7	1.1401315e6	-0.98718795	-0.00072119331	-0.0007209844	-19140.815	57423.775	0	11.705826382003501
63.095734	7.5857758e-8	0.49	1.64008e7	1.0398126e6	-0.98596881	-0.00078809817	-0.00078786911	-17456.718	52371.036	0	12.820495230381717
63.095734	8.3176377e-8	0.49	1.4957709e7	948320.62	-0.98463727	-0.00086064583	-0.00086039467	-15920.802	47762.885	0	14.038174249969716
63.095734	9.1201084e-8	0.49	1.3641594e7	864879.	-0.98318408	-0.00093914386	-0.00093886846	-14520.031	43560.203	0	15.367412906492293
63.095734	1.e-7	0.49	1.2441283e7	788779.36	-0.98159952	-0.0010238657	-0.0010235638	-13242.512	39727.314	0	16.817217942170828
63.095734	1.0964782e-7	0.49	1.1346586e7	719375.7	-0.97987353	-0.0011150332	-0.0011147021	-12077.401	36231.68	0	18.39693945013571
63.095734	1.2022644e-7	0.49	1.0348211e7	656078.83	-0.97799577	-0.0012127948	-0.0012124318	-11014.807	33043.625	0	20.116224196256574
63.095734	1.3182567e-7	0.49	9.4376826e6	598351.45	-0.97595581	-0.0013172018	-0.0013168038	-10045.709	30136.088	0	21.984848413434637
63.095734	1.4454398e-7	0.49	8.6072708e6	545703.48	-0.97374329	-0.0014281806	-0.0014277441	-9161.8815	27484.385	0	24.012580067335264
63.095734	1.5848932e-7	0.49	7.8499263e6	497688.	-0.97134815	-0.0015455043	-0.0015450257	-8355.8208	25066.006	0	26.208975693233576
63.095734	1.7378008e-7	0.49	7.1592202e6	453897.41	-0.96876093	-0.0016687652	-0.0016682404	-7620.6846	22860.421	0	28.583111509322563
63.095734	1.9054607e-7	0.49	6.5292889e6	413959.95	-0.96597308	-0.0017973512	-0.0017967758	-6950.2322	20848.907	0	31.14330274035668
63.095734	2.0892961e-7	0.49	5.9547848e6	377536.61	-0.96297727	-0.0019304299	-0.001929799	-6338.772	19014.387	0	33.896819856701825
63.095734	2.2908677e-7	0.49	5.4308311e6	344318.17	-0.95976778	-0.0020669456	-0.0020662539	-5781.1135	17341.289	0	36.849523386893274
63.095734	2.5118864e-7	0.49	4.9529799e6	314022.64	-0.95634083	-0.0022056318	-0.0022048733	-5272.5225	15815.408	0	40.005548290387594
63.095734	2.7542287e-7	0.49	4.5171746e6	286392.83	-0.95269484	-0.0023450439	-0.0023442122	-4808.6818	14423.792	0	43.367044339684
63.095734	3.0199517e-7	0.49	4.1197156e6	261194.19	-0.9488307	-0.0024836118	-0.0024826999	-4385.6537	13154.627	0	46.93389845151563
63.095734	3.3113112e-7	0.49	3.7572289e6	238212.81	-0.94475181	-0.0026197106	-0.0026187107	-3999.8471	11997.137	0	50.70366455487334
63.095734	3.6307805e-7	0.49	3.4266372e6	217253.58	-0.94046413	-0.0027517424	-0.002750646	-3647.987	10941.498	0	54.67147881496365
63.095734	3.9810717e-7	0.49	3.1251343e6	198138.58	-0.93597595	-0.0028782231	-0.0028770209	-3327.0863	9978.7465	0	58.830235863723246
63.095734	4.3651583e-7	0.49	2.8501605e6	180705.53	-0.93129769	-0.0029978607	-0.0029965426	-3034.4211	9100.7098	0	63.170740618546674
63.095734	4.7863009e-7	0.49	2.5993816e6	164806.44	-0.92644145	-0.0031096189	-0.0031081736	-2767.5068	8299.9337	0	67.68210199023356
63.095734	5.2480746e-7	0.49	2.3706686e6	150306.33	-0.9214206	-0.003212756	-0.0032111713	-2524.0776	7569.6199	0	72.35209987345668
63.095734	5.7543994e-7	0.49	2.1620801e6	137082.1	-0.91624928	-0.0033068382	-0.0033051006	-2302.0671	6903.5682	0	77.16764912856007
63.095734	6.3095734e-7	0.49	1.9718452e6	125021.49	-0.91094191	-0.0033917278	-0.0033898226	-2099.5907	6296.124	0	82.11526517095409
63.095734	6.9183097e-7	0.49	1.798349e6	114022.1	-0.9055128	-0.0034675505	-0.0034654614	-1914.9295	5742.1304	0	87.18144568645077
63.095734	7.5857758e-7	0.49	1.6401188e6	103990.56	-0.89997577	-0.0035346492	-0.0035323586	-1746.5161	5236.8839	0	92.35304861370662
63.095734	8.3176377e-7	0.49	1.4958111e6	94841.699	-0.8943439	-0.003593532	-0.0035910204	-1592.9207	4776.0952	0	97.61755139003328
63.095734	9.1201084e-7	0.49	1.3642011e6	86497.853	-0.88862931	-0.0036448189	-0.003642065	-1452.8395	4355.8523	0	102.96328187213209
63.095734	1.e-6	0.49	1.2441713e6	78888.185	-0.88284306	-0.0036891946	-0.0036861749	-1325.0835	3972.5874	0	108.37953425308993
63.095734	1.0964782e-6	0.49	1.134703e6	71948.093	-0.8769951	-0.0037273676	-0.0037240566	-1208.5681	3623.0467	0	113.85663459424356
63.095734	1.2022644e-6	0.49	1.0348667e6	65618.66	-0.87109428	-0.0037600391	-0.0037564087	-1102.3042	3304.2626	0	119.38594611587231
63.095734	1.3182567e-6	0.49	943814.96	59846.151	-0.86514839	-0.00378788	-0.0037838993	-1005.39	3013.5289	0	124.95984201933058
63.095734	1.4454398e-6	0.49	860774.84	54581.562	-0.8591642	-0.0038115155	-0.0038071508	-917.00256	2748.3771	0	130.5716749023166
63.095734	1.5848932e-6	0.49	785041.37	49780.2	-0.8531476	-0.0038315167	-0.0038267309	-836.39177	2506.5564	0	136.21564936320698
63.095734	1.7378008e-6	0.49	715971.66	45401.305	-0.84710362	-0.0038483963	-0.0038431488	-762.87332	2286.0138	0	141.88680495921977
63.095734	1.9054607e-6	0.49	652979.35	41407.703	-0.84103659	-0.0038626086	-0.0038568548	-695.82317	2084.8769	0	147.58086606011352
63.095734	2.0892961e-6	0.49	595529.71	37765.491	-0.83495018	-0.003874552	-0.0038682431	-634.67217	1901.4382	0	153.2942029764901
63.095734	2.2908677e-6	0.49	543135.02	34443.751	-0.82884752	-0.0038845723	-0.0038776548	-578.90126	1734.1404	0	159.02371783079087
63.095734	2.5118864e-6	0.49	495350.51	31414.283	-0.82273124	-0.0038929679	-0.0038853829	-528.03705	1581.5632	0	164.766804672748
63.095734	2.7542287e-6	0.49	451770.54	28651.37	-0.81660357	-0.0038999943	-0.0038916775	-481.6478	1442.4113	0	170.52125312883697
63.095734	3.0199517e-6	0.49	412025.13	26131.558	-0.81046636	-0.0039058694	-0.0038967503	-439.33976	1315.5034	0	176.28522753922772
63.095734	3.3113112e-6	0.49	375776.9	23833.456	-0.80432121	-0.0039107784	-0.0039007795	-400.75383	1199.7622	0	182.05714255839325
63.095734	3.6307805e-6	0.49	342718.13	21737.556	-0.79816942	-0.0039148777	-0.0039039141	-365.5625	1094.2051	0	187.83570815371212
63.095734	3.9810717e-6	0.49	312568.17	19826.065	-0.79201209	-0.0039182996	-0.0039062782	-333.46709	997.93595	0	193.61983366927018
63.095734	4.3651583e-6	0.49	285071.09	18082.758	-0.78585016	-0.0039211551	-0.0039079739	-304.19518	910.13752	0	199.4085889081233
63.095734	4.7863009e-6	0.49	259993.46	16492.836	-0.77968438	-0.0039235378	-0.0039090849	-277.49834	830.06447	0	205.2012306618654
63.095734	5.2480746e-6	0.49	237122.39	15042.803	-0.77351542	-0.0039255259	-0.0039096787	-253.14999	757.03703	0	210.99709834558803
63.095734	5.7543994e-6	0.49	216263.73	13720.35	-0.76734379	-0.0039271853	-0.0039098091	-230.94349	690.43526	0	216.79568801214094
63.095734	6.3095734e-6	0.49	197240.41	12514.25	-0.76116996	-0.0039285707	-0.0039095181	-210.69038	629.69375	0	222.59653872955462
63.095734	6.9183097e-6	0.49	179890.93	11414.267	-0.7549943	-0.0039297281	-0.0039088374	-192.21877	574.29688	0	228.3992882643812
63.095734	7.5857758e-6	0.49	164068.03	10411.062	-0.74881713	-0.003930696	-0.0039077897	-175.37193	523.77435	0	234.20362550492308
63.095734	8.3176377e-6	0.49	149637.36	9496.1211	-0.74263869	-0.0039315064	-0.0039063902	-160.00688	477.69728	0	240.00931795761363
63.095734	9.1201084e-6	0.49	136476.45	8661.677	-0.73645922	-0.0039321861	-0.0039046467	-145.99325	435.67452	0	245.81613653575022
63.095734	0.00001	0.49	124473.55	7900.6471	-0.73027889	-0.0039327575	-0.0039025612	-133.21212	397.34931	0	251.623920592449
63.095734	0.000010964782	0.49	113526.77	7206.5716	-0.72409786	-0.0039332393	-0.0039001297	-121.55504	362.39632	0	257.4325216388023
63.095734	0.000012022644	0.49	103543.2	6573.5593	-0.71791625	-0.0039336471	-0.0038973431	-110.92312	330.51883	0	263.24183111648983
63.095734	0.000013182567	0.49	94438.068	5996.2373	-0.71173418	-0.003933994	-0.0038941875	-101.22615	301.44621	0	269.0517426770495
63.095734	0.000014454398	0.49	86134.093	5469.7054	-0.70555173	-0.003934291	-0.003890644	-92.381862	274.93168	0	274.8621898565676
63.095734	0.000015848932	0.49	78560.778	4989.4945	-0.69936898	-0.0039345472	-0.0038866892	-84.315232	250.75015	0	280.6731082628727
63.095734	0.000017378008	0.49	71653.832	4551.529	-0.69318599	-0.0039347703	-0.0038822951	-76.957833	228.69634	0	286.48445441288044
63.095734	0.000019054607	0.49	65354.624	4152.0917	-0.68700282	-0.003934967	-0.0038774291	-70.247262	208.58302	0	292.2961869412866
63.095734	0.000020892961	0.49	59609.678	3787.7925	-0.68081953	-0.0039351426	-0.0038720536	-64.126604	190.23947	0	298.10826678472216
63.095734	0.000022908677	0.49	54370.225	3455.5396	-0.67463614	-0.003935302	-0.0038661262	-58.543953	173.50995	0	303.92069467228976
63.095734	0.000025118864	0.49	49591.788	3152.5133	-0.66845269	-0.003935449	-0.0038595993	-53.451971	158.25245	0	309.733454935798
63.095734	0.000027542287	0.49	45233.801	2876.1419	-0.66226923	-0.0039355872	-0.0038524197	-48.807484	144.33745	0	315.5465250895685
63.095734	0.000030199517	0.49	41259.271	2624.0802	-0.65608577	-0.0039357196	-0.0038445282	-44.571116	131.64682	0	321.3599229928597
63.095734	0.000033113112	0.49	37634.456	2394.1891	-0.64990234	-0.0039358488	-0.0038358595	-40.706959	120.07283	0	327.17365052198346
63.095734	0.000036307805	0.49	34328.586	2184.5178	-0.64371897	-0.0039359773	-0.0038263411	-37.182261	109.51723	0	332.98771286803844
63.095734	0.000039810717	0.49	31313.598	1993.2873	-0.63753568	-0.0039361071	-0.0038158935	-33.967154	99.890406	0	338.80212784048575
63.095734	0.000043651583	0.49	28563.896	1818.8749	-0.6313525	-0.0039362403	-0.0038044287	-31.034397	91.110643	0	344.61690776642286
63.095734	0.000047863009	0.49	26056.138	1659.8008	-0.62516944	-0.0039363787	-0.0037918501	-28.359146	83.103405	0	350.4320877235825
63.095734	0.000052480746	0.49	23769.036	1514.7154	-0.61898653	-0.0039365241	-0.0037780517	-25.918744	75.800719	0	356.2476883260284
63.095734	0.000057543994	0.49	21683.175	1382.3879	-0.61280379	-0.0039366783	-0.0037629168	-23.692526	69.140593	0	362.0637445096192
63.095734	0.000063095734	0.49	19780.847	1261.6957	-0.60662125	-0.003936843	-0.0037463172	-21.661646	63.066487	0	367.8802871090103
63.095734	0.000069183097	0.49	18045.904	1151.615	-0.60043892	-0.0039370198	-0.0037281126	-19.808917	57.526839	0	373.6973713208474
63.095734	0.000075857758	0.49	16463.618	1051.2122	-0.59425684	-0.0039372108	-0.0037081485	-18.118663	52.474622	0	379.51503069231126
63.095734	0.000083176377	0.49	15020.556	959.63561	-0.58807504	-0.0039374176	-0.0036862559	-16.576589	47.866948	0	385.33331484184816
63.095734	0.000091201084	0.49	13704.469	876.10871	-0.58189353	-0.0039376422	-0.003662249	-15.169655	43.664701	0	391.15229991371314
63.095734	0.0001	0.49	12504.184	799.9232	-0.57571236	-0.0039378868	-0.0036359242	-13.885972	39.83221	0	396.97203266443614
63.095734	0.00010964782	0.49	11409.512	730.43312	-0.56953156	-0.0039381535	-0.0036070583	-12.714693	36.336939	0	402.7925876654401
63.095734	0.00012022644	0.49	10411.16	667.04933	-0.56335117	-0.0039384447	-0.0035754062	-11.645929	33.149218	0	408.61404017496983
63.095734	0.00013182567	0.49	9500.6533	609.23457	-0.55717122	-0.0039387631	-0.0035406995	-10.67066	30.241984	0	414.43648557394147
63.095734	0.00014454398	0.49	8670.2622	556.49882	-0.55099177	-0.0039391113	-0.0035026436	-9.7806583	27.59056	0	420.2600031184504
63.095734	0.00015848932	0.49	7912.9377	508.39518	-0.54481285	-0.0039394924	-0.0034609155	-8.9684218	25.172436	0	426.08471332654426
63.095734	0.00017378008	0.49	7222.2507	464.51608	-0.53863452	-0.0039399097	-0.0034151611	-8.2271077	22.967086	0	431.9107228473463
63.095734	0.00019054607	0.49	6592.338	424.48982	-0.53245685	-0.0039403667	-0.0033649921	-7.5504756	20.955787	0	437.73814467956254
63.095734	0.00020892961	0.49	6017.8524	387.97739	-0.52627988	-0.0039408675	-0.0033099827	-6.932834	19.121467	0	443.5671372733724
63.095734	0.00022908677	0.49	5493.9168	354.66961	-0.5201037	-0.0039414162	-0.003249666	-6.3689922	17.448552	0	449.39783102259526
63.095734	0.00025118864	0.49	5016.0838	324.28452	-0.51392836	-0.0039420177	-0.0031835303	-5.8542162	15.922843	0	455.230414529002
63.095734	0.00027542287	0.49	4580.2968	296.56496	-0.50775397	-0.0039426769	-0.0031110142	-5.3841887	14.531386	0	461.0650429016783
63.095734	0.00030199517	0.49	4182.8565	271.2764	-0.50158059	-0.0039433995	-0.0030315023	-4.9549719	13.262371	0	466.90194308887607
63.095734	0.00033113112	0.49	3820.389	248.20495	-0.49540834	-0.0039441917	-0.0029443201	-4.5629748	12.105023	0	472.7413128737994
63.095734	0.00036307805	0.49	3489.8173	227.15553	-0.48923732	-0.0039450601	-0.0028487278	-4.2049223	11.049519	0	478.5833988942318
63.095734	0.00039810717	0.49	3188.3352	207.95023	-0.48306764	-0.0039460123	-0.0027439143	-3.8778273	10.086899	0	484.4284712178977
63.095734	0.00043651583	0.49	2913.3834	190.42681	-0.47689943	-0.0039470562	-0.0026289907	-3.5789655	9.2089894	0	490.2768169393253
63.095734	0.00047863009	0.49	2662.6278	174.43728	-0.47073283	-0.0039482008	-0.0025029821	-3.3058525	8.408339	0	496.1287533506727
63.095734	0.00052480746	0.49	2433.9398	159.8467	-0.46456799	-0.0039494558	-0.00236482	-3.0562222	7.6781507	0	501.9846314406699
63.095734	0.00057543994	0.49	2225.3779	146.53198	-0.45840507	-0.0039508318	-0.002213333	-2.8280081	7.0122259	0	507.8448401762179
63.095734	0.00063095734	0.49	2035.1718	134.38088	-0.45224425	-0.0039523404	-0.002047237	-2.6193253	6.4049116	0	513.7098016185279
63.095734	0.00069183097	0.49	1861.7067	123.29103	-0.44608573	-0.0039539946	-0.0018651247	-2.4284549	5.8510522	0	519.5799757571854
63.095734	0.00075857758	0.49	1703.5102	113.16907	-0.43992972	-0.0039558084	-0.0016654535	-2.253829	5.3459461	0	525.4558754764862
63.095734	0.00083176377	0.49	1559.2392	103.92985	-0.43377645	-0.0039577971	-0.0014465327	-2.0940177	4.8853054	0	531.3380630527372
63.095734	0.00091201084	0.49	1427.6692	95.495726	-0.42762616	-0.0039599776	-0.0012065098	-1.9477169	4.4652196	0	537.2271658572115
63.095734	0.001	0.49	1307.6831	87.795881	-0.42147913	-0.0039623684	-0.00094335493	-1.8137372	4.0821227	0	543.1238553374144
63.095734	0.0010964782	0.49	1198.2625	80.765733	-0.41533566	-0.0039649897	-0.00065484433	-1.6909935	3.7327625	0	549.0288734139841
63.095734	0.0012022644	0.49	1098.4784	74.346383	-0.40919606	-0.0039678639	-0.00033854218	-1.5784966	3.4141733	0	554.9430502415767
63.095734	0.0013182567	0.49	1007.4839	68.484119	-0.40306067	-0.0039710151	8.2190316e-6	-1.4753439	3.1236506	0	560.8672944556935
63.095734	0.0014454398	0.49	924.50649	63.129958	-0.39692988	-0.0039744701	0.00038835978	-1.3807121	2.8587281	0	566.8025841747265
63.095734	0.0015848932	0.49	848.84181	58.23923	-0.39080407	-0.0039782581	0.00080507657	-1.2938505	2.6171568	0	572.7500339931673
63.095734	0.0017378008	0.49	779.84757	53.771198	-0.38468369	-0.0039824111	0.0012618667	-1.2140742	2.3968861	0	578.7108312174016
63.095734	0.0019054607	0.49	716.93811	49.688713	-0.37856918	-0.0039869641	0.0017625551	-1.1407585	2.196046	0	584.6863233868057
63.095734	0.0020892961	0.49	659.57944	45.957902	-0.37246106	-0.0039919555	0.0023113225	-1.0733334	2.0129316	0	590.67794668123
63.095734	0.0022908677	0.49	607.28467	42.547873	-0.36635984	-0.0039974272	0.0029127357	-1.011279	1.8459883	0	596.6873244177957
63.095734	0.0025118864	0.49	559.60994	39.430459	-0.36026609	-0.0040034252	0.00357178	-0.95412104	1.6937989	0	602.7162162116717
63.095734	0.0027542287	0.49	516.15057	36.579975	-0.3541804	-0.0040099996	0.0042938918	-0.90142677	1.5550713	0	608.7665705673053
63.095734	0.0030199517	0.49	476.53771	33.973003	-0.34810342	-0.0040172052	0.0050849933	-0.85280131	1.4286277	0	614.8405032712376
63.095734	0.0033113112	0.49	440.43515	31.588191	-0.3420358	-0.0040251019	0.0059515277	-0.80788433	1.3133945	0	620.9403699716477
63.095734	0.0036307805	0.49	407.53647	29.406069	-0.33597823	-0.004033755	0.0069004935	-0.76634699	1.2083933	0	627.0687443870146
63.095734	0.0039810717	0.49	377.56246	27.40889	-0.32993143	-0.0040432355	0.0079394781	-0.72788909	1.1127323	0	633.228443170773
63.095734	0.0043651583	0.49	350.25873	25.580472	-0.32389614	-0.0040536208	0.0090766887	-0.69223662	1.0255989	0	639.4225495329267
63.095734	0.0047863009	0.49	325.39355	23.906065	-0.31787313	-0.0040649948	0.010320979	-0.65913934	0.94625274	0	645.6544161367285
63.095734	0.0052480746	0.49	302.75584	22.372222	-0.31186314	-0.0040774487	0.011681867	-0.62836871	0.87401939	0	651.9277296674901
63.095734	0.0057543994	0.49	282.15343	20.966685	-0.30586694	-0.0040910807	0.013169547	-0.59971595	0.80828445	0	658.2464599833052
63.095734	0.0063095734	0.49	263.41135	19.678278	-0.29988527	-0.0041059968	0.014794884	-0.57299025	0.74848828	0	664.6149139108036
63.095734	0.0069183097	0.49	246.37036	18.496816	-0.2939188	-0.0041223109	0.016569393	-0.54801718	0.69412119	0	671.0377632977529
63.095734	0.0075857758	0.49	230.88554	17.413007	-0.28796819	-0.0041401443	0.018505192	-0.52463719	0.64471892	0	677.5199670009491
63.095734	0.0083176377	0.49	216.82504	16.418382	-0.28203398	-0.0041596262	0.02061493	-0.50270431	0.59985856	0	684.0668410905379
63.095734	0.0091201084	0.49	204.06891	15.50521	-0.27611658	-0.0041808925	0.02291168	-0.48208487	0.55915472	0	690.684018984258
63.095734	0.01	0.49	192.50801	14.666438	-0.27021627	-0.0042040852	0.025408786	-0.46265646	0.52225605	0	697.3773810082265
63.095734	0.010964782	0.49	182.04305	13.895618	-0.26433308	-0.0042293506	0.028119677	-0.44430685	0.48884192	0	704.1530815127941
63.095734	0.012022644	0.49	172.58363	13.186857	-0.25846679	-0.0042568372	0.031057619	-0.4269331	0.4586194	0	711.0174346965654
63.095734	0.013182567	0.49	164.04741	12.534756	-0.25261686	-0.0042866927	0.034235437	-0.41044075	0.43132043	0	717.9768523883797
63.095734	0.014454398	0.49	156.35931	11.934361	-0.24678232	-0.0043190592	0.037665184	-0.39474302	0.40669916	0	725.0377950113974
63.095734	0.015848932	0.49	149.45084	11.38112	-0.24096171	-0.0043540678	0.041357792	-0.3797602	0.38452949	0	732.2066672819481
63.095734	0.017378008	0.49	143.2594	10.870834	-0.23515298	-0.0043918311	0.045322717	-0.36541896	0.36460289	0	739.4897487286744
63.095734	0.019054607	0.49	137.72772	10.399625	-0.22935337	-0.0044324339	0.049567601	-0.35165187	0.34672635	0	746.8931508295609
63.095734	0.020892961	0.49	132.80341	9.9639009	-0.22355929	-0.0044759218	0.054097986	-0.33839687	0.33072067	0	754.4227980890871
63.095734	0.022908677	0.49	128.43853	9.5603253	-0.21776623	-0.0045222875	0.058917123	-0.32559678	0.31641897	0	762.0844246651885
63.095734	0.025118864	0.49	124.58929	9.1857956	-0.21196853	-0.0045714556	0.064025885	-0.31319896	0.30366555	0	769.883750415616
63.095734	0.027542287	0.49	121.21583	8.8374236	-0.20615936	-0.0046232657	0.069422824	-0.30115484	0.29231504	0	777.8265259313026
63.095734	0.030199517	0.49	118.28213	8.5125218	-0.20033046	-0.0046774549	0.075104364	-0.28941958	0.28223178	0	785.9188656780509
63.095734	0.033113112	0.49	115.75587	8.2085924	-0.19447209	-0.004733643	0.081065127	-0.27795169	0.27328955	0	794.1674450609678
63.095734	0.036307805	0.49	113.60846	7.9233204	-0.18857287	-0.0047913204	0.087298347	-0.26671265	0.26537138	0	802.5798413551489
63.095734	0.039810717	0.49	111.81496	7.6545673	-0.18261968	-0.0048498441	0.093796362	-0.25566658	0.25836956	0	811.1648541726278
63.095734	0.043651583	0.49	110.3541	7.4003664	-0.17659761	-0.004908445	0.1005511	-0.24477987	0.25218562	0	819.932776188735
63.095734	0.047863009	0.49	109.20811	7.1589171	-0.17048992	-0.0049662493	0.10755454	-0.23402079	0.24673037	0	828.8956429631307
63.095734	0.052480746	0.49	108.36261	6.9285793	-0.16427808	-0.0050223189	0.1147991	-0.22335922	0.24192381	0	838.0673739873527
63.095734	0.057543994	0.49	107.80631	6.7078662	-0.15794185	-0.0050757091	0.12227795	-0.21276627	0.23769494	0	847.4638416207283
63.095734	0.063095734	0.49	107.53077	6.4954353	-0.15145944	-0.0051255438	0.12998521	-0.20221404	0.23398155	0	857.102811916548
63.095734	0.069183097	0.49	107.52994	6.2900801	-0.14480769	-0.0051711	0.13791602	-0.19167532	0.23072982	0	867.003807727393
63.095734	0.075857758	0.49	107.79986	6.0907197	-0.13796226	-0.0052118944	0.14606661	-0.18112338	0.22789387	0	877.187962414811
63.095734	0.083176377	0.49	108.3383	5.8963893	-0.13089775	-0.005247758	0.15443423	-0.17053181	0.22543535	0	887.6778748743834
63.095734	0.091201084	0.49	109.14465	5.7062315	-0.12358766	-0.0052788902	0.16301712	-0.15987432	0.22332294	0	898.497633306727
63.095734	0.1	0.49	110.22006	5.5194877	-0.11600406	-0.0053058829	0.17181443	-0.14912462	0.22153201	0	909.6730884430992
63.095734	0.10964782	0.49	111.56809	5.3354928	-0.10811663	-0.0053297128	0.18082615	-0.13825618	0.22004443	0	921.2327233010417
63.095734	0.12022644	0.49	113.19597	5.1536714	-0.099891023	-0.0053517055	0.19005308	-0.12724196	0.21884858	0	933.2091774412481
63.095734	0.13182567	0.49	115.11668	4.9735373	-0.091286163	-0.0053734808	0.19949677	-0.11605395	0.21793984	0	945.6417580499185
63.095734	0.14454398	0.49	117.35206	4.7946981	-0.082250249	-0.0053968888	0.20915952	-0.10466246	0.21732153	0	958.5801944418974
63.095734	0.15848932	0.49	119.9369	4.6168637	-0.072715306	-0.0054239479	0.21904435	-0.093035053	0.21700662	0	972.0897439406564
63.095734	0.17378008	0.49	122.92406	4.4398621	-0.062590221	-0.0054567892	0.22915495	-0.081135065	0.21702021	0	986.257711992039
63.095734	0.19054607	0.49	126.39025	4.263661	-0.051752486	-0.0054976076	0.23949569	-0.068919514	0.21740312	0	1001.2012147592271
63.095734	0.20892961	0.49	130.44202	4.088397	-0.040039271	-0.0055486105	0.2500716	-0.056336485	0.21821644	0	1017.0755574148795
63.095734	0.22908677	0.49	135.22054	3.9144094	-0.027239075	-0.005611949	0.26088838	-0.043321953	0.21954698	0	1034.0820831761089
63.095734	0.25118864	0.49	140.90366	3.7422728	-0.013086095	-0.0056896126	0.27195243	-0.029796255	0.22151298	0	1052.473477808579
63.095734	0.27542287	0.49	147.70244	3.5728191	0.0027395402	-0.005783271	0.28327103	-0.015660607	0.22426911	0	1072.553632825789
63.095734	0.30199517	0.49	155.84942	3.4071313	0.0206019	-0.0058940599	0.29485245	-0.00079434849	0.22800874	0	1094.6684226216425
63.095734	0.33113112	0.49	165.57629	3.2464906	0.040886586	-0.006022343	0.30670624	0.014946163	0.23296155	0	1119.1845417944592
63.095734	0.36307805	0.49	177.08218	3.0922625	0.063965192	-0.0061675232	0.31884332	0.031725975	0.23938431	0	1146.4561544292683
63.095734	0.39810717	0.49	190.49788	2.945732	0.090152383	-0.0063280052	0.33127606	0.049726584	0.24754478	0	1176.784603844384
63.095734	0.43651583	0.49	205.85686	2.8079198	0.11966686	-0.0065013831	0.34401803	0.069137722	0.25770126	0	1210.3816213732985
63.095734	0.47863009	0.49	223.08371	2.6794398	0.15260896	-0.0066848411	0.35708365	0.090147066	0.27008263	0	1247.3481189653846
63.095734	0.52480746	0.49	242.00492	2.5604411	0.18896212	-0.0068756389	0.37048764	0.11292992	0.28487422	0	1287.6753114967062
63.095734	0.57543994	0.49	262.37794	2.4506469	0.22861561	-0.0070715227	0.38424466	0.1376409	0.30221206	0	1331.2659101697936
63.095734	0.63095734	0.49	283.92765	2.3494621	0.27139855	-0.0072709462	0.39836905	0.16440896	0.32218514	0	1377.965964007527
63.095734	0.69183097	0.49	306.37968	2.2561037	0.31711384	-0.0074730931	0.41287482	0.19333589	0.34484266	0	1427.5967347015926
63.095734	0.75857758	0.49	329.48431	2.1697177	0.36556486	-0.0076777638	0.42777577	0.22449762	0.37020322	0	1479.9798382537701
63.095734	0.83176377	0.49	353.02966	2.089464	0.41657262	-0.0078852055	0.44308568	0.2579474	0.39826363	0	1534.953445995219
63.095734	0.91201084	0.49	376.8463	2.014567	0.46998452	-0.0080959471	0.45881847	0.29371979	0.42900637	0	1592.3805888408692
63.095734	1.	0.49	400.80608	1.9443405	0.52567719	-0.0083106649	0.47498832	0.33183477	0.46240535	0	1652.1518809014556
63.095734	1.0964782	0.49	424.81786	1.8781929	0.58355577	-0.0085300908	0.49160982	0.37230163	0.49843012	0	1714.1849120545207
63.095734	1.2022644	0.49	448.82197	1.8156236	0.64355135	-0.0087549541	0.50869799	0.4151223	0.537049	0	1778.4218518648593
63.095734	1.3182567	0.49	472.78467	1.756213	0.70561779	-0.0089859494	0.52626836	0.4602942	0.57823123	0	1844.8264985976664
63.095734	1.4454398	0.49	496.69289	1.6996114	0.76972847	-0.0092237222	0.54433699	0.50781246	0.62194846	0	1913.3812348388901
63.095734	1.5848932	0.49	520.54984	1.645528	0.83587339	-0.009468865	0.56292046	0.5576718	0.66817588	0	1984.0842981518467
63.095734	1.7378008	0.49	544.37124	1.5937209	0.90405651	-0.0097219204	0.58203592	0.60986787	0.71689288	0	2056.9473048527407
63.095734	1.9054607	0.49	568.1823	1.5439878	0.9742937	-0.0099833858	0.60170109	0.66439835	0.76808357	0	2131.993323901698
63.095734	2.0892961	0.49	592.01534	1.4961592	1.0466109	-0.010253721	0.62193424	0.72126376	0.82173709	0	2209.2551388947813
63.095734	2.2908677	0.49	615.90782	1.4500922	1.1210427	-0.010533354	0.64275423	0.78046806	0.8778478	0	2288.773932296671
63.095734	2.5118864	0.49	639.9009	1.4056652	1.1976312	-0.010822688	0.66418052	0.84201906	0.93641535	0	2370.598218940041
63.095734	2.7542287	0.49	664.03825	1.3627741	1.276425	-0.011122109	0.68623316	0.90592876	0.99744473	0	2454.782892460683
63.095734	3.0199517	0.49	688.3652	1.3213291	1.3574786	-0.011431987	0.70893283	0.9722135	1.0609463	0	2541.388679973776
63.095734	3.3113112	0.49	712.92806	1.2812519	1.4408517	-0.011752685	0.73230084	1.0408941	1.1269356	0	2630.4814843781433
63.095734	3.6307805	0.49	737.77362	1.2424737	1.5266088	-0.012084558	0.75635915	1.1119961	1.1954334	0	2722.132017737851
63.095734	3.9810717	0.49	762.94879	1.2049336	1.6148186	-0.01242796	0.78113037	1.1855494	1.2664657	0	2816.4152375430026
63.095734	4.3651583	0.49	788.50036	1.1685767	1.7055543	-0.012783246	0.80663781	1.2615886	1.3400634	0	2913.4106515986878
63.095734	4.7863009	0.49	814.47478	1.1333539	1.7988926	-0.013150771	0.8329055	1.3401529	1.4162623	0	3013.201387667378
63.095734	5.2480746	0.49	840.91808	1.0992202	1.8949141	-0.013530897	0.85995815	1.421286	1.4951033	0	3115.8745508795855
63.095734	5.7543994	0.49	867.87583	1.0661343	1.9937031	-0.013923993	0.88782127	1.5050362	1.5766316	0	3221.5210910672326
63.095734	6.3095734	0.49	895.39306	1.0340583	2.0953472	-0.014330433	0.91652109	1.591456	1.6608973	0	3330.2353901065535
63.095734	6.9183097	0.49	923.51431	1.0029565	2.1999376	-0.014750602	0.94608467	1.6806025	1.7479552	0	3442.11559443027
63.095734	7.5857758	0.49	952.28363	0.97279592	2.3075689	-0.015184894	0.97653987	1.7725371	1.8378644	0	3557.2634133029123
63.095734	8.3176377	0.49	981.74467	0.94354515	2.4183393	-0.015633714	1.0079154	1.8673254	1.9306884	0	3675.784329753236
63.095734	9.1201084	0.49	1011.9407	0.91517468	2.5323501	-0.016097481	1.0402408	1.9650374	2.0264952	0	3797.787121583812
63.095734	10.	0.49	1042.9146	0.88765641	2.6497063	-0.016576625	1.0735467	2.0657472	2.1253571	0	3923.384544810859