69.183097	1.e-12	0.09	1.7983906e12	1.0399848e11	-0.99999992	-7.6438518e-8	-7.6438057e-8	-1.9140665e9	5.7436623e9	0	0.00006870155848036909
69.183097	1.0964782e-12	0.09	1.6401517e12	9.4847738e10	-0.99999991	-8.3813169e-8	-8.3812663e-8	-1.7456494e9	5.2382823e9	0	0.0000774736088435048
69.183097	1.2022644e-12	0.09	1.4958361e12	8.6502165e10	-0.9999999	-9.1899312e-8	-9.1898757e-8	-1.5920512e9	4.7773702e9	0	0.00008618549504987113
69.183097	1.3182567e-12	0.09	1.3642188e12	7.8890912e10	-0.99999989	-1.0076559e-7	-1.0076498e-7	-1.451968e9	4.3570134e9	0	0.00009483141296462647
69.183097	1.4454398e-12	0.09	1.2441823e12	7.1949367e10	-0.99999988	-1.1048727e-7	-1.1048661e-7	-1.3242105e9	3.9736435e9	0	0.00010340499690942051
69.183097	1.5848932e-12	0.09	1.1347078e12	6.5618602e10	-0.99999987	-1.2114689e-7	-1.2114616e-7	-1.2076943e9	3.6240059e9	0	0.00011189926940792536
69.183097	1.7378008e-12	0.09	1.0348658e12	5.9844877e10	-0.99999985	-1.3283492e-7	-1.3283412e-7	-1.1014303e9	3.3051327e9	0	0.0001297022321974977
69.183097	1.9054607e-12	0.09	9.438088e11	5.4579176e10	-0.99999984	-1.4565059e-7	-1.4564971e-7	-1.0045164e9	3.0143168e9	0	0.00013801418815736601
69.183097	2.0892961e-12	0.09	8.6076386e11	4.97768e10	-0.99999982	-1.597027e-7	-1.5970173e-7	-9.1612985e8	2.7490896e9	0	0.0001556172439494195
69.183097	2.2908677e-12	0.09	7.8502597e11	4.5396981e10	-0.99999981	-1.7511053e-7	-1.7510947e-7	-8.3552035e8	2.5071995e9	0	0.00016371000531599487
69.183097	2.5118864e-12	0.09	7.1595219e11	4.1402539e10	-0.99999979	-1.9200487e-7	-1.9200372e-7	-7.6200362e8	2.2865932e9	0	0.00018107271963382256
69.183097	2.7542287e-12	0.09	6.5295616e11	3.7759564e10	-0.99999977	-2.1052916e-7	-2.1052789e-7	-6.9495556e8	2.0853977e9	0	0.0001982976065839885
69.183097	3.0199517e-12	0.09	5.9550309e11	3.4437132e10	-0.99999974	-2.3084063e-7	-2.3083924e-7	-6.33807e8	1.9019053e9	0	0.00022476702135654076
69.183097	3.3113112e-12	0.09	5.4310528e11	3.1407038e10	-0.99999972	-2.5311172e-7	-2.5311019e-7	-5.7803886e8	1.7345583e9	0	0.00024167507718280743
69.183097	3.6307805e-12	0.09	4.953179e11	2.8643559e10	-0.99999969	-2.7753148e-7	-2.775298e-7	-5.271777e8	1.581936e9	0	0.0002677970939726412
69.183097	3.9810717e-12	0.09	4.5173529e11	2.6123236e10	-0.99999966	-3.0430721e-7	-3.0430538e-7	-4.8079178e8	1.4427427e9	0	0.00029371988786248737
69.183097	4.3651583e-12	0.09	4.1198748e11	2.3824674e10	-0.99999963	-3.3366622e-7	-3.3366421e-7	-4.3848731e8	1.315797e9	0	0.00031942423975088604
69.183097	4.7863009e-12	0.09	3.7573705e11	2.1728361e10	-0.99999959	-3.6585773e-7	-3.6585553e-7	-3.9990518e8	1.2000211e9	0	0.0003542847273352556
69.183097	5.2480746e-12	0.09	3.4267626e11	1.9816501e10	-0.99999956	-4.0115503e-7	-4.0115261e-7	-3.6471786e8	1.0944323e9	0	0.0003794869356733996
69.183097	5.7543994e-12	0.09	3.1252447e11	1.8072864e10	-0.99999951	-4.3985774e-7	-4.3985508e-7	-3.3262664e8	9.9813411e8	0	0.00042319248822140137
69.183097	6.3095734e-12	0.09	2.850257e11	1.6482648e10	-0.99999947	-4.8229441e-7	-4.822915e-7	-3.033591e8	9.1030913e8	0	0.00045718664111871524
69.183097	6.9183097e-12	0.09	2.5994653e11	1.5032353e10	-0.99999941	-5.2882531e-7	-5.2882211e-7	-2.7666679e8	8.3021179e8	0	0.0005096258926907099
69.183097	7.5857758e-12	0.09	2.3707405e11	1.3709669e10	-0.99999936	-5.7984541e-7	-5.7984191e-7	-2.5232311e8	7.5716215e8	0	0.0005522898809561852
69.183097	8.3176377e-12	0.09	2.1621411e11	1.2503367e10	-0.9999993	-6.3578785e-7	-6.3578401e-7	-2.3012141e8	6.9054009e8	0	0.0006039332886375513
69.183097	9.1201084e-12	0.09	1.9718961e11	1.1403206e10	-0.99999923	-6.9712845e-7	-6.9712424e-7	-2.0987322e8	6.2978005e8	0	0.0006645158792348767
69.183097	1.e-11	0.09	1.7983906e11	1.0399848e10	-0.99999915	-7.6438456e-7	-7.6437994e-7	-1.9140666e8	5.7436623e8	0	0.0007339939060217261
69.183097	1.0964782e-11	0.09	1.6401517e11	9.4847737e9	-0.99999907	-8.3813159e-7	-8.3812653e-7	-1.7456494e8	5.2382823e8	0	0.0008029230573241435
69.183097	1.2022644e-11	0.09	1.4958361e11	8.6502165e9	-0.99999898	-9.1899341e-7	-9.1898786e-7	-1.5920512e8	4.7773702e8	0	0.0008806462334877283
69.183097	1.3182567e-11	0.09	1.3642188e11	7.8890912e9	-0.99999888	-1.0076558e-6	-1.0076498e-6	-1.451968e8	4.3570134e8	0	0.0009671054366363737
69.183097	1.4454398e-11	0.09	1.2441823e11	7.1949367e9	-0.99999878	-1.1048732e-6	-1.1048666e-6	-1.3242105e8	3.9736435e8	0	0.0010528412333866226
69.183097	1.5848932e-11	0.09	1.1347078e11	6.5618602e9	-0.99999866	-1.2114696e-6	-1.2114623e-6	-1.2076944e8	3.6240059e8	0	0.0011565752489711676
69.183097	1.7378008e-11	0.09	1.0348658e11	5.9844877e9	-0.99999853	-1.3283487e-6	-1.3283407e-6	-1.1014303e8	3.3051327e8	0	0.001268835403926723
69.183097	1.9054607e-11	0.09	9.438088e10	5.4579176e9	-0.99999839	-1.456506e-6	-1.4564972e-6	-1.0045164e8	3.0143168e8	0	0.0013895375263518449
69.183097	2.0892961e-11	0.09	8.6076386e10	4.97768e9	-0.99999823	-1.5970275e-6	-1.5970178e-6	-9.1612986e7	2.7490896e8	0	0.0015279854365721215
69.183097	2.2908677e-11	0.09	7.8502597e10	4.5396981e9	-0.99999806	-1.7511052e-6	-1.7510946e-6	-8.3552036e7	2.5071995e8	0	0.0016746826760135058
69.183097	2.5118864e-11	0.09	7.1595219e10	4.1402539e9	-0.99999787	-1.920049e-6	-1.9200374e-6	-7.6200363e7	2.2865931e8	0	0.0018389141404849332
69.183097	2.7542287e-11	0.09	6.5295616e10	3.7759564e9	-0.99999767	-2.1052913e-6	-2.1052786e-6	-6.9495557e7	2.0853977e8	0	0.002011163051328219
69.183097	3.0199517e-11	0.09	5.9550309e10	3.4437132e9	-0.99999744	-2.3084064e-6	-2.3083925e-6	-6.3380701e7	1.9019053e8	0	0.002210087591337727
69.183097	3.3113112e-11	0.09	5.4310528e10	3.1407038e9	-0.9999972	-2.5311174e-6	-2.5311021e-6	-5.7803887e7	1.7345583e8	0	0.0024167507552288357
69.183097	3.6307805e-11	0.09	4.953179e10	2.8643559e9	-0.99999693	-2.7753148e-6	-2.7752981e-6	-5.2717771e7	1.581936e8	0	0.0026497839707330037
69.183097	3.9810717e-11	0.09	4.5173529e10	2.6123236e9	-0.99999663	-3.0430721e-6	-3.0430538e-6	-4.8079179e7	1.4427427e8	0	0.002909011917670303
69.183097	4.3651583e-11	0.09	4.1198748e10	2.3824674e9	-0.9999963	-3.3366624e-6	-3.3366423e-6	-4.3848732e7	1.315797e8	0	0.003194242380909622
69.183097	4.7863009e-11	0.09	3.7573705e10	2.1728361e9	-0.99999595	-3.6585776e-6	-3.6585555e-6	-3.9990519e7	1.2000211e8	0	0.003495868989434515
69.183097	5.2480746e-11	0.09	3.4267626e10	1.9816501e9	-0.99999556	-4.0115506e-6	-4.0115264e-6	-3.6471787e7	1.0944323e8	0	0.0038324519454502625
69.183097	5.7543994e-11	0.09	3.1252447e10	1.8072864e9	-0.99999513	-4.3985776e-6	-4.3985511e-6	-3.3262665e7	9.981341e7	0	0.004203737896204116
69.183097	6.3095734e-11	0.09	2.850257e10	1.6482648e9	-0.99999466	-4.8229448e-6	-4.8229156e-6	-3.0335911e7	9.1030912e7	0	0.004609448974430842
69.183097	6.9183097e-11	0.09	2.5994653e10	1.5032353e9	-0.99999414	-5.2882535e-6	-5.2882216e-6	-2.766668e7	8.3021178e7	0	0.005058676270959377
69.183097	7.5857758e-11	0.09	2.3707405e10	1.3709669e9	-0.99999358	-5.7984547e-6	-5.7984197e-6	-2.5232312e7	7.5716215e7	0	0.005541690065815432
69.183097	8.3176377e-11	0.09	2.1621411e10	1.2503367e9	-0.99999296	-6.3578791e-6	-6.3578407e-6	-2.3012142e7	6.9054008e7	0	0.006076915449932141
69.183097	9.1201084e-11	0.09	1.9718961e10	1.1403206e9	-0.99999228	-6.9712758e-6	-6.9712337e-6	-2.0987323e7	6.2978004e7	0	0.0066639508352271705
69.183097	1.e-10	0.09	1.7983906e10	1.0399848e9	-0.99999153	-7.643852e-6	-7.6438058e-6	-1.9140666e7	5.7436622e7	0	0.00731175155807305
69.183097	1.0964782e-10	0.09	1.6401517e10	9.4847737e8	-0.99999072	-8.3813169e-6	-8.3812663e-6	-1.7456495e7	5.2382822e7	0	0.008010439181586131
69.183097	1.2022644e-10	0.09	1.4958361e10	8.6502165e8	-0.99998982	-9.1899313e-6	-9.1898759e-6	-1.5920513e7	4.7773701e7	0	0.008787671255992929
69.183097	1.3182567e-10	0.09	1.3642188e10	7.8890912e8	-0.99998884	-0.000010076559	-0.000010076499	-1.4519681e7	4.3570133e7	0	0.009633471668135576
69.183097	1.4454398e-10	0.09	1.2441823e10	7.1949367e8	-0.99998776	-0.000011048728	-0.000011048661	-1.3242106e7	3.9736434e7	0	0.010565995370442225
69.183097	1.5848932e-10	0.09	1.1347078e10	6.5618602e8	-0.99998658	-0.000012114689	-0.000012114616	-1.2076944e7	3.6240058e7	0	0.011584544389045206
69.183097	1.7378008e-10	0.09	1.0348658e10	5.9844877e8	-0.99998529	-0.000013283492	-0.000013283412	-1.1014304e7	3.3051326e7	0	0.012697749270427288
69.183097	1.9054607e-10	0.09	9.438088e9	5.4579176e8	-0.99998387	-0.00001456506	-0.000014564972	-1.0045165e7	3.0143167e7	0	0.013923562224160082
69.183097	2.0892961e-10	0.09	8.6076386e9	4.97768e8	-0.99998231	-0.00001597027	-0.000015970174	-9.1612995e6	2.7490895e7	0	0.015270459050313217
69.183097	2.2908677e-10	0.09	7.8502597e9	4.5396981e8	-0.9999806	-0.000017511053	-0.000017510947	-8.3552045e6	2.5071994e7	0	0.0167468266757828
69.183097	2.5118864e-10	0.09	7.1595219e9	4.1402539e8	-0.99997873	-0.000019200488	-0.000019200372	-7.6200372e6	2.2865931e7	0	0.018360954613016522
69.183097	2.7542287e-10	0.09	6.5295616e9	3.7759564e8	-0.99997668	-0.000021052916	-0.000021052789	-6.9495566e6	2.0853976e7	0	0.020130421566172403
69.183097	3.0199517e-10	0.09	5.9550309e9	3.4437132e8	-0.99997443	-0.000023084063	-0.000023083924	-6.338071e6	1.9019052e7	0	0.022072689037609457
69.183097	3.3113112e-10	0.09	5.4310528e9	3.1407038e8	-0.99997196	-0.000025311172	-0.000025311019	-5.7803896e6	1.7345582e7	0	0.02420509033570328
69.183097	3.6307805e-10	0.09	4.953179e9	2.8643559e8	-0.99996926	-0.000027753148	-0.000027752981	-5.271778e6	1.5819359e7	0	0.02653542232141457
69.183097	3.9810717e-10	0.09	4.5173529e9	2.6123236e8	-0.99996629	-0.000030430722	-0.000030430538	-4.8079188e6	1.4427426e7	0	0.02909951483066749
69.183097	4.3651583e-10	0.09	4.1198748e9	2.3824674e8	-0.99996304	-0.000033366623	-0.000033366421	-4.3848741e6	1.3157969e7	0	0.0319048413637162
69.183097	4.7863009e-10	0.09	3.7573705e9	2.1728361e8	-0.99995947	-0.000036585774	-0.000036585553	-3.9990528e6	1.200021e7	0	0.034986877023691285
69.183097	5.2480746e-10	0.09	3.4267626e9	1.9816501e8	-0.99995556	-0.000040115503	-0.000040115261	-3.6471796e6	1.0944322e7	0	0.038362102322269796
69.183097	5.7543994e-10	0.09	3.1252447e9	1.8072864e8	-0.99995127	-0.000043985774	-0.000043985508	-3.3262674e6	9.9813401e6	0	0.04206556617584387
69.183097	6.3095734e-10	0.09	2.850257e9	1.6482648e8	-0.99994657	-0.000048229441	-0.00004822915	-3.033592e6	9.1030903e6	0	0.04612267721252397
69.183097	6.9183097e-10	0.09	2.5994653e9	1.5032353e8	-0.99994142	-0.000052882529	-0.00005288221	-2.7666689e6	8.3021169e6	0	0.05056797190976033
69.183097	7.5857758e-10	0.09	2.3707405e9	1.3709669e8	-0.99993577	-0.000057984538	-0.000057984189	-2.5232321e6	7.5716206e6	0	0.05544508829559595
69.183097	8.3176377e-10	0.09	2.1621411e9	1.2503367e8	-0.99992957	-0.00006357878	-0.000063578397	-2.3012151e6	6.9053999e6	0	0.06079734230578047
69.183097	9.1201084e-10	0.09	1.9718961e9	1.1403206e8	-0.99992278	-0.000069712744	-0.000069712323	-2.0987332e6	6.2977995e6	0	0.0666583008426969
69.183097	1.e-9	0.09	1.7983906e9	1.0399848e8	-0.99991533	-0.000076438501	-0.000076438039	-1.9140675e6	5.7436613e6	0	0.07308933022653699
69.183097	1.0964782e-9	0.09	1.6401517e9	9.4847737e7	-0.99990716	-0.000083813145	-0.000083812639	-1.7456504e6	5.2382813e6	0	0.0801419764593027
69.183097	1.2022644e-9	0.09	1.4958361e9	8.6502165e7	-0.9998982	-0.000091899281	-0.000091898726	-1.5920522e6	4.7773692e6	0	0.08787671535075131
69.183097	1.3182567e-9	0.09	1.3642188e9	7.8890912e7	-0.99988838	-0.00010076555	-0.00010076494	-1.451969e6	4.3570124e6	0	0.09635351221628562
69.183097	1.4454398e-9	0.09	1.2441823e9	7.1949367e7	-0.99987761	-0.00011048722	-0.00011048655	-1.3242115e6	3.9736425e6	0	0.10565056312463224
69.183097	1.5848932e-9	0.09	1.1347078e9	6.5618602e7	-0.9998658	-0.00012114681	-0.00012114608	-1.2076953e6	3.6240049e6	0	0.11584545065490533
69.183097	1.7378008e-9	0.09	1.0348658e9	5.9844877e7	-0.99985285	-0.00013283482	-0.00013283402	-1.1014313e6	3.3051317e6	0	0.12702447942809708
69.183097	1.9054607e-9	0.09	9.438088e8	5.4579176e7	-0.99983866	-0.00014565047	-0.00014564959	-1.0045174e6	3.0143158e6	0	0.1392732158484956
69.183097	2.0892961e-9	0.09	8.6076386e8	4.97768e7	-0.99982309	-0.00015970253	-0.00015970157	-916130.85	2.7490886e6	0	0.1527140005323422
69.183097	2.2908677e-9	0.09	7.8502597e8	4.5396981e7	-0.99980602	-0.00017511031	-0.00017510925	-835521.35	2.5071985e6	0	0.16744949405423182
69.183097	2.5118864e-9	0.09	7.1595219e8	4.1402539e7	-0.99978731	-0.00019200458	-0.00019200343	-762004.62	2.2865922e6	0	0.18360017499969092
69.183097	2.7542287e-9	0.09	6.5295616e8	3.7759564e7	-0.99976679	-0.00021052877	-0.0002105275	-694956.56	2.0853967e6	0	0.20131364429349347
69.183097	3.0199517e-9	0.09	5.9550309e8	3.4437132e7	-0.99974429	-0.00023084012	-0.00023083873	-633808.	1.9019043e6	0	0.22073632915537836
69.183097	3.3113112e-9	0.09	5.4310528e8	3.1407038e7	-0.99971962	-0.00025311105	-0.00025310952	-578039.86	1.7345573e6	0	0.24203216870572894
69.183097	3.6307805e-9	0.09	4.953179e8	2.8643559e7	-0.99969257	-0.0002775306	-0.00027752892	-527178.7	1.581935e6	0	0.2653824854335546
69.183097	3.9810717e-9	0.09	4.5173529e8	2.6123236e7	-0.9996629	-0.00030430605	-0.00030430421	-480792.78	1.4427417e6	0	0.29099524724321923
69.183097	4.3651583e-9	0.09	4.1198748e8	2.3824675e7	-0.99963038	-0.00033366469	-0.00033366267	-438488.31	1.315796e6	0	0.3190673351681183
69.183097	4.7863009e-9	0.09	3.7573705e8	2.1728361e7	-0.99959472	-0.00036585571	-0.0003658535	-399906.18	1.2000201e6	0	0.34985015058809493
69.183097	5.2480746e-9	0.09	3.4267626e8	1.9816501e7	-0.99955562	-0.00040115236	-0.00040114994	-364718.86	1.0944313e6	0	0.3836024576929486
69.183097	5.7543994e-9	0.09	3.1252447e8	1.8072864e7	-0.99951275	-0.00043985422	-0.00043985156	-332627.64	998133.12	0	0.42060898114479695
69.183097	6.3095734e-9	0.09	2.850257e8	1.6482648e7	-0.99946574	-0.00048228977	-0.00048228686	-303360.1	910308.13	0	0.461189581873541
69.183097	6.9183097e-9	0.09	2.5994653e8	1.5032353e7	-0.9994142	-0.00052881918	-0.00052881599	-276667.79	830210.8	0	0.5056802357642762
69.183097	7.5857758e-9	0.09	2.3707405e8	1.3709669e7	-0.99935768	-0.00057983733	-0.00057983383	-252324.11	757161.16	0	0.5544703558236544
69.183097	8.3176377e-9	0.09	2.1621411e8	1.2503367e7	-0.99929572	-0.00063577718	-0.00063577335	-230122.41	690539.1	0	0.6079555297877934
69.183097	9.1201084e-9	0.09	1.9718961e8	1.1403206e7	-0.99922777	-0.00069711344	-0.00069710923	-209874.22	629779.05	0	0.6666123792399516
69.183097	1.e-8	0.09	1.7983906e8	1.0399848e7	-0.99915327	-0.00076436655	-0.00076436194	-191407.65	574365.24	0	0.7309230493740666
69.183097	1.0964782e-8	0.09	1.6401517e8	9.4847738e6	-0.99907158	-0.00083810712	-0.00083810206	-174565.94	523827.24	0	0.8014406132664724
69.183097	1.2022644e-8	0.09	1.4958361e8	8.6502166e6	-0.99898202	-0.00091896073	-0.00091895519	-159206.12	477736.03	0	0.8787510740675755
69.183097	1.3182567e-8	0.09	1.3642188e8	7.8890913e6	-0.99888381	-0.0010076132	-0.0010076071	-145197.8	435700.35	0	0.963529303434805
69.183097	1.4454398e-8	0.09	1.2441823e8	7.1949368e6	-0.99877613	-0.0011048165	-0.0011048098	-132422.05	397363.36	0	1.0564821543266762
69.183097	1.5848932e-8	0.09	1.1347078e8	6.5618603e6	-0.99865807	-0.0012113947	-0.0012113874	-120770.43	362399.6	0	1.1583949437435508
69.183097	1.7378008e-8	0.09	1.0348658e8	5.9844878e6	-0.99852862	-0.0013282514	-0.0013282434	-110144.03	330512.28	0	1.2701402319324637
69.183097	1.9054607e-8	0.09	9.4380881e7	5.4579178e6	-0.99838668	-0.001456377	-0.0014563682	-100452.64	301430.69	0	1.3926677916814592
69.183097	2.0892961e-8	0.09	8.6076386e7	4.9776802e6	-0.99823106	-0.001596857	-0.0015968474	-91613.984	274907.97	0	1.527003906464066
69.183097	2.2908677e-8	0.09	7.8502598e7	4.5396983e6	-0.99806044	-0.0017508812	-0.0017508707	-83553.034	250718.97	0	1.6742882004614323
69.183097	2.5118864e-8	0.09	7.159522e7	4.1402541e6	-0.99787336	-0.0019197534	-0.0019197418	-76201.361	228658.33	0	1.8357821970635633
69.183097	2.7542287e-8	0.09	6.5295617e7	3.7759566e6	-0.99766825	-0.0021049023	-0.0021048896	-69496.555	208538.79	0	2.012840184826285
69.183097	3.0199517e-8	0.09	5.9550311e7	3.4437134e6	-0.99744337	-0.0023078931	-0.0023078792	-63381.699	190189.55	0	2.206964661222937
69.183097	3.3113112e-8	0.09	5.4310529e7	3.140704e6	-0.99719683	-0.0025304408	-0.0025304255	-57804.884	173454.85	0	2.4197863913093896
69.183097	3.6307805e-8	0.09	4.9531791e7	2.8643562e6	-0.99692653	-0.0027744232	-0.0027744064	-52718.769	158192.62	0	2.6531196654412796
69.183097	3.9810717e-8	0.09	4.5173531e7	2.6123239e6	-0.99663021	-0.003041897	-0.0030418786	-48080.176	144273.3	0	2.908913984944551
69.183097	4.3651583e-8	0.09	4.119875e7	2.3824678e6	-0.99630536	-0.0033351133	-0.0033350932	-43849.73	131578.73	0	3.189337303847317
69.183097	4.7863009e-8	0.09	3.7573707e7	2.1728365e6	-0.99594925	-0.003656536	-0.0036565139	-39991.516	120001.14	0	3.4967463029114896
69.183097	5.2480746e-8	0.09	3.4267628e7	1.9816505e6	-0.99555889	-0.0040088599	-0.0040088357	-36472.784	109442.26	0	3.833722390957855
69.183097	5.7543994e-8	0.09	3.1252449e7	1.8072868e6	-0.99513102	-0.004395032	-0.0043950054	-33263.662	99812.445	0	4.203079367021761
69.183097	6.3095734e-8	0.09	2.8502572e7	1.6482652e6	-0.99466205	-0.0048182722	-0.0048182431	-30336.908	91029.95	0	4.607917976215241
69.183097	6.9183097e-8	0.09	2.5994655e7	1.5032359e6	-0.99414809	-0.0052820972	-0.0052820653	-27667.676	83020.22	0	5.051595769409901
69.183097	7.5857758e-8	0.09	2.3707408e7	1.3709675e6	-0.99358487	-0.0057903437	-0.0057903087	-25233.308	75715.26	0	5.537800255916426
69.183097	8.3176377e-8	0.09	2.1621414e7	1.2503373e6	-0.99296775	-0.0063471941	-0.0063471558	-23013.138	69053.058	0	6.070537343071627
69.183097	9.1201084e-8	0.09	1.9718964e7	1.1403213e6	-0.99229165	-0.0069572019	-0.0069571598	-20988.319	62977.059	0	6.654195000248166
69.183097	1.e-7	0.09	1.798391e7	1.0399855e6	-0.99155107	-0.0076253173	-0.0076252712	-19141.662	57435.682	0	7.293522218226957
69.183097	1.0964782e-7	0.09	1.6401521e7	948478.19	-0.99074001	-0.0083569127	-0.0083568622	-17457.49	52381.888	0	7.993702111140466
69.183097	1.2022644e-7	0.09	1.4958366e7	865022.54	-0.989852	-0.0091578062	-0.0091577508	-15921.507	47772.773	0	8.760321691594712
69.183097	1.3182567e-7	0.09	1.3642193e7	788910.1	-0.98888	-0.010034283	-0.010034222	-14520.674	43569.212	0	9.599464034513325
69.183097	1.4454398e-7	0.09	1.2441828e7	719494.74	-0.98781643	-0.010993111	-0.010993044	-13243.1	39735.52	0	10.517678720291244
69.183097	1.5848932e-7	0.09	1.1347083e7	656187.2	-0.98665314	-0.012041552	-0.012041479	-12077.937	36239.152	0	11.522009108497226
69.183097	1.7378008e-7	0.09	1.0348664e7	598450.06	-0.98538142	-0.013187362	-0.013187282	-11015.297	33050.429	0	12.619983043693962
69.183097	1.9054607e-7	0.09	9.4380949e6	545793.17	-0.98399194	-0.014438782	-0.014438694	-10046.157	30142.28	0	13.81966980437223
69.183097	2.0892961e-7	0.09	8.6076461e6	497769.55	-0.98247484	-0.015804503	-0.015804406	-9162.2904	27490.018	0	15.129598586262146
69.183097	2.2908677e-7	0.09	7.8502679e6	453971.5	-0.98081975	-0.017293624	-0.017293518	-8356.1946	25071.129	0	16.55874317802139
69.183097	2.5118864e-7	0.09	7.1595309e6	414027.24	-0.97901583	-0.018915571	-0.018915455	-7621.0265	22865.077	0	18.11649148173589
69.183097	2.7542287e-7	0.09	6.5295714e6	377597.66	-0.9770519	-0.020679988	-0.020679861	-6950.5449	20853.136	0	19.812532332877552
69.183097	3.0199517e-7	0.09	5.9550417e6	344373.52	-0.97491655	-0.022596587	-0.022596448	-6339.0584	19018.227	0	21.656764916808594
69.183097	3.3113112e-7	0.09	5.4310645e6	314072.77	-0.97259836	-0.024674957	-0.024674804	-5781.3758	17344.772	0	23.65910830009428
69.183097	3.6307805e-7	0.09	4.9531917e6	286438.2	-0.97008608	-0.026924317	-0.02692415	-5272.7631	15818.566	0	25.82935285703381
69.183097	3.9810717e-7	0.09	4.5173668e6	261235.2	-0.96736892	-0.029353228	-0.029353045	-4808.9025	14426.652	0	28.176912741168866
69.183097	4.3651583e-7	0.09	4.1198899e6	238249.83	-0.96443689	-0.031969249	-0.031969048	-4385.8565	13157.214	0	30.710535014642694
69.183097	4.7863009e-7	0.09	3.7573869e6	217286.96	-0.96128117	-0.03477856	-0.034778339	-4000.0336	11999.476	0	33.43798405759466
69.183097	5.2480746e-7	0.09	3.4267803e6	198168.63	-0.95789445	-0.037785554	-0.037785312	-3648.1588	10943.61	0	36.36575653222002
69.183097	5.7543994e-7	0.09	3.1252638e6	180732.55	-0.95427133	-0.040992438	-0.040992172	-3327.2448	9980.651	0	39.49873963466491
69.183097	6.3095734e-7	0.09	2.8502777e6	164830.7	-0.9504087	-0.044398855	-0.044398564	-3034.5674	9102.4256	0	42.83988543228084
69.183097	6.9183097e-7	0.09	2.5994875e6	150328.07	-0.94630598	-0.048001575	-0.048001255	-2767.6422	8301.4778	0	46.39001225830073
69.183097	7.5857758e-7	0.09	2.3707644e6	137101.56	-0.94196535	-0.051794276	-0.051793926	-2524.2031	7571.0079	0	50.1476062004717
69.183097	8.3176377e-7	0.09	2.1621666e6	125038.87	-0.93739176	-0.055767462	-0.055767078	-2302.1837	6904.8145	0	54.10881965412473
69.183097	9.1201084e-7	0.09	1.9719234e6	114037.61	-0.93259291	-0.059908515	-0.059908094	-2099.6992	6297.242	0	58.267484870706646
69.183097	1.e-6	0.09	1.7984196e6	104004.37	-0.92757895	-0.064201898	-0.064201437	-1915.0308	5743.1323	0	62.61537908433077
69.183097	1.0964782e-6	0.09	1.6401825e6	94853.984	-0.92236218	-0.068629488	-0.068628982	-1746.6108	5237.7809	0	67.14247830716933
69.183097	1.2022644e-6	0.09	1.4958687e6	86508.759	-0.91695652	-0.073171005	-0.07317045	-1593.0094	4776.8976	0	71.83741859966626
69.183097	1.3182567e-6	0.09	1.3642531e6	78897.851	-0.91137708	-0.077804503	-0.077803895	-1452.9229	4356.5694	0	76.6878589024886
69.183097	1.4454398e-6	0.09	1.2442184e6	71956.643	-0.90563955	-0.082506873	-0.082506207	-1325.162	3973.2278	0	81.68101163726607
69.183097	1.5848932e-6	0.09	1.1347456e6	65626.207	-0.89975974	-0.087254325	-0.087253594	-1208.6422	3623.6181	0	86.80403414830786
69.183097	1.7378008e-6	0.09	1.0349053e6	59852.8	-0.89375316	-0.092022807	-0.092022005	-1102.3744	3304.772	0	92.04438755079654
69.183097	1.9054607e-6	0.09	943849.93	54587.404	-0.88763464	-0.09678836	-0.096787481	-1005.4565	3013.9826	0	97.39016408475146
69.183097	2.0892961e-6	0.09	860806.56	49785.32	-0.88141806	-0.10152739	-0.10152643	-917.06586	2748.7809	0	102.83031754343095
69.183097	2.2908677e-6	0.09	785070.19	45405.777	-0.87511623	-0.10621688	-0.10621582	-836.4521	2506.9155	0	108.35475970092412
69.183097	2.5118864e-6	0.09	715997.88	41411.596	-0.86874074	-0.11083453	-0.11083337	-762.93096	2286.3327	0	113.95448509582533
69.183097	2.7542287e-6	0.09	653003.24	37768.866	-0.86230197	-0.11535887	-0.1153576	-695.87835	2085.1598	0	119.62155740753613
69.183097	3.0199517e-6	0.09	595551.5	34446.662	-0.85580911	-0.11976938	-0.11976799	-634.72511	1901.689	0	125.34907721977828
69.183097	3.3113112e-6	0.09	543154.95	31416.781	-0.84927019	-0.12404658	-0.12404505	-578.95216	1734.3624	0	131.1311479143719
69.183097	3.6307805e-6	0.09	495368.77	28653.499	-0.84269221	-0.12817214	-0.12817046	-528.08608	1581.7595	0	136.962741689216
69.183097	3.9810717e-6	0.09	451787.31	26133.358	-0.83608119	-0.1321291	-0.13212726	-481.69511	1442.5847	0	142.8396365134538
69.183097	4.3651583e-6	0.09	412040.58	23834.963	-0.82944231	-0.13590203	-0.13590001	-439.38549	1315.6564	0	148.75827105858266
69.183097	4.7863009e-6	0.09	375791.16	21738.803	-0.82277999	-0.13947729	-0.13947509	-400.79811	1199.897	0	154.71564416496165
69.183097	5.2480746e-6	0.09	342731.34	19827.082	-0.81609797	-0.14284335	-0.14284092	-365.60543	1094.3238	0	160.70922107318955
69.183097	5.7543994e-6	0.09	312580.46	18083.571	-0.80939944	-0.14599101	-0.14598835	-333.50877	998.0404	0	166.73677830186548
69.183097	6.3095734e-6	0.09	285082.55	16493.469	-0.80268707	-0.14891377	-0.14891086	-304.2357	910.22938	0	172.79635854845245
69.183097	6.9183097e-6	0.09	260004.2	15043.278	-0.79596313	-0.151608	-0.15160481	-277.53777	830.14524	0	178.88613680121452
69.183097	7.5857758e-6	0.09	237132.49	13720.686	-0.78922952	-0.15407315	-0.15406965	-253.1884	757.10808	0	185.0043743944715
69.183097	8.3176377e-6	0.09	216273.27	12514.466	-0.78248783	-0.15631175	-0.15630791	-230.98094	690.49781	0	191.14936348028684
69.183097	9.1201084e-6	0.09	197249.46	11414.377	-0.77573939	-0.15832935	-0.15832514	-210.72692	629.74891	0	197.31938512385256
69.183097	0.00001	0.09	179899.56	10411.081	-0.76898532	-0.16013428	-0.16012966	-192.25445	574.34561	0	203.51268346544273
69.183097	0.000010964782	0.09	164076.29	9496.0613	-0.76222656	-0.1617373	-0.16173224	-175.40678	523.81753	0	209.72746459293444
69.183097	0.000012022644	0.09	149645.31	8661.5493	-0.75546388	-0.16315113	-0.16314558	-160.04093	477.73568	0	215.96193111781326
69.183097	0.000013182567	0.09	136484.12	7900.4612	-0.74869794	-0.16438992	-0.16438384	-146.02653	435.70881	0	222.21426554486604
69.183097	0.000014454398	0.09	124480.98	7206.3359	-0.74192928	-0.16546869	-0.16546203	-133.24466	397.3801	0	228.48269124997253
69.183097	0.000015848932	0.09	113534.01	6573.2812	-0.73515834	-0.16640284	-0.16639553	-121.58687	362.42412	0	234.7654942780213
69.183097	0.000017378008	0.09	103550.26	5995.9231	-0.72838551	-0.16720763	-0.16719961	-110.95425	330.54408	0	241.0610169538653
69.183097	0.000019054607	0.09	94444.986	5469.3606	-0.7216111	-0.16789781	-0.16788902	-101.25659	301.46931	0	247.36772073924394
69.183097	0.000020892961	0.09	86140.886	4989.1239	-0.71483537	-0.16848734	-0.1684777	-92.411632	274.95296	0	253.68418256847795
69.183097	0.000022908677	0.09	78567.464	4551.1365	-0.70805853	-0.16898914	-0.16897858	-84.344341	250.76989	0	260.00911176064625
69.183097	0.000025118864	0.09	71660.428	4151.6808	-0.70128076	-0.16941503	-0.16940344	-76.986292	228.71478	0	266.3413430668017
69.183097	0.000027542287	0.09	65361.143	3787.3661	-0.69450221	-0.16977562	-0.16976291	-70.275078	208.60038	0	272.6798366699713
69.183097	0.000030199517	0.09	59616.131	3455.1001	-0.68772301	-0.17008033	-0.1700664	-64.153784	190.25591	0	279.0236747087649
69.183097	0.000033113112	0.09	54376.622	3152.0629	-0.68094325	-0.17033747	-0.1703222	-58.570504	173.52562	0	285.3720716125932
69.183097	0.000036307805	0.09	49598.138	2875.6824	-0.67416302	-0.17055428	-0.17053753	-53.477897	158.26747	0	291.72433229101034
69.183097	0.000039810717	0.09	45240.111	2623.6129	-0.66738238	-0.17073703	-0.17071867	-48.832789	144.35193	0	298.07986932775935
69.183097	0.000043651583	0.09	41265.546	2393.7154	-0.6606014	-0.17089111	-0.17087097	-44.595805	131.66085	0	304.43816455254995
69.183097	0.000047863009	0.09	37640.702	2184.0387	-0.65382011	-0.17102114	-0.17099906	-40.731034	120.08648	0	310.7987982615402
69.183097	0.000052480746	0.09	34334.806	1992.8036	-0.64703856	-0.17113106	-0.17110685	-37.205725	109.53055	0	317.1613928434157
69.183097	0.000057543994	0.09	31319.795	1818.3873	-0.64025677	-0.17122423	-0.17119769	-33.99001	99.903464	0	323.5256462279167
69.183097	0.000063095734	0.09	28570.074	1659.31	-0.63347476	-0.1713035	-0.17127439	-31.056646	91.123474	0	329.8913020076592
69.183097	0.000069183097	0.09	26062.3	1514.2219	-0.62669256	-0.17137126	-0.17133935	-28.38079	83.116046	0	336.258129049567
69.183097	0.000075857758	0.09	23775.183	1381.8921	-0.61991016	-0.17142957	-0.17139458	-25.939785	75.813198	0	342.6259667819217
69.183097	0.000083176377	0.09	21689.309	1261.198	-0.61312759	-0.17148016	-0.17144179	-23.712965	69.152935	0	348.99464241865564
69.183097	0.000091201084	0.09	19786.97	1151.1156	-0.60634484	-0.17152448	-0.17148241	-21.681484	63.078712	0	355.3640444333616
69.183097	0.0001	0.09	18052.016	1050.7113	-0.59956191	-0.1715638	-0.17151766	-19.828155	57.538963	0	361.7340696617642
69.183097	0.00010964782	0.09	16469.721	959.13351	-0.59277881	-0.17159915	-0.17154857	-18.137303	52.486658	0	368.1046216105021
69.183097	0.00012022644	0.09	15026.65	875.60553	-0.58599553	-0.17163147	-0.17157601	-16.594631	47.878908	0	374.47563610726166
69.183097	0.00013182567	0.09	13710.555	799.41907	-0.57921206	-0.17166153	-0.17160071	-15.1871	43.676594	0	380.8470608182531
69.183097	0.00014454398	0.09	12510.262	729.92813	-0.57242838	-0.17169	-0.17162332	-13.90282	39.844042	0	387.21885957021044
69.183097	0.00015848932	0.09	11415.582	666.54359	-0.5656445	-0.17171749	-0.17164438	-12.730946	36.348716	0	393.59097730460405
69.183097	0.00017378008	0.09	10417.222	608.72812	-0.55886039	-0.17174453	-0.17166436	-11.661588	33.160943	0	399.96340246478013
69.183097	0.00019054607	0.09	9506.7074	555.99171	-0.55207603	-0.17177159	-0.17168369	-10.685725	30.253661	0	406.3361174808667
69.183097	0.00020892961	0.09	8676.3085	507.88744	-0.54529141	-0.17179911	-0.17170273	-9.7951301	27.60219	0	412.70910130659996
69.183097	0.00022908677	0.09	7918.976	464.00774	-0.5385065	-0.17182749	-0.17172181	-8.9823013	25.184021	0	419.08235422384945
69.183097	0.00025118864	0.09	7228.2808	423.98088	-0.53172128	-0.17185711	-0.17174123	-8.2403957	22.978626	0	425.45586965565775
69.183097	0.00027542287	0.09	6598.3595	387.46785	-0.52493571	-0.17188835	-0.17176129	-7.5631729	20.967281	0	431.8296598163744
69.183097	0.00030199517	0.09	6023.8647	354.15947	-0.51814977	-0.17192157	-0.17178226	-6.9449415	19.132914	0	438.20372066586833
69.183097	0.00033113112	0.09	5499.9195	323.77376	-0.51136341	-0.17195713	-0.17180438	-6.3805108	17.459951	0	444.5780788877955
69.183097	0.00036307805	0.09	5022.0761	296.05355	-0.5045766	-0.17199541	-0.17182792	-5.8651469	15.93419	0	450.95273983767845
69.183097	0.00039810717	0.09	4586.2781	270.7643	-0.49778929	-0.17203679	-0.17185313	-5.3945324	14.542679	0	457.32772935356434
69.183097	0.00043651583	0.09	4188.8259	247.69212	-0.49100143	-0.17208166	-0.17188028	-4.9647299	13.273605	0	463.7030715822826
69.183097	0.00047863009	0.09	3826.3455	226.64192	-0.48421296	-0.17213044	-0.17190964	-4.5721483	12.116196	0	470.0788000663163
69.183097	0.00052480746	0.09	3495.7599	207.43578	-0.47742383	-0.17218359	-0.17194148	-4.2135125	11.060625	0	476.4549389524949
69.183097	0.00057543994	0.09	3194.2627	189.91146	-0.47063396	-0.17224157	-0.17197611	-3.8858357	10.097931	0	482.831537192173
69.183097	0.00063095734	0.09	2919.2945	173.92095	-0.46384327	-0.17230492	-0.17201385	-3.5863936	9.219943	0	489.2086428910968
69.183097	0.00069183097	0.09	2668.521	159.32931	-0.45705168	-0.17237417	-0.17205502	-3.312702	8.4192067	0	495.5863041550119
69.183097	0.00075857758	0.09	2439.8134	146.01343	-0.4502591	-0.17244994	-0.1721	-3.062495	7.6889249	0	501.964573411665
69.183097	0.00083176377	0.09	2231.2303	133.86107	-0.44346541	-0.17253288	-0.17214918	-2.8337062	7.022898	0	508.3435304301544
69.183097	0.00091201084	0.09	2041.0009	122.76985	-0.4366705	-0.17262371	-0.17220299	-2.6244508	6.4154722	0	514.7232422014894
69.183097	0.001	0.09	1867.5105	112.64639	-0.42987423	-0.1727232	-0.17226189	-2.4330102	5.861491	0	521.1038013668135
69.183097	0.0010964782	0.09	1709.2863	103.40553	-0.42307645	-0.17283221	-0.17232639	-2.2578167	5.3562516	0	527.4853057348797
69.183097	0.0012022644	0.09	1564.9851	94.96961	-0.416277	-0.17295166	-0.17239704	-2.0974407	4.8954649	0	533.8678591276591
69.183097	0.0013182567	0.09	1433.3819	87.267802	-0.40947568	-0.17308258	-0.17247445	-1.9505782	4.4752194	0	540.2515978760844
69.183097	0.0014454398	0.09	1313.3597	80.235503	-0.40267229	-0.17322607	-0.17255927	-1.8160402	4.0919476	0	546.6366549286521
69.183097	0.0015848932	0.09	1203.8996	73.813799	-0.39586659	-0.17338335	-0.17265222	-1.692742	3.7423959	0	553.0231948972115
69.183097	0.0017378008	0.09	1104.0723	67.948957	-0.3890583	-0.17355575	-0.17275408	-1.5796946	3.4235969	0	559.4114149025734
69.183097	0.0019054607	0.09	1013.0306	62.591972	-0.38224713	-0.17374474	-0.17286573	-1.4759957	3.1328444	0	565.8015130051135
69.183097	0.0020892961	0.09	930.00158	57.698151	-0.37543274	-0.17395189	-0.17298808	-1.3808227	2.8676702	0	572.1937317066485
69.183097	0.0022908677	0.09	854.28051	53.226731	-0.36861475	-0.17417897	-0.17312218	-1.2934252	2.6258233	0	578.5883392530859
69.183097	0.0025118864	0.09	785.22466	49.140537	-0.36179272	-0.17442787	-0.17326912	-1.2131188	2.4052507	0	584.9856568818188
69.183097	0.0027542287	0.09	722.2479	45.405662	-0.35496616	-0.17470068	-0.17343015	-1.1392791	2.2040799	0	591.3860392787667
69.183097	0.0030199517	0.09	664.81573	41.991182	-0.34813452	-0.17499968	-0.17360657	-1.0713371	2.0206033	0	597.7898932757266
69.183097	0.0033113112	0.09	612.44074	38.868896	-0.34129717	-0.17532734	-0.17379985	-1.0087733	1.8532635	0	604.1976864943726
69.183097	0.0036307805	0.09	564.67844	36.013078	-0.33445342	-0.17568639	-0.17401154	-0.95111411	1.70064	0	610.6099361654306
69.183097	0.0039810717	0.09	521.12356	33.400269	-0.32760247	-0.17607977	-0.17424335	-0.8979276	1.5614373	0	617.0272493420725
69.183097	0.0043651583	0.09	481.40653	31.00907	-0.32074341	-0.1765107	-0.17449713	-0.84881968	1.4344739	0	623.4503245911365
69.183097	0.0047863009	0.09	445.19042	28.819965	-0.31387525	-0.17698266	-0.17477486	-0.80343091	1.3186721	0	629.8799246517734
69.183097	0.0052480746	0.09	412.16802	26.815152	-0.30699685	-0.17749944	-0.17507868	-0.76143339	1.213049	0	636.316939668196
69.183097	0.0057543994	0.09	382.05928	24.978395	-0.30010694	-0.17806512	-0.17541087	-0.72252799	1.1167083	0	642.7623700895891
69.183097	0.0063095734	0.09	354.60891	23.294884	-0.2932041	-0.17868412	-0.17577386	-0.68644179	1.0288325	0	649.2173446158073
69.183097	0.0069183097	0.09	329.5842	21.751112	-0.28628676	-0.17936116	-0.17617023	-0.65292578	0.94867571	0	655.6831201973763
69.183097	0.0075857758	0.09	306.77307	20.334754	-0.27935319	-0.18010131	-0.17660266	-0.62175273	0.87555799	0	662.1610956591887
69.183097	0.0083176377	0.09	285.98222	19.034572	-0.27240149	-0.18090994	-0.17707393	-0.59271528	0.808859	0	668.6528210961592
69.183097	0.0091201084	0.09	267.03552	17.84031	-0.26542958	-0.18179275	-0.17758688	-0.56562415	0.74801298	0	675.1600106513123
69.183097	0.01	0.09	249.77247	16.742615	-0.25843524	-0.18275567	-0.17814433	-0.54030654	0.69250392	0	681.684511698039
69.183097	0.010964782	0.09	234.04682	15.732953	-0.25141613	-0.18380486	-0.17874903	-0.5166047	0.64186118	0	688.2282902768346
69.183097	0.012022644	0.09	219.72529	14.803535	-0.24436979	-0.1849466	-0.17940353	-0.49437455	0.59565545	0	694.7934420882118
69.183097	0.013182567	0.09	206.68638	13.947258	-0.23729373	-0.18618718	-0.18011003	-0.47348448	0.55349518	0	701.3821206159531
69.183097	0.014454398	0.09	194.81932	13.157637	-0.2301855	-0.18753275	-0.18087021	-0.4538143	0.51502316	0	707.9964857328849
69.183097	0.015848932	0.09	184.02299	12.428756	-0.22304279	-0.18898909	-0.18168498	-0.43525414	0.47991353	0	714.6386308845636
69.183097	0.017378008	0.09	174.20504	11.755213	-0.21586352	-0.19056138	-0.1825542	-0.41770364	0.44786899	0	721.3105222054406
69.183097	0.019054607	0.09	165.28099	11.132079	-0.20864606	-0.19225387	-0.18347628	-0.40107111	0.41861821	0	728.0138256388382
69.183097	0.020892961	0.09	157.17341	10.554851	-0.20138934	-0.19406945	-0.18444782	-0.38527275	0.39191354	0	734.7498340266777
69.183097	0.022908677	0.09	149.81121	10.019421	-0.19409304	-0.19600926	-0.18546301	-0.37023207	0.36752881	0	741.5193393285927
69.183097	0.025118864	0.09	143.12896	9.5220325	-0.18675777	-0.19807211	-0.1865132	-0.35587925	0.3452574	0	748.3224998613447
69.183097	0.027542287	0.09	137.06638	9.0592572	-0.17938512	-0.20025393	-0.18758618	-0.34215063	0.32491045	0	755.1588542043903
69.183097	0.030199517	0.09	131.56788	8.6279608	-0.17197774	-0.20254722	-0.18866565	-0.32898823	0.30631516	0	762.0272908519205
69.183097	0.033113112	0.09	126.58235	8.2252786	-0.16453916	-0.20494048	-0.18973058	-0.31633929	0.28931337	0	768.9262714535877
69.183097	0.036307805	0.09	122.06314	7.8485916	-0.15707345	-0.20741769	-0.19075474	-0.30415585	0.27376018	0	775.8541900103392
69.183097	0.039810717	0.09	117.96821	7.4955041	-0.14958458	-0.20995805	-0.1917063	-0.2923943	0.25952281	0	782.8100080205936
69.183097	0.043651583	0.09	114.26062	7.1638242	-0.14207552	-0.21253577	-0.19254777	-0.2810149	0.24647959	0	789.7941051627088
69.183097	0.047863009	0.09	110.90921	6.8515456	-0.1345469	-0.21512033	-0.19323616	-0.26998126	0.2345192	0	796.80952478281
69.183097	0.052480746	0.09	107.88952	6.5568316	-0.12699541	-0.21767709	-0.19372366	-0.25925973	0.22354003	0	803.8634196979501
69.183097	0.057543994	0.09	105.18477	6.2779997	-0.11941191	-0.22016839	-0.19395882	-0.24881866	0.21344983	0	810.9687281927818
69.183097	0.063095734	0.09	102.78684	6.0135088	-0.11177943	-0.22255537	-0.19388848	-0.23862767	0.20416554	0	818.1458899477544
69.183097	0.069183097	0.09	100.69696	5.7619472	-0.10407129	-0.2248005	-0.1934604	-0.2286567	0.19561327	0	825.4243900268559
69.183097	0.075857758	0.09	98.925945	5.5220228	-0.096249621	-0.22687089	-0.19262683	-0.21887509	0.1877285	0	832.8438466124169
69.183097	0.083176377	0.09	97.493682	5.2925535	-0.088264629	-0.22874231	-0.19134874	-0.20925068	0.18045637	0	840.4543448326806
69.183097	0.091201084	0.09	96.427721	5.0724608	-0.080054787	-0.23040359	-0.18960048	-0.19974897	0.17375198	0	848.3158623115464
69.183097	0.1	0.09	95.761125	4.8607645	-0.071548105	-0.23186079	-0.18737436	-0.19033246	0.16758063	0	856.49668863174
69.183097	0.10964782	0.09	95.5299	4.6565794	-0.062664125	-0.23314033	-0.18468411	-0.18096026	0.16191806	0	865.0712583212883
69.183097	0.12022644	0.09	95.770786	4.4591155	-0.053315941	-0.2342903	-0.18156666	-0.17158789	0.15675055	0	874.1181024131448
69.183097	0.13182567	0.09	96.520333	4.2676801	-0.043411232	-0.23537947	-0.17808143	-0.16216727	0.15207519	0	883.7189379124083
69.183097	0.14454398	0.09	97.816049	4.0816846	-0.032851274	-0.23649404	-0.17430754	-0.15264672	0.14790032	0	893.9598320117476
69.183097	0.15848932	0.09	99.699924	3.9006546	-0.021527332	-0.23773309	-0.17033948	-0.1429707	0.14424654	0	904.9349581918023
69.183097	0.17378008	0.09	102.22396	3.7242445	-0.0093145137	-0.23920362	-0.16628227	-0.13307912	0.1411485	0	916.7527803463587
69.183097	0.19054607	0.09	105.45665	3.5522555	0.0039360523	-0.24101614	-0.16224717	-0.12290602	0.13865752	0	929.5437646407875
69.183097	0.20892961	0.09	109.48897	3.384655	0.01840515	-0.24328111	-0.15834789	-0.11237768	0.13684492	0	943.4681540394874
69.183097	0.22908677	0.09	114.43802	3.2215933	0.034311456	-0.24610586	-0.1546973	-0.10141019	0.13580567	0	958.7218651119796
69.183097	0.25118864	0.09	120.44633	3.0634118	0.051913095	-0.24959126	-0.15140363	-0.089906901	0.13566157	0	975.5382708581584
69.183097	0.27542287	0.09	127.67519	2.9106323	0.071502242	-0.25382728	-0.14856557	-0.077756169	0.13656267	0	994.1835434707647
69.183097	0.30199517	0.09	136.29065	2.763919	0.093390879	-0.25888703	-0.14626578	-0.064830172	0.13868572	0	1014.9438206243575
69.183097	0.33113112	0.09	146.44285	2.6240079	0.11788765	-0.26481991	-0.14456343	-0.050985399	0.1422284	0	1038.104090059464
69.183097	0.36307805	0.09	158.24188	2.4916071	0.14526878	-0.27164514	-0.14348728	-0.036065387	0.14739934	0	1063.9214512439355
69.183097	0.39810717	0.09	171.73584	2.3672868	0.1757493	-0.27934802	-0.14303155	-0.019905765	0.15440487	0	1092.598428616444
69.183097	0.43651583	0.09	186.89769	2.2513859	0.20946231	-0.28788081	-0.14315638	-0.0023410744	0.16343542	0	1124.2634489218094
69.183097	0.47863009	0.09	203.62532	2.1439616	0.24645206	-0.2971686	-0.14379351	0.016787757	0.17465427	0	1158.9638600525418
69.183097	0.52480746	0.09	221.7547	2.0447933	0.28668202	-0.30711901	-0.14485581	0.037626605	0.18819105	0	1196.6727074760104
69.183097	0.57543994	0.09	241.0816	1.9534323	0.33005387	-0.31763307	-0.14624811	0.060303099	0.20414035	0	1237.3056607860954
69.183097	0.63095734	0.09	261.38548	1.8692763	0.37643108	-0.32861506	-0.14787696	0.084923859	0.22256445	0	1280.7423433399376
69.183097	0.69183097	0.09	282.45025	1.7916467	0.42566117	-0.3399796	-0.14965786	0.11157396	0.24349844	0	1326.8466356074557
69.183097	0.75857758	0.09	304.07914	1.7198515	0.47759299	-0.35165591	-0.15151947	0.14031814	0.26695612	0	1375.4825548592837
69.183097	0.83176377	0.09	326.10315	1.6532295	0.53208839	-0.36358942	-0.15340541	0.17120318	0.29293557	0	1426.5250676848177
69.183097	0.91201084	0.09	348.3844	1.5911755	0.58902861	-0.37574166	-0.15527415	0.20426078	0.32142395	0	1479.8661031165002
69.183097	1.	0.09	370.8158	1.5331514	0.64831687	-0.38808898	-0.15709793	0.23951068	0.35240135	0	1535.417077429829
69.183097	1.0964782	0.09	393.31859	1.4786871	0.70987859	-0.40062067	-0.15886089	0.2769635	0.3858438	0	1593.109258976582
69.183097	1.2022644	0.09	415.8389	1.4273765	0.77366004	-0.41333691	-0.16055715	0.31662344	0.42172557	0	1652.8926621284863
69.183097	1.3182567	0.09	438.34394	1.3788712	0.83962647	-0.42624657	-0.16218869	0.35849042	0.46002097	0	1714.7344695590843
69.183097	1.4454398	0.09	460.81843	1.3328726	0.90775997	-0.43936524	-0.16376347	0.4025621	0.50070562	0	1778.6171805483407
69.183097	1.5848932	0.09	483.26131	1.2891255	0.97805733	-0.45271346	-0.16529368	0.4488353	0.54375758	0	1844.5367482943366
69.183097	1.7378008	0.09	505.68284	1.2474108	1.0505282	-0.46631516	-0.16679428	0.49730735	0.58915806	0	1912.5009745719124
69.183097	1.9054607	0.09	528.10227	1.2075411	1.1251932	-0.48019644	-0.16828179	0.54797704	0.63689202	0	1982.527836272822
69.183097	2.0892961	0.09	550.54578	1.169355	1.202083	-0.49438457	-0.16977336	0.6008454	0.68694862	0	2054.644699647233
69.183097	2.2908677	0.09	573.04485	1.1327135	1.2812362	-0.50890729	-0.17128609	0.6559163	0.73932149	0	2128.8863859265816
69.183097	2.5118864	0.09	595.63492	1.0974967	1.3626995	-0.52379229	-0.17283652	0.71319688	0.79400895	0	2205.2953741757324
69.183097	2.7542287	0.09	618.35432	1.0636006	1.4465256	-0.53906685	-0.17444032	0.77269793	0.85101413	0	2283.919854419618
69.183097	3.0199517	0.09	641.24344	1.030935	1.5327736	-0.55475769	-0.17611214	0.83443409	0.91034502	0	2364.8141161535086
69.183097	3.3113112	0.09	664.34401	0.99942116	1.6215078	-0.57089088	-0.1778655	0.89842404	0.97201451	0	2448.037430166292
69.183097	3.6307805	0.09	687.69865	0.96899004	1.7127975	-0.58749178	-0.1797128	0.96469059	1.0360403	0	2533.653859781791
69.183097	3.9810717	0.09	711.35041	0.93958092	1.8067165	-0.60458515	-0.18166537	1.0332607	1.102445	0	2621.731786848052
69.183097	4.3651583	0.09	735.34251	0.91114006	1.9033429	-0.62219516	-0.18373356	1.1041658	1.1712558	0	2712.343716213782
69.183097	4.7863009	0.09	759.71809	0.88361962	2.0027591	-0.64034555	-0.18592677	1.1774411	1.2425047	0	2805.5662731915368
69.183097	5.2480746	0.09	784.52013	0.85697676	2.1050513	-0.65905966	-0.18825363	1.2531265	1.3162283	0	2901.4797185540806
69.183097	5.7543994	0.09	809.79126	0.83117284	2.2103094	-0.6783606	-0.19072206	1.3312658	1.3924676	0	3000.1678495041942
69.183097	6.3095734	0.09	835.57379	0.80617283	2.3186272	-0.69827132	-0.19333935	1.4119071	1.4712681	0	3101.718180822883
69.183097	6.9183097	0.09	861.90962	0.78194471	2.430102	-0.71881474	-0.19611231	1.4951026	1.5526796	0	3206.221556359099
69.183097	7.5857758	0.09	888.84028	0.75845907	2.544835	-0.7400138	-0.19904728	1.5809085	1.6367562	0	3313.7725240102727
69.183097	8.3176377	0.09	916.40695	0.7356887	2.6629308	-0.76189159	-0.20215027	1.6693853	1.7235563	0	3424.468854101117
69.183097	9.1201084	0.09	944.65048	0.71360831	2.7844978	-0.78447143	-0.20542702	1.7605971	1.8131423	0	3538.4119101361116
69.183097	10.	0.09	973.61148	0.69219422	2.909648	-0.80777691	-0.20888302	1.8546125	1.9055809	0	3655.7064591952176