69.183097	1.e-12	0.34	1.7983906e12	1.0399848e11	-0.99999994	-3.0302441e-8	-3.0300698e-8	-1.9140665e9	5.7436623e9	0	0.00004669429575697839
69.183097	1.0964782e-12	0.34	1.6401517e12	9.4847737e10	-0.99999993	-3.322597e-8	-3.3224059e-8	-1.7456494e9	5.2382823e9	0	0.000055156075145801235
69.183097	1.2022644e-12	0.34	1.4958361e12	8.6502165e10	-0.99999993	-3.6431483e-8	-3.6429388e-8	-1.5920512e9	4.7773702e9	0	0.00005413212568412618
69.183097	1.3182567e-12	0.34	1.3642188e12	7.8890912e10	-0.99999992	-3.9946324e-8	-3.9944027e-8	-1.451968e9	4.3570134e9	0	0.00006240501989949042
69.183097	1.4454398e-12	0.34	1.2441823e12	7.1949367e10	-0.99999991	-4.3800271e-8	-4.3797752e-8	-1.3242105e9	3.9736435e9	0	0.00007056959244403554
69.183097	1.5848932e-12	0.34	1.1347078e12	6.5618602e10	-0.9999999	-4.8026039e-8	-4.8023277e-8	-1.2076943e9	3.6240059e9	0	0.00007861539254924375
69.183097	1.7378008e-12	0.34	1.0348658e12	5.9844877e10	-0.99999989	-5.2659502e-8	-5.2656473e-8	-1.1014303e9	3.3051327e9	0	0.00008653096135319273
69.183097	1.9054607e-12	0.34	9.438088e11	5.4579176e10	-0.99999988	-5.7739991e-8	-5.773667e-8	-1.0045164e9	3.0143168e9	0	0.00009430373469579648
69.183097	2.0892961e-12	0.34	8.6076386e11	4.97768e10	-0.99999987	-6.3310636e-8	-6.3306995e-8	-9.1612985e8	2.7490896e9	0	0.00010191993545689349
69.183097	2.2908677e-12	0.34	7.8502597e11	4.5396981e10	-0.99999986	-6.9418726e-8	-6.9414734e-8	-8.3552035e8	2.5071995e9	0	0.00010936445822748156
69.183097	2.5118864e-12	0.34	7.1595219e11	4.1402539e10	-0.99999985	-7.6116466e-8	-7.6112088e-8	-7.6200362e8	2.2865932e9	0	0.00011662062707365119
69.183097	2.7542287e-12	0.34	6.5295616e11	3.7759564e10	-0.99999983	-8.3459932e-8	-8.3455132e-8	-6.9495556e8	2.0853977e9	0	0.00013306618236374568
69.183097	3.0199517e-12	0.34	5.9550309e11	3.4437132e10	-0.99999981	-9.1511267e-8	-9.1506004e-8	-6.33807e8	1.9019053e9	0	0.00014928562042856977
69.183097	3.3113112e-12	0.34	5.4310528e11	3.1407038e10	-0.9999998	-1.0034049e-7	-1.0033472e-7	-5.7803886e8	1.7345583e9	0	0.00015586092105865986
69.183097	3.6307805e-12	0.34	4.953179e11	2.8643559e10	-0.99999978	-1.1002167e-7	-1.1001534e-7	-5.271777e8	1.581936e9	0	0.00017155973250847318
69.183097	3.9810717e-12	0.34	4.5173529e11	2.6123236e10	-0.99999976	-1.2063629e-7	-1.2062935e-7	-4.8079178e8	1.4427427e9	0	0.00018696037045159408
69.183097	4.3651583e-12	0.34	4.1198748e11	2.3824674e10	-0.99999973	-1.3227516e-7	-1.3226755e-7	-4.3848731e8	1.315797e9	0	0.00021142948217374826
69.183097	4.7863009e-12	0.34	3.7573705e11	2.1728361e10	-0.99999971	-1.4503651e-7	-1.4502817e-7	-3.9990518e8	1.2000211e9	0	0.00022614438078904153
69.183097	5.2480746e-12	0.34	3.4267626e11	1.9816501e10	-0.99999968	-1.5902935e-7	-1.590202e-7	-3.6471786e8	1.0944323e9	0	0.000249861556294547
69.183097	5.7543994e-12	0.34	3.1252447e11	1.8072864e10	-0.99999965	-1.743724e-7	-1.7436237e-7	-3.3262664e8	9.9813411e8	0	0.000273147426476779
69.183097	6.3095734e-12	0.34	2.850257e11	1.6482648e10	-0.99999961	-1.9119533e-7	-1.9118434e-7	-3.033591e8	9.1030913e8	0	0.00030535622481254576
69.183097	6.9183097e-12	0.34	2.5994653e11	1.5032353e10	-0.99999958	-2.0964155e-7	-2.0962949e-7	-2.7666679e8	8.3021179e8	0	0.0003276508412525779
69.183097	7.5857758e-12	0.34	2.3707405e11	1.3709669e10	-0.99999953	-2.2986749e-7	-2.2985427e-7	-2.5232311e8	7.5716215e8	0	0.0003681682579302201
69.183097	8.3176377e-12	0.34	2.1621411e11	1.2503367e10	-0.99999949	-2.5204424e-7	-2.5202975e-7	-2.3012141e8	6.9054009e8	0	0.00039866686561704814
69.183097	9.1201084e-12	0.34	1.9718961e11	1.1403206e10	-0.99999944	-2.7636115e-7	-2.7634525e-7	-2.0987322e8	6.2978005e8	0	0.00043787749271338277
69.183097	1.e-11	0.34	1.7983906e11	1.0399848e10	-0.99999939	-3.0302401e-7	-3.0300658e-7	-1.9140666e8	5.7436623e8	0	0.00047633873910650785
69.183097	1.0964782e-11	0.34	1.6401517e11	9.4847737e9	-0.99999933	-3.3225929e-7	-3.3224018e-7	-1.7456494e8	5.2382823e8	0	0.0005233739217917894
69.183097	1.2022644e-11	0.34	1.4958361e11	8.6502165e9	-0.99999926	-3.6431498e-7	-3.6429403e-7	-1.5920512e8	4.7773702e8	0	0.0005789038227993344
69.183097	1.3182567e-11	0.34	1.3642188e11	7.8890912e9	-0.99999919	-3.9946333e-7	-3.9944035e-7	-1.451968e8	4.3570134e8	0	0.0006334458272988757
69.183097	1.4454398e-11	0.34	1.2441823e11	7.1949367e9	-0.99999911	-4.3800304e-7	-4.3797785e-7	-1.3242105e8	3.9736435e8	0	0.0006963001654739123
69.183097	1.5848932e-11	0.34	1.1347078e11	6.5618602e9	-0.99999903	-4.8026073e-7	-4.8023311e-7	-1.2076944e8	3.6240059e8	0	0.0007579668568629266
69.183097	1.7378008e-11	0.34	1.0348658e11	5.9844877e9	-0.99999893	-5.2659547e-7	-5.2656519e-7	-1.1014303e8	3.3051327e8	0	0.0008371225061508992
69.183097	1.9054607e-11	0.34	9.438088e10	5.4579176e9	-0.99999883	-5.7740047e-7	-5.7736726e-7	-1.0045164e8	3.0143168e8	0	0.0009148502071101513
69.183097	2.0892961e-11	0.34	8.6076386e10	4.97768e9	-0.99999872	-6.3310695e-7	-6.3307054e-7	-9.1612986e7	2.7490896e8	0	0.0010004078592063294
69.183097	2.2908677e-11	0.34	7.8502597e10	4.5396981e9	-0.99999859	-6.9418788e-7	-6.9414796e-7	-8.3552036e7	2.5071995e8	0	0.0011030400373444
69.183097	2.5118864e-11	0.34	7.1595219e10	4.1402539e9	-0.99999846	-7.6116202e-7	-7.6111825e-7	-7.6200363e7	2.2865931e8	0	0.0012037897250846918
69.183097	2.7542287e-11	0.34	6.5295616e10	3.7759564e9	-0.99999831	-8.3459742e-7	-8.3454942e-7	-6.9495557e7	2.0853977e8	0	0.0013212667774667125
69.183097	3.0199517e-11	0.34	5.9550309e10	3.4437132e9	-0.99999815	-9.1511798e-7	-9.1506535e-7	-6.3380701e7	1.9019053e8	0	0.0014458762408842366
69.183097	3.3113112e-11	0.34	5.4310528e10	3.1407038e9	-0.99999797	-1.0034068e-6	-1.0033491e-6	-5.7803887e7	1.7345583e8	0	0.0015867955640603898
69.183097	3.6307805e-11	0.34	4.953179e10	2.8643559e9	-0.99999777	-1.1002138e-6	-1.1001505e-6	-5.2717771e7	1.581936e8	0	0.0017437852120334868
69.183097	3.9810717e-11	0.34	4.5173529e10	2.6123236e9	-0.99999756	-1.2063605e-6	-1.2062911e-6	-4.8079179e7	1.4427427e8	0	0.0019071870853901098
69.183097	4.3651583e-11	0.34	4.1198748e10	2.3824674e9	-0.99999732	-1.322748e-6	-1.3226719e-6	-4.3848732e7	1.315797e8	0	0.002095504664566736
69.183097	4.7863009e-11	0.34	3.7573705e10	2.1728361e9	-0.99999706	-1.4503643e-6	-1.4502809e-6	-3.9990519e7	1.2000211e8	0	0.002299026677328096
69.183097	5.2480746e-11	0.34	3.4267626e10	1.9816501e9	-0.99999678	-1.5902928e-6	-1.5902013e-6	-3.6471787e7	1.0944323e8	0	0.002517407093030568
69.183097	5.7543994e-11	0.34	3.1252447e10	1.8072864e9	-0.99999647	-1.7437214e-6	-1.7436211e-6	-3.3262665e7	9.981341e7	0	0.0027596620559851926
69.183097	6.3095734e-11	0.34	2.850257e10	1.6482648e9	-0.99999613	-1.9119524e-6	-1.9118425e-6	-3.0335911e7	9.1030912e7	0	0.0030253755755123854
69.183097	6.9183097e-11	0.34	2.5994653e10	1.5032353e9	-0.99999575	-2.0964142e-6	-2.0962936e-6	-2.766668e7	8.3021178e7	0	0.003323487095341093
69.183097	7.5857758e-11	0.34	2.3707405e10	1.3709669e9	-0.99999534	-2.2986725e-6	-2.2985403e-6	-2.5232312e7	7.5716214e7	0	0.00364410073169437
69.183097	8.3176377e-11	0.34	2.1621411e10	1.2503367e9	-0.99999489	-2.5204443e-6	-2.5202993e-6	-2.3012142e7	6.9054008e7	0	0.003996063734599386
69.183097	9.1201084e-11	0.34	1.9718961e10	1.1403206e9	-0.9999944	-2.7636122e-6	-2.7634532e-6	-2.0987323e7	6.2978004e7	0	0.004378774703204335
69.183097	1.e-10	0.34	1.7983906e10	1.0399848e9	-0.99999386	-3.0302405e-6	-3.0300662e-6	-1.9140666e7	5.7436622e7	0	0.0048009698776816595
69.183097	1.0964782e-10	0.34	1.6401517e10	9.4847737e8	-0.99999327	-3.3225927e-6	-3.3224016e-6	-1.7456495e7	5.2382822e7	0	0.005261926241928407
69.183097	1.2022644e-10	0.34	1.4958361e10	8.6502165e8	-0.99999262	-3.6431504e-6	-3.6429409e-6	-1.5920513e7	4.7773701e7	0	0.005770246728810339
69.183097	1.3182567e-10	0.34	1.3642188e10	7.8890912e8	-0.9999919	-3.994635e-6	-3.9944053e-6	-1.4519681e7	4.3570133e7	0	0.0063344576982877
69.183097	1.4454398e-10	0.34	1.2441823e10	7.1949367e8	-0.99999112	-4.3800302e-6	-4.3797783e-6	-1.3242106e7	3.9736434e7	0	0.006944210411326519
69.183097	1.5848932e-10	0.34	1.1347078e10	6.5618602e8	-0.99999027	-4.8026077e-6	-4.8023315e-6	-1.2076944e7	3.6240058e7	0	0.0076078554014900115
69.183097	1.7378008e-10	0.34	1.0348658e10	5.9844877e8	-0.99998933	-5.2659547e-6	-5.2656518e-6	-1.1014304e7	3.3051326e7	0	0.008343038132499644
69.183097	1.9054607e-10	0.34	9.438088e9	5.4579176e8	-0.9999883	-5.7740039e-6	-5.7736718e-6	-1.0045165e7	3.0143167e7	0	0.009148502326663288
69.183097	2.0892961e-10	0.34	8.6076386e9	4.97768e8	-0.99998717	-6.3310694e-6	-6.3307053e-6	-9.1612995e6	2.7490895e7	0	0.010032265584545836
69.183097	2.2908677e-10	0.34	7.8502597e9	4.5396981e8	-0.99998593	-6.9418795e-6	-6.9414803e-6	-8.3552045e6	2.5071994e7	0	0.01100221318949875
69.183097	2.5118864e-10	0.34	7.1595219e9	4.1402539e8	-0.99998457	-7.6116195e-6	-7.6111818e-6	-7.6200372e6	2.2865931e7	0	0.012066084435313729
69.183097	2.7542287e-10	0.34	6.5295616e9	3.7759564e8	-0.99998309	-8.3459748e-6	-8.3454948e-6	-6.9495566e6	2.0853976e7	0	0.013222063236021443
69.183097	3.0199517e-10	0.34	5.9550309e9	3.4437132e8	-0.99998145	-9.1511794e-6	-9.1506531e-6	-6.338071e6	1.9019052e7	0	0.014505740804359308
69.183097	3.3113112e-10	0.34	5.4310528e9	3.1407038e8	-0.99997966	-0.000010034069	-0.000010033492	-5.7803896e6	1.7345582e7	0	0.015905537935236212
69.183097	3.6307805e-10	0.34	4.953179e9	2.8643559e8	-0.9999777	-0.000011002137	-0.000011001505	-5.271778e6	1.5819359e7	0	0.01743785212043918
69.183097	3.9810717e-10	0.34	4.5173529e9	2.6123236e8	-0.99997555	-0.000012063604	-0.00001206291	-4.8079188e6	1.4427426e7	0	0.019118849440359183
69.183097	4.3651583e-10	0.34	4.1198748e9	2.3824674e8	-0.99997319	-0.000013227478	-0.000013226718	-4.3848741e6	1.3157969e7	0	0.020964442618353854
69.183097	4.7863009e-10	0.34	3.7573705e9	2.1728361e8	-0.99997061	-0.000014503642	-0.000014502807	-3.9990528e6	1.200021e7	0	0.02298087175863819
69.183097	5.2480746e-10	0.34	3.4267626e9	1.9816501e8	-0.99996777	-0.000015902927	-0.000015902012	-3.6471796e6	1.0944322e7	0	0.02520225821050385
69.183097	5.7543994e-10	0.34	3.1252447e9	1.8072864e8	-0.99996466	-0.000017437212	-0.000017436209	-3.3262674e6	9.9813401e6	0	0.027634203813049516
69.183097	6.3095734e-10	0.34	2.850257e9	1.6482648e8	-0.99996125	-0.000019119523	-0.000019118423	-3.033592e6	9.1030903e6	0	0.030300734661347094
69.183097	6.9183097e-10	0.34	2.5994653e9	1.5032353e8	-0.99995751	-0.000020964139	-0.000020962934	-2.7666689e6	8.3021169e6	0	0.033225475938455214
69.183097	7.5857758e-10	0.34	2.3707405e9	1.3709669e8	-0.99995341	-0.000022986721	-0.000022985399	-2.5232321e6	7.5716206e6	0	0.03643161294130968
69.183097	8.3176377e-10	0.34	2.1621411e9	1.2503367e8	-0.99994892	-0.000025204438	-0.000025202988	-2.3012151e6	6.9053999e6	0	0.039941847635951905
69.183097	9.1201084e-10	0.34	1.9718961e9	1.1403206e8	-0.99994399	-0.000027636116	-0.000027634526	-2.0987332e6	6.2977995e6	0	0.043797144601782315
69.183097	1.e-9	0.34	1.7983906e9	1.0399848e8	-0.99993859	-0.000030302397	-0.000030300655	-1.9140675e6	5.7436613e6	0	0.048019096666633655
69.183097	1.0964782e-9	0.34	1.6401517e9	9.4847737e7	-0.99993266	-0.000033225917	-0.000033224006	-1.7456504e6	5.2382813e6	0	0.052656848228203726
69.183097	1.2022644e-9	0.34	1.4958361e9	8.6502165e7	-0.99992617	-0.000036431491	-0.000036429396	-1.5920522e6	4.7773692e6	0	0.05773065840151956
69.183097	1.3182567e-9	0.34	1.3642188e9	7.8890912e7	-0.99991904	-0.000039946333	-0.000039944036	-1.451969e6	4.3570124e6	0	0.06330699980000178
69.183097	1.4454398e-9	0.34	1.2441823e9	7.1949367e7	-0.99991123	-0.00004380028	-0.000043797761	-1.3242115e6	3.9736425e6	0	0.069413924180781
69.183097	1.5848932e-9	0.34	1.1347078e9	6.5618602e7	-0.99990267	-0.000048026048	-0.000048023286	-1.2076953e6	3.6240049e6	0	0.07610675023913455
69.183097	1.7378008e-9	0.34	1.0348658e9	5.9844877e7	-0.99989328	-0.000052659509	-0.000052656481	-1.1014313e6	3.3051317e6	0	0.08344918445182298
69.183097	1.9054607e-9	0.34	9.438088e8	5.4579176e7	-0.99988298	-0.000057739997	-0.000057736676	-1.0045174e6	3.0143158e6	0	0.09150382799113776
69.183097	2.0892961e-9	0.34	8.6076386e8	4.97768e7	-0.99987169	-0.000063310638	-0.000063306997	-916130.85	2.7490886e6	0	0.10033206938864278
69.183097	2.2908677e-9	0.34	7.8502597e8	4.5396981e7	-0.99985931	-0.000069418722	-0.000069414729	-835521.35	2.5071985e6	0	0.11001275988121743
69.183097	2.5118864e-9	0.34	7.1595219e8	4.1402539e7	-0.99984574	-0.000076116098	-0.00007611172	-762004.62	2.2865922e6	0	0.12062329304505727
69.183097	2.7542287e-9	0.34	6.5295616e8	3.7759564e7	-0.99983085	-0.00008345962	-0.00008345482	-694956.56	2.0853967e6	0	0.13226765151720862
69.183097	3.0199517e-9	0.34	5.9550309e8	3.4437132e7	-0.99981454	-0.000091511625	-0.000091506362	-633808.	1.9019043e6	0	0.14501987941745514
69.183097	3.3113112e-9	0.34	5.4310528e8	3.1407038e7	-0.99979664	-0.00010034046	-0.00010033469	-578039.86	1.7345573e6	0	0.1590178702128095
69.183097	3.6307805e-9	0.34	4.953179e8	2.8643559e7	-0.99977702	-0.00011002108	-0.00011001475	-527178.7	1.581935e6	0	0.17435982573275444
69.183097	3.9810717e-9	0.34	4.5173529e8	2.6123236e7	-0.99975551	-0.00012063565	-0.00012062871	-480792.78	1.4427417e6	0	0.1911792233369316
69.183097	4.3651583e-9	0.34	4.1198748e8	2.3824674e7	-0.99973192	-0.00013227427	-0.00013226667	-438488.31	1.315796e6	0	0.20962579779676288
69.183097	4.7863009e-9	0.34	3.7573705e8	2.1728361e7	-0.99970606	-0.00014503574	-0.0001450274	-399906.18	1.2000201e6	0	0.2298465142332445
69.183097	5.2480746e-9	0.34	3.4267626e8	1.9816501e7	-0.9996777	-0.00015902838	-0.00015901923	-364718.86	1.0944313e6	0	0.25202286641782634
69.183097	5.7543994e-9	0.34	3.1252447e8	1.8072864e7	-0.99964661	-0.00017437095	-0.00017436092	-332627.64	998133.12	0	0.2763330162356269
69.183097	6.3095734e-9	0.34	2.850257e8	1.6482648e7	-0.99961251	-0.00019119368	-0.00019118269	-303360.1	910308.13	0	0.30299844291665395
69.183097	6.9183097e-9	0.34	2.5994653e8	1.5032353e7	-0.99957513	-0.00020963936	-0.0002096273	-276667.79	830210.8	0	0.3322272241065416
69.183097	7.5857758e-9	0.34	2.3707405e8	1.3709669e7	-0.99953414	-0.00022986453	-0.00022985131	-252324.11	757161.16	0	0.3642794029314808
69.183097	8.3176377e-9	0.34	2.1621411e8	1.2503367e7	-0.99948919	-0.00025204085	-0.00025202635	-230122.41	690539.1	0	0.3994289996795036
69.183097	9.1201084e-9	0.34	1.9718961e8	1.1403206e7	-0.99943991	-0.00027635651	-0.00027634061	-209874.22	629779.05	0	0.4379635358171987
69.183097	1.e-8	0.34	1.7983906e8	1.0399848e7	-0.99938588	-0.00030301784	-0.00030300041	-191407.65	574365.24	0	0.48021171940963836
69.183097	1.0964782e-8	0.34	1.6401517e8	9.4847738e6	-0.99932663	-0.00033225108	-0.00033223197	-174565.94	523827.23	0	0.5265428796902646
69.183097	1.2022644e-8	0.34	1.4958361e8	8.6502165e6	-0.99926167	-0.00036430426	-0.0003642833	-159206.12	477736.03	0	0.5773381763358659
69.183097	1.3182567e-8	0.34	1.3642188e8	7.8890912e6	-0.99919044	-0.00039944929	-0.00039942631	-145197.8	435700.35	0	0.6330369036895058
69.183097	1.4454398e-8	0.34	1.2441823e8	7.1949367e6	-0.99911233	-0.00043798429	-0.0004379591	-132422.05	397363.35	0	0.6941169679082636
69.183097	1.5848932e-8	0.34	1.1347078e8	6.5618603e6	-0.9990267	-0.00048023607	-0.00048020845	-120770.43	362399.6	0	0.7610753002199069
69.183097	1.7378008e-8	0.34	1.0348658e8	5.9844877e6	-0.9989328	-0.00052656292	-0.00052653263	-110144.03	330512.28	0	0.834502124490637
69.183097	1.9054607e-8	0.34	9.4380881e7	5.4579177e6	-0.99882985	-0.00057735755	-0.00057732434	-100452.64	301430.69	0	0.9150048528067714
69.183097	2.0892961e-8	0.34	8.6076386e7	4.9776801e6	-0.99871697	-0.00063305046	-0.00063301405	-91613.984	274907.97	0	1.003272788079788
69.183097	2.2908677e-8	0.34	7.8502597e7	4.5396982e6	-0.9985932	-0.0006941135	-0.00069407358	-83553.034	250718.96	0	1.1000571890997648
69.183097	2.5118864e-8	0.34	7.159522e7	4.140254e6	-0.99845749	-0.00076106381	-0.00076102004	-76201.361	228658.33	0	1.2061794075470804
69.183097	2.7542287e-8	0.34	6.5295617e7	3.7759566e6	-0.99830869	-0.00083446812	-0.00083442012	-69496.555	208538.78	0	1.3225389131962548
69.183097	3.0199517e-8	0.34	5.955031e7	3.4437133e6	-0.99814555	-0.00091494741	-0.00091489478	-63381.699	190189.55	0	1.450111795684938
69.183097	3.3113112e-8	0.34	5.4310528e7	3.1407039e6	-0.99796668	-0.0010031821	-0.0010031244	-57804.885	173454.84	0	1.5899867019489609
69.183097	3.6307805e-8	0.34	4.9531791e7	2.8643561e6	-0.99777057	-0.0010999174	-0.0010998542	-52718.769	158192.61	0	1.743344313484008
69.183097	3.9810717e-8	0.34	4.517353e7	2.6123238e6	-0.99755555	-0.0012059698	-0.0012059004	-48080.177	144273.29	0	1.911492961134552
69.183097	4.3651583e-8	0.34	4.1198749e7	2.3824677e6	-0.99731982	-0.001322233	-0.001322157	-43849.73	131578.72	0	2.095838272246647
69.183097	4.7863009e-8	0.34	3.7573706e7	2.1728364e6	-0.99706137	-0.0014496856	-0.0014496022	-39991.517	120001.13	0	2.2979562850132678
69.183097	5.2480746e-8	0.34	3.4267628e7	1.9816504e6	-0.99677803	-0.0015893983	-0.0015893068	-36472.785	109442.25	0	2.5195437868077275
69.183097	5.7543994e-8	0.34	3.1252448e7	1.8072867e6	-0.99646741	-0.0017425424	-0.0017424421	-33263.663	99812.434	0	2.7624721644324297
69.183097	6.3095734e-8	0.34	2.8502572e7	1.6482651e6	-0.99612689	-0.0019103987	-0.0019102887	-30336.909	91029.938	0	3.0287939885928865
69.183097	6.9183097e-8	0.34	2.5994655e7	1.5032357e6	-0.99575361	-0.0020943665	-0.0020942459	-27667.677	83020.206	0	3.320749406699889
69.183097	7.5857758e-8	0.34	2.3707407e7	1.3709673e6	-0.99534445	-0.0022959739	-0.0022958417	-25233.309	75715.245	0	3.6407817396547224
69.183097	8.3176377e-8	0.34	2.1621413e7	1.2503371e6	-0.99489598	-0.0025168883	-0.0025167434	-23013.139	69053.042	0	3.991581073923383
69.183097	9.1201084e-8	0.34	1.9718963e7	1.1403211e6	-0.99440446	-0.0027589269	-0.0027587679	-20988.32	62977.04	0	4.376080971177987
69.183097	1.e-7	0.34	1.7983908e7	1.0399853e6	-0.9938658	-0.0030240677	-0.0030238934	-19141.663	57435.662	0	4.797492313320525
69.183097	1.0964782e-7	0.34	1.640152e7	948477.91	-0.99327555	-0.003314461	-0.0033142699	-17457.492	52381.865	0	5.259309343887584
69.183097	1.2022644e-7	0.34	1.4958364e7	865022.24	-0.99262885	-0.0036324398	-0.0036322303	-15921.509	47772.749	0	5.765353100398458
69.183097	1.3182567e-7	0.34	1.3642191e7	788909.77	-0.99192041	-0.0039805299	-0.0039803002	-14520.676	43569.185	0	6.31978707503038
69.183097	1.4454398e-7	0.34	1.2441827e7	719494.38	-0.99114449	-0.0043614586	-0.0043612067	-13243.101	39735.491	0	6.92713319474579
69.183097	1.5848932e-7	0.34	1.1347081e7	656186.8	-0.99029482	-0.0047781611	-0.0047778849	-12077.939	36239.121	0	7.592344910081387
69.183097	1.7378008e-7	0.34	1.0348662e7	598449.62	-0.98936466	-0.005233784	-0.0052334811	-11015.299	33050.394	0	8.320749798979431
69.183097	1.9054607e-7	0.34	9.4380926e6	545792.7	-0.9883467	-0.0057316839	-0.0057313518	-10046.159	30142.242	0	9.118143842775334
69.183097	2.0892961e-7	0.34	8.6076435e6	497769.03	-0.98723307	-0.0062754203	-0.0062750561	-9162.2931	27489.977	0	9.99078445838097
69.183097	2.2908677e-7	0.34	7.8502651e6	453970.93	-0.98601532	-0.0068687393	-0.0068683401	-8356.1977	25071.084	0	10.94541427304629
69.183097	2.5118864e-7	0.34	7.1595279e6	414026.62	-0.98468443	-0.0075155473	-0.0075151096	-7621.0298	22865.028	0	11.989260449751244
69.183097	2.7542287e-7	0.34	6.5295681e6	377596.99	-0.98323079	-0.0082198691	-0.0082193892	-6950.5486	20853.083	0	13.130066544108846
69.183097	3.0199517e-7	0.34	5.9550381e6	344372.79	-0.98164428	-0.0089857892	-0.0089852629	-6339.0623	19018.169	0	14.37603631459859
69.183097	3.3113112e-7	0.34	5.4310606e6	314071.98	-0.97991427	-0.00981737	-0.0098167929	-5781.3801	17344.71	0	15.735859662087076
69.183097	3.6307805e-7	0.34	4.9531876e6	286437.34	-0.97802974	-0.010718544	-0.010717911	-5272.7678	15818.498	0	17.218634574496505
69.183097	3.9810717e-7	0.34	4.5173623e6	261234.28	-0.97597936	-0.011692974	-0.011692281	-4808.9077	14426.579	0	18.833835918202492
69.183097	4.3651583e-7	0.34	4.119885e6	238248.84	-0.97375171	-0.012743882	-0.012743121	-4385.8621	13157.135	0	20.591165500315956
69.183097	4.7863009e-7	0.34	3.7573816e6	217285.9	-0.9713354	-0.013873831	-0.013872997	-4000.0397	11999.392	0	22.500505255779693
69.183097	5.2480746e-7	0.34	3.4267748e6	198167.5	-0.96871939	-0.015084489	-0.015083574	-3648.1654	10943.519	0	24.57169609811283
69.183097	5.7543994e-7	0.34	3.1252579e6	180731.34	-0.96589327	-0.016376337	-0.016375334	-3327.2519	9980.5549	0	26.814364926639325
69.183097	6.3095734e-7	0.34	2.8502714e6	164829.42	-0.96284759	-0.017748379	-0.01774728	-3034.5752	9102.3237	0	29.2377091277792
69.183097	6.9183097e-7	0.34	2.5994809e6	150326.73	-0.95957424	-0.019197833	-0.019196628	-2767.6506	8301.3703	0	31.850237931498448
69.183097	7.5857758e-7	0.34	2.3707574e6	137100.15	-0.95606688	-0.020719848	-0.020718526	-2524.2122	7570.8952	0	34.659458164282846
69.183097	8.3176377e-7	0.34	2.1621594e6	125037.41	-0.95232121	-0.022307276	-0.022305827	-2302.1935	6904.6971	0	37.67169308214635
69.183097	9.1201084e-7	0.34	1.9719158e6	114036.1	-0.9483354	-0.023950537	-0.023948948	-2099.7097	6297.1204	0	40.89172340029434
69.183097	1.e-6	0.34	1.7984119e6	104002.83	-0.94411027	-0.025637612	-0.025635869	-1915.042	5743.0071	0	44.32261849081216
69.183097	1.0964782e-6	0.34	1.6401746e6	94852.411	-0.93964943	-0.0273542	-0.027352289	-1746.6228	5237.6531	0	47.96555500897019
69.183097	1.2022644e-6	0.34	1.4958607e6	86507.174	-0.93495925	-0.029084063	-0.029081967	-1593.0222	4776.768	0	51.819736146977704
69.183097	1.3182567e-6	0.34	1.3642451e6	78896.265	-0.93004872	-0.030809547	-0.030807249	-1452.9365	4356.4391	0	55.88235482181242
69.183097	1.4454398e-6	0.34	1.2442104e6	71955.071	-0.92492915	-0.032512272	-0.032509753	-1325.1764	3973.0976	0	60.1486567200556
69.183097	1.5848932e-6	0.34	1.1347376e6	65624.663	-0.91961374	-0.034173927	-0.034171165	-1208.6574	3623.4891	0	64.61209002702589
69.183097	1.7378008e-6	0.34	1.0348975e6	59851.296	-0.91411708	-0.035777108	-0.035774079	-1102.3903	3304.6453	0	69.26450686959066
69.183097	1.9054607e-6	0.34	943842.31	54585.954	-0.90845464	-0.037306124	-0.037302803	-1005.4732	3013.8591	0	74.09638501600615
69.183097	2.0892961e-6	0.34	860799.2	49783.934	-0.90264224	-0.038747685	-0.038744044	-917.08327	2748.6615	0	79.09710702078232
69.183097	2.2908677e-6	0.34	785063.13	45404.467	-0.89669558	-0.040091415	-0.040087423	-836.47022	2506.8009	0	84.25523730250531
69.183097	2.5118864e-6	0.34	715991.15	41410.369	-0.89062986	-0.041330139	-0.041325761	-762.94976	2286.2236	0	89.55878781533534
69.183097	2.7542287e-6	0.34	652996.88	37767.73	-0.88445946	-0.042459937	-0.042455137	-695.89779	2085.0567	0	94.99550018169
69.183097	3.0199517e-6	0.34	595545.55	34445.621	-0.87819772	-0.043479988	-0.043474725	-634.74516	1901.5923	0	100.55310446733327
69.183097	3.3113112e-6	0.34	543149.41	31415.838	-0.87185684	-0.044392222	-0.044386452	-578.97277	1734.2724	0	106.21952239056903
69.183097	3.6307805e-6	0.34	495363.65	28652.656	-0.86544778	-0.045200862	-0.045194534	-528.10721	1581.6763	0	111.98310950460603
69.183097	3.9810717e-6	0.34	451782.61	26132.615	-0.85898032	-0.045911889	-0.045904951	-481.71673	1442.5084	0	117.83276653605171
69.183097	4.3651583e-6	0.34	412036.3	23834.319	-0.85246303	-0.046532515	-0.046524907	-439.40755	1315.5869	0	123.75814007607084
69.183097	4.7863009e-6	0.34	375787.29	21738.254	-0.84590342	-0.047070677	-0.047062336	-400.82056	1199.8342	0	129.74963945497944
69.183097	5.2480746e-6	0.34	342727.87	19826.624	-0.83930796	-0.047534612	-0.047525466	-365.62825	1094.2673	0	135.79855723210494
69.183097	5.7543994e-6	0.34	312577.35	18083.2	-0.83268224	-0.047932506	-0.047922477	-333.53191	997.98991	0	141.89702811798952
69.183097	6.3095734e-6	0.34	285079.8	16493.179	-0.82603103	-0.048272231	-0.048261235	-304.25912	910.18456	0	148.03805757475902
69.183097	6.9183097e-6	0.34	260001.77	15043.063	-0.81935839	-0.048561169	-0.048549112	-277.56145	830.10569	0	154.21547596533395
69.183097	7.5857758e-6	0.34	237130.37	13720.539	-0.81266778	-0.048806097	-0.048792876	-253.2123	757.07337	0	160.4238703409852
69.183097	8.3176377e-6	0.34	216271.42	12514.382	-0.8059621	-0.049013131	-0.048998635	-231.00504	690.46751	0	166.6585647480439
69.183097	9.1201084e-6	0.34	197247.86	11414.349	-0.79924383	-0.049187721	-0.049171826	-210.75118	629.72258	0	172.9154922027276
69.183097	0.00001	0.34	179898.18	10411.104	-0.79251502	-0.04933466	-0.049317233	-192.27886	574.32284	0	179.19119833665297
69.183097	0.000010964782	0.34	164075.1	9496.1282	-0.78577741	-0.049458131	-0.049439022	-175.43131	523.79792	0	185.48271746816667
69.183097	0.000012022644	0.34	149644.29	8661.6554	-0.77903247	-0.049561751	-0.049540799	-160.06558	477.71885	0	191.78751649150252
69.183097	0.000013182567	0.34	136483.25	7900.6015	-0.77228141	-0.04964863	-0.049625656	-146.05127	435.69441	0	198.10347078632586
69.183097	0.000014454398	0.34	124480.25	7206.5061	-0.76552526	-0.049721426	-0.049696236	-133.26948	397.36781	0	204.42876828811129
69.183097	0.000015848932	0.34	113533.38	6573.4771	-0.75876487	-0.049782402	-0.049754781	-121.61175	362.41366	0	210.76189415443642
69.183097	0.000017378008	0.34	103549.73	5996.141	-0.75200095	-0.049833477	-0.049803192	-110.97919	330.53519	0	217.10157401523443
69.183097	0.000019054607	0.34	94444.542	5469.5974	-0.7452341	-0.049876274	-0.049843066	-101.28158	301.46177	0	223.44673396610153
69.183097	0.000020892961	0.34	86140.512	4989.3768	-0.73846481	-0.049912161	-0.04987575	-92.436658	274.94656	0	229.79648331787723
69.183097	0.000022908677	0.34	78567.15	4551.4031	-0.73169351	-0.049942292	-0.049902368	-84.369401	250.76446	0	236.15005899316682
69.183097	0.000025118864	0.34	71660.165	4151.9589	-0.72492054	-0.049967635	-0.049923859	-77.01138	228.71018	0	242.5068415741179
69.183097	0.000027542287	0.34	65360.923	3787.654	-0.71814619	-0.049989004	-0.049941005	-70.30019	208.59647	0	248.86630877514335
69.183097	0.000030199517	0.34	59615.948	3455.3963	-0.71137069	-0.050007084	-0.049954454	-64.178916	190.25258	0	255.2280374911751
69.183097	0.000033113112	0.34	54376.47	3152.366	-0.70459427	-0.050022448	-0.04996474	-58.595652	173.52279	0	261.5916410346975
69.183097	0.000036307805	0.34	49598.011	2875.9913	-0.69781708	-0.050035578	-0.049972302	-53.503058	158.26506	0	267.9568382313838
69.183097	0.000039810717	0.34	45240.006	2623.9267	-0.69103926	-0.050046879	-0.049977498	-48.857962	144.34987	0	274.3233831781909
69.183097	0.000043651583	0.34	41265.459	2394.0333	-0.68426095	-0.050056692	-0.049980618	-44.620987	131.65907	0	280.6910516948261
69.183097	0.000047863009	0.34	37640.63	2184.36	-0.67748223	-0.050065306	-0.049981893	-40.756224	120.08495	0	287.05969482259894
69.183097	0.000052480746	0.34	34334.747	1993.1278	-0.6707032	-0.050072964	-0.049981503	-37.230921	109.52923	0	293.4291611035748
69.183097	0.000057543994	0.34	31319.747	1818.714	-0.66392392	-0.050079874	-0.049979589	-34.015211	99.902313	0	299.79934912107
69.183097	0.000063095734	0.34	28570.035	1659.6387	-0.65714447	-0.050086212	-0.049976252	-31.081852	91.122468	0	306.1701514451823
69.183097	0.000069183097	0.34	26062.269	1514.5523	-0.6503649	-0.050092132	-0.049971563	-28.405999	83.115161	0	312.5414984165367
69.183097	0.000075857758	0.34	23775.159	1382.2239	-0.64358525	-0.050097765	-0.049965564	-25.964996	75.812416	0	318.91333903552595
69.183097	0.000083176377	0.34	21689.29	1261.5309	-0.63680557	-0.050103229	-0.049958273	-23.738178	69.152238	0	325.2856205737426
69.183097	0.000091201084	0.34	19786.956	1151.4496	-0.63002589	-0.050108625	-0.049949684	-21.7067	63.078088	0	331.65831676093967
69.183097	0.0001	0.34	18052.007	1051.0462	-0.62324625	-0.050114048	-0.049939773	-19.853372	57.538401	0	338.0313976813562
69.183097	0.00010964782	0.34	16469.714	959.46909	-0.61646668	-0.050119584	-0.049928495	-18.162521	52.48615	0	344.4048495233815
69.183097	0.00012022644	0.34	15026.647	875.94174	-0.60968722	-0.050125311	-0.049915786	-16.619849	47.878446	0	350.7786551493438
69.183097	0.00013182567	0.34	13710.554	799.75582	-0.60290788	-0.050131306	-0.049901567	-15.212318	43.676172	0	357.1528304003148
69.183097	0.00014454398	0.34	12510.264	730.26536	-0.59612871	-0.050137643	-0.049885739	-13.928038	39.843655	0	363.52735992379667
69.183097	0.00015848932	0.34	11415.587	666.88123	-0.58934972	-0.050144395	-0.049868187	-12.756164	36.34836	0	369.90227106114105
69.183097	0.00017378008	0.34	10417.229	609.06615	-0.58257095	-0.050151633	-0.049848778	-11.686805	33.160616	0	376.27756871687905
69.183097	0.00019054607	0.34	9506.7169	556.33008	-0.57579243	-0.050159434	-0.04982736	-10.710941	30.25336	0	382.6532732607876
69.183097	0.00020892961	0.34	8676.3202	508.22614	-0.56901419	-0.050167874	-0.049803762	-9.8203453	27.601914	0	389.02941113223557
69.183097	0.00022908677	0.34	7918.9898	464.34674	-0.56223626	-0.050177033	-0.049777792	-9.0075152	25.183768	0	395.4060154790884
69.183097	0.00025118864	0.34	7228.2968	424.32017	-0.55545868	-0.050186998	-0.049749239	-8.2656082	22.978396	0	401.78311612315065
69.183097	0.00027542287	0.34	6598.3778	387.80742	-0.54868148	-0.050197858	-0.049717866	-7.5883837	20.967074	0	408.1607605876373
69.183097	0.00030199517	0.34	6023.8854	354.49932	-0.5419047	-0.050209712	-0.049683412	-6.9701504	19.132729	0	414.53899466696373
69.183097	0.00033113112	0.34	5499.9427	324.1139	-0.53512838	-0.050222665	-0.049645588	-6.4057175	17.45979	0	420.9178731002072
69.183097	0.00036307805	0.34	5022.102	296.39399	-0.52835257	-0.050236829	-0.049604078	-5.8903512	15.934053	0	427.2974498560014
69.183097	0.00039810717	0.34	4586.3068	271.10505	-0.52157732	-0.050252329	-0.049558532	-5.4197341	14.542568	0	433.67778976435545
69.183097	0.00043651583	0.34	4188.8576	248.03319	-0.51480268	-0.050269297	-0.049508566	-4.9899286	13.273521	0	440.058968516654
69.183097	0.00047863009	0.34	3826.3806	226.98334	-0.5080287	-0.050287882	-0.049453758	-4.5973437	12.11614	0	446.441073943466
69.183097	0.00052480746	0.34	3495.7986	207.77757	-0.50125545	-0.050308241	-0.049393645	-4.2387043	11.0606	0	452.8241881815942
69.183097	0.00057543994	0.34	3194.3052	190.25364	-0.49448299	-0.050330549	-0.049327718	-3.9110235	10.09794	0	459.20841745829716
69.183097	0.00063095734	0.34	2919.3412	174.26357	-0.48771139	-0.050354997	-0.049255419	-3.6115771	9.2199875	0	465.5938742583386
69.183097	0.00069183097	0.34	2668.5723	159.67239	-0.48094074	-0.050381794	-0.049176135	-3.3378807	8.4192904	0	471.9806698450474
69.183097	0.00075857758	0.34	2439.8698	146.35702	-0.4741711	-0.050411166	-0.049089196	-3.0876684	7.6890511	0	478.36896187748914
69.183097	0.00083176377	0.34	2231.2923	134.20522	-0.46740257	-0.050443365	-0.048993863	-2.8588738	7.0230707	0	484.75889247431854
69.183097	0.00091201084	0.34	2041.069	123.11459	-0.46063524	-0.050478664	-0.048889329	-2.6496121	6.4156956	0	491.1506348725949
69.183097	0.001	0.34	1867.5852	112.99179	-0.45386921	-0.050517363	-0.048774708	-2.4581645	5.8617697	0	497.54437815044935
69.183097	0.0010964782	0.34	1709.3682	103.75165	-0.44710459	-0.050559789	-0.048649028	-2.2829633	5.3565908	0	503.94032946325035
69.183097	0.0012022644	0.34	1565.0749	95.316515	-0.44034148	-0.050606304	-0.048511225	-2.1225788	4.8958704	0	510.3387347516236
69.183097	0.0013182567	0.34	1433.4805	87.615567	-0.43358001	-0.050657301	-0.04836013	-1.9757072	4.4756975	0	516.739845311718
69.183097	0.0014454398	0.34	1313.4678	80.58421	-0.42682031	-0.050713211	-0.048194464	-1.841159	4.0925051	0	523.1439475794259
69.183097	0.0015848932	0.34	1204.0181	74.163537	-0.42006249	-0.050774508	-0.048012823	-1.7178497	3.7430405	0	529.5513867134741
69.183097	0.0017378008	0.34	1104.2023	68.299825	-0.4133067	-0.05084171	-0.04781367	-1.6047901	3.4243368	0	535.9625127771212
69.183097	0.0019054607	0.34	1013.1732	62.944077	-0.40655308	-0.050915384	-0.047595319	-1.5010779	3.1336888	0	542.3777328276591
69.183097	0.0020892961	0.34	930.15798	58.051612	-0.39980175	-0.050996151	-0.047355923	-1.4058903	2.8686291	0	548.7975241454944
69.183097	0.0022908677	0.34	854.45206	53.581678	-0.39305287	-0.051084689	-0.047093458	-1.3184767	2.6269077	0	555.2223829714621
69.183097	0.0025118864	0.34	785.41285	49.497112	-0.38630657	-0.051181742	-0.046805708	-1.2381526	2.4064725	0	561.6528950681844
69.183097	0.0027542287	0.34	722.45436	45.76402	-0.37956299	-0.051288122	-0.046490243	-1.1642937	2.2054524	0	568.0897051654043
69.183097	0.0030199517	0.34	665.04227	42.351496	-0.37282224	-0.051404717	-0.046144404	-1.0963304	2.022141	0	574.5335593343834
69.183097	0.0033113112	0.34	612.68933	39.231351	-0.36608445	-0.051532495	-0.045765279	-1.0337433	1.8549822	0	580.9852656764883
69.183097	0.0036307805	0.34	564.95129	36.37788	-0.3593497	-0.051672512	-0.045349679	-0.97605864	1.702557	0	587.4457677596172
69.183097	0.0039810717	0.34	521.4231	33.767641	-0.35261806	-0.051825921	-0.044894117	-0.92284409	1.5635715	0	593.9161137440834
69.183097	0.0043651583	0.34	481.73547	31.379256	-0.34588955	-0.051993972	-0.044394776	-0.87370539	1.4368461	0	600.3975041876995
69.183097	0.0047863009	0.34	445.55175	29.193233	-0.33916417	-0.052178027	-0.043847486	-0.82828282	1.321305	0	606.891271206219
69.183097	0.0052480746	0.34	412.56511	27.191793	-0.33244184	-0.052379559	-0.043247687	-0.78624815	1.2159675	0	613.3989466669885
69.183097	0.0057543994	0.34	382.49588	25.358728	-0.32572243	-0.052600161	-0.042590401	-0.74730192	1.1199395	0	619.9222429466497
69.183097	0.0063095734	0.34	355.08922	23.679256	-0.3190057	-0.052841552	-0.041870197	-0.71117081	1.0324059	0	626.4631204858879
69.183097	0.0069183097	0.34	330.11297	22.139899	-0.31229132	-0.053105575	-0.041081153	-0.67760539	0.95262375	0	633.0237811373096
69.183097	0.0075857758	0.34	307.35566	20.728368	-0.30557883	-0.053394201	-0.040216821	-0.64637792	0.87991578	0	639.6067169288837
69.183097	0.0083176377	0.34	286.62474	19.433455	-0.29886761	-0.053709524	-0.039270188	-0.61728047	0.81366485	0	646.2147507095392
69.183097	0.0091201084	0.34	267.74494	18.244945	-0.29215688	-0.054053753	-0.03823364	-0.59012313	0.75330852	0	652.8510476494447
69.183097	0.01	0.34	250.55681	17.153521	-0.28544564	-0.054429194	-0.037098923	-0.56473238	0.69833432	0	659.5191840725657
69.183097	0.010964782	0.34	234.91533	16.150687	-0.27873265	-0.054838231	-0.035857111	-0.54094961	0.64827533	0	666.2231764704431
69.183097	0.012022644	0.34	220.68871	15.228696	-0.27201641	-0.055283287	-0.034498575	-0.51862976	0.60270618	0	672.9675101965184
69.183097	0.013182567	0.34	207.75725	14.380485	-0.26529509	-0.055766777	-0.033012956	-0.4976401	0.56123938	0	679.7572138609191
69.183097	0.014454398	0.34	196.01232	13.599606	-0.25856656	-0.056291036	-0.031389149	-0.47785908	0.5235219	0	686.5978362547323
69.183097	0.015848932	0.34	185.3554	12.88018	-0.25182827	-0.056858235	-0.029615296	-0.45917529	0.48923211	0	693.4955613340136
69.183097	0.017378008	0.34	175.69725	12.216837	-0.24507731	-0.05747026	-0.027678789	-0.44148653	0.45807689	0	700.4571508875088
69.183097	0.019054607	0.34	166.95706	11.604673	-0.23831032	-0.058128574	-0.025566294	-0.42469892	0.42978897	0	707.4900214306815
69.183097	0.020892961	0.34	159.06179	11.039203	-0.23152347	-0.058834031	-0.023263784	-0.40872611	0.40412447	0	714.6022524550987
69.183097	0.022908677	0.34	151.94541	10.516321	-0.22471249	-0.059586673	-0.0207566	-0.39348856	0.38086063	0	721.8025387548831
69.183097	0.025118864	0.34	145.54833	10.032264	-0.21787258	-0.060385486	-0.018029529	-0.3789129	0.35979363	0	729.1002500703222
69.183097	0.027542287	0.34	139.81682	9.5835718	-0.21099844	-0.061228143	-0.015066903	-0.36493129	0.34073668	0	736.5053712751383
69.183097	0.030199517	0.34	134.70249	9.1670616	-0.20408417	-0.062110735	-0.011852728	-0.35148091	0.32351814	0	744.028555123687
69.183097	0.033113112	0.34	130.16183	8.7797932	-0.19712324	-0.063027527	-0.0083708398	-0.33850341	0.30797987	0	751.6811006672624
69.183097	0.036307805	0.34	126.15585	8.4190453	-0.19010835	-0.063970778	-0.0046050933	-0.32594452	0.29397578	0	759.4750243209403
69.183097	0.039810717	0.34	122.6498	8.0822921	-0.18303122	-0.064930654	-0.00053960803	-0.31375355	0.28137057	0	767.4231787371994
69.183097	0.043651583	0.34	119.61288	7.7671832	-0.17588235	-0.065895322	0.0038409212	-0.30188304	0.27003863	0	775.5393790637715
69.183097	0.047863009	0.34	117.01815	7.4715281	-0.16865066	-0.066851249	0.0085508163	-0.29028836	0.25986332	0	783.8386108506654
69.183097	0.052480746	0.34	114.84241	7.1932834	-0.16132301	-0.067783777	0.013602888	-0.27892732	0.25073634	0	792.3373124027048
69.183097	0.057543994	0.34	113.06609	6.9305432	-0.15388377	-0.068677994	0.019007768	-0.26775985	0.24255745	0	801.0535654464676
69.183097	0.063095734	0.34	111.67313	6.6815327	-0.14631429	-0.069519863	0.024773116	-0.25674759	0.23523429	0	810.0073397838927
69.183097	0.069183097	0.34	110.65078	6.4446038	-0.1385925	-0.070297568	0.030902728	-0.24585363	0.22868245	0	819.2205842628783
69.183097	0.075857758	0.34	109.9893	6.2182323	-0.13069263	-0.071002924	0.037395654	-0.23504212	0.22282551	0	828.7172080028856
69.183097	0.083176377	0.34	109.68154	6.0010158	-0.12258506	-0.071632683	0.044245437	-0.22427808	0.21759524	0	838.5229782266035
69.183097	0.091201084	0.34	109.72265	5.7916726	-0.11423632	-0.072189557	0.051439619	-0.21352707	0.21293166	0	848.6653624505525
69.183097	0.1	0.34	110.10986	5.58904	-0.105609	-0.072682793	0.058959639	-0.20275506	0.20878321	0	859.1735804618389
69.183097	0.10964782	0.34	110.84271	5.392074	-0.096661423	-0.073128219	0.066781171	-0.19192816	0.2051069	0	870.0790195308753
69.183097	0.12022644	0.34	111.92396	5.1998488	-0.087346709	-0.073547791	0.074874879	-0.18101238	0.20186855	0	881.4163550309734
69.183097	0.13182567	0.34	113.36132	5.0115586	-0.077610833	-0.073968759	0.08320745	-0.16997324	0.1990433	0	893.225705068395
69.183097	0.14454398	0.34	115.17028	4.8265211	-0.067389431	-0.074422636	0.091742744	-0.15877515	0.1966165	0	905.5559988241329
69.183097	0.15848932	0.34	117.37799	4.6441849	-0.056603087	-0.074944171	0.10044287	-0.14738048	0.19458519	0	918.4697484559929
69.183097	0.17378008	0.34	120.02809	4.4641408	-0.0451511	-0.075570439	0.10926909	-0.13574814	0.19296033	0	932.0491941942257
69.183097	0.19054607	0.34	123.1862	4.2861392	-0.032904036	-0.076340088	0.1181825	-0.12383176	0.1917699	0	946.4035197712147
69.183097	0.20892961	0.34	126.94533	4.1101119	-0.019695731	-0.077292615	0.12714472	-0.11157722	0.191063	0	961.6765865476127
69.183097	0.22908677	0.34	131.43022	3.9361978	-0.0053160602	-0.078467443	0.13611869	-0.098919771	0.19091462	0	978.0539816054389
69.183097	0.25118864	0.34	136.79896	3.7647678	0.010493539	-0.079902445	0.14507005	-0.085780779	0.1914307	0	995.7676650262146
69.183097	0.27542287	0.34	143.23974	3.5964397	0.028038998	-0.081631583	0.15396943	-0.072064596	0.19275236	0	1015.0956970411844
69.183097	0.30199517	0.34	150.9604	3.4320706	0.047663862	-0.083681467	0.16279575	-0.057656042	0.19505791	0	1036.354126763651
69.183097	0.33113112	0.34	160.16915	3.272712	0.069728441	-0.086067095	0.17154044	-0.04241935	0.19856054	0	1059.8787512793556
69.183097	0.36307805	0.34	171.04737	3.1195156	0.094578145	-0.088787698	0.1802115	-0.02619941	0.20350016	0	1085.9966614735943
69.183097	0.39810717	0.34	183.71879	2.9735972	0.12250581	-0.091824222	0.18883593	-0.008825912	0.21012923	0	1114.9916211151121
69.183097	0.43651583	0.34	198.22364	2.8358812	0.15371738	-0.095140061	0.19745895	0.0098796567	0.21869434	0	1147.071573679693
69.183097	0.47863009	0.34	214.50639	2.7069712	0.18831156	-0.098685667	0.20613935	0.030095087	0.22941773	0	1182.3480395611634
69.183097	0.52480746	0.34	232.42199	2.5870833	0.22627976	-0.10240602	0.21494197	0.05198821	0.24248314	0	1220.8336611750474
69.183097	0.57543994	0.34	251.75828	2.4760576	0.26752492	-0.10624868	0.2239296	0.075709122	0.25802889	0	1262.4573027133042
69.183097	0.63095734	0.34	272.26671	2.3734324	0.31189122	-0.11017003	0.2331567	0.10138507	0.27614823	0	1307.0899584709443
69.183097	0.69183097	0.34	293.69231	2.2785471	0.35919509	-0.11413857	0.24266615	0.12911841	0.29689487	0	1354.5728505478182
69.183097	0.75857758	0.34	315.79693	2.1906446	0.40925057	-0.11813522	0.25248882	0.15898717	0.32029109	0	1404.741118861441
69.183097	0.83176377	0.34	338.37361	2.108951	0.46188654	-0.12215173	0.26264525	0.19104747	0.34633605	0	1457.4405465376988
69.183097	0.91201084	0.34	361.25286	2.0327305	0.51695598	-0.12618821	0.27314804	0.22533697	0.3750132	0	1512.5370237767938
69.183097	1.	0.34	384.30339	1.9613147	0.57433959	-0.13025057	0.28400446	0.26187859	0.40629624	0	1569.920782850103
69.183097	1.0964782	0.34	407.4292	1.8941153	0.63394564	-0.13434832	0.29521859	0.30068413	0.44015369	0	1629.506940793125
69.183097	1.2022644	0.34	430.56512	1.8306253	0.69570784	-0.13849293	0.306793	0.34175756	0.47655215	0	1691.2340348110108
69.183097	1.3182567	0.34	453.67182	1.7704138	0.75958245	-0.14269672	0.31872988	0.38509775	0.51545878	0	1755.061667915711
69.183097	1.4454398	0.34	476.73095	1.713117	0.82554517	-0.14697204	0.33103179	0.43070077	0.55684287	0	1820.9678264669014
69.183097	1.5848932	0.34	499.74089	1.6584299	0.89358825	-0.15133092	0.34370209	0.47856178	0.60067709	0	1888.9463021925753
69.183097	1.7378008	0.34	522.71307	1.6060965	0.96371801	-0.1557848	0.35674519	0.5286764	0.64693825	0	1959.00444193003
69.183097	1.9054607	0.34	545.6689	1.5559021	1.0359526	-0.16034445	0.37016665	0.58104192	0.6956078	0	2031.1610749447063
69.183097	2.0892961	0.34	568.63737	1.5076661	1.1103205	-0.16501998	0.38397316	0.63565811	0.74667222	0	2105.4450971931174
69.183097	2.2908677	0.34	591.65301	1.4612356	1.1868585	-0.16982086	0.39817253	0.69252786	0.80012315	0	2181.893570206319
69.183097	2.5118864	0.34	614.75442	1.4164811	1.2656112	-0.17475602	0.41277366	0.75165765	0.85595752	0	2260.5512417236714
69.183097	2.7542287	0.34	637.98298	1.3732917	1.3466298	-0.17983389	0.42778643	0.8130579	0.9141776	0	2341.469373679018
69.183097	3.0199517	0.34	661.38197	1.3315717	1.4299712	-0.18506252	0.44322165	0.87674319	0.97479092	0	2424.7048806192606
69.183097	3.3113112	0.34	684.99585	1.2912383	1.5156975	-0.19044962	0.45909103	0.94273239	1.0378103	0	2510.31985033812
69.183097	3.6307805	0.34	708.86971	1.2522189	1.603876	-0.19600265	0.47540708	1.0110488	1.1032535	0	2598.38151193091
69.183097	3.9810717	0.34	733.04889	1.2144496	1.6945778	-0.20172889	0.49218309	1.0817201	1.1711437	0	2688.960914014007
69.183097	4.3651583	0.34	757.57868	1.1778732	1.7878787	-0.20763547	0.50943311	1.1547784	1.2415088	0	2782.133763944616
69.183097	4.7863009	0.34	782.50413	1.1424385	1.8838582	-0.21372945	0.52717187	1.2302603	1.3143816	0	2877.979462699249
69.183097	5.2480746	0.34	807.86993	1.1080992	1.9825995	-0.22001783	0.5454148	1.3082069	1.3897997	0	2976.581111262766
69.183097	5.7543994	0.34	833.72032	1.0748128	2.0841897	-0.22650762	0.56417798	1.3886634	1.4678052	0	3078.0256825688325
69.183097	6.3095734	0.34	860.09904	1.0425405	2.1887192	-0.23320587	0.58347818	1.4716795	1.548445	0	3182.4034705388012
69.183097	6.9183097	0.34	887.04936	1.011246	2.296282	-0.24011965	0.60333277	1.5573091	1.6317703	0	3289.808343200616
69.183097	7.5857758	0.34	914.61407	0.98089581	2.4069758	-0.24725617	0.62375979	1.6456103	1.7178367	0	3400.3378590070038
69.183097	8.3176377	0.34	942.83552	0.95145825	2.5209016	-0.25462272	0.64477791	1.7366455	1.8067043	0	3514.092878231242
69.183097	9.1201084	0.34	971.75571	0.92290354	2.6381638	-0.26222672	0.66640645	1.8304811	1.8984373	0	3631.177663312743
69.183097	10.	0.34	1001.4163	0.89520346	2.7588707	-0.27007576	0.68866537	1.9271876	1.9931042	0	3751.700345445201