7.5857758	1.e-12	0.06	2.5977002e8	1.370202e8	-0.1864805	-0.023575099	-0.023575099	-276479.12	829781.87	0	763.0257129807317
7.5857758	1.0964782e-12	0.06	2.3691307e8	1.2496391e8	-0.18573688	-0.023575099	-0.023575099	-252151.97	756770.06	0	763.7243925662987
7.5857758	1.2022644e-12	0.06	2.1606729e8	1.1396844e8	-0.18499327	-0.023575099	-0.023575099	-229965.34	690182.5	0	764.4230627562123
7.5857758	1.3182567e-12	0.06	1.9705571e8	1.0394045e8	-0.18424965	-0.023575099	-0.023575099	-209730.9	629453.92	0	765.1217423417794
7.5857758	1.4454398e-12	0.06	1.7971695e8	9.4794823e7	-0.18350604	-0.023575099	-0.023575099	-191276.87	574068.8	0	765.8204125316928
7.5857758	1.5848932e-12	0.06	1.639038e8	8.6453908e7	-0.18276242	-0.023575099	-0.023575099	-174446.6	523556.96	0	766.5190921172598
7.5857758	1.7378008e-12	0.06	1.4948205e8	7.8846904e7	-0.18201881	-0.023575099	-0.023575099	-159097.2	477489.63	0	767.2177623071732
7.5857758	1.9054607e-12	0.06	1.3632925e8	7.1909233e7	-0.18127519	-0.023575099	-0.023575099	-145098.39	435475.72	0	767.9164418927402
7.5857758	2.0892961e-12	0.06	1.2433375e8	6.5582002e7	-0.18053157	-0.023575099	-0.023575099	-132331.32	397158.58	0	768.6151214783073
7.5857758	2.2908677e-12	0.06	1.1339373e8	5.9811499e7	-0.17978796	-0.023575099	-0.023575099	-120687.61	362212.93	0	769.3137916682208
7.5857758	2.5118864e-12	0.06	1.0341631e8	5.4548737e7	-0.17904434	-0.023575099	-0.023575099	-110068.43	330342.12	0	770.0124712537877
7.5857758	2.7542287e-12	0.06	9.4316798e7	4.9749042e7	-0.17830073	-0.023575099	-0.023575099	-100383.62	301275.6	0	770.7111414437013
7.5857758	3.0199517e-12	0.06	8.6017943e7	4.5371667e7	-0.17755711	-0.023575099	-0.023575099	-91550.962	274766.61	0	771.4098210292683
7.5857758	3.3113112e-12	0.06	7.8449297e7	4.1379454e7	-0.17681349	-0.023575099	-0.023575099	-83495.485	250590.13	0	772.1085006148353
7.5857758	3.6307805e-12	0.06	7.154661e7	3.7738513e7	-0.17606988	-0.023575099	-0.023575099	-76148.803	228540.91	0	772.8071708047488
7.5857758	3.9810717e-12	0.06	6.5251284e7	3.4417935e7	-0.17532626	-0.023575099	-0.023575099	-69448.549	208431.79	0	773.5058503903157
7.5857758	4.3651583e-12	0.06	5.9509879e7	3.1389532e7	-0.17458265	-0.023575099	-0.023575099	-63337.845	190092.05	0	774.2045205802291
7.5857758	4.7863009e-12	0.06	5.4273656e7	2.8627595e7	-0.17383903	-0.023575099	-0.023575099	-57764.817	173366.01	0	774.9032001657963
7.5857758	5.2480746e-12	0.06	4.9498163e7	2.6108679e7	-0.17309541	-0.023575099	-0.023575099	-52682.154	158111.68	0	775.6018797513633
7.5857758	5.7543994e-12	0.06	4.5142862e7	2.3811401e7	-0.1723518	-0.023575099	-0.023575099	-48046.711	144199.57	0	776.3005499412767
7.5857758	6.3095734e-12	0.06	4.117078e7	2.1716258e7	-0.17160818	-0.023575099	-0.023575099	-43819.137	131511.57	0	776.9992295268437
7.5857758	6.9183097e-12	0.06	3.7548198e7	1.9805464e7	-0.17086457	-0.023575099	-0.023575099	-39963.543	119939.98	0	777.6978997167573
7.5857758	7.5857758e-12	0.06	3.4244364e7	1.80628e7	-0.17012095	-0.023575099	-0.023575099	-36447.199	109386.56	0	778.3965793023242
7.5857758	8.3176377e-12	0.06	3.1231232e7	1.6473471e7	-0.16937733	-0.023575099	-0.023575099	-33240.256	99761.733	0	779.0952588878913
7.5857758	9.1201084e-12	0.06	2.8483223e7	1.5023986e7	-0.16863372	-0.023575099	-0.023575099	-30315.489	90983.783	0	779.7939290778048
7.5857758	1.e-11	0.06	2.5977009e7	1.3702041e7	-0.1678901	-0.023575099	-0.023575099	-27648.07	82978.198	0	780.4926086633718
7.5857758	1.0964782e-11	0.06	2.3691314e7	1.2496411e7	-0.16714649	-0.023575099	-0.023575099	-25215.354	75677.017	0	781.1912788532852
7.5857758	1.2022644e-11	0.06	2.1606736e7	1.1396865e7	-0.16640287	-0.023575099	-0.023575099	-22996.691	69018.261	0	781.8899584388523
7.5857758	1.3182567e-11	0.06	1.9705578e7	1.0394066e7	-0.16565925	-0.023575099	-0.023575099	-20973.246	62945.403	0	782.5886380244193
7.5857758	1.4454398e-11	0.06	1.7971701e7	9.4795028e6	-0.16491564	-0.023575099	-0.023575099	-19127.842	57406.891	0	783.2873082143326
7.5857758	1.5848932e-11	0.06	1.6390387e7	8.6454114e6	-0.16417202	-0.023575099	-0.023575099	-17444.814	52355.708	0	783.9859877998997
7.5857758	1.7378008e-11	0.06	1.4948212e7	7.8847108e6	-0.16342841	-0.023575099	-0.023575099	-15909.874	47748.974	0	784.6846579898133
7.5857758	1.9054607e-11	0.06	1.3632932e7	7.1909436e6	-0.16268479	-0.023575099	-0.023575099	-14509.992	43547.583	0	785.3833375753802
7.5857758	2.0892961e-11	0.06	1.2433382e7	6.5582205e6	-0.16194117	-0.023575099	-0.023575099	-13233.285	39715.869	0	786.0820171609472
7.5857758	2.2908677e-11	0.06	1.133938e7	5.9811701e6	-0.16119756	-0.023575099	-0.023575099	-12068.913	36221.304	0	786.7806873508608
7.5857758	2.5118864e-11	0.06	1.0341638e7	5.4548938e6	-0.16045394	-0.023575099	-0.023575099	-11006.994	33034.223	0	787.4793669364278
7.5857758	2.7542287e-11	0.06	9.4316867e6	4.9749242e6	-0.15971033	-0.023575099	-0.023575098	-10038.512	30127.57	0	788.1780371827151
7.5857758	3.0199517e-11	0.06	8.6018011e6	4.5371867e6	-0.15896671	-0.023575099	-0.023575098	-9155.246	27476.672	0	788.8767167682821
7.5857758	3.3113112e-11	0.06	7.8449365e6	4.1379652e6	-0.1582231	-0.023575099	-0.023575098	-8349.6975	25059.023	0	789.5753869581956
7.5857758	3.6307805e-11	0.06	7.1546678e6	3.7738711e6	-0.15747948	-0.023575099	-0.023575098	-7615.0288	22854.102	0	790.2740665437627
7.5857758	3.9810717e-11	0.06	6.5251353e6	3.4418132e6	-0.15673586	-0.023575099	-0.023575098	-6945.0027	20843.19	0	790.9727461293296
7.5857758	4.3651583e-11	0.06	5.9509947e6	3.1389727e6	-0.15599225	-0.023575099	-0.023575098	-6333.9316	19009.216	0	791.6714163192432
7.5857758	4.7863009e-11	0.06	5.4273724e6	2.862779e6	-0.15524863	-0.023575099	-0.023575098	-5776.6281	17336.612	0	792.3700959048102
7.5857758	5.2480746e-11	0.06	4.9498231e6	2.6108873e6	-0.15450502	-0.023575099	-0.023575098	-5268.3612	15811.179	0	793.0687660947237
7.5857758	5.7543994e-11	0.06	4.514293e6	2.3811594e6	-0.1537614	-0.023575099	-0.023575098	-4804.8162	14419.968	0	793.7674456802906
7.5857758	6.3095734e-11	0.06	4.1170848e6	2.171645e6	-0.15301778	-0.023575099	-0.023575098	-4382.0581	13151.168	0	794.4661252658577
7.5857758	6.9183097e-11	0.06	3.7548266e6	1.9805656e6	-0.15227417	-0.023575099	-0.023575098	-3996.498	11994.009	0	795.1647954557712
7.5857758	7.5857758e-11	0.06	3.4244432e6	1.8062991e6	-0.15153055	-0.023575099	-0.023575098	-3644.863	10938.667	0	795.8634750413381
7.5857758	8.3176377e-11	0.06	3.12313e6	1.6473661e6	-0.15078694	-0.023575099	-0.023575097	-3324.168	9976.1843	0	796.5621452876255
7.5857758	9.1201084e-11	0.06	2.8483291e6	1.5024176e6	-0.15004332	-0.023575099	-0.023575097	-3031.6906	9098.3893	0	797.2608248731926
7.5857758	1.e-10	0.06	2.5977077e6	1.3702229e6	-0.1492997	-0.023575099	-0.023575097	-2764.948	8297.8307	0	797.9595044587595
7.5857758	1.0964782e-10	0.06	2.3691382e6	1.2496599e6	-0.14855609	-0.0235751	-0.023575097	-2521.6758	7567.7126	0	798.658174648673
7.5857758	1.2022644e-10	0.06	2.1606804e6	1.1397051e6	-0.14781247	-0.0235751	-0.023575097	-2299.8088	6901.837	0	799.3568542342401
7.5857758	1.3182567e-10	0.06	1.9705646e6	1.0394252e6	-0.14706886	-0.0235751	-0.023575096	-2097.4636	6294.5512	0	800.0555244805275
7.5857758	1.4454398e-10	0.06	1.797177e6	947968.78	-0.14632524	-0.0235751	-0.023575096	-1912.9226	5740.7	0	800.7542040660944
7.5857758	1.5848932e-10	0.06	1.6390455e6	864559.54	-0.14558162	-0.0235751	-0.023575096	-1744.6191	5235.5817	0	801.4528836516615
7.5857758	1.7378008e-10	0.06	1.494828e6	788489.4	-0.14483801	-0.0235751	-0.023575095	-1591.1245	4774.9083	0	802.151553897949
7.5857758	1.9054607e-10	0.06	1.3633e6	719112.6	-0.14409439	-0.0235751	-0.023575095	-1451.1356	4354.7692	0	802.8502334835159
7.5857758	2.0892961e-10	0.06	1.243345e6	655840.2	-0.14335078	-0.0235751	-0.023575095	-1323.4641	3971.5978	0	803.5489036734294
7.5857758	2.2908677e-10	0.06	1.1339448e6	598135.08	-0.14260716	-0.0235751	-0.023575094	-1207.0264	3622.1413	0	804.2475833153703
7.5857758	2.5118864e-10	0.06	1.0341706e6	545507.37	-0.14186354	-0.0235751	-0.023575094	-1100.8337	3303.4332	0	804.9462629009373
7.5857758	2.7542287e-10	0.06	943175.49	497510.33	-0.14111993	-0.0235751	-0.023575093	-1003.9849	3012.768	0	805.6449331472247
7.5857758	3.0199517e-10	0.06	860186.94	453736.49	-0.14037631	-0.0235751	-0.023575093	-915.65761	2747.6781	0	806.3436127327918
7.5857758	3.3113112e-10	0.06	784500.47	413814.27	-0.1396327	-0.023575101	-0.023575092	-835.1021	2505.9133	0	807.0422829790792
7.5857758	3.6307805e-10	0.06	715473.61	377404.77	-0.13888908	-0.023575101	-0.023575091	-761.63456	2285.4212	0	807.7409626210201
7.5857758	3.9810717e-10	0.06	652520.35	344198.9	-0.13814546	-0.023575101	-0.023575091	-694.63128	2084.3299	0	808.439642206587
7.5857758	4.3651583e-10	0.06	595106.31	313914.78	-0.13740185	-0.023575101	-0.02357509	-633.52351	1900.9326	0	809.1383124528745
7.5857758	4.7863009e-10	0.06	542744.07	286295.32	-0.13665823	-0.023575101	-0.023575089	-577.79249	1733.6722	0	809.8369920948154
7.5857758	5.2480746e-10	0.06	494989.14	261106.07	-0.13591462	-0.023575101	-0.023575088	-526.96512	1581.1289	0	810.5356623411029
7.5857758	5.7543994e-10	0.06	451436.13	238133.19	-0.135171	-0.023575102	-0.023575087	-480.60996	1442.0078	0	811.2343419830438
7.5857758	6.3095734e-10	0.06	411715.31	217181.67	-0.13442739	-0.023575102	-0.023575086	-438.33348	1315.1278	0	811.9330122293312
7.5857758	6.9183097e-10	0.06	375489.49	198073.64	-0.13368377	-0.023575102	-0.023575084	-399.7768	1199.4118	0	812.631691927646
7.5857758	7.5857758e-10	0.06	342451.16	180646.91	-0.13294015	-0.023575102	-0.023575083	-364.61263	1093.8777	0	813.3303715695869
7.5857758	8.3176377e-10	0.06	312319.83	164753.53	-0.13219654	-0.023575103	-0.023575081	-332.54246	997.62937	0	814.0290418722483
7.5857758	9.1201084e-10	0.06	284839.74	150258.59	-0.13145292	-0.023575103	-0.02357508	-303.29405	909.84986	0	814.7277215141892
7.5857758	1.e-9	0.06	259777.6	137039.04	-0.13070931	-0.023575103	-0.023575078	-276.61912	829.79401	0	815.4263918168506
7.5857758	1.0964782e-9	0.06	236920.65	124982.66	-0.12996569	-0.023575104	-0.023575076	-252.29123	756.7822	0	816.1250715151655
7.5857758	1.2022644e-9	0.06	216074.87	113987.1	-0.12922207	-0.023575104	-0.023575074	-230.10386	690.19463	0	816.8237512134804
7.5857758	1.3182567e-9	0.06	197063.29	103959.02	-0.12847846	-0.023575105	-0.023575071	-209.86868	629.46606	0	817.5224215725156
7.5857758	1.4454398e-9	0.06	179724.53	94813.299	-0.12773484	-0.023575105	-0.023575068	-191.4139	574.08094	0	818.2211013272043
7.5857758	1.5848932e-9	0.06	163911.38	86472.292	-0.12699123	-0.023575106	-0.023575065	-174.58289	523.56911	0	818.9197716862395
7.5857758	1.7378008e-9	0.06	149489.62	78865.195	-0.12624761	-0.023575107	-0.023575062	-159.23275	477.50177	0	819.6184514409283
7.5857758	1.9054607e-9	0.06	136336.83	71927.432	-0.12550399	-0.023575108	-0.023575059	-145.23319	435.48786	0	820.3171311956171
7.5857758	2.0892961e-9	0.06	124341.33	65600.11	-0.12476038	-0.023575108	-0.023575055	-132.46538	397.17072	0	821.0158016110263
7.5857758	2.2908677e-9	0.06	113401.31	59829.514	-0.12401676	-0.023575109	-0.023575051	-120.82093	362.22506	0	821.7144814220891
7.5857758	2.5118864e-9	0.06	103423.89	54566.661	-0.12327315	-0.02357511	-0.023575046	-110.201	330.35425	0	822.413151893872
7.5857758	2.7542287e-9	0.06	94324.376	49766.873	-0.12252953	-0.023575111	-0.023575041	-100.51545	301.28773	0	823.1118317613086
7.5857758	3.0199517e-9	0.06	86025.52	45389.407	-0.12178591	-0.023575112	-0.023575035	-91.682048	274.77874	0	823.8105116851192
7.5857758	3.3113112e-9	0.06	78456.876	41397.102	-0.1210423	-0.023575114	-0.023575029	-83.62583	250.60227	0	824.5091822132763
7.5857758	3.6307805e-9	0.06	71554.188	37756.069	-0.12029868	-0.023575115	-0.023575022	-76.278404	228.55305	0	825.2078621934606
7.5857758	3.9810717e-9	0.06	65258.863	34435.399	-0.11955507	-0.023575117	-0.023575015	-69.577408	208.44393	0	825.9065327779915
7.5857758	4.3651583e-9	0.06	59517.458	31406.904	-0.11881145	-0.023575118	-0.023575007	-63.465961	190.10419	0	826.60521281455
7.5857758	4.7863009e-9	0.06	54281.233	28644.875	-0.11806783	-0.02357512	-0.023574998	-57.892189	173.37815	0	827.3038929074823
7.5857758	5.2480746e-9	0.06	49505.741	26125.867	-0.11732422	-0.023575122	-0.023574988	-52.808785	158.12382	0	828.0025636611349
7.5857758	5.7543994e-9	0.06	45150.44	23828.496	-0.1165806	-0.023575125	-0.023574977	-48.172598	144.21171	0	828.701243866815
7.5857758	6.3095734e-9	0.06	41178.358	21733.261	-0.11583699	-0.023575127	-0.023574965	-43.944281	131.52371	0	829.3999147332157
7.5857758	6.9183097e-9	0.06	37555.776	19822.376	-0.11509337	-0.02357513	-0.023574953	-40.087944	119.95212	0	830.0985949952697
7.5857758	7.5857758e-9	0.06	34251.943	18079.62	-0.11434976	-0.023575133	-0.023574938	-36.570858	109.3987	0	830.7972660307921
7.5857758	8.3176377e-9	0.06	31238.81	16490.199	-0.11360614	-0.023575136	-0.023574923	-33.363171	99.77387	0	831.4959464619678
7.5857758	9.1201084e-9	0.06	28490.801	15040.622	-0.11286252	-0.023575139	-0.023574906	-30.437662	90.995921	0	832.1946270058916
7.5857758	1.e-8	0.06	25984.587	13718.584	-0.11211891	-0.023575143	-0.023574887	-27.769499	82.990335	0	832.8932982669096
7.5857758	1.0964782e-8	0.06	23698.893	12512.863	-0.11137529	-0.023575148	-0.023574867	-25.336041	75.689154	0	833.591978979955
7.5857758	1.2022644e-8	0.06	21614.314	11413.224	-0.11063168	-0.023575152	-0.023574845	-23.116635	69.030397	0	834.2906504100947
7.5857758	1.3182567e-8	0.06	19713.157	10410.334	-0.10988806	-0.023575157	-0.02357482	-21.092447	62.957541	0	834.9893314050097
7.5857758	1.4454398e-8	0.06	17979.28	9495.6782	-0.10914444	-0.023575163	-0.023574793	-19.2463	57.419028	0	835.6880125126726
7.5857758	1.5848932e-8	0.06	16397.965	8661.4947	-0.10840083	-0.023575169	-0.023574764	-17.56253	52.367845	0	836.3866843374298
7.5857758	1.7378008e-8	0.06	14955.79	7900.7021	-0.10765721	-0.023575176	-0.023574731	-16.026847	47.761111	0	837.0853657833362
7.5857758	1.9054607e-8	0.06	13640.51	7206.8429	-0.1069136	-0.023575184	-0.023574696	-14.626222	43.55972	0	837.784037946337
7.5857758	2.0892961e-8	0.06	12440.96	6574.0278	-0.10616998	-0.023575192	-0.023574657	-13.348771	39.728006	0	838.4827197304869
7.5857758	2.2908677e-8	0.06	11346.958	5996.8853	-0.10542636	-0.023575201	-0.023574614	-12.183657	36.233441	0	839.1814017401323
7.5857758	2.5118864e-8	0.06	10349.216	5470.5171	-0.10468275	-0.02357521	-0.023574567	-11.120995	33.04636	0	839.8800745796202
7.5857758	2.7542287e-8	0.06	9439.2648	4990.4555	-0.10393913	-0.023575221	-0.023574516	-10.15177	30.139707	0	840.5787570402572
7.5857758	3.0199517e-8	0.06	8609.3793	4552.6259	-0.10319552	-0.023575233	-0.02357446	-9.2677611	27.488809	0	841.2774303871103
7.5857758	3.3113112e-8	0.06	7852.5148	4153.3126	-0.1024519	-0.023575246	-0.023574398	-8.46147	25.071161	0	841.9761134678603
7.5857758	3.6307805e-8	0.06	7162.2461	3789.1264	-0.10170828	-0.02357526	-0.023574331	-7.7260583	22.86624	0	842.6747968304801
7.5857758	3.9810717e-8	0.06	6532.7135	3456.9764	-0.10096467	-0.023575276	-0.023574256	-7.0552893	20.855327	0	843.3734712484377
7.5857758	4.3651583e-8	0.06	5958.573	3154.0441	-0.10022105	-0.023575293	-0.023574175	-6.4434754	19.021354	0	844.0721554002921
7.5857758	4.7863009e-8	0.06	5434.9507	2877.7583	-0.099477437	-0.023575311	-0.023574086	-5.885429	17.34875	0	844.7708334261807
7.5857758	5.2480746e-8	0.06	4957.4013	2625.7746	-0.098733821	-0.023575332	-0.023573988	-5.3764192	15.823317	0	845.4695147781307
7.5857758	5.7543994e-8	0.06	4521.8712	2395.9546	-0.097990205	-0.023575354	-0.023573881	-4.9121314	14.432105	0	846.1681966374458
7.5857758	6.3095734e-8	0.06	4124.663	2186.3482	-0.09724659	-0.023575379	-0.023573764	-4.4886303	13.163305	0	846.8668781209348
7.5857758	6.9183097e-8	0.06	3762.4049	1995.1768	-0.096502974	-0.023575406	-0.023573635	-4.1023274	12.006146	0	847.5655612204762
7.5857758	7.5857758e-8	0.06	3432.0215	1820.8183	-0.095759358	-0.023575435	-0.023573494	-3.7499495	10.950805	0	848.2642449965047
7.5857758	8.3176377e-8	0.06	3130.7083	1661.7933	-0.095015742	-0.023575468	-0.023573339	-3.4285116	9.9883215	0	848.9629295617681
7.5857758	9.1201084e-8	0.06	2855.9074	1516.7527	-0.094272127	-0.023575503	-0.023573169	-3.1352914	9.1105266	0	849.6616140330748
7.5857758	1.e-7	0.06	2605.286	1384.466	-0.093528511	-0.023575542	-0.023572983	-2.8678059	8.309968	0	850.3603003459298
7.5857758	1.0964782e-7	0.06	2376.7165	1263.811	-0.092784895	-0.023575585	-0.023572778	-2.6237908	7.5798499	0	851.0589877298893
7.5857758	1.2022644e-7	0.06	2168.2587	1153.7643	-0.092041279	-0.023575632	-0.023572555	-2.4011809	6.9139743	0	851.7576761285791
7.5857758	1.3182567e-7	0.06	1978.1429	1053.3923	-0.091297664	-0.023575684	-0.023572309	-2.1980929	6.3066886	0	852.4563648843039
7.5857758	1.4454398e-7	0.06	1804.7552	961.8439	-0.090554048	-0.02357574	-0.02357204	-2.0128089	5.7528373	0	853.1550558761943
7.5857758	1.5848932e-7	0.06	1646.6238	878.34266	-0.089810432	-0.023575802	-0.023571745	-1.8437626	5.2477191	0	853.8537483338066
7.5857758	1.7378008e-7	0.06	1502.4063	802.18051	-0.089066817	-0.02357587	-0.023571421	-1.689525	4.7870458	0	854.5524414866973
7.5857758	1.9054607e-7	0.06	1370.8783	732.7117	-0.088323201	-0.023575944	-0.023571066	-1.5487933	4.3669067	0	855.2511373267448
7.5857758	2.0892961e-7	0.06	1250.9233	669.3473	-0.087579586	-0.023576026	-0.023570677	-1.420379	3.9837353	0	855.9498341439403
7.5857758	2.2908677e-7	0.06	1141.5231	611.55017	-0.08683597	-0.023576115	-0.023570251	-1.3031983	3.6342788	0	856.6485339865363
7.5857758	2.5118864e-7	0.06	1041.749	558.83045	-0.086092355	-0.023576213	-0.023569783	-1.1962628	3.3155708	0	857.3472352572716
7.5857758	2.7542287e-7	0.06	950.75384	510.7414	-0.085348739	-0.023576321	-0.02356927	-1.0986711	3.0249056	0	858.0459400043985
7.5857758	3.0199517e-7	0.06	867.7653	466.87556	-0.084605124	-0.023576438	-0.023568708	-1.0096009	2.7598158	0	858.7446465742825
7.5857758	3.3113112e-7	0.06	792.07886	426.86133	-0.083861509	-0.023576568	-0.023568091	-0.92830249	2.518051	0	859.443356244732
7.5857758	3.6307805e-7	0.06	723.05202	390.35982	-0.083117893	-0.023576709	-0.023567415	-0.85409205	2.297559	0	860.1420701808081
7.5857758	3.9810717e-7	0.06	660.09878	357.06194	-0.082374278	-0.023576865	-0.023566674	-0.78634588	2.0964678	0	860.8407868416239
7.5857758	4.3651583e-7	0.06	602.68475	326.68582	-0.081630663	-0.023577035	-0.023565861	-0.72449521	1.9130705	0	861.5395075613619
7.5857758	4.7863009e-7	0.06	550.32253	298.97435	-0.080887048	-0.023577222	-0.02356497	-0.66802128	1.7458102	0	862.2382326782657
7.5857758	5.2480746e-7	0.06	502.56764	273.6931	-0.080143433	-0.023577427	-0.023563993	-0.61645103	1.593267	0	862.9369626433268
7.5857758	5.7543994e-7	0.06	459.01465	250.62822	-0.079399818	-0.023577652	-0.023562922	-0.56935295	1.454146	0	863.6356979075365
7.5857758	6.3095734e-7	0.06	419.29386	229.58469	-0.078656203	-0.023577898	-0.023561747	-0.52633356	1.3272661	0	864.334439034634
7.5857758	6.9183097e-7	0.06	383.06809	210.38467	-0.077912589	-0.023578168	-0.023560459	-0.48703398	1.2115503	0	865.0331855924189
7.5857758	7.5857758e-7	0.06	350.02979	192.86594	-0.077168974	-0.023578465	-0.023559047	-0.4511269	1.1060163	0	865.7319400801357
7.5857758	8.3176377e-7	0.06	319.89851	176.88056	-0.07642536	-0.023578789	-0.023557498	-0.41831381	1.0097681	0	866.4307013515142
7.5857758	9.1201084e-7	0.06	292.41847	162.29362	-0.075681746	-0.023579146	-0.0235558	-0.38832248	0.92198877	0	867.129471022607
7.5857758	1.e-6	0.06	267.35638	148.98208	-0.074938132	-0.023579536	-0.023553938	-0.36090462	0.84193309	0	867.8282499390228
7.5857758	1.0964782e-6	0.06	244.49949	136.8337	-0.074194518	-0.023579964	-0.023551897	-0.3358338	0.76892147	0	868.5270389463705
7.5857758	1.2022644e-6	0.06	223.65377	125.74615	-0.073450905	-0.023580434	-0.023549659	-0.31290349	0.70233412	0	869.2258381198153
7.5857758	1.3182567e-6	0.06	204.64225	115.62608	-0.072707291	-0.023580949	-0.023547205	-0.29192536	0.64160577	0	869.9246504095923
7.5857758	1.4454398e-6	0.06	187.30356	106.38837	-0.071963678	-0.023581514	-0.023544514	-0.27272764	0.5862209	0	870.6234751204231
7.5857758	1.5848932e-6	0.06	171.4905	97.955371	-0.071220065	-0.023582133	-0.023541563	-0.25515366	0.53570935	0	871.3223144884737
7.5857758	1.7378008e-6	0.06	157.06883	90.25629	-0.070476453	-0.023582812	-0.023538328	-0.23906056	0.48964233	0	872.0211689271522
7.5857758	1.9054607e-6	0.06	143.91613	83.226545	-0.06973284	-0.023583557	-0.023534781	-0.22431802	0.44762875	0	872.7200418940595
7.5857758	2.0892961e-6	0.06	131.92074	76.807242	-0.068989228	-0.023584374	-0.023530892	-0.21080722	0.40931198	0	873.4189332012826
7.5857758	2.2908677e-6	0.06	120.98084	70.94467	-0.068245617	-0.023585269	-0.023526628	-0.19841978	0.37436673	0	874.1178447091606
7.5857758	2.5118864e-6	0.06	111.00355	65.589843	-0.067502006	-0.023586251	-0.023521952	-0.18705684	0.34249637	0	874.816779443094
7.5857758	2.7542287e-6	0.06	101.90418	60.698086	-0.066758395	-0.023587328	-0.023516826	-0.17662826	0.31343033	0	875.5157395452919
7.5857758	3.0199517e-6	0.06	93.60548	56.228653	-0.066014785	-0.023588508	-0.023511205	-0.16705182	0.28692187	0	876.2147266130154
7.5857758	3.3113112e-6	0.06	86.037005	52.144387	-0.065271176	-0.023589803	-0.023505041	-0.15825255	0.26274598	0	876.9137433522126
7.5857758	3.6307805e-6	0.06	79.134506	48.411397	-0.064527567	-0.023591223	-0.023498284	-0.15016205	0.2406974	0	877.612793521145
7.5857758	3.9810717e-6	0.06	72.839385	44.998776	-0.063783959	-0.02359278	-0.023490874	-0.14271797	0.22058898	0	878.3118795626823
7.5857758	4.3651583e-6	0.06	67.098204	41.878335	-0.063040351	-0.023594487	-0.023482751	-0.13586341	0.20225002	0	879.0110057988255
7.5857758	4.7863009e-6	0.06	61.862228	39.024367	-0.062296745	-0.02359636	-0.023473843	-0.1295465	0.18552482	0	879.7101744093658
7.5857758	5.2480746e-6	0.06	57.087005	36.413427	-0.061553139	-0.023598413	-0.023464077	-0.12371994	0.17027142	0	880.4093913887303
7.5857758	5.7543994e-6	0.06	52.732001	34.024131	-0.060809535	-0.023600665	-0.023453369	-0.11834056	0.15636032	0	881.1086595931979
7.5857758	6.3095734e-6	0.06	48.760244	31.83698	-0.060065931	-0.023603134	-0.023441629	-0.11336903	0.14367344	0	881.8079859755518
7.5857758	6.9183097e-6	0.06	45.138018	29.834187	-0.059322329	-0.023605842	-0.023428756	-0.10876944	0.13210306	0	882.5073743504274
7.5857758	7.5857758e-6	0.06	41.834575	27.999534	-0.058578728	-0.023608811	-0.023414643	-0.10450906	0.12155098	0	883.2068316893999
7.5857758	8.3176377e-6	0.06	38.821871	26.318227	-0.057835129	-0.023612068	-0.023399169	-0.10055805	0.11192762	0	883.9063638741482
7.5857758	9.1201084e-6	0.06	36.074331	24.776776	-0.057091531	-0.023615639	-0.023382203	-0.096889165	0.10315128	0	884.605979229221
7.5857758	0.00001	0.06	33.568632	23.362877	-0.056347936	-0.023619556	-0.023363603	-0.093477582	0.095147454	0	885.305683880585
7.5857758	0.000010964782	0.06	31.283501	22.06531	-0.055604342	-0.023623851	-0.02334321	-0.09030065	0.087848204	0	886.0054886708239
7.5857758	0.000012022644	0.06	29.196651	20.873784	-0.054866098	-0.023642133	-0.023334424	-0.087340799	0.081188025	0	886.6996124543392
7.5857758	0.000013182567	0.06	27.295894	19.779075	-0.054123022	-0.023648592	-0.023311206	-0.084573313	0.075117149	0	887.3990898060536
7.5857758	0.000014454398	0.06	25.562458	18.77262	-0.053379998	-0.023655673	-0.023285749	-0.081983827	0.069580812	0	888.0986445215788
7.5857758	0.000015848932	0.06	23.981626	17.846657	-0.052637031	-0.023663434	-0.023257838	-0.079556672	0.064532013	0	888.7982840234813
7.5857758	0.000017378008	0.06	22.539979	16.994107	-0.051894126	-0.023671941	-0.023227237	-0.077277555	0.059927892	0	889.4980169181795
7.5857758	0.000019054607	0.06	21.22528	16.208515	-0.051151289	-0.023681265	-0.023193688	-0.075133441	0.055729366	0	890.1978521127531
7.5857758	0.000020892961	0.06	20.026367	15.483994	-0.050408526	-0.023691484	-0.023156906	-0.073112443	0.051900792	0	890.8978000363774
7.5857758	0.000022908677	0.06	18.933064	14.815174	-0.049665845	-0.023702684	-0.023116583	-0.071203715	0.04840967	0	891.5978705356972
7.5857758	0.000025118864	0.06	17.936088	14.197162	-0.048923253	-0.023714957	-0.02307238	-0.069397368	0.045226362	0	892.2980761445143
7.5857758	0.000027542287	0.06	17.026977	13.62549	-0.048180759	-0.023728407	-0.023023926	-0.067684379	0.042323845	0	892.9984293214654
7.5857758	0.000030199517	0.06	16.198013	13.09609	-0.04743837	-0.023743144	-0.022970816	-0.06605652	0.039677478	0	893.6989463210309
7.5857758	0.000033113112	0.06	15.442159	12.605247	-0.046696099	-0.02375929	-0.022912609	-0.064506284	0.037264796	0	894.3996397897604
7.5857758	0.000036307805	0.06	14.752998	12.149578	-0.045953955	-0.02377698	-0.022848821	-0.063026823	0.035065314	0	895.1005285565435
7.5857758	0.000039810717	0.06	14.12468	11.725995	-0.04521195	-0.023796359	-0.022778927	-0.061611892	0.03306036	0	895.8016309429046
7.5857758	0.000043651583	0.06	13.55187	11.331684	-0.044470098	-0.023817586	-0.022702355	-0.060255791	0.031232911	0	896.5029660408117
7.5857758	0.000047863009	0.06	13.029705	10.964079	-0.043728411	-0.023840836	-0.022618484	-0.058953321	0.029567449	0	897.2045575836852
7.5857758	0.000052480746	0.06	12.553752	10.620842	-0.042986906	-0.023866296	-0.022526639	-0.057699738	0.028049831	0	897.9064276513113
7.5857758	0.000057543994	0.06	12.11997	10.299838	-0.042245599	-0.023894175	-0.022426092	-0.056490713	0.026667167	0	898.6086022508586
7.5857758	0.000063095734	0.06	11.724672	9.9991246	-0.041504507	-0.023924699	-0.022316055	-0.055322296	0.025407711	0	899.3111098323659
7.5857758	0.000069183097	0.06	11.364503	9.7169288	-0.040763651	-0.023958111	-0.022195685	-0.054190881	0.024260759	0	900.0139781881761
7.5857758	0.000075857758	0.06	11.0364	9.4516351	-0.04002305	-0.023994681	-0.022064075	-0.053093177	0.02321656	0	900.7172405976944
7.5857758	0.000083176377	0.06	10.737573	9.201771	-0.039282729	-0.024034699	-0.021920262	-0.05202618	0.022266228	0	901.4209278598724
7.5857758	0.000091201084	0.06	10.46548	8.9659942	-0.038542711	-0.024078481	-0.021763229	-0.050987145	0.021401669	0	902.1250756969852
7.5857758	0.0001	0.06	10.217803	8.7430809	-0.037803023	-0.024126371	-0.021591904	-0.049973569	0.020615509	0	902.8297191736111
7.5857758	0.00010964782	0.06	9.9924263	8.5319158	-0.037063693	-0.024178741	-0.021405175	-0.048983162	0.01990103	0	903.5348946697211
7.5857758	0.00012022644	0.06	9.7874232	8.3314812	-0.036324752	-0.024235997	-0.021201898	-0.048013835	0.019252108	0	904.2406375505548
7.5857758	0.00013182567	0.06	9.601034	8.1408494	-0.035586231	-0.024298576	-0.020980916	-0.047063677	0.018663159	0	904.9469839142124
7.5857758	0.00014454398	0.06	9.4316517	7.9591731	-0.034848167	-0.02436695	-0.020741075	-0.046130945	0.018129091	0	905.6539640522813
7.5857758	0.00015848932	0.06	9.277807	7.7856789	-0.034110595	-0.024441632	-0.020481258	-0.045214044	0.01764525	0	906.361608049644
7.5857758	0.00017378008	0.06	9.138154	7.619659	-0.033373555	-0.024523173	-0.020200412	-0.044311518	0.01720738	0	907.0699376854251
7.5857758	0.00019054607	0.06	9.011458	7.4604659	-0.032637089	-0.024612167	-0.019897587	-0.043422037	0.016811582	0	907.7789670531051
7.5857758	0.00020892961	0.06	8.896583	7.3075053	-0.03190124	-0.024709252	-0.019571981	-0.042544387	0.016454273	0	908.4887009632585
7.5857758	0.00022908677	0.06	8.7924808	7.1602313	-0.031166053	-0.024815111	-0.019222982	-0.041677462	0.016132151	0	909.1991316362838
7.5857758	0.00025118864	0.06	8.6981812	7.018141	-0.030431576	-0.024930476	-0.018850215	-0.040820254	0.015842163	0	909.9102351132652
7.5857758	0.00027542287	0.06	8.6127826	6.8807699	-0.029697858	-0.025056129	-0.018453584	-0.039971847	0.015581477	0	910.6219707673969
7.5857758	0.00030199517	0.06	8.5354451	6.7476886	-0.028964949	-0.025192901	-0.018033305	-0.039131409	0.015347455	0	911.3342794436437
7.5857758	0.00033113112	0.06	8.4653838	6.618499	-0.0282329	-0.025341672	-0.017589932	-0.038298189	0.015137636	0	912.0470819930215
7.5857758	0.00036307805	0.06	8.401864	6.4928318	-0.027501761	-0.025503373	-0.017124362	-0.037471511	0.014949714	0	912.7602808698551
7.5857758	0.00039810717	0.06	8.3441982	6.3703446	-0.026771585	-0.025678985	-0.016637824	-0.036650768	0.014781531	0	913.4737569936323
7.5857758	0.00043651583	0.06	8.2917437	6.2507202	-0.02604242	-0.025869535	-0.016131861	-0.035835416	0.01463107	0	914.187378280256
7.5857758	0.00047863009	0.06	8.2439022	6.1336658	-0.025314314	-0.026076091	-0.015608277	-0.035024976	0.014496447	0	914.900997932036
7.5857758	0.00052480746	0.06	8.2001197	6.0189122	-0.02458731	-0.026299762	-0.015069084	-0.034219023	0.014375914	0	915.6144621233329
7.5857758	0.00057543994	0.06	8.159887	5.9062134	-0.02386145	-0.026541689	-0.01451644	-0.033417183	0.014267856	0	916.3276097374812
7.5857758	0.00063095734	0.06	8.1227406	5.7953462	-0.023136767	-0.026803036	-0.01395258	-0.032619132	0.014170798	0	917.0402837731102
7.5857758	0.00069183097	0.06	8.0882635	5.6861098	-0.022413288	-0.027084986	-0.013379746	-0.031824589	0.014083398	0	917.7523324716251
7.5857758	0.00075857758	0.06	8.0560857	5.578325	-0.021691033	-0.027388723	-0.012800134	-0.03103331	0.014004454	0	918.4636132445879
7.5857758	0.00083176377	0.06	8.0258837	5.4718339	-0.020970012	-0.027715423	-0.01221583	-0.030245086	0.0139329	0	919.1739991003462
7.5857758	0.00091201084	0.06	7.9973803	5.3664986	-0.020250223	-0.028066242	-0.011628775	-0.029459737	0.013867803	0	919.8833824962501
7.5857758	0.001	0.06	7.9703432	5.2622005	-0.019531654	-0.028442297	-0.011040724	-0.028677109	0.013808359	0	920.5916757708522
7.5857758	0.0010964782	0.06	7.9445832	5.1588386	-0.01881428	-0.028844655	-0.01045322	-0.027897067	0.013753887	0	921.2988154283263
7.5857758	0.0012022644	0.06	7.919952	5.0563286	-0.018098061	-0.029274314	-0.0098675782	-0.027119494	0.013703824	0	922.0047649083054
7.5857758	0.0013182567	0.06	7.8963396	4.954601	-0.017382945	-0.029732191	-0.0092848708	-0.026344285	0.013657714	0	922.7095126240698
7.5857758	0.0014454398	0.06	7.873671	4.8535999	-0.016668868	-0.030219111	-0.0087059207	-0.025571344	0.013615202	0	923.413072317702
7.5857758	0.0015848932	0.06	7.8519031	4.7532812	-0.015955749	-0.030735795	-0.0081313031	-0.02480058	0.013576022	0	924.1154876677164
7.5857758	0.0017378008	0.06	7.8310208	4.6536111	-0.015243499	-0.031282854	-0.0075613466	-0.024031907	0.013539988	0	924.8168237709583
7.5857758	0.0019054607	0.06	7.8110336	4.5545644	-0.014532014	-0.03186079	-0.0069961463	-0.023265238	0.013506983	0	925.5171729810643
7.5857758	0.0020892961	0.06	7.7919713	4.4561228	-0.013821182	-0.032469999	-0.0064355762	-0.022500482	0.01347695	0	926.2166476324679
7.5857758	0.0022908677	0.06	7.773881	4.3582734	-0.013110877	-0.033110782	-0.0058793114	-0.021737548	0.013449876	0	926.91538442629
7.5857758	0.0025118864	0.06	7.7568227	4.2610071	-0.01240097	-0.03378336	-0.0053268543	-0.020976337	0.013425787	0	927.6135326181237
7.5857758	0.0027542287	0.06	7.7408662	4.1643169	-0.011691318	-0.034487906	-0.0047775696	-0.020216746	0.013404731	0	928.3112623801662
7.5857758	0.0030199517	0.06	7.7260873	4.0681966	-0.010981773	-0.035224572	-0.0042307247	-0.019458661	0.013386769	0	929.0087540676238
7.5857758	0.0033113112	0.06	7.7125649	3.9726395	-0.01027218	-0.035993532	-0.0036855372	-0.018701964	0.013371966	0	929.7061974200816
7.5857758	0.0036307805	0.06	7.7003777	3.8776365	-0.0095623727	-0.036795038	-0.0031412345	-0.017946528	0.013360375	0	930.4037922417485
7.5857758	0.0039810717	0.06	7.6896006	3.7831751	-0.0088521797	-0.037629482	-0.0025971208	-0.017192217	0.013352032	0	931.1017387990998
7.5857758	0.0043651583	0.06	7.6803018	3.6892381	-0.0081414194	-0.03849746	-0.0020526498	-0.016438892	0.013346937	0	931.8002385142763
7.5857758	0.0047863009	0.06	7.6725386	3.5958021	-0.0074299012	-0.039399867	-0.0015075147	-0.015686403	0.013345052	0	932.4994877639523
7.5857758	0.0052480746	0.06	7.6663547	3.5028368	-0.0067174244	-0.04033798	-0.00096173919	-0.014934598	0.013346281	0	933.1996737833957
7.5857758	0.0057543994	0.06	7.6617772	3.4103035	-0.0060037767	-0.041313557	-0.00041577799	-0.014183321	0.013350472	0	933.9009704079808
7.5857758	0.0063095734	0.06	7.6588148	3.3181559	-0.0052887318	-0.042328933	0.00012938823	-0.013432413	0.013357407	0	934.6035349771331
7.5857758	0.0069183097	0.06	7.6574602	3.2263404	-0.0045720439	-0.043387105	0.00067216691	-0.012681717	0.013366812	0	935.3075086571642
7.5857758	0.0075857758	0.06	7.6576963	3.1347987	-0.0038534391	-0.044491778	0.0012103027	-0.011931075	0.013378373	0	936.0130216521006
7.5857758	0.0083176377	0.06	7.6595102	3.043473	-0.0031326003	-0.04564738	0.001740869	-0.011180333	0.013391778	0	936.7202069141978
7.5857758	0.0091201084	0.06	7.6629151	2.9523135	-0.0024091475	-0.046858975	0.0022603483	-0.010429335	0.013406781	0	937.4292231824575
7.5857758	0.01	0.06	7.667979	2.8612886	-0.0016826131	-0.048132101	0.0027647996	-0.0096779233	0.013423283	0	938.1402876280151
7.5857758	0.010964782	0.06	7.6748552	2.7703966	-0.00095241979	-0.049472483	0.003250144	-0.0089259278	0.013441444	0	938.8537127277561
7.5857758	0.012022644	0.06	7.6838032	2.6796778	-0.00021787218	-0.050885644	0.0037125528	-0.0081731593	0.013461775	0	939.5699360071985
7.5857758	0.013182567	0.06	7.6951861	2.5892226	0.00052182253	-0.05237644	0.0041489186	-0.0074193977	0.013485228	0	940.2895271774292
7.5857758	0.014454398	0.06	7.7094257	2.4991746	0.0012674845	-0.053948529	0.0045573791	-0.0066643836	0.013513221	0	941.0131518472124
7.5857758	0.015848932	0.06	7.7269032	2.4097266	0.0020198235	-0.055603839	0.0049378592	-0.0059078175	0.01354761	0	941.7414726581655
7.5857758	0.017378008	0.06	7.7477887	2.3211109	0.0027792142	-0.057342033	0.0052926003	-0.0051493711	0.013590599	0	942.4749679937447
7.5857758	0.019054607	0.06	7.7717858	2.2335835	0.003545363	-0.05916002	0.0056266562	-0.0043887196	0.01364458	0	943.2136469000849
7.5857758	0.020892961	0.06	7.7977593	2.1474043	0.0043168286	-0.061051635	0.0059482102	-0.003625605	0.013711909	0	943.9566165063551
7.5857758	0.022908677	0.06	7.8231924	2.0628099	0.0050903443	-0.063007747	0.0062684715	-0.0028599426	0.013794581	0	944.7014394409816
7.5857758	0.025118864	0.06	7.8434202	1.9799834	0.0058598677	-0.065016877	0.0066010582	-0.0020919929	0.013893813	0	945.4432061799872
7.5857758	0.027542287	0.06	7.8506201	1.8990638	0.0066152181	-0.067064695	0.0069625011	-0.001322619	0.014009866	0	946.1732831964266
7.5857758	0.030199517	0.06	7.8323023	1.8202524	0.0073397861	-0.06912889	0.0073773766	-0.00055366245	0.014142523	0	946.8774503416072
7.5857758	0.033113112	0.06	7.7681048	1.7437958	0.0080064085	-0.071177203	0.0078802778	0.00021146092	0.014290358	0	947.5321361627006
7.5857758	0.036307805	0.06	7.6264131	1.6690397	0.0085756405	-0.073214857	0.0084683821	0.0009667848	0.014442123	0	948.1001205713598
7.5857758	0.039810717	0.06	7.3827288	1.5927945	0.0090224379	-0.075412411	0.0089736015	0.0017032538	0.014563011	0	948.548397125413
7.5857758	0.043651583	0.06	7.0659099	1.5124641	0.0093832382	-0.078019257	0.0091490907	0.0024117808	0.014622973	0	948.89728559986
7.5857758	0.047863009	0.06	6.7357991	1.4299943	0.0097200148	-0.081079369	0.008953495	0.0030881658	0.014633521	0	949.2026827273711
7.5857758	0.052480746	0.06	6.4285352	1.3485129	0.010065436	-0.084486633	0.0084956263	0.0037331429	0.014620642	0	949.5014166641243
7.5857758	0.057543994	0.06	6.1576455	1.2697634	0.01042939	-0.088118823	0.0079004912	0.0043497023	0.014601401	0	949.8098251324066
7.5857758	0.063095734	0.06	5.935629	1.1942377	0.010823508	-0.091882229	0.0072646583	0.0049419669	0.014583892	0	950.144280355344
7.5857758	0.069183097	0.06	5.7853212	1.1218735	0.011273769	-0.095710975	0.0066569522	0.0055157418	0.01457342	0	950.5330712137276
7.5857758	0.075857758	0.06	5.7433127	1.0524748	0.011825042	-0.099561716	0.006123753	0.0060797336	0.014577108	0	951.0209696933401
7.5857758	0.083176377	0.06	5.8600923	0.98587714	0.012542499	-0.10341181	0.0056908263	0.0066469236	0.014606607	0	951.6706616550705
7.5857758	0.091201084	0.06	6.1987325	0.92198395	0.013511585	-0.10726039	0.0053622676	0.0072358741	0.014679703	0	952.562659139643
7.5857758	0.1	0.06	6.8327537	0.86075619	0.014837033	-0.11113088	0.0051179633	0.0078718615	0.014821355	0	953.7942317623616
7.5857758	0.10964782	0.06	7.8436206	0.80219104	0.016641256	-0.11507359	0.004911015	0.0085877796	0.015064435	0	955.4777506897194
7.5857758	0.12022644	0.06	9.3185596	0.74630548	0.019062753	-0.11916684	0.0046666452	0.0094248043	0.015450256	0	957.7391292822484
7.5857758	0.13182567	0.06	11.349616	0.69312713	0.022255518	-0.12351532	0.0042837675	0.010432899	0.016029004	0	960.7173563297285
7.5857758	0.14454398	0.06	14.034748	0.64269014	0.02639043	-0.12824549	0.0036396674	0.01167132	0.016860212	0	964.5660659220742
7.5857758	0.15848932	0.06	17.480894	0.59503642	0.031658796	-0.13349819	0.0025973594	0.013209339	0.018013489	0	969.4572810779428
7.5857758	0.17378008	0.06	21.809282	0.55018976	0.038278513	-0.13941845	0.0010157901	0.015127363	0.019569434	0	975.5877785351745
7.5857758	0.19054607	0.06	27.157144	0.50815016	0.046496803	-0.14614534	-0.0012400428	0.017518457	0.021621113	0	983.1822289097321
7.5857758	0.20892961	0.06	33.679934	0.46895097	0.056593803	-0.15380409	-0.0042911267	0.020490043	0.024276216	0	992.4970186859392
7.5857758	0.22908677	0.06	41.545707	0.43262241	0.068877456	-0.16249454	-0.008232983	0.02416547	0.027658337	0	1003.8160955205133
7.5857758	0.25118864	0.06	50.922793	0.39918424	0.08367049	-0.17228124	-0.013125674	0.028684705	0.031907601	0	1017.4392975123737
7.5857758	0.27542287	0.06	61.960577	0.36863497	0.10128858	-0.18318473	-0.018985136	0.034203466	0.037179717	0	1033.6623235616646
7.5857758	0.30199517	0.06	74.766425	0.34093946	0.12201246	-0.19517622	-0.025777807	0.04089025	0.043642896	0	1052.7508336288897
7.5857758	0.33113112	0.06	89.384306	0.31601828	0.14606004	-0.20817766	-0.033420754	0.048921119	0.051472558	0	1074.9142436578575
7.5857758	0.36307805	0.06	105.78154	0.2937424	0.17356567	-0.22206871	-0.04178858	0.058472749	0.060844339	0	1100.285853373912
7.5857758	0.39810717	0.06	123.84809	0.27393551	0.2045726	-0.23669965	-0.050726351	0.069714773	0.071926448	0	1128.915033215518
7.5857758	0.43651583	0.06	143.40876	0.2563839	0.23903974	-0.25190764	-0.060065864	0.082802699	0.084872668	0	1160.772658705076
7.5857758	0.47863009	0.06	164.2442	0.24085119	0.2768597	-0.26753276	-0.069641676	0.097872503	0.099817065	0	1195.7671565902633
7.5857758	0.52480746	0.06	186.11493	0.22709442	0.31788192	-0.28343091	-0.079303981	0.11503748	0.11687097	0	1233.7655110635926
7.5857758	0.57543994	0.06	208.78306	0.21487798	0.36193537	-0.29948211	-0.088926923	0.13438737	0.13612223	0	1274.6141232594541
7.5857758	0.63095734	0.06	232.0284	0.20398359	0.408847	-0.31559435	-0.098412417	0.15598934	0.15763625	0	1318.1559308300727
7.5857758	0.69183097	0.06	255.65854	0.19421606	0.45845472	-0.33170379	-0.10769039	0.17989031	0.18145836	0	1364.2425899176328
7.5857758	0.75857758	0.06	279.51338	0.18540531	0.51061509	-0.34777265	-0.11671663	0.20611987	0.20761678	0	1412.741821672125
7.5857758	0.83176377	0.06	303.46579	0.17740593	0.56520701	-0.36378573	-0.12546928	0.23469356	0.23612588	0	1463.5410768944566
7.5857758	0.91201084	0.06	327.41965	0.17009525	0.62213258	-0.37974633	-0.13394481	0.26561598	0.26698928	0	1516.5485711368028
7.5857758	1.	0.06	351.30666	0.16337071	0.68131634	-0.39567221	-0.14215391	0.29888372	0.30020273	0	1571.6928021606377
7.5857758	1.0964782	0.06	375.0825	0.15714702	0.74270347	-0.41159177	-0.15011773	0.33448787	0.33575663	0	1628.921070685045
7.5857758	1.2022644	0.06	398.72304	0.15135355	0.80625775	-0.42754085	-0.15786457	0.37241621	0.37363819	0	1688.1977502710834
7.5857758	1.3182567	0.06	422.22073	0.14593192	0.87195939	-0.44355989	-0.16542718	0.41265497	0.41383319	0	1749.5024006745637
7.5857758	1.4454398	0.06	445.5815	0.14083385	0.93980295	-0.45969188	-0.17284057	0.45519035	0.45632741	0	1812.8279370090074
7.5857758	1.5848932	0.06	468.8219	0.13601943	1.0097955	-0.47598068	-0.18014037	0.50000967	0.50110785	0	1878.178993398634
7.5857758	1.7378008	0.06	491.96689	0.13145562	1.0819551	-0.49246989	-0.18736171	0.54710227	0.5481636	0	1945.57055797782
7.5857758	1.9054607	0.06	515.0478	0.12711499	1.1563093	-0.50920205	-0.1945384	0.5964603	0.59748659	0	2015.0266097696885
7.5857758	2.0892961	0.06	538.10081	0.12297466	1.2328939	-0.52621821	-0.20170246	0.64807923	0.64907209	0	2086.5789801208193
7.5857758	2.2908677	0.06	561.16567	0.11901554	1.3117522	-0.54355761	-0.20888387	0.70195823	0.70291913	0	2160.2666621207154
7.5857758	2.5118864	0.06	584.28459	0.11522155	1.3929341	-0.5612577	-0.2161105	0.75810052	0.75903079	0	2236.134968939164
7.5857758	2.7542287	0.06	607.50151	0.11157915	1.4764952	-0.57935412	-0.2234081	0.81651355	0.8174144	0	2314.23468878116
7.5857758	3.0199517	0.06	630.86143	0.10807678	1.5624968	-0.5978808	-0.23080045	0.87720911	0.87808169	0	2394.6220764308155
7.5857758	3.3113112	0.06	654.40988	0.10470459	1.6510048	-0.6168702	-0.23830949	0.94020346	0.94104882	0	2477.357812400869
7.5857758	3.6307805	0.06	678.19261	0.10145406	1.7420899	-0.63635341	-0.2459555	1.0055173	1.0063364	0	2562.5071806984492
7.5857758	3.9810717	0.06	702.25526	0.098317813	1.835827	-0.65636039	-0.25375726	1.0731759	1.0739697	0	2650.139496066033
7.5857758	4.3651583	0.06	726.6432	0.095289384	1.9322951	-0.67692013	-0.26173229	1.1432088	1.1439782	0	2740.327996495176
7.5857758	4.7863009	0.06	751.40138	0.092363071	2.0315771	-0.69806088	-0.26989696	1.2156503	1.216396	0	2833.1496491123044
7.5857758	5.2480746	0.06	776.57424	0.089533804	2.1337596	-0.71981028	-0.27826668	1.2905387	1.2912615	0	2928.6849515546073
7.5857758	5.7543994	0.06	802.20571	0.086797037	2.2389333	-0.74219556	-0.28685606	1.3679168	1.3686176	0	3027.0182987763433
7.5857758	6.3095734	0.06	828.33911	0.084148666	2.347192	-0.76524365	-0.29567902	1.4478318	1.4485112	0	3128.2370372823625
7.5857758	6.9183097	0.06	855.01728	0.081584955	2.4586335	-0.78898133	-0.30474897	1.5303349	1.5309936	0	3232.432300589613
7.5857758	7.5857758	0.06	882.28252	0.07910248	2.573359	-0.81343539	-0.31407882	1.6154817	1.6161203	0	3339.6984449241963
7.5857758	8.3176377	0.06	910.17667	0.076698083	2.6914735	-0.83863266	-0.32368118	1.7033317	1.7039509	0	3450.1334137727176
7.5857758	9.1201084	0.06	938.74117	0.074368832	2.8130855	-0.86460019	-0.33356839	1.7939486	1.794549	0	3563.8384543214675
7.5857758	10.	0.06	968.01715	0.072111993	2.9383072	-0.89136531	-0.34375263	1.8874001	1.8879823	0	3680.918299168358