75.857758	1.e-12	0.08	2.5997736e12	1.3715467e11	-0.99999998	-2.2347735e-8	-2.2347394e-8	-2.766996e9	8.3064708e9	0	0.000017111560024893253
75.857758	1.0964782e-12	0.08	2.3710217e12	1.2508655e11	-0.99999997	-2.4503805e-8	-2.4503431e-8	-2.5235303e9	7.5755914e9	0	0.000026345154559422714
75.857758	1.2022644e-12	0.08	2.1623975e12	1.1408029e11	-0.99999997	-2.6867889e-8	-2.6867479e-8	-2.301487e9	6.9090215e9	0	0.00002616746035249977
75.857758	1.3182567e-12	0.08	1.9721299e12	1.0404246e11	-0.99999997	-2.9460056e-8	-2.9459606e-8	-2.0989811e9	6.3011025e9	0	0.000025972622535539816
75.857758	1.4454398e-12	0.08	1.7986039e12	9.4887849e10	-0.99999996	-3.230231e-8	-3.2301817e-8	-1.9142935e9	5.7466738e9	0	0.0000351546405405989
75.857758	1.5848932e-12	0.08	1.6403462e12	8.6538746e10	-0.99999996	-3.541878e-8	-3.541824e-8	-1.7458564e9	5.2410288e9	0	0.00003492039389525945
75.857758	1.7378008e-12	0.08	1.4960135e12	7.8924275e10	-0.99999996	-3.8835923e-8	-3.883533e-8	-1.59224e9	4.7798751e9	0	0.00003466354754631293
75.857758	1.9054607e-12	0.08	1.3643806e12	7.1979794e10	-0.99999995	-4.2582744e-8	-4.2582094e-8	-1.4521401e9	4.3592979e9	0	0.00004377757472320164
75.857758	2.0892961e-12	0.08	1.2443299e12	6.5646352e10	-0.99999995	-4.6691054e-8	-4.6690341e-8	-1.3243676e9	3.9757269e9	0	0.00004346877740076632
75.857758	2.2908677e-12	0.08	1.1348423e12	5.9870185e10	-0.99999994	-5.1195726e-8	-5.1194944e-8	-1.2078376e9	3.625906e9	0	0.00005252584133212002
75.857758	2.5118864e-12	0.08	1.0349885e12	5.4602258e10	-0.99999994	-5.6135001e-8	-5.6134144e-8	-1.1015609e9	3.3068656e9	0	0.00005215458523798242
75.857758	2.7542287e-12	0.08	9.4392072e11	4.9797851e10	-0.99999993	-6.1550809e-8	-6.154987e-8	-1.0046355e9	3.0158973e9	0	0.0000611431645056178
75.857758	3.0199517e-12	0.08	8.6086593e11	4.541618e10	-0.99999993	-6.7489126e-8	-6.7488096e-8	-9.1623849e8	2.750531e9	0	0.000060696816394412274
75.857758	3.3113112e-12	0.08	7.8511906e11	4.1420048e10	-0.99999992	-7.4000281e-8	-7.3999152e-8	-8.3561943e8	2.5085141e9	0	0.00006960306482854968
75.857758	3.6307805e-12	0.08	7.1603709e11	3.7775533e10	-0.99999991	-8.1139695e-8	-8.1138457e-8	-7.6209398e8	2.287792e9	0	0.00007846209088767404
75.857758	3.9810717e-12	0.08	6.5303359e11	3.4451696e10	-0.9999999	-8.8967907e-8	-8.8966549e-8	-6.9503797e8	2.0864911e9	0	0.00008726934401058726
75.857758	4.3651583e-12	0.08	5.9557371e11	3.142032e10	-0.99999989	-9.7551369e-8	-9.7549881e-8	-6.3388216e8	1.9029025e9	0	0.00009601982945101847
75.857758	4.7863009e-12	0.08	5.4316968e11	2.8655672e10	-0.99999988	-1.0696295e-7	-1.0696132e-7	-5.781074e8	1.7354677e9	0	0.00010470807003998628
75.857758	5.2480746e-12	0.08	4.9537664e11	2.6134284e10	-0.99999987	-1.1728254e-7	-1.1728075e-7	-5.2724022e8	1.5827654e9	0	0.00011332806117410441
75.857758	5.7543994e-12	0.08	4.5178886e11	2.383475e10	-0.99999986	-1.2859775e-7	-1.2859579e-7	-4.8084879e8	1.4434992e9	0	0.0001218732171598862
75.857758	6.3095734e-12	0.08	4.1203634e11	2.173755e10	-0.99999985	-1.4100463e-7	-1.4100248e-7	-4.3853931e8	1.3164869e9	0	0.00013033631892020906
75.857758	6.9183097e-12	0.08	3.7578161e11	1.9824882e10	-0.99999983	-1.546085e-7	-1.5460614e-7	-3.9995261e8	1.2006503e9	0	0.00014810510370478369
75.857758	7.5857758e-12	0.08	3.427169e11	1.8080507e10	-0.99999981	-1.6952485e-7	-1.6952226e-7	-3.6476111e8	1.0950061e9	0	0.00016577523713421738
75.857758	8.3176377e-12	0.08	3.1256153e11	1.6489618e10	-0.9999998	-1.858803e-7	-1.8587746e-7	-3.3266609e8	9.9865745e8	0	0.00017394154834444268
75.857758	9.1201084e-12	0.08	2.850595e11	1.5038711e10	-0.99999978	-2.038137e-7	-2.0381059e-7	-3.0339508e8	9.1078642e8	0	0.00019138490752934815
75.857758	1.e-11	0.08	2.5997736e11	1.3715467e10	-0.99999976	-2.2347727e-7	-2.2347386e-7	-2.766996e8	8.3064708e8	0	0.00020869822034668166
75.857758	1.0964782e-11	0.08	2.3710217e11	1.2508655e10	-0.99999973	-2.4503796e-7	-2.4503422e-7	-2.5235304e8	7.5755914e8	0	0.00023526459150883958
75.857758	1.2022644e-11	0.08	2.1623975e11	1.1408029e10	-0.99999971	-2.6867878e-7	-2.6867468e-7	-2.301487e8	6.9090215e8	0	0.00025227895793302374
75.857758	1.3182567e-11	0.08	1.9721299e11	1.0404246e10	-0.99999968	-2.9460042e-7	-2.9459592e-7	-2.0989811e8	6.3011025e8	0	0.00027851754255570104
75.857758	1.4454398e-11	0.08	1.7986039e11	9.4887849e9	-0.99999965	-3.2302294e-7	-3.2301801e-7	-1.9142935e8	5.7466738e8	0	0.00030456815011362174
75.857758	1.5848932e-11	0.08	1.6403462e11	8.6538746e9	-0.99999961	-3.541876e-7	-3.541822e-7	-1.7458565e8	5.2410288e8	0	0.00033980830064705465
75.857758	1.7378008e-11	0.08	1.4960135e11	7.8924275e9	-0.99999958	-3.8835898e-7	-3.8835306e-7	-1.59224e8	4.7798751e8	0	0.00036542680070151856
75.857758	1.9054607e-11	0.08	1.3643806e11	7.1979794e9	-0.99999953	-4.2582716e-7	-4.2582066e-7	-1.4521402e8	4.3592979e8	0	0.0004095888075323348
75.857758	2.0892961e-11	0.08	1.2443299e11	6.5646352e9	-0.99999949	-4.6691019e-7	-4.6690306e-7	-1.3243676e8	3.9757269e8	0	0.00044408345354976573
75.857758	2.2908677e-11	0.08	1.1348423e11	5.9870185e9	-0.99999944	-5.1195684e-7	-5.1194903e-7	-1.2078376e8	3.625906e8	0	0.00048767583047166374
75.857758	2.5118864e-11	0.08	1.0349885e11	5.4602258e9	-0.99999939	-5.6134951e-7	-5.6134094e-7	-1.101561e8	3.3068656e8	0	0.0005309415437182746
75.857758	2.7542287e-11	0.08	9.4392072e10	4.9797851e9	-0.99999933	-6.155075e-7	-6.154981e-7	-1.0046355e8	3.0158973e8	0	0.000583244729513682
75.857758	3.0199517e-11	0.08	8.6086593e10	4.541618e9	-0.99999926	-6.7489054e-7	-6.7488024e-7	-9.162385e7	2.750531e8	0	0.0006445508319389923
75.857758	3.3113112e-11	0.08	7.8511906e10	4.1420048e9	-0.99999919	-7.4000276e-7	-7.3999147e-7	-8.3561944e7	2.5085141e8	0	0.0007054263059039072
75.857758	3.6307805e-11	0.08	7.1603709e10	3.7775533e9	-0.99999911	-8.1139689e-7	-8.113845e-7	-7.6209399e7	2.287792e8	0	0.0007752252605910955
75.857758	3.9810717e-11	0.08	6.5303359e10	3.4451695e9	-0.99999903	-8.8967955e-7	-8.8966597e-7	-6.9503798e7	2.0864911e8	0	0.0008445064440108067
75.857758	4.3651583e-11	0.08	5.9557371e10	3.142032e9	-0.99999893	-9.7551357e-7	-9.7549868e-7	-6.3388217e7	1.9029025e8	0	0.000932011343848657
75.857758	4.7863009e-11	0.08	5.4316968e10	2.8655672e9	-0.99999883	-1.0696306e-6	-1.0696143e-6	-5.7810741e7	1.7354677e8	0	0.001018893656763541
75.857758	5.2480746e-11	0.08	4.9537664e10	2.6134284e9	-0.99999872	-1.1728259e-6	-1.172808e-6	-5.2724023e7	1.5827654e8	0	0.001114489267272634
75.857758	5.7543994e-11	0.08	4.5178886e10	2.383475e9	-0.99999859	-1.2859772e-6	-1.2859576e-6	-4.808488e7	1.4434992e8	0	0.0012281278472783905
75.857758	6.3095734e-11	0.08	4.1203634e10	2.173755e9	-0.99999846	-1.4100463e-6	-1.4100248e-6	-4.3853932e7	1.3164869e8	0	0.0013409458033909341
75.857758	6.9183097e-11	0.08	3.7578161e10	1.9824881e9	-0.99999831	-1.5460855e-6	-1.5460619e-6	-3.9995262e7	1.2006503e8	0	0.0014716553463352624
75.857758	7.5857758e-11	0.08	3.427169e10	1.8080507e9	-0.99999815	-1.6952482e-6	-1.6952223e-6	-3.6476112e7	1.0950061e8	0	0.001610774126781564
75.857758	8.3176377e-11	0.08	3.1256153e10	1.6489618e9	-0.99999797	-1.8588027e-6	-1.8587744e-6	-3.326661e7	9.9865744e7	0	0.0017676024589104798
75.857758	9.1201084e-11	0.08	2.850595e10	1.5038711e9	-0.99999777	-2.0381372e-6	-2.0381061e-6	-3.0339509e7	9.1078641e7	0	0.0019420360207977557
75.857758	1.e-10	0.08	2.5997736e10	1.3715467e9	-0.99999756	-2.2347731e-6	-2.2347389e-6	-2.7669961e7	8.3064707e7	0	0.002124564795106092
75.857758	1.0964782e-10	0.08	2.3710217e10	1.2508655e9	-0.99999732	-2.4503799e-6	-2.4503425e-6	-2.5235304e7	7.5755913e7	0	0.0023338545853400926
75.857758	1.2022644e-10	0.08	2.1623975e10	1.1408029e9	-0.99999706	-2.6867878e-6	-2.6867468e-6	-2.3014871e7	6.9090214e7	0	0.002560372193206143
75.857758	1.3182567e-10	0.08	1.9721299e10	1.0404246e9	-0.99999678	-2.9460044e-6	-2.9459594e-6	-2.0989812e7	6.3011024e7	0	0.0028039667169925103
75.857758	1.4454398e-10	0.08	1.7986039e10	9.4887849e8	-0.99999647	-3.2302295e-6	-3.2301802e-6	-1.9142936e7	5.7466737e7	0	0.0030738684542613278
75.857758	1.5848932e-10	0.08	1.6403462e10	8.6538746e8	-0.99999613	-3.5418764e-6	-3.5418224e-6	-1.7458565e7	5.2410287e7	0	0.003369896016284386
75.857758	1.7378008e-10	0.08	1.4960135e10	7.8924275e8	-0.99999575	-3.8835899e-6	-3.8835306e-6	-1.5922401e7	4.779875e7	0	0.003701246274542615
75.857758	1.9054607e-10	0.08	1.3643806e10	7.1979794e8	-0.99999534	-4.2582718e-6	-4.2582068e-6	-1.4521402e7	4.3592978e7	0	0.004058305445997146
75.857758	2.0892961e-10	0.08	1.2443299e10	6.5646352e8	-0.99999489	-4.6691022e-6	-4.669031e-6	-1.3243676e7	3.9757268e7	0	0.004450230158874465
75.857758	2.2908677e-10	0.08	1.1348423e10	5.9870185e8	-0.9999944	-5.1195689e-6	-5.1194908e-6	-1.2078377e7	3.6259059e7	0	0.0048767582668210845
75.857758	2.5118864e-10	0.08	1.0349885e10	5.4602258e8	-0.99999386	-5.6134956e-6	-5.6134099e-6	-1.101561e7	3.3068655e7	0	0.005346998013997601
75.857758	2.7542287e-10	0.08	9.4392072e9	4.9797851e8	-0.99999327	-6.1550754e-6	-6.1549815e-6	-1.0046356e7	3.0158972e7	0	0.005860634217674276
75.857758	3.0199517e-10	0.08	8.6086593e9	4.541618e8	-0.99999262	-6.7489058e-6	-6.7488028e-6	-9.1623859e6	2.7505309e7	0	0.006426716981812159
75.857758	3.3113112e-10	0.08	7.8511906e9	4.1420048e8	-0.99999191	-7.400028e-6	-7.3999151e-6	-8.3561953e6	2.508514e7	0	0.007044867375843021
75.857758	3.6307805e-10	0.08	7.1603709e9	3.7775533e8	-0.99999113	-8.1139696e-6	-8.1138458e-6	-7.6209408e6	2.2877919e7	0	0.007724065585032828
75.857758	3.9810717e-10	0.08	6.5303359e9	3.4451695e8	-0.99999027	-8.8967907e-6	-8.8966549e-6	-6.9503807e6	2.086491e7	0	0.008473251761542793
75.857758	4.3651583e-10	0.08	5.9557371e9	3.142032e8	-0.99998933	-9.7551371e-6	-9.7549882e-6	-6.3388226e6	1.9029024e7	0	0.00929192637230068
75.857758	4.7863009e-10	0.08	5.4316968e9	2.8655672e8	-0.9999883	-0.000010696295	-0.000010696132	-5.781075e6	1.7354676e7	0	0.010188937394452919
75.857758	5.2480746e-10	0.08	4.9537664e9	2.6134284e8	-0.99998717	-0.000011728254	-0.000011728075	-5.2724032e6	1.5827653e7	0	0.011173080009089797
75.857758	5.7543994e-10	0.08	4.5178886e9	2.383475e8	-0.99998593	-0.000012859775	-0.000012859579	-4.8084889e6	1.4434991e7	0	0.012253091286959526
75.857758	6.3095734e-10	0.08	4.1203634e9	2.173755e8	-0.99998458	-0.000014100463	-0.000014100248	-4.3853941e6	1.3164868e7	0	0.013428249341212388
75.857758	6.9183097e-10	0.08	3.7578161e9	1.9824881e8	-0.99998309	-0.00001546085	-0.000015460614	-3.9995271e6	1.2006502e7	0	0.014725949492204413
75.857758	7.5857758e-10	0.08	3.427169e9	1.8080507e8	-0.99998146	-0.000016952485	-0.000016952226	-3.6476121e6	1.095006e7	0	0.01614532365661311
75.857758	8.3176377e-10	0.08	3.1256153e9	1.6489618e8	-0.99997967	-0.00001858803	-0.000018587747	-3.3266619e6	9.9865735e6	0	0.017704211324250745
75.857758	9.1201084e-10	0.08	2.850595e9	1.5038711e8	-0.99997771	-0.00002038137	-0.000020381059	-3.0339518e6	9.1078632e6	0	0.019410964704865113
75.857758	1.e-9	0.08	2.5997736e9	1.3715467e8	-0.99997556	-0.000022347728	-0.000022347387	-2.766997e6	8.3064698e6	0	0.021283230714954342
75.857758	1.0964782e-9	0.08	2.3710217e9	1.2508655e8	-0.9999732	-0.000024503796	-0.000024503422	-2.5235313e6	7.5755904e6	0	0.023338546078583672
75.857758	1.2022644e-9	0.08	2.1623975e9	1.1408029e8	-0.99997061	-0.000026867878	-0.000026867468	-2.301488e6	6.9090205e6	0	0.025594326278514223
75.857758	1.3182567e-9	0.08	1.9721299e9	1.0404246e8	-0.99996778	-0.000029460042	-0.000029459593	-2.0989821e6	6.3011015e6	0	0.02805845855239338
75.857758	1.4454398e-9	0.08	1.7986039e9	9.4887849e7	-0.99996467	-0.000032302294	-0.000032301801	-1.9142945e6	5.7466728e6	0	0.030766871578524455
75.857758	1.5848932e-9	0.08	1.6403462e9	8.6538746e7	-0.99996126	-0.000035418761	-0.00003541822	-1.7458574e6	5.2410278e6	0	0.03373654307738068
75.857758	1.7378008e-9	0.08	1.4960135e9	7.8924275e7	-0.99995752	-0.000038835898	-0.000038835306	-1.592241e6	4.7798741e6	0	0.03699367143801879
75.857758	1.9054607e-9	0.08	1.3643806e9	7.1979794e7	-0.99995343	-0.000042582715	-0.000042582065	-1.4521411e6	4.3592969e6	0	0.04055486772503414
75.857758	2.0892961e-9	0.08	1.2443299e9	6.5646352e7	-0.99994893	-0.000046691018	-0.000046690306	-1.3243686e6	3.9757259e6	0	0.04447411492865962
75.857758	2.2908677e-9	0.08	1.1348423e9	5.9870185e7	-0.99994401	-0.000051195683	-0.000051194901	-1.2078386e6	3.625905e6	0	0.04875818754040298
75.857758	2.5118864e-9	0.08	1.0349885e9	5.4602258e7	-0.9999386	-0.000056134949	-0.000056134092	-1.1015619e6	3.3068646e6	0	0.05346998066623691
75.857758	2.7542287e-9	0.08	9.4392072e8	4.9797851e7	-0.99993268	-0.000061550746	-0.000061549807	-1.0046365e6	3.0158963e6	0	0.05862513408547195
75.857758	3.0199517e-9	0.08	8.6086593e8	4.541618e7	-0.99992618	-0.000067489049	-0.000067488019	-916239.49	2.75053e6	0	0.06428596180159875
75.857758	3.3113112e-9	0.08	7.8511906e8	4.1420048e7	-0.99991906	-0.000074000269	-0.000073999139	-835620.43	2.5085131e6	0	0.07048625727428885
75.857758	3.6307805e-9	0.08	7.1603709e8	3.7775533e7	-0.99991125	-0.000081139678	-0.00008113844	-762094.98	2.287791e6	0	0.07728763547030824
75.857758	3.9810717e-9	0.08	6.5303359e8	3.4451695e7	-0.99990269	-0.000088967884	-0.000088966526	-695038.97	2.0864901e6	0	0.08474191499735814
75.857758	4.3651583e-9	0.08	5.9557371e8	3.142032e7	-0.9998933	-0.00009755134	-0.000097549851	-633883.16	1.9029015e6	0	0.09291926605323318
75.857758	4.7863009e-9	0.08	5.4316968e8	2.8655672e7	-0.99988301	-0.00010696291	-0.00010696128	-578108.4	1.7354667e6	0	0.10187998129811264
75.857758	5.2480746e-9	0.08	4.9537664e8	2.6134284e7	-0.99987172	-0.00011728249	-0.0001172807	-527241.22	1.5827644e6	0	0.11171201254248221
75.857758	5.7543994e-9	0.08	4.5178886e8	2.383475e7	-0.99985935	-0.00012859768	-0.00012859572	-480849.79	1.4434982e6	0	0.12248393986384241
75.857758	6.3095734e-9	0.08	4.1203634e8	2.173755e7	-0.99984578	-0.00014100454	-0.00014100238	-438540.31	1.3164859e6	0	0.1343012922357411
75.857758	6.9183097e-9	0.08	3.7578161e8	1.9824882e7	-0.9998309	-0.00015460838	-0.00015460602	-399953.61	1.2006493e6	0	0.14725950394155854
75.857758	7.5857758e-9	0.08	3.427169e8	1.8080507e7	-0.99981458	-0.00016952469	-0.0001695221	-364762.11	1.0950051e6	0	0.1614720398994534
75.857758	8.3176377e-9	0.08	3.1256153e8	1.6489618e7	-0.9997967	-0.00018588009	-0.00018587725	-332667.09	998656.45	0	0.17704212977875333
75.857758	9.1201084e-9	0.08	2.850595e8	1.5038711e7	-0.99977708	-0.00020381342	-0.00020381031	-303396.08	910785.42	0	0.19412845940211373
75.857758	1.e-8	0.08	2.5997736e8	1.3715467e7	-0.99975557	-0.00022347691	-0.0002234735	-276700.6	830646.09	0	0.21286052192100646
75.857758	1.0964782e-8	0.08	2.3710217e8	1.2508655e7	-0.99973199	-0.00024503747	-0.00024503373	-252354.03	757558.15	0	0.23339489327034568
75.857758	1.2022644e-8	0.08	2.1623975e8	1.1408029e7	-0.99970614	-0.00026867814	-0.00026867404	-230149.7	690901.15	0	0.25590572827669933
75.857758	1.3182567e-8	0.08	1.9721299e8	1.0404246e7	-0.99967778	-0.00029459957	-0.00029459508	-209899.11	630109.25	0	0.28060344072115906
75.857758	1.4454398e-8	0.08	1.7986039e8	9.4887849e6	-0.9996467	-0.00032302182	-0.00032301689	-191430.35	574666.38	0	0.30766879997029983
75.857758	1.5848932e-8	0.08	1.6403462e8	8.6538747e6	-0.99961261	-0.00035418613	-0.00035418073	-174586.64	524101.88	0	0.3373561456128317
75.857758	1.7378008e-8	0.08	1.4960135e8	7.8924275e6	-0.99957524	-0.00038835704	-0.00038835112	-159225.	477986.51	0	0.3698992775871672
75.857758	1.9054607e-8	0.08	1.3643806e8	7.1979794e6	-0.99953426	-0.0004258246	-0.0004258181	-145215.01	435928.79	0	0.40558645153596595
75.857758	2.0892961e-8	0.08	1.2443299e8	6.5646353e6	-0.99948932	-0.00046690681	-0.00046689969	-132437.75	397571.69	0	0.44472261128600715
75.857758	2.2908677e-8	0.08	1.1348423e8	5.9870185e6	-0.99944006	-0.00051195238	-0.00051194457	-120784.76	362589.61	0	0.48761979175162234
75.857758	2.5118864e-8	0.08	1.0349885e8	5.4602258e6	-0.99938603	-0.00056134363	-0.00056133506	-110157.09	330685.56	0	0.5346720601701722
75.857758	2.7542287e-8	0.08	9.4392073e7	4.9797851e6	-0.9993268	-0.00061549974	-0.00061549035	-100464.55	301588.73	0	0.5862519211304882
75.857758	3.0199517e-8	0.08	8.6086594e7	4.541618e6	-0.99926185	-0.00067488032	-0.00067487002	-91624.848	275052.11	0	0.6428134041788288
75.857758	3.3113112e-8	0.08	7.8511906e7	4.1420049e6	-0.99919064	-0.00073998927	-0.00073997798	-83562.943	250850.41	0	0.7048259980943029
75.857758	3.6307805e-8	0.08	7.160371e7	3.7775534e6	-0.99911256	-0.0008113791	-0.00081136672	-76210.398	228778.21	0	0.7728213097035517
75.857758	3.9810717e-8	0.08	6.530336e7	3.4451696e6	-0.99902694	-0.00088965553	-0.00088964195	-69504.797	208648.12	0	0.8473833194608572
75.857758	4.3651583e-8	0.08	5.9557372e7	3.1420321e6	-0.99893307	-0.00097548267	-0.00097546779	-63389.216	190289.26	0	0.929129200033514
75.857758	4.7863009e-8	0.08	5.4316969e7	2.8655673e6	-0.99883014	-0.0010695886	-0.0010695723	-57811.74	173545.78	0	1.0187652745589848
75.857758	5.2480746e-8	0.08	4.9537664e7	2.6134285e6	-0.99871729	-0.0011727715	-0.0011727536	-52725.021	158275.55	0	1.117039578366698
75.857758	5.7543994e-8	0.08	4.5178887e7	2.3834751e6	-0.99859354	-0.0012859064	-0.0012858868	-48085.879	144348.93	0	1.224807107656808
75.857758	6.3095734e-8	0.08	4.1203635e7	2.1737551e6	-0.99845787	-0.0014099526	-0.0014099311	-43854.931	131647.7	0	1.3429541205997377
75.857758	6.9183097e-8	0.08	3.7578162e7	1.9824883e6	-0.99830911	-0.0015459615	-0.0015459379	-39996.26	120064.04	0	1.472500879934159
75.857758	7.5857758e-8	0.08	3.4271691e7	1.8080508e6	-0.998146	-0.0016950857	-0.0016950598	-36477.11	109499.62	0	1.6145446025593866
75.857758	8.3176377e-8	0.08	3.1256154e7	1.648962e6	-0.99796716	-0.0018585884	-0.00185856	-33267.608	99864.758	0	1.7702869399423538
75.857758	9.1201084e-8	0.08	2.8505951e7	1.5038712e6	-0.99777109	-0.0020378541	-0.002037823	-30340.507	91077.656	0	1.9410331738498827
75.857758	1.e-7	0.08	2.5997737e7	1.3715469e6	-0.99755611	-0.0022343998	-0.0022343657	-27670.959	83063.724	0	2.1282477559356243
75.857758	1.0964782e-7	0.08	2.3710218e7	1.2508657e6	-0.99732041	-0.002449888	-0.0024498506	-25236.302	75754.932	0	2.33350633729152
75.857758	1.2022644e-7	0.08	2.1623976e7	1.1408031e6	-0.997062	-0.0026861398	-0.0026860988	-23015.869	69089.234	0	2.55854176956747
75.857758	1.3182567e-7	0.08	1.9721301e7	1.0404248e6	-0.99677869	-0.0029451502	-0.0029451052	-20990.81	63010.046	0	2.805261753766545
75.857758	1.4454398e-7	0.08	1.798604e7	948878.75	-0.99646809	-0.0032291037	-0.0032290544	-19143.934	57465.761	0	3.07574764511807
75.857758	1.5848932e-7	0.08	1.6403464e7	865387.75	-0.99612759	-0.0035403923	-0.0035403383	-17459.563	52409.313	0	3.3722719214769126
75.857758	1.7378008e-7	0.08	1.4960137e7	789243.06	-0.99575431	-0.0038816343	-0.003881575	-15923.398	47797.778	0	3.697343740967371
75.857758	1.9054607e-7	0.08	1.3643808e7	719798.29	-0.99534513	-0.0042556943	-0.0042556293	-14522.399	43592.009	0	4.053679214136499
75.857758	2.0892961e-7	0.08	1.2443301e7	656463.91	-0.99489661	-0.0046657054	-0.0046656342	-13244.673	39756.302	0	4.44427495312894
75.857758	2.2908677e-7	0.08	1.1348426e7	598702.27	-0.99440499	-0.0051150926	-0.0051150144	-12079.373	36258.097	0	4.872406305304175
75.857758	2.5118864e-7	0.08	1.0349888e7	546023.03	-0.99386619	-0.0056075973	-0.0056075117	-11016.607	33067.696	0	5.341625444040348
75.857758	2.7542287e-7	0.08	9.4392102e6	497979.01	-0.99327571	-0.0061473042	-0.0061472103	-10047.352	30158.016	0	5.8558534235880195
75.857758	3.0199517e-7	0.08	8.6086625e6	454162.35	-0.99262868	-0.006738668	-0.006738565	-9163.3815	27504.358	0	6.419331081144142
75.857758	3.3113112e-7	0.08	7.8511941e6	414201.09	-0.99191977	-0.0073865422	-0.0073864293	-8357.1906	25084.193	0	7.03670148559014
75.857758	3.6307805e-7	0.08	7.1603748e6	377755.99	-0.99114319	-0.0080962077	-0.0080960839	-7621.9357	22876.978	0	7.713007795282916
75.857758	3.9810717e-7	0.08	6.5303401e6	344517.68	-0.99029261	-0.0088734015	-0.0088732657	-6951.3752	20863.974	0	8.453766243491405
75.857758	4.3651583e-7	0.08	5.9557418e6	314203.99	-0.98936121	-0.0097243443	-0.0097241954	-6339.8167	19028.094	0	9.264917085568957
75.857758	4.7863009e-7	0.08	5.4317019e6	286557.59	-0.98834157	-0.010655766	-0.010655603	-5782.0686	17353.753	0	10.152926034428015
75.857758	5.2480746e-7	0.08	4.9537719e6	261343.79	-0.98722568	-0.011674927	-0.011674748	-5273.3962	15826.737	0	11.12477334654946
75.857758	5.7543994e-7	0.08	4.5178947e6	238348.54	-0.98600491	-0.012789634	-0.012789438	-4809.4814	14434.083	0	12.187980610869625
75.857758	6.3095734e-7	0.08	4.1203701e6	217376.65	-0.98467001	-0.014008248	-0.014008033	-4386.386	13163.968	0	13.350610425569991
75.857758	6.9183097e-7	0.08	3.7578234e6	198250.07	-0.98321107	-0.015339679	-0.015339443	-4000.5183	12005.612	0	14.62130416108753
75.857758	7.5857758e-7	0.08	3.427177e6	180806.44	-0.98161758	-0.016793366	-0.016793107	-3648.6026	10949.18	0	16.009227164663614
75.857758	8.3176377e-7	0.08	3.125624e6	164897.68	-0.97987843	-0.018379234	-0.01837895	-3327.6515	9985.7046	0	17.52407199244893
75.857758	9.1201084e-7	0.08	2.8506045e6	150388.74	-0.97798197	-0.020107631	-0.020107319	-3034.9405	9107.0064	0	19.176006846156792
75.857758	1.e-6	0.08	2.599784e6	137156.46	-0.9759161	-0.021989221	-0.02198888	-2767.9848	8305.6263	0	20.975598754200405
75.857758	1.0964782e-6	0.08	2.371033e6	125088.5	-0.97366844	-0.024034851	-0.024034477	-2524.518	7574.7611	0	22.93366444388027
75.857758	1.2022644e-6	0.08	2.1624099e6	114082.41	-0.97122642	-0.02625536	-0.026254949	-2302.4736	6908.2066	0	25.061199535739597
75.857758	1.3182567e-6	0.08	1.9721434e6	104044.77	-0.96857758	-0.028661341	-0.028660892	-2099.9664	6300.3043	0	27.369114563283578
75.857758	1.4454398e-6	0.08	1.7986186e6	94890.37	-0.9657098	-0.031262856	-0.031262363	-1915.2774	5745.8935	0	29.868041121856283
75.857758	1.5848932e-6	0.08	1.6403622e6	86541.487	-0.96261167	-0.034069078	-0.034068538	-1746.8388	5240.2677	0	32.5680099359688
75.857758	1.7378008e-6	0.08	1.4960309e6	78927.249	-0.95927282	-0.037087907	-0.037087315	-1593.2207	4779.1344	0	35.47817064333015
75.857758	1.9054607e-6	0.08	1.3643994e6	71983.016	-0.95568436	-0.040325534	-0.040324885	-1453.1191	4358.5791	0	38.606410631975216
75.857758	2.0892961e-6	0.08	1.2443502e6	65649.837	-0.95183931	-0.043785998	-0.043785286	-1325.3446	3975.0312	0	41.95898455085629
75.857758	2.2908677e-6	0.08	1.1348643e6	59873.945	-0.94773298	-0.047470758	-0.047469977	-1208.8125	3625.2347	0	45.5401892953973
75.857758	2.5118864e-6	0.08	1.0350122e6	54606.306	-0.94336334	-0.051378314	-0.051377457	-1102.5337	3306.2197	0	49.352045006265804
75.857758	2.7542287e-6	0.08	943946.22	49802.197	-0.93873126	-0.055503918	-0.055502978	-1005.6058	3015.2779	0	53.39409114611006
75.857758	3.0199517e-6	0.08	860893.26	45420.834	-0.93384071	-0.059839409	-0.059838379	-917.20621	2749.939	0	57.66321106391607
75.857758	3.3113112e-6	0.08	785148.28	41425.017	-0.92869865	-0.064373197	-0.064372068	-836.58438	2507.9503	0	62.15373670017103
75.857758	3.6307805e-6	0.08	716068.24	37780.821	-0.92331495	-0.06909041	-0.069089171	-763.05597	2287.257	0	66.85751255247155
75.857758	3.9810717e-6	0.08	653066.68	34457.304	-0.91770199	-0.073973188	-0.073971831	-695.99681	2085.9852	0	71.76424902726107
75.857758	4.3651583e-6	0.08	595608.76	31426.25	-0.91187423	-0.079001113	-0.078999624	-634.83766	1902.4258	0	76.86189518419522
75.857758	4.7863009e-6	0.08	543206.69	28661.92	-0.90584768	-0.084151714	-0.084150081	-579.05937	1735.0202	0	82.13709746952848
75.857758	5.2480746e-6	0.08	495415.59	26140.844	-0.89963928	-0.089401016	-0.089399226	-528.18846	1582.3468	0	87.57574180773844
75.857758	5.7543994e-6	0.08	451829.72	23841.616	-0.89326638	-0.094724079	-0.094722116	-481.79313	1443.1092	0	93.16340158628452
75.857758	6.3095734e-6	0.08	412079.07	21744.711	-0.88674621	-0.10009549	-0.10009333	-439.47955	1316.1248	0	98.8857988694473
75.857758	6.9183097e-6	0.08	375826.17	19832.327	-0.88009541	-0.10548976	-0.1054874	-400.88856	1200.3155	0	104.72921359782927
75.857758	7.5857758e-6	0.08	342763.22	18088.223	-0.87332976	-0.11088167	-0.11087908	-365.69261	1094.6976	0	110.68071705155381
75.857758	8.3176377e-6	0.08	312609.55	16497.592	-0.86646389	-0.11624649	-0.11624365	-333.59296	998.37437	0	116.72842147398629
75.857758	9.1201084e-6	0.08	285109.16	15046.927	-0.85951117	-0.12156016	-0.12155705	-304.31717	910.52773	0	122.86157335178311
75.857758	0.00001	0.08	260028.58	13723.912	-0.85248363	-0.12679937	-0.12679596	-277.61674	830.41173	0	129.07062256690057
75.857758	0.000010964782	0.08	237154.88	12517.311	-0.84539199	-0.13194164	-0.1319379	-253.26508	757.34603	0	135.34718669311232
75.857758	0.000012022644	0.08	216293.87	11416.882	-0.83824565	-0.13696535	-0.13696125	-231.05551	690.71017	0	141.68405888835755
75.857758	0.000013182567	0.08	197268.46	10413.281	-0.83105283	-0.14184985	-0.14184536	-210.79955	629.93832	0	148.07506808741746
75.857758	0.000014454398	0.08	179917.13	9497.9874	-0.82382065	-0.1465755	-0.14657057	-192.32529	574.51443	0	154.5150023333825
75.857758	0.000015848932	0.08	164092.57	8663.2298	-0.81655522	-0.15112383	-0.15111842	-175.47596	523.96787	0	160.9995084320732
75.857758	0.000017378008	0.08	149660.43	7901.9216	-0.80926178	-0.1554777	-0.15547177	-160.10858	477.86945	0	167.5249513930634
75.857758	0.000019054607	0.08	136498.21	7207.5992	-0.80194479	-0.15962157	-0.15961507	-146.09275	435.82773	0	174.08830957418758
75.857758	0.000020892961	0.08	124494.15	6574.3684	-0.79460801	-0.16354177	-0.16353464	-133.30954	397.48573	0	180.68707847004853
75.857758	0.000022908677	0.08	113546.35	5996.8531	-0.78725465	-0.1672268	-0.16721898	-121.6505	362.51788	0	187.31910647599508
75.857758	0.000025118864	0.08	103561.87	5470.1508	-0.7798874	-0.17066771	-0.17065914	-111.01671	330.62727	0	193.98253889002606
75.857758	0.000027542287	0.08	94455.94	4989.79	-0.77250854	-0.1738584	-0.17384901	-101.31795	301.54311	0	200.67569276268668
75.857758	0.000030199517	0.08	86151.263	4551.693	-0.76511995	-0.17679588	-0.17678558	-92.471941	275.01844	0	207.39702795845525
75.857758	0.000033113112	0.08	78577.332	4152.1407	-0.75772323	-0.17948044	-0.17946914	-84.403658	250.82803	0	214.14501937485562
75.857758	0.000036307805	0.08	71669.849	3787.7412	-0.75031973	-0.18191568	-0.1819033	-77.044664	228.76648	0	220.9181272521921
75.857758	0.000039810717	0.08	65370.173	3455.4011	-0.74291054	-0.18410844	-0.18409486	-70.332546	208.64643	0	227.71481634068292
75.857758	0.000043651583	0.08	59624.82	3152.2994	-0.73549661	-0.18606851	-0.18605362	-64.210385	190.29705	0	234.53345743401115
75.857758	0.000047863009	0.08	54385.016	2875.863	-0.72807871	-0.18780822	-0.1877919	-58.626267	173.5625	0	241.37240103124827
75.857758	0.000052480746	0.08	49606.276	2623.7453	-0.72065748	-0.18934196	-0.18932406	-53.53285	158.30067	0	248.22996643789637
75.857758	0.000057543994	0.08	45248.029	2393.8062	-0.71323346	-0.19068557	-0.19066595	-48.886956	144.38196	0	255.10445491980244
75.857758	0.000063095734	0.08	41273.275	2184.094	-0.70580709	-0.19185576	-0.19183424	-44.649205	131.68815	0	261.9942000638618
75.857758	0.000069183097	0.08	37648.269	1992.8286	-0.69837874	-0.19286953	-0.19284593	-40.783685	120.11146	0	268.897576422019
75.857758	0.000075857758	0.08	34342.236	1818.3865	-0.69094871	-0.19374368	-0.19371781	-37.257641	109.55357	0	275.81304010049087
75.857758	0.000083176377	0.08	31327.108	1659.2873	-0.68351726	-0.19449441	-0.19446604	-34.041203	99.924799	0	282.73913214220187
75.857758	0.000091201084	0.08	28577.288	1514.1807	-0.67608458	-0.19513697	-0.19510587	-31.107127	91.143389	0	289.6745277600086
75.857758	0.0001	0.08	26069.43	1381.8352	-0.66865085	-0.1956855	-0.19565139	-28.430569	83.134762	0	296.6179987540856
75.857758	0.00010964782	0.08	23782.242	1261.1278	-0.6612162	-0.19615286	-0.19611546	-25.988868	75.830905	0	303.56845635610506
75.857758	0.00012022644	0.08	21696.309	1151.0344	-0.65378073	-0.19655062	-0.19650961	-23.761359	69.169791	0	310.5249399544534
75.857758	0.00013182567	0.08	19793.919	1050.6208	-0.64634453	-0.19688906	-0.1968441	-21.729195	63.094854	0	317.4865937930097
75.857758	0.00014454398	0.08	18058.924	959.03515	-0.63890766	-0.19717724	-0.19712794	-19.875187	57.554506	0	324.4526842591487
75.857758	0.00015848932	0.08	16476.593	875.50062	-0.63147018	-0.19742305	-0.197369	-18.183659	52.5017	0	331.422563428605
75.857758	0.00017378008	0.08	15033.493	799.30866	-0.62403212	-0.19763337	-0.1975741	-16.640314	47.893529	0	338.3956904875633
75.857758	0.00019054607	0.08	13717.373	729.81313	-0.61659349	-0.19781411	-0.19774912	-15.232114	43.690863	0	345.37161406882916
75.857758	0.00020892961	0.08	12517.059	666.42474	-0.60915431	-0.19797037	-0.19789911	-13.947167	39.858017	0	352.34993579669447
75.857758	0.00022908677	0.08	11422.362	608.60605	-0.60171458	-0.19810654	-0.1980284	-12.774628	36.362445	0	359.33033020572185
75.857758	0.00025118864	0.08	10423.989	555.86695	-0.59427428	-0.19822637	-0.1981407	-11.704605	33.174466	0	366.31253722422235
75.857758	0.00027542287	0.08	9513.4626	507.76043	-0.5868334	-0.19833309	-0.19823915	-10.728079	30.267012	0	373.29633022903386
75.857758	0.00030199517	0.08	8683.0542	463.87884	-0.57939191	-0.19842947	-0.19832647	-9.836823	27.615397	0	380.2815329576963
75.857758	0.00033113112	0.08	7925.7139	423.8504	-0.57194977	-0.19851791	-0.19840497	-9.0233333	25.197108	0	387.26800936114734
75.857758	0.00036307805	0.08	7235.0125	387.33604	-0.56450695	-0.19860047	-0.19847664	-8.2807675	22.991611	0	394.25563804754364
75.857758	0.00039810717	0.08	6605.0864	354.02654	-0.55706338	-0.19867898	-0.19854319	-7.6028851	20.980182	0	401.2443562539197
75.857758	0.00043651583	0.08	6030.5879	323.63989	-0.54961901	-0.19875503	-0.19860614	-6.9839944	19.145743	0	408.2340967073966
75.857758	0.00047863009	0.08	5506.64	295.91888	-0.54217377	-0.19883004	-0.1986668	-6.4189048	17.47272	0	415.22482671110015
75.857758	0.00052480746	0.08	5028.7947	270.62897	-0.53472758	-0.19890532	-0.19872632	-5.9028822	15.946909	0	422.2165349902461
75.857758	0.00057543994	0.08	4592.9956	247.55621	-0.52728036	-0.19898204	-0.19878578	-5.4316092	14.555355	0	429.20921553161617
75.857758	0.00063095734	0.08	4195.5431	226.50552	-0.519832	-0.19906132	-0.19884612	-5.0011482	13.286245	0	436.2029010320847
75.857758	0.00069183097	0.08	3833.0631	207.29897	-0.51238238	-0.1991442	-0.19890823	-4.6079081	12.128804	0	443.19763734244054
75.857758	0.00075857758	0.08	3502.4784	189.77427	-0.5049314	-0.1992317	-0.19897297	-4.2486138	11.073206	0	450.19345377712284
75.857758	0.00083176377	0.08	3200.9827	173.78345	-0.4974789	-0.19932484	-0.19904115	-3.9202783	10.110489	0	457.1904397827529
75.857758	0.00091201084	0.08	2926.0166	159.19152	-0.49002473	-0.19942462	-0.19911355	-3.6201774	9.23248	0	464.18867766525506
75.857758	0.001	0.08	2675.2457	145.87539	-0.48256871	-0.19953207	-0.19919099	-3.3458267	8.4317253	0	471.18827491090576
75.857758	0.0010964782	0.08	2446.5415	133.72279	-0.47511066	-0.19964825	-0.19927427	-3.0949603	7.7014268	0	478.18934050928544
75.857758	0.0012022644	0.08	2237.9622	122.63135	-0.46765035	-0.19977429	-0.19936423	-2.8655118	7.0353848	0	485.1920274216331
75.857758	0.0013182567	0.08	2047.7374	112.50768	-0.46018754	-0.19991134	-0.19946172	-2.6555963	6.4279448	0	492.19649725318885
75.857758	0.0014454398	0.08	1874.2522	103.26662	-0.45272196	-0.20006067	-0.19956767	-2.4634951	5.8739501	0	499.20293378293525
75.857758	0.0015848932	0.08	1716.0339	94.830512	-0.44525331	-0.20022359	-0.19968303	-2.2876404	5.3686977	0	506.21154747351056
75.857758	0.0017378008	0.08	1571.7394	87.128509	-0.43778124	-0.20040156	-0.19980885	-2.1266026	4.9078983	0	513.2225882492982
75.857758	0.0019054607	0.08	1440.1438	80.096014	-0.43030539	-0.20059613	-0.19994623	-1.9790777	4.4876402	0	520.236311672073
75.857758	0.0020892961	0.08	1320.13	73.674108	-0.42282532	-0.20080897	-0.20009637	-1.8438764	4.1043556	0	527.2530409523156
75.857758	0.0022908677	0.08	1210.6794	67.809056	-0.41534055	-0.20104191	-0.20026057	-1.7199141	3.7547908	0	534.2731293665975
75.857758	0.0025118864	0.08	1110.8629	62.451851	-0.40785056	-0.20129693	-0.20044021	-1.6062015	3.4359783	0	541.2969617608861
75.857758	0.0027542287	0.08	1019.8331	57.557796	-0.40035474	-0.2015762	-0.20063682	-1.5018364	3.1452117	0	548.324996267246
75.857758	0.0030199517	0.08	936.81749	53.086127	-0.39285241	-0.20188205	-0.20085205	-1.405996	2.8800227	0	555.3577477674892
75.857758	0.0033113112	0.08	861.11139	48.999666	-0.38534283	-0.20221706	-0.20108768	-1.3179296	2.6381601	0	562.3957777458685
75.857758	0.0036307805	0.08	792.07229	45.264503	-0.37782513	-0.20258399	-0.20134566	-1.2369527	2.4175709	0	569.4397570520441
75.857758	0.0039810717	0.08	729.11427	41.849714	-0.37029838	-0.20298589	-0.20162809	-1.1624409	2.2163825	0	576.4904016348125
75.857758	0.0043651583	0.08	671.70305	38.72709	-0.36276149	-0.20342603	-0.20193724	-1.0938247	2.0328872	0	583.5485649953379
75.857758	0.0047863009	0.08	619.35146	35.870908	-0.35521328	-0.20390798	-0.20227558	-1.0305847	1.8655275	0	590.6151701626197
75.857758	0.0052480746	0.08	571.61533	33.257701	-0.34765242	-0.20443562	-0.20264574	-0.97224681	1.7128827	0	597.6912690740243
75.857758	0.0057543994	0.08	528.08968	30.866069	-0.34007742	-0.20501312	-0.20305057	-0.91837889	1.5736573	0	604.778047461023
75.857758	0.0063095734	0.08	488.40529	28.676493	-0.33248662	-0.20564497	-0.20349311	-0.86858653	1.4466696	0	611.8768364998039
75.857758	0.0069183097	0.08	452.22557	26.671166	-0.32487822	-0.20633602	-0.20397658	-0.82250993	1.330842	0	618.9890853759628
75.857758	0.0075857758	0.08	419.24371	24.833849	-0.3172502	-0.20709141	-0.20450438	-0.77982082	1.2251915	0	626.1164364497314
75.857758	0.0083176377	0.08	389.18004	23.149727	-0.30960038	-0.20791664	-0.20508008	-0.74021964	1.1288216	0	633.2606696337087
75.857758	0.0091201084	0.08	361.77966	21.605288	-0.30192638	-0.2088175	-0.20570735	-0.703433	1.0409147	0	640.4237452370412
75.857758	0.01	0.08	336.81024	20.188203	-0.29422567	-0.20980004	-0.20638993	-0.66921139	0.96072507	0	647.6077592421115
75.857758	0.010964782	0.08	314.06003	18.887228	-0.28649555	-0.21087053	-0.20713156	-0.63732705	0.88757245	0	654.8149673574119
75.857758	0.012022644	0.08	293.33601	17.692101	-0.27873324	-0.21203537	-0.20793585	-0.60757205	0.82083647	0	662.0477102281423
75.857758	0.013182567	0.08	274.46222	16.593464	-0.27093588	-0.21330094	-0.20880614	-0.57975652	0.75995122	0	669.308423959342
75.857758	0.014454398	0.08	257.27817	15.582774	-0.26310065	-0.21467348	-0.20974535	-0.55370707	0.70440053	0	676.5995386428327
75.857758	0.015848932	0.08	241.63744	14.652238	-0.25522486	-0.21615889	-0.21075571	-0.52926535	0.65371349	0	683.9234140909472
75.857758	0.017378008	0.08	227.40631	13.794743	-0.24730611	-0.21776239	-0.21183846	-0.50628671	0.60746049	0	691.2822120556425
75.857758	0.019054607	0.08	214.46255	13.003798	-0.23934239	-0.21948827	-0.21299353	-0.48463907	0.56524951	0	698.6778263248386
75.857758	0.020892961	0.08	202.69427	12.273476	-0.2313323	-0.22133945	-0.21421905	-0.46420178	0.52672277	0	706.1117128490015
75.857758	0.022908677	0.08	191.99888	11.598369	-0.22327524	-0.22331702	-0.21551089	-0.44486472	0.49155363	0	713.5847457997331
75.857758	0.025118864	0.08	182.28218	10.973536	-0.21517152	-0.22541969	-0.21686208	-0.4265274	0.45944377	0	721.0971578134138
75.857758	0.027542287	0.08	173.45757	10.394466	-0.20702252	-0.22764328	-0.21826219	-0.40909819	0.43012061	0	728.6484362631887
75.857758	0.030199517	0.08	165.44538	9.8570398	-0.1988307	-0.22998004	-0.21969672	-0.39249358	0.40333498	0	736.2373597141028
75.857758	0.033113112	0.08	158.17248	9.3574918	-0.19059943	-0.23241817	-0.22114646	-0.37663759	0.37885893	0	743.8622057549566
75.857758	0.036307805	0.08	151.57202	8.8923819	-0.18233267	-0.23494125	-0.22258697	-0.36146106	0.35648385	0	751.5210907451363
75.857758	0.039810717	0.08	145.58351	8.4585656	-0.17403431	-0.23752792	-0.22398817	-0.34690109	0.33601875	0	759.2126207454887
75.857758	0.043651583	0.08	140.15312	8.0531679	-0.16570723	-0.24015174	-0.22531416	-0.3329004	0.31728881	0	766.9367882394911
75.857758	0.047863009	0.08	135.23426	7.6735595	-0.15735196	-0.24278132	-0.22652337	-0.31940662	0.30013413	0	774.6962198760357
75.857758	0.052480746	0.08	130.78844	7.3173358	-0.14896503	-0.24538093	-0.22756903	-0.30637155	0.28440874	0	782.4976914246006
75.857758	0.057543994	0.08	126.78615	6.982297	-0.14053706	-0.24791154	-0.22840033	-0.29375036	0.26997987	0	790.3538351534038
75.857758	0.063095734	0.08	123.20781	6.6664309	-0.13205071	-0.25033261	-0.22896406	-0.28150061	0.25672752	0	798.2849426673957
75.857758	0.069183097	0.08	120.04444	6.3678973	-0.12347876	-0.25260455	-0.2292072	-0.26958127	0.24454413	0	806.3205741957923
75.857758	0.075857758	0.08	117.2978	6.0850145	-0.11478261	-0.25469206	-0.22908022	-0.25795165	0.23333462	0	814.5007198948464
75.857758	0.083176377	0.08	114.97989	5.8162474	-0.10591149	-0.2565682	-0.22854124	-0.24657041	0.22301639	0	822.8762294171257
75.857758	0.091201084	0.08	113.11138	5.5601974	-0.096802775	-0.25821889	-0.22756064	-0.23539455	0.21351952	0	831.5081694367278
75.857758	0.1	0.08	111.71929	5.3155948	-0.08738341	-0.25964734	-0.22612561	-0.22437875	0.20478682	0	840.4661427668675
75.857758	0.10964782	0.08	110.83408	5.081293	-0.077572184	-0.26087738	-0.22424373	-0.21347483	0.19677391	0	849.8258826967552
75.857758	0.12022644	0.08	110.48704	4.8562655	-0.067282191	-0.26195506	-0.22194472	-0.20263155	0.18944912	0	859.666809182122
75.857758	0.13182567	0.08	110.70889	4.6396057	-0.056422381	-0.2629476	-0.21927983	-0.19179466	0.18279353	0	870.0706174301504
75.857758	0.14454398	0.08	111.53043	4.4305297	-0.044897103	-0.26394015	-0.21631885	-0.18090689	0.17680112	0	881.1219320248712
75.857758	0.15848932	0.08	112.98573	4.2283834	-0.032602981	-0.26503086	-0.21314567	-0.16990783	0.17147948	0	892.9115758629288
75.857758	0.17378008	0.08	115.11737	4.0326526	-0.019423131	-0.26632563	-0.20985342	-0.15873335	0.16685122	0	905.5423689630095
75.857758	0.19054607	0.08	117.98281	3.842977	-0.00521958	-0.2679335	-0.20654031	-0.14731449	0.16295623	0	919.1365639981063
75.857758	0.20892961	0.08	121.6604	3.6591657	0.010174659	-0.26996301	-0.20330638	-0.13557568	0.15985466	0	933.843536637911
75.857758	0.22908677	0.08	126.25338	3.4812114	0.026961883	-0.27251944	-0.20025108	-0.12343244	0.15763039	0	949.8458829521079
75.857758	0.25118864	0.08	131.89002	3.3092978	0.045382146	-0.27570206	-0.19747072	-0.11078895	0.15639407	0	967.3619101981169
75.857758	0.27542287	0.08	138.71825	3.1437921	0.065709509	-0.27960063	-0.19505505	-0.097535771	0.1562848	0	986.6423705161117
75.857758	0.30199517	0.08	146.89368	2.9852139	0.08824029	-0.28429059	-0.19308234	-0.083548463	0.15746897	0	1007.9597908490779
75.857758	0.33113112	0.08	156.5612	2.8341742	0.11327288	-0.2898271	-0.19161315	-0.068687688	0.16013525	0	1031.5899770351598
75.857758	0.36307805	0.08	167.8326	2.6912856	0.1410813	-0.29623916	-0.19068405	-0.052801335	0.16448519	0	1057.7876409187415
75.857758	0.39810717	0.08	180.76508	2.5570575	0.17188762	-0.3035255	-0.19030299	-0.035728856	0.17072048	0	1086.7608342135352
75.857758	0.43651583	0.08	195.34664	2.4318004	0.20584016	-0.31165419	-0.1904483	-0.01730741	0.17902904	0	1118.6505420827436
75.857758	0.47863009	0.08	211.4931	2.3155659	0.24300361	-0.3205667	-0.19107215	0.0026210998	0.18957312	0	1153.5211401617132
75.857758	0.52480746	0.08	229.05771	2.2081361	0.28336309	-0.33018563	-0.19210774	0.024203329	0.20248178	0	1191.3636687552666
75.857758	0.57543994	0.08	247.85008	2.1090614	0.32683977	-0.34042422	-0.19347831	0.047569228	0.21784867	0	1232.1098316097646
75.857758	0.63095734	0.08	267.6588	2.0177282	0.37331246	-0.35119539	-0.19510577	0.072828871	0.23573435	0	1275.6516324530953
75.857758	0.69183097	0.08	288.27222	1.9334345	0.42263928	-0.36241875	-0.19691741	0.10007144	0.25617129	0	1321.8612310171288
75.857758	0.75857758	0.08	309.49425	1.8554553	0.47467557	-0.37402507	-0.19885022	0.12936604	0.27917007	0	1370.6074459393494
75.857758	0.83176377	0.08	331.15407	1.783091	0.52928649	-0.38595852	-0.20085296	0.16076372	0.30472526	0	1421.7674376942464
75.857758	0.91201084	0.08	353.11055	1.7156963	0.58635445	-0.39817707	-0.20288658	0.19430022	0.33282052	0	1475.2336579944672
75.857758	1.	0.08	375.25276	1.6526943	0.64578259	-0.41065192	-0.20492363	0.22999896	0.36343267	0	1530.9171638257187
75.857758	1.0964782	0.08	397.49802	1.593579	0.7074955	-0.4233662	-0.20694709	0.26787387	0.39653478	0	1588.7483818771386
75.857758	1.2022644	0.08	419.78879	1.5379122	0.77143837	-0.43631349	-0.2089489	0.30793204	0.43209858	0	1648.6764204036303
75.857758	1.3182567	0.08	442.08896	1.4853171	0.83757525	-0.44949615	-0.21092846	0.350176	0.47009615	0	1710.6675471299986
75.857758	1.4454398	0.08	464.38029	1.43547	0.90588706	-0.46292375	-0.21289114	0.39460564	0.51050129	0	1774.7034315120911
75.857758	1.5848932	0.08	486.65912	1.3880935	0.97636953	-0.47661154	-0.21484683	0.44121981	0.55329043	0	1840.779318221758
75.857758	1.7378008	0.08	508.93345	1.3429493	1.0490313	-0.49057907	-0.21680871	0.4900176	0.59844341	0	1908.9023344259194
75.857758	1.9054607	0.08	531.22052	1.2998323	1.1238924	-0.50484901	-0.21879218	0.54099935	0.645944	0	1979.0901420740229
75.857758	2.0892961	0.08	553.54477	1.2585653	1.2009824	-0.51944618	-0.22081385	0.59416744	0.69578031	0	2051.369275619032
75.857758	2.2908677	0.08	575.93611	1.2189951	1.2803396	-0.53439665	-0.22289089	0.64952694	0.74794505	0	2125.774429826887
75.857758	2.5118864	0.08	598.42864	1.180989	1.3620101	-0.54972719	-0.22504041	0.70708609	0.80243569	0	2202.3476325831716
75.857758	2.7542287	0.08	621.05951	1.1444313	1.4460462	-0.56546478	-0.22727906	0.7668566	0.85925463	0	2281.1367716546447
75.857758	3.0199517	0.08	643.86804	1.1092212	1.5325066	-0.58163625	-0.22962275	0.82885393	0.91840921	0	2362.195803648573
75.857758	3.3113112	0.08	666.89507	1.0752705	1.6214555	-0.59826816	-0.2320865	0.8930975	0.9799117	0	2445.583919678703
75.857758	3.6307805	0.08	690.18241	1.0425017	1.7129618	-0.61538659	-0.23468436	0.95961078	1.0437793	0	2531.364799726196
75.857758	3.9810717	0.08	713.77244	1.0108465	1.8070994	-0.63301718	-0.23742935	1.0284213	1.1100341	0	2619.6068990191484
75.857758	4.3651583	0.08	737.70779	0.98024437	1.9039462	-0.65118514	-0.24033358	1.099561	1.178703	0	2710.382499447414
75.857758	4.7863009	0.08	762.03111	0.95064154	2.0035847	-0.66991522	-0.2434082	1.1730656	1.2498176	0	2803.7682770600754
75.857758	5.2480746	0.08	786.78492	0.92198984	2.1061008	-0.6892319	-0.2466636	1.2489753	1.3234141	0	2899.8441595539794
75.857758	5.7543994	0.08	812.0115	0.89424596	2.2115848	-0.70915936	-0.25010939	1.3273344	1.3995332	0	2998.694267342389
75.857758	6.3095734	0.08	837.75283	0.86737071	2.3201304	-0.72972167	-0.25375457	1.4081913	1.4782203	0	3100.405961211548
75.857758	6.9183097	0.08	864.05055	0.84132842	2.4318351	-0.75094282	-0.25760761	1.4915985	1.5595249	0	3205.0702121336
75.857758	7.5857758	0.08	890.94597	0.81608641	2.5468	-0.77284682	-0.26167648	1.5776126	1.643501	0	3312.7814110985623
75.857758	8.3176377	0.08	918.48007	0.79161459	2.6651301	-0.79545781	-0.26596881	1.6662941	1.7302067	0	3423.637638957496
75.857758	9.1201084	0.08	946.69355	0.76788507	2.7869338	-0.81880015	-0.27049194	1.7577077	1.8197045	0	3537.740192881568
75.857758	10.	0.08	975.62686	0.74487185	2.9123233	-0.84289846	-0.27525296	1.851922	1.9120607	0	3655.19395918158