8.3176377	1.e-12	0.12	3.7552135e8	1.8063731e8	-0.20629156	-0.018996707	-0.018996707	-399675.82	1.199442e6	0	743.5991105071976
8.3176377	1.0964782e-12	0.12	3.4247954e8	1.6474319e8	-0.20547621	-0.018996707	-0.018996707	-364508.7	1.0939041e6	0	744.3651851153201
8.3176377	1.2022644e-12	0.12	3.1234506e8	1.5024758e8	-0.20466085	-0.018996707	-0.018996707	-332435.9	997652.43	0	745.1312691190961
8.3176377	1.3182567e-12	0.12	2.8486208e8	1.3702742e8	-0.20384549	-0.018996707	-0.018996707	-303185.16	909869.83	0	745.8973531228723
8.3176377	1.4454398e-12	0.12	2.597973e8	1.2497049e8	-0.20303013	-0.018996708	-0.018996707	-276508.17	829811.14	0	746.6634371266481
8.3176377	1.5848932e-12	0.12	2.3693796e8	1.1397445e8	-0.20221477	-0.018996707	-0.018996707	-252178.47	756796.77	0	747.4295211304242
8.3176377	1.7378008e-12	0.12	2.1608999e8	1.0394593e8	-0.20139941	-0.018996707	-0.018996707	-229989.52	690206.86	0	748.1956051342003
8.3176377	1.9054607e-12	0.12	1.9707641e8	9.4799821e7	-0.20058405	-0.018996707	-0.018996707	-209752.95	629476.13	0	748.9616891379761
8.3176377	2.0892961e-12	0.12	1.7973582e8	8.6458466e7	-0.19976869	-0.018996707	-0.018996707	-191296.98	574089.06	0	749.7277731417522
8.3176377	2.2908677e-12	0.12	1.6392102e8	7.885106e7	-0.19895334	-0.018996707	-0.018996707	-174464.94	523575.45	0	750.4938477498747
8.3176377	2.5118864e-12	0.12	1.4949775e8	7.1913023e7	-0.19813798	-0.018996707	-0.018996707	-159113.93	477506.48	0	751.2599317536506
8.3176377	2.7542287e-12	0.12	1.3634357e8	6.558546e7	-0.19732262	-0.018996707	-0.018996707	-145113.65	435491.09	0	752.0260157574266
8.3176377	3.0199517e-12	0.12	1.2434681e8	5.9814653e7	-0.19650726	-0.018996707	-0.018996707	-132345.24	397172.6	0	752.7920997612027
8.3176377	3.3113112e-12	0.12	1.1340564e8	5.4551613e7	-0.1956919	-0.018996707	-0.018996707	-120700.31	362225.71	0	753.5581837649786
8.3176377	3.6307805e-12	0.12	1.0342717e8	4.9751665e7	-0.19487654	-0.018996707	-0.018996707	-110080.01	330353.78	0	754.3242677687547
8.3176377	3.9810717e-12	0.12	9.4326705e7	4.537406e7	-0.19406118	-0.018996707	-0.018996707	-100394.18	301286.23	0	755.0903517725307
8.3176377	4.3651583e-12	0.12	8.6026978e7	4.1381636e7	-0.19324583	-0.018996707	-0.018996707	-91560.595	274776.3	0	755.8564263806531
8.3176377	4.7863009e-12	0.12	7.8457538e7	3.7740503e7	-0.19243047	-0.018996707	-0.018996707	-83504.273	250598.97	0	756.6225103844291
8.3176377	5.2480746e-12	0.12	7.1554126e7	3.441975e7	-0.19161511	-0.018996707	-0.018996707	-76156.819	228548.98	0	757.3885943882052
8.3176377	5.7543994e-12	0.12	6.5258139e7	3.1391187e7	-0.19079975	-0.018996707	-0.018996707	-69455.861	208439.15	0	758.1546783919812
8.3176377	6.3095734e-12	0.12	5.9516131e7	2.8629105e7	-0.18998439	-0.018996707	-0.018996707	-63344.515	190098.76	0	758.9207623957572
8.3176377	6.9183097e-12	0.12	5.4279357e7	2.6110056e7	-0.18916903	-0.018996707	-0.018996707	-57770.901	173372.13	0	759.6868463995332
8.3176377	7.5857758e-12	0.12	4.9503362e7	2.3812656e7	-0.18835367	-0.018996707	-0.018996707	-52687.705	158117.27	0	760.4529304033091
8.3176377	8.3176377e-12	0.12	4.5147604e7	2.1717403e7	-0.18753831	-0.018996707	-0.018996707	-48051.775	144204.66	0	761.2190144070853
8.3176377	9.1201084e-12	0.12	4.1175105e7	1.9806508e7	-0.18672296	-0.018996707	-0.018996707	-43823.756	131516.22	0	761.9850890152077
8.3176377	1.e-11	0.12	3.7552143e7	1.8063752e7	-0.1859076	-0.018996707	-0.018996707	-39967.757	119944.22	0	762.7511730189836
8.3176377	1.0964782e-11	0.12	3.4247962e7	1.647434e7	-0.18509224	-0.018996707	-0.018996707	-36451.044	109390.43	0	763.5172570227596
8.3176377	1.2022644e-11	0.12	3.1234513e7	1.5024778e7	-0.18427688	-0.018996708	-0.018996707	-33243.764	99765.254	0	764.2833410265357
8.3176377	1.3182567e-11	0.12	2.8486215e7	1.3702763e7	-0.18346152	-0.018996707	-0.018996707	-30318.689	90986.995	0	765.0494250303116
8.3176377	1.4454398e-11	0.12	2.5979738e7	1.249707e7	-0.18264616	-0.018996708	-0.018996707	-27650.99	82981.127	0	765.8155090340877
8.3176377	1.5848932e-11	0.12	2.3693803e7	1.1397466e7	-0.1818308	-0.018996707	-0.018996707	-25218.019	75679.688	0	766.5815930378637
8.3176377	1.7378008e-11	0.12	2.1609006e7	1.0394614e7	-0.18101545	-0.018996708	-0.018996707	-22999.122	69020.697	0	767.3476676459862
8.3176377	1.9054607e-11	0.12	1.9707649e7	9.4800027e6	-0.18020009	-0.018996707	-0.018996707	-20975.465	62947.626	0	768.1137516497621
8.3176377	2.0892961e-11	0.12	1.797359e7	8.6458672e6	-0.17938473	-0.018996707	-0.018996707	-19129.868	57408.918	0	768.8798356535383
8.3176377	2.2908677e-11	0.12	1.639211e7	7.8851265e6	-0.17856937	-0.018996707	-0.018996706	-17446.662	52357.557	0	769.645919770062
8.3176377	2.5118864e-11	0.12	1.4949782e7	7.1913227e6	-0.17775401	-0.018996708	-0.018996706	-15911.561	47750.66	0	770.4120037738379
8.3176377	2.7542287e-11	0.12	1.3634364e7	6.5585662e6	-0.17693865	-0.018996707	-0.018996706	-14511.532	43549.121	0	771.1780877776141
8.3176377	3.0199517e-11	0.12	1.2434689e7	5.9814853e6	-0.17612329	-0.018996708	-0.018996706	-13234.69	39717.271	0	771.94417178139
8.3176377	3.3113112e-11	0.12	1.1340572e7	5.4551814e6	-0.17530793	-0.018996707	-0.018996706	-12070.197	36222.583	0	772.710255785166
8.3176377	3.6307805e-11	0.12	1.0342725e7	4.9751865e6	-0.17449258	-0.018996707	-0.018996706	-11008.166	33035.39	0	773.4763303932885
8.3176377	3.9810717e-11	0.12	9.432678e6	4.5374259e6	-0.17367722	-0.018996707	-0.018996706	-10039.582	30128.635	0	774.2424143970646
8.3176377	4.3651583e-11	0.12	8.6027053e6	4.1381834e6	-0.17286186	-0.018996708	-0.018996706	-9156.2231	27477.643	0	775.0084984008404
8.3176377	4.7863009e-11	0.12	7.8457613e6	3.77407e6	-0.1720465	-0.018996708	-0.018996705	-8350.5901	25059.909	0	775.7745825173644
8.3176377	5.2480746e-11	0.12	7.15542e6	3.4419946e6	-0.17123114	-0.018996708	-0.018996705	-7615.8439	22854.91	0	776.5406665211405
8.3176377	5.7543994e-11	0.12	6.5258214e6	3.1391383e6	-0.17041578	-0.018996708	-0.018996705	-6945.7475	20843.927	0	777.3067505249163
8.3176377	6.3095734e-11	0.12	5.9516206e6	2.86293e6	-0.16960042	-0.018996707	-0.018996705	-6334.6122	19009.888	0	778.0728345286924
8.3176377	6.9183097e-11	0.12	5.4279432e6	2.611025e6	-0.16878507	-0.018996708	-0.018996705	-5777.25	17337.225	0	778.838909136815
8.3176377	7.5857758e-11	0.12	4.9503438e6	2.3812849e6	-0.16796971	-0.018996708	-0.018996704	-5268.9297	15811.739	0	779.6049932533388
8.3176377	8.3176377e-11	0.12	4.5147679e6	2.1717595e6	-0.16715435	-0.018996708	-0.018996704	-4805.3359	14420.478	0	780.3710772571146
8.3176377	9.1201084e-11	0.12	4.117518e6	1.98067e6	-0.16633899	-0.018996708	-0.018996704	-4382.5333	13151.633	0	781.1371612608907
8.3176377	1.e-10	0.12	3.7552218e6	1.8063943e6	-0.16552363	-0.018996708	-0.018996703	-3996.9327	11994.434	0	781.9032453774145
8.3176377	1.0964782e-10	0.12	3.4248037e6	1.647453e6	-0.16470827	-0.018996708	-0.018996703	-3645.2606	10939.054	0	782.6693293811906
8.3176377	1.2022644e-10	0.12	3.1234588e6	1.5024968e6	-0.16389291	-0.018996708	-0.018996703	-3324.5319	9976.5375	0	783.4354133849665
8.3176377	1.3182567e-10	0.12	2.848629e6	1.3702951e6	-0.16307755	-0.018996708	-0.018996702	-3032.0237	9098.7115	0	784.2014975014904
8.3176377	1.4454398e-10	0.12	2.5979813e6	1.2497258e6	-0.1622622	-0.018996708	-0.018996702	-2765.253	8298.1247	0	784.9675721096129
8.3176377	1.5848932e-10	0.12	2.3693878e6	1.1397652e6	-0.16144684	-0.018996708	-0.018996701	-2521.9551	7567.9808	0	785.7336562261368
8.3176377	1.7378008e-10	0.12	2.1609081e6	1.03948e6	-0.16063148	-0.018996708	-0.018996701	-2300.0648	6902.0817	0	786.4997402299128
8.3176377	1.9054607e-10	0.12	1.9707724e6	948018.77	-0.15981612	-0.018996708	-0.0189967	-2097.6983	6294.7745	0	787.2658243464366
8.3176377	2.0892961e-10	0.12	1.7973665e6	864605.13	-0.15900076	-0.018996708	-0.018996699	-1913.1378	5740.9037	0	788.0319084629605
8.3176377	2.2908677e-10	0.12	1.6392184e6	788530.98	-0.1581854	-0.018996708	-0.018996698	-1744.8166	5235.7676	0	788.7979925794842
8.3176377	2.5118864e-10	0.12	1.4949857e6	719150.52	-0.15737004	-0.018996708	-0.018996698	-1591.3057	4775.078	0	789.5640765832603
8.3176377	2.7542287e-10	0.12	1.3634439e6	655874.78	-0.15655469	-0.018996708	-0.018996697	-1451.3021	4354.924	0	790.3301513041306
8.3176377	3.0199517e-10	0.12	1.2434764e6	598166.62	-0.15573933	-0.018996708	-0.018996696	-1323.6172	3971.7391	0	791.0962354206544
8.3176377	3.3113112e-10	0.12	1.1340647e6	545536.14	-0.15492397	-0.018996708	-0.018996694	-1207.1671	3622.2703	0	791.8623196499261
8.3176377	3.6307805e-10	0.12	1.03428e6	497536.56	-0.15410861	-0.018996709	-0.018996693	-1100.9633	3303.5509	0	792.62840376645
8.3176377	3.9810717e-10	0.12	943275.29	453760.42	-0.15329325	-0.018996709	-0.018996692	-1004.1041	3012.8754	0	793.3944878829739
8.3176377	4.3651583e-10	0.12	860278.02	413836.09	-0.15247789	-0.018996709	-0.01899669	-915.76752	2747.7762	0	794.1605721122455
8.3176377	4.7863009e-10	0.12	784583.61	377424.67	-0.15166253	-0.018996709	-0.018996689	-835.20349	2506.0028	0	794.9266562287694
8.3176377	5.2480746e-10	0.12	715549.49	344217.05	-0.15084718	-0.018996709	-0.018996687	-761.72814	2285.5029	0	795.6927310623875
8.3176377	5.7543994e-10	0.12	652589.62	313931.33	-0.15003182	-0.018996709	-0.018996685	-694.71776	2084.4046	0	796.4588152916592
8.3176377	6.3095734e-10	0.12	595169.54	286310.41	-0.14921646	-0.01899671	-0.018996683	-633.60348	1901.0007	0	797.224899520931
8.3176377	6.9183097e-10	0.12	542801.81	261119.84	-0.1484011	-0.01899671	-0.01899668	-577.86655	1733.7345	0	797.9909838629503
8.3176377	7.5857758e-10	0.12	495041.86	238145.75	-0.14758574	-0.01899671	-0.018996678	-527.03378	1581.1858	0	798.757068092222
8.3176377	8.3176377e-10	0.12	451484.27	217193.12	-0.14677038	-0.01899671	-0.018996675	-480.67366	1442.0597	0	799.5231524342418
8.3176377	9.1201084e-10	0.12	411759.29	198084.09	-0.14595502	-0.018996711	-0.018996672	-438.39267	1315.1753	0	800.2892367762612
8.3176377	1.e-9	0.12	375529.67	180656.44	-0.14513966	-0.018996711	-0.018996668	-399.83188	1199.4553	0	801.0553212310285
8.3176377	1.0964782e-9	0.12	342487.85	164762.22	-0.14432431	-0.018996711	-0.018996665	-364.66394	1093.9174	0	801.8213961773946
8.3176377	1.2022644e-9	0.12	312353.37	150266.52	-0.14350895	-0.018996712	-0.01899666	-332.59033	997.66569	0	802.5874807449097
8.3176377	1.3182567e-9	0.12	284870.39	137046.27	-0.14269359	-0.018996712	-0.018996656	-303.33878	909.88309	0	803.3535651996771
8.3176377	1.4454398e-9	0.12	259805.61	124989.25	-0.14187823	-0.018996713	-0.018996651	-276.66097	829.82439	0	804.1196497671923
8.3176377	1.5848932e-9	0.12	236946.27	113993.11	-0.14106287	-0.018996713	-0.018996646	-252.33045	756.81002	0	804.8857343347074
8.3176377	1.7378008e-9	0.12	216098.3	103964.51	-0.14024751	-0.018996714	-0.01899664	-230.14068	690.2201	0	805.6518190149706
8.3176377	1.9054607e-9	0.12	197084.72	94818.301	-0.13943215	-0.018996714	-0.018996633	-209.9033	629.48938	0	806.4179038079815
8.3176377	2.0892961e-9	0.12	179744.13	86476.854	-0.1386168	-0.018996715	-0.018996626	-191.44652	574.1023	0	807.183979205339
8.3176377	2.2908677e-9	0.12	163929.33	78869.357	-0.13780144	-0.018996715	-0.018996618	-174.61366	523.5887	0	807.9500641110975
8.3176377	2.5118864e-9	0.12	149506.06	71931.229	-0.13698608	-0.018996716	-0.018996609	-159.26184	477.51973	0	808.7161491296042
8.3176377	2.7542287e-9	0.12	136351.88	65603.572	-0.13617072	-0.018996717	-0.0189966	-145.26074	435.50434	0	809.4822341481108
8.3176377	3.0199517e-9	0.12	124355.12	59832.672	-0.13535536	-0.018996718	-0.01899659	-132.49152	397.18584	0	810.2483192793652
8.3176377	3.3113112e-9	0.12	113413.95	54569.542	-0.13454	-0.018996719	-0.018996578	-120.84578	362.23896	0	811.0144046361154
8.3176377	3.6307805e-9	0.12	103435.48	49769.501	-0.13372464	-0.01899672	-0.018996566	-110.22466	330.36702	0	811.7804899928653
8.3176377	3.9810717e-9	0.12	94335.015	45391.804	-0.13290929	-0.018996722	-0.018996552	-100.53801	301.29948	0	812.5465661794577
8.3176377	4.3651583e-9	0.12	86035.288	41399.288	-0.13209393	-0.018996723	-0.018996537	-91.703617	274.78955	0	813.3126518744513
8.3176377	4.7863009e-9	0.12	78465.847	37758.063	-0.13127857	-0.018996724	-0.018996521	-83.64648	250.61222	0	814.0787376821928
8.3176377	5.2480746e-9	0.12	71562.435	34437.218	-0.13046321	-0.018996726	-0.018996503	-76.298212	228.56223	0	814.8448237154299
8.3176377	5.7543994e-9	0.12	65266.448	31408.563	-0.12964785	-0.018996728	-0.018996483	-69.596439	208.45239	0	815.6109099741628
8.3176377	6.3095734e-9	0.12	59524.44	28646.389	-0.12883249	-0.01899673	-0.018996461	-63.484279	190.11201	0	816.3769964583912
8.3176377	6.9183097e-9	0.12	54287.667	26127.248	-0.12801713	-0.018996732	-0.018996437	-57.909851	173.38538	0	817.1430831681155
8.3176377	7.5857758e-9	0.12	49511.672	23829.756	-0.12720178	-0.018996734	-0.018996411	-52.825839	158.13051	0	817.9091607076818
8.3176377	8.3176377e-9	0.12	45155.913	21734.41	-0.12638642	-0.018996737	-0.018996383	-48.189095	144.21791	0	818.6752478683975
8.3176377	9.1201084e-9	0.12	41183.414	19823.424	-0.12557106	-0.01899674	-0.018996352	-43.960261	131.52946	0	819.4413353673565
8.3176377	1.e-8	0.12	37560.452	18080.576	-0.1247557	-0.018996743	-0.018996317	-40.103448	119.95746	0	820.2074233173071
8.3176377	1.0964782e-8	0.12	34256.271	16491.072	-0.12394034	-0.018996746	-0.018996279	-36.585921	109.40367	0	820.9735116055011
8.3176377	1.2022644e-8	0.12	31242.822	15041.418	-0.12312498	-0.01899675	-0.018996238	-33.377825	99.778501	0	821.7396002319384
8.3176377	1.3182567e-8	0.12	28494.525	13719.311	-0.12230963	-0.018996754	-0.018996193	-30.451936	91.000241	0	822.5056799137141
8.3176377	1.4454398e-8	0.12	25988.047	12513.526	-0.12149427	-0.018996759	-0.018996143	-27.783422	82.994373	0	823.2717695548821
8.3176377	1.5848932e-8	0.12	23702.113	11413.83	-0.12067891	-0.018996764	-0.018996089	-25.349637	75.692935	0	824.0378596470415
8.3176377	1.7378008e-8	0.12	21617.315	10410.886	-0.11986355	-0.018996769	-0.018996029	-23.129926	69.033943	0	824.8039504156881
8.3176377	1.9054607e-8	0.12	19715.958	9496.1826	-0.11904819	-0.018996775	-0.018995964	-21.105454	62.960872	0	825.5700417480739
8.3176377	2.0892961e-8	0.12	17981.899	8661.955	-0.11823283	-0.018996782	-0.018995892	-19.259042	57.422164	0	826.3361338696944
8.3176377	2.2908677e-8	0.12	16400.419	7901.1224	-0.11741748	-0.018996789	-0.018995814	-17.575022	52.370803	0	827.1022172721487
8.3176377	2.5118864e-8	0.12	14958.092	7207.2266	-0.11660212	-0.018996797	-0.018995727	-16.039106	47.763906	0	827.8683110849868
8.3176377	2.7542287e-8	0.12	13642.674	6574.3781	-0.11578676	-0.018996806	-0.018995633	-14.638263	43.562367	0	828.63440568706
8.3176377	3.0199517e-8	0.12	12442.998	5997.2053	-0.1149714	-0.018996815	-0.018995529	-13.360607	39.730518	0	829.4005014166115
8.3176377	3.3113112e-8	0.12	11348.881	5470.8093	-0.11415604	-0.018996825	-0.018995415	-12.195298	36.23583	0	830.1665982736416
8.3176377	3.6307805e-8	0.12	10351.034	4990.7224	-0.11334069	-0.018996837	-0.018995291	-11.132453	33.048636	0	830.9326868624964
8.3176377	3.9810717e-8	0.12	9440.9874	4552.8697	-0.11252533	-0.018996849	-0.018995154	-10.163055	30.141881	0	831.6987863127267
8.3176377	4.3651583e-8	0.12	8611.0147	4153.5353	-0.11170997	-0.018996863	-0.018995004	-9.2788812	27.490889	0	832.4648872286791
8.3176377	4.7863009e-8	0.12	7854.0706	3789.3299	-0.11089461	-0.018996878	-0.01899484	-8.4724336	25.073155	0	833.2309897231012
8.3176377	5.2480746e-8	0.12	7163.7295	3457.1625	-0.11007926	-0.018996894	-0.01899466	-7.736873	22.868156	0	833.9970846258352
8.3176377	5.7543994e-8	0.12	6534.1308	3154.2141	-0.1092639	-0.018996912	-0.018994462	-7.065962	20.857173	0	834.763190953684
8.3176377	6.3095734e-8	0.12	5959.93	2877.9138	-0.10844854	-0.018996932	-0.018994246	-6.454012	19.023135	0	835.5292993109938
8.3176377	6.9183097e-8	0.12	5436.2527	2625.9168	-0.10763319	-0.018996954	-0.018994008	-5.8958354	17.350472	0	836.2954007531026
8.3176377	7.5857758e-8	0.12	4958.6532	2396.0847	-0.10681783	-0.018996978	-0.018993748	-5.3867004	15.824985	0	837.0615140713177
8.3176377	8.3176377e-8	0.12	4523.0773	2186.4673	-0.10600247	-0.018997004	-0.018993462	-4.9222921	14.433725	0	837.8276303209765
8.3176377	9.1201084e-8	0.12	4125.8275	1995.2858	-0.10518712	-0.018997032	-0.018993149	-4.4986749	13.16488	0	838.5937402191735
8.3176377	1.e-7	0.12	3763.5313	1820.9181	-0.10437176	-0.018997064	-0.018992806	-4.1122598	12.00768	0	839.3598628954593
8.3176377	1.0964782e-7	0.12	3433.1132	1661.8848	-0.1035564	-0.018997098	-0.018992429	-3.7597732	10.952301	0	840.1259894051717
8.3176377	1.2022644e-7	0.12	3131.7684	1516.8366	-0.10274105	-0.018997135	-0.018992017	-3.4382299	9.9897846	0	840.8921104654052
8.3176377	1.3182567e-7	0.12	2856.9386	1384.5429	-0.10192569	-0.018997177	-0.018991564	-3.1449071	9.1119586	0	841.6582455439536
8.3176377	1.4454398e-7	0.12	2606.2909	1263.8816	-0.10111034	-0.018997222	-0.018991068	-2.8773218	8.3113719	0	842.4243760750057
8.3176377	1.5848932e-7	0.12	2377.6975	1153.829	-0.10029498	-0.018997272	-0.018990524	-2.6332094	7.5812281	0	843.1905214136078
8.3176377	1.7378008e-7	0.12	2169.2178	1053.4517	-0.09947963	-0.018997326	-0.018989927	-2.4105045	6.9153291	0	843.956663332192
8.3176377	1.9054607e-7	0.12	1979.0821	961.89853	-0.098664277	-0.018997386	-0.018989273	-2.2073234	6.308022	0	844.7228144960991
8.3176377	2.0892961e-7	0.12	1805.6762	878.39289	-0.097848924	-0.018997452	-0.018988556	-2.0219484	5.7541514	0	845.4889727631204
8.3176377	2.2908677e-7	0.12	1647.5282	802.22674	-0.097033571	-0.018997523	-0.018987769	-1.8528125	5.2490154	0	846.2551389224907
8.3176377	2.5118864e-7	0.12	1503.2956	732.75428	-0.096218219	-0.018997602	-0.018986907	-1.6984871	4.7883259	0	847.0213125983835
8.3176377	2.7542287e-7	0.12	1371.7538	669.38655	-0.095402867	-0.018997689	-0.018985962	-1.5576688	4.3681722	0	847.7874956323476
8.3176377	3.0199517e-7	0.12	1251.7863	611.58639	-0.094587516	-0.018997783	-0.018984925	-1.4291693	3.9849874	0	848.5536880995475
8.3176377	3.3113112e-7	0.12	1142.3747	558.86392	-0.093772166	-0.018997887	-0.018983788	-1.3119046	3.6355188	0	849.3198909019663
8.3176377	3.6307805e-7	0.12	1042.5901	510.77234	-0.092956817	-0.018998001	-0.018982542	-1.2048862	3.3167997	0	850.0861050543347
8.3176377	3.9810717e-7	0.12	951.58543	466.90421	-0.092141469	-0.018998126	-0.018981175	-1.1072125	3.0261244	0	850.8523319096265
8.3176377	4.3651583e-7	0.12	868.58825	426.8879	-0.091326122	-0.018998263	-0.018979677	-1.0180612	2.7610255	0	851.6185725953202
8.3176377	4.7863009e-7	0.12	792.89392	390.38448	-0.090510775	-0.018998413	-0.018978034	-0.93668252	2.5192524	0	852.384829629451
8.3176377	5.2480746e-7	0.12	723.85989	357.08487	-0.08969543	-0.018998578	-0.018976232	-0.86239254	2.2987528	0	853.1511027113581
8.3176377	5.7543994e-7	0.12	660.90013	326.70717	-0.088880086	-0.018998758	-0.018974257	-0.79456749	2.0976548	0	853.9173943590765
8.3176377	6.3095734e-7	0.12	603.48016	298.99427	-0.088064744	-0.018998956	-0.018972091	-0.73263856	1.9142514	0	854.683705662502
8.3176377	6.9183097e-7	0.12	551.11255	273.71172	-0.087249404	-0.018999173	-0.018969716	-0.67608695	1.7469855	0	855.4500386510956
8.3176377	7.5857758e-7	0.12	503.35275	250.64565	-0.086434065	-0.018999411	-0.018967113	-0.62443948	1.5944373	0	856.2163964066322
8.3176377	8.3176377e-7	0.12	459.79531	229.60105	-0.085618727	-0.018999672	-0.018964258	-0.57726467	1.4553117	0	856.9827816350594
8.3176377	9.1201084e-7	0.12	420.07048	210.40005	-0.084803393	-0.018999958	-0.018961127	-0.53416895	1.3284279	0	857.7491942236295
8.3176377	1.e-6	0.12	383.84104	192.88044	-0.08398806	-0.019000272	-0.018957694	-0.49479342	1.2127085	0	858.5156399224826
8.3176377	1.0964782e-6	0.12	350.79943	176.89426	-0.08317273	-0.019000616	-0.018953931	-0.45881073	1.1071712	0	859.2821200094276
8.3176377	1.2022644e-6	0.12	320.66517	162.30661	-0.082357402	-0.019000994	-0.018949804	-0.42592235	1.0109203	0	860.0486392574563
8.3176377	1.3182567e-6	0.12	293.18242	148.99441	-0.081542078	-0.019001408	-0.018945279	-0.39585599	0.92313848	0	860.8151996208646
8.3176377	1.4454398e-6	0.12	268.11791	136.84545	-0.080726757	-0.019001861	-0.018940318	-0.36836337	0.8430807	0	861.5818063236362
8.3176377	1.5848932e-6	0.12	245.25885	125.75737	-0.079911439	-0.019002359	-0.018934878	-0.343218	0.77006729	0	862.3484642139282
8.3176377	1.7378008e-6	0.12	224.4112	115.63684	-0.079096126	-0.019002904	-0.018928913	-0.32021335	0.70347845	0	863.11517659901
8.3176377	1.9054607e-6	0.12	205.39797	106.39871	-0.078280817	-0.019003503	-0.018922373	-0.29916106	0.64274889	0	863.88195005584
8.3176377	2.0892961e-6	0.12	188.05776	97.965355	-0.077465513	-0.019004159	-0.018915202	-0.27988933	0.5873631	0	864.6487899587313
8.3176377	2.2908677e-6	0.12	172.24337	90.265956	-0.076650214	-0.019004878	-0.018907339	-0.26224149	0.5368509	0	865.4157031853026
8.3176377	2.5118864e-6	0.12	157.82055	83.235936	-0.07583492	-0.019005667	-0.018898718	-0.24607464	0.49078348	0	866.1826971769113
8.3176377	2.7542287e-6	0.12	144.66687	76.816399	-0.075019633	-0.019006532	-0.018889265	-0.23125847	0.44876978	0	866.9497783977673
8.3176377	3.0199517e-6	0.12	132.67066	70.953632	-0.074204353	-0.019007481	-0.018878901	-0.21767412	0.41045314	0	867.7169557549497
8.3176377	3.3113112e-6	0.12	121.73009	65.598648	-0.073389081	-0.019008521	-0.018867536	-0.20521319	0.3755083	0	868.4842384561993
8.3176377	3.6307805e-6	0.12	111.75228	60.706769	-0.072573817	-0.019009662	-0.018855076	-0.19377683	0.34363859	0	869.251637099813
8.3176377	3.9810717e-6	0.12	102.65254	56.237251	-0.071758562	-0.019010913	-0.018841414	-0.18327488	0.31457349	0	870.0191628102448
8.3176377	4.3651583e-6	0.12	94.353599	52.152932	-0.070943317	-0.019012285	-0.018826434	-0.17362509	0.28806625	0	870.7868277266786
8.3176377	4.7863009e-6	0.12	86.785026	48.419923	-0.070128083	-0.01901379	-0.01881001	-0.16475249	0.26389186	0	871.5546451157775
8.3176377	5.2480746e-6	0.12	79.882565	45.007317	-0.069312861	-0.019015439	-0.018792002	-0.15658867	0.2418451	0	872.3226298226739
8.3176377	5.7543994e-6	0.12	73.58762	41.886925	-0.068497652	-0.019017249	-0.018772257	-0.14907124	0.2217388	0	873.0907981582224
8.3176377	6.3095734e-6	0.12	67.846754	39.03304	-0.067682458	-0.019019233	-0.018750609	-0.14214332	0.20340229	0	873.859166959434
8.3176377	6.9183097e-6	0.12	62.611234	36.422217	-0.06686728	-0.019021408	-0.018726874	-0.13575301	0.18667991	0	874.6277560323462
8.3176377	7.5857758e-6	0.12	57.836613	34.033075	-0.06605212	-0.019023794	-0.018700852	-0.129853	0.17142971	0	875.3965860473966
8.3176377	8.3176377e-6	0.12	53.482361	31.846114	-0.065236978	-0.019026411	-0.018672321	-0.12440011	0.15752221	0	876.1656820346064
8.3176377	9.1201084e-6	0.12	49.511512	29.843551	-0.064421857	-0.01902928	-0.018641041	-0.11935497	0.14483937	0	876.9350682347614
8.3176377	0.00001	0.12	45.890359	28.009167	-0.06360676	-0.019032427	-0.018606748	-0.11468168	0.13327351	0	877.7047715945962
8.3176377	0.000010964782	0.12	42.588162	26.328173	-0.062791688	-0.019035878	-0.018569153	-0.1103475	0.12272645	0	878.4748237586714
8.3176377	0.000012022644	0.12	39.57333	24.787025	-0.061982822	-0.019051404	-0.018539679	-0.10632635	0.11310436	0	879.2381293549595
8.3176377	0.000013182567	0.12	36.827075	23.373527	-0.061168401	-0.019056676	-0.018495619	-0.10258374	0.10433378	0	880.0082987767905
8.3176377	0.000014454398	0.12	34.322837	22.076413	-0.060354069	-0.019062454	-0.018447318	-0.099098296	0.096336329	0	880.778862740903
8.3176377	0.000015848932	0.12	32.039358	20.885451	-0.059539836	-0.019068789	-0.018394372	-0.095847352	0.089044115	0	881.5498574017721
8.3176377	0.000017378008	0.12	29.957251	19.791314	-0.058725711	-0.019075732	-0.018336337	-0.092810231	0.082395232	0	882.3213243633513
8.3176377	0.000019054607	0.12	28.058842	18.785496	-0.057911703	-0.019083343	-0.018272728	-0.089968072	0.076333237	0	883.0933098522559
8.3176377	0.000020892961	0.12	26.328015	17.860238	-0.057097825	-0.019091684	-0.018203015	-0.08730367	0.070806666	0	883.8658614104925
8.3176377	0.000022908677	0.12	24.750075	17.00847	-0.056284088	-0.019100827	-0.01812662	-0.08480133	0.065768602	0	884.6390338710951
8.3176377	0.000025118864	0.12	23.311626	16.22374	-0.055470505	-0.019110846	-0.018042914	-0.082446729	0.061176269	0	885.4128859381066
8.3176377	0.000027542287	0.12	22.000454	15.500169	-0.054657092	-0.019121825	-0.017951209	-0.080226803	0.056990677	0	886.1874801489968
8.3176377	0.000030199517	0.12	20.805428	14.832395	-0.053843864	-0.019133857	-0.017850758	-0.078129628	0.053176287	0	886.9628866329233
8.3176377	0.000033113112	0.12	19.7164	14.21553	-0.053030838	-0.01914704	-0.017740752	-0.076144325	0.049700707	0	887.7391806302795
8.3176377	0.000036307805	0.12	18.72412	13.645118	-0.052218033	-0.019161484	-0.01762031	-0.074260962	0.046534417	0	888.5164436201725
8.3176377	0.000039810717	0.12	17.82016	13.117097	-0.051405471	-0.019177308	-0.017488483	-0.072470476	0.04365052	0	889.2947619298665
8.3176377	0.000043651583	0.12	16.996839	12.627764	-0.050593172	-0.019194642	-0.017344246	-0.07076459	0.041024509	0	890.0742323345927
8.3176377	0.000047863009	0.12	16.247159	12.173742	-0.049781162	-0.019213629	-0.017186499	-0.069135749	0.038634059	0	890.8549544282781
8.3176377	0.000052480746	0.12	15.564742	11.751956	-0.048969467	-0.019234423	-0.017014066	-0.067577051	0.036458833	0	891.6370363736859
8.3176377	0.000057543994	0.12	14.943779	11.3596	-0.048158116	-0.019257196	-0.016825691	-0.066082191	0.034480311	0	892.4205925347106
8.3176377	0.000063095734	0.12	14.378978	10.99412	-0.04734714	-0.01928213	-0.016620052	-0.064645409	0.032681623	0	893.2057428374733
8.3176377	0.000069183097	0.12	13.865517	10.653184	-0.046536573	-0.019309427	-0.016395757	-0.063261438	0.031047407	0	893.992612281748
8.3176377	0.000075857758	0.12	13.399002	10.334668	-0.045726452	-0.019339308	-0.016151359	-0.061925466	0.029563669	0	894.7813292497443
8.3176377	0.000083176377	0.12	12.975426	10.036634	-0.044916815	-0.01937201	-0.015885369	-0.06063309	0.028217659	0	895.5720259195159
8.3176377	0.000091201084	0.12	12.591135	9.7573147	-0.044107707	-0.019407794	-0.015596277	-0.059380281	0.026997754	0	896.3648302598633
8.3176377	0.0001	0.12	12.242793	9.4950962	-0.043299173	-0.019446942	-0.015282577	-0.058163356	0.025893352	0	897.1598697885955
8.3176377	0.00010964782	0.12	11.927352	9.2485033	-0.042491264	-0.019489761	-0.0149428	-0.056978941	0.024894767	0	897.95726221446
8.3176377	0.00012022644	0.12	11.642018	9.0161865	-0.041684031	-0.019536583	-0.014575548	-0.055823951	0.02399314	0	898.7571172411067
8.3176377	0.00013182567	0.12	11.384228	8.7969092	-0.040877534	-0.01958777	-0.014179544	-0.054695562	0.023180345	0	899.559522473609
8.3176377	0.00014454398	0.12	11.151623	8.5895357	-0.040071832	-0.019643713	-0.013753676	-0.05359119	0.022448914	0	900.3645478532115
8.3176377	0.00015848932	0.12	10.942025	8.3930214	-0.039266992	-0.019704835	-0.013297049	-0.052508475	0.021791957	0	901.1722313383545
8.3176377	0.00017378008	0.12	10.753415	8.2064024	-0.038463082	-0.019771593	-0.012809034	-0.051445262	0.021203098	0	901.9825799569867
8.3176377	0.00019054607	0.12	10.583913	8.0287875	-0.037660178	-0.01984448	-0.012289309	-0.050399586	0.020676413	0	902.7955586069464
8.3176377	0.00020892961	0.12	10.431767	7.859351	-0.036858356	-0.019924028	-0.011737893	-0.049369662	0.020206376	0	903.6110937390584
8.3176377	0.00022908677	0.12	10.295335	7.6973266	-0.036057699	-0.020010807	-0.011155167	-0.048353869	0.019787825	0	904.4290644124707
8.3176377	0.00025118864	0.12	10.173075	7.5420025	-0.035258292	-0.020105432	-0.010541874	-0.047350744	0.019415921	0	905.2493069924818
8.3176377	0.00027542287	0.12	10.063545	7.3927177	-0.034460224	-0.020208559	-0.0098991008	-0.046358968	0.019086132	0	906.071615323421
8.3176377	0.00030199517	0.12	9.9653891	7.2488597	-0.033663588	-0.020320893	-0.0092282479	-0.04537736	0.018794215	0	906.8957441223581
8.3176377	0.00033113112	0.12	9.8773434	7.1098621	-0.032868479	-0.020443181	-0.0085309757	-0.04440487	0.01853621	0	907.7214169240679
8.3176377	0.00036307805	0.12	9.7982308	6.9752037	-0.032074993	-0.020576221	-0.0078091458	-0.043440563	0.018308434	0	908.5483336388941
8.3176377	0.00039810717	0.12	9.7269628	6.844407	-0.031283227	-0.020720857	-0.0070647563	-0.042483618	0.018107482	0	909.3761778475346
8.3176377	0.00043651583	0.12	9.6625395	6.7170374	-0.030493278	-0.020877983	-0.006299876	-0.041533316	0.017930226	0	910.2046251594151
8.3176377	0.00047863009	0.12	9.6040493	6.5927017	-0.029705241	-0.021048539	-0.0055165853	-0.040589032	0.017773811	0	911.0333517552166
8.3176377	0.00052480746	0.12	9.5506686	6.4710469	-0.028919207	-0.021233509	-0.0047169237	-0.039650224	0.017635652	0	911.862042185269
8.3176377	0.00057543994	0.12	9.50166	6.3517581	-0.028135262	-0.02143392	-0.0039028485	-0.038716429	0.017513426	0	912.6903949656003
8.3176377	0.00063095734	0.12	9.4563698	6.2345567	-0.027353485	-0.021650839	-0.0030762035	-0.037787251	0.017405061	0	913.5181279860774
8.3176377	0.00069183097	0.12	9.4142252	6.1191979	-0.026573945	-0.021885364	-0.0022386969	-0.036862355	0.017308727	0	914.3449838208271
8.3176377	0.00075857758	0.12	9.3747312	6.0054685	-0.025796697	-0.022138621	-0.0013918841	-0.035941456	0.01722282	0	915.170735425762
8.3176377	0.00083176377	0.12	9.3374667	5.8931844	-0.025021785	-0.022411755	-0.00053716405	-0.035024316	0.017145949	0	915.9951837314128
8.3176377	0.00091201084	0.12	9.3020806	5.7821884	-0.024249233	-0.02270592	0.00032423052	-0.034110734	0.017076923	0	916.818167200564
8.3176377	0.001	0.12	9.2682881	5.6723477	-0.023479047	-0.023022268	0.0011912322	-0.033200541	0.017014735	0	917.6395598476494
8.3176377	0.0010964782	0.12	9.235867	5.5635518	-0.022711209	-0.023361939	0.0020629421	-0.032293592	0.016958553	0	918.4592772369377
8.3176377	0.0012022644	0.12	9.2046536	5.4557105	-0.021945682	-0.023726046	0.00293863	-0.031389761	0.016907703	0	919.2772718016178
8.3176377	0.0013182567	0.12	9.1745386	5.3487518	-0.0211824	-0.024115663	0.0038177354	-0.030488934	0.016861662	0	920.0935423578369
8.3176377	0.0014454398	0.12	9.1454632	5.2426202	-0.020421276	-0.024531813	0.004699869	-0.029591009	0.016820042	0	920.908126755046
8.3176377	0.0015848932	0.12	9.117414	5.1372744	-0.019662199	-0.024975449	0.0055848174	-0.028695884	0.016782579	0	921.7211052246095
8.3176377	0.0017378008	0.12	9.090418	5.0326861	-0.018905031	-0.025447456	0.0064725387	-0.027803457	0.016749122	0	922.5326027024107
8.3176377	0.0019054607	0.12	9.0645379	4.9288374	-0.018149616	-0.025948627	0.0073631683	-0.026913623	0.016719621	0	923.3427810267021
8.3176377	0.0020892961	0.12	9.0398649	4.8257193	-0.017395782	-0.026479669	0.0082570124	-0.026026267	0.01669411	0	924.1518363261134
8.3176377	0.0022908677	0.12	9.0165134	4.7233297	-0.016643338	-0.027041196	0.0091545462	-0.025141266	0.016672692	0	924.9600016354011
8.3176377	0.0025118864	0.12	8.9946135	4.6216712	-0.015892088	-0.027633731	0.010056406	-0.024258484	0.016655527	0	925.7675328508251
8.3176377	0.0027542287	0.12	8.9743041	4.5207489	-0.015141828	-0.028257713	0.010963378	-0.023377772	0.01664281	0	926.5747102860705
8.3176377	0.0030199517	0.12	8.9557255	4.4205688	-0.014392357	-0.028913516	0.011876376	-0.022498967	0.016634756	0	927.3818258227506
8.3176377	0.0033113112	0.12	8.9390114	4.3211352	-0.013643478	-0.029601461	0.012796424	-0.021621893	0.01663158	0	928.1891800090297
8.3176377	0.0036307805	0.12	8.9242814	4.2224486	-0.012895008	-0.030321845	0.013724631	-0.020746361	0.016633474	0	928.9970698227236
8.3176377	0.0039810717	0.12	8.9116324	4.1245039	-0.012146784	-0.031074973	0.01466215	-0.019872172	0.016640594	0	929.8057784112459
8.3176377	0.0043651583	0.12	8.9011299	4.0272879	-0.011398667	-0.031861198	0.015610142	-0.018999118	0.016653029	0	930.6155672744251
8.3176377	0.0047863009	0.12	8.8927996	3.9307773	-0.010650552	-0.032680967	0.016569726	-0.018126987	0.016670787	0	931.4266612314581
8.3176377	0.0052480746	0.12	8.8866176	3.8349371	-0.0099023763	-0.033534867	0.017541932	-0.017255566	0.016693767	0	932.2392353233695
8.3176377	0.0057543994	0.12	8.8825023	3.7397181	-0.0091541251	-0.034423693	0.018527641	-0.01638465	0.016721744	0	933.0534027865754
8.3176377	0.0063095734	0.12	8.8803067	3.6450565	-0.0084058391	-0.0353485	0.019527521	-0.015514042	0.016754346	0	933.8692006963245
8.3176377	0.0069183097	0.12	8.8798143	3.5508727	-0.0076576181	-0.03631067	0.020541969	-0.014643563	0.01679105	0	934.686580044888
8.3176377	0.0075857758	0.12	8.8807417	3.4570735	-0.0069096181	-0.03731197	0.02157105	-0.01377306	0.016831182	0	935.5054015886811
8.3176377	0.0083176377	0.12	8.8827507	3.3635551	-0.006162038	-0.038354608	0.022614447	-0.012902411	0.016873946	0	936.32544270709
8.3176377	0.0091201084	0.12	8.8854741	3.27021	-0.0054150918	-0.039441264	0.023671422	-0.012031526	0.01691848	0	937.1464191252222
8.3176377	0.01	0.12	8.8885599	3.1769384	-0.004668962	-0.040575109	0.024740808	-0.011160354	0.016963951	0	937.9680277956696
8.3176377	0.010964782	0.12	8.8917321	3.0836621	-0.0039237311	-0.041759784	0.025821024	-0.010288874	0.01700969	0	938.7900129499528
8.3176377	0.012022644	0.12	8.8948632	2.9903427	-0.003179303	-0.042999339	0.026910141	-0.0094170841	0.017055356	0	939.6122473897145
8.3176377	0.013182567	0.12	8.898047	2.8969988	-0.0024353206	-0.044298116	0.028006002	-0.0085449868	0.017101113	0	940.4348234366465
8.3176377	0.014454398	0.12	8.9016488	2.8037213	-0.0016911091	-0.045660568	0.029106401	-0.0076725611	0.017147786	0	941.258126387707
8.3176377	0.015848932	0.12	8.9063119	2.7106795	-0.00094567614	-0.047090991	0.030209355	-0.0067997365	0.017196945	0	942.0828650509961
8.3176377	0.017378008	0.12	8.9128725	2.6181146	-0.00019781446	-0.048593205	0.031313425	-0.005926369	0.017250868	0	942.9100114820338
8.3176377	0.019054607	0.12	8.9220673	2.5262915	0.00055359053	-0.050170538	0.032417734	-0.0050522333	0.017312126	0	943.7405140311062
8.3176377	0.020892961	0.12	8.9336201	2.4353108	0.0013087684	-0.051827712	0.033520083	-0.0041770695	0.017381871	0	944.5743404617257
8.3176377	0.022908677	0.12	8.9438802	2.3445417	0.0020654157	-0.05357973	0.034608065	-0.0033007843	0.017454609	0	945.4079276696117
8.3176377	0.025118864	0.12	8.9440836	2.2520804	0.0028182154	-0.055467089	0.035643857	-0.002423906	0.01751296	0	946.232015495983
8.3176377	0.027542287	0.12	8.9296077	2.1570078	0.0035656738	-0.057532035	0.036587965	-0.0015477478	0.017547475	0	947.0407476488043
8.3176377	0.030199517	0.12	8.9086006	2.0621209	0.0043129222	-0.059757148	0.037460642	-0.00067341977	0.017581803	0	947.8412288018003
8.3176377	0.033113112	0.12	8.8885567	1.9713025	0.0050586605	-0.062069716	0.03833752	0.00019887722	0.017650116	0	948.6407647708455
8.3176377	0.036307805	0.12	8.8636992	1.887589	0.0057825778	-0.064355104	0.039336236	0.0010690968	0.017779251	0	949.4335354559619
8.3176377	0.039810717	0.12	8.8002452	1.8147047	0.0064199124	-0.066390997	0.0406822	0.0019354824	0.018000417	0	950.1841074988877
8.3176377	0.043651583	0.12	8.4802183	1.7688489	0.0066194682	-0.067273881	0.043282112	0.0027876394	0.018446629	0	950.6647376813492
8.3176377	0.047863009	0.12	7.6835763	1.7037046	0.0062716176	-0.068476231	0.045666781	0.0035738326	0.018656123	0	950.6067755942468
8.3176377	0.052480746	0.12	7.2459679	1.6084967	0.0064257804	-0.071247569	0.046590062	0.0043045453	0.018543994	0	950.8557195596953
8.3176377	0.057543994	0.12	6.914189	1.5155833	0.0066667892	-0.07422705	0.047416283	0.0049978202	0.018414739	0	951.1753177119856
8.3176377	0.063095734	0.12	6.6763922	1.4265543	0.0069776189	-0.077302271	0.048261434	0.0056631603	0.018291938	0	951.5626514792704
8.3176377	0.069183097	0.12	6.5430371	1.3414582	0.0073723932	-0.08042191	0.049180531	0.0063101591	0.018185611	0	952.0371939359596
8.3176377	0.075857758	0.12	6.5395403	1.2599981	0.007885507	-0.083556215	0.050207134	0.0069501868	0.018104501	0	952.6350451558872
8.3176377	0.083176377	0.12	6.7042942	1.1818505	0.0085702969	-0.086692123	0.051358226	0.0075977566	0.018060258	0	953.4082331569008
8.3176377	0.091201084	0.12	7.0867503	1.1067633	0.0094983164	-0.089834395	0.052633087	0.0082717033	0.018069485	0	954.423905949825
8.3176377	0.1	0.12	7.7454225	1.0345726	0.010758472	-0.093007908	0.054011005	0.0089961697	0.018154873	0	955.7632617681464
8.3176377	0.10964782	0.12	8.7461031	0.96519019	0.012456111	-0.096259245	0.055449684	0.0098014036	0.018345889	0	957.5205125019359
8.3176377	0.12022644	0.12	10.160837	0.89858927	0.014712578	-0.099656654	0.0568853	0.010724413	0.018679304	0	959.8024733144948
8.3176377	0.13182567	0.12	12.068254	0.83480548	0.017665986	-0.10328837	0.058234175	0.011809579	0.019199815	0	962.7294758810854
8.3176377	0.14454398	0.12	14.555949	0.77396052	0.021474173	-0.10726	0.05939539	0.013109404	0.019961001	0	966.438440917954
8.3176377	0.15848932	0.12	17.721793	0.71636379	0.026316999	-0.11169364	0.060251689	0.014685509	0.021027223	0	971.0851382879898
8.3176377	0.17378008	0.12	21.700546	0.6622216	0.032424625	-0.11671098	0.060686368	0.016610622	0.022473034	0	976.8726611675617
8.3176377	0.19054607	0.12	26.628166	0.61125405	0.040039072	-0.12240939	0.06060721	0.018970996	0.02438221	0	984.0180068344958
8.3176377	0.20892961	0.12	32.672045	0.56358329	0.049450516	-0.12888563	0.059922731	0.021867669	0.026856872	0	992.783499980217
8.3176377	0.22908677	0.12	40.018161	0.51932575	0.060983538	-0.13621363	0.058564473	0.025419069	0.030016475	0	1003.4663871738255
8.3176377	0.25118864	0.12	48.858529	0.4785792	0.074983955	-0.14443533	0.056496113	0.029762285	0.033998976	0	1016.3874907460975
8.3176377	0.27542287	0.12	59.370729	0.44140383	0.091795705	-0.15355269	0.053721504	0.035052717	0.038960308	0	1031.870397341816
8.3176377	0.30199517	0.12	71.692073	0.40780112	0.11173013	-0.16352283	0.0502895	0.041461421	0.04507154	0	1050.2131412992544
8.3176377	0.33113112	0.12	85.894188	0.37769645	0.13503377	-0.17425887	0.046293145	0.04916988	0.052513492	0	1071.6578535700125
8.3176377	0.36307805	0.12	101.96545	0.35093222	0.16186325	-0.18563772	0.041861878	0.058362609	0.061469287	0	1096.3662875449547
8.3176377	0.39810717	0.12	119.80717	0.3272748	0.19227437	-0.19751403	0.037147597	0.069218686	0.072115934	0	1124.407997142315
8.3176377	0.43651583	0.12	139.24487	0.30643396	0.2262281	-0.2097372	0.032307658	0.081903653	0.084616404	0	1155.764052675909
8.3176377	0.47863009	0.12	160.05075	0.28808883	0.26360998	-0.22216742	0.027488829	0.096563122	0.09911347	0	1190.34345927105
8.3176377	0.52480746	0.12	181.97058	0.27191353	0.30425629	-0.23468757	0.022815407	0.11331886	0.11572601	0	1228.0064055071534
8.3176377	0.57543994	0.12	204.74859	0.25759743	0.34797991	-0.24720956	0.018382869	0.13226745	0.13454787	0	1268.5878447416371
8.3176377	0.63095734	0.12	228.14639	0.24485808	0.39459154	-0.25967558	0.014256663	0.15348113	0.15564877	0	1311.9172963745102
8.3176377	0.69183097	0.12	251.95492	0.23344747	0.44391433	-0.27205554	0.010474736	0.17701015	0.17907678	0	1357.8328767159853
8.3176377	0.75857758	0.12	276.00001	0.2231533	0.49579254	-0.28434248	0.0070521454	0.20288593	0.20486143	0	1406.1899555478094
8.3176377	0.83176377	0.12	300.14339	0.21379711	0.55009543	-0.29654727	0.0039863969	0.2311246	0.23301727	0	1456.865412869181
8.3176377	0.91201084	0.12	324.28074	0.20523073	0.60671801	-0.30869342	0.0012625689	0.26173042	0.26354725	0	1509.7589213358046
8.3176377	1.	0.12	348.33806	0.19733219	0.66557984	-0.32081276	-0.0011422725	0.29469893	0.29644584	0	1564.792316563193
8.3176377	1.0964782	0.12	372.26748	0.19000162	0.72662287	-0.33294188	-0.0032555624	0.33001975	0.33170177	0	1621.9079635344578
8.3176377	1.2022644	0.12	396.04296	0.18315744	0.78980891	-0.34511955	-0.0051066212	0.36767891	0.36930034	0	1681.0666744370571
8.3176377	1.3182567	0.12	419.65627	0.1767331	0.85511712	-0.35738486	-0.0067248239	0.40766078	0.40922533	0	1742.2455567612371
8.3176377	1.4454398	0.12	443.11351	0.17067423	0.92254168	-0.36977609	-0.0081383964	0.44994965	0.45146057	0	1805.4359598273475
8.3176377	1.5848932	0.12	466.43201	0.16493632	0.99208966	-0.38232994	-0.0093736987	0.49453101	0.49599113	0	1870.6415543292976
8.3176377	1.7378008	0.12	489.6378	0.15948283	1.0637793	-0.39508121	-0.01045485	0.54139245	0.54280429	0	1937.8767585513215
8.3176377	1.9054607	0.12	512.76351	0.15428362	1.1376384	-0.40806262	-0.011403594	0.59052449	0.59189031	0	2007.165240854896
8.3176377	2.0892961	0.12	535.84667	0.1493137	1.2137032	-0.42130492	-0.012239319	0.64192108	0.6432429	0	2078.5388650993204
8.3176377	2.2908677	0.12	558.92833	0.14455225	1.2920172	-0.43483695	-0.012979173	0.69558004	0.69685971	0	2152.0365689773253
8.3176377	2.5118864	0.12	582.05199	0.13998177	1.3726306	-0.44868585	-0.013638234	0.75150334	0.75274255	0	2227.7038186575187
8.3176377	2.7542287	0.12	605.26275	0.13558749	1.4555993	-0.46287724	-0.014229699	0.80969729	0.8108976	0	2305.5916479096954
8.3176377	3.0199517	0.12	628.60666	0.13135682	1.5409843	-0.47743546	-0.014765085	0.87017269	0.87133554	0	2385.7560717033084
8.3176377	3.3113112	0.12	652.13021	0.12727897	1.6288519	-0.49238376	-0.015254424	0.93294485	0.93407161	0	2468.258252134712
8.3176377	3.6307805	0.12	675.87999	0.12334458	1.7192724	-0.50774449	-0.015706438	0.99803369	0.99912562	0	2553.163257261333
8.3176377	3.9810717	0.12	699.90236	0.11954549	1.8123205	-0.5235393	-0.016128708	1.0654636	1.0665219	0	2640.5404178734266
8.3176377	4.3651583	0.12	724.24332	0.11587452	1.9080751	-0.53978924	-0.016527822	1.1352637	1.1362895	0	2730.463122894325
8.3176377	4.7863009	0.12	748.94839	0.11232529	2.0066187	-0.55651501	-0.016909506	1.2074673	1.2084617	0	2823.008240871259
8.3176377	5.2480746	0.12	774.06246	0.10889208	2.1080375	-0.57373697	-0.017278741	1.2821124	1.2830764	0	2918.256200740398
8.3176377	5.7543994	0.12	799.62985	0.10556974	2.2124216	-0.59147536	-0.017639865	1.3592412	1.3601758	0	3016.2911682396384
8.3176377	6.3095734	0.12	825.69422	0.10235359	2.3198644	-0.60975034	-0.017996661	1.4389003	1.4398064	0	3117.200472247585
8.3176377	6.9183097	0.12	852.29869	0.099239324	2.4304631	-0.6285821	-0.018352436	1.5211406	1.5220192	0	3221.0750656591417
8.3176377	7.5857758	0.12	879.48577	0.09622299	2.5443183	-0.64799096	-0.018710086	1.6060171	1.6068689	0	3328.0091422307705
8.3176377	8.3176377	0.12	907.29749	0.093300911	2.6615342	-0.66799743	-0.019072157	1.6935889	1.6944149	0	3438.1003176159347
8.3176377	9.1201084	0.12	935.77545	0.090469657	2.7822186	-0.68862225	-0.019440892	1.7839194	1.7847203	0	3551.449624065955
8.3176377	10.	0.12	964.96087	0.087726012	2.906483	-0.70988652	-0.019818276	1.8770758	1.8778524	0	3668.16159931289