8.3176377	1.e-12	0.13	3.7552136e8	1.8063731e8	-0.20639274	-0.018186943	-0.018186943	-399675.82	1.199442e6	0	743.4244662139618
8.3176377	1.0964782e-12	0.13	3.4247955e8	1.6474319e8	-0.20557738	-0.018186944	-0.018186943	-364508.7	1.0939041e6	0	744.1905502177377
8.3176377	1.2022644e-12	0.13	3.1234506e8	1.5024758e8	-0.20476202	-0.018186944	-0.018186944	-332435.9	997652.44	0	744.9566340993704
8.3176377	1.3182567e-12	0.13	2.8486208e8	1.3702742e8	-0.20394666	-0.018186944	-0.018186944	-303185.16	909869.83	0	745.7227181031462
8.3176377	1.4454398e-12	0.13	2.5979731e8	1.249705e8	-0.2031313	-0.018186944	-0.018186944	-276508.17	829811.15	0	746.4888021069222
8.3176377	1.5848932e-12	0.13	2.3693796e8	1.1397445e8	-0.20231594	-0.018186944	-0.018186944	-252178.47	756796.77	0	747.2548861106982
8.3176377	1.7378008e-12	0.13	2.1608999e8	1.0394593e8	-0.20150059	-0.018186944	-0.018186943	-229989.52	690206.86	0	748.0209608409642
8.3176377	1.9054607e-12	0.13	1.9707641e8	9.4799821e7	-0.20068523	-0.018186944	-0.018186944	-209752.95	629476.13	0	748.7870447225969
8.3176377	2.0892961e-12	0.13	1.7973583e8	8.6458467e7	-0.19986987	-0.018186944	-0.018186943	-191296.98	574089.06	0	749.5531288485162
8.3176377	2.2908677e-12	0.13	1.6392102e8	7.885106e7	-0.19905451	-0.018186944	-0.018186944	-174464.94	523575.44	0	750.3192127301487
8.3176377	2.5118864e-12	0.13	1.4949775e8	7.1913024e7	-0.19823915	-0.018186944	-0.018186943	-159113.93	477506.49	0	751.0852968560682
8.3176377	2.7542287e-12	0.13	1.3634357e8	6.558546e7	-0.19742379	-0.018186944	-0.018186943	-145113.65	435491.09	0	751.8513808598443
8.3176377	3.0199517e-12	0.13	1.2434681e8	5.9814652e7	-0.19660843	-0.018186944	-0.018186944	-132345.24	397172.59	0	752.6174647414767
8.3176377	3.3113112e-12	0.13	1.1340564e8	5.4551613e7	-0.19579308	-0.018186944	-0.018186943	-120700.31	362225.71	0	753.3835394717427
8.3176377	3.6307805e-12	0.13	1.0342717e8	4.9751664e7	-0.19497772	-0.018186944	-0.018186943	-110080.01	330353.78	0	754.1496234755186
8.3176377	3.9810717e-12	0.13	9.4326705e7	4.5374059e7	-0.19416236	-0.018186944	-0.018186943	-100394.18	301286.23	0	754.9157074792947
8.3176377	4.3651583e-12	0.13	8.6026978e7	4.1381636e7	-0.193347	-0.018186944	-0.018186943	-91560.595	274776.3	0	755.6817914830708
8.3176377	4.7863009e-12	0.13	7.8457538e7	3.7740503e7	-0.19253164	-0.018186944	-0.018186943	-83504.273	250598.97	0	756.4478754868468
8.3176377	5.2480746e-12	0.13	7.1554126e7	3.441975e7	-0.19171628	-0.018186944	-0.018186943	-76156.819	228548.98	0	757.2139594906228
8.3176377	5.7543994e-12	0.13	6.5258139e7	3.1391187e7	-0.19090092	-0.018186944	-0.018186943	-69455.861	208439.15	0	757.9800434943987
8.3176377	6.3095734e-12	0.13	5.9516131e7	2.8629105e7	-0.19008556	-0.018186944	-0.018186943	-63344.515	190098.76	0	758.7461274981748
8.3176377	6.9183097e-12	0.13	5.4279357e7	2.6110056e7	-0.18927021	-0.018186944	-0.018186943	-57770.902	173372.13	0	759.5122021062973
8.3176377	7.5857758e-12	0.13	4.9503362e7	2.3812656e7	-0.18845485	-0.018186944	-0.018186943	-52687.705	158117.27	0	760.2782861100732
8.3176377	8.3176377e-12	0.13	4.5147604e7	2.1717403e7	-0.18763949	-0.018186944	-0.018186943	-48051.775	144204.66	0	761.0443701138493
8.3176377	9.1201084e-12	0.13	4.1175105e7	1.9806509e7	-0.18682413	-0.018186944	-0.018186943	-43823.757	131516.22	0	761.8104541176252
8.3176377	1.e-11	0.13	3.7552143e7	1.8063752e7	-0.18600877	-0.018186944	-0.018186943	-39967.757	119944.22	0	762.5765381214013
8.3176377	1.0964782e-11	0.13	3.4247962e7	1.647434e7	-0.18519341	-0.018186944	-0.018186943	-36451.045	109390.43	0	763.3426221251773
8.3176377	1.2022644e-11	0.13	3.1234513e7	1.5024779e7	-0.18437805	-0.018186944	-0.018186943	-33243.764	99765.255	0	764.1087061289533
8.3176377	1.3182567e-11	0.13	2.8486215e7	1.3702763e7	-0.1835627	-0.018186944	-0.018186943	-30318.69	90986.995	0	764.8747807370758
8.3176377	1.4454398e-11	0.13	2.5979738e7	1.249707e7	-0.18274734	-0.018186944	-0.018186943	-27650.99	82981.128	0	765.6408647408517
8.3176377	1.5848932e-11	0.13	2.3693803e7	1.1397466e7	-0.18193198	-0.018186944	-0.018186943	-25218.019	75679.688	0	766.4069487446277
8.3176377	1.7378008e-11	0.13	2.1609006e7	1.0394614e7	-0.18111662	-0.018186944	-0.018186943	-22999.123	69020.698	0	767.1730327484037
8.3176377	1.9054607e-11	0.13	1.9707649e7	9.4800027e6	-0.18030126	-0.018186944	-0.018186943	-20975.465	62947.626	0	767.9391167521796
8.3176377	2.0892961e-11	0.13	1.797359e7	8.6458671e6	-0.1794859	-0.018186944	-0.018186943	-19129.868	57408.917	0	768.7052007559556
8.3176377	2.2908677e-11	0.13	1.639211e7	7.8851265e6	-0.17867054	-0.018186944	-0.018186943	-17446.663	52357.556	0	769.4712847597318
8.3176377	2.5118864e-11	0.13	1.4949782e7	7.1913227e6	-0.17785519	-0.018186944	-0.018186943	-15911.561	47750.66	0	770.2373593678542
8.3176377	2.7542287e-11	0.13	1.3634364e7	6.5585662e6	-0.17703983	-0.018186944	-0.018186942	-14511.532	43549.121	0	771.0034434937738
8.3176377	3.0199517e-11	0.13	1.2434689e7	5.9814853e6	-0.17622447	-0.018186944	-0.018186942	-13234.69	39717.271	0	771.7695274975497
8.3176377	3.3113112e-11	0.13	1.1340572e7	5.4551814e6	-0.17540911	-0.018186944	-0.018186942	-12070.197	36222.583	0	772.5356115013257
8.3176377	3.6307805e-11	0.13	1.0342725e7	4.9751865e6	-0.17459375	-0.018186944	-0.018186942	-11008.166	33035.39	0	773.3016955051016
8.3176377	3.9810717e-11	0.13	9.432678e6	4.5374259e6	-0.17377839	-0.018186944	-0.018186942	-10039.582	30128.635	0	774.0677795088776
8.3176377	4.3651583e-11	0.13	8.6027053e6	4.1381834e6	-0.17296303	-0.018186944	-0.018186942	-9156.2232	27477.642	0	774.8338635126537
8.3176377	4.7863009e-11	0.13	7.8457612e6	3.77407e6	-0.17214767	-0.018186944	-0.018186942	-8350.5902	25059.909	0	775.5999475164297
8.3176377	5.2480746e-11	0.13	7.15542e6	3.4419946e6	-0.17133232	-0.018186944	-0.018186941	-7615.8441	22854.91	0	776.3660222466956
8.3176377	5.7543994e-11	0.13	6.5258214e6	3.1391383e6	-0.17051696	-0.018186944	-0.018186941	-6945.7477	20843.927	0	777.1321062504717
8.3176377	6.3095734e-11	0.13	5.9516206e6	2.86293e6	-0.1697016	-0.018186944	-0.018186941	-6334.6124	19009.888	0	777.8981902542478
8.3176377	6.9183097e-11	0.13	5.4279432e6	2.611025e6	-0.16888624	-0.018186944	-0.018186941	-5777.2502	17337.225	0	778.6642742580237
8.3176377	7.5857758e-11	0.13	4.9503437e6	2.3812849e6	-0.16807088	-0.018186944	-0.01818694	-5268.9298	15811.738	0	779.4303583839433
8.3176377	8.3176377e-11	0.13	4.5147679e6	2.1717595e6	-0.16725552	-0.018186944	-0.01818694	-4805.3361	14420.478	0	780.1964423877191
8.3176377	9.1201084e-11	0.13	4.117518e6	1.98067e6	-0.16644016	-0.018186944	-0.01818694	-4382.5335	13151.633	0	780.9625263914952
8.3176377	1.e-10	0.13	3.7552218e6	1.8063943e6	-0.16562481	-0.018186944	-0.018186939	-3996.9329	11994.434	0	781.7286011217612
8.3176377	1.0964782e-10	0.13	3.4248037e6	1.647453e6	-0.16480945	-0.018186944	-0.018186939	-3645.2609	10939.055	0	782.4946851255372
8.3176377	1.2022644e-10	0.13	3.1234588e6	1.5024968e6	-0.16399409	-0.018186944	-0.018186938	-3324.5321	9976.5374	0	783.2607692514566
8.3176377	1.3182567e-10	0.13	2.848629e6	1.3702951e6	-0.16317873	-0.018186944	-0.018186938	-3032.0239	9098.7114	0	784.0268532552327
8.3176377	1.4454398e-10	0.13	2.5979813e6	1.2497258e6	-0.16236337	-0.018186944	-0.018186937	-2765.2532	8298.1246	0	784.7929373811523
8.3176377	1.5848932e-10	0.13	2.3693878e6	1.1397652e6	-0.16154801	-0.018186944	-0.018186937	-2521.9553	7567.9807	0	785.5590213849282
8.3176377	1.7378008e-10	0.13	2.1609081e6	1.03948e6	-0.16073265	-0.018186944	-0.018186936	-2300.065	6902.0817	0	786.3251055108477
8.3176377	1.9054607e-10	0.13	1.9707724e6	948018.79	-0.15991729	-0.018186944	-0.018186935	-2097.6985	6294.7745	0	787.0911896367671
8.3176377	2.0892961e-10	0.13	1.7973665e6	864605.14	-0.15910194	-0.018186944	-0.018186935	-1913.138	5740.9037	0	787.8572642448896
8.3176377	2.2908677e-10	0.13	1.6392184e6	788530.99	-0.15828658	-0.018186944	-0.018186934	-1744.8168	5235.7676	0	788.6233483708093
8.3176377	2.5118864e-10	0.13	1.4949857e6	719150.54	-0.15747122	-0.018186945	-0.018186933	-1591.3059	4775.0779	0	789.3894324967288
8.3176377	2.7542287e-10	0.13	1.3634439e6	655874.8	-0.15665586	-0.018186945	-0.018186932	-1451.3023	4354.924	0	790.1555166226482
8.3176377	3.0199517e-10	0.13	1.2434764e6	598166.64	-0.1558405	-0.018186945	-0.018186931	-1323.6174	3971.7391	0	790.9216007485676
8.3176377	3.3113112e-10	0.13	1.1340647e6	545536.16	-0.15502514	-0.018186945	-0.018186929	-1207.1673	3622.2703	0	791.6876849966307
8.3176377	3.6307805e-10	0.13	1.03428e6	497536.58	-0.15420978	-0.018186945	-0.018186928	-1100.9634	3303.5509	0	792.4537691225502
8.3176377	3.9810717e-10	0.13	943275.3	453760.44	-0.15339443	-0.018186945	-0.018186927	-1004.1043	3012.8754	0	793.2198438528162
8.3176377	4.3651583e-10	0.13	860278.03	413836.12	-0.15257907	-0.018186945	-0.018186925	-915.76771	2747.7762	0	793.985928100879
8.3176377	4.7863009e-10	0.13	784583.61	377424.69	-0.15176371	-0.018186945	-0.018186923	-835.20367	2506.0028	0	794.752012348942
8.3176377	5.2480746e-10	0.13	715549.49	344217.07	-0.15094835	-0.018186945	-0.018186921	-761.72832	2285.5029	0	795.5180965970051
8.3176377	5.7543994e-10	0.13	652589.62	313931.35	-0.15013299	-0.018186946	-0.018186919	-694.71794	2084.4046	0	796.2841808450681
8.3176377	6.3095734e-10	0.13	595169.54	286310.44	-0.14931763	-0.018186946	-0.018186917	-633.60368	1901.0007	0	797.0502650931311
8.3176377	6.9183097e-10	0.13	542801.8	261119.86	-0.14850227	-0.018186946	-0.018186914	-577.86673	1733.7344	0	797.8163494633376
8.3176377	7.5857758e-10	0.13	495041.86	238145.77	-0.14768691	-0.018186946	-0.018186911	-527.03396	1581.1858	0	798.5824338335442
8.3176377	8.3176377e-10	0.13	451484.27	217193.14	-0.14687156	-0.018186947	-0.018186908	-480.67385	1442.0597	0	799.3485088080971
8.3176377	9.1201084e-10	0.13	411759.28	198084.11	-0.1460562	-0.018186947	-0.018186905	-438.39286	1315.1753	0	800.1145931783035
8.3176377	1.e-9	0.13	375529.66	180656.46	-0.14524084	-0.018186947	-0.018186901	-399.83206	1199.4553	0	800.8806776706535
8.3176377	1.0964782e-9	0.13	342487.86	164762.24	-0.14442548	-0.018186947	-0.018186897	-364.66412	1093.9174	0	801.6467621630035
8.3176377	1.2022644e-9	0.13	312353.37	150266.54	-0.14361012	-0.018186948	-0.018186892	-332.59051	997.66566	0	802.4128467774971
8.3176377	1.3182567e-9	0.13	284870.39	137046.29	-0.14279476	-0.018186948	-0.018186887	-303.33896	909.88306	0	803.1789313919905
8.3176377	1.4454398e-9	0.13	259805.61	124989.27	-0.1419794	-0.018186949	-0.018186882	-276.66116	829.82439	0	803.945016006484
8.3176377	1.5848932e-9	0.13	236946.27	113993.13	-0.14116405	-0.018186949	-0.018186876	-252.33064	756.81	0	804.7110913474673
8.3176377	1.7378008e-9	0.13	216098.3	103964.53	-0.14034869	-0.01818695	-0.018186869	-230.14087	690.22009	0	805.477176206248
8.3176377	1.9054607e-9	0.13	197084.72	94818.321	-0.13953333	-0.01818695	-0.018186862	-209.90349	629.48937	0	806.2432610650284
8.3176377	2.0892961e-9	0.13	179744.13	86476.874	-0.13871797	-0.018186951	-0.018186854	-191.4467	574.10229	0	807.0093460459524
8.3176377	2.2908677e-9	0.13	163929.33	78869.377	-0.13790261	-0.018186951	-0.018186846	-174.61385	523.58868	0	807.7754310268763
8.3176377	2.5118864e-9	0.13	149506.06	71931.247	-0.13708725	-0.018186952	-0.018186836	-159.26203	477.51971	0	808.5415162520873
8.3176377	2.7542287e-9	0.13	136351.88	65603.591	-0.13627189	-0.018186953	-0.018186826	-145.26093	435.50432	0	809.3076014772982
8.3176377	3.0199517e-9	0.13	124355.12	59832.691	-0.13545654	-0.018186954	-0.018186815	-132.4917	397.18583	0	810.0736774289992
8.3176377	3.3113112e-9	0.13	113413.95	54569.561	-0.13464118	-0.018186955	-0.018186802	-120.84596	362.23895	0	810.8397630206406
8.3176377	3.6307805e-9	0.13	103435.49	49769.521	-0.13382582	-0.018186956	-0.018186789	-110.22484	330.36701	0	811.6058486122821
8.3176377	3.9810717e-9	0.13	94335.015	45391.823	-0.13301046	-0.018186957	-0.018186774	-100.5382	301.29946	0	812.3719344482105
8.3176377	4.3651583e-9	0.13	86035.288	41399.308	-0.1321951	-0.018186959	-0.018186757	-91.703803	274.78954	0	813.1380205284258
8.3176377	4.7863009e-9	0.13	78465.847	37758.083	-0.13137974	-0.01818696	-0.018186739	-83.646666	250.6122	0	813.9041067307847
8.3176377	5.2480746e-9	0.13	71562.434	34437.237	-0.13056438	-0.018186962	-0.01818672	-76.298397	228.56221	0	814.6701930552872
8.3176377	5.7543994e-9	0.13	65266.448	31408.582	-0.12974903	-0.018186964	-0.018186698	-69.596625	208.45238	0	815.4362703505667
8.3176377	6.3095734e-9	0.13	59524.439	28646.408	-0.12893367	-0.018186966	-0.018186674	-63.484464	190.11199	0	816.2023572857865
8.3176377	6.9183097e-9	0.13	54287.666	26127.267	-0.12811831	-0.018186968	-0.018186648	-57.910036	173.38537	0	816.9684444652933
8.3176377	7.5857758e-9	0.13	49511.672	23829.776	-0.12730295	-0.01818697	-0.01818662	-52.826025	158.1305	0	817.7345318890873
8.3176377	8.3176377e-9	0.13	45155.914	21734.43	-0.12648759	-0.018186972	-0.018186589	-48.189281	144.21789	0	818.5006196793116
8.3176377	9.1201084e-9	0.13	41183.414	19823.444	-0.12567223	-0.018186975	-0.018186555	-43.960447	131.52945	0	819.2667078359666
8.3176377	1.e-8	0.13	37560.452	18080.596	-0.12485688	-0.018186978	-0.018186517	-40.103634	119.95745	0	820.0327870855417
8.3176377	1.0964782e-8	0.13	34256.271	16491.091	-0.12404152	-0.018186982	-0.018186476	-36.586106	109.40366	0	820.798876097201
8.3176377	1.2022644e-8	0.13	31242.823	15041.438	-0.12322616	-0.018186985	-0.018186431	-33.378012	99.778488	0	821.5649655974344
8.3176377	1.3182567e-8	0.13	28494.525	13719.33	-0.1224108	-0.018186989	-0.018186381	-30.452123	91.000228	0	822.3310557083852
8.3176377	1.4454398e-8	0.13	25988.047	12513.546	-0.12159544	-0.018186994	-0.018186327	-27.783608	82.99436	0	823.09714630791
8.3176377	1.5848932e-8	0.13	23702.113	11413.849	-0.12078008	-0.018186999	-0.018186268	-25.349823	75.692921	0	823.8632375181522
8.3176377	1.7378008e-8	0.13	21617.316	10410.905	-0.11996473	-0.018187004	-0.018186202	-23.130112	69.03393	0	824.6293201877454
8.3176377	1.9054607e-8	0.13	19715.958	9496.202	-0.11914937	-0.01818701	-0.018186131	-21.10564	62.960858	0	825.3954128637096
8.3176377	2.0892961e-8	0.13	17981.899	8661.9746	-0.11833401	-0.018187016	-0.018186052	-19.259228	57.422151	0	826.1615065168216
8.3176377	2.2908677e-8	0.13	16400.419	7901.1419	-0.11751865	-0.018187023	-0.018185966	-17.575208	52.37079	0	826.9276010249382
8.3176377	2.5118864e-8	0.13	14958.092	7207.2461	-0.11670329	-0.018187031	-0.018185872	-16.039292	47.763893	0	827.6936965102028
8.3176377	2.7542287e-8	0.13	13642.674	6574.3976	-0.11588794	-0.018187039	-0.018185769	-14.638449	43.562354	0	828.4597836991053
8.3176377	3.0199517e-8	0.13	12442.998	5997.2247	-0.11507258	-0.018187048	-0.018185655	-13.360792	39.730504	0	829.2258816272399
8.3176377	3.3113112e-8	0.13	11348.881	5470.8287	-0.11425722	-0.018187058	-0.018185531	-12.195484	36.235816	0	829.9919807768093
8.3176377	3.6307805e-8	0.13	10351.034	4990.7418	-0.11344186	-0.01818707	-0.018185395	-11.132639	33.048622	0	830.7580813921007
8.3176377	3.9810717e-8	0.13	9440.9874	4552.8892	-0.11262651	-0.018187082	-0.018185245	-10.163241	30.141867	0	831.5241743217475
8.3176377	4.3651583e-8	0.13	8611.0147	4153.5547	-0.11181115	-0.018187095	-0.018185081	-9.279067	27.490875	0	832.2902783570569
8.3176377	4.7863009e-8	0.13	7854.0707	3789.3493	-0.11099579	-0.01818711	-0.018184902	-8.4726195	25.073142	0	833.0563842245185
8.3176377	5.2480746e-8	0.13	7163.7295	3457.1819	-0.11018043	-0.018187126	-0.018184705	-7.7370588	22.868143	0	833.8224922905631
8.3176377	5.7543994e-8	0.13	6534.1308	3154.2335	-0.10936508	-0.018187143	-0.018184489	-7.0661478	20.85716	0	834.5885932816806
8.3176377	6.3095734e-8	0.13	5959.93	2877.9332	-0.10854972	-0.018187162	-0.018184252	-6.4541979	19.023121	0	835.3547062334651
8.3176377	6.9183097e-8	0.13	5436.2527	2625.9363	-0.10773436	-0.018187183	-0.018183992	-5.8960212	17.350458	0	836.1208219945498
8.3176377	7.5857758e-8	0.13	4958.6533	2396.1042	-0.10691901	-0.018187207	-0.018183708	-5.3868863	15.824972	0	836.8869312914251
8.3176377	8.3176377e-8	0.13	4523.0774	2186.4868	-0.10610365	-0.018187232	-0.018183395	-4.922478	14.433711	0	837.6530535261153
8.3176377	9.1201084e-8	0.13	4125.8275	1995.3053	-0.1052883	-0.01818726	-0.018183053	-4.4988608	13.164867	0	838.4191699073132
8.3176377	1.e-7	0.13	3763.5313	1820.9376	-0.10447294	-0.018187291	-0.018182678	-4.1124456	12.007667	0	839.1852997149001
8.3176377	1.0964782e-7	0.13	3433.1133	1661.9042	-0.10365758	-0.018187324	-0.018182266	-3.759959	10.952288	0	839.9514340417961
8.3176377	1.2022644e-7	0.13	3131.7684	1516.856	-0.10284223	-0.018187361	-0.018181815	-3.4384157	9.9897709	0	840.717563736635
8.3176377	1.3182567e-7	0.13	2856.9387	1384.5624	-0.10202687	-0.018187401	-0.01818132	-3.1450929	9.1119451	0	841.4837082014415
8.3176377	1.4454398e-7	0.13	2606.2909	1263.901	-0.10121152	-0.018187445	-0.018180778	-2.8775076	8.3113583	0	842.2498490113385
8.3176377	1.5848932e-7	0.13	2377.6975	1153.8484	-0.10039617	-0.018187493	-0.018180183	-2.6333952	7.5812145	0	843.0159962948409
8.3176377	1.7378008e-7	0.13	2169.2178	1053.4712	-0.099580813	-0.018187546	-0.018179531	-2.4106903	6.9153155	0	843.7821571174799
8.3176377	1.9054607e-7	0.13	1979.0821	961.91798	-0.09876546	-0.018187605	-0.018178815	-2.2075092	6.3080084	0	844.5483219990411
8.3176377	2.0892961e-7	0.13	1805.6763	878.41235	-0.097950108	-0.018187668	-0.018178031	-2.0221341	5.7541379	0	845.3144942467947
8.3176377	2.2908677e-7	0.13	1647.5283	802.2462	-0.097134756	-0.018187738	-0.018177171	-1.8529983	5.2490019	0	846.0806757774542
8.3176377	2.5118864e-7	0.13	1503.2956	732.77375	-0.096319405	-0.018187815	-0.018176229	-1.6986728	4.7883125	0	846.8468663843148
8.3176377	2.7542287e-7	0.13	1371.7539	669.40602	-0.095504054	-0.018187899	-0.018175195	-1.5578546	4.3681588	0	847.6130682283768
8.3176377	3.0199517e-7	0.13	1251.7864	611.60586	-0.094688705	-0.018187991	-0.018174061	-1.4293551	3.984974	0	848.3792804076579
8.3176377	3.3113112e-7	0.13	1142.3748	558.88339	-0.093873356	-0.018188092	-0.018172819	-1.3120903	3.6355054	0	849.1455057784365
8.3176377	3.6307805e-7	0.13	1042.5902	510.79182	-0.093058008	-0.018188203	-0.018171456	-1.2050719	3.3167864	0	849.9117449890127
8.3176377	3.9810717e-7	0.13	951.58558	466.92369	-0.092242662	-0.018188325	-0.018169962	-1.1073982	3.0261111	0	850.677998321256
8.3176377	4.3651583e-7	0.13	868.58841	426.90738	-0.091427316	-0.018188458	-0.018168323	-1.0182469	2.7610122	0	851.4442693643064
8.3176377	4.7863009e-7	0.13	792.8941	390.40397	-0.090611972	-0.018188604	-0.018166527	-0.9368682	2.5192392	0	852.2105577047546
8.3176377	5.2480746e-7	0.13	723.86009	357.10436	-0.089796629	-0.018188765	-0.018164558	-0.86257818	2.2987397	0	852.9768662364625
8.3176377	5.7543994e-7	0.13	660.90035	326.72666	-0.088981288	-0.01818894	-0.018162398	-0.79475313	2.0976418	0	853.7431962184469
8.3176377	6.3095734e-7	0.13	603.4804	299.01378	-0.088165948	-0.018189133	-0.01816003	-0.73282418	1.9142384	0	854.5095506667134
8.3176377	6.9183097e-7	0.13	551.11281	273.73122	-0.08735061	-0.018189345	-0.018157433	-0.67627253	1.7469726	0	855.2759312067094
8.3176377	7.5857758e-7	0.13	503.35303	250.66516	-0.086535274	-0.018189576	-0.018154586	-0.62462504	1.5944245	0	856.0423404034486
8.3176377	8.3176377e-7	0.13	459.79563	229.62057	-0.085719941	-0.01818983	-0.018151465	-0.5774502	1.455299	0	856.8087802488097
8.3176377	9.1201084e-7	0.13	420.07083	210.41958	-0.084904609	-0.018190109	-0.018148042	-0.53435445	1.3284152	0	857.5752560419411
8.3176377	1.e-6	0.13	383.84143	192.89998	-0.084089281	-0.018190415	-0.018144289	-0.49497889	1.212696	0	858.3417683841643
8.3176377	1.0964782e-6	0.13	350.79985	176.91381	-0.083273955	-0.01819075	-0.018140174	-0.45899615	1.1071589	0	859.1083230632024
8.3176377	1.2022644e-6	0.13	320.66562	162.32616	-0.082458633	-0.018191117	-0.018135662	-0.42610772	1.010908	0	859.874922474947
8.3176377	1.3182567e-6	0.13	293.18293	149.01398	-0.081643314	-0.01819152	-0.018130715	-0.39604133	0.9231264	0	860.6415722004157
8.3176377	1.4454398e-6	0.13	268.11847	136.86503	-0.080827999	-0.018191962	-0.01812529	-0.36854865	0.84306877	0	861.4082765522141
8.3176377	1.5848932e-6	0.13	245.25946	125.77697	-0.080012688	-0.018192447	-0.018119342	-0.34340323	0.77005553	0	862.1750410267991
8.3176377	1.7378008e-6	0.13	224.41186	115.65645	-0.079197382	-0.018192978	-0.018112821	-0.32039852	0.70346688	0	862.9418707917805
8.3176377	1.9054607e-6	0.13	205.3987	106.41834	-0.078382081	-0.01819356	-0.01810567	-0.29934616	0.64273755	0	863.7087728093371
8.3176377	2.0892961e-6	0.13	188.05856	97.985	-0.077566785	-0.018194199	-0.01809783	-0.28007435	0.58735199	0	864.4757542859354
8.3176377	2.2908677e-6	0.13	172.24425	90.28562	-0.076751495	-0.0181949	-0.018089233	-0.26242643	0.53684005	0	865.2428225877677
8.3176377	2.5118864e-6	0.13	157.82152	83.255621	-0.075936212	-0.018195668	-0.018079807	-0.24625949	0.49077291	0	866.0099855696005
8.3176377	2.7542287e-6	0.13	144.66793	76.836108	-0.075120937	-0.018196511	-0.018069472	-0.23144322	0.44875951	0	866.7772520633476
8.3176377	3.0199517e-6	0.13	132.67182	70.973367	-0.074305669	-0.018197434	-0.01805814	-0.21785876	0.41044321	0	867.5446337572023
8.3176377	3.3113112e-6	0.13	121.73136	65.618411	-0.073490411	-0.018198447	-0.018045714	-0.20539771	0.37549874	0	868.3121396803878
8.3176377	3.6307805e-6	0.13	111.75368	60.726563	-0.072675161	-0.018199558	-0.018032091	-0.19396122	0.34362943	0	869.0797842928146
8.3176377	3.9810717e-6	0.13	102.65406	56.257079	-0.071859923	-0.018200777	-0.018017154	-0.18345912	0.31456478	0	869.8475781270101
8.3176377	4.3651583e-6	0.13	94.355274	52.172798	-0.071044696	-0.018202112	-0.018000776	-0.17380918	0.28805803	0	870.6155376347638
8.3176377	4.7863009e-6	0.13	86.786861	48.439829	-0.070229482	-0.018203578	-0.017982818	-0.16493641	0.26388417	0	871.3836779148909
8.3176377	5.2480746e-6	0.13	79.884577	45.027268	-0.069414282	-0.018205184	-0.01796313	-0.1567724	0.24183799	0	872.1520163493504
8.3176377	5.7543994e-6	0.13	73.589826	41.906925	-0.068599097	-0.018206946	-0.017941543	-0.14925476	0.22173233	0	872.9205726408275
8.3176377	6.3095734e-6	0.13	67.849173	39.053094	-0.067783929	-0.018208878	-0.017917874	-0.14232662	0.20339653	0	873.6893672624514
8.3176377	6.9183097e-6	0.13	62.613886	36.44233	-0.066968779	-0.018210997	-0.017891925	-0.13593606	0.18667492	0	874.4584234590685
8.3176377	7.5857758e-6	0.13	57.839521	34.053253	-0.06615365	-0.01821332	-0.017863474	-0.13003577	0.17142556	0	875.2277655278391
8.3176377	8.3176377e-6	0.13	53.485549	31.866363	-0.065338543	-0.018215868	-0.017832282	-0.12458258	0.15751899	0	875.9974217214933
8.3176377	9.1201084e-6	0.13	49.515008	29.863878	-0.06452346	-0.018218662	-0.017798084	-0.11953712	0.14483716	0	876.7674225289263
8.3176377	0.00001	0.13	45.894191	28.029579	-0.063708404	-0.018221727	-0.017760593	-0.11486348	0.13327242	0	877.5378001866259
8.3176377	0.000010964782	0.13	42.592363	26.348678	-0.062893377	-0.018225088	-0.017719493	-0.1105289	0.12272658	0	878.3085914128052
8.3176377	0.000012022644	0.13	39.577828	24.807633	-0.062084715	-0.018240205	-0.017685869	-0.10650743	0.11310572	0	879.0724891607597
8.3176377	0.000013182567	0.13	36.832006	23.394247	-0.061270363	-0.018245339	-0.01763757	-0.10276436	0.10433659	0	879.843525491352
8.3176377	0.000014454398	0.13	34.328242	22.097255	-0.060456107	-0.018250966	-0.017584625	-0.099278409	0.09634073	0	880.6150391023507
8.3176377	0.000015848932	0.13	32.045282	20.906428	-0.059641957	-0.018257135	-0.017526591	-0.096026911	0.089050262	0	881.3870747076712
8.3176377	0.000017378008	0.13	29.963745	19.812439	-0.058827922	-0.018263896	-0.017462982	-0.092989181	0.08240329	0	882.1596832129637
8.3176377	0.000019054607	0.13	28.065959	18.806781	-0.058014015	-0.018271307	-0.01739327	-0.090146355	0.07634339	0	882.9329168956444
8.3176377	0.000020892961	0.13	26.335814	17.881701	-0.057200246	-0.01827943	-0.017316875	-0.087481223	0.070819111	0	883.7068372032873
8.3176377	0.000022908677	0.13	24.75862	17.030125	-0.056386628	-0.018288333	-0.017233167	-0.084978082	0.065783554	0	884.4815088719449
8.3176377	0.000025118864	0.13	23.320987	16.245606	-0.055573177	-0.01829809	-0.017141458	-0.082622604	0.061193966	0	885.2570009032967
8.3176377	0.000027542287	0.13	22.010709	15.522265	-0.054759907	-0.018308782	-0.017041002	-0.080401718	0.057011376	0	886.0333912624751
8.3176377	0.000030199517	0.13	20.816659	14.854743	-0.053946836	-0.018320498	-0.016930985	-0.078303491	0.053200265	0	886.8107624621093
8.3176377	0.000033113112	0.13	19.728696	14.238153	-0.053133983	-0.018333336	-0.016810528	-0.076317035	0.049728266	0	887.5892040145901
8.3176377	0.000036307805	0.13	18.737579	13.66804	-0.052321367	-0.018347402	-0.016678679	-0.074432411	0.046565885	0	888.3688143487841
8.3176377	0.000039810717	0.13	17.834886	13.140344	-0.05150901	-0.018362812	-0.016534409	-0.072640544	0.043686249	0	889.1496984799098
8.3176377	0.000043651583	0.13	17.012945	12.651364	-0.050696938	-0.018379693	-0.016376616	-0.070933148	0.041064878	0	889.9319665814005
8.3176377	0.000047863009	0.13	16.264764	12.197726	-0.049885175	-0.018398183	-0.016204116	-0.069302656	0.038679474	0	890.7157407215863
8.3176377	0.000052480746	0.13	15.583976	11.776355	-0.049073751	-0.018418434	-0.016015651	-0.067742153	0.036509729	0	891.5011463700241
8.3176377	0.000057543994	0.13	14.964778	11.384448	-0.048262696	-0.018440611	-0.015809887	-0.066245322	0.034537145	0	892.2883182791763
8.3176377	0.000063095734	0.13	14.401884	11.01945	-0.047452043	-0.018464893	-0.015585422	-0.064806389	0.03274488	0	893.0773966885673
8.3176377	0.000069183097	0.13	13.890478	10.679031	-0.04664183	-0.018491477	-0.015340795	-0.063420074	0.03111759	0	893.8685243463606
8.3176377	0.000075857758	0.13	13.42617	10.361068	-0.045832095	-0.018520577	-0.0150745	-0.062081548	0.0296413	0	894.661849497177
8.3176377	0.000083176377	0.13	13.004957	10.063622	-0.045022882	-0.018552425	-0.014785003	-0.060786393	0.028303269	0	895.4575181682633
8.3176377	0.000091201084	0.13	12.623185	9.7849235	-0.044214235	-0.018587274	-0.014470769	-0.059530568	0.027091878	0	896.2556765090097
8.3176377	0.0001	0.13	12.277514	9.5233567	-0.043406206	-0.0186254	-0.014130294	-0.058310371	0.025996517	0	897.0564593658352
8.3176377	0.00010964782	0.13	11.964887	9.2774424	-0.042598846	-0.018667102	-0.013762139	-0.057122416	0.02500748	0	897.859994585397
8.3176377	0.00012022644	0.13	11.682501	9.0458258	-0.041792215	-0.018712703	-0.013364974	-0.055963603	0.024115874	0	898.6663882446232
8.3176377	0.00013182567	0.13	11.427776	8.8272633	-0.040986372	-0.018762556	-0.012937629	-0.054831096	0.023313525	0	899.4757278170476
8.3176377	0.00014454398	0.13	11.19833	8.6206108	-0.040181384	-0.018817041	-0.012479139	-0.053722301	0.022592899	0	900.2880682202651
8.3176377	0.00015848932	0.13	10.99196	8.4248134	-0.039377322	-0.018876573	-0.011988798	-0.052634849	0.021947026	0	901.1034289784438
8.3176377	0.00017378008	0.13	10.806614	8.2388961	-0.038574259	-0.018941594	-0.011466198	-0.051566581	0.021369435	0	901.9217913378593
8.3176377	0.00019054607	0.13	10.64038	8.0619555	-0.037772276	-0.019012587	-0.010911268	-0.050515531	0.020854093	0	902.7430878659061
8.3176377	0.00020892961	0.13	10.491467	7.8931534	-0.036971456	-0.01909007	-0.010324292	-0.049479912	0.020395366	0	903.5672058899077
8.3176377	0.00022908677	0.13	10.358196	7.7317112	-0.036171887	-0.0191746	-0.009705915	-0.048458112	0.019987977	0	904.3939839455587
8.3176377	0.00025118864	0.13	10.238993	7.5769058	-0.035373662	-0.019266776	-0.0090571298	-0.047448673	0.019626978	0	905.223213389219
8.3176377	0.00027542287	0.13	10.13238	7.4280668	-0.034576876	-0.019367239	-0.0083792418	-0.046450291	0.019307742	0	906.0546455160617
8.3176377	0.00030199517	0.13	10.036977	7.284574	-0.033781628	-0.019476676	-0.0076738236	-0.0454618	0.019025942	0	906.8879952262558
8.3176377	0.00033113112	0.13	9.9514976	7.1458561	-0.032988022	-0.019595819	-0.0069426556	-0.044482164	0.018777558	0	907.7229473407256
8.3176377	0.00036307805	0.13	9.8747516	7.0113892	-0.032196159	-0.019725446	-0.0061876623	-0.04351047	0.018558864	0	908.5591718982139
8.3176377	0.00039810717	0.13	9.8056423	6.8806958	-0.031406146	-0.019866384	-0.0054108464	-0.042545917	0.018366435	0	909.3963237484493
8.3176377	0.00043651583	0.13	9.7431685	6.7533435	-0.030618087	-0.020019506	-0.0046142291	-0.041587805	0.018197142	0	910.2340583002026
8.3176377	0.00047863009	0.13	9.6864224	6.6289429	-0.029832084	-0.020185733	-0.0037997998	-0.040635529	0.018048144	0	911.0720367255383
8.3176377	0.00052480746	0.13	9.6345883	6.5071464	-0.029048235	-0.020366029	-0.0029694713	-0.03968857	0.017916883	0	911.9099333109739
8.3176377	0.00057543994	0.13	9.5869401	6.3876455	-0.028266633	-0.020561403	-0.0021250506	-0.03874648	0.017801072	0	912.7474399636351
8.3176377	0.00063095734	0.13	9.5428375	6.2701681	-0.027487364	-0.0207729	-0.0012682149	-0.037808883	0.017698684	0	913.5842710218313
8.3176377	0.00069183097	0.13	9.5017229	6.1544766	-0.026710501	-0.0210016	-0.00040049901	-0.036875458	0.017607933	0	914.4201704302338
8.3176377	0.00075857758	0.13	9.463117	6.0403648	-0.025936107	-0.021248611	0.00047671379	-0.035945937	0.017527263	0	915.2549100375711
8.3176377	0.00083176377	0.13	9.4266148	5.9276553	-0.025164227	-0.021515062	0.0013621932	-0.035020095	0.017455329	0	916.0882972902598
8.3176377	0.00091201084	0.13	9.3918816	5.8161975	-0.024394889	-0.02180209	0.0022548656	-0.034097742	0.017390986	0	916.9201747447705
8.3176377	0.001	0.13	9.3586492	5.7058646	-0.023628097	-0.022110835	0.0031538119	-0.033178717	0.017333272	0	917.7504263819765
8.3176377	0.0010964782	0.13	9.3267118	5.596552	-0.022863837	-0.022442425	0.0040582695	-0.032262886	0.017281398	0	918.578972209163
8.3176377	0.0012022644	0.13	9.2959224	5.4881749	-0.022102066	-0.022797964	0.0049676313	-0.031350128	0.017234731	0	919.4057784743242
8.3176377	0.0013182567	0.13	9.2661884	5.3806664	-0.021342717	-0.023178521	0.0058814464	-0.030440336	0.017192789	0	920.2308530538359
8.3176377	0.0014454398	0.13	9.2374679	5.273976	-0.020585695	-0.023585114	0.0067994247	-0.02953341	0.017155223	0	921.0542497725787
8.3176377	0.0015848932	0.13	9.2097648	5.1680672	-0.019830881	-0.0240187	0.0077214373	-0.028629248	0.017121812	0	921.8760646945327
8.3176377	0.0017378008	0.13	9.1831235	5.0629161	-0.019078129	-0.024480162	0.0086475203	-0.027727751	0.017092444	0	922.6964394056191
8.3176377	0.0019054607	0.13	9.1576238	4.9585094	-0.018327274	-0.024970303	0.0095778731	-0.026828811	0.017067109	0	923.5155532895335
8.3176377	0.0020892961	0.13	9.1333743	4.8548423	-0.017578131	-0.025489834	0.010512863	-0.025932309	0.017045882	0	924.3336250291717
8.3176377	0.0022908677	0.13	9.1105056	4.7519166	-0.0168305	-0.026039378	0.011453018	-0.025038119	0.017028908	0	925.1509070293694
8.3176377	0.0025118864	0.13	9.0891638	4.6497387	-0.016084173	-0.026619469	0.012399022	-0.024146096	0.017016387	0	925.9676782536559
8.3176377	0.0027542287	0.13	9.0695019	4.5483174	-0.015338937	-0.027230553	0.013351707	-0.023256085	0.017008551	0	926.7842404528388
8.3176377	0.0030199517	0.13	9.0516726	4.4476616	-0.014594583	-0.027873009	0.014312035	-0.022367912	0.017005654	0	927.6009074981191
8.3176377	0.0033113112	0.13	9.0358199	4.3477781	-0.01385091	-0.028547157	0.015281079	-0.021481391	0.017007941	0	928.4179993021031
8.3176377	0.0036307805	0.13	9.0220703	4.2486695	-0.013107736	-0.029253287	0.016260005	-0.020596322	0.017015637	0	929.2358292849998
8.3176377	0.0039810717	0.13	9.0105241	4.150332	-0.0123649	-0.029991684	0.017250031	-0.019712494	0.017028919	0	930.0546974876083
8.3176377	0.0043651583	0.13	9.0012464	4.0527529	-0.011622275	-0.030762666	0.0182524	-0.018829687	0.017047893	0	930.8748750590929
8.3176377	0.0047863009	0.13	8.9942571	3.9559087	-0.010879775	-0.031566624	0.019268333	-0.017947677	0.017072576	0	931.6965919392817
8.3176377	0.0052480746	0.13	8.9895219	3.859763	-0.010137364	-0.032404065	0.020298988	-0.017066241	0.017102868	0	932.520023394695
8.3176377	0.0057543994	0.13	8.9869424	3.7642645	-0.0093950648	-0.033275671	0.021345401	-0.016185162	0.017138531	0	933.3452745439045
8.3176377	0.0063095734	0.13	8.9863491	3.6693458	-0.0086529667	-0.034182345	0.022408442	-0.015304238	0.017179175	0	934.1723677485651
8.3176377	0.0069183097	0.13	8.9874975	3.5749235	-0.0079112307	-0.03512527	0.023488752	-0.014423284	0.017224242	0	935.0012300326364
8.3176377	0.0075857758	0.13	8.99007	3.480899	-0.0071700855	-0.036105967	0.024586692	-0.013542144	0.017273016	0	935.8316906113245
8.3176377	0.0083176377	0.13	8.9936899	3.3871628	-0.0064298152	-0.03712634	0.025702296	-0.012660698	0.017324649	0	936.6634867069924
8.3176377	0.0091201084	0.13	8.9979485	3.2936013	-0.0056907282	-0.038188718	0.026835228	-0.011778862	0.017378218	0	937.4962875174715
8.3176377	0.01	0.13	9.0024517	3.2001079	-0.0049531064	-0.039295881	0.027984762	-0.010896594	0.017432823	0	938.3297395031123
8.3176377	0.010964782	0.13	9.0068838	3.1065986	-0.0042171325	-0.04045107	0.029149771	-0.010013886	0.017487726	0	939.1635333496057
8.3176377	0.012022644	0.13	9.0110844	3.0130292	-0.0034827989	-0.041657952	0.030328762	-0.0091307544	0.017542521	0	939.9974938374095
8.3176377	0.013182567	0.13	9.0151263	2.9194137	-0.0027498157	-0.042920565	0.031519937	-0.0082472204	0.01759731	0	940.8316737325138
8.3176377	0.014454398	0.13	9.0193741	2.8258394	-0.002017538	-0.044243193	0.032721318	-0.0073632844	0.017652867	0	941.6664373607787
8.3176377	0.015848932	0.13	9.0244972	2.7324739	-0.0012849476	-0.045630169	0.033930941	-0.0064788956	0.017710724	0	942.5025014978185
8.3176377	0.017378008	0.13	9.0313796	2.6395528	-0.00055075061	-0.047085664	0.035147077	-0.0055939259	0.017773096	0	943.3408706517403
8.3176377	0.019054607	0.13	9.040734	2.5473053	0.00018625095	-0.04861394	0.03636798	-0.0047081632	0.017842225	0	944.1824571404985
8.3176377	0.020892961	0.13	9.0517222	2.4556441	0.00092601467	-0.050222394	0.037588837	-0.0038213829	0.017917561	0	945.0266332404834
8.3176377	0.022908677	0.13	9.0584351	2.3632833	0.001664805	-0.051933868	0.038789471	-0.002933655	0.017987652	0	945.8674246690426
8.3176377	0.025118864	0.13	9.0496401	2.2675181	0.0023961039	-0.053800386	0.039920599	-0.0020459487	0.018027582	0	946.6926877037537
8.3176377	0.027542287	0.13	9.025044	2.1683025	0.0031226655	-0.055861419	0.040945573	-0.0011599622	0.018035248	0	947.5005337149108
8.3176377	0.030199517	0.13	8.9992748	2.0697818	0.0038558762	-0.058094436	0.041889829	-0.00027657147	0.018046471	0	948.3047678113669
8.3176377	0.033113112	0.13	8.9830382	1.9759378	0.0045994505	-0.06043955	0.042816251	0.00060471857	0.018096993	0	949.1165608801855
8.3176377	0.036307805	0.13	8.9751307	1.8892462	0.0053415636	-0.062811186	0.043813492	0.0014848892	0.018209714	0	949.9356311363225
8.3176377	0.039810717	0.13	8.9574809	1.8120562	0.0060430831	-0.065058503	0.045035569	0.0023640638	0.018405553	0	950.7440233074219
8.3176377	0.043651583	0.13	8.85155	1.7517131	0.0065579411	-0.066732838	0.046934414	0.0032385161	0.018745809	0	951.4596976101051
8.3176377	0.047863009	0.13	7.8037449	1.728074	0.0057278022	-0.066305638	0.051041947	0.0040575585	0.019355583	0	951.1814363024795
8.3176377	0.052480746	0.13	7.3403379	1.6310441	0.0058339907	-0.069009132	0.052129408	0.0047983311	0.019237385	0	951.4140336254078
8.3176377	0.057543994	0.13	7.007367	1.5364275	0.0060526815	-0.071919602	0.053124086	0.0055007182	0.019102164	0	951.7410013712686
8.3176377	0.063095734	0.13	6.7754829	1.4459577	0.0063467293	-0.07491282	0.05415389	0.0061754401	0.018975989	0	952.1430623556322
8.3176377	0.069183097	0.13	6.6521594	1.3595864	0.0067276556	-0.077942157	0.055269242	0.006832618	0.018868553	0	952.6372005000089
8.3176377	0.075857758	0.13	6.6611106	1.2769592	0.0072284999	-0.080981617	0.056500044	0.0074839396	0.018788405	0	953.2581109085824
8.3176377	0.083176377	0.13	6.8390783	1.1977175	0.0079011561	-0.084020749	0.057860771	0.0081440753	0.018747042	0	954.0563193187661
8.3176377	0.091201084	0.13	7.2336408	1.121585	0.0088153709	-0.087065916	0.059349206	0.0088318453	0.018760838	0	955.0970865210279
8.3176377	0.1	0.13	7.9012219	1.0483793	0.010057888	-0.090142604	0.060944139	0.0095711826	0.018852111	0	956.4593232266786
8.3176377	0.10964782	0.13	8.905444	0.97799696	0.011731669	-0.093296898	0.062603888	0.010391915	0.019049775	0	958.2346774022797
8.3176377	0.12022644	0.13	10.316281	0.91039881	0.013955627	-0.096595334	0.064266452	0.011330422	0.019389859	0	960.5273026573875
8.3176377	0.13182567	0.13	12.210519	0.84561358	0.016865532	-0.10012324	0.065851185	0.012430263	0.019916179	0	963.4549133952332
8.3176377	0.14454398	0.13	14.674164	0.78377221	0.020617056	-0.10398252	0.067260989	0.01374295	0.020681406	0	967.1519137438568
8.3176377	0.15848932	0.13	17.802685	0.72525108	0.02538718	-0.10829286	0.068381159	0.015328943	0.021749333	0	971.7705784488144
8.3176377	0.17378008	0.13	21.73539	0.67032027	0.031410654	-0.11317405	0.069097023	0.017259815	0.023193922	0	977.5174640371029
8.3176377	0.19054607	0.13	26.606987	0.6186043	0.038927247	-0.1187162	0.069323742	0.019620934	0.025097218	0	984.6074866211115
8.3176377	0.20892961	0.13	32.586736	0.57023616	0.048228596	-0.12501201	0.068974049	0.022512444	0.027560542	0	993.3039991243968
8.3176377	0.22908677	0.13	39.863401	0.52534214	0.059641782	-0.13213182	0.067983212	0.026052107	0.030702774	0	1003.9064089284511
8.3176377	0.25118864	0.13	48.632683	0.4840277	0.073516161	-0.14011469	0.066317956	0.030376664	0.034661589	0	1016.7388945008764
8.3176377	0.27542287	0.13	59.076537	0.44635757	0.090200052	-0.14896048	0.063984372	0.035641566	0.039593011	0	1032.1294682808505
8.3176377	0.30199517	0.13	71.336889	0.41233376	0.11000954	-0.15862515	0.061032631	0.042018364	0.045668608	0	1050.3812408433407
8.3176377	0.33113112	0.13	85.489544	0.38187813	0.13319558	-0.16902168	0.057556091	0.049689471	0.053070102	0	1071.741403883209
8.3176377	0.36307805	0.13	101.5259	0.35482606	0.1599181	-0.18002793	0.053683415	0.058840696	0.061981845	0	1096.375935556312
8.3176377	0.39810717	0.13	119.34867	0.33093471	0.19023463	-0.19150062	0.049564592	0.069652626	0.072582273	0	1124.3572092379818
8.3176377	0.43651583	0.13	138.78299	0.30990386	0.22410613	-0.20329236	0.04535396	0.08229236	0.085035828	0	1155.6673956797626
8.3176377	0.47863009	0.13	159.59925	0.29140307	0.26141668	-0.2152675	0.041194321	0.096906958	0.099486646	0	1190.2150228017272
8.3176377	0.52480746	0.13	181.54049	0.27509806	0.30200024	-0.2273137	0.037205361	0.11361941	0.11605475	0	1227.8587040395632
8.3176377	0.57543994	0.13	204.34785	0.26067121	0.34566702	-0.23934792	0.033477728	0.13252722	0.13483485	0	1268.431191349075
8.3176377	0.63095734	0.13	227.78	0.24783464	0.39222513	-0.25131715	0.030072264	0.15370328	0.15589727	0	1311.7596229898043
8.3176377	0.69183097	0.13	251.62529	0.23633621	0.4414955	-0.26319551	0.027022912	0.17719817	0.17929037	0	1357.6798969111937
8.3176377	0.75857758	0.13	275.70755	0.22596066	0.49332064	-0.27497942	0.024341579	0.20304346	0.20504381	0	1406.0454953288731
8.3176377	0.83176377	0.13	299.88704	0.21652745	0.54756853	-0.28668214	0.02202359	0.23125525	0.23317209	0	1456.7318058044943
8.3176377	0.91201084	0.13	324.05846	0.20788704	0.60413329	-0.29832866	0.020052791	0.26183762	0.26367797	0	1509.6373740527724
8.3176377	1.	0.13	348.14723	0.1999166	0.66293388	-0.30995143	0.018405869	0.29478591	0.2965557	0	1564.6832101664331
8.3176377	1.0964782	0.13	372.1052	0.19251575	0.72391193	-0.32158695	0.017055712	0.33008945	0.33179372	0	1621.8111601615465
8.3176377	1.2022644	0.13	395.90625	0.18560265	0.78702908	-0.33327337	0.015973864	0.36773398	0.36937705	0	1680.9817065959796
8.3176377	1.3182567	0.13	419.54226	0.1791106	0.85226442	-0.34504883	0.0151322	0.40770358	0.40928918	0	1742.171767872452
8.3176377	1.4454398	0.13	443.01949	0.17298521	0.91961211	-0.35695034	0.014503999	0.44998228	0.45151365	0	1805.372593132977
8.3176377	1.5848932	0.13	466.35548	0.167182	0.98907926	-0.36901324	0.01406456	0.49455529	0.49603529	0	1870.5878456207106
8.3176377	1.7378008	0.13	489.57651	0.16166447	1.0606841	-0.38127086	0.013791493	0.54141	0.54284116	0	1937.8319188191185
8.3176377	1.9054607	0.13	512.71546	0.15640252	1.1344546	-0.39375451	0.013664802	0.5905367	0.59192127	0	2007.128649989705
8.3176377	2.0892961	0.13	535.81009	0.15137122	1.2104269	-0.40649349	0.013666829	0.64192915	0.64326919	0	2078.5098382143756
8.3176377	2.2908677	0.13	558.90166	0.14654977	1.2886446	-0.41951527	0.013782111	0.69558503	0.69688238	0	2152.014559837519
8.3176377	2.5118864	0.13	582.03387	0.14192073	1.3691579	-0.43284567	0.013997205	0.75150614	0.75276251	0	2227.6883390646954
8.3176377	2.7542287	0.13	605.25201	0.13746933	1.4520226	-0.4465091	0.014300493	0.80969868	0.81091565	0	2305.5821845793034
8.3176377	3.0199517	0.13	628.60228	0.13318301	1.5372999	-0.4605287	0.014681977	0.87017335	0.87135237	0	2385.7523765900955
8.3176377	3.3113112	0.13	652.13131	0.12905095	1.6250557	-0.47492662	0.015133094	0.93294536	0.9340878	0	2468.259786538885
8.3176377	3.6307805	0.13	675.8858	0.12506382	1.7153606	-0.48972415	0.015646545	0.99803454	0.99914169	0	2553.1698562140077
8.3176377	3.9810717	0.13	699.91224	0.12121343	1.8082891	-0.50494193	0.01621613	1.0654653	1.0665383	0	2640.5518259443675
8.3176377	4.3651583	0.13	724.25673	0.11749258	1.90392	-0.52060007	0.016836611	1.1352665	1.1363066	0	2730.479093691914
8.3176377	4.7863009	0.13	748.96483	0.11389488	2.0023358	-0.53671832	0.017503588	1.2074716	1.2084798	0	2823.0286361666413
8.3176377	5.2480746	0.13	774.08154	0.11041458	2.1036226	-0.55331618	0.018213384	1.2821184	1.2830958	0	2918.280900823554
8.3176377	5.7543994	0.13	799.6512	0.10704651	2.2078703	-0.57041301	0.018962954	1.3592492	1.3601968	0	3016.3199826606706
8.3176377	6.3095734	0.13	825.71757	0.10378595	2.3151723	-0.58802813	0.019749805	1.4389105	1.4398293	0	3117.233332577948
8.3176377	6.9183097	0.13	852.32378	0.10062858	2.4256257	-0.60618089	0.020571916	1.5211532	1.522044	0	3221.1119355188666
8.3176377	7.5857758	0.13	879.51239	0.097570402	2.5393309	-0.6248908	0.021427684	1.6060322	1.6068959	0	3328.0499280485437
8.3176377	8.3176377	0.13	907.32547	0.094607716	2.656392	-0.64417754	0.022315865	1.6936067	1.6944442	0	3438.144966973406
8.3176377	9.1201084	0.13	935.80464	0.091737059	2.7769167	-0.66406105	0.023235531	1.7839399	1.7847521	0	3551.4981301324833
8.3176377	10.	0.13	964.99114	0.088955181	2.9010163	-0.6845616	0.02418603	1.8770993	1.8778868	0	3668.213911511673