8.3176377	1.e-12	0.14	3.7552135e8	1.8063731e8	-0.20649508	-0.017428548	-0.017428548	-399675.82	1.199442e6	0	743.2571915142963
8.3176377	1.0964782e-12	0.14	3.4247954e8	1.6474319e8	-0.20567972	-0.017428548	-0.017428548	-364508.7	1.0939041e6	0	744.0232755180723
8.3176377	1.2022644e-12	0.14	3.1234506e8	1.5024758e8	-0.20486436	-0.017428548	-0.017428548	-332435.9	997652.43	0	744.7893595218484
8.3176377	1.3182567e-12	0.14	2.8486208e8	1.3702742e8	-0.20404901	-0.017428548	-0.017428548	-303185.16	909869.83	0	745.5554341299709
8.3176377	1.4454398e-12	0.14	2.597973e8	1.2497049e8	-0.20323365	-0.017428548	-0.017428548	-276508.17	829811.14	0	746.3215181337467
8.3176377	1.5848932e-12	0.14	2.3693796e8	1.1397445e8	-0.20241829	-0.017428548	-0.017428548	-252178.47	756796.77	0	747.0876021375228
8.3176377	1.7378008e-12	0.14	2.1608999e8	1.0394593e8	-0.20160293	-0.017428548	-0.017428548	-229989.52	690206.86	0	747.8536861412988
8.3176377	1.9054607e-12	0.14	1.9707641e8	9.4799821e7	-0.20078757	-0.017428548	-0.017428548	-209752.95	629476.13	0	748.6197701450748
8.3176377	2.0892961e-12	0.14	1.7973583e8	8.6458467e7	-0.19997221	-0.017428548	-0.017428548	-191296.98	574089.06	0	749.3858541488509
8.3176377	2.2908677e-12	0.14	1.6392102e8	7.8851061e7	-0.19915685	-0.017428548	-0.017428548	-174464.94	523575.45	0	750.1519381526268
8.3176377	2.5118864e-12	0.14	1.4949775e8	7.1913025e7	-0.1983415	-0.017428548	-0.017428548	-159113.93	477506.49	0	750.9180127607494
8.3176377	2.7542287e-12	0.14	1.3634357e8	6.558546e7	-0.19752614	-0.017428548	-0.017428548	-145113.65	435491.09	0	751.6840967645253
8.3176377	3.0199517e-12	0.14	1.2434681e8	5.9814652e7	-0.19671078	-0.017428548	-0.017428548	-132345.24	397172.59	0	752.4501807683013
8.3176377	3.3113112e-12	0.14	1.1340564e8	5.4551613e7	-0.19589542	-0.017428548	-0.017428548	-120700.31	362225.71	0	753.2162647720772
8.3176377	3.6307805e-12	0.14	1.0342717e8	4.9751665e7	-0.19508006	-0.017428548	-0.017428548	-110080.01	330353.78	0	753.9823487758533
8.3176377	3.9810717e-12	0.14	9.4326705e7	4.537406e7	-0.1942647	-0.017428548	-0.017428548	-100394.18	301286.23	0	754.7484327796294
8.3176377	4.3651583e-12	0.14	8.6026978e7	4.1381636e7	-0.19344934	-0.017428548	-0.017428548	-91560.595	274776.3	0	755.5145167834053
8.3176377	4.7863009e-12	0.14	7.8457538e7	3.7740503e7	-0.19263398	-0.017428548	-0.017428548	-83504.273	250598.97	0	756.2806007871814
8.3176377	5.2480746e-12	0.14	7.1554126e7	3.441975e7	-0.19181863	-0.017428548	-0.017428548	-76156.82	228548.98	0	757.0466753953037
8.3176377	5.7543994e-12	0.14	6.5258139e7	3.1391187e7	-0.19100327	-0.017428548	-0.017428548	-69455.862	208439.15	0	757.8127593990799
8.3176377	6.3095734e-12	0.14	5.9516131e7	2.8629105e7	-0.19018791	-0.017428548	-0.017428548	-63344.516	190098.76	0	758.5788434028558
8.3176377	6.9183097e-12	0.14	5.4279357e7	2.6110056e7	-0.18937255	-0.017428548	-0.017428548	-57770.902	173372.13	0	759.3449274066319
8.3176377	7.5857758e-12	0.14	4.9503362e7	2.3812656e7	-0.18855719	-0.017428548	-0.017428548	-52687.705	158117.27	0	760.1110114104077
8.3176377	8.3176377e-12	0.14	4.5147604e7	2.1717403e7	-0.18774183	-0.017428548	-0.017428548	-48051.776	144204.66	0	760.8770954141838
8.3176377	9.1201084e-12	0.14	4.1175105e7	1.9806508e7	-0.18692647	-0.017428548	-0.017428548	-43823.756	131516.22	0	761.6431794179598
8.3176377	1.e-11	0.14	3.7552143e7	1.8063752e7	-0.18611112	-0.017428548	-0.017428548	-39967.758	119944.22	0	762.4092540260824
8.3176377	1.0964782e-11	0.14	3.4247962e7	1.647434e7	-0.18529576	-0.017428548	-0.017428548	-36451.045	109390.43	0	763.1753380298583
8.3176377	1.2022644e-11	0.14	3.1234513e7	1.5024779e7	-0.1844804	-0.017428548	-0.017428548	-33243.764	99765.256	0	763.9414220336344
8.3176377	1.3182567e-11	0.14	2.8486215e7	1.3702763e7	-0.18366504	-0.017428548	-0.017428548	-30318.69	90986.995	0	764.7075060374104
8.3176377	1.4454398e-11	0.14	2.5979738e7	1.249707e7	-0.18284968	-0.017428548	-0.017428547	-27650.99	82981.128	0	765.4735901727254
8.3176377	1.5848932e-11	0.14	2.3693803e7	1.1397466e7	-0.18203432	-0.017428548	-0.017428548	-25218.019	75679.688	0	766.2396740449624
8.3176377	1.7378008e-11	0.14	2.1609006e7	1.0394614e7	-0.18121896	-0.017428548	-0.017428547	-22999.123	69020.698	0	767.0057581802773
8.3176377	1.9054607e-11	0.14	1.9707649e7	9.4800027e6	-0.1804036	-0.017428548	-0.017428547	-20975.466	62947.626	0	767.7718421840534
8.3176377	2.0892961e-11	0.14	1.797359e7	8.6458671e6	-0.17958825	-0.017428548	-0.017428547	-19129.868	57408.917	0	768.537916792176
8.3176377	2.2908677e-11	0.14	1.639211e7	7.8851265e6	-0.17877289	-0.017428548	-0.017428547	-17446.663	52357.556	0	769.304000795952
8.3176377	2.5118864e-11	0.14	1.4949782e7	7.1913227e6	-0.17795753	-0.017428548	-0.017428547	-15911.561	47750.66	0	770.070084799728
8.3176377	2.7542287e-11	0.14	1.3634364e7	6.5585662e6	-0.17714217	-0.017428548	-0.017428547	-14511.532	43549.121	0	770.8361688035039
8.3176377	3.0199517e-11	0.14	1.2434689e7	5.9814854e6	-0.17632681	-0.017428548	-0.017428547	-13234.691	39717.271	0	771.6022528072799
8.3176377	3.3113112e-11	0.14	1.1340572e7	5.4551815e6	-0.17551145	-0.017428548	-0.017428547	-12070.197	36222.583	0	772.3683368110559
8.3176377	3.6307805e-11	0.14	1.0342725e7	4.9751865e6	-0.17469609	-0.017428548	-0.017428546	-11008.166	33035.39	0	773.1344209463712
8.3176377	3.9810717e-11	0.14	9.432678e6	4.5374259e6	-0.17388074	-0.017428548	-0.017428546	-10039.582	30128.635	0	773.9004955544937
8.3176377	4.3651583e-11	0.14	8.6027053e6	4.1381835e6	-0.17306538	-0.017428548	-0.017428546	-9156.2234	27477.643	0	774.6665795582696
8.3176377	4.7863009e-11	0.14	7.8457613e6	3.7740701e6	-0.17225002	-0.017428548	-0.017428546	-8350.5904	25059.909	0	775.4326635620456
8.3176377	5.2480746e-11	0.14	7.15542e6	3.4419946e6	-0.17143466	-0.017428548	-0.017428546	-7615.8443	22854.91	0	776.1987475658217
8.3176377	5.7543994e-11	0.14	6.5258214e6	3.1391383e6	-0.1706193	-0.017428548	-0.017428546	-6945.7479	20843.927	0	776.9648315695974
8.3176377	6.3095734e-11	0.14	5.9516206e6	2.86293e6	-0.16980394	-0.017428548	-0.017428545	-6334.6126	19009.888	0	777.7309157049128
8.3176377	6.9183097e-11	0.14	5.4279432e6	2.611025e6	-0.16898858	-0.017428548	-0.017428545	-5777.2504	17337.225	0	778.4969997086887
8.3176377	7.5857758e-11	0.14	4.9503437e6	2.381285e6	-0.16817322	-0.017428549	-0.017428545	-5268.93	15811.739	0	779.2630837124648
8.3176377	8.3176377e-11	0.14	4.5147679e6	2.1717595e6	-0.16735787	-0.017428548	-0.017428544	-4805.3363	14420.478	0	780.0291584521264
8.3176377	9.1201084e-11	0.14	4.117518e6	1.98067e6	-0.16654251	-0.017428549	-0.017428544	-4382.5336	13151.633	0	780.7952424559026
8.3176377	1.e-10	0.14	3.7552218e6	1.8063944e6	-0.16572715	-0.017428548	-0.017428544	-3996.9331	11994.434	0	781.5613264596784
8.3176377	1.0964782e-10	0.14	3.4248037e6	1.647453e6	-0.16491179	-0.017428549	-0.017428543	-3645.261	10939.055	0	782.3274105949936
8.3176377	1.2022644e-10	0.14	3.1234588e6	1.5024968e6	-0.16409643	-0.017428549	-0.017428543	-3324.5323	9976.5375	0	783.0934945987697
8.3176377	1.3182567e-10	0.14	2.848629e6	1.3702952e6	-0.16328107	-0.017428549	-0.017428542	-3032.0241	9098.7114	0	783.8595787340847
8.3176377	1.4454398e-10	0.14	2.5979813e6	1.2497258e6	-0.16246571	-0.017428549	-0.017428542	-2765.2534	8298.1246	0	784.6256627378607
8.3176377	1.5848932e-10	0.14	2.3693878e6	1.1397652e6	-0.16165036	-0.017428549	-0.017428541	-2521.9555	7567.9807	0	785.3917374775224
8.3176377	1.7378008e-10	0.14	2.1609081e6	1.03948e6	-0.160835	-0.017428549	-0.01742854	-2300.0652	6902.0817	0	786.1578216128374
8.3176377	1.9054607e-10	0.14	1.9707724e6	948018.81	-0.16001964	-0.017428549	-0.017428539	-2097.6987	6294.7745	0	786.9239057481526
8.3176377	2.0892961e-10	0.14	1.7973665e6	864605.16	-0.15920428	-0.017428549	-0.017428539	-1913.1382	5740.9037	0	787.6899897519287
8.3176377	2.2908677e-10	0.14	1.6392184e6	788531.01	-0.15838892	-0.017428549	-0.017428538	-1744.817	5235.7675	0	788.4560738872439
8.3176377	2.5118864e-10	0.14	1.4949857e6	719150.56	-0.15757356	-0.017428549	-0.017428537	-1591.3061	4775.0779	0	789.2221580225589
8.3176377	2.7542287e-10	0.14	1.3634439e6	655874.82	-0.1567582	-0.017428549	-0.017428536	-1451.3024	4354.924	0	789.9882421578742
8.3176377	3.0199517e-10	0.14	1.2434764e6	598166.66	-0.15594285	-0.017428549	-0.017428534	-1323.6175	3971.7391	0	790.754317029075
8.3176377	3.3113112e-10	0.14	1.1340647e6	545536.18	-0.15512749	-0.017428549	-0.017428533	-1207.1674	3622.2702	0	791.52040116439
8.3176377	3.6307805e-10	0.14	1.03428e6	497536.6	-0.15431213	-0.017428549	-0.017428531	-1100.9636	3303.5509	0	792.2864854312444
8.3176377	3.9810717e-10	0.14	943275.3	453760.46	-0.15349677	-0.01742855	-0.01742853	-1004.1045	3012.8754	0	793.0525695665596
8.3176377	4.3651583e-10	0.14	860278.03	413836.14	-0.15268141	-0.01742855	-0.017428528	-915.76789	2747.7762	0	793.8186538334137
8.3176377	4.7863009e-10	0.14	784583.61	377424.71	-0.15186605	-0.01742855	-0.017428526	-835.20385	2506.0028	0	794.5847381002682
8.3176377	5.2480746e-10	0.14	715549.49	344217.09	-0.15105069	-0.01742855	-0.017428524	-761.7285	2285.5029	0	795.3508223671224
8.3176377	5.7543994e-10	0.14	652589.62	313931.37	-0.15023533	-0.01742855	-0.017428522	-694.71812	2084.4046	0	796.1169066339767
8.3176377	6.3095734e-10	0.14	595169.54	286310.45	-0.14941998	-0.01742855	-0.017428519	-633.60385	1901.0007	0	796.8829816367166
8.3176377	6.9183097e-10	0.14	542801.8	261119.87	-0.14860462	-0.017428551	-0.017428516	-577.86691	1733.7344	0	797.6490660351102
8.3176377	7.5857758e-10	0.14	495041.86	238145.78	-0.14778926	-0.017428551	-0.017428513	-527.03414	1581.1858	0	798.4151504335034
8.3176377	8.3176377e-10	0.14	451484.28	217193.16	-0.1469739	-0.017428551	-0.01742851	-480.67403	1442.0597	0	799.1812348318971
8.3176377	9.1201084e-10	0.14	411759.28	198084.13	-0.14615854	-0.017428551	-0.017428506	-438.39303	1315.1753	0	799.9473193618294
8.3176377	1.e-9	0.14	375529.66	180656.47	-0.14534318	-0.017428552	-0.017428502	-399.83224	1199.4553	0	800.7134038917621
8.3176377	1.0964782e-9	0.14	342487.86	164762.26	-0.14452782	-0.017428552	-0.017428497	-364.6643	1093.9174	0	801.479488553234
8.3176377	1.2022644e-9	0.14	312353.37	150266.55	-0.14371247	-0.017428552	-0.017428493	-332.59069	997.66565	0	802.2455636875131
8.3176377	1.3182567e-9	0.14	284870.39	137046.31	-0.14289711	-0.017428553	-0.017428487	-303.33914	909.88306	0	803.0116484805238
8.3176377	1.4454398e-9	0.14	259805.61	124989.29	-0.14208175	-0.017428553	-0.017428481	-276.66133	829.82437	0	803.7777332735349
8.3176377	1.5848932e-9	0.14	236946.27	113993.15	-0.14126639	-0.017428554	-0.017428475	-252.33082	756.80999	0	804.5438180665458
8.3176377	1.7378008e-9	0.14	216098.3	103964.54	-0.14045103	-0.017428554	-0.017428468	-230.14105	690.22007	0	805.3099029910957
8.3176377	1.9054607e-9	0.14	197084.72	94818.339	-0.13963567	-0.017428555	-0.01742846	-209.90367	629.48935	0	806.075988047185
8.3176377	2.0892961e-9	0.14	179744.13	86476.892	-0.13882031	-0.017428555	-0.017428452	-191.44688	574.10227	0	806.8420731032741
8.3176377	2.2908677e-9	0.14	163929.33	78869.395	-0.13800496	-0.017428556	-0.017428442	-174.61403	523.58867	0	807.6081490267882
8.3176377	2.5118864e-9	0.14	149506.06	71931.266	-0.1371896	-0.017428557	-0.017428432	-159.26221	477.5197	0	808.3742343459556
8.3176377	2.7542287e-9	0.14	136351.88	65603.61	-0.13637424	-0.017428558	-0.017428421	-145.26111	435.50431	0	809.1403197966623
8.3176377	3.0199517e-9	0.14	124355.12	59832.71	-0.13555888	-0.017428558	-0.017428408	-132.49188	397.18581	0	809.9064055104471
8.3176377	3.3113112e-9	0.14	113413.95	54569.58	-0.13474352	-0.017428559	-0.017428395	-120.84614	362.23893	0	810.6724912242321
8.3176377	3.6307805e-9	0.14	103435.49	49769.539	-0.13392816	-0.01742856	-0.01742838	-110.22502	330.367	0	811.4385772010954
8.3176377	3.9810717e-9	0.14	94335.014	45391.841	-0.1331128	-0.017428562	-0.017428364	-100.53838	301.29945	0	812.2046633094976
8.3176377	4.3651583e-9	0.14	86035.288	41399.326	-0.13229745	-0.017428563	-0.017428346	-91.703981	274.78953	0	812.970740285325
8.3176377	4.7863009e-9	0.14	78465.847	37758.101	-0.13148209	-0.017428564	-0.017428327	-83.646843	250.61219	0	813.7368267883448
8.3176377	5.2480746e-9	0.14	71562.435	34437.256	-0.13066673	-0.017428566	-0.017428305	-76.298575	228.5622	0	814.5029136859821
8.3176377	5.7543994e-9	0.14	65266.448	31408.601	-0.12985137	-0.017428568	-0.017428282	-69.596803	208.45237	0	815.2690007151584
8.3176377	6.3095734e-9	0.14	59524.44	28646.427	-0.12903601	-0.01742857	-0.017428256	-63.484642	190.11198	0	816.0350881389523
8.3176377	6.9183097e-9	0.14	54287.666	26127.286	-0.12822065	-0.017428572	-0.017428228	-57.910214	173.38535	0	816.8011758258244
8.3176377	7.5857758e-9	0.14	49511.672	23829.794	-0.12740529	-0.017428574	-0.017428197	-52.826203	158.13048	0	817.5672639073142
8.3176377	8.3176377e-9	0.14	45155.913	21734.448	-0.12658994	-0.017428576	-0.017428163	-48.189458	144.21788	0	818.3333429877677
8.3176377	9.1201084e-9	0.14	41183.414	19823.462	-0.12577458	-0.017428579	-0.017428126	-43.960625	131.52943	0	819.0994318584922
8.3176377	1.e-8	0.14	37560.452	18080.614	-0.12495922	-0.017428582	-0.017428085	-40.103812	119.95743	0	819.8655212553732
8.3176377	1.0964782e-8	0.14	34256.271	16491.11	-0.12414386	-0.017428585	-0.017428041	-36.586285	109.40365	0	820.6316110468719
8.3176377	1.2022644e-8	0.14	31242.823	15041.457	-0.1233285	-0.017428589	-0.017427992	-33.378189	99.778474	0	821.3977014960661
8.3176377	1.3182567e-8	0.14	28494.525	13719.349	-0.12251314	-0.017428593	-0.017427938	-30.452301	91.000214	0	822.1637926029563
8.3176377	1.4454398e-8	0.14	25988.047	12513.564	-0.12169779	-0.017428597	-0.017427879	-27.783786	82.994345	0	822.9298749718885
8.3176377	1.5848932e-8	0.14	23702.113	11413.868	-0.12088243	-0.017428602	-0.017427814	-25.350001	75.692907	0	823.6959675257092
8.3176377	1.7378008e-8	0.14	21617.315	10410.924	-0.12006707	-0.017428607	-0.017427744	-23.13029	69.033916	0	824.4620607372257
8.3176377	1.9054607e-8	0.14	19715.958	9496.2206	-0.11925171	-0.017428613	-0.017427666	-21.105818	62.960844	0	825.2281550010551
8.3176377	2.0892961e-8	0.14	17981.899	8661.9931	-0.11843635	-0.017428619	-0.017427581	-19.259406	57.422137	0	825.9942501856589
8.3176377	2.2908677e-8	0.14	16400.419	7901.1604	-0.117621	-0.017428625	-0.017427488	-17.575386	52.370776	0	826.7603370269222
8.3176377	2.5118864e-8	0.14	14958.092	7207.2647	-0.11680564	-0.017428633	-0.017427385	-16.039471	47.763879	0	827.5264345792306
8.3176377	2.7542287e-8	0.14	13642.674	6574.4161	-0.11599028	-0.017428641	-0.017427273	-14.638627	43.56234	0	828.2925333153913
8.3176377	3.0199517e-8	0.14	12442.998	5997.2433	-0.11517492	-0.01742865	-0.01742715	-13.360971	39.730491	0	829.0586334984827
8.3176377	3.3113112e-8	0.14	11348.881	5470.8473	-0.11435957	-0.01742866	-0.017427015	-12.195662	36.235802	0	829.8247258643902
8.3176377	3.6307805e-8	0.14	10351.034	4990.7604	-0.11354421	-0.017428671	-0.017426867	-11.132817	33.048609	0	830.5908293359603
8.3176377	3.9810717e-8	0.14	9440.9874	4552.9077	-0.11272885	-0.017428683	-0.017426705	-10.163418	30.141853	0	831.3569346490784
8.3176377	4.3651583e-8	0.14	8611.0148	4153.5733	-0.11191349	-0.017428696	-0.017426527	-9.2792451	27.490862	0	832.1230420668229
8.3176377	4.7863009e-8	0.14	7854.0707	3789.3679	-0.11109814	-0.01742871	-0.017426332	-8.4727975	25.073128	0	832.8891423250795
8.3176377	5.2480746e-8	0.14	7163.7295	3457.2005	-0.11028278	-0.017428725	-0.017426118	-7.7372368	22.868129	0	833.6552544782335
8.3176377	5.7543994e-8	0.14	6534.1309	3154.2521	-0.10946742	-0.017428742	-0.017425884	-7.0663258	20.857146	0	834.4213692621702
8.3176377	6.3095734e-8	0.14	5959.93	2877.9518	-0.10865207	-0.017428761	-0.017425627	-6.4543759	19.023107	0	835.1874776758541
8.3176377	6.9183097e-8	0.14	5436.2527	2625.9548	-0.10783671	-0.017428782	-0.017425345	-5.8961992	17.350445	0	835.9535987736701
8.3176377	7.5857758e-8	0.14	4958.6533	2396.1228	-0.10702135	-0.017428804	-0.017425036	-5.3870643	15.824958	0	836.7197234230432
8.3176377	8.3176377e-8	0.14	4523.0774	2186.5053	-0.106206	-0.017428829	-0.017424697	-4.922656	14.433698	0	837.4858426229371
8.3176377	9.1201084e-8	0.14	4125.8276	1995.3238	-0.10539064	-0.017428856	-0.017424326	-4.4990388	13.164853	0	838.2519754277374
8.3176377	1.e-7	0.14	3763.5313	1820.9561	-0.10457529	-0.017428886	-0.017423918	-4.1126236	12.007653	0	839.0181037038327
8.3176377	1.0964782e-7	0.14	3433.1133	1661.9228	-0.10375993	-0.017428918	-0.017423472	-3.760137	10.952274	0	839.7842463740692
8.3176377	1.2022644e-7	0.14	3131.7685	1516.8746	-0.10294458	-0.017428954	-0.017422982	-3.4385936	9.9897572	0	840.5503854363748
8.3176377	1.3182567e-7	0.14	2856.9387	1384.5809	-0.10212922	-0.017428993	-0.017422445	-3.1452709	9.1119314	0	841.3165400766736
8.3176377	1.4454398e-7	0.14	2606.291	1263.9196	-0.10131387	-0.017429036	-0.017421856	-2.8776856	8.3113447	0	842.0826921613549
8.3176377	1.5848932e-7	0.14	2377.6976	1153.867	-0.10049852	-0.017429083	-0.01742121	-2.6335732	7.581201	0	842.8488517437676
8.3176377	1.7378008e-7	0.14	2169.2179	1053.4898	-0.099683165	-0.017429135	-0.017420502	-2.4108682	6.915302	0	843.6150241794345
8.3176377	1.9054607e-7	0.14	1979.0822	961.93656	-0.098867813	-0.017429191	-0.017419726	-2.2076872	6.3079949	0	844.3812027410672
8.3176377	2.0892961e-7	0.14	1805.6764	878.43093	-0.098052461	-0.017429253	-0.017418875	-2.0223121	5.7541244	0	845.1473911681362
8.3176377	2.2908677e-7	0.14	1647.5284	802.26479	-0.09723711	-0.017429321	-0.017417942	-1.8531762	5.2489885	0	845.91358944185
8.3176377	2.5118864e-7	0.14	1503.2958	732.79234	-0.09642176	-0.017429396	-0.017416918	-1.6988508	4.7882991	0	846.6797987460611
8.3176377	2.7542287e-7	0.14	1371.754	669.42461	-0.095606411	-0.017429478	-0.017415797	-1.5580325	4.3681454	0	847.4460198700043
8.3176377	3.0199517e-7	0.14	1251.7865	611.62445	-0.094791063	-0.017429568	-0.017414566	-1.429533	3.9849607	0	848.2122545236887
8.3176377	3.3113112e-7	0.14	1142.3749	558.90198	-0.093975715	-0.017429666	-0.017413217	-1.3122682	3.6354921	0	848.9785046989924
8.3176377	3.6307805e-7	0.14	1042.5903	510.81041	-0.093160369	-0.017429774	-0.017411738	-1.2052498	3.3167731	0	849.7447700952548
8.3176377	3.9810717e-7	0.14	951.58575	466.94229	-0.092345024	-0.017429892	-0.017410117	-1.107576	3.0260979	0	850.5110532305112
8.3176377	4.3651583e-7	0.14	868.58859	426.92598	-0.09152968	-0.017430022	-0.017408338	-1.0184247	2.7609991	0	851.2773562093876
8.3176377	4.7863009e-7	0.14	792.8943	390.42257	-0.090714338	-0.017430164	-0.017406389	-0.93704602	2.5192261	0	852.0436796707888
8.3176377	5.2480746e-7	0.14	723.86032	357.12298	-0.089898998	-0.01743032	-0.017404251	-0.862756	2.2987267	0	852.8100261139582
8.3176377	5.7543994e-7	0.14	660.90059	326.74528	-0.089083658	-0.017430491	-0.017401907	-0.79493091	2.0976288	0	853.5763996541925
8.3176377	6.3095734e-7	0.14	603.48067	299.0324	-0.088268321	-0.017430679	-0.017399336	-0.73300194	1.9142255	0	854.3428002351176
8.3176377	6.9183097e-7	0.14	551.1131	273.74985	-0.087452986	-0.017430884	-0.017396518	-0.67645026	1.7469598	0	855.1092314270817
8.3176377	7.5857758e-7	0.14	503.35336	250.6838	-0.086637654	-0.01743111	-0.017393428	-0.62480275	1.5944118	0	855.8756955789983
8.3176377	8.3176377e-7	0.14	459.79597	229.63922	-0.085822323	-0.017431357	-0.01739004	-0.57762787	1.4552864	0	856.6421979900159
8.3176377	9.1201084e-7	0.14	420.07122	210.43824	-0.085006996	-0.017431628	-0.017386325	-0.53453209	1.3284027	0	857.408739656074
8.3176377	1.e-6	0.14	383.84184	192.91864	-0.084191672	-0.017431926	-0.017382252	-0.49515648	1.2126836	0	858.1753255944512
8.3176377	1.0964782e-6	0.14	350.80031	176.93248	-0.083376351	-0.017432252	-0.017377785	-0.45917371	1.1071466	0	858.9419605405573
8.3176377	1.2022644e-6	0.14	320.66613	162.34485	-0.082561033	-0.017432609	-0.017372888	-0.42628523	1.0108959	0	859.7086492298012
8.3176377	1.3182567e-6	0.14	293.18348	149.03267	-0.08174572	-0.017433001	-0.017367518	-0.39621878	0.92311445	0	860.4753954392357
8.3176377	1.4454398e-6	0.14	268.11907	136.88374	-0.08093041	-0.017433431	-0.017361631	-0.36872604	0.84305699	0	861.2422068357143
8.3176377	1.5848932e-6	0.14	245.26012	125.79569	-0.080115106	-0.017433903	-0.017355175	-0.34358056	0.77004395	0	862.0090874405768
8.3176377	1.7378008e-6	0.14	224.41259	115.67519	-0.079299807	-0.01743442	-0.017348097	-0.32057578	0.70345551	0	862.7760451649631
8.3176377	1.9054607e-6	0.14	205.39949	106.4371	-0.078484514	-0.017434987	-0.017340336	-0.29952335	0.64272641	0	863.543087093196
8.3176377	2.0892961e-6	0.14	188.05943	98.003777	-0.077669227	-0.017435608	-0.017331826	-0.28025146	0.58734111	0	864.3102219068594
8.3176377	2.2908677e-6	0.14	172.24521	90.304417	-0.076853947	-0.01743629	-0.017322495	-0.26260345	0.53682943	0	865.0774581372068
8.3176377	2.5118864e-6	0.14	157.82257	83.274443	-0.076038674	-0.017437037	-0.017312264	-0.24643641	0.4907626	0	865.8448061758307
8.3176377	2.7542287e-6	0.14	144.66908	76.854954	-0.07522341	-0.017437857	-0.017301047	-0.23162003	0.44874954	0	866.6122754559674
8.3176377	3.0199517e-6	0.14	132.67308	70.992242	-0.074408155	-0.017438756	-0.017288747	-0.21803545	0.4104336	0	867.3798787369145
8.3176377	3.3113112e-6	0.14	121.73275	65.637316	-0.07359291	-0.017439742	-0.017275261	-0.20557428	0.37548953	0	868.1476286276385
8.3176377	3.6307805e-6	0.14	111.75519	60.745502	-0.072777676	-0.017440823	-0.017260475	-0.19413765	0.34362067	0	868.9155391840377
8.3176377	3.9810717e-6	0.14	102.65573	56.276054	-0.071962454	-0.017442008	-0.017244262	-0.18363539	0.31455649	0	869.683626172018
8.3176377	4.3651583e-6	0.14	94.357098	52.191814	-0.071147245	-0.017443308	-0.017226486	-0.17398528	0.28805027	0	870.4519065413388
8.3176377	4.7863009e-6	0.14	86.788861	48.45889	-0.070332051	-0.017444734	-0.017206996	-0.16511232	0.26387699	0	871.2203982752807
8.3176377	5.2480746e-6	0.14	79.886769	45.046377	-0.069516872	-0.017446297	-0.017185626	-0.1569481	0.24183145	0	871.9891232093426
8.3176377	5.7543994e-6	0.14	73.592229	41.926087	-0.068701711	-0.017448012	-0.017162197	-0.14943024	0.22172649	0	872.7581020703358
8.3176377	6.3095734e-6	0.14	67.851809	39.072314	-0.067886569	-0.017449892	-0.017136508	-0.14250185	0.20339145	0	873.5273603580641
8.3176377	6.9183097e-6	0.14	62.616776	36.461615	-0.067071448	-0.017451953	-0.017108344	-0.13611102	0.18667068	0	874.296924474314
8.3176377	7.5857758e-6	0.14	57.842689	34.072607	-0.06625635	-0.017454214	-0.017077466	-0.13021044	0.17142223	0	875.066823977811
8.3176377	8.3176377e-6	0.14	53.489021	31.885794	-0.065441278	-0.017456694	-0.017043613	-0.12475692	0.15751667	0	875.8370903815774
8.3176377	9.1201084e-6	0.14	49.518814	29.883393	-0.064626233	-0.017459413	-0.017006499	-0.1197111	0.14483594	0	876.6077603662441
8.3176377	0.00001	0.14	45.898365	28.049187	-0.063811218	-0.017462395	-0.016965811	-0.11503707	0.13327241	0	877.3788722848687
8.3176377	0.000010964782	0.14	42.596939	26.368387	-0.062996237	-0.017465665	-0.016921207	-0.11070206	0.12272789	0	878.1504673655792
8.3176377	0.000012022644	0.14	39.582739	24.827453	-0.062187778	-0.017480375	-0.016883435	-0.10668024	0.11310837	0	878.9150359256108
8.3176377	0.000013182567	0.14	36.837389	23.414189	-0.061373495	-0.01748537	-0.016830899	-0.10293666	0.10434082	0	879.6870185582368
8.3176377	0.000014454398	0.14	34.334143	22.11733	-0.060559315	-0.017490846	-0.016773313	-0.09945016	0.096346691	0	880.4595686883341
8.3176377	0.000015848932	0.14	32.051749	20.926648	-0.059745248	-0.017496848	-0.016710195	-0.096198055	0.089058116	0	881.2327403221191
8.3176377	0.000017378008	0.14	29.970833	19.832818	-0.058931304	-0.017503428	-0.016641019	-0.093159662	0.08241322	0	882.0065932535308
8.3176377	0.000019054607	0.14	28.073726	18.827335	-0.058117496	-0.01751064	-0.016565211	-0.090316108	0.076355589	0	882.781190771691
8.3176377	0.000020892961	0.14	26.344325	17.902445	-0.057303836	-0.017518544	-0.016482143	-0.087650179	0.070833797	0	883.5566042084012
8.3176377	0.000022908677	0.14	24.767944	17.051078	-0.056490339	-0.017527207	-0.016391134	-0.085146164	0.06580096	0	884.3329090483414
8.3176377	0.000025118864	0.14	23.331201	16.266787	-0.055677018	-0.017536702	-0.016291441	-0.082789729	0.061214345	0	885.1101908107499
8.3176377	0.000027542287	0.14	22.021896	15.543695	-0.054863893	-0.017547106	-0.016182255	-0.080567794	0.057035005	0	885.8885371194914
8.3176377	0.000030199517	0.14	20.828907	14.876444	-0.054050979	-0.017558507	-0.016062701	-0.078468419	0.053227445	0	886.6680489778408
8.3176377	0.000033113112	0.14	19.742103	14.260149	-0.053238298	-0.017571	-0.015931831	-0.076480707	0.049759321	0	887.4488304144738
8.3176377	0.000036307805	0.14	18.75225	13.690359	-0.05242587	-0.017584688	-0.015788622	-0.074594708	0.046601166	0	888.2309972026328
8.3176377	0.000039810717	0.14	17.850933	13.163013	-0.05161372	-0.017599683	-0.015631974	-0.072801336	0.043726132	0	889.0146705462479
8.3176377	0.000043651583	0.14	17.030488	12.674412	-0.050801874	-0.01761611	-0.015460707	-0.071092295	0.041109769	0	889.7999812328158
8.3176377	0.000047863009	0.14	16.283933	12.221186	-0.049990358	-0.017634103	-0.015273563	-0.069460004	0.038729803	0	890.5870703098868
8.3176377	0.000052480746	0.14	15.604906	11.800259	-0.049179205	-0.01765381	-0.015069207	-0.067897537	0.036565954	0	891.3760823765684
8.3176377	0.000057543994	0.14	14.987612	11.40883	-0.048368446	-0.017675391	-0.014846234	-0.066398562	0.034599749	0	892.167173118839
8.3176377	0.000063095734	0.14	14.426772	11.044345	-0.047558117	-0.017699021	-0.014603176	-0.064957291	0.032814368	0	892.9605018118167
8.3176377	0.000069183097	0.14	13.917575	10.704476	-0.046748258	-0.017724892	-0.014338513	-0.063568429	0.031194484	0	893.7562308123942
8.3176377	0.000075857758	0.14	13.455633	10.387096	-0.04593891	-0.01775321	-0.014050697	-0.062227133	0.029726135	0	894.5545252209945
8.3176377	0.000083176377	0.14	13.036943	10.090268	-0.04513012	-0.017784203	-0.013738167	-0.060928968	0.028396585	0	895.3555462106581
8.3176377	0.000091201084	0.14	12.65785	9.8122191	-0.044321935	-0.017818117	-0.013399386	-0.059669877	0.027194208	0	896.1594517974852
8.3176377	0.0001	0.14	12.315007	9.5513295	-0.04351441	-0.01785522	-0.013032873	-0.058446145	0.026108377	0	896.9663851148614
8.3176377	0.00010964782	0.14	12.005347	9.3061153	-0.042707602	-0.017895804	-0.012637245	-0.05725437	0.025129357	0	897.7764745262048
8.3176377	0.00012022644	0.14	11.72605	9.0752148	-0.041901571	-0.017940183	-0.012211265	-0.05609144	0.024248208	0	898.5898263715216
8.3176377	0.00013182567	0.14	11.474516	8.8573763	-0.041096384	-0.0179887	-0.011753893	-0.054954508	0.023456693	0	899.4065145006484
8.3176377	0.00014454398	0.14	11.248339	8.651446	-0.040292111	-0.018041727	-0.011264333	-0.053840972	0.022747202	0	900.2265778491736
8.3176377	0.00015848932	0.14	11.045283	8.4563578	-0.039488828	-0.018099665	-0.010742078	-0.052748456	0.022112671	0	901.0500117004785
8.3176377	0.00017378008	0.14	10.863265	8.2711246	-0.038686613	-0.018162949	-0.01018695	-0.051674798	0.021546525	0	901.876766182435
8.3176377	0.00019054607	0.14	10.700335	8.0948305	-0.037885553	-0.018232046	-0.0095991208	-0.050618031	0.021042623	0	902.7067369544312
8.3176377	0.00020892961	0.14	10.554666	7.926625	-0.037085737	-0.018307461	-0.0089791202	-0.049576376	0.020595215	0	903.5397707057103
8.3176377	0.00022908677	0.14	10.424544	7.7657181	-0.036287258	-0.018389739	-0.0083278277	-0.048548224	0.020198915	0	904.3756643680131
8.3176377	0.00025118864	0.14	10.308361	7.611377	-0.035490217	-0.018479462	-0.0076464413	-0.047532133	0.01984868	0	905.2141654613387
8.3176377	0.00027542287	0.14	10.204613	7.4629232	-0.034694715	-0.018577257	-0.0069364351	-0.046526809	0.019539795	0	906.054985187727
8.3176377	0.00030199517	0.14	10.111898	7.319731	-0.033900859	-0.018683793	-0.0061994998	-0.045531104	0.019267871	0	906.8978006204467
8.3176377	0.00033113112	0.14	10.028914	7.1812263	-0.033108759	-0.018799784	-0.0054374814	-0.044544	0.019028842	0	907.7422655860399
8.3176377	0.00036307805	0.14	9.9544624	7.0468846	-0.032318526	-0.018925991	-0.0046523164	-0.043564603	0.018818959	0	908.5880210671911
8.3176377	0.00039810717	0.14	9.8874441	6.9162303	-0.031530272	-0.019063222	-0.00384597	-0.042592131	0.018634794	0	909.4347033318452
8.3176377	0.00043651583	0.14	9.8268606	6.7888344	-0.030744109	-0.01921233	-0.0030203837	-0.041625906	0.018473229	0	910.2819517654253
8.3176377	0.00047863009	0.14	9.7718117	6.664313	-0.029960148	-0.019374215	-0.0021774318	-0.040665342	0.01833145	0	911.1294155323507
8.3176377	0.00052480746	0.14	9.7214921	6.5423243	-0.029178494	-0.019549824	-0.00131889	-0.039709936	0.018206934	0	911.9767624041924
8.3176377	0.00057543994	0.14	9.6751885	6.4225664	-0.028399248	-0.019740142	-0.00044641004	-0.03875926	0.018097435	0	912.8236802163765
8.3176377	0.00063095734	0.14	9.632275	6.3047744	-0.0276225	-0.019946195	0.00043849283	-0.037812953	0.018000972	0	913.6698850933257
8.3176377	0.00069183097	0.14	9.5922089	6.1887173	-0.026848333	-0.020169046	0.0013344462	-0.036870708	0.017915804	0	914.5151185254726
8.3176377	0.00075857758	0.14	9.5545262	6.0741955	-0.026076811	-0.020409782	0.0022402264	-0.035932271	0.017840421	0	915.3591594201243
8.3176377	0.00083176377	0.14	9.5188373	5.9610383	-0.025307986	-0.020669515	0.0031547561	-0.034997427	0.017773523	0	916.2018172088115
8.3176377	0.00091201084	0.14	9.484823	5.8491006	-0.024541887	-0.020949366	0.0040771033	-0.034065998	0.017714008	0	917.0429420496516
8.3176377	0.001	0.14	9.4522302	5.7382614	-0.023778522	-0.02125046	0.0050064809	-0.033137831	0.017660955	0	917.8824228916582
8.3176377	0.0010964782	0.14	9.4208684	5.6284212	-0.023017875	-0.021573914	0.0059422453	-0.032212797	0.017613613	0	918.7201901092799
8.3176377	0.0012022644	0.14	9.3906059	5.5195001	-0.022259901	-0.021920823	0.0068838967	-0.031290783	0.017571387	0	919.5562202396915
8.3176377	0.0013182567	0.14	9.3613658	5.4114361	-0.02150453	-0.022292248	0.0078310809	-0.030371686	0.017533833	0	920.3905324613007
8.3176377	0.0014454398	0.14	9.3331219	5.3041828	-0.020751662	-0.022689203	0.0087835926	-0.029455405	0.017500638	0	921.2231937256549
8.3176377	0.0015848932	0.14	9.3058942	5.1977082	-0.02000117	-0.023112644	0.0097413782	-0.028541844	0.017471617	0	922.0543163070555
8.3176377	0.0017378008	0.14	9.2797436	5.0919926	-0.0192529	-0.023563458	0.010704538	-0.0276309	0.017446699	0	922.8840580919431
8.3176377	0.0019054607	0.14	9.2547664	4.9870266	-0.018506678	-0.024042449	0.011673331	-0.026722462	0.01742591	0	923.7126166333279
8.3176377	0.0020892961	0.14	9.2310874	4.8828095	-0.017762306	-0.024550339	0.012648174	-0.025816411	0.017409364	0	924.5402327906668
8.3176377	0.0022908677	0.14	9.2088537	4.7793468	-0.017019576	-0.025087757	0.013629641	-0.024912611	0.017397246	0	925.3671774970239
8.3176377	0.0025118864	0.14	9.1882264	4.6766486	-0.016278267	-0.025655243	0.014618459	-0.024010913	0.017389793	0	926.193754025303
8.3176377	0.0027542287	0.14	9.1693729	4.5747269	-0.015538158	-0.026253255	0.0156155	-0.023111152	0.017387278	0	927.0202847215842
8.3176377	0.0030199517	0.14	9.1524587	4.4735937	-0.014799031	-0.026882171	0.016621769	-0.022213145	0.017389988	0	927.8471066079587
8.3176377	0.0033113112	0.14	9.1376381	4.3732583	-0.014060681	-0.027542313	0.017638387	-0.021316695	0.017398205	0	928.6745597507092
8.3176377	0.0036307805	0.14	9.1250457	4.2737256	-0.013322923	-0.028233959	0.01866657	-0.02042159	0.017412182	0	929.5029779210308
8.3176377	0.0039810717	0.14	9.1147867	4.1749929	-0.012585602	-0.028957375	0.019707601	-0.019527605	0.017432122	0	930.3326755162808
8.3176377	0.0043651583	0.14	9.1069271	4.0770487	-0.011848599	-0.02971284	0.020762805	-0.018634509	0.017458153	0	931.1639386341083
8.3176377	0.0047863009	0.14	9.1014838	3.9798693	-0.011111846	-0.030500689	0.0218335	-0.017742064	0.017490302	0	931.9970045335554
8.3176377	0.0052480746	0.14	9.0984145	3.8834174	-0.01037533	-0.031321345	0.022920972	-0.016850036	0.017528476	0	932.8320545883173
8.3176377	0.0057543994	0.14	9.0976084	3.7876403	-0.0096391116	-0.032175373	0.024026416	-0.015958197	0.017572434	0	933.6691890500169
8.3176377	0.0063095734	0.14	9.0988777	3.6924681	-0.0089033251	-0.033063519	0.025150903	-0.015066334	0.017621772	0	934.5084226134563
8.3176377	0.0069183097	0.14	9.1019546	3.5978138	-0.0081681893	-0.033986766	0.026295317	-0.014174255	0.017675911	0	935.3496659823445
8.3176377	0.0075857758	0.14	9.1064932	3.5035748	-0.0074340038	-0.03494638	0.027460322	-0.013281799	0.017734102	0	936.1927250048975
8.3176377	0.0083176377	0.14	9.1120836	3.4096367	-0.0067011357	-0.035943956	0.028646303	-0.012388844	0.017795457	0	937.0373054092481
8.3176377	0.0091201084	0.14	9.1182808	3.3158803	-0.0059699869	-0.036981467	0.029853332	-0.011495307	0.017859002	0	937.8830390549006
8.3176377	0.01	0.14	9.1246516	3.2221933	-0.0052409413	-0.038061294	0.031081127	-0.01060115	0.017923781	0	938.729528148677
8.3176377	0.010964782	0.14	9.1308406	3.1284853	-0.0045142872	-0.039186252	0.032329035	-0.0097063761	0.017988991	0	939.5764159188227
8.3176377	0.012022644	0.14	9.1366504	3.0347055	-0.0037901176	-0.040359612	0.033596016	-0.0088110129	0.018054155	0	940.423478185045
8.3176377	0.013182567	0.14	9.1421234	2.940862	-0.0030682285	-0.041585069	0.034880662	-0.0079150982	0.018119307	0	941.2707214115542
8.3176377	0.014454398	0.14	9.1476066	2.847036	-0.0023480299	-0.04286669	0.036181268	-0.0070186507	0.018185146	0	942.118475667657
8.3176377	0.015848932	0.14	9.1537709	2.7533892	-0.0016285128	-0.044208786	0.037495949	-0.0061216391	0.018253135	0	942.9674410234959
8.3176377	0.017378008	0.14	9.1615096	2.6601459	-0.00090834506	-0.045615795	0.038822766	-0.0052239535	0.018325371	0	943.8186140572464
8.3176377	0.019054607	0.14	9.1714233	2.5674841	-0.00018634878	-0.047092776	0.040159233	-0.0043254031	0.01840362	0	944.6727744766099
8.3176377	0.020892961	0.14	9.1818218	2.4750674	0.00053682927	-0.048649428	0.041498298	-0.0034258232	0.018485068	0	945.5283869848263
8.3176377	0.022908677	0.14	9.183952	2.3808363	0.0012552419	-0.050314715	0.042813725	-0.0025255181	0.018551179	0	946.3764127471281
8.3176377	0.025118864	0.14	9.164816	2.2815333	0.0019612117	-0.052146088	0.044050868	-0.0016259812	0.018571621	0	947.2024502467659
8.3176377	0.027542287	0.14	9.1295971	2.1783761	0.0026625905	-0.05417767	0.045178497	-0.00072925034	0.018555138	0	948.0097688235182
8.3176377	0.030199517	0.14	9.0978634	2.0765365	0.0033762372	-0.056388556	0.046220488	0.00016405015	0.018546889	0	948.8173491443857
8.3176377	0.033113112	0.14	9.0822048	1.9799249	0.0041098396	-0.058733501	0.047225155	0.0010549716	0.018582542	0	949.6387695823109
8.3176377	0.036307805	0.14	9.08435	1.8905674	0.0048579258	-0.061150982	0.048257175	0.0019452575	0.018681778	0	950.4773964871952
8.3176377	0.039810717	0.14	9.0950087	1.8098858	0.005597437	-0.063540189	0.049420609	0.0028363051	0.01885858	0	951.3252527049297
8.3176377	0.043651583	0.14	9.0810178	1.7409377	0.0062597758	-0.065669797	0.050950128	0.0037276673	0.01913957	0	952.1487549190095
8.3176377	0.047863009	0.14	8.368658	1.6559015	0.0059943862	-0.066716806	0.053672183	0.0046015456	0.019260653	0	952.2574608448305
8.3176377	0.052480746	0.14	7.7189781	1.5783476	0.0057523479	-0.068116812	0.056154728	0.0053985322	0.019371082	0	952.3566019014316
8.3176377	0.057543994	0.14	7.126463	1.5076175	0.0055316064	-0.069852402	0.058418835	0.0061253926	0.019471794	0	952.4470195447495
8.3176377	0.063095734	0.14	6.6971511	1.4381762	0.0054849245	-0.072136532	0.06025532	0.0067927445	0.019524407	0	952.6447285230887
8.3176377	0.069183097	0.14	6.6550545	1.3578289	0.0059258572	-0.075182097	0.061455168	0.0074464604	0.019466837	0	953.2168405945401
8.3176377	0.075857758	0.14	6.7216729	1.2792768	0.0064622768	-0.078205807	0.062805674	0.0081010473	0.01942603	0	953.8984862737202
8.3176377	0.083176377	0.14	6.9413752	1.2026721	0.0071535083	-0.081207021	0.0643116	0.0087692745	0.019416102	0	954.7460316644459
8.3176377	0.091201084	0.14	7.3658378	1.1281685	0.0080733313	-0.084199247	0.065963686	0.0094686247	0.019455899	0	955.8275794698936
8.3176377	0.1	0.14	8.0532017	1.0559193	0.0093101822	-0.087213171	0.067735626	0.010221971	0.019569649	0	957.222761198329
8.3176377	0.10964782	0.14	9.0673443	0.98607491	0.010967226	-0.090298457	0.069582264	0.01105817	0.01978754	0	959.0225673272724
8.3176377	0.12022644	0.14	10.477887	0.91878199	0.013162922	-0.09352378	0.071439575	0.012012617	0.020146267	0	961.3298763163745
8.3176377	0.13182567	0.14	12.361562	0.85418321	0.016032812	-0.096974817	0.073226673	0.013127865	0.020689645	0	964.2613988687854
8.3176377	0.14454398	0.14	14.805289	0.7924183	0.019733084	-0.10075034	0.074849724	0.014454452	0.021469449	0	967.9515409728843
8.3176377	0.15848932	0.14	17.910768	0.73362621	0.024445921	-0.10495685	0.076207311	0.016052122	0.022546654	0	972.5581351569558
8.3176377	0.17378008	0.14	21.799697	0.67794745	0.030385872	-0.10970225	0.07719679	0.017991527	0.023993154	0	978.269262522867
8.3176377	0.19054607	0.14	26.617983	0.62552505	0.037805523	-0.11508874	0.077721346	0.020356408	0.025893959	0	985.3095091614025
8.3176377	0.20892961	0.14	32.536712	0.57650211	0.046997911	-0.12120515	0.077697743	0.023246059	0.028349627	0	993.9432536914246
8.3176377	0.22908677	0.14	39.747374	0.53101366	0.058292545	-0.12811842	0.077064765	0.02677761	0.031478485	0	1004.4720390513007
8.3176377	0.25118864	0.14	48.449276	0.48917163	0.072042238	-0.13586493	0.075791961	0.031087485	0.035417948	0	1017.2233506122345
8.3176377	0.27542287	0.14	58.82866	0.45104402	0.088599601	-0.1444427	0.073887415	0.036331206	0.040324138	0	1032.5295528143351
8.3176377	0.30199517	0.14	71.031967	0.41663238	0.10828538	-0.15380679	0.071402348	0.04268083	0.046369129	0	1050.698745052105
8.3176377	0.33113112	0.14	85.13907	0.38585438	0.13135486	-0.16387031	0.068430153	0.050319706	0.053735538	0	1071.9830691016607
8.3176377	0.36307805	0.14	101.14429	0.35853828	0.15797123	-0.1745123	0.065098447	0.059434923	0.062608935	0	1096.5526383244821
8.3176377	0.39810717	0.14	118.95159	0.33443236	0.18819364	-0.18559184	0.061555069	0.070208557	0.073169168	0	1124.48247462727
8.3176377	0.43651583	0.14	138.38567	0.31322699	0.22198297	-0.19696488	0.05795116	0.082809237	0.085582124	0	1155.7557031720523
8.3176377	0.47863009	0.14	159.21499	0.29458286	0.25922187	-0.20849999	0.054425469	0.097385429	0.099993266	0	1190.2803168903902
8.3176377	0.52480746	0.14	181.17984	0.2781579	0.29974193	-0.2200896	0.051093117	0.11406129	0.11652373	0	1227.913226500063
8.3176377	0.57543994	0.14	204.01827	0.26362812	0.34335074	-0.23165551	0.048040093	0.13293523	0.13526904	0	1268.4849611519599
8.3176377	0.63095734	0.14	227.48605	0.2507006	0.38985388	-0.24314922	0.04532292	0.1540807	0.15630006	0	1311.820285538053
8.3176377	0.69183097	0.14	251.36905	0.23911948	0.43907014	-0.2545487	0.042971902	0.17754861	0.17966545	0	1357.7529271836406
8.3176377	0.75857758	0.14	275.48917	0.22866681	0.49084035	-0.26585332	0.040996195	0.20337065	0.20539495	0	1406.1345398444103
8.3176377	0.83176377	0.14	299.70532	0.21916022	0.54503128	-0.27707835	0.039389326	0.23156284	0.23350298	0	1456.8390937758713
8.3176377	0.91201084	0.14	323.91129	0.21044897	0.60153621	-0.2882499	0.038134252	0.26212911	0.26399214	0	1509.764076742155
8.3176377	1.	0.14	348.032	0.2024095	0.66027359	-0.29940074	0.037207552	0.29506456	0.29685642	0	1564.8297864105598
8.3176377	1.0964782	0.14	372.01907	0.19494102	0.72118474	-0.31056709	0.036582637	0.33035826	0.332084	0	1621.977591591915
8.3176377	1.2022644	0.14	395.84638	0.18796148	0.78423115	-0.32178636	0.036232037	0.36799565	0.36965961	0	1681.167696244169
8.3176377	1.3182567	0.14	419.50591	0.18140412	0.84939185	-0.3330956	0.03612894	0.40796056	0.40956646	0	1742.3768708542693
8.3176377	1.4454398	0.14	443.00411	0.17521453	0.91666099	-0.34453059	0.036248144	0.45023674	0.45178785	0	1805.596303915286
8.3176377	1.5848932	0.14	466.35875	0.16934827	0.9860457	-0.35612529	0.036566573	0.49480918	0.49630836	0	1870.8296591307612
8.3176377	1.7378008	0.14	489.59636	0.1637689	1.0575643	-0.36791164	0.03706351	0.54166504	0.54311482	0	1938.091424241358
8.3176377	1.9054607	0.14	512.75005	0.15844637	1.1312446	-0.37991956	0.037720631	0.59079441	0.59219708	0	2007.405318236093
8.3176377	2.0892961	0.14	535.85781	0.15335579	1.2071231	-0.39217699	0.038521914	0.64219092	0.64354852	0	2078.803527729996
8.3176377	2.2908677	0.14	558.96113	0.14847643	1.2852432	-0.40471012	0.039453493	0.69585205	0.69716646	0	2152.3250059374172
8.3176377	2.5118864	0.14	582.10389	0.14379085	1.365655	-0.41754355	0.040503462	0.75177952	0.75305245	0	2228.015258977284
8.3176377	2.7542287	0.14	605.33156	0.13928432	1.4484144	-0.43070049	0.041661681	0.80997941	0.81121244	0	2305.9254747456894
8.3176377	3.0199517	0.14	628.69048	0.13494427	1.5335826	-0.44420302	0.04291958	0.8704623	0.87165691	0	2386.112027351547
8.3176377	3.3113112	0.14	652.22743	0.13075991	1.6212255	-0.45807223	0.044269974	0.93324335	0.93440092	0	2468.6358890426372
8.3176377	3.6307805	0.14	675.98922	0.12672188	1.7114135	-0.47232843	0.045706898	0.99834232	0.99946414	0	2553.5624205885742
8.3176377	3.9810717	0.14	700.02245	0.12282199	1.8042212	-0.48699133	0.047225451	1.0657835	1.0668708	0	2640.9610688911007
8.3176377	4.3651583	0.14	724.37329	0.11905303	1.8997272	-0.50208013	0.048821665	1.1355958	1.1366498	0	2730.905161839383
8.3176377	4.7863009	0.14	749.0874	0.11540856	1.9980139	-0.51761373	0.050492386	1.2078126	1.2088343	0	2823.4717047437844
8.3176377	5.2480746	0.14	774.20984	0.11188284	2.0991674	-0.53361078	0.05223517	1.2824718	1.2834622	0	2918.7412726992598
8.3176377	5.7543994	0.14	799.78503	0.10847066	2.2032774	-0.55008982	0.054048197	1.3596154	1.3605757	0	3016.7979053164545
8.3176377	6.3095734	0.14	825.85675	0.10516727	2.3104373	-0.56706938	0.055930188	1.4392901	1.4402211	0	3117.7291897604846
8.3176377	6.9183097	0.14	852.46818	0.10196832	2.420744	-0.58456804	0.057880347	1.5215467	1.5224494	0	3221.626065208605
8.3176377	7.5857758	0.14	879.66194	0.098869784	2.5342978	-0.60260449	0.059898295	1.6064401	1.6073154	0	3328.5827202120813
8.3176377	8.3176377	0.14	907.48012	0.095867934	2.6512027	-0.62119767	0.061984027	1.6940295	1.6948782	0	3438.6968689096175
8.3176377	9.1201084	0.14	935.96438	0.092959273	2.7715663	-0.64036672	0.064137865	1.7843782	1.7852011	0	3552.0696508884816
8.3176377	10.	0.14	965.15599	0.090140523	2.8954997	-0.66013114	0.066360427	1.8775534	1.8783514	0	3668.8055331502514