83.176377	1.e-12	0.2	3.7589104e12	1.8097927e11	-0.99999999	-5.0719341e-9	-5.071225e-9	-4.0006907e9	1.202076e10	0	8.442704088800148e-6
83.176377	1.0964782e-12	0.2	3.428167e12	1.6505506e11	-0.99999999	-5.5612651e-9	-5.5604875e-9	-3.6486733e9	1.0963064e10	0	8.350765270389274e-6
83.176377	1.2022644e-12	0.2	3.1265255e12	1.50532e11	-0.99999999	-6.0978061e-9	-6.0969534e-9	-3.3276296e9	9.998433e9	0	8.24995631616996e-6
83.176377	1.3182567e-12	0.2	2.8514251e12	1.3728682e11	-0.99999999	-6.6861116e-9	-6.6851766e-9	-3.0348343e9	9.1186793e9	0	8.139421488812735e-6
83.176377	1.4454398e-12	0.2	2.6005306e12	1.2520707e11	-0.99999999	-7.3311755e-9	-7.3301504e-9	-2.7678017e9	8.3163343e9	0	8.01822248198517e-6
83.176377	1.5848932e-12	0.2	2.3717121e12	1.141902e11	-0.99999999	-8.0384742e-9	-8.0373502e-9	-2.5242652e9	7.584587e9	0	7.885330396463784e-6
83.176377	1.7378008e-12	0.2	2.1630271e12	1.041427e11	-0.99999999	-8.8140119e-9	-8.8127794e-9	-2.3021572e9	6.9172256e9	0	7.73961711492414e-6
83.176377	1.9054607e-12	0.2	1.9727042e12	9.4979272e10	-0.99999999	-9.6643719e-9	-9.6630205e-9	-2.0995923e9	6.3085847e9	0	7.579845699582963e-6
83.176377	2.0892961e-12	0.2	1.7991276e12	8.6622126e10	-0.99999999	-1.0596773e-8	-1.0595291e-8	-1.914851e9	5.7534976e9	0	7.404659887857528e-6
83.176377	2.2908677e-12	0.2	1.6408239e12	7.9000318e10	-0.99999998	-1.1619131e-8	-1.1617506e-8	-1.7463648e9	5.2472522e9	0	0.000016608225771905665
83.176377	2.5118864e-12	0.2	1.4964492e12	7.2049146e10	-0.99999998	-1.2740124e-8	-1.2738343e-8	-1.5927037e9	4.7855509e9	0	0.000016397605850266076
83.176377	2.7542287e-12	0.2	1.3647779e12	6.5709602e10	-0.99999998	-1.3969269e-8	-1.3967315e-8	-1.452563e9	4.3644743e9	0	0.000016166665948802035
83.176377	3.0199517e-12	0.2	1.2446922e12	5.992787e10	-0.99999998	-1.5316999e-8	-1.5314857e-8	-1.3247532e9	3.9804479e9	0	0.000015913445194628095
83.176377	3.3113112e-12	0.2	1.1351728e12	5.4654867e10	-0.99999998	-1.6794756e-8	-1.6792407e-8	-1.2081893e9	3.6302116e9	0	0.000015635794238049595
83.176377	3.6307805e-12	0.2	1.0352899e12	4.9845831e10	-0.99999998	-1.8415084e-8	-1.8412509e-8	-1.1018817e9	3.3107923e9	0	0.000015331355897516454
83.176377	3.9810717e-12	0.2	9.4419559e11	4.5459938e10	-0.99999997	-2.0191739e-8	-2.0188915e-8	-1.0049281e9	3.0194785e9	0	0.000024393199539700933
83.176377	4.3651583e-12	0.2	8.6111661e11	4.1459956e10	-0.99999997	-2.2139802e-8	-2.2136706e-8	-9.165053e8	2.7537971e9	0	0.000024027184153172565
83.176377	4.7863009e-12	0.2	7.8534769e11	3.7811929e10	-0.99999997	-2.4275811e-8	-2.4272417e-8	-8.3586276e8	2.5114928e9	0	0.000023625856142529793
83.176377	5.2480746e-12	0.2	7.162456e11	3.4484889e10	-0.99999996	-2.6617899e-8	-2.6614177e-8	-7.623159e8	2.2905087e9	0	0.00003258146227462478
83.176377	5.7543994e-12	0.2	6.5322375e11	3.1450593e10	-0.99999996	-2.9185947e-8	-2.9181866e-8	-6.9524036e8	2.0889687e9	0	0.00003209895995182955
83.176377	6.3095734e-12	0.2	5.9574714e11	2.8683282e10	-0.99999996	-3.2001756e-8	-3.1997282e-8	-6.3406675e8	1.9051621e9	0	0.00003156990648794243
83.176377	6.9183097e-12	0.2	5.4332785e11	2.6159464e10	-0.99999995	-3.508923e-8	-3.5084324e-8	-5.7827575e8	1.7375285e9	0	0.00004038546449571439
83.176377	7.5857758e-12	0.2	4.9552089e11	2.3857715e10	-0.99999995	-3.8474578e-8	-3.8469198e-8	-5.2739375e8	1.5846448e9	0	0.00003974940243081121
83.176377	8.3176377e-12	0.2	4.5192042e11	2.1758494e10	-0.99999994	-4.2186539e-8	-4.218064e-8	-4.8098882e8	1.4452133e9	0	0.00004844762741336246
83.176377	9.1201084e-12	0.2	4.1215632e11	1.9843983e10	-0.99999994	-4.6256624e-8	-4.6250156e-8	-4.3866701e8	1.3180502e9	0	0.00004768291216838834
83.176377	1.e-11	0.2	3.7589104e11	1.8097927e10	-0.99999993	-5.0719384e-8	-5.0712291e-8	-4.0006907e8	1.202076e9	0	0.00005624007222899479
83.176377	1.0964782e-11	0.2	3.428167e11	1.6505506e10	-0.99999993	-5.5612704e-8	-5.5604927e-8	-3.6486733e8	1.0963064e9	0	0.000055320681977842266
83.176377	1.2022644e-11	0.2	3.1265255e11	1.50532e10	-0.99999992	-6.0978123e-8	-6.0969596e-8	-3.3276296e8	9.998433e8	0	0.00006370824399941663
83.176377	1.3182567e-11	0.2	2.8514251e11	1.3728682e10	-0.99999991	-6.6861101e-8	-6.6851751e-8	-3.0348343e8	9.1186792e8	0	0.00007199856374236167
83.176377	1.4454398e-11	0.2	2.6005306e11	1.2520707e10	-0.9999999	-7.3311738e-8	-7.3301487e-8	-2.7678018e8	8.3163343e8	0	0.00008018222749281034
83.176377	1.5848932e-11	0.2	2.3717121e11	1.141902e10	-0.99999989	-8.0384722e-8	-8.0373482e-8	-2.5242652e8	7.584587e8	0	0.0000882489607485466
83.176377	1.7378008e-11	0.2	2.1630271e11	1.041427e10	-0.99999988	-8.8140094e-8	-8.8127769e-8	-2.3021572e8	6.9172256e8	0	0.0000961874824199264
83.176377	1.9054607e-11	0.2	1.9727042e11	9.4979273e9	-0.99999987	-9.664369e-8	-9.6630176e-8	-2.0995923e8	6.3085847e8	0	0.00010398542246106509
83.176377	2.0892961e-11	0.2	1.7991276e11	8.6622126e9	-0.99999986	-1.059677e-7	-1.0595288e-7	-1.914851e8	5.7534976e8	0	0.00011162921807893472
83.176377	2.2908677e-11	0.2	1.6408239e11	7.9000318e9	-0.99999985	-1.1619127e-7	-1.1617502e-7	-1.7463648e8	5.2472522e8	0	0.0001191039978124631
83.176377	2.5118864e-11	0.2	1.4964492e11	7.2049146e9	-0.99999983	-1.2740119e-7	-1.2738338e-7	-1.5927037e8	4.7855509e8	0	0.000135789107465307
83.176377	2.7542287e-11	0.2	1.3647779e11	6.5709602e9	-0.99999981	-1.3969263e-7	-1.3967309e-7	-1.452563e8	4.3644743e8	0	0.00015227101731990638
83.176377	3.0199517e-11	0.2	1.2446922e11	5.992787e9	-0.9999998	-1.5316992e-7	-1.531485e-7	-1.3247532e8	3.9804479e8	0	0.00015913446520450855
83.176377	3.3113112e-11	0.2	1.1351728e11	5.4654867e9	-0.99999978	-1.6794747e-7	-1.6792399e-7	-1.2081893e8	3.6302116e8	0	0.00017514926450796337
83.176377	3.6307805e-11	0.2	1.0352899e11	4.9845831e9	-0.99999976	-1.8415074e-7	-1.8412499e-7	-1.1018817e8	3.3107923e8	0	0.00019089619185100245
83.176377	3.9810717e-11	0.2	9.4419559e10	4.5459938e9	-0.99999973	-2.0191726e-7	-2.0188903e-7	-1.0049281e8	3.0194785e8	0	0.00021574505709631963
83.176377	4.3651583e-11	0.2	8.6111661e10	4.1459956e9	-0.99999971	-2.2139787e-7	-2.2136691e-7	-9.165053e7	2.7537971e8	0	0.00023087621585853708
83.176377	4.7863009e-11	0.2	7.8534769e10	3.7811929e9	-0.99999968	-2.4275793e-7	-2.4272399e-7	-8.3586277e7	2.5114928e8	0	0.0002550499019268215
83.176377	5.2480746e-11	0.2	7.162456e10	3.4484889e9	-0.99999965	-2.6617877e-7	-2.6614155e-7	-7.6231591e7	2.2905087e8	0	0.00027883639676831956
83.176377	5.7543994e-11	0.2	6.5322375e10	3.1450593e9	-0.99999961	-2.9185883e-7	-2.9181802e-7	-6.9524037e7	2.0889687e8	0	0.00031159406644407485
83.176377	6.3095734e-11	0.2	5.9574714e10	2.8683282e9	-0.99999958	-3.2001698e-7	-3.1997223e-7	-6.3406676e7	1.9051621e8	0	0.00033449048294687016
83.176377	6.9183097e-11	0.2	5.4332785e10	2.6159464e9	-0.99999953	-3.5089187e-7	-3.508428e-7	-5.7827576e7	1.7375285e8	0	0.0003756677668929493
83.176377	7.5857758e-11	0.2	4.9552089e10	2.3857715e9	-0.99999949	-3.8474519e-7	-3.8469139e-7	-5.2739376e7	1.5846448e8	0	0.00040688978841109613
83.176377	8.3176377e-11	0.2	4.5192042e10	2.1758494e9	-0.99999944	-4.2186466e-7	-4.2180567e-7	-4.8098883e7	1.4452133e8	0	0.0004468937976428857
83.176377	9.1201084e-11	0.2	4.1215632e10	1.9843983e9	-0.99999939	-4.625656e-7	-4.6250092e-7	-4.3866702e7	1.3180502e8	0	0.00048622489570408447
83.176377	1.e-10	0.2	3.7589104e10	1.8097927e9	-0.99999933	-5.0719276e-7	-5.0712183e-7	-4.0006908e7	1.202076e8	0	0.0005342139645944308
83.176377	1.0964782e-10	0.2	3.428167e10	1.6505506e9	-0.99999926	-5.5612637e-7	-5.560486e-7	-3.6486734e7	1.0963064e8	0	0.000590789559556085
83.176377	1.2022644e-10	0.2	3.1265255e10	1.50532e9	-0.99999919	-6.0978054e-7	-6.0969527e-7	-3.3276297e7	9.9984329e7	0	0.0006464782235143336
83.176377	1.3182567e-10	0.2	2.8514251e10	1.3728682e9	-0.99999911	-6.6861115e-7	-6.6851765e-7	-3.0348344e7	9.1186792e7	0	0.0007105899575685759
83.176377	1.4454398e-10	0.2	2.6005306e10	1.2520707e9	-0.99999903	-7.3311724e-7	-7.3301473e-7	-2.7678018e7	8.3163342e7	0	0.0007736353412201767
83.176377	1.5848932e-10	0.2	2.3717121e10	1.141902e9	-0.99999893	-8.038472e-7	-8.0373479e-7	-2.5242653e7	7.5845869e7	0	0.0008543026526898508
83.176377	1.7378008e-10	0.2	2.1630271e10	1.041427e9	-0.99999883	-8.8140081e-7	-8.8127756e-7	-2.3021573e7	6.9172255e7	0	0.0009336878876733921
83.176377	1.9054607e-10	0.2	1.9727042e10	9.4979272e8	-0.99999872	-9.6643707e-7	-9.6630193e-7	-2.0995924e7	6.3085846e7	0	0.0010210628857796327
83.176377	2.0892961e-10	0.2	1.7991276e10	8.6622126e8	-0.99999859	-1.0596771e-6	-1.0595289e-6	-1.9148511e7	5.7534975e7	0	0.0011256878151280003
83.176377	2.2908677e-10	0.2	1.6408239e10	7.9000318e8	-0.99999846	-1.1619128e-6	-1.1617503e-6	-1.7463649e7	5.2472521e7	0	0.0012286225735221674
83.176377	2.5118864e-10	0.2	1.4964492e10	7.2049146e8	-0.99999831	-1.2740122e-6	-1.273834e-6	-1.5927038e7	4.7855508e7	0	0.0013484953839404958
83.176377	2.7542287e-10	0.2	1.3647779e10	6.5709602e8	-0.99999815	-1.3969266e-6	-1.3967312e-6	-1.4525631e7	4.3644742e7	0	0.0014757318497149643
83.176377	3.0199517e-10	0.2	1.2446922e10	5.992787e8	-0.99999797	-1.5316996e-6	-1.5314855e-6	-1.3247533e7	3.9804478e7	0	0.001619531518521558
83.176377	3.3113112e-10	0.2	1.1351728e10	5.4654867e8	-0.99999777	-1.679475e-6	-1.6792402e-6	-1.2081894e7	3.6302115e7	0	0.0017796795492430327
83.176377	3.6307805e-10	0.2	1.0352899e10	4.9845831e8	-0.99999756	-1.8415078e-6	-1.8412503e-6	-1.1018818e7	3.3107922e7	0	0.00194654445753364
83.176377	3.9810717e-10	0.2	9.4419559e9	4.5459938e8	-0.99999732	-2.0191732e-6	-2.0188908e-6	-1.0049282e7	3.0194784e7	0	0.0021386591698079266
83.176377	4.3651583e-10	0.2	8.6111661e9	4.1459956e8	-0.99999706	-2.2139794e-6	-2.2136698e-6	-9.1650539e6	2.753797e7	0	0.0023463446409221276
83.176377	4.7863009e-10	0.2	7.8534769e9	3.7811929e8	-0.99999678	-2.42758e-6	-2.4272405e-6	-8.3586286e6	2.5114927e7	0	0.0025692902129889183
83.176377	5.2480746e-10	0.2	7.162456e9	3.4484889e8	-0.99999647	-2.6617885e-6	-2.6614163e-6	-7.62316e6	2.2905086e7	0	0.0028165507779943726
83.176377	5.7543994e-10	0.2	6.5322375e9	3.1450593e8	-0.99999613	-2.9185932e-6	-2.9181851e-6	-6.9524046e6	2.0889686e7	0	0.0030877527835466365
83.176377	6.3095734e-10	0.2	5.9574714e9	2.8683282e8	-0.99999575	-3.2001738e-6	-3.1997263e-6	-6.3406685e6	1.905162e7	0	0.003391882345343851
83.176377	6.9183097e-10	0.2	5.4332785e9	2.6159464e8	-0.99999534	-3.5089208e-6	-3.5084301e-6	-5.7827585e6	1.7375284e7	0	0.003719094660018889
83.176377	7.5857758e-10	0.2	4.9552089e9	2.3857715e8	-0.99999489	-3.847455e-6	-3.846917e-6	-5.2739385e6	1.5846447e7	0	0.004078292955023342
83.176377	8.3176377e-10	0.2	4.5192042e9	2.1758494e8	-0.9999944	-4.2186506e-6	-4.2180607e-6	-4.8098892e6	1.4452132e7	0	0.004468937224463638
83.176377	9.1201084e-10	0.2	4.1215632e9	1.9843983e8	-0.99999386	-4.6256584e-6	-4.6250116e-6	-4.3866711e6	1.3180501e7	0	0.004899831120446946
83.176377	1.e-9	0.2	3.7589104e9	1.8097927e8	-0.99999327	-5.0719336e-6	-5.0712244e-6	-4.0006917e6	1.2020759e7	0	0.00537032545979465
83.176377	1.0964782e-9	0.2	3.428167e9	1.6505506e8	-0.99999262	-5.5612646e-6	-5.5604869e-6	-3.6486743e6	1.0963063e7	0	0.005889104118927414
83.176377	1.2022644e-9	0.2	3.1265255e9	1.50532e8	-0.9999919	-6.0978054e-6	-6.0969527e-6	-3.3276306e6	9.998432e6	0	0.006464782235456273
83.176377	1.3182567e-9	0.2	2.8514251e9	1.3728682e8	-0.99999112	-6.6861106e-6	-6.6851757e-6	-3.0348353e6	9.1186783e6	0	0.007087108418713168
83.176377	1.4454398e-9	0.2	2.6005306e9	1.2520707e8	-0.99999027	-7.3311746e-6	-7.3301494e-6	-2.7678027e6	8.3163333e6	0	0.007764539978225953
83.176377	1.5848932e-9	0.2	2.3717121e9	1.141902e8	-0.99998933	-8.0384731e-6	-8.037349e-6	-2.5242662e6	7.584586e6	0	0.00851483935923956
83.176377	1.7378008e-9	0.2	2.1630271e9	1.041427e8	-0.9999883	-8.8140103e-6	-8.8127778e-6	-2.3021582e6	6.9172246e6	0	0.009336878463325168
83.176377	1.9054607e-9	0.2	1.9727042e9	9.4979272e7	-0.99998717	-9.6643703e-6	-9.6630189e-6	-2.0995933e6	6.3085837e6	0	0.010238815893498876
83.176377	2.0892961e-9	0.2	1.7991276e9	8.6622126e7	-0.99998593	-0.000010596771	-0.000010595289	-1.914852e6	5.7534966e6	0	0.011228691190951308
83.176377	2.2908677e-9	0.2	1.6408239e9	7.9000318e7	-0.99998457	-0.000011619129	-0.000011617504	-1.7463658e6	5.2472512e6	0	0.012314412508158864
83.176377	2.5118864e-9	0.2	1.4964492e9	7.2049146e7	-0.99998309	-0.000012740121	-0.00001273834	-1.5927047e6	4.7855499e6	0	0.013494349492430606
83.176377	2.7542287e-9	0.2	1.3647779e9	6.5709602e7	-0.99998145	-0.000013969265	-0.000013967312	-1.452564e6	4.3644733e6	0	0.0148042967648857
83.176377	3.0199517e-9	0.2	1.2446922e9	5.992787e7	-0.99997966	-0.000015316995	-0.000015314853	-1.3247542e6	3.9804469e6	0	0.01623289817512625
83.176377	3.3113112e-9	0.2	1.1351728e9	5.4654867e7	-0.9999777	-0.000016794751	-0.000016792402	-1.2081903e6	3.6302106e6	0	0.01779679549253464
83.176377	3.6307805e-9	0.2	1.0352899e9	4.9845831e7	-0.99997555	-0.000018415078	-0.000018412503	-1.1018827e6	3.3107913e6	0	0.019512422842342263
83.176377	3.9810717e-9	0.2	9.4419559e8	4.5459938e7	-0.99997319	-0.000020191731	-0.000020188908	-1.0049291e6	3.0194775e6	0	0.02139598735131354
83.176377	4.3651583e-9	0.2	8.6111661e8	4.1459956e7	-0.99997061	-0.000022139793	-0.000022136697	-916506.29	2.7537961e6	0	0.023454050943587136
83.176377	4.7863009e-9	0.2	7.8534769e8	3.7811929e7	-0.99996777	-0.0000242758	-0.000024272405	-835863.76	2.5114918e6	0	0.02572108909063513
83.176377	5.2480746e-9	0.2	7.162456e8	3.4484889e7	-0.99996466	-0.000026617885	-0.000026614163	-762316.9	2.2905077e6	0	0.028203090394236883
83.176377	5.7543994e-9	0.2	6.5322375e8	3.1450593e7	-0.99996125	-0.00002918593	-0.000029181849	-695241.36	2.0889677e6	0	0.030924506478611308
83.176377	6.3095734e-9	0.2	5.9574714e8	2.8683282e7	-0.99995751	-0.000032001736	-0.000031997261	-634067.75	1.9051611e6	0	0.033909428175404495
83.176377	6.9183097e-9	0.2	5.4332785e8	2.6159464e7	-0.99995341	-0.000035089205	-0.000035084299	-578276.75	1.7375275e6	0	0.03718155132257213
83.176377	7.5857758e-9	0.2	4.9552089e8	2.3857715e7	-0.99994892	-0.000038474548	-0.000038469168	-527394.75	1.5846438e6	0	0.04076413861875652
83.176377	8.3176377e-9	0.2	4.5192042e8	2.1758494e7	-0.99994399	-0.000042186502	-0.000042180603	-480989.82	1.4452123e6	0	0.04469876864931431
83.176377	9.1201084e-9	0.2	4.1215632e8	1.9843983e7	-0.99993859	-0.000046256579	-0.000046250111	-438668.01	1.3180492e6	0	0.04900770779768633
83.176377	1.e-8	0.2	3.7589104e8	1.8097927e7	-0.99993266	-0.000050719329	-0.000050712237	-400070.07	1.202075e6	0	0.05374083852773546
83.176377	1.0964782e-8	0.2	3.428167e8	1.6505506e7	-0.99992617	-0.000055612637	-0.000055604861	-364868.33	1.0963054e6	0	0.05891922965311602
83.176377	1.2022644e-8	0.2	3.1265255e8	1.50532e7	-0.99991904	-0.000060978042	-0.000060969516	-332763.96	999842.3	0	0.06461024180804355
83.176377	1.3182567e-8	0.2	2.8514251e8	1.3728682e7	-0.99991123	-0.000066861091	-0.000066851742	-303484.43	911866.93	0	0.07084290004539473
83.176377	1.4454398e-8	0.2	2.6005306e8	1.2520707e7	-0.99990267	-0.000073311726	-0.000073301474	-276781.17	831632.43	0	0.077673590500641
83.176377	1.5848932e-8	0.2	2.3717121e8	1.141902e7	-0.99989328	-0.000080384704	-0.000080373464	-252427.52	758457.7	0	0.08516718978522984
83.176377	1.7378008e-8	0.2	2.1630271e8	1.041427e7	-0.99988298	-0.00008814007	-0.000088127745	-230216.72	691721.56	0	0.09338758214189467
83.176377	1.9054607e-8	0.2	1.9727042e8	9.4979273e6	-0.99987169	-0.000096643658	-0.000096630144	-209960.23	630857.47	0	0.10239756304493705
83.176377	2.0892961e-8	0.2	1.7991276e8	8.6622126e6	-0.99985931	-0.00010596765	-0.00010595284	-191486.1	575348.77	0	0.1122775256519323
83.176377	2.2908677e-8	0.2	1.6408239e8	7.9000318e6	-0.99984574	-0.00011619121	-0.00011617496	-174637.48	524724.22	0	0.12310655750023677
83.176377	2.5118864e-8	0.2	1.4964492e8	7.2049146e6	-0.99983086	-0.00012740111	-0.00012738329	-159271.37	478554.09	0	0.13498109820841103
83.176377	2.7542287e-8	0.2	1.3647779e8	6.5709602e6	-0.99981454	-0.00013969252	-0.00013967298	-145257.3	436446.43	0	0.1480054113431238
83.176377	3.0199517e-8	0.2	1.2446922e8	5.992787e6	-0.99979665	-0.00015316977	-0.00015314835	-132476.32	398043.79	0	0.16228203730860924
83.176377	3.3113112e-8	0.2	1.1351728e8	5.4654867e6	-0.99977703	-0.00016794727	-0.00016792379	-120819.93	363020.16	0	0.1779398111846065
83.176377	3.6307805e-8	0.2	1.0352899e8	4.9845831e6	-0.99975551	-0.00018415047	-0.00018412472	-110189.17	331078.23	0	0.1951148910234487
83.176377	3.9810717e-8	0.2	9.4419559e7	4.5459938e6	-0.99973193	-0.00020191691	-0.00020188867	-100493.81	301946.85	0	0.2139317635965395
83.176377	4.3651583e-8	0.2	8.6111662e7	4.1459956e6	-0.99970606	-0.0002213974	-0.00022136644	-91651.529	275378.71	0	0.23457819164367436
83.176377	4.7863009e-8	0.2	7.8534769e7	3.781193e6	-0.99967771	-0.0002427573	-0.00024272336	-83587.276	251148.28	0	0.25720162491313536
83.176377	5.2480746e-8	0.2	7.162456e7	3.448489e6	-0.99964661	-0.00026617793	-0.00026614071	-76232.59	229049.87	0	0.2820216811684287
83.176377	5.7543994e-8	0.2	6.5322375e7	3.1450593e6	-0.99961252	-0.0002918581	-0.00029181728	-69525.036	208895.88	0	0.3092265008541462
83.176377	6.3095734e-8	0.2	5.9574714e7	2.8683282e6	-0.99957513	-0.00032001577	-0.00031997102	-63407.675	190515.22	0	0.33906639357528895
83.176377	6.9183097e-8	0.2	5.4332785e7	2.6159464e6	-0.99953414	-0.00035088996	-0.00035084089	-57828.574	173751.85	0	0.3717783252296054
83.176377	7.5857758e-8	0.2	4.9552089e7	2.3857715e6	-0.9994892	-0.00038474272	-0.00038468892	-52740.375	158463.49	0	0.407641904827847
83.176377	8.3176377e-8	0.2	4.5192043e7	2.1758495e6	-0.99943992	-0.00042186138	-0.00042180239	-48099.881	144520.33	0	0.44696957918972785
83.176377	9.1201084e-8	0.2	4.1215633e7	1.9843983e6	-0.99938589	-0.00046256099	-0.00046249631	-43867.701	131804.02	0	0.4900873756127293
83.176377	1.e-7	0.2	3.7589104e7	1.8097928e6	-0.99932664	-0.00050718696	-0.00050711604	-40007.907	120206.61	0	0.5373719921533161
83.176377	1.0964782e-7	0.2	3.428167e7	1.6505506e6	-0.99926167	-0.00055611803	-0.00055604026	-36487.733	109629.64	0	0.5892220525653105
83.176377	1.2022644e-7	0.2	3.1265255e7	1.5053201e6	-0.99919044	-0.00060976943	-0.00060968416	-33277.296	99983.334	0	0.6460669025100166
83.176377	1.3182567e-7	0.2	2.8514251e7	1.3728682e6	-0.99911234	-0.00066859642	-0.00066850292	-30349.342	91185.797	0	0.708394142579795
83.176377	1.4454398e-7	0.2	2.6005306e7	1.2520707e6	-0.99902671	-0.00073309814	-0.00073299563	-27679.017	83162.349	0	0.7767301003716305
83.176377	1.5848932e-7	0.2	2.3717121e7	1.1419021e6	-0.99893281	-0.00080382185	-0.00080370945	-25243.651	75844.876	0	0.8516672357289844
83.176377	1.7378008e-7	0.2	2.1630272e7	1.0414271e6	-0.99882985	-0.00088136749	-0.00088124424	-23022.572	69171.262	0	0.9338350837442652
83.176377	1.9054607e-7	0.2	1.9727042e7	949792.8	-0.99871697	-0.00096639279	-0.00096625765	-20996.923	63084.854	0	1.0239180895879798
83.176377	2.0892961e-7	0.2	1.7991277e7	866221.34	-0.99859319	-0.0010596188	-0.0010594706	-19149.509	57533.984	0	1.1227015570127397
83.176377	2.2908677e-7	0.2	1.6408239e7	790003.27	-0.99845748	-0.001161836	-0.0011616735	-17464.648	52471.531	0	1.2310047099593473
83.176377	2.5118864e-7	0.2	1.4964492e7	720491.56	-0.99830868	-0.0012739108	-0.0012737327	-15928.036	47854.518	0	1.3497546457456595
83.176377	2.7542287e-7	0.2	1.3647779e7	657096.13	-0.99814552	-0.001396793	-0.0013965976	-14526.629	43643.753	0	1.47996620769736
83.176377	3.0199517e-7	0.2	1.2446923e7	599278.81	-0.99796664	-0.0015315234	-0.0015313092	-13248.531	39803.49	0	1.6227215871847411
83.176377	3.3113112e-7	0.2	1.1351729e7	546548.79	-0.9977705	-0.001679243	-0.0016790082	-12082.892	36301.128	0	1.779253362407822
83.176377	3.6307805e-7	0.2	1.03529e7	498458.45	-0.99755546	-0.0018412019	-0.0018409444	-11019.816	33106.937	0	1.9508675667857394
83.176377	3.9810717e-7	0.2	9.441957e6	454599.53	-0.99731968	-0.0020187699	-0.0020184876	-10050.28	30193.8	0	2.1390355972390287
83.176377	4.3651583e-7	0.2	8.6111673e6	414599.73	-0.99706118	-0.0022134478	-0.0022131382	-9166.0517	27536.987	0	2.345335848390734
83.176377	4.7863009e-7	0.2	7.8534781e6	378119.48	-0.99677777	-0.0024268795	-0.00242654	-8359.6263	25113.946	0	2.5715170768526927
83.176377	5.2480746e-7	0.2	7.1624574e6	344849.1	-0.99646705	-0.0026608652	-0.002660493	-7624.1575	22904.106	0	2.8194959959389707
83.176377	5.7543994e-7	0.2	6.5322391e6	314506.15	-0.9961264	-0.002917376	-0.0029169679	-6953.402	20888.709	0	3.0913639465795777
83.176377	6.3095734e-7	0.2	5.9574731e6	286833.06	-0.99575296	-0.0031985696	-0.0031981221	-6341.6657	19050.645	0	3.389402682018134
83.176377	6.9183097e-7	0.2	5.4332804e6	261594.91	-0.99534357	-0.0035068065	-0.0035063158	-5783.7555	17374.311	0	3.7161377163330362
83.176377	7.5857758e-7	0.2	4.9552109e6	238577.44	-0.99489481	-0.0038446687	-0.0038441307	-5274.9353	15845.476	0	4.074297227848233
83.176377	8.3176377e-7	0.2	4.5192065e6	217585.26	-0.99440289	-0.0042149785	-0.0042143886	-4810.8858	14451.163	0	4.466911916139461
83.176377	9.1201084e-7	0.2	4.1215657e6	198440.18	-0.99386372	-0.0046208195	-0.0046201726	-4387.6675	13179.535	0	4.897245248702112
83.176377	1.e-6	0.2	3.758913e6	180979.66	-0.99327279	-0.0050655574	-0.0050648482	-4001.6879	12019.797	0	5.368902243827511
83.176377	1.0964782e-6	0.2	3.4281699e6	165055.48	-0.99262519	-0.0055528636	-0.005552086	-3649.6702	10962.104	0	5.885806413669437
83.176377	1.2022644e-6	0.2	3.1265287e6	150532.47	-0.99191557	-0.0060867378	-0.0060858852	-3328.6262	9997.4774	0	6.452232930900966
83.176377	1.3182567e-6	0.2	2.8514286e6	137287.33	-0.99113808	-0.006671532	-0.006670597	-3035.8305	9117.728	0	7.072860605469179
83.176377	1.4454398e-6	0.2	2.6005345e6	125207.62	-0.99028636	-0.0073119738	-0.0073109486	-2768.7976	8315.3877	0	7.7527767703357675
83.176377	1.5848932e-6	0.2	2.3717163e6	114190.81	-0.9893535	-0.0080131895	-0.0080120654	-2525.2607	7583.6455	0	8.497510692420224
83.176377	1.7378008e-6	0.2	2.1630318e6	104143.37	-0.988332	-0.0087807244	-0.0087794919	-2303.1523	6916.2897	0	9.313067227830878
83.176377	1.9054607e-6	0.2	1.9727093e6	94980.004	-0.98721372	-0.0096205605	-0.009619209	-2100.5869	6307.6549	0	10.205970549236406
83.176377	2.0892961e-6	0.2	1.7991332e6	86622.927	-0.98598988	-0.010539129	-0.010537647	-1915.845	5752.5746	0	11.183261702995724
83.176377	2.2908677e-6	0.2	1.64083e6	79001.195	-0.98465102	-0.011543314	-0.01154169	-1747.3583	5246.3364	0	12.25253536495466
83.176377	2.5118864e-6	0.2	1.4964559e6	72050.107	-0.98318698	-0.012640452	-0.01263867	-1593.6965	4784.6431	0	13.421959740440059
83.176377	2.7542287e-6	0.2	1.3647852e6	65710.654	-0.98158691	-0.013838305	-0.013836351	-1453.5552	4363.5752	0	14.700270156423949
83.176377	3.0199517e-6	0.2	1.2447002e6	59929.02	-0.97983928	-0.015145029	-0.015142887	-1325.7446	3979.5583	0	16.09676755821893
83.176377	3.3113112e-6	0.2	1.1351815e6	54656.125	-0.97793189	-0.016569113	-0.016566764	-1209.1799	3629.3324	0	17.621320012782995
83.176377	3.6307805e-6	0.2	1.0352995e6	49847.207	-0.97585198	-0.018119282	-0.018116707	-1102.8714	3309.9244	0	19.284276832446558
83.176377	3.9810717e-6	0.2	944206.07	45461.441	-0.97358629	-0.019804375	-0.019801552	-1005.9168	3018.6229	0	21.096436253863896
83.176377	4.3651583e-6	0.2	861128.05	41461.597	-0.97112121	-0.021633169	-0.021630073	-917.49292	2752.9548	0	23.06893701217243
83.176377	4.7863009e-6	0.2	785360.17	37813.72	-0.96844299	-0.023614156	-0.023610762	-836.84921	2510.6648	0	25.21310237314416
83.176377	5.2480746e-6	0.2	716259.21	34486.841	-0.96553795	-0.025755266	-0.025751544	-763.30107	2289.6962	0	27.54029637968744
83.176377	5.7543994e-6	0.2	653238.57	31452.717	-0.96239281	-0.028063524	-0.028059443	-696.22414	2088.173	0	30.0616765582465
83.176377	6.3095734e-6	0.2	595763.27	28685.591	-0.95899505	-0.030544654	-0.030540179	-635.04901	1904.3843	0	32.787931404243004
83.176377	6.9183097e-6	0.2	543345.37	26161.972	-0.95533331	-0.033202631	-0.033197724	-579.25636	1736.7699	0	35.72898798933883
83.176377	7.5857758e-6	0.2	495539.89	23860.433	-0.95139784	-0.036039195	-0.036033815	-528.37258	1583.9067	0	38.893680670693904
83.176377	8.3176377e-6	0.2	451941.	21761.436	-0.94718098	-0.039053359	-0.03904746	-481.9657	1444.4968	0	42.28939292865485
83.176377	9.1201084e-6	0.2	412178.56	19847.159	-0.9426776	-0.042240938	-0.042234469	-439.6418	1317.3566	0	45.92173208923017
83.176377	0.00001	0.2	375915.02	18101.35	-0.93788547	-0.045594143	-0.045587051	-401.0416	1201.4065	0	49.79425741387893
83.176377	0.000010964782	0.2	342842.5	16509.185	-0.93280558	-0.04910129	-0.049093513	-365.83742	1095.662	0	53.908236000432076
83.176377	0.000012022644	0.2	312680.24	15057.144	-0.92744225	-0.052746657	-0.05273813	-333.73042	999.22495	0	58.262563859603375
83.176377	0.000013182567	0.2	285172.15	13732.897	-0.92180314	-0.056510533	-0.056501184	-304.44808	911.27647	0	62.85374919072616
83.176377	0.000014454398	0.2	260084.7	12525.2	-0.91589906	-0.060369469	-0.060359218	-277.74182	831.06954	0	67.67604316924975
83.176377	0.000015848932	0.2	237204.89	11423.794	-0.90974361	-0.064296729	-0.064285489	-253.38497	757.92289	0	72.72169306564524
83.176377	0.000017378008	0.2	216338.46	10419.327	-0.90335263	-0.068262927	-0.068250602	-231.17077	691.21516	0	77.98133986946138
83.176377	0.000019054607	0.2	197308.24	9503.2662	-0.89674368	-0.0722368	-0.072223285	-210.91067	630.37967	0	83.44436123067702
83.176377	0.000020892961	0.2	179952.66	8667.8317	-0.88993534	-0.076186076	-0.076171258	-192.43273	574.89957	0	89.09936585898897
83.176377	0.000022908677	0.2	164124.35	7905.927	-0.88294665	-0.080078392	-0.080062144	-175.5801	524.30349	0	94.93454849160037
83.176377	0.000025118864	0.2	149688.92	7211.0804	-0.87579647	-0.083882202	-0.083864387	-160.20977	478.16152	0	100.93811871084738
83.176377	0.000027542287	0.2	136523.81	6577.3897	-0.86850307	-0.08756766	-0.087548126	-146.19129	436.08161	0	107.09852192996864
83.176377	0.000030199517	0.2	124517.22	5999.4719	-0.86108375	-0.091107426	-0.091086008	-133.4057	397.7062	0	113.40464365461291
83.176377	0.000033113112	0.2	113567.21	5472.4179	-0.85355456	-0.094477388	-0.094453903	-121.74451	362.70918	0	119.84593820329184
83.176377	0.000036307805	0.2	103580.8	4991.7507	-0.84593014	-0.097657264	-0.097631514	-111.10877	330.79316	0	126.41246441086301
83.176377	0.000039810717	0.2	94473.194	4553.3872	-0.83822371	-0.10063108	-0.10060284	-101.40824	301.68693	0	133.09480802043277
83.176377	0.000043651583	0.2	86167.064	4153.6037	-0.83044699	-0.10338746	-0.1033565	-92.560613	275.14314	0	139.8840959647485
83.176377	0.000047863009	0.2	78591.877	3789.0042	-0.82261032	-0.10591977	-0.10588583	-84.490845	250.93621	0	146.77186539078988
83.176377	0.000052480746	0.2	71683.311	3456.4915	-0.8147227	-0.10822605	-0.10818883	-77.13048	228.86042	0	153.75003603654687
83.176377	0.000057543994	0.2	65382.702	3153.2412	-0.80679194	-0.11030873	-0.11026792	-70.417089	208.72814	0	160.8108151470066
83.176377	0.000063095734	0.2	59636.551	2876.6773	-0.79882474	-0.11217418	-0.11212943	-64.293739	190.36826	0	167.94671814459085
83.176377	0.000069183097	0.2	54396.063	2624.4504	-0.79082685	-0.11383214	-0.11378307	-58.708506	173.62475	0	175.15051789262762
83.176377	0.000075857758	0.2	49616.74	2394.4182	-0.78280314	-0.11529499	-0.11524119	-53.614036	158.35529	0	182.41531798144774
83.176377	0.000083176377	0.2	45257.997	2184.6267	-0.77475776	-0.11657705	-0.11651806	-48.96714	144.43009	0	189.73453769533984
83.176377	0.000091201084	0.2	41282.823	1993.294	-0.76669422	-0.11769379	-0.11762911	-44.728434	131.73079	0	197.10197966125534
83.176377	0.0001	0.2	37657.461	1818.7949	-0.75861545	-0.11866125	-0.11859033	-40.861995	120.14945	0	204.51188622272946
83.176377	0.00010964782	0.2	34351.127	1659.6475	-0.75052395	-0.11949538	-0.11941761	-37.335066	109.58762	0	211.95892252770477
83.176377	0.00012022644	0.2	31335.746	1514.5002	-0.74242178	-0.12021164	-0.12012637	-34.117769	99.955548	0	219.4382554520211
83.176377	0.00013182567	0.2	28585.712	1382.1205	-0.7343107	-0.12082465	-0.12073115	-31.182857	91.171356	0	226.94549910462453
83.176377	0.00014454398	0.2	26077.674	1261.3844	-0.72619215	-0.12134793	-0.12124542	-28.505482	83.160393	0	234.4767693223581
83.176377	0.00015848932	0.2	23790.336	1151.2668	-0.71806735	-0.12179383	-0.12168143	-26.06298	75.854576	0	242.02861790038742
83.176377	0.00017378008	0.2	21704.276	1050.833	-0.7099373	-0.12217344	-0.12205019	-23.834684	69.19182	0	249.5980363504617
83.176377	0.00019054607	0.2	19801.781	959.2304	-0.70180286	-0.12249658	-0.12236144	-21.801744	63.11551	0	257.1823863730782
83.176377	0.00020892961	0.2	18066.696	875.68168	-0.69366471	-0.12277193	-0.12262375	-19.94697	57.574013	0	264.77941864878903
83.176377	0.00022908677	0.2	16484.291	799.47787	-0.68552343	-0.12300705	-0.12284457	-18.254685	52.520247	0	272.3871882773196
83.176377	0.00025118864	0.2	15041.129	729.97244	-0.6773795	-0.12320849	-0.12303034	-16.710589	47.911274	0	280.0040341071312
83.176377	0.00027542287	0.2	13724.956	666.57577	-0.6692333	-0.12338191	-0.12318658	-15.301643	43.707939	0	287.62856182324435
83.176377	0.00030199517	0.2	12524.599	608.75019	-0.66108516	-0.1235322	-0.12331802	-14.015954	39.874534	0	295.25957254027264
83.176377	0.00033113112	0.2	11429.866	556.00532	-0.65293533	-0.12366354	-0.12342869	-12.842678	36.378496	0	302.8960740772062
83.176377	0.00036307805	0.2	10431.461	507.89401	-0.64478402	-0.12377951	-0.123522	-11.771921	33.190128	0	310.537228341753
83.176377	0.00039810717	0.2	9520.9092	464.00842	-0.6366314	-0.1238832	-0.12360085	-10.794664	30.28235	0	318.1823306599005
83.176377	0.00043651583	0.2	8690.4793	423.97665	-0.6284776	-0.12397728	-0.12366769	-9.9026788	27.630465	0	325.8307985011317
83.176377	0.00047863009	0.2	7933.1209	387.45952	-0.6203227	-0.12406403	-0.12372457	-9.0884621	25.21195	0	333.4821714784251
83.176377	0.00052480746	0.2	7242.4042	354.14771	-0.61216679	-0.12414545	-0.12377324	-8.3451711	23.006266	0	341.1360361830267
83.176377	0.00057543994	0.2	6612.4652	323.75914	-0.6040099	-0.12422329	-0.12381517	-7.6665647	20.99468	0	348.7920881957631
83.176377	0.00063095734	0.2	6037.9559	296.03654	-0.59585205	-0.12429909	-0.1238516	-7.0469512	19.160111	0	356.4500757131205
83.176377	0.00069183097	0.2	5513.9988	270.7453	-0.58769325	-0.12437425	-0.12388358	-6.4811398	17.486979	0	364.10979203072196
83.176377	0.00075857758	0.2	5036.1457	247.67146	-0.57953349	-0.12445001	-0.12391201	-5.9643962	15.961077	0	371.7710774224578
83.176377	0.00083176377	0.2	4600.34	226.61986	-0.57137272	-0.12452755	-0.12393764	-5.4924029	14.569447	0	379.4338379317933
83.176377	0.00091201084	0.2	4202.8817	207.41256	-0.5632109	-0.12460795	-0.12396113	-5.0612223	13.300274	0	387.09798711871593
83.176377	0.001	0.2	3840.3968	189.88726	-0.55504796	-0.12469225	-0.12398302	-4.6672631	12.142781	0	394.76348927974254
83.176377	0.0010964782	0.2	3509.8079	173.89594	-0.54688381	-0.12478147	-0.12400382	-4.30725	11.087139	0	402.43033314008915
83.176377	0.0012022644	0.2	3208.3085	159.30361	-0.53871835	-0.12487662	-0.12402394	-3.9781962	10.124386	0	410.09853561193165
83.176377	0.0013182567	0.2	2933.3391	145.98716	-0.53055144	-0.1249787	-0.12404377	-3.6773774	9.2463465	0	417.76815494832215
83.176377	0.0014454398	0.2	2682.5655	133.83432	-0.52238295	-0.12508877	-0.12406364	-3.402309	8.4455668	0	425.4392512814427
83.176377	0.0015848932	0.2	2453.8588	122.74268	-0.5142127	-0.12520789	-0.12408386	-3.1507252	7.7152477	0	433.11193548000483
83.176377	0.0017378008	0.2	2245.2774	112.61887	-0.50604049	-0.1253372	-0.12410472	-2.9205594	7.0491886	0	440.7863409622882
83.176377	0.0019054607	0.2	2055.0508	103.37772	-0.49786609	-0.12547787	-0.1241265	-2.709927	6.4417347	0	448.4626312126635
83.176377	0.0020892961	0.2	1881.564	94.941551	-0.48968924	-0.12563119	-0.12414945	-2.5171089	5.8877288	0	456.14100353985447
83.176377	0.0022908677	0.2	1723.3443	87.239527	-0.48150964	-0.12579851	-0.12417382	-2.3405376	5.3824674	0	463.8216928351986
83.176377	0.0025118864	0.2	1579.0488	80.207044	-0.47332695	-0.12598129	-0.12419986	-2.1787832	4.921661	0	471.5049715726473
83.176377	0.0027542287	0.2	1447.4525	73.785179	-0.46514076	-0.12618111	-0.12422783	-2.0305418	4.5013976	0	479.19117611659595
83.176377	0.0030199517	0.2	1327.4384	67.920196	-0.45695062	-0.12639967	-0.12425797	-1.894624	4.1181093	0	486.88068417231517
83.176377	0.0033113112	0.2	1217.9879	62.563087	-0.44875602	-0.12663883	-0.12429052	-1.7699453	3.7685422	0	494.5739298189966
83.176377	0.0036307805	0.2	1118.1718	57.669155	-0.44055635	-0.12690059	-0.12432575	-1.6555163	3.4497288	0	502.27143545497495
83.176377	0.0039810717	0.2	1027.1431	53.197635	-0.43235095	-0.12718711	-0.12436391	-1.5504347	3.1589626	0	509.9737742151138
83.176377	0.0043651583	0.2	944.12927	49.111349	-0.42413903	-0.12750076	-0.12440525	-1.4538776	2.8937754	0	517.681641377772
83.176377	0.0047863009	0.2	868.42577	45.376389	-0.41591971	-0.12784409	-0.12445001	-1.3650943	2.651916	0	525.3958186613208
83.176377	0.0052480746	0.2	799.39025	41.96183	-0.40769198	-0.12821985	-0.12449843	-1.2834002	2.4313313	0	533.1172099276268
83.176377	0.0057543994	0.2	736.43701	38.839468	-0.39945468	-0.12863103	-0.12455072	-1.2081709	2.2301491	0	540.8468656107515
83.176377	0.0063095734	0.2	679.03201	35.983579	-0.39120652	-0.12908083	-0.12460706	-1.1388366	2.0466616	0	548.5859639256438
83.176377	0.0069183097	0.2	626.68837	33.3707	-0.382946	-0.12957269	-0.12466755	-1.0748777	1.8793116	0	556.3358954290215
83.176377	0.0075857758	0.2	578.96226	30.979432	-0.37467147	-0.13011028	-0.12473224	-1.0158201	1.7266788	0	564.0982010080587
83.176377	0.0083176377	0.2	535.44907	28.79026	-0.36638103	-0.13069749	-0.12480104	-0.96123142	1.5874679	0	571.8746827490967
83.176377	0.0091201084	0.2	495.78006	26.785381	-0.35807258	-0.13133844	-0.12487369	-0.91071691	1.4604976	0	579.6673625967687
83.176377	0.01	0.2	459.61917	24.948559	-0.34974379	-0.13203741	-0.12494973	-0.86391649	1.3446907	0	587.4785161783524
83.176377	0.010964782	0.2	426.66017	23.264985	-0.34139207	-0.13279884	-0.12502837	-0.82050152	1.2390648	0	595.3107254194297
83.176377	0.012022644	0.2	396.62409	21.721149	-0.3330146	-0.13362723	-0.12510842	-0.78017201	1.1427241	0	603.1668635108406
83.176377	0.013182567	0.2	369.25681	20.304731	-0.32460832	-0.13452706	-0.12518814	-0.74265407	1.0548515	0	611.0501324912982
83.176377	0.014454398	0.2	344.32689	19.004489	-0.31616993	-0.1355027	-0.1252651	-0.70769761	0.97470222	0	618.9640895552175
83.176377	0.015848932	0.2	321.62358	17.810172	-0.30769598	-0.13655818	-0.12533594	-0.6750742	0.90159696	0	626.9126075909712
83.176377	0.017378008	0.2	300.955	16.712425	-0.29918288	-0.13769705	-0.12539614	-0.64457512	0.83491641	0	634.8999090052421
83.176377	0.019054607	0.2	282.14649	15.702715	-0.29062697	-0.1389221	-0.12543972	-0.61600961	0.77409589	0	642.9305563273703
83.176377	0.020892961	0.2	265.03905	14.773257	-0.28202459	-0.14023502	-0.12545885	-0.58920323	0.71862061	0	651.009459725874
83.176377	0.022908677	0.2	249.488	13.916945	-0.27337219	-0.14163607	-0.12544348	-0.56399644	0.66802123	0	659.1418431840999
83.176377	0.025118864	0.2	235.36172	13.1273	-0.26466642	-0.14312363	-0.12538083	-0.54024323	0.6218699	0	667.3332557750049
83.176377	0.027542287	0.2	222.54052	12.398403	-0.25590414	-0.14469374	-0.12525494	-0.51780989	0.5797766	0	675.5896468263852
83.176377	0.030199517	0.2	210.9157	11.724855	-0.24708246	-0.14633967	-0.12504614	-0.49657389	0.54138581	0	683.9174279321893
83.176377	0.033113112	0.2	200.38873	11.101727	-0.23819863	-0.14805141	-0.12473063	-0.47642287	0.50637348	0	692.3236552281953
83.176377	0.036307805	0.2	190.87064	10.524515	-0.22924982	-0.14981537	-0.12428011	-0.45725365	0.47444426	0	700.8163056242254
83.176377	0.039810717	0.2	182.28158	9.9891098	-0.22023272	-0.15161412	-0.1236616	-0.43897132	0.44532904	0	709.4046864546359
83.176377	0.043651583	0.2	174.5505	9.491752	-0.21114292	-0.15342643	-0.12283753	-0.42148835	0.41878268	0	718.1000010966609
83.176377	0.047863009	0.2	167.61514	9.0290064	-0.20197405	-0.15522764	-0.12176622	-0.40472377	0.39458205	0	726.9160667983372
83.176377	0.052480746	0.2	161.42198	8.5977304	-0.19271675	-0.15699035	-0.12040275	-0.38860226	0.37252422	0	735.870118946445
83.176377	0.057543994	0.2	155.92629	8.1950464	-0.18335749	-0.15868575	-0.11870045	-0.37305334	0.35242496	0	744.983639763147
83.176377	0.063095734	0.2	151.09203	7.8183175	-0.17387733	-0.16028533	-0.11661295	-0.35801048	0.33411736	0	754.283138145228
83.176377	0.069183097	0.2	146.8916	7.4651245	-0.16425094	-0.16176313	-0.11409673	-0.34341024	0.31745067	0	763.8005912598098
83.176377	0.075857758	0.2	143.30514	7.1332452	-0.15444591	-0.16309838	-0.11111415	-0.32919154	0.30228928	0	773.573523467841
83.176377	0.083176377	0.2	140.31939	6.8206361	-0.14442255	-0.16427824	-0.10763664	-0.31529488	0.28851176	0	783.6445947944727
83.176377	0.091201084	0.2	137.92625	6.5254157	-0.13413434	-0.16530029	-0.10364769	-0.30166181	0.27601002	0	794.0606162645728
83.176377	0.1	0.2	136.1211	6.2458512	-0.12352878	-0.16617443	-0.099145186	-0.28823449	0.2646885	0	804.871312307246
83.176377	0.10964782	0.2	134.90136	5.9803477	-0.1125484	-0.16692371	-0.094142743	-0.27495542	0.25446349	0	816.128121306709
83.176377	0.12022644	0.2	134.26576	5.7274401	-0.10113134	-0.167584	-0.088669676	-0.26176727	0.24526262	0	827.8836561038657
83.176377	0.13182567	0.2	134.2148	5.4857902	-0.089211091	-0.16820249	-0.082769749	-0.2486128	0.23702469	0	840.1921824229837
83.176377	0.14454398	0.2	134.75257	5.2541868	-0.076714609	-0.16883531	-0.076498936	-0.23543451	0.22969995	0	853.1118116293084
83.176377	0.15848932	0.2	135.89023	5.0315516	-0.063558757	-0.16954499	-0.069922693	-0.22217424	0.22325111	0	866.7083563294326
83.176377	0.17378008	0.2	137.65059	4.8169496	-0.049644997	-0.17039793	-0.06311323	-0.20877218	0.21765523	0	881.06083021103
83.176377	0.19054607	0.2	140.07347	4.609605	-0.034852805	-0.17146251	-0.056147097	-0.19516549	0.21290645	0	896.2680887028355
83.176377	0.20892961	0.2	143.2209	4.4089203	-0.019032607	-0.17280753	-0.049103143	-0.18128638	0.20901964	0	912.4558495948536
83.176377	0.22908677	0.2	147.18113	4.2144978	-0.0019995086	-0.17450106	-0.042060618	-0.16705974	0.20603476	0	929.7829411479358
83.176377	0.25118864	0.2	152.0701	4.0261593	0.016470526	-0.17660884	-0.035097014	-0.15240041	0.20402114	0	948.4452978773011
83.176377	0.27542287	0.2	158.02883	3.8439557	0.036639928	-0.17919204	-0.028285141	-0.13721064	0.20308108	0	968.675809094602
83.176377	0.30199517	0.2	165.21519	3.6681601	0.058802053	-0.18230373	-0.021689064	-0.12137791	0.20335126	0	990.738062905997
83.176377	0.33113112	0.2	173.78918	3.4992327	0.083265457	-0.18598411	-0.01535891	-0.10477396	0.20500066	0	1014.9125483191613
83.176377	0.36307805	0.2	183.89242	3.3377523	0.11033017	-0.19025518	-0.00932519	-0.087255595	0.20822374	0	1041.4754297103764
83.176377	0.39810717	0.2	195.62497	3.1843189	0.14025919	-0.19511615	-0.0035940138	-0.068667563	0.21322886	0	1070.6726627762862
83.176377	0.43651583	0.2	209.02506	3.0394414	0.17325123	-0.20054146	0.001855059	-0.048847704	0.22022323	0	1102.6947923846017
83.176377	0.47863009	0.2	224.05757	2.9034391	0.20942228	-0.20648261	0.0070671662	-0.027633662	0.22939747	0	1137.6592807028403
83.176377	0.52480746	0.2	240.6154	2.7763824	0.24880089	-0.21287413	0.012106196	-0.0048701154	0.24091314	0	1175.6049577495432
83.176377	0.57543994	0.2	258.53312	2.6580839	0.291338	-0.21964213	0.017046127	0.019584748	0.25489546	0	1216.4996299944798
83.176377	0.63095734	0.2	277.60852	2.5481358	0.33692698	-0.22671339	0.021961899	0.045854527	0.27143193	0	1260.2571937522628
83.176377	0.69183097	0.2	297.62578	2.4459734	0.38542741	-0.23402271	0.026921888	0.07404215	0.29057548	0	1306.75856400052
83.176377	0.75857758	0.2	318.37547	2.3509441	0.43668693	-0.24151762	0.0319831	0.10422956	0.31235027	0	1355.8713007349925
83.176377	0.83176377	0.2	339.6685	2.2623667	0.49055788	-0.24916029	0.037189179	0.13647908	0.33675836	0	1407.4648690141273
83.176377	0.91201084	0.2	361.34401	2.1795756	0.54690808	-0.25692712	0.042570635	0.17083585	0.36378592	0	1461.4208103177275
83.176377	1.	0.2	383.27222	2.1019477	0.60562647	-0.26480708	0.048146475	0.20733073	0.39340869	0	1517.6383481817427
83.176377	1.0964782	0.2	405.35377	2.0289171	0.66662501	-0.27279926	0.053926487	0.2459834	0.42559621	0	1576.0366025658886
83.176377	1.2022644	0.2	427.51717	1.9599801	0.72983833	-0.28091049	0.059913622	0.28680515	0.46031522	0	1636.554708614705
83.176377	1.3182567	0.2	449.71516	1.8946951	0.795222	-0.289153	0.066106184	0.32980153	0.49753215	0	1699.1506027391247
83.176377	1.4454398	0.2	471.92094	1.8326784	0.86275033	-0.2975426	0.072499631	0.37497445	0.53721495	0	1763.7992940041427
83.176377	1.5848932	0.2	494.12449	1.773599	0.932414	-0.30609724	0.079087989	0.42232407	0.57933448	0	1830.4909030680165
83.176377	1.7378008	0.2	516.32932	1.7171723	1.0042179	-0.31483588	0.085864872	0.47185023	0.62386538	0	1899.2288243924422
83.176377	1.9054607	0.2	538.54961	1.6631543	1.078179	-0.32377783	0.092824194	0.52355368	0.67078682	0	1970.0278587624657
83.176377	2.0892961	0.2	560.80784	1.611336	1.1543249	-0.33294218	0.09996062	0.57743699	0.72008283	0	2042.9129356655183
83.176377	2.2908677	0.2	583.13282	1.5615382	1.2326923	-0.3423476	0.10726984	0.63350523	0.77174265	0	2117.917727244614
83.176377	2.5118864	0.2	605.55811	1.5136068	1.3133256	-0.35201214	0.11474868	0.69176657	0.8257608	0	2195.083353765208
83.176377	2.7542287	0.2	628.12073	1.4674094	1.3962763	-0.36195319	0.12239517	0.75223262	0.88213715	0	2274.4578326540773
83.176377	3.0199517	0.2	650.86018	1.4228312	1.4816018	-0.37218751	0.13020852	0.81491877	0.94087696	0	2356.094946510986
83.176377	3.3113112	0.2	673.81762	1.3797728	1.5693654	-0.38273127	0.13818901	0.87984436	1.0019907	0	2440.0542224382507
83.176377	3.6307805	0.2	697.03529	1.3381471	1.6596352	-0.39360015	0.146338	0.94703282	1.0654942	0	2526.39990039798
83.176377	3.9810717	0.2	720.55604	1.2978778	1.7524838	-0.40480937	0.1546578	1.0165118	1.1314083	0	2615.2006269137764
83.176377	4.3651583	0.2	744.42298	1.2588973	1.8479884	-0.41637386	0.16315157	1.088313	1.1997587	0	2706.5295302359605
83.176377	4.7863009	0.2	768.67924	1.2211455	1.9462301	-0.42830826	0.17182329	1.1624726	1.2705763	0	2800.4635570084356
83.176377	5.2480746	0.2	793.36779	1.1845685	2.047294	-0.44062708	0.18067765	1.2390308	1.3438964	0	2897.0835455547854
83.176377	5.7543994	0.2	818.53133	1.1491175	2.1512689	-0.45334473	0.18971999	1.3180321	1.4197594	0	2996.4739327338843
83.176377	6.3095734	0.2	844.21222	1.1147481	2.2582475	-0.46647561	0.19895626	1.3995251	1.4982098	0	3098.722934336443
83.176377	6.9183097	0.2	870.45245	1.0814198	2.3683257	-0.48003417	0.20839295	1.4835627	1.5792969	0	3203.921874235352
83.176377	7.5857758	0.2	897.29363	1.049095	2.4816035	-0.49403498	0.21803705	1.5702016	1.6630743	0	3312.1660224779685
83.176377	8.3176377	0.2	924.77701	1.0177388	2.5981841	-0.50849275	0.22789601	1.6595029	1.7495997	0	3423.5537421607855
83.176377	9.1201084	0.2	952.94355	0.98731869	2.7181746	-0.52342242	0.23797773	1.7515314	1.8389352	0	3538.187145246042
83.176377	10.	0.2	981.83391	0.95780402	2.8416855	-0.53883919	0.24829052	1.8463562	1.9311472	0	3656.1716152625213