9.1201084	1.e-12	0.32	5.4284095e8	2.3813679e8	-0.23005332	-0.008673368	-0.0086733679	-577757.76	1.7337721e6	0	720.8074791726124
9.1201084	1.0964782e-12	0.32	4.9507683e8	2.1718334e8	-0.22915929	-0.0086733681	-0.008673368	-526921.36	1.5812189e6	0	721.6474787524068
9.1201084	1.2022644e-12	0.32	4.5151543e8	1.9807356e8	-0.22826527	-0.0086733681	-0.008673368	-480558.01	1.4420888e6	0	722.4874689666138
9.1201084	1.3182567e-12	0.32	4.1178697e8	1.8064523e8	-0.22737125	-0.0086733681	-0.008673368	-438274.13	1.3152006e6	0	723.3274591808207
9.1201084	1.4454398e-12	0.32	3.7555418e8	1.6475041e8	-0.22647722	-0.0086733681	-0.0086733679	-399710.78	1.1994772e6	0	724.1674588207475
9.1201084	1.5848932e-12	0.32	3.4250948e8	1.5025416e8	-0.2255832	-0.0086733682	-0.008673368	-364540.58	1.0939362e6	0	725.0074490048883
9.1201084	1.7378008e-12	0.32	3.1237237e8	1.3703343e8	-0.22468918	-0.008673368	-0.0086733678	-332464.99	997681.71	0	725.8474392792276
9.1201084	1.9054607e-12	0.32	2.8488698e8	1.2497598e8	-0.22379515	-0.008673368	-0.0086733678	-303211.69	909896.54	0	726.6874388890881
9.1201084	2.0892961e-12	0.32	2.5982002e8	1.1397945e8	-0.22290113	-0.0086733681	-0.0086733679	-276532.37	829835.5	0	727.5274290732289
9.1201084	2.2908677e-12	0.32	2.3695867e8	1.0395049e8	-0.22200711	-0.0086733683	-0.0086733681	-252200.53	756818.96	0	728.3674192273037
9.1201084	2.5118864e-12	0.32	2.1610888e8	9.4803978e7	-0.22111309	-0.0086733682	-0.008673368	-230009.64	690227.1	0	729.2074094715769
9.1201084	2.7542287e-12	0.32	1.9709364e8	8.6462259e7	-0.22021906	-0.008673368	-0.0086733677	-209771.31	629494.61	0	730.0474091716355
9.1201084	3.0199517e-12	0.32	1.7975154e8	7.8854518e7	-0.21932504	-0.0086733682	-0.0086733679	-191313.72	574105.9	0	730.8873993257105
9.1201084	3.3113112e-12	0.32	1.6393535e8	7.1916178e7	-0.21843102	-0.0086733681	-0.0086733678	-174480.21	523590.81	0	731.7273895699834
9.1201084	3.6307805e-12	0.32	1.4951082e8	6.5588335e7	-0.21753699	-0.0086733682	-0.0086733679	-159127.86	477520.49	0	732.5673891497779
9.1201084	3.9810717e-12	0.32	1.3635549e8	5.9817276e7	-0.21664297	-0.008673368	-0.0086733677	-145126.36	435503.87	0	733.4073794241172
9.1201084	4.3651583e-12	0.32	1.2435768e8	5.4554006e7	-0.21574895	-0.008673368	-0.0086733676	-132356.83	397184.25	0	734.2473696683901
9.1201084	4.7863009e-12	0.32	1.1341556e8	4.9753847e7	-0.21485492	-0.0086733681	-0.0086733677	-120710.88	362236.34	0	735.0873692481846
9.1201084	5.2480746e-12	0.32	1.0343622e8	4.537605e7	-0.2139609	-0.008673368	-0.0086733675	-110089.65	330363.47	0	735.9273595225237
9.1201084	5.7543994e-12	0.32	9.4334951e7	4.1383451e7	-0.21306688	-0.0086733683	-0.0086733677	-100402.97	301295.06	0	736.7673496765987
9.1201084	6.3095734e-12	0.32	8.60345e7	3.7742158e7	-0.21217286	-0.008673368	-0.0086733674	-91568.62	274784.37	0	737.6073399810039
9.1201084	6.9183097e-12	0.32	7.8464397e7	3.4421259e7	-0.21127883	-0.0086733682	-0.0086733676	-83511.592	250606.32	0	738.4473395307322
9.1201084	7.5857758e-12	0.32	7.1560381e7	3.1392564e7	-0.21038481	-0.0086733682	-0.0086733674	-76163.496	228555.68	0	739.2873298050714
9.1201084	8.3176377e-12	0.32	6.5263844e7	2.863036e7	-0.20949079	-0.0086733683	-0.0086733675	-69461.952	208445.26	0	740.1273199892122
9.1201084	9.1201084e-12	0.32	5.9521334e7	2.6111201e7	-0.20859676	-0.0086733681	-0.0086733672	-63350.073	190104.34	0	740.9673196892711
9.1201084	1.e-11	0.32	5.4284103e7	2.38137e7	-0.20770274	-0.008673368	-0.0086733671	-57775.971	173377.22	0	741.8073099335442
9.1201084	1.0964782e-11	0.32	4.9507691e7	2.1718355e7	-0.20680872	-0.0086733681	-0.0086733671	-52692.33	158121.91	0	742.6473001477511
9.1201084	1.2022644e-11	0.32	4.5151552e7	1.9807377e7	-0.20591469	-0.008673368	-0.0086733669	-48055.995	144208.89	0	743.4872998177439
9.1201084	1.3182567e-11	0.32	4.1178705e7	1.8064545e7	-0.20502067	-0.0086733682	-0.0086733669	-43827.607	131520.08	0	744.3272900319507
9.1201084	1.4454398e-11	0.32	3.7555426e7	1.6475063e7	-0.20412665	-0.008673368	-0.0086733667	-39971.271	119947.74	0	745.16728030629
9.1201084	1.5848932e-11	0.32	3.4250957e7	1.5025438e7	-0.20323263	-0.0086733681	-0.0086733666	-36454.25	109393.64	0	746.007270550563
9.1201084	1.7378008e-11	0.32	3.1237244e7	1.3703364e7	-0.2023386	-0.0086733682	-0.0086733666	-33246.689	99768.183	0	746.8472701604235
9.1201084	1.9054607e-11	0.32	2.8488706e7	1.2497618e7	-0.20144458	-0.0086733682	-0.0086733664	-30321.359	90989.666	0	747.6872604347628
9.1201084	2.0892961e-11	0.32	2.598201e7	1.1397965e7	-0.20055056	-0.0086733682	-0.0086733662	-27653.426	82983.563	0	748.527250709102
9.1201084	2.2908677e-11	0.32	2.3695875e7	1.039507e7	-0.19965653	-0.0086733681	-0.008673366	-25220.242	75681.91	0	749.3672503790947
9.1201084	2.5118864e-11	0.32	2.1610896e7	9.4804185e6	-0.19876251	-0.0086733682	-0.0086733659	-23001.152	69022.723	0	750.2072406233677
9.1201084	2.7542287e-11	0.32	1.9709372e7	8.6462464e6	-0.19786849	-0.0086733681	-0.0086733655	-20977.318	62949.473	0	751.0472309578389
9.1201084	3.0199517e-11	0.32	1.7975162e7	7.8854724e6	-0.19697446	-0.008673368	-0.0086733652	-19131.559	57410.603	0	751.887230657898
9.1201084	3.3113112e-11	0.32	1.6393543e7	7.1916382e6	-0.19608044	-0.0086733681	-0.008673365	-17448.206	52359.094	0	752.7272209322371
9.1201084	3.6307805e-11	0.32	1.495109e7	6.558854e6	-0.19518642	-0.008673368	-0.0086733646	-15912.971	47752.063	0	753.5672112667085
9.1201084	3.9810717e-11	0.32	1.3635557e7	5.9817478e6	-0.1942924	-0.0086733682	-0.0086733644	-14512.819	43550.4	0	754.4072015410477
9.1201084	4.3651583e-11	0.32	1.2435777e7	5.4554208e6	-0.19339837	-0.008673368	-0.0086733639	-13235.866	39718.438	0	755.2472013012386
9.1201084	4.7863009e-11	0.32	1.1341564e7	4.9754048e6	-0.19250435	-0.0086733681	-0.0086733636	-12071.27	36223.647	0	756.0871916056437
9.1201084	5.2480746e-11	0.32	1.034363e7	4.5376249e6	-0.19161033	-0.0086733683	-0.0086733633	-11009.146	33036.36	0	756.9271819100491
9.1201084	5.7543994e-11	0.32	9.4335034e6	4.138365e6	-0.1907163	-0.0086733682	-0.0086733627	-10040.478	30129.52	0	757.767181700306
9.1201084	6.3095734e-11	0.32	8.6034582e6	3.7742357e6	-0.18982228	-0.0086733682	-0.0086733623	-9157.0418	27478.45	0	758.6071720347775
9.1201084	6.9183097e-11	0.32	7.8464479e6	3.4421457e6	-0.18892826	-0.0086733682	-0.0086733617	-8351.3383	25060.645	0	759.4471624293811
9.1201084	7.5857758e-11	0.32	7.1560463e6	3.139276e6	-0.18803423	-0.0086733683	-0.0086733611	-7616.5278	22855.581	0	760.2871622196382
9.1201084	8.3176377e-11	0.32	6.5263927e6	2.8630556e6	-0.18714021	-0.0086733681	-0.0086733603	-6946.3727	20844.539	0	761.1271526743739
9.1201084	9.1201084e-11	0.32	5.9521417e6	2.6111396e6	-0.18624619	-0.0086733682	-0.0086733596	-6335.1839	19010.447	0	761.9671430990435
9.1201084	1.e-10	0.32	5.4284185e6	2.3813895e6	-0.18535217	-0.0086733683	-0.0086733588	-5777.773	17337.735	0	762.8071335537792
9.1201084	1.0964782e-10	0.32	4.9507773e6	2.1718549e6	-0.18445814	-0.0086733681	-0.0086733578	-5269.4081	15812.204	0	763.6471334643005
9.1201084	1.2022644e-10	0.32	4.5151634e6	1.980757e6	-0.18356412	-0.0086733683	-0.008673357	-4805.7737	14420.902	0	764.4871239190364
9.1201084	1.3182567e-10	0.32	4.1178787e6	1.8064737e6	-0.1826701	-0.0086733683	-0.0086733558	-4382.9341	13152.02	0	765.3271144940366
9.1201084	1.4454398e-10	0.32	3.7555508e6	1.6475254e6	-0.18177607	-0.0086733683	-0.0086733547	-3997.2997	11994.786	0	766.167114434624
9.1201084	1.5848932e-10	0.32	3.4251039e6	1.5025628e6	-0.18088205	-0.0086733685	-0.0086733535	-3645.5968	10939.376	0	767.0071050096241
9.1201084	1.7378008e-10	0.32	3.1237327e6	1.3703553e6	-0.17998803	-0.0086733684	-0.008673352	-3324.8399	9976.8312	0	767.8470956748224
9.1201084	1.9054607e-10	0.32	2.8488788e6	1.2497807e6	-0.179094	-0.0086733685	-0.0086733505	-3032.3061	9098.9794	0	768.6870957356742
9.1201084	2.0892961e-10	0.32	2.5982092e6	1.1398153e6	-0.17819998	-0.0086733684	-0.0086733487	-2765.512	8298.3692	0	769.5270864910708
9.1201084	2.2908677e-10	0.32	2.3695958e6	1.0395257e6	-0.17730596	-0.0086733683	-0.0086733467	-2522.1928	7568.2039	0	770.3670773065999
9.1201084	2.5118864e-10	0.32	2.1610978e6	948060.47	-0.17641194	-0.0086733684	-0.0086733447	-2300.283	6902.2853	0	771.2070681221286
9.1201084	2.7542287e-10	0.32	1.9709454e6	864643.16	-0.17551791	-0.0086733686	-0.0086733426	-2097.8987	6294.9602	0	772.047068363377
9.1201084	3.0199517e-10	0.32	1.7975244e6	788565.68	-0.17462389	-0.0086733686	-0.0086733401	-1913.322	5741.0732	0	772.8870593292362
9.1201084	3.3113112e-10	0.32	1.6393625e6	719182.18	-0.17372987	-0.0086733687	-0.0086733374	-1744.986	5235.9222	0	773.7270503552277
9.1201084	3.6307805e-10	0.32	1.4951172e6	655903.68	-0.17283584	-0.0086733686	-0.0086733343	-1591.4617	4775.2191	0	774.567050897137
9.1201084	3.9810717e-10	0.32	1.3635639e6	598192.98	-0.17194182	-0.0086733686	-0.008673331	-1451.4457	4355.0529	0	775.407042103525
9.1201084	4.3651583e-10	0.32	1.2435859e6	545560.19	-0.1710478	-0.0086733687	-0.0086733275	-1323.7495	3971.8567	0	776.2470333700453
9.1201084	4.7863009e-10	0.32	1.1341646e6	497558.5	-0.17015378	-0.0086733689	-0.0086733237	-1207.2892	3622.3775	0	777.0870247267637
9.1201084	5.2480746e-10	0.32	1.0343712e6	453780.44	-0.16925975	-0.008673369	-0.0086733195	-1101.076	3303.6488	0	777.9270255994002
9.1201084	5.7543994e-10	0.32	943358.55	413854.37	-0.16836573	-0.008673369	-0.0086733146	-1004.2083	3012.9648	0	778.7670172868455
9.1201084	6.3095734e-10	0.32	860354.02	377441.34	-0.16747171	-0.0086733691	-0.0086733095	-915.8639	2747.8578	0	779.6070090344231
9.1201084	6.9183097e-10	0.32	784653.01	344232.27	-0.16657768	-0.008673369	-0.0086733037	-835.29275	2506.0774	0	780.447010388117
9.1201084	7.5857758e-10	0.32	715612.84	313945.22	-0.16568366	-0.0086733694	-0.0086732978	-761.81089	2285.571	0	781.2870023762234
9.1201084	8.3176377e-10	0.32	652647.47	286323.1	-0.16478964	-0.0086733694	-0.0086732908	-694.79458	2084.4668	0	782.1269946950569
9.1201084	9.1201084e-10	0.32	595222.37	261131.41	-0.16389561	-0.0086733696	-0.0086732835	-633.67489	1901.0576	0	782.9669964997419
9.1201084	1.e-9	0.32	542850.05	238156.31	-0.16300159	-0.0086733698	-0.0086732754	-577.93299	1733.7863	0	783.8069891493022
9.1201084	1.0964782e-9	0.32	495085.94	217202.77	-0.16210757	-0.0086733699	-0.0086732663	-527.0957	1581.2332	0	784.6469820995235
9.1201084	1.2022644e-9	0.32	451524.54	198092.9	-0.16121355	-0.0086733701	-0.0086732566	-480.73146	1442.1031	0	785.4869752301414
9.1201084	1.3182567e-9	0.32	411796.08	180664.48	-0.16031952	-0.0086733701	-0.0086732456	-438.4467	1315.2149	0	786.3269781472718
9.1201084	1.4454398e-9	0.32	375563.3	164769.57	-0.1594255	-0.0086733703	-0.0086732338	-399.88245	1199.4915	0	787.1669719092777
9.1201084	1.5848932e-9	0.32	342518.6	150273.23	-0.15853148	-0.0086733706	-0.0086732209	-364.71136	1093.9505	0	788.0069660020105
9.1201084	1.7378008e-9	0.32	312381.47	137052.4	-0.15763745	-0.008673371	-0.0086732069	-332.63486	997.69597	0	788.8469698211238
9.1201084	1.9054607e-9	0.32	284896.09	124994.86	-0.15674343	-0.0086733713	-0.0086731913	-303.38068	909.9108	0	789.6869647256409
9.1201084	2.0892961e-9	0.32	259829.13	113998.24	-0.15584941	-0.0086733714	-0.0086731741	-276.70046	829.84978	0	790.5269601112157
9.1201084	2.2908677e-9	0.32	236967.79	103969.19	-0.15495539	-0.0086733716	-0.0086731552	-252.36774	756.83326	0	791.3669560079139
9.1201084	2.5118864e-9	0.32	216117.99	94822.583	-0.15406136	-0.008673372	-0.0086731348	-230.17595	690.24139	0	792.206961751257
9.1201084	2.7542287e-9	0.32	197102.75	86480.77	-0.15316734	-0.0086733726	-0.0086731125	-209.93672	629.50888	0	793.0469586702023
9.1201084	3.0199517e-9	0.32	179760.65	78872.939	-0.15227332	-0.008673373	-0.0086730878	-191.47825	574.12018	0	793.8869563107338
9.1201084	3.3113112e-9	0.32	163944.46	71934.507	-0.1513793	-0.0086733733	-0.0086730606	-174.64384	523.60509	0	794.7269547029177
9.1201084	3.6307805e-9	0.32	149519.93	65606.573	-0.15048527	-0.0086733737	-0.0086730309	-159.2906	477.53478	0	795.5669632424072
9.1201084	3.9810717e-9	0.32	136364.6	59835.42	-0.14959125	-0.0086733744	-0.0086729985	-145.2882	435.51815	0	796.4069631980277
9.1201084	4.3651583e-9	0.32	124366.79	54572.059	-0.14869723	-0.0086733749	-0.0086729627	-132.51778	397.19853	0	797.2469641758955
9.1201084	4.7863009e-9	0.32	113424.67	49771.807	-0.14780321	-0.0086733756	-0.0086729237	-120.87094	362.25062	0	798.086966115878
9.1201084	5.2480746e-9	0.32	103445.33	45393.918	-0.14690918	-0.0086733762	-0.0086728807	-110.24882	330.37775	0	798.9269786541577
9.1201084	5.7543994e-9	0.32	94344.063	41401.228	-0.14601516	-0.0086733772	-0.0086728338	-100.56125	301.30935	0	799.7669829693615
9.1201084	6.3095734e-9	0.32	86043.611	37759.843	-0.14512114	-0.0086733779	-0.0086727821	-91.725999	274.79865	0	800.6069887277376
9.1201084	6.9183097e-9	0.32	78473.508	34438.852	-0.14422712	-0.0086733789	-0.0086727256	-83.668078	250.62061	0	801.446995929286
9.1201084	7.5857758e-9	0.32	71569.493	31410.064	-0.14333309	-0.0086733799	-0.0086726636	-76.319089	228.56997	0	802.2870141801233
9.1201084	8.3176377e-9	0.32	65272.955	28647.769	-0.14243907	-0.0086733812	-0.0086725957	-69.616652	208.45954	0	803.1270248092061
9.1201084	9.1201084e-9	0.32	59530.445	26128.518	-0.14154505	-0.0086733824	-0.0086725212	-63.503878	190.11862	0	803.9670374226512
9.1201084	1.e-8	0.32	54293.214	23830.925	-0.14065103	-0.0086733838	-0.0086724395	-57.928884	173.3915	0	804.8070522008546
9.1201084	1.0964782e-8	0.32	49516.802	21735.488	-0.13975701	-0.0086733852	-0.0086723498	-52.844351	158.13619	0	805.6470693843454
9.1201084	1.2022644e-8	0.32	45160.663	19824.418	-0.13886298	-0.0086733871	-0.0086722518	-48.207122	144.22317	0	806.4870984589753
9.1201084	1.3182567e-8	0.32	41187.816	18081.493	-0.13796896	-0.0086733889	-0.0086721441	-43.97784	131.53436	0	807.3271210543626
9.1201084	1.4454398e-8	0.32	37564.538	16491.919	-0.13707494	-0.0086733908	-0.0086720259	-40.120611	119.96202	0	808.1671468066893
9.1201084	1.5848932e-8	0.32	34260.068	15042.202	-0.13618092	-0.0086733931	-0.0086718965	-36.602697	109.40792	0	809.0071759264183
9.1201084	1.7378008e-8	0.32	31246.356	13720.037	-0.1352869	-0.0086733954	-0.0086717544	-33.394244	99.782465	0	809.8472088645409
9.1201084	1.9054607e-8	0.32	28497.818	12514.199	-0.13439288	-0.008673398	-0.0086715987	-30.46802	91.003947	0	810.6872458916519
9.1201084	2.0892961e-8	0.32	25991.121	11414.454	-0.13349886	-0.008673401	-0.008671428	-27.799194	82.997844	0	811.5272874286767
9.1201084	2.2908677e-8	0.32	23704.987	10411.466	-0.13260483	-0.0086734042	-0.0086712409	-25.365117	75.696191	0	812.3673432921937
9.1201084	2.5118864e-8	0.32	21620.007	9496.7229	-0.13171081	-0.0086734077	-0.0086710357	-23.145133	69.037004	0	813.2073952020198
9.1201084	2.7542287e-8	0.32	19718.484	8662.4589	-0.13081679	-0.0086734112	-0.0086708104	-21.120406	62.963755	0	814.0474531551304
9.1201084	3.0199517e-8	0.32	17984.273	7901.5928	-0.12992277	-0.0086734156	-0.0086705638	-19.273754	57.424885	0	814.8875175123183
9.1201084	3.3113112e-8	0.32	16402.655	7207.6667	-0.12902875	-0.0086734201	-0.0086702932	-17.589509	52.373376	0	815.727589085368
9.1201084	3.6307805e-8	0.32	14960.202	6574.7904	-0.12813474	-0.008673425	-0.0086699965	-16.05338	47.766345	0	816.5676591100141
9.1201084	3.9810717e-8	0.32	13644.668	5997.5922	-0.12724072	-0.0086734307	-0.0086696714	-14.652335	43.564682	0	817.4077470690836
9.1201084	4.3651583e-8	0.32	12444.888	5471.1732	-0.1263467	-0.0086734367	-0.0086693147	-13.374488	39.73272	0	818.2478445290378
9.1201084	4.7863009e-8	0.32	11350.676	4991.0652	-0.12545268	-0.0086734432	-0.0086689235	-12.209	36.23793	0	819.0879523617937
9.1201084	5.2480746e-8	0.32	10352.742	4553.1934	-0.12455866	-0.0086734506	-0.0086684949	-11.145982	33.050643	0	819.9280714392676
9.1201084	5.7543994e-8	0.32	9442.6151	4153.8414	-0.12366464	-0.0086734586	-0.0086680248	-10.176421	30.143802	0	820.7682029941693
9.1201084	6.3095734e-8	0.32	8612.57	3789.6201	-0.12277063	-0.0086734672	-0.008667509	-9.2920914	27.492733	0	821.6083388936213
9.1201084	6.9183097e-8	0.32	7855.5598	3457.4381	-0.12187661	-0.008673477	-0.0086669441	-8.4854945	25.074928	0	822.4484989511775
9.1201084	7.5857758e-8	0.32	7165.1584	3154.4765	-0.1209826	-0.0086734874	-0.0086663241	-7.749791	22.869865	0	823.2886661794962
9.1201084	8.3176377e-8	0.32	6535.5047	2878.1641	-0.12008858	-0.008673499	-0.0086656446	-7.0787426	20.858823	0	824.1288606927931
9.1201084	9.1201084e-8	0.32	5961.2538	2626.1561	-0.11919457	-0.0086735116	-0.0086648994	-6.4666605	19.024731	0	824.9690655638581
9.1201084	1.e-7	0.32	5437.5308	2396.314	-0.11830056	-0.0086735254	-0.0086640824	-5.9083563	17.35202	0	825.8092920223768
9.1201084	1.0964782e-7	0.32	4959.8898	2186.6874	-0.11740654	-0.0086735405	-0.0086631864	-5.3990982	15.826489	0	826.6495516287611
9.1201084	1.2022644e-7	0.32	4524.276	1995.4975	-0.11651253	-0.0086735571	-0.0086622041	-4.9345706	14.435188	0	827.4898277865282
9.1201084	1.3182567e-7	0.32	4126.9915	1821.1222	-0.11561852	-0.0086735754	-0.0086611271	-4.5108376	13.166307	0	828.3301324168841
9.1201084	1.4454398e-7	0.32	3764.6638	1662.082	-0.11472451	-0.0086735954	-0.0086599461	-4.1243099	12.009073	0	829.1704683159746
9.1201084	1.5848932e-7	0.32	3434.217	1517.0274	-0.11383051	-0.0086736173	-0.0086586511	-3.7717137	10.953664	0	830.0108290947556
9.1201084	1.7378008e-7	0.32	3132.846	1384.728	-0.1129365	-0.0086736413	-0.0086572312	-3.4500635	9.9911192	0	830.851236821738
9.1201084	1.9054607e-7	0.32	2857.9924	1264.0614	-0.1120425	-0.0086736679	-0.0086556746	-3.1566363	9.1132681	0	831.6916762534138
9.1201084	2.0892961e-7	0.32	2607.323	1154.0041	-0.1111485	-0.0086736966	-0.0086539674	-2.8889488	8.3126587	0	832.5321609646226
9.1201084	2.2908677e-7	0.32	2378.7098	1053.6225	-0.1102545	-0.0086737285	-0.0086520958	-2.6447362	7.5824943	0	833.3726951044855
9.1201084	2.5118864e-7	0.32	2170.2122	962.06532	-0.1093605	-0.0086737631	-0.0086500434	-2.4219329	6.9165766	0	834.2132836038413
9.1201084	2.7542287e-7	0.32	1980.0601	878.55607	-0.1084665	-0.0086738014	-0.0086477932	-2.2186552	6.3092526	0	835.0539315739254
9.1201084	3.0199517e-7	0.32	1806.6394	802.38666	-0.10757251	-0.0086738434	-0.008645326	-2.033185	5.7553667	0	835.8946353917742
9.1201084	3.3113112e-7	0.32	1648.478	732.91124	-0.10667852	-0.0086738891	-0.0086426204	-1.8639554	5.2502171	0	836.7354108871841
9.1201084	3.6307805e-7	0.32	1504.2331	669.54081	-0.10578453	-0.0086739395	-0.008639654	-1.7095375	4.7895153	0	837.57626479496
9.1201084	3.9810717e-7	0.32	1372.6802	611.73822	-0.10489055	-0.0086739945	-0.0086364012	-1.5686279	4.3693506	0	838.4171954163675
9.1201084	4.3651583e-7	0.32	1252.7027	559.01353	-0.10399657	-0.0086740549	-0.0086328347	-1.440038	3.9861561	0	839.2582203551032
9.1201084	4.7863009e-7	0.32	1143.282	510.91996	-0.1031026	-0.0086741215	-0.0086289244	-1.3226839	3.6366789	0	840.0993392654069
9.1201084	5.2480746e-7	0.32	1043.4892	467.05004	-0.10220863	-0.008674194	-0.0086246364	-1.215577	3.3179522	0	840.940571735337
9.1201084	5.7543994e-7	0.32	952.47726	427.0321	-0.10131466	-0.0086742737	-0.008619935	-1.1178155	3.0272704	0	841.7819284984882
9.1201084	6.3095734e-7	0.32	869.47348	390.52724	-0.1004207	-0.0086743612	-0.00861478	-1.0285771	2.7621659	0	842.6234122457754
9.1201084	6.9183097e-7	0.32	793.77328	357.22634	-0.099526749	-0.0086744569	-0.0086091275	-0.94711198	2.5203881	0	843.4650371157785
9.1201084	7.5857758e-7	0.32	724.73401	326.84748	-0.098632802	-0.0086745622	-0.00860293	-0.87273604	2.2998846	0	844.3068220877171
9.1201084	8.3176377e-7	0.32	661.76963	299.13357	-0.097738863	-0.0086746774	-0.0085961344	-0.80482555	2.0987836	0	845.1487793684241
9.1201084	9.1201084e-7	0.32	604.3456	273.85011	-0.096844932	-0.0086748039	-0.0085886833	-0.74281158	1.9153779	0	845.9909262158365
9.1201084	1.e-6	0.32	551.97447	250.78328	-0.09595101	-0.0086749425	-0.0085805132	-0.68617531	1.7481106	0	846.8332807823563
9.1201084	1.0964782e-6	0.32	504.21164	229.73801	-0.095057097	-0.0086750946	-0.0085715552	-0.6344435	1.5955617	0	847.6758637835206
9.1201084	1.2022644e-6	0.32	460.65167	210.53645	-0.094163195	-0.0086752613	-0.0085617328	-0.58718462	1.4564362	0	848.5186963407584
9.1201084	1.3182567e-6	0.32	420.92477	193.01638	-0.093269305	-0.008675444	-0.0085509629	-0.54400507	1.3295531	0	849.361802499426
9.1201084	1.4454398e-6	0.32	384.69368	177.02984	-0.092375428	-0.0086756446	-0.0085391542	-0.50454588	1.2138353	0	850.2052087702996
9.1201084	1.5848932e-6	0.32	351.65086	162.44192	-0.091481564	-0.0086758642	-0.0085262061	-0.46847967	1.1083004	0	851.0489453998666
9.1201084	1.7378008e-6	0.32	321.51579	149.12954	-0.090587716	-0.0086761053	-0.0085120093	-0.43550786	1.0120526	0	851.8930424316688
9.1201084	1.9054607e-6	0.32	294.03265	136.9805	-0.089693885	-0.0086763698	-0.0084964431	-0.40535815	0.92427473	0	852.737535215913
9.1201084	2.0892961e-6	0.32	268.96816	125.89242	-0.088800073	-0.0086766597	-0.0084793754	-0.37778218	0.84422177	0	853.582461590775
9.1201084	2.2908677e-6	0.32	246.10951	115.77198	-0.08790628	-0.0086769778	-0.0084606617	-0.35255344	0.77121407	0	854.4278650017565
9.1201084	2.5118864e-6	0.32	225.26269	106.53404	-0.087012511	-0.0086773263	-0.0084401428	-0.32946537	0.7046319	0	855.2737886162479
9.1201084	2.7542287e-6	0.32	206.2507	98.100952	-0.086118765	-0.0086777085	-0.0084176452	-0.30832956	0.64391003	0	856.1202855384827
9.1201084	3.0199517e-6	0.32	188.91216	90.401917	-0.085225046	-0.008678128	-0.0083929784	-0.28897415	0.58853297	0	856.9674092861035
9.1201084	3.3113112e-6	0.32	173.09988	83.37236	-0.084331357	-0.0086785876	-0.0083659328	-0.27124246	0.53803065	0	857.8152200589413
9.1201084	3.6307805e-6	0.32	158.67964	76.953388	-0.083437701	-0.0086790918	-0.0083362799	-0.25499153	0.49197434	0	858.6637837393184
9.1201084	3.9810717e-6	0.32	145.529	71.091291	-0.082544079	-0.0086796446	-0.0083037685	-0.24009099	0.44997307	0	859.5131749136904
9.1201084	4.3651583e-6	0.32	133.53635	65.737086	-0.081650496	-0.0086802512	-0.0082681239	-0.22642196	0.41167027	0	860.3634714757834
9.1201084	4.7863009e-6	0.32	122.59987	60.846105	-0.080756956	-0.0086809162	-0.0082290443	-0.21387598	0.37674082	0	861.2147604067989
9.1201084	5.2480746e-6	0.32	112.62672	56.37761	-0.079863462	-0.0086816452	-0.0081861995	-0.20235413	0.34488818	0	862.0671381662743
9.1201084	5.7543994e-6	0.32	103.53224	52.294448	-0.07897002	-0.0086824451	-0.0081392287	-0.1917662	0.31584195	0	862.9207075952744
9.1201084	6.3095734e-6	0.32	95.239222	48.562739	-0.078076633	-0.008683322	-0.0080877353	-0.1820299	0.28935556	0	863.7755851172208
9.1201084	6.9183097e-6	0.32	87.677272	45.151587	-0.077183309	-0.0086842836	-0.0080312861	-0.17307016	0.26520416	0	864.6318934618978
9.1201084	7.5857758e-6	0.32	80.782192	42.032815	-0.076290051	-0.0086853385	-0.0079694073	-0.16481852	0.24318273	0	865.4897722637497
9.1201084	8.3176377e-6	0.32	74.495447	39.18073	-0.075396868	-0.0086864953	-0.0079015797	-0.15721251	0.22310431	0	866.3493691698334
9.1201084	9.1201084e-6	0.32	68.763667	36.571901	-0.074503766	-0.0086877638	-0.007827236	-0.15019516	0.20479846	0	867.2108491076926
9.1201084	0.00001	0.32	63.538194	34.184964	-0.073610753	-0.0086891549	-0.0077457567	-0.14371449	0.18810977	0	868.0743908202392
9.1201084	0.000010964782	0.32	58.774662	32.000435	-0.072717837	-0.008690681	-0.007656465	-0.13772307	0.17289655	0	868.9401902782558
9.1201084	0.000012022644	0.32	54.427502	30.000498	-0.071834193	-0.0086979238	-0.0075641913	-0.13218312	0.15902366	0	869.7981746571869
9.1201084	0.000013182567	0.32	50.469617	28.169058	-0.07094238	-0.0087002915	-0.0074575246	-0.12704471	0.14638477	0	870.6681617579685
9.1201084	0.000014454398	0.32	46.86272	26.491299	-0.070050778	-0.0087028874	-0.0073406758	-0.12227681	0.13486711	0	871.5410119699333
9.1201084	0.000015848932	0.32	43.576181	24.953757	-0.069159408	-0.0087057328	-0.0072126963	-0.11784656	0.12437286	0	872.4169907691501
9.1201084	0.000017378008	0.32	40.582089	23.544157	-0.068268293	-0.0087088522	-0.0070725576	-0.11372392	0.11481289	0	873.2963857753639
9.1201084	0.000019054607	0.32	37.855009	22.251312	-0.067377456	-0.0087122713	-0.0069191446	-0.1098815	0.10610601	0	874.1795106455545
9.1201084	0.000020892961	0.32	35.37177	21.06502	-0.066486924	-0.0087160192	-0.0067512536	-0.10629428	0.098178214	0	875.0667019169972
9.1201084	0.000022908677	0.32	33.111263	19.975985	-0.065596726	-0.0087201271	-0.0065675875	-0.1029394	0.090962126	0	875.958322329566
9.1201084	0.000025118864	0.32	31.054263	18.975734	-0.064706894	-0.0087246295	-0.0063667544	-0.099795988	0.084396364	0	876.8547603070929
9.1201084	0.000027542287	0.32	29.183258	18.056542	-0.063817461	-0.0087295639	-0.0061472672	-0.096844968	0.078425037	0	877.7564319567639
9.1201084	0.000030199517	0.32	27.482304	17.211371	-0.062928466	-0.0087349714	-0.0059075446	-0.094068899	0.072997255	0	878.6637760706301
9.1201084	0.000033113112	0.32	25.936881	16.433804	-0.06203995	-0.008740897	-0.0056459164	-0.091451834	0.068066681	0	879.5772562903678
9.1201084	0.000036307805	0.32	24.533768	15.717991	-0.061151957	-0.00874739	-0.005360632	-0.088979186	0.063591128	0	880.4973576120938
9.1201084	0.000039810717	0.32	23.26092	15.0586	-0.060264537	-0.008754504	-0.0050498726	-0.086637603	0.059532178	0	881.4245798996071
9.1201084	0.000043651583	0.32	22.107364	14.450765	-0.059377743	-0.0087622979	-0.0047117702	-0.084414862	0.055854832	0	882.3594349905284
9.1201084	0.000047863009	0.32	21.063097	13.890047	-0.058491632	-0.0087708359	-0.0043444313	-0.082299766	0.052527191	0	883.3024386310693
9.1201084	0.000052480746	0.32	20.118986	13.372391	-0.057606269	-0.0087801879	-0.0039459685	-0.080282057	0.049520151	0	884.2540972168874
9.1201084	0.000057543994	0.32	19.266687	12.894089	-0.056721722	-0.0087904303	-0.0035145387	-0.078352332	0.046807121	0	885.214901005666
9.1201084	0.000063095734	0.32	18.498557	12.451744	-0.055838066	-0.0088016471	-0.0030483883	-0.07650197	0.044363763	0	886.1853067689788
9.1201084	0.000069183097	0.32	17.807582	12.042243	-0.054955382	-0.0088139289	-0.0025459018	-0.07472307	0.042167743	0	887.1657241197358
9.1201084	0.000075857758	0.32	17.187301	11.662721	-0.054073758	-0.0088273745	-0.0020056553	-0.073008389	0.040198511	0	888.156498487259
9.1201084	0.000083176377	0.32	16.631747	11.310541	-0.05319329	-0.0088420926	-0.0014264707	-0.071351294	0.038437092	0	889.1578938818951
9.1201084	0.000091201084	0.32	16.135384	10.983266	-0.052314082	-0.0088582009	-0.00080746269	-0.069745713	0.036865899	0	890.1700787669599
9.1201084	0.0001	0.32	15.693063	10.678639	-0.051436244	-0.0088758273	-0.00014807804	-0.0681861	0.035468582	0	891.1931161249008
9.1201084	0.00010964782	0.32	15.299974	10.394569	-0.050559899	-0.0088951109	0.00055187867	-0.066667396	0.03422989	0	892.2269491443358
9.1201084	0.00012022644	0.32	14.95162	10.129111	-0.049685176	-0.0089162033	0.0012922368	-0.065184997	0.033135565	0	893.2714053165562
9.1201084	0.00013182567	0.32	14.643786	9.8804629	-0.048812216	-0.008939268	0.0020724733	-0.063734727	0.032172272	0	894.326194902158
9.1201084	0.00014454398	0.32	14.372528	9.6469498	-0.04794117	-0.0089644841	0.0028917424	-0.06231281	0.03132754	0	895.3909217367934
9.1201084	0.00015848932	0.32	14.134162	9.4270225	-0.0470722	-0.008992045	0.0037489272	-0.060915841	0.030589733	0	896.4650978027034
9.1201084	0.00017378008	0.32	13.925256	9.2192522	-0.046205479	-0.0090221589	0.0046427029	-0.059540769	0.029948036	0	897.5481622395064
9.1201084	0.00019054607	0.32	13.742631	9.0223268	-0.045341193	-0.0090550528	0.0055716043	-0.058184862	0.02939244	0	898.6394997596785
9.1201084	0.00020892961	0.32	13.583356	8.8350476	-0.044479538	-0.0090909716	0.0065340979	-0.05684569	0.028913743	0	899.7384651449029
9.1201084	0.00022908677	0.32	13.444749	8.6563259	-0.043620724	-0.0091301792	0.0075286485	-0.055521098	0.028503532	0	900.844399511824
9.1201084	0.00025118864	0.32	13.324366	8.4851788	-0.042764974	-0.0091729601	0.0085537765	-0.05420918	0.028154171	0	901.9566484794832
9.1201084	0.00027542287	0.32	13.219998	8.3207239	-0.04191252	-0.0092196217	0.0096081023	-0.052908261	0.02785877	0	903.0745792769253
9.1201084	0.00030199517	0.32	13.129658	8.1621733	-0.04106361	-0.0092704937	0.010690382	-0.051616871	0.027611152	0	904.1975848998347
9.1201084	0.00033113112	0.32	13.051568	8.0088269	-0.0402185	-0.0093259302	0.011799526	-0.050333722	0.02740581	0	905.3250972193525
9.1201084	0.00036307805	0.32	12.984146	7.8600659	-0.039377458	-0.0093863112	0.012934614	-0.049057693	0.027237855	0	906.4565877337277
9.1201084	0.00039810717	0.32	12.925989	7.7153446	-0.038540761	-0.0094520435	0.014094894	-0.047787808	0.02710297	0	907.5915700863519
9.1201084	0.00043651583	0.32	12.875857	7.5741842	-0.037708693	-0.009523561	0.015279777	-0.046523221	0.026997349	0	908.729600351389
9.1201084	0.00047863009	0.32	12.832661	7.4361649	-0.036881545	-0.0096013282	0.016488831	-0.045263201	0.026917654	0	909.8702752298082
9.1201084	0.00052480746	0.32	12.795444	7.3009204	-0.036059609	-0.0096858367	0.017721769	-0.044007114	0.026860958	0	911.013234078845
9.1201084	0.00057543994	0.32	12.763374	7.1681309	-0.035243178	-0.0097776111	0.018978433	-0.042754418	0.026824704	0	912.1581541014284
9.1201084	0.00063095734	0.32	12.735726	7.0375188	-0.034432541	-0.0098772046	0.020258784	-0.041504642	0.026806661	0	913.3047520373966
9.1201084	0.00069183097	0.32	12.711878	6.9088428	-0.03362798	-0.0099852022	0.021562886	-0.040257387	0.026804895	0	914.452782171619
9.1201084	0.00075857758	0.32	12.691301	6.7818949	-0.032829761	-0.010102219	0.022890896	-0.039012304	0.026817728	0	915.6020417834757
9.1201084	0.00083176377	0.32	12.673552	6.6564961	-0.032038135	-0.010228901	0.024243054	-0.037769097	0.026843722	0	916.752367200683
9.1201084	0.00091201084	0.32	12.65827	6.5324937	-0.031253327	-0.01036592	0.025619673	-0.036527506	0.026881655	0	917.9036411279023
9.1201084	0.001	0.32	12.645172	6.409759	-0.030475533	-0.010513979	0.027021132	-0.035287304	0.026930505	0	919.0557933608109
9.1201084	0.0010964782	0.32	12.63405	6.2881852	-0.02970491	-0.0106738	0.028447871	-0.034048288	0.026989437	0	920.2088086784497
9.1201084	0.0012022644	0.32	12.624771	6.1676855	-0.028941576	-0.010846129	0.029900391	-0.032810271	0.027057795	0	921.3627268432249
9.1201084	0.0013182567	0.32	12.61727	6.0481918	-0.028185598	-0.011031729	0.031379246	-0.031573076	0.027135097	0	922.5176514704029
9.1201084	0.0014454398	0.32	12.611556	5.9296538	-0.027436991	-0.011231374	0.032885052	-0.030336529	0.027221027	0	923.6737536736255
9.1201084	0.0015848932	0.32	12.607701	5.8120372	-0.026695713	-0.011445847	0.034418479	-0.029100452	0.027315432	0	924.8312743574483
9.1201084	0.0017378008	0.32	12.605846	5.6953234	-0.025961664	-0.011675928	0.035980264	-0.027864657	0.027418317	0	925.9905290654982
9.1201084	0.0019054607	0.32	12.606188	5.5795073	-0.025234682	-0.011922394	0.03757121	-0.026628937	0.027529841	0	927.1519114380746
9.1201084	0.0020892961	0.32	12.608985	5.4645968	-0.02451455	-0.012186006	0.039192194	-0.025393066	0.027650307	0	928.3158890404783
9.1201084	0.0022908677	0.32	12.61454	5.3506109	-0.023800993	-0.012467503	0.040844174	-0.024156788	0.027780154	0	929.483008286334
9.1201084	0.0025118864	0.32	12.623201	5.237578	-0.023093689	-0.012767593	0.042528196	-0.022919817	0.027919946	0	930.6538862069985
9.1201084	0.0027542287	0.32	12.635351	5.125534	-0.022392278	-0.013086943	0.044245409	-0.021681828	0.028070353	0	931.8292065053856
9.1201084	0.0030199517	0.32	12.651396	5.0145202	-0.021696365	-0.013426167	0.045997067	-0.020442461	0.028232139	0	933.0097173385923
9.1201084	0.0033113112	0.32	12.671755	4.9045812	-0.021005542	-0.013785818	0.047784547	-0.019201314	0.028406139	0	934.1962160593571
9.1201084	0.0036307805	0.32	12.696854	4.7957623	-0.020319397	-0.014166373	0.049609363	-0.017957941	0.028593235	0	935.389544969225
9.1201084	0.0039810717	0.32	12.727108	4.6881073	-0.019637534	-0.014568223	0.051473173	-0.016711859	0.028794339	0	936.5905746318667
9.1201084	0.0043651583	0.32	12.762914	4.5816557	-0.018959589	-0.014991654	0.0533778	-0.015462542	0.029010359	0	937.8001951539123
9.1201084	0.0047863009	0.32	12.804637	4.4764411	-0.018285252	-0.015436834	0.055325249	-0.014209428	0.029242183	0	939.0193006257488
9.1201084	0.0052480746	0.32	12.852603	4.3724881	-0.017614287	-0.015903791	0.05731773	-0.012951921	0.029490647	0	940.2487772454141
9.1201084	0.0057543994	0.32	12.907081	4.2698108	-0.01694656	-0.016392397	0.059357673	-0.011689394	0.029756513	0	941.4894815206816
9.1201084	0.0063095734	0.32	12.96828	4.1684107	-0.016282058	-0.016902338	0.061447763	-0.010421199	0.030040444	0	942.7422329404494
9.1201084	0.0069183097	0.32	13.036333	4.0682748	-0.015620922	-0.017433091	0.063590961	-0.0091466691	0.030342981	0	944.0077892829636
9.1201084	0.0075857758	0.32	13.111293	3.9693751	-0.014963465	-0.0179839	0.065790536	-0.0078651301	0.030664528	0	945.2868393247909
9.1201084	0.0083176377	0.32	13.193124	3.8716673	-0.014310208	-0.018553732	0.068050104	-0.0065759054	0.031005329	0	946.579980742242
9.1201084	0.0091201084	0.32	13.281698	3.7750909	-0.013661893	-0.019141262	0.070373651	-0.0052783271	0.031365466	0	947.8877148122219
9.1201084	0.01	0.32	13.376793	3.6795701	-0.013019511	-0.019744841	0.072765563	-0.0039717445	0.031744854	0	949.2104291242294
9.1201084	0.010964782	0.32	13.478099	3.5850151	-0.012384305	-0.020362479	0.07523065	-0.0026555325	0.032143246	0	950.548401977521
9.1201084	0.012022644	0.32	13.585223	3.4913247	-0.011757777	-0.020991843	0.077774145	-0.0013291011	0.03256025	0	951.9017955034932
9.1201084	0.013182567	0.32	13.697707	3.3983897	-0.011141673	-0.021630279	0.080401691	8.0982627e-6	0.032995354	0	953.2706658505716
9.1201084	0.014454398	0.32	13.81504	3.3060962	-0.010537955	-0.022274861	0.083119287	0.001356566	0.033447954	0	954.6549732563503
9.1201084	0.015848932	0.32	13.936682	3.2143294	-0.0099487605	-0.022922477	0.085933214	0.0027167517	0.033917384	0	956.0545978510822
9.1201084	0.017378008	0.32	14.062081	3.1229765	-0.0093763294	-0.023569982	0.088849876	0.0040890499	0.034402944	0	957.4693605348205
9.1201084	0.019054607	0.32	14.190702	3.0319285	-0.0088229185	-0.024214392	0.091875616	0.0054738029	0.034903919	0	958.8990479886477
9.1201084	0.020892961	0.32	14.322049	2.9410806	-0.0082906793	-0.024853184	0.095016414	0.0068713019	0.035419582	0	960.3434366899673
9.1201084	0.022908677	0.32	14.455672	2.8503254	-0.0077815356	-0.025484641	0.098277549	0.0082817916	0.035949134	0	961.8023062919133
9.1201084	0.025118864	0.32	14.591079	2.7595231	-0.0072971977	-0.02610809	0.10166336	0.0097054722	0.036491422	0	963.2753544235645
9.1201084	0.027542287	0.32	14.72722	2.6683685	-0.0068398871	-0.026723447	0.10517771	0.011142477	0.037043614	0	964.7616552935995
9.1201084	0.030199517	0.32	14.856967	2.5750515	-0.006419322	-0.02732837	0.10882684	0.01259267	0.037588004	0	966.2539544427852
9.1201084	0.033113112	0.32	14.873375	2.4547816	-0.0061611011	-0.027903987	0.11263362	0.014051599	0.037879505	0	967.6411197996545
9.1201084	0.036307805	0.32	14.779462	2.3099628	-0.0060731698	-0.02846388	0.1165886	0.015505078	0.037927266	0	968.9128448960566
9.1201084	0.039810717	0.32	14.708146	2.1716451	-0.0060082323	-0.029040147	0.12066395	0.01695003	0.038029606	0	970.1991563686915
9.1201084	0.043651583	0.32	14.685161	2.0452682	-0.0059340621	-0.029640312	0.12485652	0.018390284	0.038243154	0	971.5293860384379
9.1201084	0.047863009	0.32	14.71483	1.9312649	-0.0058420407	-0.03026577	0.12916943	0.019830859	0.038577128	0	972.9125696113103
9.1201084	0.052480746	0.32	14.229274	1.8523095	-0.0062062779	-0.031315012	0.13320884	0.021276023	0.039255894	0	973.7848376535514
9.1201084	0.057543994	0.32	13.258279	1.8030083	-0.0069864763	-0.033131095	0.13663651	0.022626129	0.040127446	0	974.0823566590208
9.1201084	0.063095734	0.32	12.373927	1.7579862	-0.0076970935	-0.035407571	0.13976381	0.023857483	0.040921783	0	974.3549422308844
9.1201084	0.069183097	0.32	12.627682	1.6645863	-0.0075293857	-0.036829858	0.14391042	0.02508203	0.041239722	0	975.7592382129975
9.1201084	0.075857758	0.32	13.000955	1.5724661	-0.007263598	-0.038236087	0.14824346	0.026337109	0.041600615	0	977.3117388845062
9.1201084	0.083176377	0.32	13.519967	1.481821	-0.0068592701	-0.039630351	0.15276426	0.027635695	0.042019333	0	979.0508592203541
9.1201084	0.091201084	0.32	14.214571	1.3928699	-0.0062669797	-0.041024263	0.15746676	0.028993504	0.042513718	0	981.0212126960116
9.1201084	0.1	0.32	15.118938	1.3058549	-0.005427012	-0.042437622	0.16233692	0.030429385	0.043104968	0	983.2746839892368
9.1201084	0.10964782	0.32	16.272904	1.2210408	-0.004267445	-0.043898422	0.16735267	0.0319658	0.043818115	0	985.8722129328042
9.1201084	0.12022644	0.32	17.724275	1.138712	-0.0027012614	-0.045442157	0.17248461	0.033629481	0.044682652	0	988.8867185358317
9.1201084	0.13182567	0.32	19.532326	1.0591701	-0.00062210019	-0.047110505	0.17769737	0.035452376	0.045733456	0	992.4074995414488
9.1201084	0.14454398	0.32	21.772591	0.98272863	0.002101603	-0.048949519	0.18295137	0.037472997	0.047012079	0	996.5462691141054
9.1201084	0.15848932	0.32	24.542722	0.909707	0.0056340239	-0.051007432	0.18820508	0.039738292	0.048568573	0	1001.4447946333447
9.1201084	0.17378008	0.32	27.968788	0.84042287	0.010180308	-0.053332083	0.19341753	0.042306124	0.050463884	0	1007.2835056157151
9.1201084	0.19054607	0.32	32.210736	0.77518191	0.015994474	-0.05596788	0.19855144	0.045248341	0.052772824	0	1014.2898605911889
9.1201084	0.20892961	0.32	37.464916	0.71426481	0.023384397	-0.05895211	0.20357683	0.04865425	0.055587426	0	1022.7441145217128
9.1201084	0.22908677	0.32	43.960739	0.65791043	0.0327103	-0.062310512	0.20847551	0.052634086	0.059020246	0	1032.97925143437
9.1201084	0.25118864	0.32	51.948231	0.60629488	0.044372659	-0.066052384	0.21324598	0.057321731	0.063206873	0	1045.3710937108995
9.1201084	0.27542287	0.32	61.674285	0.5595078	0.058786448	-0.07016614	0.21790784	0.062875663	0.068306655	0	1060.315429496727
9.1201084	0.30199517	0.32	73.348764	0.51753001	0.076342409	-0.074616954	0.22250419	0.069477053	0.074500578	0	1078.1923449211492
9.1201084	0.33113112	0.32	87.106875	0.48021888	0.097362002	-0.079348275	0.22710011	0.077324282	0.081985637	0	1099.3234396737312
9.1201084	0.36307805	0.32	102.97886	0.44730866	0.12205825	-0.084288128	0.23177637	0.086624025	0.09096593	0	1123.933147165887
9.1201084	0.39810717	0.32	120.87811	0.41842916	0.15051521	-0.089359135	0.23661941	0.097580198	0.10164178	0	1152.1264335714752
9.1201084	0.43651583	0.32	140.61242	0.39313996	0.18269239	-0.094489375	0.24171049	0.11038287	0.11419897	0	1183.8896857160532
9.1201084	0.47863009	0.32	161.91405	0.3709715	0.21845043	-0.09962087	0.24711723	0.12519927	0.12880019	0	1219.1122964633141
9.1201084	0.52480746	0.32	184.47783	0.35146272	0.25758743	-0.10471381	0.25288937	0.14216823	0.14557978	0	1257.619522442856
9.1201084	0.57543994	0.32	207.99649	0.33418854	0.29987473	-0.10974659	0.25905876	0.16139831	0.16464219	0	1299.2060986917945
9.1201084	0.63095734	0.32	232.18669	0.31877519	0.34508486	-0.11471305	0.26564212	0.18296895	0.18606322	0	1343.6633293304144
9.1201084	0.69183097	0.32	256.80426	0.30490522	0.39300966	-0.11961852	0.27264501	0.20693366	0.2098933	0	1390.79730611013
9.1201084	0.75857758	0.32	281.65021	0.29231542	0.44346966	-0.12447591	0.28006574	0.23332421	0.23616164	0	1440.4388971206358
9.1201084	0.83176377	0.32	306.5705	0.28079113	0.49631723	-0.1293025	0.28789859	0.26215507	0.26488064	0	1492.4476745488946
9.1201084	0.91201084	0.32	331.45214	0.27015898	0.55143588	-0.1341176	0.29613621	0.29342769	0.29605005	0	1546.7119785695816
9.1201084	1.	0.32	356.21766	0.26027968	0.6087377	-0.13894092	0.30477118	0.32713421	0.32966068	0	1603.1469810888111
9.1201084	1.0964782	0.32	380.8192	0.25104154	0.66815987	-0.14379165	0.313797	0.36326068	0.36569748	0	1661.6917043153685
9.1201084	1.2022644	0.32	405.23297	0.24235489	0.72966127	-0.14868791	0.32320863	0.40178969	0.40414217	0	1722.305997991065
9.1201084	1.3182567	0.32	429.45423	0.23414756	0.79321915	-0.15364653	0.33300271	0.44270247	0.44497527	0	1784.967476783524
9.1201084	1.4454398	0.32	453.49317	0.22636118	0.85882639	-0.15868303	0.34317766	0.48598052	0.48817775	0	1849.668975943212
9.1201084	1.5848932	0.32	477.37139	0.2189483	0.92648906	-0.16381163	0.35373358	0.53160697	0.53373224	0	1916.4162286978958
9.1201084	1.7378008	0.32	501.11911	0.2118701	0.99622442	-0.16904539	0.36467219	0.57956746	0.58162403	0	1985.225969082284
9.1201084	1.9054607	0.32	524.77293	0.20509457	1.0680594	-0.17439635	0.3759967	0.62985097	0.63184177	0	2056.1244647127805
9.1201084	2.0892961	0.32	548.37403	0.19859513	1.142029	-0.17987565	0.38771168	0.68245027	0.68437798	0	2129.145974397002
9.1201084	2.2908677	0.32	571.96678	0.19234951	1.2181758	-0.18549371	0.39982294	0.73736236	0.73922944	0	2204.332251667451
9.1201084	2.5118864	0.32	595.59766	0.18633892	1.2965483	-0.1912603	0.41233741	0.79458866	0.79639741	0	2281.730949023723
9.1201084	2.7542287	0.32	619.31447	0.18054733	1.3772011	-0.19718469	0.42526305	0.85413527	0.85588779	0	2361.395759994786
9.1201084	3.0199517	0.32	643.16564	0.17496093	1.4601935	-0.20327575	0.43860875	0.91601297	0.91771126	0	2443.385073681405
9.1201084	3.3113112	0.32	667.19982	0.16956777	1.5455897	-0.20954204	0.45238429	0.98023731	0.98188326	0	2527.7621506427668
9.1201084	3.6307805	0.32	691.46549	0.16435736	1.6334584	-0.21599186	0.46660026	1.0468286	1.048424	0	2614.594723017477
9.1201084	3.9810717	0.32	716.01078	0.15932041	1.7238722	-0.22263334	0.481268	1.115812	1.1173584	0	2703.9544127446857
9.1201084	4.3651583	0.32	740.88324	0.15444866	1.8169075	-0.2294745	0.49639957	1.1872171	1.1887162	0	2795.9166285877327
9.1201084	4.7863009	0.32	766.1298	0.14973467	1.9126446	-0.2365233	0.51200775	1.2610783	1.2625317	0	2890.560660090678
9.1201084	5.2480746	0.32	791.79668	0.14517167	2.0111673	-0.24378766	0.52810595	1.3374346	1.3388438	0	2987.969274692681
9.1201084	5.7543994	0.32	817.92938	0.14075349	2.112563	-0.25127554	0.54470824	1.4163295	1.4176957	0	3088.228820704365
9.1201084	6.3095734	0.32	844.5727	0.13647447	2.2169226	-0.25899495	0.56182933	1.4978107	1.4991355	0	3191.4291273380586
9.1201084	6.9183097	0.32	871.77081	0.13232933	2.3243403	-0.26695395	0.57948456	1.5819306	1.5832151	0	3297.663313788123
9.1201084	7.5857758	0.32	899.56721	0.12831317	2.434914	-0.27516076	0.59768987	1.6687456	1.6699911	0	3407.0281560372614
9.1201084	8.3176377	0.32	928.00489	0.12442139	2.5487447	-0.28362369	0.61646183	1.7583165	1.7595242	0	3519.623532137133
9.1201084	9.1201084	0.32	957.12635	0.12064968	2.6659372	-0.29235123	0.63581764	1.8507083	1.8518794	0	3635.553079904108
9.1201084	10.	0.32	986.97372	0.11699394	2.7865997	-0.30135204	0.6557751	1.94599	1.9471256	0	3754.923812073286