9.1201084	1.e-12	0.46	5.4284095e8	2.3813679e8	-0.23229095	-0.0029131107	-0.0029131106	-577757.76	1.7337721e6	0	720.0537756823978
9.1201084	1.0964782e-12	0.46	4.9507683e8	2.1718334e8	-0.23139692	-0.0029131106	-0.0029131105	-526921.36	1.5812189e6	0	720.8937753354783
9.1201084	1.2022644e-12	0.46	4.5151543e8	1.9807356e8	-0.2305029	-0.0029131108	-0.0029131106	-480558.01	1.4420888e6	0	721.7337655064653
9.1201084	1.3182567e-12	0.46	4.1178697e8	1.8064524e8	-0.22960888	-0.0029131106	-0.0029131105	-438274.14	1.3152006e6	0	722.5737557638922
9.1201084	1.4454398e-12	0.46	3.7555418e8	1.6475041e8	-0.22871485	-0.0029131109	-0.0029131107	-399710.78	1.1994772e6	0	723.4137552873128
9.1201084	1.5848932e-12	0.46	3.4250949e8	1.5025417e8	-0.22782083	-0.0029131107	-0.0029131104	-364540.59	1.0939362e6	0	724.2537456311798
9.1201084	1.7378008e-12	0.46	3.1237236e8	1.3703343e8	-0.22692681	-0.0029131109	-0.0029131106	-332464.98	997681.7	0	725.0937357589468
9.1201084	1.9054607e-12	0.46	2.8488698e8	1.2497598e8	-0.22603279	-0.0029131108	-0.0029131105	-303211.69	909896.53	0	725.9337260163736
9.1201084	2.0892961e-12	0.46	2.5982002e8	1.1397945e8	-0.22513876	-0.0029131109	-0.0029131106	-276532.37	829835.49	0	726.7737255830143
9.1201084	2.2908677e-12	0.46	2.3695867e8	1.0395049e8	-0.22424474	-0.0029131107	-0.0029131104	-252200.54	756818.97	0	727.6137158836611
9.1201084	2.5118864e-12	0.46	2.1610888e8	9.4803978e7	-0.22335072	-0.0029131107	-0.0029131103	-230009.64	690227.11	0	728.4537061410883
9.1201084	2.7542287e-12	0.46	1.9709364e8	8.6462258e7	-0.22245669	-0.0029131108	-0.0029131104	-209771.31	629494.6	0	729.2937057077288
9.1201084	3.0199517e-12	0.46	1.7975154e8	7.8854519e7	-0.22156267	-0.0029131106	-0.0029131102	-191313.73	574105.91	0	730.1336960083759
9.1201084	3.3113112e-12	0.46	1.6393535e8	7.1916178e7	-0.22066865	-0.0029131106	-0.0029131101	-174480.21	523590.81	0	730.9736862658028
9.1201084	3.6307805e-12	0.46	1.4951082e8	6.5588336e7	-0.21977462	-0.0029131107	-0.0029131102	-159127.86	477520.49	0	731.8136858324433
9.1201084	3.9810717e-12	0.46	1.3635549e8	5.9817275e7	-0.2188806	-0.0029131109	-0.0029131103	-145126.35	435503.86	0	732.6536760034303
9.1201084	4.3651583e-12	0.46	1.2435768e8	5.4554005e7	-0.21798658	-0.0029131108	-0.0029131102	-132356.83	397184.25	0	733.4936662608573
9.1201084	4.7863009e-12	0.46	1.1341556e8	4.9753847e7	-0.21709256	-0.0029131106	-0.0029131099	-120710.88	362236.34	0	734.3336566047244
9.1201084	5.2480746e-12	0.46	1.0343622e8	4.537605e7	-0.21619853	-0.0029131108	-0.0029131101	-110089.65	330363.47	0	735.1736561281448
9.1201084	5.7543994e-12	0.46	9.4334952e7	4.1383451e7	-0.21530451	-0.0029131107	-0.0029131099	-100402.97	301295.07	0	736.0136464287918
9.1201084	6.3095734e-12	0.46	8.6034499e7	3.7742158e7	-0.21441049	-0.0029131108	-0.0029131099	-91568.62	274784.37	0	736.8536366429989
9.1201084	6.9183097e-12	0.46	7.8464397e7	3.4421259e7	-0.21351646	-0.0029131107	-0.0029131097	-83511.593	250606.32	0	737.6936363392992
9.1201084	7.5857758e-12	0.46	7.1560382e7	3.1392564e7	-0.21262244	-0.0029131106	-0.0029131096	-76163.497	228555.69	0	738.5336265967262
9.1201084	8.3176377e-12	0.46	6.5263844e7	2.863036e7	-0.21172842	-0.0029131107	-0.0029131096	-69461.954	208445.26	0	739.3736168109333
9.1201084	9.1201084e-12	0.46	5.9521335e7	2.6111201e7	-0.21083439	-0.0029131106	-0.0029131093	-63350.074	190104.34	0	740.2136165504537
9.1201084	1.e-11	0.46	5.4284102e7	2.38137e7	-0.20994037	-0.0029131109	-0.0029131095	-57775.972	173377.22	0	741.0536066782208
9.1201084	1.0964782e-11	0.46	4.9507691e7	2.1718355e7	-0.20904635	-0.0029131106	-0.0029131092	-52692.332	158121.91	0	741.893597022088
9.1201084	1.2022644e-11	0.46	4.5151551e7	1.9807377e7	-0.20815233	-0.0029131108	-0.0029131092	-48055.996	144208.89	0	742.7335872362949
9.1201084	1.3182567e-11	0.46	4.1178705e7	1.8064545e7	-0.2072583	-0.0029131108	-0.002913109	-43827.607	131520.07	0	743.5735869325954
9.1201084	1.4454398e-11	0.46	3.7555426e7	1.6475063e7	-0.20636428	-0.0029131109	-0.0029131089	-39971.271	119947.73	0	744.4135771900222
9.1201084	1.5848932e-11	0.46	3.4250957e7	1.5025438e7	-0.20547026	-0.0029131107	-0.0029131086	-36454.251	109393.64	0	745.2535675338893
9.1201084	1.7378008e-11	0.46	3.1237245e7	1.3703364e7	-0.20457623	-0.0029131107	-0.0029131083	-33246.69	99768.183	0	746.0935672734098
9.1201084	1.9054607e-11	0.46	2.8488706e7	1.2497619e7	-0.20368221	-0.0029131108	-0.0029131082	-30321.36	90989.665	0	746.9335575308369
9.1201084	2.0892961e-11	0.46	2.598201e7	1.1397966e7	-0.20278819	-0.0029131106	-0.0029131078	-27653.427	82983.563	0	747.7735479179239
9.1201084	2.2908677e-11	0.46	2.3695876e7	1.039507e7	-0.20189417	-0.0029131106	-0.0029131075	-25220.243	75681.91	0	748.613538261791
9.1201084	2.5118864e-11	0.46	2.1610896e7	9.4804186e6	-0.20100014	-0.0029131107	-0.0029131073	-23001.153	69022.724	0	749.4535379580914
9.1201084	2.7542287e-11	0.46	1.9709372e7	8.6462465e6	-0.20010612	-0.0029131105	-0.0029131068	-20977.319	62949.474	0	750.2935283883985
9.1201084	3.0199517e-11	0.46	1.7975162e7	7.8854724e6	-0.1992121	-0.0029131108	-0.0029131067	-19131.559	57410.603	0	751.1335186458255
9.1201084	3.3113112e-11	0.46	1.6393543e7	7.1916382e6	-0.19831807	-0.0029131109	-0.0029131064	-17448.207	52359.093	0	751.9735183853461
9.1201084	3.6307805e-11	0.46	1.495109e7	6.558854e6	-0.19742405	-0.0029131108	-0.0029131059	-15912.972	47752.062	0	752.8135088156532
9.1201084	3.9810717e-11	0.46	1.3635557e7	5.9817479e6	-0.19653003	-0.0029131108	-0.0029131054	-14512.82	43550.399	0	753.6534992459601
9.1201084	4.3651583e-11	0.46	1.2435776e7	5.4554208e6	-0.195636	-0.0029131109	-0.0029131049	-13235.867	39718.437	0	754.4934990719206
9.1201084	4.7863009e-11	0.46	1.1341564e7	4.9754048e6	-0.19474198	-0.0029131107	-0.0029131042	-12071.271	36223.647	0	755.3334895886676
9.1201084	5.2480746e-11	0.46	1.034363e7	4.5376251e6	-0.19384796	-0.0029131108	-0.0029131036	-11009.147	33036.36	0	756.1734800621946
9.1201084	5.7543994e-11	0.46	9.4335034e6	4.1383651e6	-0.19295393	-0.0029131108	-0.002913103	-10040.479	30129.519	0	757.0134799313751
9.1201084	6.3095734e-11	0.46	8.6034582e6	3.7742357e6	-0.19205991	-0.0029131107	-0.0029131021	-9157.0426	27478.45	0	757.8534705345622
9.1201084	6.9183097e-11	0.46	7.846448e6	3.4421458e6	-0.19116589	-0.0029131106	-0.0029131012	-8351.3391	25060.645	0	758.6934611377494
9.1201084	7.5857758e-11	0.46	7.1560464e6	3.1392761e6	-0.19027187	-0.0029131107	-0.0029131004	-7616.5287	22855.581	0	759.5334516977163
9.1201084	8.3176377e-11	0.46	6.5263926e6	2.8630557e6	-0.18937784	-0.0029131109	-0.0029130996	-6946.3734	20844.539	0	760.373451653337
9.1201084	9.1201084e-11	0.46	5.9521416e6	2.6111397e6	-0.18848382	-0.0029131109	-0.0029130986	-6335.1846	19010.447	0	761.213442299744
9.1201084	1.e-10	0.46	5.4284185e6	2.3813896e6	-0.1875898	-0.0029131107	-0.0029130971	-5777.7738	17337.735	0	762.053433162251
9.1201084	1.0964782e-10	0.46	4.9507773e6	2.1718549e6	-0.18669577	-0.0029131109	-0.002913096	-5269.4089	15812.203	0	762.8934332475317
9.1201084	1.2022644e-10	0.46	4.5151633e6	1.980757e6	-0.18580175	-0.0029131108	-0.0029130945	-4805.7745	14420.902	0	763.7334241100389
9.1201084	1.3182567e-10	0.46	4.1178788e6	1.8064737e6	-0.18490773	-0.0029131107	-0.0029130928	-4382.9349	13152.02	0	764.573415058986
9.1201084	1.4454398e-10	0.46	3.7555508e6	1.6475254e6	-0.18401371	-0.0029131109	-0.0029130913	-3997.3005	11994.786	0	765.413405921493
9.1201084	1.5848932e-10	0.46	3.4251039e6	1.5025628e6	-0.18311968	-0.0029131109	-0.0029130893	-3645.5976	10939.376	0	766.2534063957536
9.1201084	1.7378008e-10	0.46	3.1237327e6	1.3703554e6	-0.18222566	-0.0029131108	-0.0029130872	-3324.8407	9976.831	0	767.0933975175806
9.1201084	1.9054607e-10	0.46	2.8488788e6	1.2497808e6	-0.18133164	-0.0029131109	-0.002913085	-3032.3069	9098.9792	0	767.9333886826278
9.1201084	2.0892961e-10	0.46	2.5982092e6	1.1398154e6	-0.18043761	-0.0029131107	-0.0029130824	-2765.5128	8298.369	0	768.7733894162084
9.1201084	2.2908677e-10	0.46	2.3695957e6	1.0395258e6	-0.17954359	-0.002913111	-0.0029130799	-2522.1936	7568.2036	0	769.6133807109156
9.1201084	2.5118864e-10	0.46	2.1610978e6	948060.53	-0.17864957	-0.0029131107	-0.0029130766	-2300.2838	6902.2851	0	770.4533723513828
9.1201084	2.7542287e-10	0.46	1.9709454e6	864643.23	-0.17775554	-0.0029131109	-0.0029130735	-2097.8995	6294.96	0	771.2933733010636
9.1201084	3.0199517e-10	0.46	1.7975244e6	788565.74	-0.17686152	-0.0029131109	-0.0029130699	-1913.3228	5741.073	0	772.1333650711907
9.1201084	3.3113112e-10	0.46	1.6393625e6	719182.24	-0.1759675	-0.002913111	-0.002913066	-1744.9868	5235.922	0	772.9733569709779
9.1201084	3.6307805e-10	0.46	1.4951172e6	655903.73	-0.17507348	-0.0029131108	-0.0029130615	-1591.4624	4775.2189	0	773.8133491300853
9.1201084	3.9810717e-10	0.46	1.3635639e6	598193.04	-0.17417945	-0.0029131109	-0.0029130568	-1451.4465	4355.0526	0	774.6533507712861
9.1201084	4.3651583e-10	0.46	1.2435859e6	545560.25	-0.17328543	-0.002913111	-0.0029130517	-1323.7503	3971.8564	0	775.4933431897134
9.1201084	4.7863009e-10	0.46	1.1341646e6	497558.57	-0.17239141	-0.0029131108	-0.0029130458	-1207.29	3622.3774	0	776.3333359539006
9.1201084	5.2480746e-10	0.46	1.0343712e6	453780.51	-0.17149738	-0.0029131109	-0.0029130396	-1101.0768	3303.6487	0	777.1733382434015
9.1201084	5.7543994e-10	0.46	943358.55	413854.43	-0.17060336	-0.002913111	-0.0029130328	-1004.2091	3012.9646	0	778.013331396569
9.1201084	6.3095734e-10	0.46	860354.03	377441.41	-0.16970934	-0.0029131109	-0.0029130252	-915.86471	2747.8577	0	778.8533248954965
9.1201084	6.9183097e-10	0.46	784653.	344232.33	-0.16881532	-0.002913111	-0.0029130171	-835.29355	2506.0772	0	779.6933186105241
9.1201084	7.5857758e-10	0.46	715612.84	313945.28	-0.16792129	-0.0029131111	-0.0029130081	-761.8117	2285.5708	0	780.533322110185
9.1201084	8.3176377e-10	0.46	652647.47	286323.16	-0.16702727	-0.002913111	-0.0029129981	-694.79538	2084.4666	0	781.3733166463926
9.1201084	9.1201084e-10	0.46	595222.37	261131.47	-0.16613325	-0.0029131111	-0.0029129873	-633.67569	1901.0574	0	782.2133115283602
9.1201084	1.e-9	0.46	542850.06	238156.38	-0.16523922	-0.002913111	-0.0029129753	-577.9338	1733.7862	0	783.0533163246214
9.1201084	1.0964782e-9	0.46	495085.94	217202.83	-0.1643452	-0.0029131111	-0.0029129623	-527.09651	1581.233	0	783.8933121574294
9.1201084	1.2022644e-9	0.46	451524.54	198092.96	-0.16345118	-0.0029131112	-0.002912948	-480.73226	1442.1029	0	784.7333085520972
9.1201084	1.3182567e-9	0.46	411796.08	180664.55	-0.16255716	-0.0029131111	-0.0029129322	-438.4475	1315.2147	0	785.5733055950652
9.1201084	1.4454398e-9	0.46	375563.29	164769.63	-0.16166313	-0.0029131112	-0.002912915	-399.88325	1199.4913	0	786.4133126387667
9.1201084	1.5848932e-9	0.46	342518.59	150273.29	-0.16076911	-0.0029131114	-0.0029128963	-364.71216	1093.9503	0	787.2533109351149
9.1201084	1.7378008e-9	0.46	312381.47	137052.46	-0.15987509	-0.0029131115	-0.0029128756	-332.63567	997.69579	0	788.0933100958631
9.1201084	1.9054607e-9	0.46	284896.1	124994.92	-0.15898106	-0.0029131113	-0.0029128527	-303.38148	909.91063	0	788.933319603105
9.1201084	2.0892961e-9	0.46	259829.13	113998.3	-0.15808704	-0.0029131116	-0.002912828	-276.70126	829.84958	0	789.7733204926535
9.1201084	2.2908677e-9	0.46	236967.78	103969.25	-0.15719302	-0.0029131117	-0.0029128007	-252.36854	756.83305	0	790.6133225059223
9.1201084	2.5118864e-9	0.46	216117.99	94822.646	-0.156299	-0.0029131116	-0.0029127707	-230.17675	690.24119	0	791.4533256861309
9.1201084	2.7542287e-9	0.46	197102.75	86480.833	-0.15540497	-0.0029131117	-0.0029127379	-209.93752	629.50869	0	792.2933394721535
9.1201084	3.0199517e-9	0.46	179760.65	78873.002	-0.15451095	-0.0029131117	-0.0029127017	-191.47905	574.11999	0	793.1333453320026
9.1201084	3.3113112e-9	0.46	163944.46	71934.57	-0.15361693	-0.0029131118	-0.0029126623	-174.64464	523.6049	0	793.9733525748921
9.1201084	3.6307805e-9	0.46	149519.93	65606.635	-0.15272291	-0.0029131121	-0.0029126192	-159.2914	477.53458	0	794.8133614169218
9.1201084	3.9810717e-9	0.46	136364.6	59835.483	-0.15182888	-0.0029131122	-0.0029125718	-145.289	435.51795	0	795.6533815130651
9.1201084	4.3651583e-9	0.46	124366.8	54572.121	-0.15093486	-0.0029131121	-0.0029125196	-132.51858	397.19834	0	796.4933942881153
9.1201084	4.7863009e-9	0.46	113424.67	49771.87	-0.15004084	-0.0029131123	-0.0029124626	-120.87174	362.25043	0	797.3334091377258
9.1201084	5.2480746e-9	0.46	103445.33	45393.981	-0.14914682	-0.0029131126	-0.0029124003	-110.24962	330.37756	0	798.1734262779966
9.1201084	5.7543994e-9	0.46	94344.063	41401.29	-0.1482528	-0.0029131129	-0.0029123318	-100.56205	301.30915	0	799.0134460979077
9.1201084	6.3095734e-9	0.46	86043.61	37759.905	-0.14735877	-0.0029131131	-0.0029122566	-91.7268	274.79846	0	799.8534782092129
9.1201084	6.9183097e-9	0.46	78473.509	34438.915	-0.14646475	-0.0029131131	-0.002912174	-83.668881	250.62041	0	800.6935041231447
9.1201084	7.5857758e-9	0.46	71569.493	31410.127	-0.14557073	-0.0029131133	-0.0029120836	-76.319891	228.56977	0	801.5335334082374
9.1201084	8.3176377e-9	0.46	65272.955	28647.832	-0.14467671	-0.0029131138	-0.0029119847	-69.617454	208.45935	0	802.3735663670305
9.1201084	9.1201084e-9	0.46	59530.446	26128.58	-0.14378269	-0.0029131139	-0.0029118759	-63.504681	190.11843	0	803.213603604604
9.1201084	1.e-8	0.46	54293.214	23830.988	-0.14288866	-0.0029131143	-0.0029117569	-57.929686	173.39131	0	804.0536546462719
9.1201084	1.0964782e-8	0.46	49516.802	21735.55	-0.14199464	-0.0029131146	-0.0029116262	-52.845152	158.13599	0	804.8937013490267
9.1201084	1.2022644e-8	0.46	45160.663	19824.48	-0.14110062	-0.0029131149	-0.0029114829	-48.207924	144.22298	0	805.7337534975026
9.1201084	1.3182567e-8	0.46	41187.817	18081.556	-0.1402066	-0.0029131153	-0.0029113259	-43.978642	131.53416	0	806.5738115671193
9.1201084	1.4454398e-8	0.46	37564.538	16491.982	-0.13931258	-0.0029131156	-0.0029111536	-40.121413	119.96183	0	807.4138762493966
9.1201084	1.5848932e-8	0.46	34260.068	15042.265	-0.13841856	-0.0029131164	-0.002910965	-36.603499	109.40772	0	808.2539479765352
9.1201084	1.7378008e-8	0.46	31246.356	13720.099	-0.13752454	-0.0029131169	-0.0029107579	-33.395045	99.782273	0	809.0940276993747
9.1201084	1.9054607e-8	0.46	28497.818	12514.262	-0.13663052	-0.0029131174	-0.0029105308	-30.468822	91.003755	0	809.9341160662157
9.1201084	2.0892961e-8	0.46	25991.121	11414.517	-0.1357365	-0.0029131181	-0.002910282	-27.799996	82.997652	0	810.7742138117978
9.1201084	2.2908677e-8	0.46	23704.987	10411.529	-0.13484248	-0.0029131186	-0.0029100089	-25.365919	75.696	0	811.6143220598415
9.1201084	2.5118864e-8	0.46	21620.008	9496.7859	-0.13394846	-0.0029131193	-0.0029097096	-23.145935	69.036814	0	812.4544416315266
9.1201084	2.7542287e-8	0.46	19718.484	8662.5218	-0.13305444	-0.0029131203	-0.0029093816	-21.121208	62.963564	0	813.2945736073538
9.1201084	3.0199517e-8	0.46	17984.274	7901.6557	-0.13216042	-0.0029131212	-0.0029090218	-19.274556	57.424694	0	814.1347193271426
9.1201084	3.3113112e-8	0.46	16402.655	7207.7295	-0.13126641	-0.0029131225	-0.0029086276	-17.59031	52.373184	0	814.9748705189602
9.1201084	3.6307805e-8	0.46	14960.202	6574.8533	-0.13037239	-0.0029131235	-0.0029081949	-16.054181	47.766153	0	815.8150477461336
9.1201084	3.9810717e-8	0.46	13644.669	5997.6552	-0.12947837	-0.0029131246	-0.0029077205	-14.653137	43.564491	0	816.6552429960497
9.1201084	4.3651583e-8	0.46	12444.889	5471.2362	-0.12858436	-0.0029131258	-0.0029072004	-13.37529	39.73253	0	817.4954486018548
9.1201084	4.7863009e-8	0.46	11350.676	4991.1282	-0.12769034	-0.0029131273	-0.0029066303	-12.209801	36.237739	0	818.3356852133165
9.1201084	5.2480746e-8	0.46	10352.743	4553.2564	-0.12679633	-0.0029131289	-0.0029060049	-11.146784	33.050453	0	819.1759363297882
9.1201084	5.7543994e-8	0.46	9442.616	4153.9045	-0.12590231	-0.0029131308	-0.0029053196	-10.177222	30.143613	0	820.0162227306971
9.1201084	6.3095734e-8	0.46	8612.5709	3789.6831	-0.1250083	-0.0029131329	-0.0029045681	-9.2928924	27.492543	0	820.8565283475964
9.1201084	6.9183097e-8	0.46	7855.5608	3457.5012	-0.12411429	-0.002913135	-0.0029037438	-8.4862956	25.074739	0	821.6968654286602
9.1201084	7.5857758e-8	0.46	7165.1594	3154.5395	-0.12322027	-0.0029131375	-0.0029028403	-7.7505919	22.869676	0	822.5372461356221
9.1201084	8.3176377e-8	0.46	6535.506	2878.2272	-0.12232626	-0.0029131398	-0.0029018492	-7.0795435	20.858635	0	823.3776553076563
9.1201084	9.1201084e-8	0.46	5961.2552	2626.2192	-0.12143226	-0.0029131427	-0.0029007628	-6.4674612	19.024543	0	824.2180962727025
9.1201084	1.e-7	0.46	5437.5323	2396.3771	-0.12053825	-0.0029131458	-0.0028995715	-5.9091569	17.351832	0	825.0585919711887
9.1201084	1.0964782e-7	0.46	4959.8914	2186.7505	-0.11964424	-0.0029131492	-0.0028982652	-5.3998986	15.826301	0	825.8991373726818
9.1201084	1.2022644e-7	0.46	4524.2778	1995.5607	-0.11875024	-0.0029131527	-0.0028968328	-4.9353708	14.435001	0	826.7397278789492
9.1201084	1.3182567e-7	0.46	4126.9935	1821.1854	-0.11785623	-0.0029131569	-0.0028952624	-4.5116377	13.16612	0	827.5803874244787
9.1201084	1.4454398e-7	0.46	3764.6659	1662.1452	-0.11696223	-0.0029131613	-0.0028935404	-4.1251098	12.008887	0	828.4211030958836
9.1201084	1.5848932e-7	0.46	3434.2194	1517.0907	-0.11606824	-0.0029131661	-0.0028916523	-3.7725134	10.953479	0	829.2618811600653
9.1201084	1.7378008e-7	0.46	3132.8486	1384.7914	-0.11517424	-0.0029131717	-0.0028895823	-3.4508629	9.9909348	0	830.1027472370915
9.1201084	1.9054607e-7	0.46	2857.9953	1264.1248	-0.11428025	-0.0029131773	-0.002887312	-3.1574355	9.1130847	0	830.9436904881366
9.1201084	2.0892961e-7	0.46	2607.3261	1154.0676	-0.11338625	-0.0029131839	-0.0028848231	-2.8897476	8.312476	0	831.7847376137682
9.1201084	2.2908677e-7	0.46	2378.7133	1053.686	-0.11249227	-0.0029131907	-0.0028820937	-2.6455347	7.5823127	0	832.6258698922079
9.1201084	2.5118864e-7	0.46	2170.216	962.12894	-0.11159828	-0.0029131986	-0.0028791015	-2.4227311	6.916396	0	833.467125148477
9.1201084	2.7542287e-7	0.46	1980.0642	878.61978	-0.1107043	-0.0029132072	-0.0028758205	-2.219453	6.3090732	0	834.30849582847
9.1201084	3.0199517e-7	0.46	1806.644	802.45046	-0.10981033	-0.0029132164	-0.0028722226	-2.0339824	5.7551886	0	835.149994077009
9.1201084	3.3113112e-7	0.46	1648.483	732.97513	-0.10891635	-0.0029132267	-0.0028682779	-1.8647523	5.2500404	0	835.9916516081826
9.1201084	3.6307805e-7	0.46	1504.2385	669.60481	-0.10802239	-0.0029132378	-0.0028639525	-1.7103339	4.7893402	0	836.8334548866123
9.1201084	3.9810717e-7	0.46	1372.6862	611.80233	-0.10712843	-0.0029132501	-0.0028592099	-1.5694237	4.3691771	0	837.6754384789077
9.1201084	4.3651583e-7	0.46	1252.7093	559.07777	-0.10623447	-0.0029132636	-0.0028540097	-1.4408333	3.9859845	0	838.517619845951
9.1201084	4.7863009e-7	0.46	1143.2892	510.98435	-0.10534052	-0.0029132782	-0.0028483077	-1.3234785	3.6365093	0	839.3600086953312
9.1201084	5.2480746e-7	0.46	1043.4971	467.11457	-0.10444658	-0.0029132945	-0.0028420558	-1.2163708	3.3177848	0	840.2026258158717
9.1201084	5.7543994e-7	0.46	952.4859	427.0968	-0.10355265	-0.0029133124	-0.0028352007	-1.1186085	3.0271054	0	841.0454942438353
9.1201084	6.3095734e-7	0.46	869.48295	390.59212	-0.10265872	-0.0029133319	-0.0028276843	-1.0293692	2.7620035	0	841.8886484856993
9.1201084	6.9183097e-7	0.46	793.78366	357.29142	-0.1017648	-0.002913353	-0.0028194425	-0.94790311	2.5202287	0	842.732106849834
9.1201084	7.5857758e-7	0.46	724.74539	326.91278	-0.1008709	-0.0029133767	-0.002810406	-0.8735261	2.2997284	0	843.5758898920503
9.1201084	8.3176377e-7	0.46	661.78211	299.19911	-0.099977004	-0.0029134023	-0.0028004974	-0.80561445	2.098631	0	844.4200460976783
9.1201084	9.1201084e-7	0.46	604.3593	273.91593	-0.099083122	-0.0029134303	-0.002789633	-0.7435992	1.9152291	0	845.2646022462096
9.1201084	1.e-6	0.46	551.98948	250.84938	-0.098189253	-0.0029134614	-0.0027777208	-0.68696151	1.747966	0	846.1095990396154
9.1201084	1.0964782e-6	0.46	504.2281	229.80443	-0.0972954	-0.0029134952	-0.0027646591	-0.63522817	1.5954217	0	846.9550776139458
9.1201084	1.2022644e-6	0.46	460.66972	210.60323	-0.096401563	-0.0029135325	-0.0027503377	-0.5879676	1.4563013	0	847.8010855976473
9.1201084	1.3182567e-6	0.46	420.94455	193.08353	-0.095507743	-0.0029135735	-0.002734635	-0.54478619	1.3294238	0	848.6476746066824
9.1201084	1.4454398e-6	0.46	384.71538	177.09742	-0.094613944	-0.002913618	-0.0027174173	-0.50532497	1.2137121	0	849.4948986679372
9.1201084	1.5848932e-6	0.46	351.67464	162.50995	-0.093720166	-0.0029136672	-0.0026985392	-0.46925653	1.1081839	0	850.3428206233011
9.1201084	1.7378008e-6	0.46	321.54187	149.19809	-0.092826412	-0.0029137209	-0.0026778401	-0.43628228	1.0119435	0	851.1915070654077
9.1201084	1.9054607e-6	0.46	294.06125	137.0496	-0.091932684	-0.0029137797	-0.0026551447	-0.40612989	0.92417372	0	852.0410318797967
9.1201084	2.0892961e-6	0.46	268.99951	125.96213	-0.091038984	-0.0029138447	-0.0026302611	-0.37855098	0.84412958	0	852.8914761265298
9.1201084	2.2908677e-6	0.46	246.1439	115.84236	-0.090145315	-0.0029139156	-0.0026029778	-0.35331903	0.77113159	0	853.7429283972231
9.1201084	2.5118864e-6	0.46	225.30038	106.60514	-0.089251681	-0.0029139934	-0.0025730642	-0.33022743	0.70456004	0	854.5954845989497
9.1201084	2.7542287e-6	0.46	206.29203	98.172858	-0.088358084	-0.0029140785	-0.0025402664	-0.30908774	0.64384982	0	855.4492525881742
9.1201084	3.0199517e-6	0.46	188.95748	90.474703	-0.087464528	-0.0029141722	-0.0025043079	-0.2897281	0.58848554	0	856.3043481099525
9.1201084	3.3113112e-6	0.46	173.14957	83.446108	-0.086571018	-0.0029142752	-0.0024648843	-0.27199174	0.53799721	0	857.1608980281558
9.1201084	3.6307805e-6	0.46	158.73411	77.028192	-0.085677557	-0.0029143875	-0.0024216618	-0.25573571	0.49195625	0	858.0190437924687
9.1201084	3.9810717e-6	0.46	145.58872	71.16725	-0.08478415	-0.0029145111	-0.0023742767	-0.24082959	0.44997179	0	858.8789378962267
9.1201084	4.3651583e-6	0.46	133.60182	65.814314	-0.083890803	-0.0029146467	-0.002322329	-0.22715442	0.41168744	0	859.7407475820619
9.1201084	4.7863009e-6	0.46	122.67164	60.924722	-0.082997521	-0.0029147952	-0.0022653813	-0.21460171	0.37677819	0	860.6046571964544
9.1201084	5.2480746e-6	0.46	112.7054	56.457749	-0.082104311	-0.0029149581	-0.0022029551	-0.2030725	0.3449477	0	861.4708669701758
9.1201084	5.7543994e-6	0.46	103.61849	52.376254	-0.081211179	-0.0029151371	-0.0021345273	-0.19247649	0.31592573	0	862.3395973496863
9.1201084	6.3095734e-6	0.46	95.33377	48.646372	-0.080318134	-0.002915333	-0.0020595247	-0.18273134	0.28946592	0	863.211087615972
9.1201084	6.9183097e-6	0.46	87.780904	45.237219	-0.079425183	-0.0029155481	-0.0019773221	-0.17376189	0.26534364	0	864.0856014035542
9.1201084	7.5857758e-6	0.46	80.895773	42.120637	-0.078532336	-0.0029157839	-0.0018872359	-0.16549961	0.2433541	0	864.9634247687411
9.1201084	8.3176377e-6	0.46	74.619921	39.270947	-0.077639601	-0.002916043	-0.0017885211	-0.15788194	0.2233106	0	865.8448721840548
9.1201084	9.1201084e-6	0.46	68.900067	36.66474	-0.076746992	-0.0029163267	-0.0016803639	-0.15085181	0.20504297	0	866.7302822199906
9.1201084	0.00001	0.46	63.687641	34.280668	-0.07585452	-0.002916638	-0.0015618796	-0.14435714	0.1883961	0	867.6200269087233
9.1201084	0.000010964782	0.46	58.938383	32.099273	-0.074962197	-0.0029169793	-0.0014321053	-0.13835038	0.17322864	0	868.5145111409078
9.1201084	0.000012022644	0.46	54.606382	30.102759	-0.074081367	-0.0029185911	-0.0012912337	-0.1327941	0.15940529	0	869.4029932022613
9.1201084	0.000013182567	0.46	50.665505	28.275053	-0.073190472	-0.0029191202	-0.0011357762	-0.12763734	0.14682101	0	870.3072360157323
9.1201084	0.000014454398	0.46	47.077177	26.601366	-0.072299878	-0.0029197005	-0.00096563947	-0.12284934	0.13536297	0	871.2175403841346
9.1201084	0.000015848932	0.46	43.810897	25.068258	-0.071409614	-0.0029203366	-0.00077950561	-0.11839708	0.12493376	0	872.1344486565333
9.1201084	0.000017378008	0.46	40.838885	23.663483	-0.07051971	-0.0029210339	-0.00057595966	-0.11425037	0.1154447	0	873.058544191766
9.1201084	0.000019054607	0.46	38.135841	22.375875	-0.0696302	-0.0029217987	-0.00035348883	-0.11038162	0.10681499	0	873.9904488725413
9.1201084	0.000020892961	0.46	35.678732	21.195262	-0.068741123	-0.0029226367	-0.00011048243	-0.1067656	0.09897111	0	874.9308221961264
9.1201084	0.000022908677	0.46	33.446584	20.112368	-0.067852519	-0.0029235556	0.00015476151	-0.10337926	0.09184609	0	875.8803621714458
9.1201084	0.000025118864	0.46	31.420302	19.11874	-0.066964434	-0.0029245628	0.00044403105	-0.1002015	0.08537898	0	876.8397983781341
9.1201084	0.000027542287	0.46	29.582494	18.206671	-0.066076916	-0.0029256667	0.00075918613	-0.097212987	0.079514275	0	877.8098895832359
9.1201084	0.000030199517	0.46	27.917321	17.369129	-0.065190018	-0.0029268768	0.0011021416	-0.09439605	0.074201421	0	878.7914135880744
9.1201084	0.000033113112	0.46	26.410343	16.5997	-0.0643038	-0.0029282028	0.0014748444	-0.091734479	0.069394347	0	879.7851554863155
9.1201084	0.000036307805	0.46	25.048388	15.892523	-0.063418325	-0.0029296562	0.0018792413	-0.089213423	0.065051027	0	880.791897479455
9.1201084	0.000039810717	0.46	23.819422	15.242241	-0.062533663	-0.0029312486	0.0023172436	-0.086819264	0.061133078	0	881.8123998618948
9.1201084	0.000043651583	0.46	22.71243	14.64395	-0.06164989	-0.0029329933	0.0027906819	-0.084539514	0.057605379	0	882.8473824121002
9.1201084	0.000047863009	0.46	21.717308	14.093151	-0.060767088	-0.0029349049	0.0033012569	-0.082362716	0.054435716	0	883.897503128356
9.1201084	0.000052480746	0.46	20.824757	13.585709	-0.059885348	-0.0029369987	0.0038504888	-0.080278369	0.05159446	0	884.963333540748
9.1201084	0.000057543994	0.46	20.026195	13.117815	-0.059004767	-0.0029392921	0.004439662	-0.078276841	0.049054269	0	886.045337629196
9.1201084	0.000063095734	0.46	19.313668	12.685953	-0.058125454	-0.0029418042	0.005069779	-0.076349315	0.046789818	0	887.1438462616377
9.1201084	0.000069183097	0.46	18.679781	12.286865	-0.057247523	-0.002944555	0.005741521	-0.074487724	0.044777574	0	888.2590467423048
9.1201084	0.000075857758	0.46	18.11764	11.917534	-0.056371101	-0.0029475665	0.0064552213	-0.0726847	0.042995602	0	889.3909637986783
9.1201084	0.000083176377	0.46	17.620797	11.575157	-0.055496325	-0.0029508634	0.0072108575	-0.070933531	0.041423412	0	890.5394590290236
9.1201084	0.000091201084	0.46	17.183221	11.257132	-0.054623343	-0.0029544718	0.0080080634	-0.069228113	0.040041844	0	891.7042351060068
9.1201084	0.0001	0.46	16.799273	10.961044	-0.053752315	-0.0029584205	0.0088461606	-0.067562916	0.038832995	0	892.8848484946504
9.1201084	0.00010964782	0.46	16.463688	10.68466	-0.052883417	-0.0029627406	0.0097242082	-0.065932946	0.037780174	0	894.0807271744159
9.1201084	0.00012022644	0.46	16.171571	10.425917	-0.052016835	-0.0029674661	0.010641065	-0.064333702	0.036867871	0	895.2912031594378
9.1201084	0.00013182567	0.46	15.918389	10.182923	-0.051152773	-0.0029726344	0.011595462	-0.062761151	0.036081749	0	896.5155363165077
9.1201084	0.00014454398	0.46	15.699973	9.9539497	-0.050291448	-0.0029782845	0.01258607	-0.061211682	0.035408634	0	897.7529482796235
9.1201084	0.00015848932	0.46	15.51251	9.7374254	-0.049433095	-0.0029844608	0.013611573	-0.059682076	0.034836496	0	899.0026494756478
9.1201084	0.00017378008	0.46	15.352533	9.531932	-0.048577968	-0.00299121	0.014670722	-0.058169473	0.034354429	0	900.2638614371052
9.1201084	0.00019054607	0.46	15.216916	9.3361959	-0.047726335	-0.0029985831	0.015762385	-0.056671334	0.033952611	0	901.5358431100133
9.1201084	0.00020892961	0.46	15.10285	9.1490802	-0.046878486	-0.0030066359	0.016885583	-0.055185412	0.033622251	0	902.8178988965605
9.1201084	0.00022908677	0.46	15.007831	8.9695744	-0.046034729	-0.0030154279	0.018039509	-0.053709718	0.033355531	0	904.1093906251699
9.1201084	0.00025118864	0.46	14.929634	8.796785	-0.045195391	-0.0030250244	0.019223547	-0.052242497	0.033145532	0	905.4097448227346
9.1201084	0.00027542287	0.46	14.866291	8.629924	-0.044360822	-0.0030354957	0.020437267	-0.050782198	0.032986156	0	906.7184467953556
9.1201084	0.00030199517	0.46	14.816064	8.4682992	-0.043531388	-0.0030469171	0.021680429	-0.049327453	0.032872052	0	908.0350489341004
9.1201084	0.00033113112	0.46	14.777429	8.3113033	-0.042707478	-0.0030593713	0.022952973	-0.047877051	0.032798537	0	909.3591598160441
9.1201084	0.00036307805	0.46	14.749042	8.1584048	-0.041889497	-0.0030729475	0.024255003	-0.046429924	0.03276152	0	910.6904438660263
9.1201084	0.00039810717	0.46	14.72973	8.0091387	-0.041077871	-0.0030877413	0.025586781	-0.044985126	0.032757432	0	912.0286140656237
9.1201084	0.00043651583	0.46	14.718463	7.8630984	-0.040273042	-0.0031038575	0.026948708	-0.043541819	0.032783164	0	913.3734284391765
9.1201084	0.00047863009	0.46	14.714343	7.7199283	-0.039475466	-0.003121408	0.028341314	-0.04209926	0.03283601	0	914.724687610917
9.1201084	0.00052480746	0.46	14.716585	7.5793177	-0.038685612	-0.0031405157	0.02976524	-0.040656786	0.032913615	0	916.0822279649356
9.1201084	0.00057543994	0.46	14.72451	7.4409948	-0.037903958	-0.0031613121	0.031221235	-0.039213809	0.033013929	0	917.44592410684
9.1201084	0.00063095734	0.46	14.73753	7.3047222	-0.037130987	-0.00318394	0.032710135	-0.037769801	0.033135175	0	918.8156835458178
9.1201084	0.00069183097	0.46	14.755142	7.1702924	-0.036367181	-0.0032085555	0.034232859	-0.036324287	0.033275814	0	920.191450603226
9.1201084	0.00075857758	0.46	14.776926	7.0375249	-0.035613018	-0.0032353262	0.035790399	-0.03487684	0.033434524	0	921.5732049092879
9.1201084	0.00083176377	0.46	14.802531	6.9062632	-0.034868963	-0.0032644335	0.037383814	-0.033427067	0.033610174	0	922.9609672659806
9.1201084	0.00091201084	0.46	14.831684	6.7763723	-0.034135464	-0.0032960752	0.039014221	-0.031974609	0.033801816	0	924.3547995154952
9.1201084	0.001	0.46	14.864178	6.6477373	-0.033412941	-0.0033304631	0.040682792	-0.030519127	0.034008673	0	925.754813578856
9.1201084	0.0010964782	0.46	14.899878	6.5202619	-0.032701779	-0.003367829	0.042390745	-0.029060303	0.034230128	0	927.1611741430777
9.1201084	0.0012022644	0.46	14.938717	6.3938673	-0.03200232	-0.0034084194	0.044139348	-0.027597824	0.034465728	0	928.5741079064883
9.1201084	0.0013182567	0.46	14.980699	6.2684914	-0.031314857	-0.0034525011	0.045929909	-0.026131385	0.034715177	0	929.9939048941194
9.1201084	0.0014454398	0.46	15.025896	6.144088	-0.03063962	-0.0035003585	0.047763779	-0.024660673	0.034978339	0	931.4209329082236
9.1201084	0.0015848932	0.46	15.07445	6.0206265	-0.029976778	-0.003552298	0.049642344	-0.023185368	0.035255237	0	932.8556321915407
9.1201084	0.0017378008	0.46	15.12657	5.898091	-0.029326426	-0.0036086409	0.051567035	-0.02170513	0.035546055	0	934.29853196365
9.1201084	0.0019054607	0.46	15.182531	5.7764795	-0.028688584	-0.0036697282	0.053539321	-0.020219597	0.035851137	0	935.7502483351342
9.1201084	0.0020892961	0.46	15.242671	5.6558031	-0.028063195	-0.0037359179	0.055560711	-0.018728377	0.036170984	0	937.2114870511102
9.1201084	0.0022908677	0.46	15.307385	5.536085	-0.027450125	-0.0038075817	0.05763276	-0.017231041	0.036506249	0	938.6830460844296
9.1201084	0.0025118864	0.46	15.37712	5.4173589	-0.026849164	-0.003885104	0.059757069	-0.015727118	0.036857729	0	940.1658146961138
9.1201084	0.0027542287	0.46	15.45237	5.2996679	-0.026260032	-0.0039688773	0.061935291	-0.014216094	0.037226358	0	941.6607703911615
9.1201084	0.0030199517	0.46	15.533664	5.1830621	-0.025682384	-0.0040592988	0.064169135	-0.012697401	0.03761319	0	943.1689759495227
9.1201084	0.0033113112	0.46	15.621564	5.0675976	-0.02511582	-0.0041567636	0.066460376	-0.01117042	0.038019388	0	944.691574352446
9.1201084	0.0036307805	0.46	15.716651	4.9533335	-0.024559895	-0.0042616581	0.06881086	-0.0096344752	0.038446203	0	946.2297815478242
9.1201084	0.0039810717	0.46	15.819517	4.840331	-0.024014129	-0.0043743559	0.071222512	-0.0080888327	0.03889496	0	947.7848805121432
9.1201084	0.0043651583	0.46	15.93076	4.7286502	-0.023478026	-0.0044952032	0.073697352	-0.0065327009	0.039367036	0	949.3582103139395
9.1201084	0.0047863009	0.46	16.050973	4.6183491	-0.022951081	-0.0046245087	0.076237508	-0.004965229	0.039863845	0	950.9511651554446
9.1201084	0.0052480746	0.46	16.180734	4.5094813	-0.022432802	-0.0047625349	0.078845222	-0.0033855096	0.040386814	0	952.5651762953479
9.1201084	0.0057543994	0.46	16.320603	4.4020944	-0.021922727	-0.0049094821	0.081522876	-0.0017925794	0.040937368	0	954.201707313386
9.1201084	0.0063095734	0.46	16.471114	4.2962284	-0.021420436	-0.0050654663	0.084273008	-0.0001854207	0.041516915	0	955.8622497507611
9.1201084	0.0069183097	0.46	16.632768	4.1919146	-0.020925579	-0.0052305052	0.087098333	0.0014370348	0.042126824	0	957.5483058785105
9.1201084	0.0075857758	0.46	16.806027	4.0891741	-0.020437887	-0.0054044995	0.090001766	0.0030759017	0.042768416	0	959.2613883028922
9.1201084	0.0083176377	0.46	16.991313	3.988017	-0.019957201	-0.0055872018	0.09298645	0.0047323391	0.043442949	0	961.0030048195881
9.1201084	0.0091201084	0.46	17.188997	3.8884417	-0.019483487	-0.0057781987	0.09605578	0.0064075447	0.044151604	0	962.7746546930272
9.1201084	0.01	0.46	17.399404	3.7904341	-0.019016861	-0.005976887	0.099213429	0.0081027498	0.044895475	0	964.5778164044528
9.1201084	0.010964782	0.46	17.6228	3.6939673	-0.018557609	-0.0061824419	0.10246338	0.0098192154	0.045675564	0	966.4139426910181
9.1201084	0.012022644	0.46	17.859397	3.5990014	-0.018106209	-0.0063938019	0.10580996	0.011558225	0.046492765	0	968.2844545701494
9.1201084	0.013182567	0.46	18.109348	3.5054829	-0.017663345	-0.006609646	0.10925783	0.013321082	0.047347863	0	970.1907238636319
9.1201084	0.014454398	0.46	18.372741	3.4133447	-0.01722993	-0.0068283791	0.11281204	0.015109099	0.048241519	0	972.134075358609
9.1201084	0.015848932	0.46	18.6496	3.3225047	-0.016807117	-0.0070481307	0.11647802	0.016923596	0.049174256	0	974.1157725825633
9.1201084	0.017378008	0.46	18.939869	3.2328634	-0.01639632	-0.0072667489	0.12026159	0.018765891	0.050146428	0	976.137002394445
9.1201084	0.019054607	0.46	19.243398	3.1442985	-0.015999243	-0.0074818078	0.12416892	0.020637292	0.051158154	0	978.198830449274
9.1201084	0.020892961	0.46	19.559892	3.0566523	-0.015617932	-0.0076906242	0.12820661	0.022539085	0.052209188	0	980.302186916747
9.1201084	0.022908677	0.46	19.888827	2.9697058	-0.015254901	-0.0078902426	0.1323816	0.02447252	0.053298657	0	982.4477091979973
9.1201084	0.025118864	0.46	20.229215	2.8831171	-0.014913413	-0.0080774107	0.13670127	0.026438772	0.054424415	0	984.635521127738
9.1201084	0.027542287	0.46	20.578962	2.7962422	-0.014598404	-0.0082482541	0.14117374	0.028438875	0.055581247	0	986.8644944758969
9.1201084	0.030199517	0.46	20.931478	2.7072399	-0.014321555	-0.008395535	0.14581062	0.0304735	0.05675195	0	989.1286720223286
9.1201084	0.033113112	0.46	21.243978	2.6050042	-0.014155103	-0.008468315	0.15066737	0.032541457	0.057827532	0	991.3841522002285
9.1201084	0.036307805	0.46	21.441103	2.4710472	-0.014254431	-0.0083261208	0.1558891	0.034634319	0.05862011	0	993.5476590776693
9.1201084	0.039810717	0.46	21.61223	2.3290142	-0.014504836	-0.0080330734	0.16141648	0.036744376	0.059351491	0	995.7013211893727
9.1201084	0.043651583	0.46	21.818653	2.1941519	-0.014805972	-0.007668079	0.16717554	0.038872706	0.060170748	0	997.9074503214378
9.1201084	0.047863009	0.46	22.076454	2.0698628	-0.015125829	-0.0072589974	0.1731435	0.041023728	0.06111533	0	1000.1862764433283
9.1201084	0.052480746	0.46	20.647626	1.998847	-0.017060531	-0.0074681181	0.17866332	0.043148874	0.062551144	0	1000.7541640222616
9.1201084	0.057543994	0.46	19.344519	1.9340798	-0.018825001	-0.0083383761	0.18369745	0.045087029	0.063860622	0	1001.2720804422291
9.1201084	0.063095734	0.46	19.48553	1.8423687	-0.019375117	-0.0088088868	0.18931235	0.046969685	0.064853063	0	1003.1819706326573
9.1201084	0.069183097	0.46	20.009797	1.7453526	-0.019625679	-0.0091171121	0.19527629	0.048904546	0.065846215	0	1005.524166491231
9.1201084	0.075857758	0.46	20.66059	1.6495453	-0.019774667	-0.0094212086	0.20143702	0.050896845	0.066908538	0	1008.0468504106699
9.1201084	0.083176377	0.46	21.458237	1.5551551	-0.019789351	-0.0097222962	0.20779953	0.052959961	0.068055433	0	1010.7829310431835
9.1201084	0.091201084	0.46	22.425966	1.4624204	-0.019631119	-0.010023148	0.21436732	0.0551094	0.069304722	0	1013.7701995862797
9.1201084	0.1	0.46	23.591131	1.3716097	-0.019253783	-0.010328284	0.22114234	0.057363136	0.070676983	0	1017.0528954744636
9.1201084	0.10964782	0.46	24.987148	1.2830206	-0.018601058	-0.010643918	0.22812506	0.059742101	0.072196037	0	1020.6841052774884
9.1201084	0.12022644	0.46	26.656338	1.1969771	-0.017602892	-0.010977772	0.23531463	0.062270912	0.073889648	0	1024.7292800572004
9.1201084	0.13182567	0.46	28.653877	1.1138247	-0.016170359	-0.011338778	0.24270921	0.064978929	0.075790526	0	1029.2711763538014
9.1201084	0.14454398	0.46	31.052911	1.0339222	-0.014188883	-0.011736684	0.25030637	0.067901751	0.077937756	0	1034.4163955606846
9.1201084	0.15848932	0.46	33.950717	0.95763212	-0.011509845	-0.012181603	0.25810352	0.071083282	0.08037876	0	1040.303455542444
9.1201084	0.17378008	0.46	37.475359	0.8853084	-0.0079410545	-0.012683467	0.26609851	0.074578413	0.083171864	0	1047.1120026033475
9.1201084	0.19054607	0.46	41.791665	0.81728222	-0.0032373677	-0.013251391	0.27429023	0.07845635	0.086389489	0	1055.071885621575
9.1201084	0.20892961	0.46	47.104425	0.7538468	0.0029061394	-0.013892862	0.28267944	0.08280441	0.090121799	0	1064.4699290939557
9.1201084	0.22908677	0.46	53.655694	0.69524096	0.010854697	-0.01461277	0.29126978	0.087731865	0.094480382	0	1075.6508638694058
9.1201084	0.25118864	0.46	61.712466	0.64163087	0.021023366	-0.015412326	0.30006881	0.093373088	0.099601226	0	1089.0079342201657
9.1201084	0.27542287	0.46	71.541858	0.59309005	0.033851517	-0.016288111	0.30908899	0.099888885	0.10564585	0	1104.9593427505642
9.1201084	0.30199517	0.46	83.374419	0.54957952	0.04976187	-0.017231636	0.31834814	0.10746479	0.11279941	0	1123.9099643304412
9.1201084	0.33113112	0.46	97.362314	0.51093378	0.069110576	-0.018229853	0.32786893	0.11630544	0.12126494	0	1146.2042240741462
9.1201084	0.36307805	0.46	113.54489	0.47686062	0.092141824	-0.019266761	0.33767727	0.12662505	0.13125381	0	1172.082751808512
9.1201084	0.39810717	0.46	131.83472	0.44696012	0.11896211	-0.020325793	0.34779996	0.13863551	0.14297403	0	1201.657190446686
9.1201084	0.43651583	0.46	152.02995	0.42076108	0.14954248	-0.02139224	0.35826224	0.1525343	0.15661852	0	1234.9112445430649
9.1201084	0.47863009	0.46	173.84785	0.39776512	0.18374531	-0.022454957	0.36908612	0.16849485	0.17235585	0	1271.725120079262
9.1201084	0.52480746	0.46	196.96703	0.37748709	0.22136367	-0.023507011	0.38028975	0.18666062	0.19032479	0	1311.9122372285092
9.1201084	0.57543994	0.46	221.06593	0.35948376	0.26216026	-0.024545403	0.39188767	0.20714327	0.21063269	0	1355.2559213221389
9.1201084	0.63095734	0.46	245.85035	0.34336891	0.30589788	-0.025570254	0.40389168	0.23002413	0.23335712	0	1401.5384074198505
9.1201084	0.69183097	0.46	271.06896	0.32881731	0.35235891	-0.026583843	0.41631177	0.25535768	0.25854942	0	1450.5595449887865
9.1201084	0.75857758	0.46	296.51877	0.31556143	0.40135534	-0.027589746	0.42915704	0.28317615	0.28623922	0	1502.1466193680485
9.1201084	0.83176377	0.46	322.04409	0.30338446	0.45273207	-0.028592178	0.44243632	0.31349419	0.31643907	0	1556.15772029839
9.1201084	0.91201084	0.46	347.53187	0.29211225	0.50636615	-0.029595543	0.45615868	0.34631335	0.3491488	0	1612.481248274582
9.1201084	1.	0.46	372.9056	0.28160548	0.56216403	-0.030604159	0.47033368	0.38162592	0.38435938	0	1671.0334387907149
9.1201084	1.0964782	0.46	398.11893	0.27175274	0.62005801	-0.031622107	0.48497154	0.41941822	0.42205605	0	1731.7551003572178
9.1201084	1.2022644	0.46	423.14979	0.2624648	0.68000258	-0.032653161	0.50008326	0.45967328	0.46222095	0	1794.6082275556819
9.1201084	1.3182567	0.46	447.99531	0.25366986	0.74197109	-0.033700775	0.51568059	0.50237292	0.50483523	0	1859.5728593202475
9.1201084	1.4454398	0.46	472.66749	0.24530989	0.80595284	-0.034768091	0.53177608	0.54749947	0.54988063	0	1926.644366412435
9.1201084	1.5848932	0.46	497.18965	0.23733766	0.87195063	-0.035857972	0.54838306	0.595037	0.59734077	0	1995.8311408420373
9.1201084	1.7378008	0.46	521.59365	0.22971447	0.93997868	-0.036973032	0.56551558	0.64497229	0.64720207	0	2067.1526156391883
9.1201084	1.9054607	0.46	545.9176	0.22240835	1.010061	-0.038115675	0.58318844	0.6972956	0.69945446	0	2140.6377463288454
9.1201084	2.0892961	0.46	570.20411	0.21539267	1.08223	-0.039288126	0.60141716	0.75200113	0.75409189	0	2216.323691968947
9.1201084	2.2908677	0.46	594.49886	0.20864505	1.1565254	-0.040492463	0.62021794	0.80908743	0.81111269	0	2294.2547737361842
9.1201084	2.5118864	0.46	618.8496	0.20214651	1.2329933	-0.041730647	0.63960769	0.86855764	0.87051982	0	2374.481614096224
9.1201084	2.7542287	0.46	643.30528	0.19588081	1.3116857	-0.043004541	0.65960397	0.93041963	0.93232099	0	2457.060659880338
9.1201084	3.0199517	0.46	667.91547	0.18983392	1.3926597	-0.044315936	0.68022506	0.99468613	0.99652879	0	2542.053460887124
9.1201084	3.3113112	0.46	692.72988	0.1839936	1.475977	-0.045666568	0.70148989	1.0613747	1.0631607	0	2629.5261698458335
9.1201084	3.6307805	0.46	717.79806	0.17834905	1.5617037	-0.047058133	0.72341807	1.1305078	1.132239	0	2719.549367469297
9.1201084	3.9810717	0.46	743.16914	0.17289072	1.6499102	-0.048492297	0.74602994	1.2021127	1.203791	0	2812.1979901073964
9.1201084	4.3651583	0.46	768.89168	0.16761001	1.7406705	-0.049970714	0.7693465	1.2762216	1.2778485	0	2907.550641797312
9.1201084	4.7863009	0.46	795.01361	0.16249915	1.8340624	-0.051495033	0.79338947	1.3528711	1.3544485	0	3005.689808108598
9.1201084	5.2480746	0.46	821.58212	0.15755109	1.9301673	-0.053066904	0.8181813	1.4321028	1.4336321	0	3106.7016725521144
9.1201084	5.7543994	0.46	848.64372	0.15275933	2.0290701	-0.054687991	0.84374519	1.5139628	1.5154456	0	3210.676031267492
9.1201084	6.3095734	0.46	876.2442	0.14811788	2.1308592	-0.056359974	0.87010508	1.5985016	1.5999393	0	3317.7062887011302
9.1201084	6.9183097	0.46	904.42871	0.14362116	2.2356261	-0.058084557	0.89728568	1.6857742	1.6871683	0	3427.889094746062
9.1201084	7.5857758	0.46	933.2418	0.13926397	2.3434662	-0.059863473	0.92531251	1.7758402	1.777192	0	3541.3251136822328
9.1201084	8.3176377	0.46	962.72749	0.13504139	2.4544778	-0.061698489	0.95421191	1.8687633	1.8700741	0	3658.1180889331563
9.1201084	9.1201084	0.46	992.92932	0.13094883	2.5687629	-0.06359141	0.98401103	1.9646115	1.9658826	0	3778.3755903961883
9.1201084	10.	0.46	1023.8905	0.12698189	2.6864268	-0.065544081	1.0147379	2.0634572	2.0646898	0	3902.208668870392