91.201084	1.e-12	0.22	5.4368168e12	2.3905256e11	-1.	-1.6480501e-9	-1.6474012e-9	-5.7865234e9	1.7417666e10	0	-3.405250387150524e-7
91.201084	1.0964782e-12	0.22	4.9584359e12	2.1801852e11	-1.	-1.8070509e-9	-1.8063395e-9	-5.277372e9	1.58851e10	0	-3.733782809979915e-7
91.201084	1.2022644e-12	0.22	4.5221473e12	1.9883526e11	-1.	-1.9813921e-9	-1.9806119e-9	-4.8130205e9	1.4487384e10	0	-4.094011488682863e-7
91.201084	1.3182567e-12	0.22	4.1242473e12	1.8133991e11	-1.	-2.1725532e-9	-2.1716977e-9	-4.3895269e9	1.3212651e10	0	-4.4889942011083285e-7
91.201084	1.4454398e-12	0.22	3.7613583e12	1.6538396e11	-1.	-2.3821573e-9	-2.3812193e-9	-4.0032961e9	1.2050081e10	0	-4.922084519068761e-7
91.201084	1.5848932e-12	0.22	3.4303995e12	1.5083197e11	-1.	-2.6119833e-9	-2.6109548e-9	-3.6510494e9	1.0989804e10	0	-5.396957853091596e-7
91.201084	1.7378008e-12	0.22	3.1285615e12	1.3756039e11	-1.	-2.8639827e-9	-2.862855e-9	-3.3297966e9	1.0022821e10	0	-5.91764659216335e-7
91.201084	1.9054607e-12	0.22	2.853282e12	1.2545656e11	-1.	-3.140295e-9	-3.1390585e-9	-3.0368106e9	9.1409211e9	0	-6.488571316090545e-7
91.201084	2.0892961e-12	0.22	2.6022241e12	1.1441775e11	-1.	-3.4432646e-9	-3.4419088e-9	-2.7696042e9	8.3366191e9	0	-7.114576141948177e-7
91.201084	2.2908677e-12	0.22	2.3732566e12	1.0435023e11	-0.99999999	-3.7754646e-9	-3.773978e-9	-2.5259091e9	7.603087e9	0	8.615555775909193e-6
91.201084	2.5118864e-12	0.22	2.1644358e12	9.5168537e10	-0.99999999	-4.1397149e-9	-4.1380849e-9	-2.3036564e9	6.9340977e9	0	8.540293285983291e-6
91.201084	2.7542287e-12	0.22	1.9739889e12	8.6794737e10	-0.99999999	-4.5391069e-9	-4.5373197e-9	-2.1009597e9	6.3239723e9	0	8.457769705372571e-6
91.201084	3.0199517e-12	0.22	1.8002993e12	7.9157741e10	-0.99999999	-4.9770319e-9	-4.9750722e-9	-1.916098e9	5.7675313e9	0	8.367284347579878e-6
91.201084	3.3113112e-12	0.22	1.6418924e12	7.2192718e10	-0.99999999	-5.4572072e-9	-5.4550585e-9	-1.7475021e9	5.260051e9	0	8.268069078469844e-6
91.201084	3.6307805e-12	0.22	1.4974237e12	6.5840541e10	-0.99999999	-5.9837086e-9	-5.9813526e-9	-1.5937409e9	4.7972236e9	0	8.159281784410568e-6
91.201084	3.9810717e-12	0.22	1.3656666e12	6.0047287e10	-0.99999999	-6.5610061e-9	-6.5584227e-9	-1.453509e9	4.3751199e9	0	8.039998868904741e-6
91.201084	4.3651583e-12	0.22	1.2455028e12	5.4763777e10	-0.99999999	-7.1940002e-9	-7.1911676e-9	-1.3256159e9	3.9901568e9	0	7.909207728550314e-6
91.201084	4.7863009e-12	0.22	1.135912e12	4.9945158e10	-0.99999999	-7.8880644e-9	-7.8849586e-9	-1.2089761e9	3.6390662e9	0	7.765798092127105e-6
91.201084	5.2480746e-12	0.22	1.0359641e12	4.5550525e10	-0.99999999	-8.6490908e-9	-8.6456853e-9	-1.1025993e9	3.3188678e9	0	7.60855255353634e-6
91.201084	5.7543994e-12	0.22	9.4481048e11	4.1542573e10	-0.99999999	-9.4835398e-9	-9.4798057e-9	-1.0055825e9	3.0268434e9	0	7.4361362159113495e-6
91.201084	6.3095734e-12	0.22	8.616774e11	3.7887277e10	-0.99999999	-1.0398495e-8	-1.03944e-8	-9.1710215e8	2.760514e9	0	7.247085570922098e-6
91.201084	6.9183097e-12	0.22	7.8585913e11	3.4553607e10	-0.99999998	-1.1401723e-8	-1.1397234e-8	-8.364071e8	2.5176187e9	0	0.000016435448836615868
91.201084	7.5857758e-12	0.22	7.1671204e11	3.1513264e10	-0.99999998	-1.2501741e-8	-1.2496818e-8	-7.6281234e8	2.2960956e9	0	0.0000162081600109367
91.201084	8.3176377e-12	0.22	6.5364915e11	2.8740439e10	-0.99999998	-1.3707886e-8	-1.3702489e-8	-6.9569313e8	2.094064e9	0	0.00001595894253801473
91.201084	9.1201084e-12	0.22	5.9613511e11	2.6211592e10	-0.99999998	-1.5030399e-8	-1.5024481e-8	-6.3447967e8	1.9098091e9	0	0.000015685681005255747
91.201084	1.e-11	0.22	5.4368168e11	2.3905256e10	-0.99999998	-1.6480505e-8	-1.6474016e-8	-5.7865234e8	1.7417666e9	0	0.000015386055776141052
91.201084	1.0964782e-11	0.22	4.9584359e11	2.1801852e10	-0.99999997	-1.8070515e-8	-1.80634e-8	-5.277372e8	1.58851e9	0	0.00002445317669381818
91.201084	1.2022644e-11	0.22	4.5221473e11	1.9883526e10	-0.99999997	-1.9813926e-8	-1.9806125e-8	-4.8130205e8	1.4487384e9	0	0.000024092947808410857
91.201084	1.3182567e-11	0.22	4.1242473e11	1.8133991e10	-0.99999997	-2.1725539e-8	-2.1716985e-8	-4.3895269e8	1.3212651e9	0	0.00002369796468257664
91.201084	1.4454398e-11	0.22	3.7613583e11	1.6538396e10	-0.99999997	-2.3821581e-8	-2.3812202e-8	-4.0032961e8	1.2050081e9	0	0.000023264874157911828
91.201084	1.5848932e-11	0.22	3.4303995e11	1.5083197e10	-0.99999996	-2.6119845e-8	-2.6109561e-8	-3.6510494e8	1.0989804e9	0	0.00003218565343996967
91.201084	1.7378008e-11	0.22	3.1285615e11	1.3756039e10	-0.99999996	-2.8639842e-8	-2.8628565e-8	-3.3297967e8	1.0022821e9	0	0.000031664964287489166
91.201084	1.9054607e-11	0.22	2.853282e11	1.2545656e10	-0.99999996	-3.1402964e-8	-3.1390599e-8	-3.0368106e8	9.1409211e8	0	0.00003109403977026635
91.201084	2.0892961e-11	0.22	2.6022241e11	1.1441775e10	-0.99999995	-3.4432667e-8	-3.4419109e-8	-2.7696042e8	8.3366191e8	0	0.00003986368704468898
91.201084	2.2908677e-11	0.22	2.3732566e11	1.0435023e10	-0.99999995	-3.7754671e-8	-3.7739805e-8	-2.5259091e8	7.603087e8	0	0.00003917728464680258
91.201084	2.5118864e-11	0.22	2.1644358e11	9.5168537e9	-0.99999994	-4.1397176e-8	-4.1380876e-8	-2.3036565e8	6.9340977e8	0	0.000047820312777033006
91.201084	2.7542287e-11	0.22	1.9739889e11	8.6794737e9	-0.99999994	-4.5391104e-8	-4.5373232e-8	-2.1009597e8	6.3239723e8	0	0.000046995075317290795
91.201084	3.0199517e-11	0.22	1.8002993e11	7.9157741e9	-0.99999993	-4.977036e-8	-4.9750764e-8	-1.916098e8	5.7675313e8	0	0.00005548587383964413
91.201084	3.3113112e-11	0.22	1.6418924e11	7.2192718e9	-0.99999992	-5.457212e-8	-5.4550632e-8	-1.7475021e8	5.260051e8	0	0.00006388937355792008
91.201084	3.6307805e-11	0.22	1.4974237e11	6.5840541e9	-0.99999992	-5.9837145e-8	-5.9813585e-8	-1.5937409e8	4.7972236e8	0	0.00006280149813687479
91.201084	3.9810717e-11	0.22	1.3656666e11	6.0047287e9	-0.99999991	-6.5610131e-8	-6.5584298e-8	-1.453509e8	4.3751199e8	0	0.0000710043200485749
91.201084	4.3651583e-11	0.22	1.2455028e11	5.4763777e9	-0.9999999	-7.1939985e-8	-7.1911659e-8	-1.3256159e8	3.9901568e8	0	0.00007909208027791399
91.201084	4.7863009e-11	0.22	1.135912e11	4.9945158e9	-0.99999989	-7.8880624e-8	-7.8849565e-8	-1.2089761e8	3.6390662e8	0	0.00008705363828771032
91.201084	5.2480746e-11	0.22	1.0359641e11	4.5550525e9	-0.99999988	-8.6490883e-8	-8.6456828e-8	-1.1025993e8	3.3188678e8	0	0.00009487683727583107
91.201084	5.7543994e-11	0.22	9.4481048e10	4.1542573e9	-0.99999987	-9.4835366e-8	-9.4798026e-8	-1.0055825e8	3.0268434e8	0	0.00010254832858270561
91.201084	6.3095734e-11	0.22	8.616774e10	3.7887277e9	-0.99999986	-1.0398491e-7	-1.0394397e-7	-9.1710216e7	2.760514e8	0	0.00011005347547331964
91.201084	6.9183097e-11	0.22	7.8585913e10	3.4553607e9	-0.99999984	-1.1401718e-7	-1.1397229e-7	-8.3640711e7	2.5176187e8	0	0.00012677188482547206
91.201084	7.5857758e-11	0.22	7.1671204e10	3.1513264e9	-0.99999983	-1.2501735e-7	-1.2496813e-7	-7.6281235e7	2.2960955e8	0	0.00013389465001157857
91.201084	8.3176377e-11	0.22	6.5364915e10	2.8740439e9	-0.99999981	-1.370788e-7	-1.3702483e-7	-6.9569313e7	2.094064e8	0	0.00015019378433951176
91.201084	9.1201084e-11	0.22	5.9613511e10	2.6211592e9	-0.99999979	-1.5030391e-7	-1.5024473e-7	-6.3447968e7	1.9098091e8	0	0.00016625248013611853
91.201084	1.e-10	0.22	5.4368168e10	2.3905256e9	-0.99999977	-1.6480496e-7	-1.6474007e-7	-5.7865235e7	1.7417666e8	0	0.00018204753700643716
91.201084	1.0964782e-10	0.22	4.9584359e10	2.1801852e9	-0.99999975	-1.8070504e-7	-1.8063389e-7	-5.2773721e7	1.58851e8	0	0.0001975535218352961
91.201084	1.2022644e-10	0.22	4.5221473e10	1.9883526e9	-0.99999973	-1.9813913e-7	-1.9806112e-7	-4.8130206e7	1.4487383e8	0	0.0002127425441054195
91.201084	1.3182567e-10	0.22	4.1242473e10	1.8133991e9	-0.9999997	-2.1725523e-7	-2.1716969e-7	-4.389527e7	1.3212651e8	0	0.00023697967948121585
91.201084	1.4454398e-10	0.22	3.7613583e10	1.6538396e9	-0.99999967	-2.3821562e-7	-2.3812182e-7	-4.0032962e7	1.2050081e8	0	0.00026083574304006286
91.201084	1.5848932e-10	0.22	3.4303995e10	1.5083197e9	-0.99999964	-2.6119891e-7	-2.6109607e-7	-3.6510495e7	1.0989804e8	0	0.0002842738255440906
91.201084	1.7378008e-10	0.22	3.1285615e10	1.3756039e9	-0.9999996	-2.8639911e-7	-2.8628634e-7	-3.3297967e7	1.0022821e8	0	0.0003166495004574969
91.201084	1.9054607e-10	0.22	2.853282e10	1.2545656e9	-0.99999956	-3.1402934e-7	-3.1390569e-7	-3.0368107e7	9.140921e7	0	0.00034852307390282017
91.201084	2.0892961e-10	0.22	2.6022241e10	1.1441775e9	-0.99999952	-3.443255e-7	-3.4418993e-7	-2.7696043e7	8.336619e7	0	0.0003798458029209198
91.201084	2.2908677e-10	0.22	2.3732566e10	1.0435023e9	-0.99999948	-3.7754668e-7	-3.7739802e-7	-2.5259092e7	7.6030869e7	0	0.0004105641593463281
91.201084	2.5118864e-10	0.22	2.1644358e10	9.5168537e8	-0.99999943	-4.1397105e-7	-4.1380806e-7	-2.3036565e7	6.9340976e7	0	0.00045001631223901207
91.201084	2.7542287e-10	0.22	1.9739889e10	8.6794737e8	-0.99999937	-4.5391085e-7	-4.5373213e-7	-2.1009597e7	6.3239722e7	0	0.000498137753192685
91.201084	3.0199517e-10	0.22	1.8002993e10	7.9157741e8	-0.99999931	-4.9770328e-7	-4.9750732e-7	-1.9160981e7	5.7675312e7	0	0.0005454631508903183
91.201084	3.3113112e-10	0.22	1.6418924e10	7.2192718e8	-0.99999924	-5.4572079e-7	-5.4550592e-7	-1.7475022e7	5.2600509e7	0	0.0006013112046979842
91.201084	3.6307805e-10	0.22	1.4974237e10	6.5840541e8	-0.99999917	-5.9837079e-7	-5.9813519e-7	-1.593741e7	4.7972235e7	0	0.0006562020786438949
91.201084	3.9810717e-10	0.22	1.3656666e10	6.0047287e8	-0.99999909	-6.5610038e-7	-6.5584204e-7	-1.4535091e7	4.3751198e7	0	0.0007194390482307615
91.201084	4.3651583e-10	0.22	1.2455028e10	5.4763777e8	-0.999999	-7.1939981e-7	-7.1911655e-7	-1.325616e7	3.9901567e7	0	0.0007909208115688785
91.201084	4.7863009e-10	0.22	1.135912e10	4.9945158e8	-0.99999891	-7.8880626e-7	-7.8849567e-7	-1.2089762e7	3.6390661e7	0	0.0008611407253001175
91.201084	5.2480746e-10	0.22	1.0359641e10	4.5550525e8	-0.9999988	-8.6490906e-7	-8.6456851e-7	-1.1025994e7	3.3188677e7	0	0.0009487683247990531
91.201084	5.7543994e-10	0.22	9.4481048e9	4.1542573e8	-0.99999868	-9.4835374e-7	-9.4798034e-7	-1.0055826e7	3.0268433e7	0	0.0010442745763851278
91.201084	6.3095734e-10	0.22	8.616774e9	3.7887277e8	-0.99999856	-1.0398494e-6	-1.0394399e-6	-9.1710225e6	2.7605139e7	0	0.0011381173270596009
91.201084	6.9183097e-10	0.22	7.8585913e9	3.4553607e8	-0.99999842	-1.1401721e-6	-1.1397232e-6	-8.364072e6	2.5176186e7	0	0.0012489274789403602
91.201084	7.5857758e-10	0.22	7.1671204e9	3.1513264e8	-0.99999827	-1.2501737e-6	-1.2496815e-6	-7.6281244e6	2.2960955e7	0	0.0013671334196251686
91.201084	8.3176377e-10	0.22	6.5364915e9	2.8740439e8	-0.9999981	-1.3707883e-6	-1.3702486e-6	-6.9569323e6	2.0940639e7	0	0.0015019377818010554
91.201084	9.1201084e-10	0.22	5.9613511e9	2.6211592e8	-0.99999792	-1.5030395e-6	-1.5024476e-6	-6.3447977e6	1.909809e7	0	0.0016437334328813268
91.201084	1.e-9	0.22	5.4368168e9	2.3905256e8	-0.99999771	-1.64805e-6	-1.6474011e-6	-5.7865244e6	1.7417665e7	0	0.001811079633418159
91.201084	1.0964782e-9	0.22	4.9584359e9	2.1801852e8	-0.99999749	-1.8070509e-6	-1.8063394e-6	-5.277373e6	1.5885099e7	0	0.001984930768130733
91.201084	1.2022644e-9	0.22	4.5221473e9	1.9883526e8	-0.99999725	-1.981392e-6	-1.9806118e-6	-4.8130215e6	1.4487383e7	0	0.002174403584350372
91.201084	1.3182567e-9	0.22	4.1242473e9	1.8133991e8	-0.99999699	-2.1725531e-6	-2.1716977e-6	-4.3895279e6	1.321265e7	0	0.0023791922834131185
91.201084	1.4454398e-9	0.22	3.7613583e9	1.6538396e8	-0.9999967	-2.382157e-6	-2.3812191e-6	-4.0032971e6	1.205008e7	0	0.002608357244471002
91.201084	1.5848932e-9	0.22	3.4303995e9	1.5083197e8	-0.99999638	-2.6119832e-6	-2.6109548e-6	-3.6510504e6	1.0989803e7	0	0.002861530781673901
91.201084	1.7378008e-9	0.22	3.1285615e9	1.3756039e8	-0.99999603	-2.8639827e-6	-2.8628551e-6	-3.3297976e6	1.002282e7	0	0.003138309759579666
91.201084	1.9054607e-9	0.22	2.853282e9	1.2545656e8	-0.99999564	-3.1402946e-6	-3.1390581e-6	-3.0368116e6	9.1409201e6	0	0.0034476478771070435
91.201084	2.0892961e-9	0.22	2.6022241e9	1.1441775e8	-0.99999522	-3.4432646e-6	-3.4419089e-6	-2.7696052e6	8.3366181e6	0	0.003779664738170008
91.201084	2.2908677e-9	0.22	2.3732566e9	1.0435023e8	-0.99999476	-3.7754645e-6	-3.773978e-6	-2.5259101e6	7.603086e6	0	0.004143224662714692
91.201084	2.5118864e-9	0.22	2.1644358e9	9.5168537e7	-0.99999426	-4.1397145e-6	-4.1380845e-6	-2.3036574e6	6.9340967e6	0	0.0045377449304318945
91.201084	2.7542287e-9	0.22	1.9739889e9	8.6794737e7	-0.9999937	-4.5391067e-6	-4.5373195e-6	-2.1009606e6	6.3239713e6	0	0.004981377904516291
91.201084	3.0199517e-9	0.22	1.8002993e9	7.9157741e7	-0.9999931	-4.9770315e-6	-4.9750719e-6	-1.916099e6	5.7675303e6	0	0.005454631777410247
91.201084	3.3113112e-9	0.22	1.6418924e9	7.2192718e7	-0.99999243	-5.4572065e-6	-5.4550578e-6	-1.7475031e6	5.26005e6	0	0.005984925375411399
91.201084	3.6307805e-9	0.22	1.4974237e9	6.5840541e7	-0.9999917	-5.983708e-6	-5.981352e-6	-1.5937419e6	4.7972226e6	0	0.0065620207661857615
91.201084	3.9810717e-9	0.22	1.3656666e9	6.0047287e7	-0.9999909	-6.5610054e-6	-6.558422e-6	-1.45351e6	4.3751189e6	0	0.007194390151371987
91.201084	4.3651583e-9	0.22	1.2455028e9	5.4763777e7	-0.99999002	-7.1939993e-6	-7.1911668e-6	-1.3256169e6	3.9901558e6	0	0.007890416539670049
91.201084	4.7863009e-9	0.22	1.135912e9	4.9945158e7	-0.99998906	-7.8880634e-6	-7.8849576e-6	-1.2089771e6	3.6390652e6	0	0.008648989680634515
91.201084	5.2480746e-9	0.22	1.0359641e9	4.5550525e7	-0.999988	-8.6490896e-6	-8.6456841e-6	-1.1026003e6	3.3188668e6	0	0.009487683454381972
91.201084	5.7543994e-9	0.22	9.4481048e8	4.1542573e7	-0.99998684	-9.4835381e-6	-9.4798041e-6	-1.0055835e6	3.0268424e6	0	0.010405163005386622
91.201084	6.3095734e-9	0.22	8.616774e8	3.7887277e7	-0.99998558	-0.000010398493	-0.000010394398	-917103.15	2.760513e6	0	0.01139996478408187
91.201084	6.9183097e-9	0.22	7.8585913e8	3.4553607e7	-0.99998418	-0.00001140172	-0.000011397231	-836408.1	2.5176177e6	0	0.012508066303619654
91.201084	7.5857758e-9	0.22	7.1671204e8	3.1513264e7	-0.99998266	-0.000012501738	-0.000012496816	-762813.34	2.2960946e6	0	0.013708916603214587
91.201084	8.3176377e-9	0.22	6.5364915e8	2.8740439e7	-0.99998098	-0.000013707883	-0.000013702486	-695694.13	2.094063e6	0	0.015038169125000663
91.201084	9.1201084e-9	0.22	5.9613511e8	2.6211592e7	-0.99997915	-0.000015030395	-0.000015024477	-634480.67	1.9098081e6	0	0.016484312389427696
91.201084	1.e-8	0.22	5.4368168e8	2.3905256e7	-0.99997714	-0.0000164805	-0.000016474011	-578653.34	1.7417656e6	0	0.01807321372051431
91.201084	1.0964782e-8	0.22	4.9584359e8	2.1801852e7	-0.99997493	-0.000018070509	-0.000018063394	-527738.2	1.588509e6	0	0.019821120721187257
91.201084	1.2022644e-8	0.22	4.5221473e8	1.9883526e7	-0.99997251	-0.000019813919	-0.000019806117	-481303.05	1.4487374e6	0	0.021734640396243638
91.201084	1.3182567e-8	0.22	4.1242473e8	1.8133991e7	-0.99996986	-0.00002172553	-0.000021716976	-438953.69	1.3212641e6	0	0.02382950565460716
91.201084	1.4454398e-8	0.22	3.7613583e8	1.6538396e7	-0.99996696	-0.00002382157	-0.00002381219	-400330.61	1.2050071e6	0	0.026121155265081675
91.201084	1.5848932e-8	0.22	3.4303995e8	1.5083197e7	-0.99996377	-0.000026119832	-0.000026109547	-365105.94	1.0989794e6	0	0.02864349498408502
91.201084	1.7378008e-8	0.22	3.1285615e8	1.3756039e7	-0.99996027	-0.000028639826	-0.000028628549	-332980.66	1.0022811e6	0	0.03141128497005567
91.201084	1.9054607e-8	0.22	2.853282e8	1.2545656e7	-0.99995644	-0.000031402944	-0.00003139058	-303682.06	914091.11	0	0.03443889636348166
91.201084	2.0892961e-8	0.22	2.6022241e8	1.1441775e7	-0.99995224	-0.000034432643	-0.000034419086	-276961.42	833660.91	0	0.03775906538741575
91.201084	2.2908677e-8	0.22	2.3732566e8	1.0435023e7	-0.99994763	-0.000037754642	-0.000037739777	-252591.91	760307.7	0	0.041404060286618416
91.201084	2.5118864e-8	0.22	2.1644358e8	9.5168537e6	-0.99994258	-0.000041397142	-0.000041380842	-230366.64	693408.77	0	0.04539624123163081
91.201084	2.7542287e-8	0.22	1.9739889e8	8.6794737e6	-0.99993704	-0.000045391062	-0.00004537319	-210096.96	632396.23	0	0.04977619746449596
91.201084	3.0199517e-8	0.22	1.8002993e8	7.9157741e6	-0.99993096	-0.000049770309	-0.000049750713	-191610.8	576752.13	0	0.05458390162799602
91.201084	3.3113112e-8	0.22	1.6418924e8	7.2192718e6	-0.9999243	-0.000054572058	-0.000054550571	-174751.21	526004.1	0	0.05984925520146189
91.201084	3.6307805e-8	0.22	1.4974237e8	6.5840541e6	-0.999917	-0.00005983707	-0.00005981351	-159375.09	479721.36	0	0.06562020972931863
91.201084	3.9810717e-8	0.22	1.3656666e8	6.0047287e6	-0.99990899	-0.00006561004	-0.000065584207	-145351.9	437510.99	0	0.07195329985452828
91.201084	4.3651583e-8	0.22	1.2455028e8	5.4763777e6	-0.99990021	-0.000071939976	-0.00007191165	-132562.59	399014.68	0	0.07889477346424931
91.201084	4.7863009e-8	0.22	1.135912e8	4.9945158e6	-0.99989058	-0.000078880611	-0.000078849552	-120898.61	363905.62	0	0.086508693074136
91.201084	5.2480746e-8	0.22	1.0359641e8	4.5550526e6	-0.99988002	-0.000086490865	-0.00008645681	-110260.93	331885.78	0	0.09485804964456096
91.201084	5.7543994e-8	0.22	9.4481048e7	4.1542573e6	-0.99986845	-0.000094835341	-0.000094798001	-100559.25	302683.34	0	0.10400466005493111
91.201084	6.3095734e-8	0.22	8.616774e7	3.7887277e6	-0.99985576	-0.00010398487	-0.00010394393	-91711.215	276050.4	0	0.11403724079043501
91.201084	6.9183097e-8	0.22	7.8585913e7	3.4553607e6	-0.99984184	-0.00011401714	-0.00011397224	-83641.71	251760.87	0	0.12504309489152268
91.201084	7.5857758e-8	0.22	7.1671204e7	3.1513264e6	-0.99982658	-0.00012501729	-0.00012496806	-76282.234	229608.56	0	0.13710797800978228
91.201084	8.3176377e-8	0.22	6.5364915e7	2.8740439e6	-0.99980985	-0.00013707871	-0.00013702474	-69570.312	209405.4	0	0.15033473778721307
91.201084	9.1201084e-8	0.22	5.9613511e7	2.6211592e6	-0.9997915	-0.00015030379	-0.00015024461	-63448.967	190979.91	0	0.16484315696729024
91.201084	1.e-7	0.22	5.4368168e7	2.3905256e6	-0.99977139	-0.0001648048	-0.00016473991	-57866.234	174175.66	0	0.18074157419987866
91.201084	1.0964782e-7	0.22	4.9584359e7	2.1801852e6	-0.99974933	-0.00018070482	-0.00018063367	-52774.72	158850.	0	0.1981830760619343
91.201084	1.2022644e-7	0.22	4.5221473e7	1.9883526e6	-0.99972515	-0.00019813883	-0.00019806082	-48131.205	144872.84	0	0.21729949804133658
91.201084	1.3182567e-7	0.22	4.1242473e7	1.8133991e6	-0.99969863	-0.00021725483	-0.00021716929	-43896.269	132125.51	0	0.23826696673648717
91.201084	1.4454398e-7	0.22	3.7613583e7	1.6538396e6	-0.99966956	-0.00023821508	-0.00023812129	-40033.961	120499.81	0	0.261249261354154
91.201084	1.5848932e-7	0.22	3.4303995e7	1.5083197e6	-0.99963768	-0.0002611975	-0.00026109466	-36511.494	109897.04	0	0.2864539085786986
91.201084	1.7378008e-7	0.22	3.1285616e7	1.3756039e6	-0.99960272	-0.00028639719	-0.00028628442	-33298.966	100227.21	0	0.3140942795671457
91.201084	1.9054607e-7	0.22	2.8532821e7	1.2545657e6	-0.99956439	-0.00031402803	-0.00031390438	-30369.106	91408.213	0	0.34439865280805754
91.201084	2.0892961e-7	0.22	2.6022242e7	1.1441775e6	-0.99952237	-0.00034432457	-0.000344189	-27697.042	83365.193	0	0.37761922530525327
91.201084	2.2908677e-7	0.22	2.3732566e7	1.0435023e6	-0.99947628	-0.00037754397	-0.00037739531	-25260.09	76029.872	0	0.4140599026657331
91.201084	2.5118864e-7	0.22	2.1644358e7	951685.39	-0.99942576	-0.00041396818	-0.00041380518	-23037.564	69339.98	0	0.45400066465267847
91.201084	2.7542287e-7	0.22	1.9739889e7	867947.4	-0.99937036	-0.00045390635	-0.00045372763	-21010.596	63238.726	0	0.49780043988715117
91.201084	3.0199517e-7	0.22	1.8002993e7	791577.44	-0.99930961	-0.00049769746	-0.0004975015	-19161.979	57674.316	0	0.5458307843724727
91.201084	3.3113112e-7	0.22	1.6418925e7	721927.21	-0.999243	-0.00054571316	-0.00054549828	-17476.021	52599.514	0	0.5984940878280356
91.201084	3.6307805e-7	0.22	1.4974237e7	658405.45	-0.99916997	-0.00059836091	-0.00059812531	-15938.408	47971.24	0	0.656232307889053
91.201084	3.9810717e-7	0.22	1.3656667e7	600472.92	-0.99908989	-0.0006560875	-0.00065582917	-14536.089	43750.203	0	0.7195450606851891
91.201084	4.3651583e-7	0.22	1.2455028e7	547637.82	-0.99900209	-0.00071938275	-0.0007190995	-13257.159	39900.573	0	0.788960644270032
91.201084	4.7863009e-7	0.22	1.1359121e7	499451.63	-0.99890582	-0.0007887837	-0.00078847311	-12090.76	36389.668	0	0.8650727716791455
91.201084	5.2480746e-7	0.22	1.0359641e7	455505.31	-0.99880026	-0.0008648791	-0.00086453856	-11026.992	33187.684	0	0.9485302285717273
91.201084	5.7543994e-7	0.22	9.4481053e6	415425.79	-0.99868452	-0.00094831446	-0.00094794106	-10056.825	30267.441	0	1.0400358603780138
91.201084	6.3095734e-7	0.22	8.6167746e6	378872.84	-0.99855761	-0.0010397974	-0.001039388	-9172.0209	27604.148	0	1.1403736161852387
91.201084	6.9183097e-7	0.22	7.8585919e6	345536.15	-0.99841847	-0.0011401037	-0.0011396548	-8365.0704	25175.195	0	1.2503791525564902
91.201084	7.5857758e-7	0.22	7.1671211e6	315132.73	-0.9982659	-0.0012500837	-0.0012495914	-7629.1227	22959.964	0	1.3710042615934055
91.201084	8.3176377e-7	0.22	6.5364923e6	287404.48	-0.99809861	-0.0013706695	-0.0013701298	-6957.9305	20939.65	0	1.5032683341183681
91.201084	9.1201084e-7	0.22	5.9613519e6	262116.01	-0.9979152	-0.0015028829	-0.0015022911	-6345.7958	19097.102	0	1.6482756957818532
91.201084	1.e-6	0.22	5.4368177e6	239052.66	-0.9977141	-0.0016478436	-0.0016471947	-5787.5224	17416.678	0	1.8072700793037528
91.201084	1.0964782e-6	0.22	4.9584369e6	218018.64	-0.9974936	-0.0018067788	-0.0018060673	-5278.371	15884.113	0	1.9816045771734463
91.201084	1.2022644e-6	0.22	4.5221484e6	198835.39	-0.99725185	-0.0019810332	-0.0019802531	-4814.0193	14486.397	0	2.1727395332646333
91.201084	1.3182567e-6	0.22	4.1242485e6	181340.05	-0.9969868	-0.0021720802	-0.0021712248	-4390.5256	13211.666	0	2.3822966430090964
91.201084	1.4454398e-6	0.22	3.7613596e6	165384.12	-0.9966962	-0.0023815338	-0.0023805959	-4004.2947	12049.097	0	2.6120564109317153
91.201084	1.5848932e-6	0.22	3.4304009e6	150832.14	-0.99637759	-0.0026111618	-0.0026101333	-3652.0479	10988.823	0	2.863964941830013
91.201084	1.7378008e-6	0.22	3.1285631e6	137560.58	-0.9960283	-0.0028628999	-0.0028617722	-3330.795	10021.841	0	3.140130860878102
91.201084	1.9054607e-6	0.22	2.8532838e6	125456.77	-0.99564536	-0.0031388674	-0.003137631	-3037.8088	9139.943	0	3.44290679461308
91.201084	2.0892961e-6	0.22	2.602226e6	114417.97	-0.99522555	-0.0034413835	-0.0034400278	-2770.6022	8335.6431	0	3.7748389820458064
91.201084	2.2908677e-6	0.22	2.3732587e6	104350.47	-0.99476535	-0.0037729854	-0.0037714988	-2526.9069	7602.1133	0	4.138710449567259
91.201084	2.5118864e-6	0.22	2.164438e6	95168.809	-0.99426088	-0.0041364473	-0.0041348173	-2304.654	6933.1266	0	4.537593457486665
91.201084	2.7542287e-6	0.22	1.9739914e6	86795.036	-0.99370792	-0.004534801	-0.0045330138	-2101.957	6323.004	0	4.974826553966628
91.201084	3.0199517e-6	0.22	1.800302e6	79158.069	-0.99310185	-0.0049713578	-0.0049693981	-1917.0951	5766.566	0	5.45406638077706
91.201084	3.3113112e-6	0.22	1.6418954e6	72193.077	-0.99243761	-0.0054497306	-0.0054475818	-1748.4989	5259.0891	0	5.979320605060989
91.201084	3.6307805e-6	0.22	1.497427e6	65840.935	-0.9917097	-0.0059738583	-0.0059715022	-1594.7374	4796.2653	0	6.554942979099845
91.201084	3.9810717e-6	0.22	1.3656702e6	60047.719	-0.99091209	-0.0065480296	-0.0065454463	-1454.5051	4374.1656	0	7.185712940290024
91.201084	4.3651583e-6	0.22	1.2455067e6	54764.25	-0.99003823	-0.0071769079	-0.0071740753	-1326.6117	3989.2069	0	7.876821151231894
91.201084	4.7863009e-6	0.22	1.1359164e6	49945.677	-0.989081	-0.0078655544	-0.0078624486	-1209.9715	3638.1212	0	8.63391151709249
91.201084	5.2480746e-6	0.22	1.0359688e6	45551.094	-0.98803262	-0.0086194515	-0.008616046	-1103.5943	3317.928	0	9.463161157649632
91.201084	5.7543994e-6	0.22	944815.66	41543.196	-0.9868847	-0.0094445223	-0.0094407883	-1006.577	3025.9094	0	10.371229170914662
91.201084	6.3095734e-6	0.22	861683.07	37887.959	-0.98562813	-0.010347146	-0.010343052	-918.09609	2759.5863	0	11.365356946765852
91.201084	6.9183097e-6	0.22	785865.34	34554.354	-0.98425307	-0.011334169	-0.01132968	-837.40046	2516.6979	0	12.453375350866185
91.201084	7.5857758e-6	0.22	716718.85	31514.082	-0.98274894	-0.012412902	-0.01240798	-763.80506	2295.1823	0	13.643714451042525
91.201084	8.3176377e-6	0.22	653656.6	28741.334	-0.98110441	-0.013591113	-0.013585716	-696.68515	2093.159	0	14.945414669927532
91.201084	9.1201084e-6	0.22	596143.27	26212.572	-0.97930737	-0.014876993	-0.014871075	-635.47093	1908.913	0	16.368161855175213
91.201084	0.00001	0.22	543690.61	23906.328	-0.97734496	-0.016279111	-0.016272622	-579.64276	1740.8803	0	17.922268394197467
91.201084	0.000010964782	0.22	495853.35	21803.025	-0.97520364	-0.017806332	-0.017799217	-528.72671	1587.6344	0	19.618624601053153
91.201084	0.000012022644	0.22	452225.4	19884.808	-0.97286925	-0.019467707	-0.019459905	-482.29056	1447.8743	0	21.468665080008297
91.201084	0.000013182567	0.22	412436.39	18135.391	-0.97032713	-0.021272315	-0.021263761	-439.9401	1320.4136	0	23.484288016872565
91.201084	0.000014454398	0.22	376148.56	16539.925	-0.96756229	-0.02322906	-0.023219681	-401.31583	1204.1702	0	25.67773865410472
91.201084	0.000015848932	0.22	343053.84	15084.864	-0.96455964	-0.025346408	-0.025336123	-366.08986	1098.1574	0	28.061446727215582
91.201084	0.000017378008	0.22	312871.29	13757.856	-0.96130425	-0.027632059	-0.027620782	-333.96316	1001.4749	0	30.647849356699716
91.201084	0.000019054607	0.22	285344.69	12547.634	-0.95778175	-0.030092562	-0.030080197	-304.66301	913.30211	0	33.449096456715246
91.201084	0.000020892961	0.22	260240.34	11443.924	-0.9539787	-0.03273286	-0.032719303	-277.94068	832.8903	0	36.47679569946582
91.201084	0.000022908677	0.22	237345.13	10437.356	-0.94988306	-0.035555795	-0.035540929	-253.56933	759.55675	0	39.741674685082764
91.201084	0.000025118864	0.22	216464.69	9519.3821	-0.9454847	-0.038561569	-0.03854527	-231.34208	692.67876	0	43.25321090320825
91.201084	0.000027542287	0.22	197421.74	8682.2085	-0.94077593	-0.041747225	-0.041729353	-211.07025	631.68841	0	47.01924414349638
91.201084	0.000030199517	0.22	180054.62	7918.7261	-0.93575193	-0.045106153	-0.045086557	-192.58175	576.06771	0	51.0456717006145
91.201084	0.000033113112	0.22	164215.86	7222.4508	-0.93041117	-0.048627696	-0.048606209	-175.71965	525.34425	0	55.33613726536375
91.201084	0.000036307805	0.22	149771.	6587.4693	-0.92475571	-0.052296897	-0.052273337	-160.34082	479.08713	0	59.891800111055446
91.201084	0.000039810717	0.22	136597.38	6008.3877	-0.91879128	-0.056094431	-0.056068598	-146.31472	436.90334	0	64.71127481099856
91.201084	0.000043651583	0.22	124583.15	5480.2869	-0.91252723	-0.059996759	-0.059968434	-133.5223	398.43443	0	69.79064597088386
91.201084	0.000047863009	0.22	113626.28	4998.68	-0.90597628	-0.06397652	-0.063945462	-121.85498	363.35345	0	75.12362250541486
91.201084	0.000052480746	0.22	103633.73	4559.4747	-0.89915405	-0.068003146	-0.067969091	-111.21376	331.3622	0	80.70185169742116
91.201084	0.000057543994	0.22	94520.64	4158.9386	-0.8920785	-0.072043679	-0.072006338	-101.50831	302.18869	0	86.51527668368358
91.201084	0.000063095734	0.22	86209.617	3793.6677	-0.88476924	-0.076063735	-0.076022792	-92.65628	275.58485	0	92.5525854920054
91.201084	0.000069183097	0.22	78630.077	3460.5573	-0.87724685	-0.080028561	-0.079983668	-84.582558	251.32444	0	98.80163207923763
91.201084	0.000075857758	0.22	71717.644	3156.7758	-0.8695322	-0.08390412	-0.083854896	-77.218641	229.2011	0	105.24985013465023
91.201084	0.000083176377	0.22	65413.608	2879.7408	-0.86164585	-0.087658157	-0.087604184	-70.502056	209.02664	0	111.8845970923891
91.201084	0.000091201084	0.22	59664.426	2627.0971	-0.8536076	-0.091261187	-0.091202007	-64.375829	190.62943	0	118.69337250525534
91.201084	0.0001	0.22	54421.263	2396.697	-0.84543605	-0.094687367	-0.094622477	-58.787997	173.85294	0	125.66405162065068
91.201084	0.00010964782	0.22	49639.586	2186.5815	-0.8371484	-0.09791521	-0.09784406	-53.691174	158.55442	0	132.78492508660935
91.201084	0.00012022644	0.22	45278.777	1994.9644	-0.82876031	-0.10092811	-0.1008501	-49.042142	144.60369	0	140.04472217785386
91.201084	0.00013182567	0.22	41301.794	1820.2164	-0.82028581	-0.10371465	-0.10362911	-44.801489	131.88203	0	147.432635205702
91.201084	0.00014454398	0.22	37674.855	1660.8519	-0.81173735	-0.10626869	-0.1061749	-40.93327	120.28116	0	154.93824608164016
91.201084	0.00015848932	0.22	34367.15	1515.5159	-0.80312586	-0.10858917	-0.10848633	-37.404704	109.70235	0	162.5515209993826
91.201084	0.00017378008	0.22	31350.581	1382.9727	-0.79446085	-0.11067976	-0.110567	-34.185896	100.05555	0	170.26278055669349
91.201084	0.00019054607	0.22	28599.522	1262.0955	-0.78575052	-0.11254824	-0.11242459	-31.249582	91.258637	0	178.06273282808755
91.201084	0.00020892961	0.22	26090.602	1151.8565	-0.77700193	-0.11420579	-0.11407022	-28.570897	83.236722	0	185.94244592952163
91.201084	0.00022908677	0.22	23802.508	1051.3187	-0.76822108	-0.1156662	-0.11551755	-26.127166	75.921512	0	193.89345888710562
91.201084	0.00025118864	0.22	21715.802	959.62722	-0.7594131	-0.11694504	-0.11678204	-23.89771	69.250726	0	201.90775608092594
91.201084	0.00027542287	0.22	19812.757	876.00281	-0.7505823	-0.11805887	-0.11788014	-21.863668	63.167572	0	209.9778876973222
91.201084	0.00030199517	0.22	18077.206	799.73472	-0.74173234	-0.11902458	-0.11882861	-20.007841	57.620259	0	218.09695056175502
91.201084	0.00033113112	0.22	16494.405	730.17483	-0.73286627	-0.11985882	-0.11964395	-18.314545	52.561564	0	226.25866837768632
91.201084	0.00036307805	0.22	15050.909	666.73214	-0.72398666	-0.12057755	-0.12034195	-16.769474	47.948424	0	234.45736260005384
91.201084	0.00039810717	0.22	13734.455	608.86774	-0.71509565	-0.12119575	-0.12093742	-15.359584	43.741572	0	242.68796126718516
91.201084	0.00043651583	0.22	12533.861	556.0902	-0.70619502	-0.12172721	-0.12144395	-14.072976	39.905205	0	250.9459828402738
91.201084	0.00047863009	0.22	11438.929	507.9514	-0.69728625	-0.12218443	-0.12187385	-12.898802	36.406676	0	259.22749223172104
91.201084	0.00052480746	0.22	10440.358	464.04274	-0.68837057	-0.12257863	-0.12223809	-11.827165	33.216217	0	267.52906622913054
91.201084	0.00057543994	0.22	9529.6672	423.99162	-0.67944897	-0.12291977	-0.12254637	-10.849043	30.306684	0	275.8477696303489
91.201084	0.00063095734	0.22	8699.121	387.45827	-0.67052227	-0.1232166	-0.12280717	-9.956205	27.653329	0	284.18107913867243
91.201084	0.00069183097	0.22	7941.6656	354.13289	-0.66159114	-0.12347679	-0.12302786	-9.1411462	25.233582	0	292.52684183405785
91.201084	0.00075857758	0.22	7250.8684	323.73294	-0.65265611	-0.12370703	-0.12321479	-8.3970215	23.026866	0	300.8832471740757
91.201084	0.00083176377	0.22	6620.8624	296.00083	-0.6437176	-0.12391315	-0.12337342	-7.7175888	21.014417	0	309.2487719353807
91.201084	0.00091201084	0.22	6046.2977	270.70163	-0.63477593	-0.12410022	-0.12350842	-7.097155	19.179125	0	317.6221501476202
91.201084	0.001	0.22	5522.2949	247.62112	-0.62583132	-0.12427266	-0.12362376	-6.5305281	17.505389	0	326.0023544900405
91.201084	0.0010964782	0.22	5044.4044	226.56395	-0.61688396	-0.12443433	-0.12372283	-6.0129732	15.978981	0	334.3885057173871
91.201084	0.0012022644	0.22	4608.5682	207.35198	-0.60793392	-0.12458866	-0.12380852	-5.5401719	14.586928	0	342.7799406844359
91.201084	0.0013182567	0.22	4211.0853	189.82276	-0.59898124	-0.12473867	-0.12388326	-5.1081859	13.3174	0	351.176119516937
91.201084	0.0014454398	0.22	3848.5807	173.82815	-0.59002591	-0.12488708	-0.12394915	-4.7134235	12.159608	0	359.57661753135187
91.201084	0.0015848932	0.22	3517.9764	159.23306	-0.58106785	-0.12503637	-0.12400795	-4.3526091	11.103717	0	367.9811460932052
91.201084	0.0017378008	0.22	3216.4654	145.91429	-0.57210693	-0.12518882	-0.12406118	-4.0227551	10.140753	0	376.3895131553396
91.201084	0.0019054607	0.22	2941.4877	133.75948	-0.56314298	-0.12534658	-0.12411014	-3.7211371	9.2625367	0	384.8016097281742
91.201084	0.0020892961	0.22	2690.7086	122.66619	-0.55417576	-0.12551169	-0.12415597	-3.4452702	8.4616072	0	393.2174256644033
91.201084	0.0022908677	0.22	2461.9989	112.54097	-0.54520499	-0.12568614	-0.12419963	-3.1928883	7.7311611	0	401.63702560612296
91.201084	0.0025118864	0.22	2253.417	103.29861	-0.53623033	-0.12587189	-0.12424197	-2.9619247	7.064994	0	410.0605533068318
91.201084	0.0027542287	0.22	2063.1919	94.861407	-0.52725137	-0.12607092	-0.12428376	-2.7504942	6.4574477	0	418.488234825953
91.201084	0.0030199517	0.22	1889.7089	87.158487	-0.51826764	-0.12628525	-0.12432568	-2.5568779	5.9033622	0	426.9203712002246
91.201084	0.0033113112	0.22	1731.4952	80.12522	-0.50927857	-0.12651693	-0.12436832	-2.3795079	5.398032	0	435.3573760263139
91.201084	0.0036307805	0.22	1587.2076	73.702664	-0.50028354	-0.12676813	-0.12441225	-2.2169541	4.9371655	0	443.79971401324275
91.201084	0.0039810717	0.22	1455.6215	67.837064	-0.4912818	-0.12704111	-0.12445798	-2.0679124	4.5168491	0	452.24798441579156
91.201084	0.0043651583	0.22	1335.6199	62.479395	-0.48227252	-0.12733827	-0.12450596	-1.9311933	4.1335137	0	460.7028740562311
91.201084	0.0047863009	0.22	1226.1842	57.584947	-0.47325471	-0.12766216	-0.12455664	-1.8057119	3.7839042	0	469.1652200872883
91.201084	0.0052480746	0.22	1126.3857	53.112944	-0.46422729	-0.12801547	-0.12461042	-1.6904786	3.4650523	0	477.63595455779017
91.201084	0.0057543994	0.22	1035.3774	49.026199	-0.455189	-0.1284011	-0.12466762	-1.5845908	3.1742506	0	486.1161951746772
91.201084	0.0063095734	0.22	952.38727	45.290794	-0.44613841	-0.12882212	-0.12472857	-1.4872254	2.9090303	0	494.60721730395557
91.201084	0.0069183097	0.22	876.71106	41.875797	-0.43707389	-0.12928182	-0.12479349	-1.3976313	2.6671398	0	503.11050696218285
91.201084	0.0075857758	0.22	807.70686	38.752996	-0.42799364	-0.12978366	-0.12486253	-1.3151235	2.4465257	0	511.6277243613322
91.201084	0.0083176377	0.22	744.78946	35.896661	-0.41889558	-0.13033133	-0.12493569	-1.2390772	2.2453153	0	520.1608237973318
91.201084	0.0091201084	0.22	687.42539	33.283325	-0.40977741	-0.13092868	-0.12501286	-1.1689221	2.0618008	0	528.7119890079683
91.201084	0.01	0.22	635.12839	30.891583	-0.40063655	-0.13157973	-0.12509366	-1.1041382	1.8944247	0	537.2837226195077
91.201084	0.010964782	0.22	587.45532	28.701914	-0.39147016	-0.13228863	-0.12517744	-1.0442508	1.7417669	0	545.878827355389
91.201084	0.012022644	0.22	544.00235	26.696511	-0.3822751	-0.13305958	-0.12526317	-0.98882662	1.6025319	0	554.5004663563199
91.201084	0.013182567	0.22	504.40154	24.859133	-0.37304793	-0.13389673	-0.12534927	-0.93747038	1.4755388	0	563.1521983200196
91.201084	0.014454398	0.22	468.31771	23.174966	-0.36378493	-0.13480414	-0.12543352	-0.88982112	1.3597105	0	571.8379773133074
91.201084	0.015848932	0.22	435.4456	21.630496	-0.35448216	-0.13578554	-0.12551281	-0.84554927	1.2540649	0	580.5621480742745
91.201084	0.017378008	0.22	405.50719	20.213398	-0.3451354	-0.13684418	-0.12558293	-0.80435385	1.1577064	0	589.3295457941254
91.201084	0.019054607	0.22	378.24939	18.912427	-0.33574031	-0.13798259	-0.12563827	-0.76595985	1.0698186	0	598.1454077980337
91.201084	0.020892961	0.22	353.4418	17.717325	-0.32629241	-0.13920226	-0.12567144	-0.73011599	0.9896571	0	607.0154708841136
91.201084	0.022908677	0.22	330.87477	16.618733	-0.31678719	-0.1405033	-0.12567292	-0.69659251	0.91654322	0	615.9459403177626
91.201084	0.025118864	0.22	310.35757	15.608113	-0.30722017	-0.14188405	-0.12563057	-0.66517926	0.8498583	0	624.9435347428856
91.201084	0.027542287	0.22	291.71682	14.677674	-0.29758693	-0.14334061	-0.12552917	-0.63568395	0.78903844	0	634.0155530789475
91.201084	0.030199517	0.22	274.79502	13.820308	-0.28788313	-0.14486646	-0.1253499	-0.60793047	0.73356966	0	643.1699632159423
91.201084	0.033113112	0.22	259.44935	13.029525	-0.27810441	-0.14645194	-0.12506994	-0.58175743	0.68298359	0	652.415578652679
91.201084	0.036307805	0.22	245.55064	12.299405	-0.2682462	-0.148084	-0.12466201	-0.55701677	0.63685347	0	661.7623320982124
91.201084	0.039810717	0.22	232.98249	11.624542	-0.25830334	-0.14974597	-0.12409427	-0.53357245	0.59479058	0	671.2216531771113
91.201084	0.043651583	0.22	221.6407	10.999998	-0.24826952	-0.15141757	-0.1233303	-0.51129925	0.556441	0	680.806998720145
91.201084	0.047863009	0.22	211.43275	10.421266	-0.23813657	-0.15307529	-0.12232949	-0.49008157	0.52148269	0	690.5344392409728
91.201084	0.052480746	0.22	202.27748	9.8842257	-0.22789344	-0.15469314	-0.12104791	-0.46981234	0.48962289	0	700.4234374599939
91.201084	0.057543994	0.22	194.10477	9.3851129	-0.21752522	-0.15624386	-0.11943962	-0.4503919	0.4605958	0	710.4974982956563
91.201084	0.063095734	0.22	186.8551	8.9204839	-0.20701206	-0.15770059	-0.11745852	-0.43172692	0.4341605	0	720.784801191937
91.201084	0.069183097	0.22	180.47903	8.4871879	-0.19632826	-0.15903903	-0.11506075	-0.41372942	0.41009911	0	731.3185590323062
91.201084	0.075857758	0.22	174.93617	8.0823392	-0.18544179	-0.16023989	-0.11220742	-0.39631582	0.38821513	0	742.1369048281462
91.201084	0.083176377	0.22	170.19392	7.7032933	-0.17431413	-0.16129133	-0.10886745	-0.37940609	0.3683319	0	753.2824550087759
91.201084	0.091201084	0.22	166.22586	7.3476249	-0.16290082	-0.16219123	-0.10502025	-0.3629231	0.35029111	0	764.8012386927787
91.201084	0.1	0.22	163.01	7.013108	-0.15115223	-0.16294868	-0.10065775	-0.34679205	0.33395151	0	776.7415546127977
91.201084	0.10964782	0.22	160.52734	6.6977	-0.13901457	-0.16358469	-0.095785553	-0.33094016	0.31918758	0	789.152783824385
91.201084	0.12022644	0.22	158.76108	6.3995276	-0.12643046	-0.16413159	-0.090422928	-0.3152964	0.30588855	0	802.0848556006831
91.201084	0.13182567	0.22	157.69688	6.1168775	-0.11333862	-0.16463157	-0.084601804	-0.29979127	0.2939576	0	815.5887466422869
91.201084	0.14454398	0.22	157.32454	5.8481904	-0.099672235	-0.1651345	-0.078364983	-0.28435648	0.28331165	0	829.7183866473122
91.201084	0.15848932	0.22	157.64094	5.5920602	-0.085355662	-0.16569554	-0.071764008	-0.26892446	0.2738818	0	844.5341929938253
91.201084	0.17378008	0.22	158.65426	5.3472382	-0.070299614	-0.16637295	-0.064857064	-0.25342738	0.26561467	0	860.108029559056
91.201084	0.19054607	0.22	160.38873	5.1126428	-0.054395078	-0.1672264	-0.057707168	-0.2377959	0.2584746	0	876.5292952907784
91.201084	0.20892961	0.22	162.88949	4.8873736	-0.037506706	-0.16831576	-0.050380646	-0.2219573	0.25244693	0	893.9114486054752
91.201084	0.22908677	0.22	166.22649	4.6707295	-0.019466694	-0.16970021	-0.042945733	-0.20583325	0.24754191	0	912.3980478539737
91.201084	0.25118864	0.22	170.49641	4.4622257	-0.000070574998	-0.17143721	-0.035470932	-0.18933725	0.24379901	0	932.1670432766335
91.201084	0.27542287	0.22	175.8212	4.2616062	0.020923291	-0.17358093	-0.028022753	-0.17237207	0.24129059	0	953.4317235308769
91.201084	0.30199517	0.22	182.34177	4.0688423	0.043788581	-0.17617979	-0.020662471	-0.1548275	0.24012409	0	976.4365602379328
91.201084	0.33113112	0.22	190.20604	3.8841096	0.06881859	-0.1792728	-0.013441849	-0.13657907	0.24044101	0	1001.4464235765834
91.201084	0.36307805	0.22	199.55125	3.7077358	0.096306198	-0.18288521	-0.0063981684	-0.11748817	0.24241178	0	1028.7287872179763
91.201084	0.39810717	0.22	210.48272	3.5401192	0.12651818	-0.18702431	0.00045044317	-0.097404096	0.24622577	0	1058.5305566478914
91.201084	0.43651583	0.22	223.05341	3.3816301	0.15966861	-0.19167681	0.0071080061	-0.076168268	0.25207748	0	1091.053699411276
91.201084	0.47863009	0.22	237.24988	3.2325128	0.19589802	-0.19680907	0.013600665	-0.053620081	0.26015125	0	1126.4356587112175
91.201084	0.52480746	0.22	252.98912	3.0928162	0.2352641	-0.20237086	0.019973098	-0.029603683	0.27060768	0	1164.739873237785
91.201084	0.57543994	0.22	270.12757	2.9623666	0.2777462	-0.2083018	0.026282064	-0.0039744449	0.28357452	0	1205.9586732795642
91.201084	0.63095734	0.22	288.47932	2.8407837	0.32326128	-0.21453905	0.032588738	0.023395939	0.29914318	0	1250.0266824701544
91.201084	0.69183097	0.22	307.83811	2.7275285	0.37168584	-0.22102419	0.03895171	0.052616373	0.31737024	0	1296.8399752982787
91.201084	0.75857758	0.22	327.99773	2.6219629	0.42287774	-0.22770817	0.045421955	0.083775395	0.33828229	0	1346.2755387007062
91.201084	0.83176377	0.22	348.76759	2.523406	0.47669415	-0.23455384	0.052040172	0.11694199	0.36188223	0	1398.2075872199352
91.201084	0.91201084	0.22	369.98226	2.4311788	0.53300391	-0.24153637	0.058836222	0.15216765	0.38815564	0	1452.5190598640625
91.201084	1.	0.22	391.50578	2.3446346	0.59169463	-0.24864225	0.065830016	0.18948905	0.41707643	0	1509.1084745742505
91.201084	1.0964782	0.22	413.23216	2.2631772	0.65267579	-0.25586746	0.073033204	0.22893105	0.44861157	0	1567.8931900010105
91.201084	1.2022644	0.22	435.08337	2.1862687	0.715879	-0.26321543	0.080451127	0.27050948	0.48272471	0	1628.8100532781327
91.201084	1.3182567	0.22	457.00618	2.1134321	0.78125684	-0.27069505	0.088084695	0.31423378	0.51937896	0	1691.814698317704
91.201084	1.4454398	0.22	478.96845	2.0442486	0.84878083	-0.27831892	0.095932019	0.36010925	0.55853897	0	1756.8799758339876
91.201084	1.5848932	0.22	500.95558	1.9783539	0.91843918	-0.28610205	0.10398971	0.4081389	0.6001724	0	1823.9941078303737
91.201084	1.7378008	0.22	522.96715	1.9154324	0.99023462	-0.29406073	0.11225384	0.45832506	0.64425093	0	1893.1588473854745
91.201084	1.9054607	0.22	545.01404	1.8552119	1.0641824	-0.30221186	0.12072066	0.51067055	0.69075099	0	1964.3877479361688
91.201084	2.0892961	0.22	567.11596	1.7974579	1.1403086	-0.31057241	0.12938704	0.56517976	0.73965417	0	2037.704666362084
91.201084	2.2908677	0.22	589.29944	1.7419685	1.2186485	-0.31915907	0.13825075	0.62185933	0.79094753	0	2113.142289578008
91.201084	2.5118864	0.22	611.59613	1.6885697	1.2992456	-0.32798817	0.14731064	0.68071876	0.84462369	0	2190.741250966631
91.201084	2.7542287	0.22	634.04149	1.6371114	1.3821505	-0.33707548	0.15656666	0.74177087	0.90068088	0	2270.5490821994454
91.201084	3.0199517	0.22	656.67372	1.5874634	1.46742	-0.34643629	0.16601986	0.80503209	0.95912289	0	2352.6193676279267
91.201084	3.3113112	0.22	679.53293	1.5395127	1.5551166	-0.35608538	0.1756724	0.87052268	1.019959	0	2437.0112765679046
91.201084	3.6307805	0.22	702.66049	1.4931606	1.6453078	-0.3660371	0.18552744	0.93826692	1.083204	0	2523.7888828663354
91.201084	3.9810717	0.22	726.09853	1.4483204	1.7380662	-0.37630543	0.19558908	1.0082932	1.1488777	0	2613.021246455573
91.201084	4.3651583	0.22	749.88957	1.4049156	1.8334682	-0.38690406	0.20586231	1.0806339	1.2170053	0	2704.781181583201
91.201084	4.7863009	0.22	774.07628	1.3628781	1.9315947	-0.39784647	0.21635292	1.155326	1.2876169	0	2799.1458959043757
91.201084	5.2480746	0.22	798.70123	1.322147	2.0325305	-0.40914598	0.22706742	1.2324101	1.3607473	0	2896.1964102062725
91.201084	5.7543994	0.22	823.80682	1.2826674	2.1363641	-0.42081585	0.23801301	1.3119313	1.4364364	0	2996.01736429388
91.201084	6.3095734	0.22	849.43513	1.2443894	2.2431879	-0.43286931	0.24919751	1.3939389	1.5147284	0	3098.697190433766
91.201084	6.9183097	0.22	875.62796	1.2072675	2.3530976	-0.44531966	0.26062932	1.4784861	1.5956723	0	3204.3275413466936
91.201084	7.5857758	0.22	902.42674	1.1712597	2.466193	-0.45818029	0.27231738	1.5656302	1.6793212	0	3313.004033591722
91.201084	8.3176377	0.22	929.8726	1.136327	2.5825769	-0.47146474	0.28427112	1.6554328	1.765733	0	3424.825203709107
91.201084	9.1201084	0.22	958.00638	1.1024332	2.7023563	-0.48518675	0.29650046	1.7479592	1.8549694	0	3539.8936356987188
91.201084	10.	0.22	986.86865	1.0695444	2.8256413	-0.49936029	0.30901578	1.8432789	1.9470967	0	3658.314921297024