91.201084	1.e-12	0.3	5.4368168e12	2.3905256e11	-1.	-1.1823086e-9	-1.1814237e-9	-5.7865234e9	1.7417666e10	0	-3.330074316566385e-7
91.201084	1.0964782e-12	0.3	4.9584359e12	2.1801852e11	-1.	-1.2963757e-9	-1.2954054e-9	-5.277372e9	1.58851e10	0	-3.6513540841286696e-7
91.201084	1.2022644e-12	0.3	4.5221473e12	1.9883526e11	-1.	-1.4214479e-9	-1.4203841e-9	-4.8130205e9	1.4487384e10	0	-4.0036310521528047e-7
91.201084	1.3182567e-12	0.3	4.1242473e12	1.8133991e11	-1.	-1.5585864e-9	-1.55742e-9	-4.3895269e9	1.3212651e10	0	-4.3898936021909994e-7
91.201084	1.4454398e-12	0.3	3.7613583e12	1.6538396e11	-1.	-1.7089561e-9	-1.7076772e-9	-4.0032961e9	1.2050081e10	0	-4.81342297831506e-7
91.201084	1.5848932e-12	0.3	3.4303995e12	1.5083197e11	-1.	-1.8738329e-9	-1.8724305e-9	-3.6510494e9	1.0989804e10	0	-5.277812454249525e-7
91.201084	1.7378008e-12	0.3	3.1285615e12	1.3756039e11	-1.	-2.054617e-9	-2.0530794e-9	-3.3297966e9	1.0022821e10	0	-5.78700679511637e-7
91.201084	1.9054607e-12	0.3	2.853282e12	1.2545656e11	-1.	-2.2528426e-9	-2.2511565e-9	-3.0368106e9	9.1409211e9	0	-6.345325934481825e-7
91.201084	2.0892961e-12	0.3	2.6022241e12	1.1441775e11	-1.	-2.4701932e-9	-2.4683444e-9	-2.7696042e9	8.3366191e9	0	-6.957512610319619e-7
91.201084	2.2908677e-12	0.3	2.3732566e12	1.0435023e11	-1.	-2.7085129e-9	-2.7064858e-9	-2.5259091e9	7.603087e9	0	-7.628760833841089e-7
91.201084	2.5118864e-12	0.3	2.1644358e12	9.5168537e10	-0.99999999	-2.9698253e-9	-2.9676027e-9	-2.3036564e9	6.9340977e9	0	8.559176546364964e-6
91.201084	2.7542287e-12	0.3	1.9739889e12	8.6794737e10	-0.99999999	-3.2563488e-9	-3.2539116e-9	-2.1009597e9	6.3239723e9	0	8.478474769813979e-6
91.201084	3.0199517e-12	0.3	1.8002993e12	7.9157741e10	-0.99999999	-3.5705152e-9	-3.567843e-9	-1.916098e9	5.7675313e9	0	8.389987050098882e-6
91.201084	3.3113112e-12	0.3	1.6418924e12	7.2192718e10	-0.99999999	-3.9149923e-9	-3.9120621e-9	-1.7475021e9	5.260051e9	0	8.292962148348427e-6
91.201084	3.6307805e-12	0.3	1.4974237e12	6.5840541e10	-0.99999999	-4.2927037e-9	-4.289491e-9	-1.5937409e9	4.7972236e9	0	8.186576413389842e-6
91.201084	3.9810717e-12	0.3	1.3656666e12	6.0047287e10	-0.99999999	-4.7068561e-9	-4.7033335e-9	-1.453509e9	4.3751199e9	0	8.06992679138263e-6
91.201084	4.3651583e-12	0.3	1.2455028e12	5.4763777e10	-0.99999999	-5.160965e-9	-5.1571025e-9	-1.3256159e9	3.9901568e9	0	7.942023102591385e-6
91.201084	4.7863009e-12	0.3	1.135912e12	4.9945158e10	-0.99999999	-5.6588856e-9	-5.6546504e-9	-1.2089761e9	3.6390662e9	0	7.801779472549804e-6
91.201084	5.2480746e-12	0.3	1.0359641e12	4.5550525e10	-0.99999999	-6.2048448e-9	-6.200201e-9	-1.1025993e9	3.3188678e9	0	7.648005340420292e-6
91.201084	5.7543994e-12	0.3	9.4481048e11	4.1542573e10	-0.99999999	-6.8034772e-9	-6.7983853e-9	-1.0055825e9	3.0268434e9	0	7.47939536806209e-6
91.201084	6.3095734e-12	0.3	8.616774e11	3.7887277e10	-0.99999999	-7.4598645e-9	-7.4542813e-9	-9.1710215e8	2.760514e9	0	7.294518221621011e-6
91.201084	6.9183097e-12	0.3	7.8585913e11	3.4553607e10	-0.99999999	-8.1795789e-9	-8.1734572e-9	-8.364071e8	2.5176187e9	0	7.091804394762491e-6
91.201084	7.5857758e-12	0.3	7.1671204e11	3.1513264e10	-0.99999998	-8.9687302e-9	-8.9620177e-9	-7.6281234e8	2.2960956e9	0	0.000016265186601007074
91.201084	8.3176377e-12	0.3	6.5364915e11	2.8740439e10	-0.99999998	-9.8340174e-9	-9.8266574e-9	-6.9569313e8	2.094064e9	0	0.000016021470950300758
91.201084	9.1201084e-12	0.3	5.9613511e11	2.6211592e10	-0.99999998	-1.0782786e-8	-1.0774716e-8	-6.3447967e8	1.9098091e9	0	0.000015754242047201904
91.201084	1.e-11	0.3	5.4368168e11	2.3905256e10	-0.99999998	-1.182309e-8	-1.1814241e-8	-5.7865234e8	1.7417666e9	0	0.000015461231546064277
91.201084	1.0964782e-11	0.3	4.9584359e11	2.1801852e10	-0.99999998	-1.2963761e-8	-1.2954058e-8	-5.277372e8	1.58851e9	0	0.000015139951778501993
91.201084	1.2022644e-11	0.3	4.5221473e11	1.9883526e10	-0.99999998	-1.4214481e-8	-1.4203843e-8	-4.8130205e8	1.4487384e9	0	0.000014787675374217068
91.201084	1.3182567e-11	0.3	4.1242473e11	1.8133991e10	-0.99999997	-1.5585869e-8	-1.5574204e-8	-4.3895269e8	1.3212651e9	0	0.00002379706580765056
91.201084	1.4454398e-11	0.3	3.7613583e11	1.6538396e10	-0.99999997	-1.7089567e-8	-1.7076776e-8	-4.0032961e8	1.2050081e9	0	0.0000233735364315265
91.201084	1.5848932e-11	0.3	3.4303995e11	1.5083197e10	-0.99999997	-1.8738338e-8	-1.8724314e-8	-3.6510494e8	1.0989804e9	0	0.00002290914554624401
91.201084	1.7378008e-11	0.3	3.1285615e11	1.3756039e10	-0.99999996	-2.054618e-8	-2.0530803e-8	-3.3297967e8	1.0022821e9	0	0.000031795604648275354
91.201084	1.9054607e-11	0.3	2.853282e11	1.2545656e10	-0.99999996	-2.2528439e-8	-2.2511579e-8	-3.0368106e8	9.1409211e8	0	0.000031237284099561875
91.201084	2.0892961e-11	0.3	2.6022241e11	1.1441775e10	-0.99999996	-2.4701944e-8	-2.4683457e-8	-2.7696042e8	8.3366191e8	0	0.00003062509770559368
91.201084	2.2908677e-11	0.3	2.3732566e11	1.0435023e10	-0.99999995	-2.7085145e-8	-2.7064874e-8	-2.5259091e8	7.603087e8	0	0.000039349502183674296
91.201084	2.5118864e-11	0.3	2.1644358e11	9.5168537e9	-0.99999995	-2.9698272e-8	-2.9676046e-8	-2.3036565e8	6.9340977e8	0	0.000038613492163447235
91.201084	2.7542287e-11	0.3	1.9739889e11	8.6794737e9	-0.99999994	-3.256351e-8	-3.2539139e-8	-2.1009597e8	6.3239723e8	0	0.00004720212671335716
91.201084	3.0199517e-11	0.3	1.8002993e11	7.9157741e9	-0.99999994	-3.5705182e-8	-3.567846e-8	-1.916098e8	5.7675313e8	0	0.000046317247543118955
91.201084	3.3113112e-11	0.3	1.6418924e11	7.2192718e9	-0.99999993	-3.9149957e-8	-3.9120657e-8	-1.7475021e8	5.260051e8	0	0.00005474265038160767
91.201084	3.6307805e-11	0.3	1.4974237e11	6.5840541e9	-0.99999993	-4.2927079e-8	-4.2894951e-8	-1.5937409e8	4.7972236e8	0	0.0000536787916226738
91.201084	3.9810717e-11	0.3	1.3656666e11	6.0047287e9	-0.99999992	-4.7068611e-8	-4.7033384e-8	-1.453509e8	4.3751199e8	0	0.00006190794659054301
91.201084	4.3651583e-11	0.3	1.2455028e11	5.4763777e9	-0.99999991	-5.1609711e-8	-5.1571085e-8	-1.3256159e8	3.9901568e8	0	0.0000700245601492758
91.201084	4.7863009e-11	0.3	1.135912e11	4.9945158e9	-0.9999999	-5.6588831e-8	-5.6546478e-8	-1.2089761e8	3.6390662e8	0	0.00007801780153254424
91.201084	5.2480746e-11	0.3	1.0359641e11	4.5550525e9	-0.99999989	-6.2048417e-8	-6.2001979e-8	-1.1025993e8	3.3188678e8	0	0.00008587571516780803
91.201084	5.7543994e-11	0.3	9.4481048e10	4.1542573e9	-0.99999988	-6.8034735e-8	-6.7983816e-8	-1.0055825e8	3.0268434e8	0	0.00009358527068265455
91.201084	6.3095734e-11	0.3	8.616774e10	3.7887277e9	-0.99999987	-7.45986e-8	-7.4542769e-8	-9.1710216e7	2.760514e8	0	0.00010113215463422915
91.201084	6.9183097e-11	0.3	7.8585913e10	3.4553607e9	-0.99999986	-8.1795735e-8	-8.1734518e-8	-8.3640711e7	2.5176187e8	0	0.00010850067273155092
91.201084	7.5857758e-11	0.3	7.1671204e10	3.1513264e9	-0.99999984	-8.9687236e-8	-8.9620113e-8	-7.6281235e7	2.2960955e8	0	0.00012506927017382
91.201084	8.3176377e-11	0.3	6.5364915e10	2.8740439e9	-0.99999983	-9.8340094e-8	-9.8266495e-8	-6.9569314e7	2.094064e8	0	0.00013202777133769912
91.201084	9.1201084e-11	0.3	5.9613511e10	2.6211592e9	-0.99999981	-1.0782776e-7	-1.0774706e-7	-6.3447968e7	1.9098091e8	0	0.00014814679521608134
91.201084	1.e-10	0.3	5.4368168e10	2.3905256e9	-0.99999979	-1.1823078e-7	-1.181423e-7	-5.7865235e7	1.7417666e8	0	0.0001640080000135102
91.201084	1.0964782e-10	0.3	4.9584359e10	2.1801852e9	-0.99999978	-1.2963747e-7	-1.2954045e-7	-5.2773721e7	1.58851e8	0	0.0001701908615224904
91.201084	1.2022644e-10	0.3	4.5221473e10	1.9883526e9	-0.99999975	-1.4214469e-7	-1.4203831e-7	-4.8130206e7	1.4487383e8	0	0.00019485505519826506
91.201084	1.3182567e-10	0.3	4.1242473e10	1.8133991e9	-0.99999973	-1.5585765e-7	-1.5574101e-7	-4.389527e7	1.3212651e8	0	0.00020978398755194065
91.201084	1.4454398e-10	0.3	3.7613583e10	1.6538396e9	-0.9999997	-1.7089564e-7	-1.7076774e-7	-4.0032962e7	1.2050081e8	0	0.00023373536953540623
91.201084	1.5848932e-10	0.3	3.4303995e10	1.5083197e9	-0.99999967	-1.8738326e-7	-1.8724302e-7	-3.6510495e7	1.0989804e8	0	0.0002572784494068619
91.201084	1.7378008e-10	0.3	3.1285615e10	1.3756039e9	-0.99999964	-2.0546173e-7	-2.0530796e-7	-3.3297967e7	1.0022821e8	0	0.0002803734524420331
91.201084	1.9054607e-10	0.3	2.853282e10	1.2545656e9	-0.99999961	-2.2528415e-7	-2.2511555e-7	-3.0368107e7	9.140921e7	0	0.0003029772553057385
91.201084	2.0892961e-10	0.3	2.6022241e10	1.1441775e9	-0.99999957	-2.4701892e-7	-2.4683405e-7	-2.7696043e7	8.336619e7	0	0.00033443808437407684
91.201084	2.2908677e-10	0.3	2.3732566e10	1.0435023e9	-0.99999953	-2.7085115e-7	-2.7064844e-7	-2.5259092e7	7.6030869e7	0	0.00036530814565167904
91.201084	2.5118864e-10	0.3	2.1644358e10	9.5168537e8	-0.99999948	-2.9698278e-7	-2.9676051e-7	-2.3036565e7	6.9340976e7	0	0.000404926214218163
91.201084	2.7542287e-10	0.3	1.9739889e10	8.6794737e8	-0.99999943	-3.2563484e-7	-3.2539113e-7	-2.1009598e7	6.3239722e7	0	0.00044383438019528703
91.201084	3.0199517e-10	0.3	1.8002993e10	7.9157741e8	-0.99999938	-3.5705195e-7	-3.5678473e-7	-1.9160981e7	5.7675312e7	0	0.0004819637460911881
91.201084	3.3113112e-10	0.3	1.6418924e10	7.2192718e8	-0.99999932	-3.9149901e-7	-3.9120601e-7	-1.7475022e7	5.2600509e7	0	0.000528635354464321
91.201084	3.6307805e-10	0.3	1.4974237e10	6.5840541e8	-0.99999926	-4.2927051e-7	-4.2894923e-7	-1.593741e7	4.7972235e7	0	0.0005743706090261327
91.201084	3.9810717e-10	0.3	1.3656666e10	6.0047287e8	-0.99999918	-4.7068589e-7	-4.7033362e-7	-1.4535091e7	4.3751198e7	0	0.0006378708353241031
91.201084	4.3651583e-10	0.3	1.2455028e10	5.4763777e8	-0.9999991	-5.160965e-7	-5.1571024e-7	-1.325616e7	3.9901567e7	0	0.0007002457733289043
91.201084	4.7863009e-10	0.3	1.135912e10	4.9945158e8	-0.99999902	-5.6588861e-7	-5.6546508e-7	-1.2089762e7	3.6390661e7	0	0.0007613866242960153
91.201084	5.2480746e-10	0.3	1.0359641e10	4.5550525e8	-0.99999892	-6.2048444e-7	-6.2002006e-7	-1.1025994e7	3.3188677e7	0	0.0008399657685831777
91.201084	5.7543994e-10	0.3	9.4481048e9	4.1542573e8	-0.99999882	-6.8034761e-7	-6.7983842e-7	-1.0055826e7	3.0268433e7	0	0.000917061326133088
91.201084	6.3095734e-10	0.3	8.616774e9	3.7887277e8	-0.99999871	-7.4598623e-7	-7.4542792e-7	-9.1710225e6	2.7605139e7	0	0.001001925828173697
91.201084	6.9183097e-10	0.3	7.8585913e9	3.4553607e8	-0.99999858	-8.1795777e-7	-8.1734559e-7	-8.364072e6	2.5176186e7	0	0.001103797918426142
91.201084	7.5857758e-10	0.3	7.1671204e9	3.1513264e8	-0.99999844	-8.9687285e-7	-8.9620161e-7	-7.6281244e6	2.2960955e7	0	0.0012131099521476335
91.201084	8.3176377e-10	0.3	6.5364915e9	2.8740439e8	-0.99999829	-9.8340152e-7	-9.8266552e-7	-6.9569323e6	2.0940639e7	0	0.0013296732065714652
91.201084	9.1201084e-10	0.3	5.9613511e9	2.6211592e8	-0.99999813	-1.0782783e-6	-1.0774713e-6	-6.3447977e6	1.909809e7	0	0.001453280794732021
91.201084	1.e-9	0.3	5.4368168e9	2.3905256e8	-0.99999795	-1.1823087e-6	-1.1814238e-6	-5.7865244e6	1.7417665e7	0	0.0015931015076335528
91.201084	1.0964782e-9	0.3	4.9584359e9	2.1801852e8	-0.99999775	-1.2963756e-6	-1.2954054e-6	-5.277373e6	1.5885099e7	0	0.0017488866290696883
91.201084	1.2022644e-9	0.3	4.5221473e9	1.9883526e8	-0.99999753	-1.4214476e-6	-1.4203838e-6	-4.8130215e6	1.4487383e7	0	0.001920363393823669
91.201084	1.3182567e-9	0.3	4.1242473e9	1.8133991e8	-0.9999973	-1.5585863e-6	-1.5574198e-6	-4.3895279e6	1.321265e7	0	0.0020978371411756124
91.201084	1.4454398e-9	0.3	3.7613583e9	1.6538396e8	-0.99999703	-1.7089559e-6	-1.7076769e-6	-4.0032971e6	1.205008e7	0	0.002309166876273109
91.201084	1.5848932e-9	0.3	3.4303995e9	1.5083197e8	-0.99999675	-1.8738329e-6	-1.8724305e-6	-3.6510504e6	1.0989803e7	0	0.002525806142084621
91.201084	1.7378008e-9	0.3	3.1285615e9	1.3756039e8	-0.99999643	-2.0546169e-6	-2.0530792e-6	-3.3297976e6	1.002282e7	0	0.0027755476763179155
91.201084	1.9054607e-9	0.3	2.853282e9	1.2545656e8	-0.99999609	-2.2528427e-6	-2.2511566e-6	-3.0368116e6	9.1409201e6	0	0.003039167896860968
91.201084	2.0892961e-9	0.3	2.6022241e9	1.1441775e8	-0.99999571	-2.4701929e-6	-2.4683441e-6	-2.7696052e6	8.3366181e6	0	0.003334984175045729
91.201084	2.2908677e-9	0.3	2.3732566e9	1.0435023e8	-0.9999953	-2.7085127e-6	-2.7064855e-6	-2.5259101e6	7.603086e6	0	0.003653081146147287
91.201084	2.5118864e-9	0.3	2.1644358e9	9.5168537e7	-0.99999485	-2.9698251e-6	-2.9676024e-6	-2.3036574e6	6.9340967e6	0	0.004002284636223699
91.201084	2.7542287e-9	0.3	1.9739889e9	8.6794737e7	-0.99999435	-3.2563484e-6	-3.2539113e-6	-2.1009606e6	6.3239713e6	0	0.0043913655346340666
91.201084	3.0199517e-9	0.3	1.8002993e9	7.9157741e7	-0.9999938	-3.570515e-6	-3.5678428e-6	-1.916099e6	5.7675303e6	0	0.004819638729220791
91.201084	3.3113112e-9	0.3	1.6418924e9	7.2192718e7	-0.99999321	-3.9149919e-6	-3.9120618e-6	-1.7475031e6	5.26005e6	0	0.005276957412230608
91.201084	3.6307805e-9	0.3	1.4974237e9	6.5840541e7	-0.99999255	-4.2927033e-6	-4.2894906e-6	-1.5937419e6	4.7972226e6	0	0.005790684836445521
91.201084	3.9810717e-9	0.3	1.3656666e9	6.0047287e7	-0.99999183	-4.7068556e-6	-4.7033328e-6	-1.45351e6	4.3751189e6	0	0.006350522350956057
91.201084	4.3651583e-9	0.3	1.2455028e9	5.4763777e7	-0.99999104	-5.1609645e-6	-5.1571019e-6	-1.3256169e6	3.9901558e6	0	0.006964875260452255
91.201084	4.7863009e-9	0.3	1.135912e9	4.9945158e7	-0.99999018	-5.658885e-6	-5.6546498e-6	-1.2089771e6	3.6390652e6	0	0.007632657831506929
91.201084	5.2480746e-9	0.3	1.0359641e9	4.5550525e7	-0.99998923	-6.2048439e-6	-6.2002e-6	-1.1026003e6	3.3188668e6	0	0.008371470894624845
91.201084	5.7543994e-9	0.3	9.4481048e8	4.1542573e7	-0.99998819	-6.803476e-6	-6.7983842e-6	-1.0055835e6	3.0268424e6	0	0.009180008914356528
91.201084	6.3095734e-9	0.3	8.616774e8	3.7887277e7	-0.99998705	-7.4598634e-6	-7.4542803e-6	-917103.15	2.760513e6	0	0.010066236238790582
91.201084	6.9183097e-9	0.3	7.8585913e8	3.4553607e7	-0.9999858	-8.1795776e-6	-8.1734558e-6	-836408.1	2.5176177e6	0	0.011037979212135441
91.201084	7.5857758e-9	0.3	7.1671204e8	3.1513264e7	-0.99998444	-8.9687285e-6	-8.9620161e-6	-762813.34	2.2960946e6	0	0.012093516907913366
91.201084	8.3176377e-9	0.3	6.5364915e8	2.8740439e7	-0.99998293	-9.8340153e-6	-9.8266553e-6	-695694.12	2.094063e6	0	0.013268545076573117
91.201084	9.1201084e-9	0.3	5.9613511e8	2.6211592e7	-0.99998129	-0.000010782783	-0.000010774713	-634480.67	1.9098081e6	0	0.014542203601180359
91.201084	1.e-8	0.3	5.4368168e8	2.3905256e7	-0.99997948	-0.000011823086	-0.000011814238	-578653.34	1.7417656e6	0	0.015949806383534264
91.201084	1.0964782e-8	0.3	4.9584359e8	2.1801852e7	-0.9999775	-0.000012963756	-0.000012954054	-527738.2	1.588509e6	0	0.017488866290905514
91.201084	1.2022644e-8	0.3	4.5221473e8	1.9883526e7	-0.99997533	-0.000014214476	-0.000014203838	-481303.05	1.4487374e6	0	0.019175446977907996
91.201084	1.3182567e-8	0.3	4.1242473e8	1.8133991e7	-0.99997295	-0.000015585863	-0.000015574198	-438953.69	1.3212641e6	0	0.02102534967907493
91.201084	1.4454398e-8	0.3	3.7613583e8	1.6538396e7	-0.99997034	-0.000017089559	-0.000017076769	-400330.61	1.2050071e6	0	0.023054086148333618
91.201084	1.5848932e-8	0.3	3.4303995e8	1.5083197e7	-0.99996748	-0.000018738328	-0.000018724304	-365105.94	1.0989794e6	0	0.02527685300960161
91.201084	1.7378008e-8	0.3	3.1285615e8	1.3756039e7	-0.99996434	-0.000020546168	-0.000020530791	-332980.66	1.0022811e6	0	0.027717894431485788
91.201084	1.9054607e-8	0.3	2.853282e8	1.2545656e7	-0.9999609	-0.000022528426	-0.000022511565	-303682.06	914091.11	0	0.030391679250479288
91.201084	2.0892961e-8	0.3	2.6022241e8	1.1441775e7	-0.99995713	-0.000024701927	-0.00002468344	-276961.42	833660.91	0	0.033321655071685254
91.201084	2.2908677e-8	0.3	2.3732566e8	1.0435023e7	-0.999953	-0.000027085124	-0.000027064853	-252591.91	760307.7	0	0.03653081202552502
91.201084	2.5118864e-8	0.3	2.1644358e8	9.5168537e6	-0.99994846	-0.000029698248	-0.000029676021	-230366.64	693408.77	0	0.040060429821721706
91.201084	2.7542287e-8	0.3	1.9739889e8	8.6794737e6	-0.99994349	-0.000032563481	-0.00003253911	-210096.96	632396.23	0	0.043923051845705316
91.201084	3.0199517e-8	0.3	1.8002993e8	7.9157741e6	-0.99993804	-0.000035705146	-0.000035678423	-191610.8	576752.13	0	0.048158806087992966
91.201084	3.3113112e-8	0.3	1.6418924e8	7.2192718e6	-0.99993206	-0.000039149913	-0.000039120613	-174751.21	526004.1	0	0.05280715814532138
91.201084	3.6307805e-8	0.3	1.4974237e8	6.5840541e6	-0.9999255	-0.000042927025	-0.000042894898	-159375.09	479721.36	0	0.057906850619203434
91.201084	3.9810717e-8	0.3	1.3656666e8	6.0047287e6	-0.99991832	-0.000047068546	-0.000047033318	-145351.9	437510.99	0	0.06348643502147512
91.201084	4.3651583e-8	0.3	1.2455028e8	5.4763777e6	-0.99991044	-0.000051609632	-0.000051571006	-132562.59	399014.68	0	0.06961117365536874
91.201084	4.7863009e-8	0.3	1.135912e8	4.9945158e6	-0.99990179	-0.000056588833	-0.000056546481	-120898.61	363905.62	0	0.07633597875987823
91.201084	5.2480746e-8	0.3	1.0359641e8	4.5550526e6	-0.99989232	-0.000062048419	-0.00006200198	-110260.93	331885.78	0	0.08369592327623321
91.201084	5.7543994e-8	0.3	9.4481048e7	4.1542573e6	-0.99988193	-0.000068034734	-0.000067983815	-100559.25	302683.34	0	0.09177190979402887
91.201084	6.3095734e-8	0.3	8.616774e7	3.7887277e6	-0.99987054	-0.000074598596	-0.000074542765	-91711.215	276050.4	0	0.10062479048486628
91.201084	6.9183097e-8	0.3	7.8585913e7	3.4553607e6	-0.99985805	-0.000081795726	-0.000081734509	-83641.71	251760.87	0	0.11033282766575056
91.201084	7.5857758e-8	0.3	7.1671204e7	3.1513264e6	-0.99984435	-0.00008968722	-0.000089620096	-76282.234	229608.56	0	0.12098216566787248
91.201084	8.3176377e-8	0.3	6.5364915e7	2.8740439e6	-0.99982934	-0.000098340068	-0.000098266468	-69570.312	209405.4	0	0.13264789211108466
91.201084	9.1201084e-8	0.3	5.9613511e7	2.6211592e6	-0.99981287	-0.00010782772	-0.00010774702	-63448.967	190979.91	0	0.14545025397820605
91.201084	1.e-7	0.3	5.4368168e7	2.3905256e6	-0.99979482	-0.00011823072	-0.00011814224	-57866.234	174175.66	0	0.15947931199041018
91.201084	1.0964782e-7	0.3	4.9584359e7	2.1801852e6	-0.99977502	-0.00012963738	-0.00012954035	-52774.72	158850.	0	0.17486992515697702
91.201084	1.2022644e-7	0.3	4.5221473e7	1.9883526e6	-0.99975332	-0.00014214452	-0.00014203813	-48131.205	144872.84	0	0.19173574894001266
91.201084	1.3182567e-7	0.3	4.1242473e7	1.8133991e6	-0.99972952	-0.00015585831	-0.00015574166	-43896.269	132125.51	0	0.21023479568171985
91.201084	1.4454398e-7	0.3	3.7613583e7	1.6538396e6	-0.99970342	-0.00017089517	-0.00017076726	-40033.961	120499.81	0	0.230522191379859
91.201084	1.5848932e-7	0.3	3.4303995e7	1.5083197e6	-0.99967481	-0.00018738273	-0.00018724249	-36511.494	109897.04	0	0.25275928947096027
91.201084	1.7378008e-7	0.3	3.1285616e7	1.3756039e6	-0.99964344	-0.00020546095	-0.00020530718	-33298.966	100227.21	0	0.2771415674656893
91.201084	1.9054607e-7	0.3	2.8532821e7	1.2545657e6	-0.99960904	-0.00022528329	-0.00022511468	-30369.106	91408.213	0	0.3038794833047468
91.201084	2.0892961e-7	0.3	2.6022242e7	1.1441775e6	-0.99957132	-0.000247018	-0.00024683313	-27697.042	83365.193	0	0.3331981173839479
91.201084	2.2908677e-7	0.3	2.3732566e7	1.0435023e6	-0.99952996	-0.00027084957	-0.00027064685	-25260.09	76029.872	0	0.36534617640995815
91.201084	2.5118864e-7	0.3	2.1644358e7	951685.39	-0.99948461	-0.00029698027	-0.000296758	-23037.564	69339.98	0	0.4005955254959142
91.201084	2.7542287e-7	0.3	1.9739889e7	867947.4	-0.99943489	-0.00032563189	-0.00032538818	-21010.596	63238.726	0	0.43924073717026424
91.201084	3.0199517e-7	0.3	1.8002993e7	791577.44	-0.99938037	-0.00035704762	-0.00035678039	-19161.979	57674.316	0	0.48161733021943715
91.201084	3.3113112e-7	0.3	1.6418925e7	721927.21	-0.99932059	-0.00039149407	-0.00039120106	-17476.021	52599.514	0	0.5280824061857627
91.201084	3.6307805e-7	0.3	1.4974237e7	658405.45	-0.99925504	-0.00042926357	-0.0004289423	-15938.408	47971.239	0	0.5790328064672241
91.201084	3.9810717e-7	0.3	1.3656667e7	600472.91	-0.99918317	-0.00047067665	-0.00047032438	-14536.089	43750.203	0	0.6348950176280213
91.201084	4.3651583e-7	0.3	1.2455028e7	547637.81	-0.99910437	-0.00051608471	-0.00051569846	-13257.159	39900.572	0	0.6961431932012256
91.201084	4.7863009e-7	0.3	1.1359121e7	499451.63	-0.99901796	-0.00056587304	-0.00056544951	-12090.76	36389.667	0	0.7633077262828727
91.201084	5.2480746e-7	0.3	1.0359641e7	455505.31	-0.99892322	-0.00062046402	-0.00061999963	-11026.993	33187.684	0	0.8369461267647532
91.201084	5.7543994e-7	0.3	9.4481053e6	415425.79	-0.99881934	-0.00068032075	-0.00067981156	-10056.825	30267.44	0	0.917689010239314
91.201084	6.3095734e-7	0.3	8.6167745e6	378872.83	-0.99870544	-0.00074595091	-0.0007453926	-9172.021	27604.147	0	1.006220201764025
91.201084	6.9183097e-7	0.3	7.8585918e6	345536.14	-0.99858055	-0.00081791106	-0.00081729888	-8365.0704	25175.194	0	1.103294323584947
91.201084	7.5857758e-7	0.3	7.167121e6	315132.72	-0.99844361	-0.0008968113	-0.00089614006	-7629.1228	22959.963	0	1.2097354703495888
91.201084	8.3176377e-7	0.3	6.5364922e6	287404.47	-0.99829347	-0.00098332039	-0.00098258439	-6957.9305	20939.649	0	1.3264357828470188
91.201084	9.1201084e-7	0.3	5.9613518e6	262116.	-0.99812885	-0.0010781714	-0.0010773644	-6345.7959	19097.1	0	1.4543914267834788
91.201084	1.e-6	0.3	5.4368176e6	239052.65	-0.99794835	-0.0011821677	-0.0011812829	-5787.5225	17416.676	0	1.5946915059112081
91.201084	1.0964782e-6	0.3	4.9584368e6	218018.63	-0.99775044	-0.0012961899	-0.0012952196	-5278.3711	15884.111	0	1.7485255917057267
91.201084	1.2022644e-6	0.3	4.5221482e6	198835.37	-0.99753345	-0.0014212028	-0.0014201389	-4814.0195	14486.396	0	1.9171909232543243
91.201084	1.3182567e-6	0.3	4.1242484e6	181340.03	-0.99729554	-0.0015582636	-0.0015570971	-4390.5257	13211.664	0	2.1021185619373726
91.201084	1.4454398e-6	0.3	3.7613594e6	165384.1	-0.9970347	-0.0017085305	-0.0017072514	-4004.2949	12049.095	0	2.3048708546012544
91.201084	1.5848932e-6	0.3	3.4304008e6	150832.12	-0.99674871	-0.0018732721	-0.0018718697	-3652.0481	10988.82	0	2.527176253851048
91.201084	1.7378008e-6	0.3	3.1285629e6	137560.55	-0.99643517	-0.0020538777	-0.00205234	-3330.7952	10021.838	0	2.7708984815147653
91.201084	1.9054607e-6	0.3	2.8532836e6	125456.75	-0.99609142	-0.0022518683	-0.0022501822	-3037.809	9139.9404	0	3.038108367811016
91.201084	2.0892961e-6	0.3	2.6022258e6	114417.95	-0.99571456	-0.0024689086	-0.0024670599	-2770.6024	8335.6403	0	3.3310617339796353
91.201084	2.2908677e-6	0.3	2.3732585e6	104350.44	-0.99530142	-0.00270682	-0.0027047928	-2526.9071	7602.1102	0	3.6522240840601636
91.201084	2.5118864e-6	0.3	2.1644378e6	95168.777	-0.99484851	-0.0029675942	-0.0029653715	-2304.6543	6933.1232	0	4.004313411488276
91.201084	2.7542287e-6	0.3	1.9739911e6	86795.001	-0.99435204	-0.0032534084	-0.0032509712	-2101.9573	6323.0002	0	4.39027754617563
91.201084	3.0199517e-6	0.3	1.8003017e6	79158.03	-0.99380784	-0.0035666406	-0.0035639683	-1917.0954	5766.5619	0	4.813364640702481
91.201084	3.3113112e-6	0.3	1.6418951e6	72193.035	-0.99321136	-0.0039098864	-0.0039069563	-1748.4993	5259.0846	0	5.27711868859075
91.201084	3.6307805e-6	0.3	1.4974266e6	65840.889	-0.99255763	-0.0042859761	-0.0042827633	-1594.7378	4796.2604	0	5.785412174200032
91.201084	3.9810717e-6	0.3	1.3656698e6	60047.668	-0.99184121	-0.0046979924	-0.0046944697	-1454.5056	4374.1603	0	6.342488061903003
91.201084	4.3651583e-6	0.3	1.2455063e6	54764.195	-0.99105619	-0.0051492886	-0.005145426	-1326.6122	3989.201	0	6.952954778806766
91.201084	4.7863009e-6	0.3	1.1359158e6	49945.616	-0.9901961	-0.0056435059	-0.0056392707	-1209.972	3638.1147	0	7.621865730167904
91.201084	5.2480746e-6	0.3	1.0359683e6	45551.027	-0.98925391	-0.0061845904	-0.0061799466	-1103.5948	3317.921	0	8.354714704918445
91.201084	5.7543994e-6	0.3	944815.05	41543.123	-0.98822199	-0.0067768083	-0.0067717165	-1006.5776	3025.9017	0	9.157469032926521
91.201084	6.3095734e-6	0.3	861682.41	37887.879	-0.98709202	-0.0074247581	-0.007419175	-918.0968	2759.5779	0	10.036650819817163
91.201084	6.9183097e-6	0.3	785864.62	34554.267	-0.98585505	-0.0081333786	-0.0081272569	-837.40124	2516.6887	0	10.999278205346016
91.201084	7.5857758e-6	0.3	716718.06	31513.987	-0.98450135	-0.0089079507	-0.0089012383	-763.80592	2295.1722	0	12.053005988145578
91.201084	8.3176377e-6	0.3	653655.74	28741.231	-0.98302048	-0.0097540904	-0.0097467305	-696.68608	2093.148	0	13.206061575555571
91.201084	9.1201084e-6	0.3	596142.33	26212.459	-0.98140123	-0.01067773	-0.01066966	-635.47195	1908.901	0	14.467306994935186
91.201084	0.00001	0.3	543689.58	23906.205	-0.97963164	-0.011685085	-0.011676236	-579.64388	1740.8672	0	15.846229263119195
91.201084	0.000010964782	0.3	495852.23	21802.891	-0.97769896	-0.012782596	-0.012772893	-528.72793	1587.6201	0	17.35299414834673
91.201084	0.000012022644	0.3	452224.18	19884.662	-0.97558978	-0.013976852	-0.013966213	-482.29189	1447.8588	0	18.99834595622117
91.201084	0.000013182567	0.3	412435.07	18135.233	-0.97329004	-0.015274477	-0.015262812	-439.94156	1320.3968	0	20.79363012625677
91.201084	0.000014454398	0.3	376147.13	16539.754	-0.97078514	-0.016681979	-0.016669188	-401.31742	1204.152	0	22.750732723870215
91.201084	0.000015848932	0.3	343052.3	15084.679	-0.96806016	-0.018205551	-0.018191527	-366.0916	1098.1377	0	24.88192841870721
91.201084	0.000017378008	0.3	312869.63	13757.656	-0.96509998	-0.01985083	-0.019835453	-333.96506	1001.4537	0	27.19983820420096
91.201084	0.000019054607	0.3	285342.9	12547.42	-0.96188964	-0.021622589	-0.021605728	-304.66507	913.27927	0	29.717175714928565
91.201084	0.000020892961	0.3	260238.42	11443.695	-0.95841464	-0.023524378	-0.023505891	-277.94293	832.86583	0	32.44656711193296
91.201084	0.000022908677	0.3	237343.09	10437.112	-0.95466133	-0.025558121	-0.02553785	-253.57178	759.53064	0	35.400299655035276
91.201084	0.000025118864	0.3	216462.52	9519.1235	-0.95061742	-0.027723663	-0.027701436	-231.34473	692.65102	0	38.589968238350174
91.201084	0.000027542287	0.3	197419.45	8681.9359	-0.9462724	-0.03001831	-0.029993939	-211.07312	631.65908	0	42.02621156033589
91.201084	0.000030199517	0.3	180052.2	7918.4404	-0.94161812	-0.032436383	-0.032409661	-192.58485	576.03688	0	45.71829317160409
91.201084	0.000033113112	0.3	164213.34	7222.1535	-0.93664924	-0.034968832	-0.034939531	-175.72299	525.31204	0	49.673787190310684
91.201084	0.000036307805	0.3	149768.39	6587.1621	-0.93136363	-0.037602962	-0.037570835	-160.34441	479.05371	0	53.89827858080932
91.201084	0.000039810717	0.3	136594.69	6008.0729	-0.92576272	-0.040322329	-0.040287102	-146.31857	436.86893	0	58.39506643891325
91.201084	0.000043651583	0.3	124580.4	5479.9671	-0.9198516	-0.043106843	-0.043068217	-133.52642	398.39927	0	63.16503818409572
91.201084	0.000047863009	0.3	113623.49	4998.3582	-0.91363902	-0.04593312	-0.045890768	-121.85938	363.31782	0	68.20657175073637
91.201084	0.000052480746	0.3	103630.93	4559.1541	-0.90713715	-0.048775099	-0.04872866	-111.21843	331.32642	0	73.51558801586825
91.201084	0.000057543994	0.3	94517.853	4158.6227	-0.90036115	-0.051604889	-0.051553971	-101.51325	302.15308	0	79.08571353189599
91.201084	0.000063095734	0.3	86206.871	3793.3598	-0.89332864	-0.054393823	-0.054337992	-92.661494	275.54976	0	84.90848535184283
91.201084	0.000069183097	0.3	78627.397	3460.2608	-0.88605899	-0.057113614	-0.057052396	-84.588038	251.29018	0	90.97368861517992
91.201084	0.000075857758	0.3	71715.055	3156.4938	-0.87857269	-0.059737553	-0.059670429	-77.224379	229.16799	0	97.2696127672979
91.201084	0.000083176377	0.3	65411.132	2879.476	-0.87089061	-0.062241625	-0.062168025	-70.508043	208.99496	0	103.78343255325635
91.201084	0.000091201084	0.3	59662.081	2626.852	-0.86303343	-0.064605462	-0.064524761	-64.382051	190.59942	0	110.50147438456007
91.201084	0.0001	0.3	54419.065	2396.4734	-0.85502111	-0.066813052	-0.066724566	-58.794443	173.82479	0	117.40951446324505
91.201084	0.00010964782	0.3	49637.545	2186.3808	-0.84687249	-0.068853161	-0.068756138	-53.697827	158.52828	0	124.49303706839302
91.201084	0.00012022644	0.3	45276.901	1994.7872	-0.83860506	-0.070719431	-0.070613046	-49.048988	144.57965	0	131.73742190546216
91.201084	0.00013182567	0.3	41300.086	1820.0631	-0.83023474	-0.072410188	-0.07229354	-44.80851	131.86013	0	139.12820436588933
91.201084	0.00014454398	0.3	37673.314	1660.7221	-0.82177586	-0.073927997	-0.073800095	-40.940451	120.26139	0	146.6512228509365
91.201084	0.00015848932	0.3	34365.772	1515.4089	-0.81324115	-0.075279019	-0.075138777	-37.412028	109.68465	0	154.29280687267445
91.201084	0.00017378008	0.3	31349.359	1382.8875	-0.80464178	-0.076472263	-0.076318491	-34.193347	100.03983	0	162.03995143731095
91.201084	0.00019054607	0.3	28598.446	1262.0306	-0.79598752	-0.077518799	-0.077350191	-31.257145	91.244777	0	169.8803893917235
91.201084	0.00020892961	0.3	26089.661	1151.8105	-0.7872868	-0.078431006	-0.078246131	-28.578559	83.224589	0	177.80274616987177
91.201084	0.00022908677	0.3	23801.691	1051.2897	-0.77854685	-0.079221896	-0.079019185	-26.134915	75.910956	0	185.7965999249805
91.201084	0.00025118864	0.3	21715.097	959.61373	-0.76977388	-0.079904557	-0.079682289	-23.905532	69.241594	0	193.85246969101613
91.201084	0.00027542287	0.3	19812.151	876.00307	-0.76097314	-0.08049171	-0.080247998	-21.871555	63.15971	0	201.96188387700013
91.201084	0.00030199517	0.3	18076.688	799.74712	-0.75214911	-0.0809954	-0.080728176	-20.015783	57.613521	0	210.11728912917104
91.201084	0.00033113112	0.3	16493.964	730.19786	-0.74330555	-0.08142679	-0.081133784	-18.322534	52.555811	0	218.31206310907217
91.201084	0.00036307805	0.3	15050.535	666.76442	-0.73444563	-0.081796045	-0.08147477	-16.777503	47.943528	0	226.54042335571367
91.201084	0.00039810717	0.3	13734.14	608.908	-0.72557203	-0.082112296	-0.081760026	-15.367646	43.737418	0	234.7973454494297
91.201084	0.00043651583	0.3	12533.596	556.13733	-0.71668698	-0.082383654	-0.081997397	-14.081067	39.901689	0	243.0785228924388
91.201084	0.00047863009	0.3	11438.706	508.00441	-0.70779234	-0.082617255	-0.082193732	-12.906916	36.403707	0	251.3802775682651
91.201084	0.00052480746	0.3	10440.172	464.10077	-0.69888967	-0.082819335	-0.082354952	-11.8353	33.213715	0	259.6994748050315
91.201084	0.00057543994	0.3	9529.5116	424.05392	-0.68998028	-0.082995318	-0.082486132	-10.857194	30.30458	0	268.0334532838841
91.201084	0.00063095734	0.3	8698.9917	387.5242	-0.68106524	-0.083149903	-0.082591593	-9.9643703	27.651563	0	276.37998971133516
91.201084	0.00069183097	0.3	7941.5587	354.20189	-0.67214543	-0.083287156	-0.082674981	-9.149323	25.232103	0	284.737229573297
91.201084	0.00075857758	0.3	7250.7803	323.80456	-0.66322161	-0.083410593	-0.082739357	-8.4052079	23.025631	0	293.10359599724245
91.201084	0.00083176377	0.3	6620.7904	296.07467	-0.65429436	-0.083523261	-0.082787267	-7.725783	21.01339	0	301.47782639525445
91.201084	0.00091201084	0.3	6046.2393	270.77735	-0.64536419	-0.08362781	-0.08282081	-7.1053555	19.178275	0	309.8588499447034
91.201084	0.001	0.3	5522.2482	247.69845	-0.63643149	-0.083726558	-0.082841701	-6.5387338	17.504689	0	318.2458168087304
91.201084	0.0010964782	0.3	5044.3676	226.64266	-0.62749657	-0.083821547	-0.082851322	-6.021183	15.978411	0	326.63804617828265
91.201084	0.0012022644	0.3	4608.5398	207.43187	-0.61855968	-0.083914596	-0.082850768	-5.5483849	14.586469	0	335.0349945148054
91.201084	0.0013182567	0.3	4211.0643	189.90368	-0.609621	-0.084007342	-0.082840881	-5.1164013	13.317038	0	343.436255362328
91.201084	0.0014454398	0.3	3848.5661	173.90996	-0.60068065	-0.084101284	-0.082822288	-4.7216406	12.159332	0	351.8415392407662
91.201084	0.0015848932	0.3	3517.9675	159.31566	-0.59173873	-0.084197812	-0.082795426	-4.3608273	11.103516	0	360.2506290165677
91.201084	0.0017378008	0.3	3216.4615	145.99759	-0.58279526	-0.08429824	-0.082760561	-4.0309739	10.14062	0	368.66343092111055
91.201084	0.0019054607	0.3	2941.4883	133.84343	-0.57385021	-0.084403832	-0.082717809	-3.7293561	9.2624659	0	377.079940444481
91.201084	0.0020892961	0.3	2690.7134	122.75072	-0.56490355	-0.084515826	-0.08266715	-3.453489	8.4615939	0	385.5001914110317
91.201084	0.0022908677	0.3	2462.0076	112.62605	-0.55595516	-0.084635453	-0.082608435	-3.2011064	7.7312021	0	393.92433856717577
91.201084	0.0025118864	0.3	2253.4294	103.38422	-0.54700491	-0.084763959	-0.082541397	-2.9701417	7.0650872	0	402.35257931559335
91.201084	0.0027542287	0.3	2063.2081	94.947533	-0.53805258	-0.08490262	-0.082465656	-2.7587099	6.4575921	0	410.7852274711111
91.201084	0.0030199517	0.3	1889.7287	87.245121	-0.52909793	-0.085052761	-0.082380718	-2.5650918	5.9035577	0	419.222647772998
91.201084	0.0033113112	0.3	1731.5186	80.212365	-0.52014065	-0.08521577	-0.082285977	-2.3877197	5.3982791	0	427.6653022994934
91.201084	0.0036307805	0.3	1587.2348	73.79033	-0.51118036	-0.085393108	-0.082180715	-2.2251634	4.9374657	0	436.11375046780637
91.201084	0.0039810717	0.3	1455.6527	67.925269	-0.5022166	-0.085586331	-0.082064091	-2.0761189	4.5172045	0	444.5686615303359
91.201084	0.0043651583	0.3	1335.6552	62.568165	-0.49324883	-0.085797094	-0.081935139	-1.9393965	4.1339272	0	453.03081513840937
91.201084	0.0047863009	0.3	1226.224	57.674314	-0.4842764	-0.086027169	-0.081792756	-1.8139114	3.7843793	0	461.5011329116786
91.201084	0.0052480746	0.3	1126.4305	53.202946	-0.47529856	-0.08627845	-0.08163569	-1.6986739	3.4655931	0	469.98067242490157
91.201084	0.0057543994	0.3	1035.4276	49.11688	-0.4663144	-0.086552969	-0.081462522	-1.5927815	3.1748621	0	478.47068865551614
91.201084	0.0063095734	0.3	952.44345	45.382207	-0.4573229	-0.086852896	-0.081271646	-1.4954108	2.9097181	0	486.97259264276516
91.201084	0.0069183097	0.3	876.77393	41.968002	-0.44832282	-0.087180547	-0.081061243	-1.4058109	2.6679102	0	495.48806216849385
91.201084	0.0075857758	0.3	807.7773	38.846058	-0.43931277	-0.087538389	-0.080829251	-1.3232966	2.4473859	0	504.01898444366464
91.201084	0.0083176377	0.3	744.86852	35.990655	-0.4302911	-0.087929028	-0.080573323	-1.247243	2.2462732	0	512.5675712990675
91.201084	0.0091201084	0.3	687.51433	33.378333	-0.42125592	-0.088355206	-0.080290783	-1.1770797	2.0628654	0	521.1363527962773
91.201084	0.01	0.3	635.22877	30.987696	-0.41220508	-0.088819778	-0.079978562	-1.1122866	1.8956058	0	529.728214058614
91.201084	0.010964782	0.3	587.56902	28.799231	-0.4031361	-0.089325686	-0.079633129	-1.0523886	1.7430754	0	538.3464804897209
91.201084	0.012022644	0.3	544.13169	26.795142	-0.39404617	-0.089875912	-0.079250398	-0.99695258	1.6039799	0	546.9949439874378
91.201084	0.013182567	0.3	504.54938	24.959199	-0.38493212	-0.090473416	-0.07882562	-0.94558278	1.4771396	0	555.6779215726779
91.201084	0.014454398	0.3	468.4876	23.276598	-0.37579037	-0.091121052	-0.078353248	-0.89791797	1.3614789	0	564.4003404200935
91.201084	0.015848932	0.3	435.64189	21.733838	-0.36661697	-0.091821459	-0.077826772	-0.85362822	1.256017	0	573.1677467839455
91.201084	0.017378008	0.3	405.73529	20.318605	-0.35740752	-0.09257691	-0.077238529	-0.81241204	1.1598603	0	581.9864347185569
91.201084	0.019054607	0.3	378.51595	19.019667	-0.3481572	-0.093389137	-0.076579465	-0.77399386	1.0721941	0	590.8634849763187
91.201084	0.020892961	0.3	353.75503	17.826781	-0.33886076	-0.094259109	-0.075838876	-0.73812166	0.99227608	0	599.80684740757
91.201084	0.022908677	0.3	331.2447	16.730602	-0.32951255	-0.095186768	-0.075004097	-0.70456478	0.91942979	0	608.8254004350857
91.201084	0.025118864	0.3	310.79644	15.722606	-0.32010649	-0.096170734	-0.074060177	-0.673112	0.85303908	0	617.9290708486583
91.201084	0.027542287	0.3	292.23936	14.795016	-0.31063609	-0.097207977	-0.072989534	-0.6435697	0.79254275	0	627.1289122588043
91.201084	0.030199517	0.3	275.41883	13.940738	-0.30109441	-0.098293486	-0.071771616	-0.61576019	0.73742975	0	636.4372382331749
91.201084	0.033113112	0.3	260.19516	13.153295	-0.291474	-0.09941996	-0.070382621	-0.5895202	0.68723484	0	645.8677575939653
91.201084	0.036307805	0.3	246.44248	12.426779	-0.28176676	-0.10057757	-0.068795303	-0.56469949	0.64153456	0	655.4357606397687
91.201084	0.039810717	0.3	234.04771	11.755791	-0.27196369	-0.10175383	-0.066978951	-0.54115948	0.59994359	0	665.1583599561741
91.201084	0.043651583	0.3	222.90971	11.135402	-0.26205455	-0.10293369	-0.064899602	-0.51877213	0.56211138	0	675.0547498297603
91.201084	0.047863009	0.3	212.93851	10.561102	-0.25202742	-0.10409985	-0.062520573	-0.49741873	0.5277191	0	685.1464697022193
91.201084	0.052480746	0.3	204.05459	10.028769	-0.24186809	-0.10523344	-0.059803369	-0.47698888	0.4964768	0	695.4577213676192
91.201084	0.057543994	0.3	196.18815	9.5346244	-0.23155943	-0.106315	-0.056709027	-0.45737949	0.46812088	0	706.0155820658251
91.201084	0.063095734	0.3	189.27837	9.0752029	-0.22108081	-0.10732585	-0.053199855	-0.43849389	0.44241168	0	716.8500592591591
91.201084	0.069183097	0.3	183.27248	8.6473212	-0.21040756	-0.10824969	-0.049241507	-0.42024093	0.4191313	0	727.9940131182593
91.201084	0.075857758	0.3	178.1247	8.2480489	-0.19951072	-0.10907436	-0.044805223	-0.40253431	0.39808164	0	739.482760025501
91.201084	0.083176377	0.3	173.79506	7.8746836	-0.18835701	-0.10979343	-0.039870005	-0.3852919	0.37908248	0	751.3534874136985
91.201084	0.091201084	0.3	170.2481	7.5247285	-0.17690916	-0.11040761	-0.034424446	-0.36843529	0.36196989	0	763.6444281700301
91.201084	0.1	0.3	167.45184	7.1958734	-0.16512627	-0.11092542	-0.028467958	-0.35188933	0.34659478	0	776.3941762566387
91.201084	0.10964782	0.3	165.37699	6.88598	-0.15296417	-0.11136335	-0.022011206	-0.33558189	0.33282169	0	789.6412261356968
91.201084	0.12022644	0.3	163.99701	6.5930707	-0.14037526	-0.11174525	-0.015075718	-0.31944358	0.32052807	0	803.4242330290076
91.201084	0.13182567	0.3	163.28899	6.3153228	-0.12730757	-0.11210116	-0.0076927476	-0.30340745	0.30960397	0	817.7832167079238
91.201084	0.14454398	0.3	163.23569	6.0510671	-0.1137027	-0.1124659	0.000098350934	-0.28740852	0.29995231	0	832.7619550174729
91.201084	0.15848932	0.3	163.82863	5.7987919	-0.099492308	-0.1128776	0.0082519772	-0.27138312	0.29149003	0	848.4118063655052
91.201084	0.17378008	0.3	165.07208	5.557151	-0.084593403	-0.11337641	0.0167181	-0.2552678	0.28414992	0	864.7966439459644
91.201084	0.19054607	0.3	166.98771	5.3249784	-0.06890239	-0.11400358	0.025443876	-0.23899791	0.27788344	0	881.9989071016023
91.201084	0.20892961	0.3	169.61926	5.1013048	-0.052288619	-0.11480077	0.034375048	-0.2225056	0.27266435	0	900.1260565898643
91.201084	0.22908677	0.3	173.03643	4.8853783	-0.034588212	-0.11580946	0.043457215	-0.20571751	0.26849304	0	919.3167325127959
91.201084	0.25118864	0.3	177.33706	4.6766842	-0.015599489	-0.11707029	0.052637204	-0.18855205	0.26540112	0	939.7454385576782
91.201084	0.27542287	0.3	182.64626	4.4749597	0.0049182646	-0.11862178	0.061864839	-0.1709167	0.26345562	0	961.6241987326102
91.201084	0.30199517	0.3	189.11082	4.2801968	0.027240652	-0.12049842	0.071095353	-0.15270554	0.26276167	0	985.1993417980536
91.201084	0.33113112	0.3	196.88794	4.0926233	0.051666767	-0.12272773	0.080292572	-0.13379762	0.26346233	0	1010.7416895737974
91.201084	0.36307805	0.3	206.12774	3.9126542	0.078499712	-0.12532681	0.089432615	-0.11405678	0.26573405	0	1038.5292952443463
91.201084	0.39810717	0.3	216.95133	3.7408108	0.10802048	-0.1282989	0.098507387	-0.093333363	0.26977709	0	1068.82388836164
91.201084	0.43651583	0.3	229.42859	3.5776143	0.14045966	-0.13163129	0.10752672	-0.071468198	0.27580121	0	1101.8448937021265
91.201084	0.47863009	0.3	243.56143	3.4234747	0.17597388	-0.13529557	0.11651802	-0.048298483	0.28400901	0	1137.74719842584
91.201084	0.52480746	0.3	259.2781	3.278602	0.21463362	-0.13925089	0.12552299	-0.023664852	0.29458024	0	1176.6087779067861
91.201084	0.57543994	0.3	276.4406	3.1429608	0.25642588	-0.14344946	0.13459194	0.002581671	0.30766043	0	1218.4315986552415
91.201084	0.63095734	0.3	294.86275	3.0162745	0.30126971	-0.14784301	0.14377726	0.030573992	0.32335566	0	1263.1543700047307
91.201084	0.69183097	0.3	314.33349	2.8980699	0.34903907	-0.15238831	0.15312771	0.060425355	0.34173321	0	1310.672413100479
91.201084	0.75857758	0.3	334.63915	2.7877401	0.3995864	-0.15705087	0.16268467	0.092228018	0.36282646	0	1360.8587494436952
91.201084	0.83176377	0.3	355.58078	2.6846097	0.45276217	-0.16180641	0.17248048	0.1260539	0.38664176	0	1413.5820014906199
91.201084	0.91201084	0.3	376.98512	2.587989	0.50842854	-0.16664053	0.18253867	0.16195662	0.41316575	0	1468.7192919452143
91.201084	1.	0.3	398.70968	2.4972119	0.56646716	-0.1715474	0.19287526	0.19997428	0.44237193	0	1526.1639387993782
91.201084	1.0964782	0.3	420.64348	2.4116605	0.62678253	-0.17652786	0.20350043	0.24013258	0.47422599	0	1585.829082994765
91.201084	1.2022644	0.3	442.705	2.3307769	0.68930235	-0.18158761	0.21442038	0.28244782	0.50869008	0	1647.648541548122
91.201084	1.3182567	0.3	464.83887	2.2540671	0.75397616	-0.18673562	0.22563882	0.32692961	0.54572584	0	1711.575949728122
91.201084	1.4454398	0.3	487.01183	2.1810995	0.82077314	-0.19198282	0.23715821	0.37358323	0.58529669	0	1777.5830435299058
91.201084	1.5848932	0.3	509.20893	2.1115004	0.88967968	-0.19734119	0.24898065	0.42241165	0.62736932	0	1845.6576273952312
91.201084	1.7378008	0.3	531.42992	2.0449486	0.96069709	-0.2028231	0.2611085	0.47341713	0.67191479	0	1915.8015973669737
91.201084	1.9054607	0.3	553.68622	1.9811684	1.0338394	-0.20844092	0.27354476	0.52660247	0.71890916	0	1988.0289811558093
91.201084	2.0892961	0.3	575.9983	1.9199237	1.1091317	-0.2142067	0.28629333	0.58197208	0.76833392	0	2062.3644517478297
91.201084	2.2908677	0.3	598.3935	1.8610124	1.1866083	-0.22013211	0.29935912	0.63953273	0.8201762	0	2138.8416296099526
91.201084	2.5118864	0.3	620.90439	1.804261	1.2663119	-0.22622835	0.31274805	0.6992941	0.87442887	0	2217.502302850685
91.201084	2.7542287	0.3	643.56731	1.74952	1.348292	-0.23250618	0.32646711	0.76126932	0.93109052	0	2298.3949502233913
91.201084	3.0199517	0.3	666.4213	1.6966604	1.4326047	-0.23897592	0.34052427	0.82547516	0.99016542	0	2381.5745278449576
91.201084	3.3113112	0.3	689.50729	1.6455701	1.5193115	-0.24564752	0.35492847	0.89193235	1.0516634	0	2467.1013388986785
91.201084	3.6307805	0.3	712.86739	1.596151	1.6084792	-0.25253062	0.36968954	0.9606657	1.1155998	0	2555.040917128152
91.201084	3.9810717	0.3	736.54444	1.5483172	1.7001791	-0.25963461	0.38481816	1.0317042	1.1819952	0	2645.4632639102115
91.201084	4.3651583	0.3	760.58163	1.5019922	1.7944869	-0.2669687	0.4003258	1.1050809	1.2508753	0	2738.4427373862236
91.201084	4.7863009	0.3	785.02221	1.4571081	1.8914824	-0.27454196	0.41622467	1.1808334	1.322271	0	2834.0577564989953
91.201084	5.2480746	0.3	809.90935	1.4136037	1.9912493	-0.28236338	0.43252771	1.2590033	1.3962181	0	2932.390610261009
91.201084	5.7543994	0.3	835.28594	1.3714237	2.0938751	-0.29044192	0.44924852	1.3396365	1.4727569	0	3033.5273440670194
91.201084	6.3095734	0.3	861.1946	1.3305175	2.1994509	-0.29878655	0.46640135	1.422783	1.5519328	0	3137.5575689622815
91.201084	6.9183097	0.3	887.67759	1.2908387	2.3080715	-0.30740632	0.48400107	1.5084971	1.6337953	0	3244.574547143002
91.201084	7.5857758	0.3	914.7768	1.2523444	2.4198351	-0.31631033	0.50206318	1.5968371	1.7183988	0	3354.6749129054283
91.201084	8.3176377	0.3	942.5338	1.2149945	2.5348437	-0.32550785	0.52060376	1.6878654	1.8058017	0	3467.9590343785094
91.201084	9.1201084	0.3	970.98985	1.1787515	2.6532026	-0.33500825	0.53963948	1.7816487	1.8960669	0	3584.530546559916
91.201084	10.	0.3	1000.186	1.1435802	2.775021	-0.34482112	0.55918759	1.8782574	1.9892616	0	3704.496912236552